732324.732821.+	732324	732821	+	H37Rv	735552.736049.+	735552	736049	+	F11
515373.515834.-	515834	515373	-	H37Rv	518543.519004.-	519004	518543	-	F11
444826.445254.+	444826	445254	+	H37Rv	447994.448422.+	447994	448422	+	F11
2671593.2675834.-	2675834	2671593	-	H37Rv	2684888.2689129.-	2689129	2684888	-	F11
2294531.2302723.-	2302723	2294531	-	H37Rv	2309143.2317335.-	2317335	2309143	-	F11
1759435.1760178.+	1759435	1760178	+	H37Rv	1764073.1764816.+	1764073	1764816	+	F11
2562599.2563114.+	2562599	2563114	+	H37Rv	2573387.2573902.+	2573387	2573902	+	F11
3811719.3812345.+	3811719	3812345	+	H37Rv	3822836.3823462.+	3822836	3823462	+	F11
3452925.3454343.+	3452925	3454343	+	H37Rv	3464689.3466107.+	3464689	3466107	+	F11
1612342.1612941.-	1612941	1612342	-	H37Rv	1616683.1617303.-	1617303	1616683	-	F11
2469387.2470463.-	2470463	2469387	-	H37Rv	2481533.2482609.-	2482609	2481533	-	F11
1108172.1108525.-	1108525	1108172	-	H37Rv	1111940.1112293.-	1112293	1111940	-	F11
1283056.1284129.-	1284129	1283056	-	H37Rv	1286820.1287893.-	1287893	1286820	-	F11
710584.710817.-	710817	710584	-	H37Rv	713812.714045.-	714045	713812	-	F11
3044375.3044995.-	3044995	3044375	-	H37Rv	3056330.3056950.-	3056950	3056330	-	F11
4070514.4071239.+	4070514	4071239	+	H37Rv	4083517.4084242.+	4083517	4084242	+	F11
1060808.1061218.-	1061218	1060808	-	H37Rv	1064634.1065044.-	1065044	1064634	-	F11
103710.104573.-	104573	103710	-	H37Rv	1783832.1784698.-	1784698	1783832	-	F11
3884054.3884917.+	3884054	3884917	+	H37Rv	1783832.1784698.-	1784698	1783832	-	F11
2138444.2138617.-	2138617	2138444	-	H37Rv	2146660.2146833.-	2146833	2146660	-	F11
1339352.1340524.+	1339352	1340524	+	H37Rv	1343117.1344289.+	1343117	1344289	+	F11
1532443.1533630.-	1533630	1532443	-	H37Rv	1343117.1344289.+	1343117	1344289	+	F11
3894429.3895607.+	3894429	3895607	+	H37Rv	1343117.1344289.+	1343117	1344289	+	F11
3609781.3610371.-	3610371	3609781	-	H37Rv	3621559.3622149.-	3622149	3621559	-	F11
1261922.1262158.+	1261922	1262158	+	H37Rv	1265689.1265925.+	1265689	1265925	+	F11
1190757.1192166.-	1192166	1190757	-	H37Rv	1194527.1195936.-	1195936	1194527	-	F11
742719.746366.+	742719	746366	+	H37Rv	746480.750127.+	746480	750127	+	F11
4045207.4046118.-	4046118	4045207	-	H37Rv	4057988.4058899.-	4058899	4057988	-	F11
1687941.1689230.+	1687941	1689230	+	H37Rv	1692578.1693867.+	1692578	1693867	+	F11
944343.944735.+	944343	944735	+	H37Rv	948158.948550.+	948158	948550	+	F11
2433631.2434554.-	2434554	2433631	-	H37Rv	2445834.2446757.-	2446757	2445834	-	F11
307877.309439.-	309439	307877	-	H37Rv	308194.309756.-	309756	308194	-	F11
2522360.2523175.+	2522360	2523175	+	H37Rv	2534506.2535321.+	2534506	2535321	+	F11
2853256.2854266.+	2853256	2854266	+	H37Rv	2866574.2867584.+	2866574	2867584	+	F11
207458.208420.+	207458	208420	+	H37Rv	207774.208736.+	207774	208736	+	F11
995062.995340.+	995062	995340	+	H37Rv	998887.999165.+	998887	999165	+	F11
2123684.2124370.+	2123684	2124370	+	H37Rv	2131875.2132561.+	2131875	2132561	+	F11
25913.26878.-	26878	25913	-	H37Rv	26014.26979.-	26979	26014	-	F11
204068.205237.+	204068	205237	+	H37Rv	204384.205553.+	204384	205553	+	F11
1129134.1130105.+	1129134	1130105	+	H37Rv	1132902.1133873.+	1132902	1133873	+	F11
1268203.1269018.-	1269018	1268203	-	H37Rv	1271967.1272782.-	1272782	1271967	-	F11
68418.68579.+	68418	68579	+	H37Rv	68522.68683.+	68522	68683	+	F11
3289705.3290235.+	3289705	3290235	+	H37Rv	3301178.3301708.+	3301178	3301708	+	F11
918912.919571.-	919571	918912	-	H37Rv	921423.922082.-	922082	921423	-	F11
3162271.3164115.+	3162271	3164115	+	H37Rv	3173909.3175753.+	3173909	3175753	+	F11
3633639.3635063.+	3633639	3635063	+	H37Rv	3645417.3646841.+	3645417	3646841	+	F11
64991.65416.+	64991	65416	+	H37Rv	65095.65520.+	65095	65520	+	F11
976872.978134.-	978134	976872	-	H37Rv	980682.981959.-	981959	980682	-	F11
3376490.3376855.-	3376855	3376490	-	H37Rv	3388199.3388564.-	3388564	3388199	-	F11
677727.678575.-	678575	677727	-	H37Rv	680955.681803.-	681803	680955	-	F11
1934482.1934649.-	1934649	1934482	-	H37Rv	1929711.1929878.-	1929878	1929711	-	F11
830855.831661.+	830855	831661	+	H37Rv	834724.835530.+	834724	835530	+	F11
2056521.2057423.+	2056521	2057423	+	H37Rv	2064773.2065675.+	2064773	2065675	+	F11
1340836.1340955.+	1340836	1340955	+	H37Rv	2637020.2637139.-	2637139	2637020	-	F11
2626223.2626342.-	2626342	2626223	-	H37Rv	2637020.2637139.-	2637139	2637020	-	F11
1160855.1160974.-	1160974	1160855	-	H37Rv	2637020.2637139.-	2637139	2637020	-	F11
4060295.4060414.-	4060414	4060295	-	H37Rv	2637020.2637139.-	2637139	2637020	-	F11
2030524.2030643.+	2030524	2030643	+	H37Rv	2637020.2637139.-	2637139	2637020	-	F11
2124830.2125048.-	2125048	2124830	-	H37Rv	2133021.2133239.-	2133239	2133021	-	F11
1169375.1170670.+	1169375	1170670	+	H37Rv	1173145.1174440.+	1173145	1174440	+	F11
3381375.3382670.-	3382670	3381375	-	H37Rv	1173145.1174440.+	1173145	1174440	+	F11
3481403.3482698.+	3481403	3482698	+	H37Rv	1173145.1174440.+	1173145	1174440	+	F11
1341358.1342653.-	1342653	1341358	-	H37Rv	1173145.1174440.+	1173145	1174440	+	F11
2828556.2829851.-	2829851	2828556	-	H37Rv	1173145.1174440.+	1173145	1174440	+	F11
974291.975970.-	975970	974291	-	H37Rv	978115.979794.-	979794	978115	-	F11
2930070.2930357.+	2930070	2930357	+	H37Rv	2943387.2943674.+	2943387	2943674	+	F11
876818.878455.-	878455	876818	-	H37Rv	880688.882325.-	882325	880688	-	F11
2980963.2981430.-	2981430	2980963	-	H37Rv	2992922.2993389.-	2993389	2992922	-	F11
1896472.1896867.+	1896472	1896867	+	H37Rv	1891701.1892096.+	1891701	1892096	+	F11
110307.117539.+	110307	117539	+	H37Rv	110441.117673.+	110441	117673	+	F11
1340836.1340955.+	1340836	1340955	+	H37Rv	4073298.4073417.-	4073417	4073298	-	F11
2626223.2626342.-	2626342	2626223	-	H37Rv	4073298.4073417.-	4073417	4073298	-	F11
1160855.1160974.-	1160974	1160855	-	H37Rv	4073298.4073417.-	4073417	4073298	-	F11
4060295.4060414.-	4060414	4060295	-	H37Rv	4073298.4073417.-	4073417	4073298	-	F11
2030524.2030643.+	2030524	2030643	+	H37Rv	4073298.4073417.-	4073417	4073298	-	F11
3112465.3113094.-	3113094	3112465	-	H37Rv	3124420.3125049.-	3125049	3124420	-	F11
2281294.2281617.+	2281294	2281617	+	H37Rv	2295906.2296229.+	2295906	2296229	+	F11
186495.186623.-	186623	186495	-	H37Rv	186811.186939.-	186939	186811	-	F11
2946434.2947111.+	2946434	2947111	+	H37Rv	2959751.2960428.+	2959751	2960428	+	F11
3339854.3342082.+	3339854	3342082	+	H37Rv	3351563.3353791.+	3351563	3353791	+	F11
4096936.4098099.-	4098099	4096936	-	H37Rv	4109937.4111100.-	4111100	4109937	-	F11
1947416.1947643.-	1947643	1947416	-	H37Rv	1942644.1942871.-	1942871	1942644	-	F11
1836952.1839171.+	1836952	1839171	+	H37Rv	1832343.1834562.+	1832343	1834562	+	F11
4310401.4310814.+	4310401	4310814	+	H37Rv	4323402.4323815.+	4323402	4323815	+	F11
2308131.2310920.-	2310920	2308131	-	H37Rv	2322743.2325532.-	2325532	2322743	-	F11
1591689.1592153.+	1591689	1592153	+	H37Rv	1596030.1596494.+	1596030	1596494	+	F11
3323709.3324494.-	3324494	3323709	-	H37Rv	3335182.3335967.-	3335967	3335182	-	F11
3723656.3724042.+	3723656	3724042	+	H37Rv	3735983.3736369.+	3735983	3736369	+	F11
1172878.1173786.+	1172878	1173786	+	H37Rv	1176648.1177556.+	1176648	1177556	+	F11
4246514.4249810.+	4246514	4249810	+	H37Rv	4259515.4262811.+	4259515	4262811	+	F11
4410412.4410762.-	4410762	4410412	-	H37Rv	4423416.4423766.-	4423766	4423416	-	F11
2343027.2343332.+	2343027	2343332	+	H37Rv	2358998.2359303.+	2358998	2359303	+	F11
2703269.2703838.+	2703269	2703838	+	H37Rv	2717922.2718491.+	2717922	2718491	+	F11
2714124.2715350.-	2715350	2714124	-	H37Rv	2728798.2730024.-	2730024	2728798	-	F11
1339003.1339302.+	1339003	1339302	+	H37Rv	1342768.1343067.+	1342768	1343067	+	F11
1199426.1200376.-	1200376	1199426	-	H37Rv	1203196.1204146.-	1204146	1203196	-	F11
4319825.4320040.+	4319825	4320040	+	H37Rv	4332826.4333041.+	4332826	4333041	+	F11
1714172.1717708.-	1717708	1714172	-	H37Rv	1718809.1722345.-	1722345	1718809	-	F11
1530973.1531197.-	1531197	1530973	-	H37Rv	1536672.1536896.-	1536896	1536672	-	F11
4081160.4081351.+	4081160	4081351	+	H37Rv	4094163.4094354.+	4094163	4094354	+	F11
2113140.2115476.+	2113140	2115476	+	H37Rv	2121331.2123667.+	2121331	2123667	+	F11
4205538.4205840.+	4205538	4205840	+	H37Rv	4218539.4218841.+	4218539	4218841	+	F11
4098096.4099169.-	4099169	4098096	-	H37Rv	4111097.4112170.-	4112170	4111097	-	F11
181987.183210.-	183210	181987	-	H37Rv	182303.183526.-	183526	182303	-	F11
3848844.3848999.-	3848999	3848844	-	H37Rv	3862555.3862710.-	3862710	3862555	-	F11
2706017.2706736.+	2706017	2706736	+	H37Rv	2720691.2721410.+	2720691	2721410	+	F11
955077.956288.+	955077	956288	+	H37Rv	958892.960103.+	958892	960103	+	F11
1023865.1024122.+	1023865	1024122	+	H37Rv	1027691.1027948.+	1027691	1027948	+	F11
1169375.1170670.+	1169375	1170670	+	H37Rv	3393085.3394380.-	3394380	3393085	-	F11
3381375.3382670.-	3382670	3381375	-	H37Rv	3393085.3394380.-	3394380	3393085	-	F11
3481403.3482698.+	3481403	3482698	+	H37Rv	3393085.3394380.-	3394380	3393085	-	F11
1341358.1342653.-	1342653	1341358	-	H37Rv	3393085.3394380.-	3394380	3393085	-	F11
2828556.2829851.-	2829851	2828556	-	H37Rv	3393085.3394380.-	3394380	3393085	-	F11
3900493.3901239.-	3901239	3900493	-	H37Rv	3912846.3913592.-	3913592	3912846	-	F11
881075.881464.-	881464	881075	-	H37Rv	884945.885334.-	885334	884945	-	F11
736298.737203.-	737203	736298	-	H37Rv	739526.740431.-	740431	739526	-	F11
1870842.1871354.+	1870842	1871354	+	H37Rv	1866232.1866744.+	1866232	1866744	+	F11
232231.234519.+	232231	234519	+	H37Rv	232547.234793.+	232547	234793	+	F11
3569109.3571298.-	3571298	3569109	-	H37Rv	3580874.3583063.-	3583063	3580874	-	F11
3195545.3196156.-	3196156	3195545	-	H37Rv	3207074.3207685.-	3207685	3207074	-	F11
3101581.3102186.-	3102186	3101581	-	H37Rv	3207074.3207685.-	3207685	3207074	-	F11
841737.841874.-	841874	841737	-	H37Rv	845606.845743.-	845743	845606	-	F11
805756.806166.+	805756	806166	+	H37Rv	809625.810035.+	809625	810035	+	F11
1527479.1530091.+	1527479	1530091	+	H37Rv	1533178.1535790.+	1533178	1535790	+	F11
952825.953229.+	952825	953229	+	H37Rv	956640.957044.+	956640	957044	+	F11
709455.710348.+	709455	710348	+	H37Rv	712683.713576.+	712683	713576	+	F11
3124996.3126144.-	3126144	3124996	-	H37Rv	3136625.3137773.-	3137773	3136625	-	F11
2725595.2725828.-	2725828	2725595	-	H37Rv	2740269.2740502.-	2740502	2740269	-	F11
1197792.1198082.+	1197792	1198082	+	H37Rv	1201562.1201852.+	1201562	1201852	+	F11
2996105.2996737.+	2996105	2996737	+	H37Rv	3008060.3008692.+	3008060	3008692	+	F11
2962470.2962712.+	2962470	2962712	+	H37Rv	2975787.2976029.+	2975787	2976029	+	F11
2393411.2393641.+	2393411	2393641	+	H37Rv	2406972.2407202.+	2406972	2407202	+	F11
4028968.4029762.-	4029762	4028968	-	H37Rv	4041749.4042543.-	4042543	4041749	-	F11
1114173.1114382.-	1114382	1114173	-	H37Rv	1117941.1118150.-	1118150	1117941	-	F11
4383653.4383991.-	4383991	4383653	-	H37Rv	4396658.4396996.-	4396996	4396658	-	F11
3557311.3558345.-	3558345	3557311	-	H37Rv	3569076.3570110.-	3570110	3569076	-	F11
878620.879324.+	878620	879324	+	H37Rv	882490.883194.+	882490	883194	+	F11
1179396.1180577.+	1179396	1180577	+	H37Rv	1183166.1184347.+	1183166	1184347	+	F11
1961291.1961788.-	1961788	1961291	-	H37Rv	1957991.1958488.-	1958488	1957991	-	F11
2680458.2680667.+	2680458	2680667	+	H37Rv	2693753.2693962.+	2693753	2693962	+	F11
876319.876711.-	876711	876319	-	H37Rv	880189.880581.-	880581	880189	-	F11
1703050.1704096.+	1703050	1704096	+	H37Rv	1707687.1708733.+	1707687	1708733	+	F11
3723904.3724548.+	3723904	3724548	+	H37Rv	3736231.3736875.+	3736231	3736875	+	F11
2976586.2977002.-	2977002	2976586	-	H37Rv	2988545.2988961.-	2988961	2988545	-	F11
2029904.2030203.+	2029904	2030203	+	H37Rv	2038157.2038456.+	2038157	2038456	+	F11
2328222.2328995.-	2328995	2328222	-	H37Rv	2342834.2343607.-	2343607	2342834	-	F11
4160512.4160913.-	4160913	4160512	-	H37Rv	4173513.4173914.-	4173914	4173513	-	F11
580497.580703.-	580703	580497	-	H37Rv	583666.583872.-	583872	583666	-	F11
1929131.1929721.-	1929721	1929131	-	H37Rv	1924360.1924950.-	1924950	1924360	-	F11
736298.737245.-	737245	736298	-	H37Rv	739526.740473.-	740473	739526	-	F11
2439282.2439947.-	2439947	2439282	-	H37Rv	2735450.2736115.-	2736115	2735450	-	F11
2720776.2721441.-	2721441	2720776	-	H37Rv	2735450.2736115.-	2736115	2735450	-	F11
2379245.2379760.-	2379760	2379245	-	H37Rv	2392808.2393323.-	2393323	2392808	-	F11
2632565.2632792.+	2632565	2632792	+	H37Rv	2643362.2643589.+	2643362	2643589	+	F11
179319.180896.-	180896	179319	-	H37Rv	179635.181212.-	181212	179635	-	F11
103710.104669.-	104669	103710	-	H37Rv	103843.104802.-	104802	103843	-	F11
3883958.3884917.+	3883958	3884917	+	H37Rv	103843.104802.-	104802	103843	-	F11
1788162.1789403.-	1789403	1788162	-	H37Rv	103843.104802.-	104802	103843	-	F11
3853939.3854793.-	3854793	3853939	-	H37Rv	3867651.3868505.-	3868505	3867651	-	F11
4163715.4164998.+	4163715	4164998	+	H37Rv	4176716.4177999.+	4176716	4177999	+	F11
2921521.2923182.+	2921521	2923182	+	H37Rv	2934838.2936499.+	2934838	2936499	+	F11
4368518.4370170.-	4370170	4368518	-	H37Rv	4381518.4383170.-	4383170	4381518	-	F11
1363503.1364150.-	1364150	1363503	-	H37Rv	1367268.1367915.-	1367915	1367268	-	F11
3107311.3107658.-	3107658	3107311	-	H37Rv	3119266.3119613.-	3119613	3119266	-	F11
1910586.1910810.+	1910586	1910810	+	H37Rv	1905815.1906039.+	1905815	1906039	+	F11
2555941.2556135.+	2555941	2556135	+	H37Rv	2566729.2566923.+	2566729	2566923	+	F11
3134596.3135498.-	3135498	3134596	-	H37Rv	3146234.3147136.-	3147136	3146234	-	F11
591475.591576.+	591475	591576	+	H37Rv	594620.594721.+	594620	594721	+	F11
1078743.1081055.+	1078743	1081055	+	H37Rv	1082566.1084878.+	1082566	1084878	+	F11
3843885.3844640.-	3844640	3843885	-	H37Rv	3855175.3855930.-	3855930	3855175	-	F11
658318.659340.+	658318	659340	+	H37Rv	661546.662568.+	661546	662568	+	F11
466672.467406.-	467406	466672	-	H37Rv	469840.470574.-	470574	469840	-	F11
26993.27301.+	26993	27301	+	H37Rv	27094.27402.+	27094	27402	+	F11
739327.740187.-	740187	739327	-	H37Rv	742555.743415.-	743415	742555	-	F11
1739841.1741247.+	1739841	1741247	+	H37Rv	1744478.1745884.+	1744478	1745884	+	F11
2506395.2507153.+	2506395	2507153	+	H37Rv	2518541.2519299.+	2518541	2519299	+	F11
3838586.3839068.-	3839068	3838586	-	H37Rv	3849878.3850360.-	3850360	3849878	-	F11
2575016.2575225.-	2575225	2575016	-	H37Rv	2585804.2586013.-	2586013	2585804	-	F11
4302786.4303391.-	4303391	4302786	-	H37Rv	4315787.4316392.-	4316392	4315787	-	F11
3101581.3102186.-	3102186	3101581	-	H37Rv	4315787.4316392.-	4316392	4315787	-	F11
4103675.4104538.-	4104538	4103675	-	H37Rv	4116676.4117539.-	4117539	4116676	-	F11
1075297.1076097.-	1076097	1075297	-	H37Rv	1079120.1079920.-	1079920	1079120	-	F11
3272193.3273209.+	3272193	3273209	+	H37Rv	3283666.3284682.+	3283666	3284682	+	F11
1178604.1178750.-	1178750	1178604	-	H37Rv	1182374.1182520.-	1182520	1182374	-	F11
1539180.1539440.+	1539180	1539440	+	H37Rv	1544879.1545139.+	1544879	1545139	+	F11
2710351.2711301.-	2711301	2710351	-	H37Rv	2725025.2725975.-	2725975	2725025	-	F11
4016484.4017083.+	4016484	4017083	+	H37Rv	4029265.4029864.+	4029265	4029864	+	F11
130895.131104.-	131104	130895	-	H37Rv	131030.131239.-	131239	131030	-	F11
677125.677691.-	677691	677125	-	H37Rv	680353.680919.-	680919	680353	-	F11
336560.339094.-	339094	336560	-	H37Rv	339701.342235.-	342235	339701	-	F11
1376230.1376835.-	1376835	1376230	-	H37Rv	1379996.1380601.-	1380601	1379996	-	F11
1165781.1166812.-	1166812	1165781	-	H37Rv	1169550.1170581.-	1170581	1169550	-	F11
2333037.2333288.-	2333288	2333037	-	H37Rv	2347649.2347900.-	2347900	2347649	-	F11
4036598.4037296.-	4037296	4036598	-	H37Rv	4049379.4050077.-	4050077	4049379	-	F11
2512452.2515244.+	2512452	2515244	+	H37Rv	2524598.2527390.+	2524598	2527390	+	F11
3251072.3255688.+	3251072	3255688	+	H37Rv	3262545.3267161.+	3262545	3267161	+	F11
2734792.2736831.-	2736831	2734792	-	H37Rv	2749466.2751505.-	2751505	2749466	-	F11
1905247.1906242.+	1905247	1906242	+	H37Rv	1900476.1901471.+	1900476	1901471	+	F11
3781501.3784797.-	3784797	3781501	-	H37Rv	3793976.3797272.-	3797272	3793976	-	F11
4384147.4385379.-	4385379	4384147	-	H37Rv	4397152.4398384.-	4398384	4397152	-	F11
1108578.1109249.-	1109249	1108578	-	H37Rv	1112346.1113017.-	1113017	1112346	-	F11
3378495.3378671.-	3378671	3378495	-	H37Rv	3390204.3390380.-	3390380	3390204	-	F11
1270062.1271144.+	1270062	1271144	+	H37Rv	1273826.1274908.+	1273826	1274908	+	F11
2863207.2864409.-	2864409	2863207	-	H37Rv	2876525.2877727.-	2877727	2876525	-	F11
2881758.2882147.+	2881758	2882147	+	H37Rv	2895075.2895464.+	2895075	2895464	+	F11
1138300.1138908.+	1138300	1138908	+	H37Rv	1142068.1142676.+	1142068	1142676	+	F11
3538505.3539851.+	3538505	3539851	+	H37Rv	3551628.3552974.+	3551628	3552974	+	F11
3556855.3557064.+	3556855	3557064	+	H37Rv	3568620.3568829.+	3568620	3568829	+	F11
3847165.3847701.+	3847165	3847701	+	H37Rv	3854327.3854857.+	3854327	3854857	+	F11
3842239.3842769.+	3842239	3842769	+	H37Rv	3854327.3854857.+	3854327	3854857	+	F11
424269.424700.-	424700	424269	-	H37Rv	427326.427883.-	427883	427326	-	F11
1094670.1094864.-	1094864	1094670	-	H37Rv	1098439.1098633.-	1098633	1098439	-	F11
4142748.4143935.-	4143935	4142748	-	H37Rv	4155749.4156936.-	4156936	4155749	-	F11
3871084.3872496.-	3872496	3871084	-	H37Rv	3884795.3886207.-	3886207	3884795	-	F11
3796448.3797437.-	3797437	3796448	-	H37Rv	3807565.3808554.-	3808554	3807565	-	F11
3123967.3124992.-	3124992	3123967	-	H37Rv	3135596.3136621.-	3136621	3135596	-	F11
2752848.2752994.-	2752994	2752848	-	H37Rv	2767522.2767668.-	2767668	2767522	-	F11
2573048.2573707.+	2573048	2573707	+	H37Rv	2583836.2584495.+	2583836	2584495	+	F11
1773928.1774620.-	1774620	1773928	-	H37Rv	1778566.1779258.-	1779258	1778566	-	F11
2195905.2197353.+	2195905	2197353	+	H37Rv	2204160.2205608.+	2204160	2205608	+	F11
1276300.1277748.-	1277748	1276300	-	H37Rv	2204160.2205608.+	2204160	2205608	+	F11
3502945.3503277.-	3503277	3502945	-	H37Rv	3516068.3516400.-	3516400	3516068	-	F11
3142309.3143628.-	3143628	3142309	-	H37Rv	3153947.3155266.-	3155266	3153947	-	F11
2808083.2808304.+	2808083	2808304	+	H37Rv	2821401.2821622.+	2821401	2821622	+	F11
1057646.1058299.-	1058299	1057646	-	H37Rv	1061472.1062125.-	1062125	1061472	-	F11
601848.602786.+	601848	602786	+	H37Rv	604993.605931.+	604993	605931	+	F11
2364797.2365093.-	2365093	2364797	-	H37Rv	2380833.2381129.-	2381129	2380833	-	F11
3399419.3400204.-	3400204	3399419	-	H37Rv	3411129.3411914.-	3411914	3411129	-	F11
3133709.3134593.-	3134593	3133709	-	H37Rv	3145347.3146231.-	3146231	3145347	-	F11
131382.132872.+	131382	132872	+	H37Rv	131518.133008.+	131518	133008	+	F11
3194166.3195545.-	3195545	3194166	-	H37Rv	3205695.3207074.-	3207074	3205695	-	F11
3480431.3480742.+	3480431	3480742	+	H37Rv	3493554.3493865.+	3493554	3493865	+	F11
2232399.2232671.+	2232399	2232671	+	H37Rv	2240653.2240925.+	2240653	2240925	+	F11
2736709.2736987.+	2736709	2736987	+	H37Rv	2751383.2751661.+	2751383	2751661	+	F11
602810.604516.+	602810	604516	+	H37Rv	605955.607661.+	605955	607661	+	F11
2509489.2510256.+	2509489	2510256	+	H37Rv	2521635.2522402.+	2521635	2522402	+	F11
2289282.2289599.-	2289599	2289282	-	H37Rv	2303894.2304211.-	2304211	2303894	-	F11
2101022.2101648.+	2101022	2101648	+	H37Rv	2109212.2109838.+	2109212	2109838	+	F11
3313316.3313729.-	3313729	3313316	-	H37Rv	3324789.3325202.-	3325202	3324789	-	F11
702813.703199.+	702813	703199	+	H37Rv	706041.706427.+	706041	706427	+	F11
1228683.1229384.+	1228683	1229384	+	H37Rv	1232450.1233151.+	1232450	1233151	+	F11
3391546.3392778.+	3391546	3392778	+	H37Rv	3403256.3404488.+	3403256	3404488	+	F11
142128.143885.-	143885	142128	-	H37Rv	142264.144021.-	144021	142264	-	F11
3359585.3360598.-	3360598	3359585	-	H37Rv	3371294.3372307.-	3372307	3371294	-	F11
2201743.2202096.+	2201743	2202096	+	H37Rv	2209998.2210351.+	2209998	2210351	+	F11
52810.53244.+	52810	53244	+	H37Rv	52911.53345.+	52911	53345	+	F11
1852324.1852878.+	1852324	1852878	+	H37Rv	1847715.1848269.+	1847715	1848269	+	F11
4355007.4356542.+	4355007	4356542	+	H37Rv	4368007.4369542.+	4368007	4369542	+	F11
3493600.3494181.-	3494181	3493600	-	H37Rv	3506723.3507304.-	3507304	3506723	-	F11
4064851.4065903.-	4065903	4064851	-	H37Rv	4077854.4078906.-	4078906	4077854	-	F11
3083374.3084303.-	3084303	3083374	-	H37Rv	3095329.3096258.-	3096258	3095329	-	F11
669848.671152.+	669848	671152	+	H37Rv	673076.674380.+	673076	674380	+	F11
2044923.2046842.-	2046842	2044923	-	H37Rv	2053175.2055094.-	2055094	2053175	-	F11
473750.474106.+	473750	474106	+	H37Rv	476920.477276.+	476920	477276	+	F11
475816.476184.+	475816	476184	+	H37Rv	476920.477276.+	476920	477276	+	F11
3073680.3074480.-	3074480	3073680	-	H37Rv	3085635.3086435.-	3086435	3085635	-	F11
4132389.4133519.+	4132389	4133519	+	H37Rv	4145390.4146520.+	4145390	4146520	+	F11
2363391.2364107.+	2363391	2364107	+	H37Rv	2379427.2380143.+	2379427	2380143	+	F11
562723.563493.-	563493	562723	-	H37Rv	565892.566662.-	566662	565892	-	F11
967898.968305.+	967898	968305	+	H37Rv	971713.972120.+	971713	972120	+	F11
2326944.2327501.+	2326944	2327501	+	H37Rv	2341556.2342113.+	2341556	2342113	+	F11
3833694.3834485.-	3834485	3833694	-	H37Rv	3844986.3845777.-	3845777	3844986	-	F11
1227596.1228582.-	1228582	1227596	-	H37Rv	1231363.1232349.-	1232349	1231363	-	F11
2581424.2581747.-	2581747	2581424	-	H37Rv	2592212.2592535.-	2592535	2592212	-	F11
4095540.4096220.-	4096220	4095540	-	H37Rv	4108541.4109221.-	4109221	4108541	-	F11
1413326.1413940.+	1413326	1413940	+	H37Rv	1417093.1417707.+	1417093	1417707	+	F11
1169375.1170670.+	1169375	1170670	+	H37Rv	3494526.3495821.+	3494526	3495821	+	F11
1341358.1342653.-	1342653	1341358	-	H37Rv	3494526.3495821.+	3494526	3495821	+	F11
2828556.2829851.-	2829851	2828556	-	H37Rv	3494526.3495821.+	3494526	3495821	+	F11
3381375.3382670.-	3382670	3381375	-	H37Rv	3494526.3495821.+	3494526	3495821	+	F11
3481403.3482698.+	3481403	3482698	+	H37Rv	3494526.3495821.+	3494526	3495821	+	F11
151187.152215.+	151187	152215	+	H37Rv	151503.152531.+	151503	152531	+	F11
2047687.2048034.-	2048034	2047687	-	H37Rv	2055939.2056286.-	2056286	2055939	-	F11
2012081.2012530.-	2012530	2012081	-	H37Rv	2020379.2020828.-	2020828	2020379	-	F11
1917756.1917932.+	1917756	1917932	+	H37Rv	1912985.1913161.+	1912985	1913161	+	F11
2510351.2510587.-	2510587	2510351	-	H37Rv	2522497.2522733.-	2522733	2522497	-	F11
1622768.1623007.+	1622768	1623007	+	H37Rv	1627130.1627369.+	1627130	1627369	+	F11
853825.854157.-	854157	853825	-	H37Rv	857694.858026.-	858026	857694	-	F11
1273355.1274767.+	1273355	1274767	+	H37Rv	1277119.1278531.+	1277119	1278531	+	F11
800104.800394.-	800394	800104	-	H37Rv	803865.804155.-	804155	803865	-	F11
3357602.3358567.+	3357602	3358567	+	H37Rv	3369311.3370276.+	3369311	3370276	+	F11
3378329.3378613.-	3378613	3378329	-	H37Rv	3390038.3390322.-	3390322	3390038	-	F11
2651753.2651938.+	2651753	2651938	+	H37Rv	2665048.2665233.+	2665048	2665233	+	F11
1419014.1419787.-	1419787	1419014	-	H37Rv	1422781.1423554.-	1423554	1422781	-	F11
3195545.3196132.-	3196132	3195545	-	H37Rv	3207074.3207661.-	3207661	3207074	-	F11
3101581.3102162.-	3102162	3101581	-	H37Rv	3207074.3207661.-	3207661	3207074	-	F11
4094660.4094914.-	4094914	4094660	-	H37Rv	4107662.4107916.-	4107916	4107662	-	F11
2898043.2898783.+	2898043	2898783	+	H37Rv	2911360.2912100.+	2911360	2912100	+	F11
4016352.4017083.+	4016352	4017083	+	H37Rv	4029133.4029864.+	4029133	4029864	+	F11
3175454.3177310.-	3177310	3175454	-	H37Rv	3186984.3188840.-	3188840	3186984	-	F11
3639872.3640141.-	3640141	3639872	-	H37Rv	3651650.3651919.-	3651919	3651650	-	F11
1973630.1976227.+	1973630	1976227	+	H37Rv	1970330.1972927.+	1970330	1972927	+	F11
1169375.1170670.+	1169375	1170670	+	H37Rv	2841874.2843169.-	2843169	2841874	-	F11
3381375.3382670.-	3382670	3381375	-	H37Rv	2841874.2843169.-	2843169	2841874	-	F11
3481403.3482698.+	3481403	3482698	+	H37Rv	2841874.2843169.-	2843169	2841874	-	F11
1341358.1342653.-	1342653	1341358	-	H37Rv	2841874.2843169.-	2843169	2841874	-	F11
2828556.2829851.-	2829851	2828556	-	H37Rv	2841874.2843169.-	2843169	2841874	-	F11
1799556.1800899.+	1799556	1800899	+	H37Rv	1794947.1796290.+	1794947	1796290	+	F11
2092259.2093698.-	2093698	2092259	-	H37Rv	2100455.2101894.-	2101894	2100455	-	F11
3112867.3113271.+	3112867	3113271	+	H37Rv	3124822.3125226.+	3124822	3125226	+	F11
415044.415460.+	415044	415460	+	H37Rv	418124.418540.+	418124	418540	+	F11
149533.150996.+	149533	150996	+	H37Rv	149669.151312.+	149669	151312	+	F11
1639674.1640681.-	1640681	1639674	-	H37Rv	1644258.1645265.-	1645265	1644258	-	F11
2581145.2581477.+	2581145	2581477	+	H37Rv	2591933.2592265.+	2591933	2592265	+	F11
2583277.2583429.+	2583277	2583429	+	H37Rv	2594065.2594217.+	2594065	2594217	+	F11
3350274.3351071.-	3351071	3350274	-	H37Rv	3361983.3362780.-	3362780	3361983	-	F11
2087649.2087912.-	2087912	2087649	-	H37Rv	2095845.2096108.-	2096108	2095845	-	F11
2228676.2228906.+	2228676	2228906	+	H37Rv	2236930.2237160.+	2236930	2237160	+	F11
1576819.1577532.+	1576819	1577532	+	H37Rv	1581160.1581873.+	1581160	1581873	+	F11
2806323.2806529.-	2806529	2806323	-	H37Rv	2819641.2819847.-	2819847	2819641	-	F11
4212293.4212982.+	4212293	4212982	+	H37Rv	4225294.4225983.+	4225294	4225983	+	F11
738297.739160.-	739160	738297	-	H37Rv	741525.742388.-	742388	741525	-	F11
2402507.2402722.-	2402722	2402507	-	H37Rv	2416068.2416283.-	2416283	2416068	-	F11
3519282.3520514.+	3519282	3520514	+	H37Rv	3532405.3533637.+	3532405	3533637	+	F11
3021548.3021835.-	3021835	3021548	-	H37Rv	3033503.3033790.-	3033790	3033503	-	F11
1811091.1812359.+	1811091	1812359	+	H37Rv	1806482.1807750.+	1806482	1807750	+	F11
2266421.2266720.-	2266720	2266421	-	H37Rv	2276033.2276332.-	2276332	2276033	-	F11
835059.835205.-	835205	835059	-	H37Rv	838928.839074.-	839074	838928	-	F11
2705486.2705758.-	2705758	2705486	-	H37Rv	2720160.2720432.-	2720432	2720160	-	F11
507758.508585.-	508585	507758	-	H37Rv	510928.511755.-	511755	510928	-	F11
2002626.2003870.+	2002626	2003870	+	H37Rv	2009566.2010810.+	2009566	2010810	+	F11
4093982.4094527.+	4093982	4094527	+	H37Rv	4106984.4107529.+	4106984	4107529	+	F11
3895820.3898885.+	3895820	3898885	+	H37Rv	3908173.3911238.+	3908173	3911238	+	F11
2583812.2584408.+	2583812	2584408	+	H37Rv	2594600.2595196.+	2594600	2595196	+	F11
3871084.3872508.-	3872508	3871084	-	H37Rv	3884795.3886219.-	3886219	3884795	-	F11
3136620.3137012.-	3137012	3136620	-	H37Rv	3148258.3148650.-	3148650	3148258	-	F11
3183848.3184567.+	3183848	3184567	+	H37Rv	3195378.3196097.+	3195378	3196097	+	F11
2266103.2266405.+	2266103	2266405	+	H37Rv	2275715.2276017.+	2275715	2276017	+	F11
2577108.2577701.+	2577108	2577701	+	H37Rv	2587896.2588489.+	2587896	2588489	+	F11
2880965.2881288.-	2881288	2880965	-	H37Rv	2894283.2894606.-	2894606	2894283	-	F11
3300596.3302344.-	3302344	3300596	-	H37Rv	3312069.3313817.-	3313817	3312069	-	F11
1276300.1277664.-	1277664	1276300	-	H37Rv	1280064.1281428.-	1281428	1280064	-	F11
2195989.2197353.+	2195989	2197353	+	H37Rv	1280064.1281428.-	1281428	1280064	-	F11
3379036.3379344.-	3379344	3379036	-	H37Rv	3390745.3391053.-	3391053	3390745	-	F11
2907826.2910207.-	2910207	2907826	-	H37Rv	2921143.2923524.-	2923524	2921143	-	F11
3418726.3419376.-	3419376	3418726	-	H37Rv	3430422.3431072.-	3431072	3430422	-	F11
2307293.2307517.-	2307517	2307293	-	H37Rv	2321905.2322129.-	2322129	2321905	-	F11
551749.551988.+	551749	551988	+	H37Rv	554918.555157.+	554918	555157	+	F11
3325934.3326104.+	3325934	3326104	+	H37Rv	3337407.3337577.+	3337407	3337577	+	F11
2857853.2858257.-	2858257	2857853	-	H37Rv	2871171.2871575.-	2871575	2871171	-	F11
475326.475742.+	475326	475742	+	H37Rv	478496.478912.+	478496	478912	+	F11
1840572.1842242.-	1842242	1840572	-	H37Rv	1835963.1837633.-	1837633	1835963	-	F11
434830.435474.-	435474	434830	-	H37Rv	437998.438642.-	438642	437998	-	F11
3600795.3601022.-	3601022	3600795	-	H37Rv	3612573.3612800.-	3612800	3612573	-	F11
1283056.1284099.-	1284099	1283056	-	H37Rv	1286820.1287863.-	1287863	1286820	-	F11
932279.932932.-	932932	932279	-	H37Rv	936094.936747.-	936747	936094	-	F11
1003805.1003957.+	1003805	1003957	+	H37Rv	1007630.1007782.+	1007630	1007782	+	F11
2697728.2698057.+	2697728	2698057	+	H37Rv	2712381.2712710.+	2712381	2712710	+	F11
1989005.1989478.+	1989005	1989478	+	H37Rv	1993659.1994198.+	1993659	1994198	+	F11
2745767.2746138.-	2746138	2745767	-	H37Rv	2760441.2760812.-	2760812	2760441	-	F11
1273268.1274767.+	1273268	1274767	+	H37Rv	1277032.1278531.+	1277032	1278531	+	F11
864140.864574.+	864140	864574	+	H37Rv	868008.868442.+	868008	868442	+	F11
738297.739250.-	739250	738297	-	H37Rv	741525.742478.-	742478	741525	-	F11
3580638.3581312.+	3580638	3581312	+	H37Rv	3592402.3593076.+	3592402	3593076	+	F11
4318247.4318723.-	4318723	4318247	-	H37Rv	4331248.4331724.-	4331724	4331248	-	F11
3753222.3753713.-	3753713	3753222	-	H37Rv	4331248.4331724.-	4331724	4331248	-	F11
3645979.3646902.-	3646902	3645979	-	H37Rv	3657757.3658680.-	3658680	3657757	-	F11
4007331.4008182.-	4008182	4007331	-	H37Rv	4020112.4020963.-	4020963	4020112	-	F11
4337946.4338272.+	4337946	4338272	+	H37Rv	4350947.4351273.+	4350947	4351273	+	F11
1168704.1169228.-	1169228	1168704	-	H37Rv	1172405.1172998.-	1172998	1172405	-	F11
593871.594779.-	594779	593871	-	H37Rv	597016.597924.-	597924	597016	-	F11
2594699.2595364.-	2595364	2594699	-	H37Rv	2605487.2606152.-	2606152	2605487	-	F11
2453458.2453709.-	2453709	2453458	-	H37Rv	2465661.2465912.-	2465912	2465661	-	F11
1686887.1687888.+	1686887	1687888	+	H37Rv	1691524.1692525.+	1691524	1692525	+	F11
383632.384486.+	383632	384486	+	H37Rv	386712.387566.+	386712	387566	+	F11
3024270.3025337.-	3025337	3024270	-	H37Rv	3036225.3037292.-	3037292	3036225	-	F11
3242970.3243281.+	3242970	3243281	+	H37Rv	3254443.3254754.+	3254443	3254754	+	F11
2823256.2824602.-	2824602	2823256	-	H37Rv	2836574.2837920.-	2837920	2836574	-	F11
1682157.1684004.+	1682157	1684004	+	H37Rv	1686794.1688641.+	1686794	1688641	+	F11
1799583.1800899.+	1799583	1800899	+	H37Rv	1794974.1796290.+	1794974	1796290	+	F11
1111612.1112223.+	1111612	1112223	+	H37Rv	1115380.1115991.+	1115380	1115991	+	F11
3520507.3521142.+	3520507	3521142	+	H37Rv	3533630.3534265.+	3533630	3534265	+	F11
3364709.3365830.+	3364709	3365830	+	H37Rv	3376418.3377539.+	3376418	3377539	+	F11
841031.841204.+	841031	841204	+	H37Rv	844900.845073.+	844900	845073	+	F11
333160.333333.-	333333	333160	-	H37Rv	844900.845073.+	844900	845073	+	F11
2943600.2945030.-	2945030	2943600	-	H37Rv	2956917.2958347.-	2958347	2956917	-	F11
2472496.2473242.+	2472496	2473242	+	H37Rv	2484642.2485388.+	2484642	2485388	+	F11
1265087.1265455.-	1265455	1265087	-	H37Rv	1268851.1269219.-	1269219	1268851	-	F11
2568986.2570053.+	2568986	2570053	+	H37Rv	2579774.2580841.+	2579774	2580841	+	F11
1205984.1206445.-	1206445	1205984	-	H37Rv	1209754.1210215.-	1210215	1209754	-	F11
2390085.2390288.+	2390085	2390288	+	H37Rv	2403646.2403849.+	2403646	2403849	+	F11
1468171.1468485.-	1468485	1468171	-	H37Rv	4267014.4267328.+	4267014	4267328	+	F11
4254013.4254327.+	4254013	4254327	+	H37Rv	4267014.4267328.+	4267014	4267328	+	F11
832534.832848.+	832534	832848	+	H37Rv	4267014.4267328.+	4267014	4267328	+	F11
2775272.2775565.+	2775272	2775565	+	H37Rv	2789946.2790239.+	2789946	2790239	+	F11
3044986.3046623.-	3046623	3044986	-	H37Rv	3056941.3058578.-	3058578	3056941	-	F11
565782.566396.+	565782	566396	+	H37Rv	568951.569565.+	568951	569565	+	F11
2754743.2756719.-	2756719	2754743	-	H37Rv	2769417.2771393.-	2771393	2769417	-	F11
1160095.1160433.-	1160433	1160095	-	H37Rv	1163863.1164201.-	1164201	1163863	-	F11
1085756.1087351.-	1087351	1085756	-	H37Rv	1089579.1091174.-	1091174	1089579	-	F11
274710.274904.-	274904	274710	-	H37Rv	275028.275222.-	275222	275028	-	F11
2987682.2989268.+	2987682	2989268	+	H37Rv	2999641.3001227.+	2999641	3001227	+	F11
1169360.1170670.+	1169360	1170670	+	H37Rv	2841874.2843184.-	2843184	2841874	-	F11
3381375.3382685.-	3382685	3381375	-	H37Rv	2841874.2843184.-	2843184	2841874	-	F11
3481388.3482698.+	3481388	3482698	+	H37Rv	2841874.2843184.-	2843184	2841874	-	F11
1341358.1342668.-	1342668	1341358	-	H37Rv	2841874.2843184.-	2843184	2841874	-	F11
2828556.2829866.-	2829866	2828556	-	H37Rv	2841874.2843184.-	2843184	2841874	-	F11
759789.763325.+	759789	763325	+	H37Rv	763550.767086.+	763550	767086	+	F11
1272423.1273334.+	1272423	1273334	+	H37Rv	1276187.1277098.+	1276187	1277098	+	F11
3753222.3753746.-	3753746	3753222	-	H37Rv	3765688.3766212.-	3766212	3765688	-	F11
4318247.4318756.-	4318756	4318247	-	H37Rv	3765688.3766212.-	3766212	3765688	-	F11
559888.560748.+	559888	560748	+	H37Rv	563057.563917.+	563057	563917	+	F11
3363348.3363686.+	3363348	3363686	+	H37Rv	3375057.3375395.+	3375057	3375395	+	F11
4303398.4305023.-	4305023	4303398	-	H37Rv	4316399.4318024.-	4318024	4316399	-	F11
2469387.2470673.-	2470673	2469387	-	H37Rv	2481533.2482819.-	2482819	2481533	-	F11
3053812.3055491.+	3053812	3055491	+	H37Rv	3065767.3067446.+	3065767	3067446	+	F11
3427237.3429519.+	3427237	3429519	+	H37Rv	3439001.3441283.+	3439001	3441283	+	F11
144049.145626.+	144049	145626	+	H37Rv	144185.145762.+	144185	145762	+	F11
4384147.4385466.-	4385466	4384147	-	H37Rv	4397152.4398471.-	4398471	4397152	-	F11
2533327.2533965.+	2533327	2533965	+	H37Rv	2545475.2546113.+	2545475	2546113	+	F11
2577488.2577922.+	2577488	2577922	+	H37Rv	2588276.2588710.+	2588276	2588710	+	F11
677125.677616.-	677616	677125	-	H37Rv	680353.680844.-	680844	680353	-	F11
2152953.2153183.-	2153183	2152953	-	H37Rv	2161214.2161444.-	2161444	2161214	-	F11
4008167.4008433.-	4008433	4008167	-	H37Rv	4020948.4021214.-	4021214	4020948	-	F11
3429568.3429750.+	3429568	3429750	+	H37Rv	3441332.3441514.+	3441332	3441514	+	F11
2113062.2115476.+	2113062	2115476	+	H37Rv	2121253.2123667.+	2121253	2123667	+	F11
4107170.4107526.+	4107170	4107526	+	H37Rv	4120171.4120527.+	4120171	4120527	+	F11
3336796.3337872.-	3337872	3336796	-	H37Rv	3348505.3349581.-	3349581	3348505	-	F11
544736.545290.-	545290	544736	-	H37Rv	547905.548459.-	548459	547905	-	F11
3597551.3597766.-	3597766	3597551	-	H37Rv	3609329.3609544.-	3609544	3609329	-	F11
1710733.1711002.+	1710733	1711002	+	H37Rv	1715370.1715639.+	1715370	1715639	+	F11
1425438.1425914.-	1425914	1425438	-	H37Rv	1429205.1429681.-	1429681	1429205	-	F11
1112384.1113460.+	1112384	1113460	+	H37Rv	1116152.1117228.+	1116152	1117228	+	F11
2960105.2962405.-	2962405	2960105	-	H37Rv	2973422.2975722.-	2975722	2973422	-	F11
2020634.2023432.+	2020634	2023432	+	H37Rv	2028932.2031730.+	2028932	2031730	+	F11
2705762.2706736.+	2705762	2706736	+	H37Rv	2720436.2721410.+	2720436	2721410	+	F11
3839059.3839694.-	3839694	3839059	-	H37Rv	3850351.3850986.-	3850986	3850351	-	F11
543195.544730.+	543195	544730	+	H37Rv	546364.547899.+	546364	547899	+	F11
3031788.3032498.+	3031788	3032498	+	H37Rv	3043743.3044453.+	3043743	3044453	+	F11
1955692.1957245.-	1957245	1955692	-	H37Rv	1952392.1953945.-	1953945	1952392	-	F11
3079309.3080517.-	3080517	3079309	-	H37Rv	3091264.3092472.-	3092472	3091264	-	F11
1366373.1367461.+	1366373	1367461	+	H37Rv	1370139.1371227.+	1370139	1371227	+	F11
3318101.3318286.+	3318101	3318286	+	H37Rv	3329574.3329759.+	3329574	3329759	+	F11
848103.850043.-	850043	848103	-	H37Rv	851972.853912.-	853912	851972	-	F11
709356.710348.+	709356	710348	+	H37Rv	712584.713576.+	712584	713576	+	F11
881690.882418.+	881690	882418	+	H37Rv	885560.886288.+	885560	886288	+	F11
3307580.3308554.-	3308554	3307580	-	H37Rv	3319053.3320027.-	3320027	3319053	-	F11
2786262.2786519.+	2786262	2786519	+	H37Rv	2799578.2799835.+	2799578	2799835	+	F11
1565441.1566697.+	1565441	1566697	+	H37Rv	1569782.1571038.+	1569782	1571038	+	F11
1803294.1804031.+	1803294	1804031	+	H37Rv	1798685.1799422.+	1798685	1799422	+	F11
1158918.1159307.-	1159307	1158918	-	H37Rv	1162686.1163075.-	1163075	1162686	-	F11
703985.704212.+	703985	704212	+	H37Rv	707213.707440.+	707213	707440	+	F11
2421662.2422003.-	2422003	2421662	-	H37Rv	2435223.2435564.-	2435564	2435223	-	F11
1965609.1965941.+	1965609	1965941	+	H37Rv	1962309.1962641.+	1962309	1962641	+	F11
2505714.2506085.-	2506085	2505714	-	H37Rv	2517860.2518231.-	2518231	2517860	-	F11
710782.711009.+	710782	711009	+	H37Rv	714010.714237.+	714010	714237	+	F11
1638381.1639646.+	1638381	1639646	+	H37Rv	1642965.1644230.+	1642965	1644230	+	F11
2620272.2620529.+	2620272	2620529	+	H37Rv	2631069.2631326.+	2631069	2631326	+	F11
1485313.1485771.-	1485771	1485313	-	H37Rv	1492112.1492570.-	1492570	1492112	-	F11
200974.202479.+	200974	202479	+	H37Rv	201290.202795.+	201290	202795	+	F11
2592723.2594153.-	2594153	2592723	-	H37Rv	2603511.2604941.-	2604941	2603511	-	F11
1946417.1946524.+	1946417	1946524	+	H37Rv	1941645.1941752.+	1941645	1941752	+	F11
2321141.2321467.+	2321141	2321467	+	H37Rv	2335753.2336079.+	2335753	2336079	+	F11
2534042.2534464.-	2534464	2534042	-	H37Rv	2546190.2546612.-	2546612	2546190	-	F11
544835.545185.+	544835	545185	+	H37Rv	548004.548354.+	548004	548354	+	F11
3668951.3669388.-	3669388	3668951	-	H37Rv	3680666.3681103.-	3681103	3680666	-	F11
1341358.1342653.-	1342653	1341358	-	H37Rv	1345122.1346417.-	1346417	1345122	-	F11
2828556.2829851.-	2829851	2828556	-	H37Rv	1345122.1346417.-	1346417	1345122	-	F11
1169375.1170670.+	1169375	1170670	+	H37Rv	1345122.1346417.-	1346417	1345122	-	F11
3381375.3382670.-	3382670	3381375	-	H37Rv	1345122.1346417.-	1346417	1345122	-	F11
3481403.3482698.+	3481403	3482698	+	H37Rv	1345122.1346417.-	1346417	1345122	-	F11
568964.569986.-	569986	568964	-	H37Rv	572133.573155.-	573155	572133	-	F11
2357907.2358206.-	2358206	2357907	-	H37Rv	2373943.2374242.-	2374242	2373943	-	F11
3291503.3296365.-	3296365	3291503	-	H37Rv	3302976.3307838.-	3307838	3302976	-	F11
71589.71828.+	71589	71828	+	H37Rv	71731.71970.+	71731	71970	+	F11
1120889.1122148.-	1122148	1120889	-	H37Rv	1124657.1125916.-	1125916	1124657	-	F11
4269840.4270373.-	4270373	4269840	-	H37Rv	4282841.4283374.-	4283374	4282841	-	F11
183415.183561.+	183415	183561	+	H37Rv	183731.183877.+	183731	183877	+	F11
2580028.2580210.-	2580210	2580028	-	H37Rv	2590816.2590998.-	2590998	2590816	-	F11
4301563.4302789.-	4302789	4301563	-	H37Rv	4314564.4315790.-	4315790	4314564	-	F11
4302786.4303367.-	4303367	4302786	-	H37Rv	4315787.4316368.-	4316368	4315787	-	F11
3101581.3102162.-	3102162	3101581	-	H37Rv	4315787.4316368.-	4316368	4315787	-	F11
3168583.3169356.-	3169356	3168583	-	H37Rv	3180221.3180994.-	3180994	3180221	-	F11
2534470.2535564.-	2535564	2534470	-	H37Rv	2546190.2547710.-	2547710	2546190	-	F11
3115034.3115303.+	3115034	3115303	+	H37Rv	3126989.3127258.+	3126989	3127258	+	F11
2260665.2261144.+	2260665	2261144	+	H37Rv	2268919.2269398.+	2268919	2269398	+	F11
3583801.3584658.-	3584658	3583801	-	H37Rv	3595565.3596422.-	3596422	3595565	-	F11
1177239.1177373.+	1177239	1177373	+	H37Rv	1181009.1181143.+	1181009	1181143	+	F11
1564401.1565027.+	1564401	1565027	+	H37Rv	1568742.1569368.+	1568742	1569368	+	F11
1299822.1300124.-	1300124	1299822	-	H37Rv	1303586.1303888.-	1303888	1303586	-	F11
3703464.3703952.-	3703952	3703464	-	H37Rv	3715121.3715609.-	3715609	3715121	-	F11
2281210.2281617.+	2281210	2281617	+	H37Rv	2295822.2296229.+	2295822	2296229	+	F11
257783.258856.-	258856	257783	-	H37Rv	258101.259174.-	259174	258101	-	F11
4153860.4155674.+	4153860	4155674	+	H37Rv	4166861.4168675.+	4166861	4168675	+	F11
2360732.2363281.+	2360732	2363281	+	H37Rv	2376768.2379317.+	2376768	2379317	+	F11
1389357.1393001.-	1393001	1389357	-	H37Rv	1393124.1396768.-	1396768	1393124	-	F11
660934.661269.+	660934	661269	+	H37Rv	664162.664497.+	664162	664497	+	F11
3880432.3880653.-	3880653	3880432	-	H37Rv	3894143.3894364.-	3894364	3894143	-	F11
1259067.1261346.-	1261346	1259067	-	H37Rv	1262834.1265113.-	1265113	1262834	-	F11
545375.545902.-	545902	545375	-	H37Rv	548544.549071.-	549071	548544	-	F11
3082909.3083370.+	3082909	3083370	+	H37Rv	3094864.3095325.+	3094864	3095325	+	F11
1612342.1612950.-	1612950	1612342	-	H37Rv	1616683.1617312.-	1617312	1616683	-	F11
3356733.3356933.-	3356933	3356733	-	H37Rv	3368442.3368642.-	3368642	3368442	-	F11
3809442.3811022.-	3811022	3809442	-	H37Rv	3820559.3822139.-	3822139	3820559	-	F11
3101581.3102192.-	3102192	3101581	-	H37Rv	3113536.3114147.-	3114147	3113536	-	F11
701400.702014.+	701400	702014	+	H37Rv	3113536.3114147.-	3114147	3113536	-	F11
4302786.4303397.-	4303397	4302786	-	H37Rv	3113536.3114147.-	3114147	3113536	-	F11
3195545.3196162.-	3196162	3195545	-	H37Rv	3113536.3114147.-	3114147	3113536	-	F11
53663.55699.+	53663	55699	+	H37Rv	53764.55803.+	53764	55803	+	F11
3639425.3639844.+	3639425	3639844	+	H37Rv	3651203.3651622.+	3651203	3651622	+	F11
4283996.4284331.+	4283996	4284331	+	H37Rv	4296997.4297332.+	4296997	4297332	+	F11
34307.36610.+	34307	36610	+	H37Rv	34408.36711.+	34408	36711	+	F11
1178604.1178816.-	1178816	1178604	-	H37Rv	1182374.1182586.-	1182586	1182374	-	F11
1169360.1170670.+	1169360	1170670	+	H37Rv	3393085.3394395.-	3394395	3393085	-	F11
3381375.3382685.-	3382685	3381375	-	H37Rv	3393085.3394395.-	3394395	3393085	-	F11
3481388.3482698.+	3481388	3482698	+	H37Rv	3393085.3394395.-	3394395	3393085	-	F11
1341358.1342668.-	1342668	1341358	-	H37Rv	3393085.3394395.-	3394395	3393085	-	F11
2828556.2829866.-	2829866	2828556	-	H37Rv	3393085.3394395.-	3394395	3393085	-	F11
1612256.1612393.+	1612256	1612393	+	H37Rv	1616597.1616734.+	1616597	1616734	+	F11
3558798.3558980.-	3558980	3558798	-	H37Rv	3570563.3570745.-	3570745	3570563	-	F11
3020323.3020511.+	3020323	3020511	+	H37Rv	3032278.3032466.+	3032278	3032466	+	F11
2971659.2972027.+	2971659	2972027	+	H37Rv	2984976.2985344.+	2984976	2985344	+	F11
1989833.1992685.-	1992685	1989833	-	H37Rv	1994465.1997308.-	1997308	1994465	-	F11
4211080.4211784.-	4211784	4211080	-	H37Rv	4224081.4224785.-	4224785	4224081	-	F11
697904.698410.-	698410	697904	-	H37Rv	701132.701638.-	701638	701132	-	F11
3110507.3110731.-	3110731	3110507	-	H37Rv	3122462.3122686.-	3122686	3122462	-	F11
103710.104573.-	104573	103710	-	H37Rv	3897765.3898628.+	3897765	3898628	+	F11
3884054.3884917.+	3884054	3884917	+	H37Rv	3897765.3898628.+	3897765	3898628	+	F11
1114386.1114706.-	1114706	1114386	-	H37Rv	1118154.1118474.-	1118474	1118154	-	F11
103710.104663.-	104663	103710	-	H37Rv	3897675.3898628.+	3897675	3898628	+	F11
3883964.3884917.+	3883964	3884917	+	H37Rv	3897675.3898628.+	3897675	3898628	+	F11
1788162.1789397.-	1789397	1788162	-	H37Rv	3897675.3898628.+	3897675	3898628	+	F11
2925492.2925737.+	2925492	2925737	+	H37Rv	2938809.2939054.+	2938809	2939054	+	F11
1164164.1164472.-	1164472	1164164	-	H37Rv	1167932.1168240.-	1168240	1167932	-	F11
2025181.2026398.+	2025181	2026398	+	H37Rv	2033479.2034651.+	2033479	2034651	+	F11
3053914.3055491.+	3053914	3055491	+	H37Rv	3065869.3067446.+	3065869	3067446	+	F11
4199721.4200221.-	4200221	4199721	-	H37Rv	4212722.4213222.-	4213222	4212722	-	F11
2649946.2650248.-	2650248	2649946	-	H37Rv	2663241.2663543.-	2663543	2663241	-	F11
2677666.2678649.+	2677666	2678649	+	H37Rv	2690961.2691944.+	2690961	2691944	+	F11
2387202.2387972.-	2387972	2387202	-	H37Rv	2400763.2401533.-	2401533	2400763	-	F11
3800017.3800796.+	3800017	3800796	+	H37Rv	3811134.3811913.+	3811134	3811913	+	F11
2583438.2583779.+	2583438	2583779	+	H37Rv	2594226.2594567.+	2594226	2594567	+	F11
518589.519041.+	518589	519041	+	H37Rv	521759.522211.+	521759	522211	+	F11
3040766.3041458.-	3041458	3040766	-	H37Rv	3052721.3053413.-	3053413	3052721	-	F11
33582.33794.+	33582	33794	+	H37Rv	33683.33895.+	33683	33895	+	F11
85636.86490.-	86490	85636	-	H37Rv	85769.86623.-	86623	85769	-	F11
2387202.2388269.-	2388269	2387202	-	H37Rv	2400763.2401830.-	2401830	2400763	-	F11
2387969.2388235.-	2388235	2387969	-	H37Rv	2401530.2401796.-	2401796	2401530	-	F11
3649369.3650109.+	3649369	3650109	+	H37Rv	3661147.3661887.+	3661147	3661887	+	F11
1902391.1903299.+	1902391	1903299	+	H37Rv	1897620.1898528.+	1897620	1898528	+	F11
3598901.3599551.-	3599551	3598901	-	H37Rv	3610679.3611329.-	3611329	3610679	-	F11
2263426.2264001.+	2263426	2264001	+	H37Rv	2273038.2273613.+	2273038	2273613	+	F11
2943376.2943603.+	2943376	2943603	+	H37Rv	2956693.2956920.+	2956693	2956920	+	F11
3778466.3780334.+	3778466	3780334	+	H37Rv	3790932.3792809.+	3790932	3792809	+	F11
2259817.2260065.+	2259817	2260065	+	H37Rv	2268071.2268319.+	2268071	2268319	+	F11
186495.186620.-	186620	186495	-	H37Rv	186811.186936.-	186936	186811	-	F11
3975360.3977060.+	3975360	3977060	+	H37Rv	3988144.3989844.+	3988144	3989844	+	F11
665434.665601.-	665601	665434	-	H37Rv	668662.668829.-	668829	668662	-	F11
769999.770550.+	769999	770550	+	H37Rv	773760.774311.+	773760	774311	+	F11
1200593.1201660.+	1200593	1201660	+	H37Rv	1204363.1205430.+	1204363	1205430	+	F11
103710.104573.-	104573	103710	-	H37Rv	103843.104706.-	104706	103843	-	F11
3884054.3884917.+	3884054	3884917	+	H37Rv	103843.104706.-	104706	103843	-	F11
3132892.3133614.-	3133614	3132892	-	H37Rv	3144530.3145252.-	3145252	3144530	-	F11
3239515.3239706.-	3239706	3239515	-	H37Rv	3250988.3251179.-	3251179	3250988	-	F11
3239570.3239785.-	3239785	3239570	-	H37Rv	3250988.3251179.-	3251179	3250988	-	F11
577643.578269.+	577643	578269	+	H37Rv	580812.581438.+	580812	581438	+	F11
749234.750001.-	750001	749234	-	H37Rv	752995.753762.-	753762	752995	-	F11
1530973.1531209.-	1531209	1530973	-	H37Rv	1536672.1536908.-	1536908	1536672	-	F11
3076367.3076720.-	3076720	3076367	-	H37Rv	3088322.3088675.-	3088675	3088322	-	F11
661253.663373.+	661253	663373	+	H37Rv	664481.666601.+	664481	666601	+	F11
1668419.1669144.+	1668419	1669144	+	H37Rv	1673056.1673781.+	1673056	1673781	+	F11
3908072.3908236.+	3908072	3908236	+	H37Rv	3920425.3920589.+	3920425	3920589	+	F11
172202.173143.+	172202	173143	+	H37Rv	172518.173459.+	172518	173459	+	F11
21637.23172.-	23172	21637	-	H37Rv	21738.23273.-	23273	21738	-	F11
1365344.1365808.+	1365344	1365808	+	H37Rv	1369109.1369573.+	1369109	1369573	+	F11
1999731.2000006.+	1999731	2000006	+	H37Rv	2006671.2006946.+	2006671	2006946	+	F11
1338967.1339302.+	1338967	1339302	+	H37Rv	1342732.1343067.+	1342732	1343067	+	F11
2097330.2097650.+	2097330	2097650	+	H37Rv	2105520.2105840.+	2105520	2105840	+	F11
1938841.1939602.+	1938841	1939602	+	H37Rv	1934070.1934831.+	1934070	1934831	+	F11
1711028.1712068.+	1711028	1712068	+	H37Rv	1715665.1716705.+	1715665	1716705	+	F11
171803.172168.+	171803	172168	+	H37Rv	172119.172484.+	172119	172484	+	F11
780721.781311.+	780721	781311	+	H37Rv	784482.785072.+	784482	785072	+	F11
551981.552550.+	551981	552550	+	H37Rv	555150.555719.+	555150	555719	+	F11
1259067.1261376.-	1261376	1259067	-	H37Rv	1262834.1265143.-	1265143	1262834	-	F11
4132518.4133519.+	4132518	4133519	+	H37Rv	4145519.4146520.+	4145519	4146520	+	F11
1053765.1054241.+	1053765	1054241	+	H37Rv	1057591.1058067.+	1057591	1058067	+	F11
1408231.1409358.+	1408231	1409358	+	H37Rv	1411998.1413125.+	1411998	1413125	+	F11
361334.363109.+	361334	363109	+	H37Rv	364475.366250.+	364475	366250	+	F11
703830.704057.+	703830	704057	+	H37Rv	707058.707285.+	707058	707285	+	F11
2792723.2794000.-	2794000	2792723	-	H37Rv	2806039.2807316.-	2807316	2806039	-	F11
315783.316415.-	316415	315783	-	H37Rv	316100.316732.-	316732	316100	-	F11
503146.503298.+	503146	503298	+	H37Rv	506316.506468.+	506316	506468	+	F11
3020200.3020457.-	3020457	3020200	-	H37Rv	3032155.3032412.-	3032412	3032155	-	F11
3051806.3052012.-	3052012	3051806	-	H37Rv	3063761.3063967.-	3063967	3063761	-	F11
95417.96892.+	95417	96892	+	H37Rv	95550.97025.+	95550	97025	+	F11
3187021.3187611.+	3187021	3187611	+	H37Rv	3198551.3199141.+	3198551	3199141	+	F11
2725866.2726060.-	2726060	2725866	-	H37Rv	2740540.2740734.-	2740734	2740540	-	F11
3386074.3386919.-	3386919	3386074	-	H37Rv	3397784.3398629.-	3398629	3397784	-	F11
1566816.1568036.+	1566816	1568036	+	H37Rv	1571157.1572377.+	1571157	1572377	+	F11
1846989.1848170.-	1848170	1846989	-	H37Rv	1842380.1843561.-	1843561	1842380	-	F11
631719.632375.+	631719	632375	+	H37Rv	634947.635603.+	634947	635603	+	F11
3559560.3560024.+	3559560	3560024	+	H37Rv	3571325.3571789.+	3571325	3571789	+	F11
2334295.2334594.-	2334594	2334295	-	H37Rv	2348907.2349206.-	2349206	2348907	-	F11
1158918.1159412.-	1159412	1158918	-	H37Rv	1162686.1163180.-	1163180	1162686	-	F11
87798.88004.-	88004	87798	-	H37Rv	87931.88137.-	88137	87931	-	F11
4162306.4163718.+	4162306	4163718	+	H37Rv	4175307.4176719.+	4175307	4176719	+	F11
3313773.3314591.-	3314591	3313773	-	H37Rv	3325246.3326064.-	3326064	3325246	-	F11
3184663.3184854.+	3184663	3184854	+	H37Rv	3196193.3196384.+	3196193	3196384	+	F11
3447404.3448429.-	3448429	3447404	-	H37Rv	3459168.3460193.-	3460193	3459168	-	F11
2061178.2062674.-	2062674	2061178	-	H37Rv	2069430.2070926.-	2070926	2069430	-	F11
4053881.4054042.-	4054042	4053881	-	H37Rv	4066884.4067045.-	4067045	4066884	-	F11
2398403.2398684.+	2398403	2398684	+	H37Rv	2411964.2412245.+	2411964	2412245	+	F11
2414934.2416403.-	2416403	2414934	-	H37Rv	2428495.2429964.-	2429964	2428495	-	F11
3689457.3690968.-	3690968	3689457	-	H37Rv	3701238.3702683.-	3702683	3701238	-	F11
1532443.1533630.-	1533630	1532443	-	H37Rv	1538142.1539329.-	1539329	1538142	-	F11
3894429.3895607.+	3894429	3895607	+	H37Rv	1538142.1539329.-	1539329	1538142	-	F11
1339352.1340524.+	1339352	1340524	+	H37Rv	1538142.1539329.-	1539329	1538142	-	F11
2370905.2372542.-	2372542	2370905	-	H37Rv	2384297.2385934.-	2385934	2384297	-	F11
1618209.1619672.-	1619672	1618209	-	H37Rv	1622571.1624034.-	1624034	1622571	-	F11
3502945.3503259.-	3503259	3502945	-	H37Rv	3516068.3516382.-	3516382	3516068	-	F11
278385.278588.+	278385	278588	+	H37Rv	278703.278906.+	278703	278906	+	F11
1262272.1264128.-	1264128	1262272	-	H37Rv	1266039.1267895.-	1267895	1266039	-	F11
3113661.3114812.+	3113661	3114812	+	H37Rv	3125616.3126767.+	3125616	3126767	+	F11
3371815.3372471.+	3371815	3372471	+	H37Rv	3383524.3384180.+	3383524	3384180	+	F11
274306.274719.-	274719	274306	-	H37Rv	274624.275037.-	275037	274624	-	F11
1616365.1616601.-	1616601	1616365	-	H37Rv	1620727.1620963.-	1620963	1620727	-	F11
4158215.4158922.+	4158215	4158922	+	H37Rv	4171216.4171923.+	4171216	4171923	+	F11
987233.988705.+	987233	988705	+	H37Rv	991058.992530.+	991058	992530	+	F11
2343994.2344224.+	2343994	2344224	+	H37Rv	2359965.2360195.+	2359965	2360195	+	F11
3380679.3380993.-	3380993	3380679	-	H37Rv	3392389.3392703.-	3392703	3392389	-	F11
2715472.2716305.-	2716305	2715472	-	H37Rv	2730146.2730979.-	2730979	2730146	-	F11
1680727.1680990.+	1680727	1680990	+	H37Rv	1685364.1685627.+	1685364	1685627	+	F11
2265271.2265999.+	2265271	2265999	+	H37Rv	2274883.2275611.+	2274883	2275611	+	F11
4235311.4235739.+	4235311	4235739	+	H37Rv	4248312.4248740.+	4248312	4248740	+	F11
1016820.1017215.-	1017215	1016820	-	H37Rv	1020646.1021041.-	1021041	1020646	-	F11
1992739.1992972.+	1992739	1992972	+	H37Rv	1998720.1998953.+	1998720	1998953	+	F11
2682015.2683142.-	2683142	2682015	-	H37Rv	2695310.2696437.-	2696437	2695310	-	F11
1813168.1814577.+	1813168	1814577	+	H37Rv	1808559.1809968.+	1808559	1809968	+	F11
1164164.1164436.-	1164436	1164164	-	H37Rv	1167932.1168204.-	1168204	1167932	-	F11
1893577.1894230.-	1894230	1893577	-	H37Rv	1888967.1889620.-	1889620	1888967	-	F11
2725595.2725861.-	2725861	2725595	-	H37Rv	2740269.2740535.-	2740535	2740269	-	F11
3889948.3890733.-	3890733	3889948	-	H37Rv	3903659.3904444.-	3904444	3903659	-	F11
4150030.4151136.-	4151136	4150030	-	H37Rv	4163031.4164137.-	4164137	4163031	-	F11
1030578.1031366.-	1031366	1030578	-	H37Rv	1034404.1035192.-	1035192	1034404	-	F11
1742244.1742852.+	1742244	1742852	+	H37Rv	1746881.1747489.+	1746881	1747489	+	F11
3841714.3842076.-	3842076	3841714	-	H37Rv	3860351.3860713.-	3860713	3860351	-	F11
3846682.3847002.-	3847002	3846682	-	H37Rv	3860351.3860713.-	3860713	3860351	-	F11
1095078.1096496.-	1096496	1095078	-	H37Rv	1098847.1100265.-	1100265	1098847	-	F11
805798.806166.+	805798	806166	+	H37Rv	809667.810035.+	809667	810035	+	F11
586394.587380.+	586394	587380	+	H37Rv	589539.590525.+	589539	590525	+	F11
4169467.4169709.+	4169467	4169709	+	H37Rv	4182468.4182710.+	4182468	4182710	+	F11
3511682.3512068.+	3511682	3512068	+	H37Rv	3524805.3525191.+	3524805	3525191	+	F11
456268.456819.-	456819	456268	-	H37Rv	459436.459987.-	459987	459436	-	F11
2984688.2985254.+	2984688	2985254	+	H37Rv	2996647.2997213.+	2996647	2997213	+	F11
704424.704759.+	704424	704759	+	H37Rv	707652.707987.+	707652	707987	+	F11
2335059.2335373.+	2335059	2335373	+	H37Rv	2351029.2351343.+	2351029	2351343	+	F11
831776.832303.+	831776	832303	+	H37Rv	835645.836172.+	835645	836172	+	F11
2316681.2317094.-	2317094	2316681	-	H37Rv	2331293.2331706.-	2331706	2331293	-	F11
4264563.4265462.-	4265462	4264563	-	H37Rv	4277564.4278463.-	4278463	4277564	-	F11
828947.829159.+	828947	829159	+	H37Rv	832816.833028.+	832816	833028	+	F11
3527391.3529322.-	3529322	3527391	-	H37Rv	3540514.3542445.-	3542445	3540514	-	F11
2201223.2201744.-	2201744	2201223	-	H37Rv	2209478.2209999.-	2209999	2209478	-	F11
1655609.1656721.-	1656721	1655609	-	H37Rv	1660246.1661358.-	1661358	1660246	-	F11
3781501.3784776.-	3784776	3781501	-	H37Rv	3793976.3797251.-	3797251	3793976	-	F11
2854683.2854907.-	2854907	2854683	-	H37Rv	2868001.2868225.-	2868225	2868001	-	F11
57335.57973.+	57335	57973	+	H37Rv	57439.58077.+	57439	58077	+	F11
2617667.2619004.-	2619004	2617667	-	H37Rv	2628464.2629801.-	2629801	2628464	-	F11
2167649.2170612.-	2170612	2167649	-	H37Rv	2175904.2178867.-	2178867	2175904	-	F11
2370598.2370813.-	2370813	2370598	-	H37Rv	2383990.2384205.-	2384205	2383990	-	F11
1090343.1093144.+	1090343	1093144	+	H37Rv	1094166.1096967.+	1094166	1096967	+	F11
817531.817905.-	817905	817531	-	H37Rv	821400.821774.-	821774	821400	-	F11
3846682.3847002.-	3847002	3846682	-	H37Rv	3852990.3853367.-	3853367	3852990	-	F11
3841714.3842076.-	3842076	3841714	-	H37Rv	3852990.3853367.-	3853367	3852990	-	F11
3053589.3053855.+	3053589	3053855	+	H37Rv	3065544.3065810.+	3065544	3065810	+	F11
230899.231534.+	230899	231534	+	H37Rv	231215.231850.+	231215	231850	+	F11
3243697.3245448.+	3243697	3245448	+	H37Rv	3255170.3256921.+	3255170	3256921	+	F11
515373.515816.-	515816	515373	-	H37Rv	518543.518986.-	518986	518543	-	F11
2627172.2628698.-	2628698	2627172	-	H37Rv	2637969.2639495.-	2639495	2637969	-	F11
729327.730187.-	730187	729327	-	H37Rv	732555.733415.-	733415	732555	-	F11
2581208.2581477.+	2581208	2581477	+	H37Rv	2591996.2592265.+	2591996	2592265	+	F11
1074080.1074421.+	1074080	1074421	+	H37Rv	1077903.1078244.+	1077903	1078244	+	F11
1160855.1160974.-	1160974	1160855	-	H37Rv	1164623.1164742.-	1164742	1164623	-	F11
4060295.4060414.-	4060414	4060295	-	H37Rv	1164623.1164742.-	1164742	1164623	-	F11
1340836.1340955.+	1340836	1340955	+	H37Rv	1164623.1164742.-	1164742	1164623	-	F11
2030524.2030643.+	2030524	2030643	+	H37Rv	1164623.1164742.-	1164742	1164623	-	F11
2626223.2626342.-	2626342	2626223	-	H37Rv	1164623.1164742.-	1164742	1164623	-	F11
3392812.3393201.+	3392812	3393201	+	H37Rv	3404522.3404911.+	3404522	3404911	+	F11
2747595.2750255.-	2750255	2747595	-	H37Rv	2762269.2764929.-	2764929	2762269	-	F11
3394019.3394921.-	3394921	3394019	-	H37Rv	3405729.3406631.-	3406631	3405729	-	F11
4094660.4094983.-	4094983	4094660	-	H37Rv	4107662.4107985.-	4107985	4107662	-	F11
3471413.3471889.-	3471889	3471413	-	H37Rv	3483177.3483653.-	3483653	3483177	-	F11
1276300.1277748.-	1277748	1276300	-	H37Rv	1280064.1281512.-	1281512	1280064	-	F11
2195905.2197353.+	2195905	2197353	+	H37Rv	1280064.1281512.-	1281512	1280064	-	F11
1899972.1900247.+	1899972	1900247	+	H37Rv	1895201.1895476.+	1895201	1895476	+	F11
521511.522167.+	521511	522167	+	H37Rv	524681.525337.+	524681	525337	+	F11
1200767.1201660.+	1200767	1201660	+	H37Rv	1204537.1205430.+	1204537	1205430	+	F11
4266953.4268896.-	4268896	4266953	-	H37Rv	4279954.4281897.-	4281897	4279954	-	F11
2030362.2030523.+	2030362	2030523	+	H37Rv	2038614.2038775.+	2038614	2038775	+	F11
2049918.2051150.+	2049918	2051150	+	H37Rv	2058170.2059402.+	2058170	2059402	+	F11
3289967.3290506.+	3289967	3290506	+	H37Rv	3301440.3301979.+	3301440	3301979	+	F11
17467.18744.-	18744	17467	-	H37Rv	17568.18845.-	18845	17568	-	F11
1810240.1811058.+	1810240	1811058	+	H37Rv	1805631.1806449.+	1805631	1806449	+	F11
2428235.2429269.-	2429269	2428235	-	H37Rv	2441796.2442830.-	2442830	2441796	-	F11
2316279.2316680.+	2316279	2316680	+	H37Rv	2330891.2331292.+	2330891	2331292	+	F11
3239570.3239785.-	3239785	3239570	-	H37Rv	3251043.3251258.-	3251258	3251043	-	F11
4140239.4140463.-	4140463	4140239	-	H37Rv	4153240.4153464.-	4153464	4153240	-	F11
985513.985971.-	985971	985513	-	H37Rv	989338.989796.-	989796	989338	-	F11
2121495.2121872.-	2121872	2121495	-	H37Rv	2129686.2130063.-	2130063	2129686	-	F11
3195545.3196216.-	3196216	3195545	-	H37Rv	3207074.3207745.-	3207745	3207074	-	F11
2084559.2084759.+	2084559	2084759	+	H37Rv	2092755.2092955.+	2092755	2092955	+	F11
2916222.2916431.-	2916431	2916222	-	H37Rv	2929539.2929748.-	2929748	2929539	-	F11
1003954.1004484.+	1003954	1004484	+	H37Rv	1007779.1008309.+	1007779	1008309	+	F11
4363417.4364757.-	4364757	4363417	-	H37Rv	4376417.4377757.-	4377757	4376417	-	F11
139965.140144.+	139965	140144	+	H37Rv	140101.140280.+	140101	140280	+	F11
223564.224664.+	223564	224664	+	H37Rv	223880.224980.+	223880	224980	+	F11
2528980.2529174.-	2529174	2528980	-	H37Rv	2541128.2541322.-	2541322	2541128	-	F11
1165092.1165499.-	1165499	1165092	-	H37Rv	1281657.1282064.+	1281657	1282064	+	F11
1277893.1278300.+	1277893	1278300	+	H37Rv	1281657.1282064.+	1281657	1282064	+	F11
4293225.4299536.-	4299536	4293225	-	H37Rv	4306226.4312537.-	4312537	4306226	-	F11
4128751.4129116.-	4129116	4128751	-	H37Rv	4141752.4142117.-	4142117	4141752	-	F11
1617657.1618070.+	1617657	1618070	+	H37Rv	1622019.1622432.+	1622019	1622432	+	F11
3754293.3755033.-	3755033	3754293	-	H37Rv	3766759.3767499.-	3767499	3766759	-	F11
3467606.3467926.+	3467606	3467926	+	H37Rv	3479370.3479690.+	3479370	3479690	+	F11
359758.361164.-	361164	359758	-	H37Rv	362899.364305.-	364305	362899	-	F11
1176928.1177242.+	1176928	1177242	+	H37Rv	1180698.1181012.+	1180698	1181012	+	F11
842009.842278.+	842009	842278	+	H37Rv	845878.846147.+	845878	846147	+	F11
4094923.4095543.-	4095543	4094923	-	H37Rv	4108002.4108544.-	4108544	4108002	-	F11
1751297.1753333.-	1753333	1751297	-	H37Rv	1755934.1757970.-	1757970	1755934	-	F11
4107475.4107669.+	4107475	4107669	+	H37Rv	4120476.4120670.+	4120476	4120670	+	F11
767317.767820.-	767820	767317	-	H37Rv	771078.771581.-	771581	771078	-	F11
3895637.3898885.+	3895637	3898885	+	H37Rv	3907990.3911238.+	3907990	3911238	+	F11
1315234.1319982.+	1315234	1319982	+	H37Rv	1318999.1323747.+	1318999	1323747	+	F11
1077233.1077892.-	1077892	1077233	-	H37Rv	1081056.1081715.-	1081715	1081056	-	F11
937593.937835.+	937593	937835	+	H37Rv	941408.941650.+	941408	941650	+	F11
3101581.3102186.-	3102186	3101581	-	H37Rv	3113536.3114141.-	3114141	3113536	-	F11
701406.702014.+	701406	702014	+	H37Rv	3113536.3114141.-	3114141	3113536	-	F11
4302786.4303391.-	4303391	4302786	-	H37Rv	3113536.3114141.-	3114141	3113536	-	F11
3195545.3196156.-	3196156	3195545	-	H37Rv	3113536.3114141.-	3114141	3113536	-	F11
2833510.2833761.-	2833761	2833510	-	H37Rv	2846828.2847079.-	2847079	2846828	-	F11
536504.537169.-	537169	536504	-	H37Rv	539673.540338.-	540338	539673	-	F11
1094535.1095059.+	1094535	1095059	+	H37Rv	1098304.1098828.+	1098304	1098828	+	F11
2334852.2335022.-	2335022	2334852	-	H37Rv	2350822.2350992.-	2350992	2350822	-	F11
1276300.1276860.-	1276860	1276300	-	H37Rv	1280064.1280624.-	1280624	1280064	-	F11
1828171.1828797.+	1828171	1828797	+	H37Rv	1823562.1824188.+	1823562	1824188	+	F11
2212885.2214126.+	2212885	2214126	+	H37Rv	2221139.2222380.+	2221139	2222380	+	F11
938112.939404.+	938112	939404	+	H37Rv	941927.943219.+	941927	943219	+	F11
4128751.4129083.-	4129083	4128751	-	H37Rv	4141752.4142084.-	4142084	4141752	-	F11
2786575.2786898.-	2786898	2786575	-	H37Rv	2799891.2800214.-	2800214	2799891	-	F11
1118428.1119939.-	1119939	1118428	-	H37Rv	1122196.1123707.-	1123707	1122196	-	F11
4200421.4201326.+	4200421	4201326	+	H37Rv	4213422.4214327.+	4213422	4214327	+	F11
3708438.3709070.-	3709070	3708438	-	H37Rv	3720095.3720727.-	3720727	3720095	-	F11
2784123.2784608.-	2784608	2784123	-	H37Rv	2798797.2799282.-	2799282	2798797	-	F11
400192.401703.+	400192	401703	+	H37Rv	403272.404783.+	403272	404783	+	F11
606551.608062.+	606551	608062	+	H37Rv	403272.404783.+	403272	404783	+	F11
2084756.2086981.-	2086981	2084756	-	H37Rv	2092952.2095177.-	2095177	2092952	-	F11
3331358.3331612.-	3331612	3331358	-	H37Rv	3342831.3343085.-	3343085	3342831	-	F11
3873452.3874132.+	3873452	3874132	+	H37Rv	3887163.3887843.+	3887163	3887843	+	F11
3800723.3801463.+	3800723	3801463	+	H37Rv	3811840.3812580.+	3811840	3812580	+	F11
1016212.1016685.+	1016212	1016685	+	H37Rv	1020038.1020511.+	1020038	1020511	+	F11
1572127.1572450.-	1572450	1572127	-	H37Rv	1576468.1576791.-	1576791	1576468	-	F11
1467249.1467680.+	1467249	1467680	+	H37Rv	1471016.1471447.+	1471016	1471447	+	F11
1384266.1384538.+	1384266	1384538	+	H37Rv	1388032.1388304.+	1388032	1388304	+	F11
2546839.2547087.-	2547087	2546839	-	H37Rv	2558985.2559233.-	2559233	2558985	-	F11
475783.476253.-	476253	475783	-	H37Rv	478953.479423.-	479423	478953	-	F11
876689.876829.+	876689	876829	+	H37Rv	880559.880699.+	880559	880699	+	F11
4134726.4136048.+	4134726	4136048	+	H37Rv	4147727.4149049.+	4147727	4149049	+	F11
2506207.2506383.-	2506383	2506207	-	H37Rv	2518353.2518529.-	2518529	2518353	-	F11
3887144.3888817.-	3888817	3887144	-	H37Rv	3900855.3902528.-	3902528	3900855	-	F11
2211614.2212858.+	2211614	2212858	+	H37Rv	2219868.2221112.+	2219868	2221112	+	F11
3591646.3592257.+	3591646	3592257	+	H37Rv	3603411.3604022.+	3603411	3604022	+	F11
1965657.1965941.+	1965657	1965941	+	H37Rv	1962357.1962641.+	1962357	1962641	+	F11
446531.447046.-	447046	446531	-	H37Rv	449699.450214.-	450214	449699	-	F11
4019262.4020128.+	4019262	4020128	+	H37Rv	4032043.4032909.+	4032043	4032909	+	F11
3826252.3826551.+	3826252	3826551	+	H37Rv	3837544.3837843.+	3837544	3837843	+	F11
715292.716317.+	715292	716317	+	H37Rv	718520.719545.+	718520	719545	+	F11
3501334.3501732.+	3501334	3501732	+	H37Rv	3514457.3514855.+	3514457	3514855	+	F11
3811704.3812345.+	3811704	3812345	+	H37Rv	3822821.3823462.+	3822821	3823462	+	F11
3529990.3531147.-	3531147	3529990	-	H37Rv	3543113.3544270.-	3544270	3543113	-	F11
2501336.2501638.-	2501638	2501336	-	H37Rv	2513482.2513784.-	2513784	2513482	-	F11
660886.661269.+	660886	661269	+	H37Rv	664114.664497.+	664114	664497	+	F11
144007.145626.+	144007	145626	+	H37Rv	144143.145762.+	144143	145762	+	F11
4062449.4063249.+	4062449	4063249	+	H37Rv	4075452.4076252.+	4075452	4076252	+	F11
3435798.3436322.-	3436322	3435798	-	H37Rv	3447562.3448086.-	3448086	3447562	-	F11
738297.739217.-	739217	738297	-	H37Rv	741525.742445.-	742445	741525	-	F11
2546488.2546805.-	2546805	2546488	-	H37Rv	2558634.2558951.-	2558951	2558634	-	F11
2075571.2075828.+	2075571	2075828	+	H37Rv	2083767.2084024.+	2083767	2084024	+	F11
2278498.2278983.-	2278983	2278498	-	H37Rv	2293110.2293595.-	2293595	2293110	-	F11
2457637.2458395.+	2457637	2458395	+	H37Rv	2469840.2470598.+	2469840	2470598	+	F11
3073130.3073615.-	3073615	3073130	-	H37Rv	3085085.3085570.-	3085570	3085085	-	F11
2439881.2440063.-	2440063	2439881	-	H37Rv	2452084.2452266.-	2452266	2452084	-	F11
3022461.3023432.+	3022461	3023432	+	H37Rv	3034416.3035387.+	3034416	3035387	+	F11
2353046.2353297.-	2353297	2353046	-	H37Rv	2369085.2369336.-	2369336	2369085	-	F11
1886488.1888020.+	1886488	1888020	+	H37Rv	1881878.1883410.+	1881878	1883410	+	F11
654924.656009.-	656009	654924	-	H37Rv	658152.659237.-	659237	658152	-	F11
1791334.1791573.+	1791334	1791573	+	H37Rv	1786725.1786964.+	1786725	1786964	+	F11
1587772.1588491.-	1588491	1587772	-	H37Rv	1592113.1592832.-	1592832	1592113	-	F11
237892.238395.-	238395	237892	-	H37Rv	238210.238713.-	238713	238210	-	F11
1676017.1676883.-	1676883	1676017	-	H37Rv	1680654.1681520.-	1681520	1680654	-	F11
3339091.3339762.+	3339091	3339762	+	H37Rv	3350800.3351471.+	3350800	3351471	+	F11
642889.644493.+	642889	644493	+	H37Rv	646117.647721.+	646117	647721	+	F11
133020.133769.+	133020	133769	+	H37Rv	133156.133905.+	133156	133905	+	F11
3363339.3363686.+	3363339	3363686	+	H37Rv	3375048.3375395.+	3375048	3375395	+	F11
2630537.2632075.-	2632075	2630537	-	H37Rv	2641334.2642872.-	2642872	2641334	-	F11
247384.248118.-	248118	247384	-	H37Rv	247702.248436.-	248436	247702	-	F11
1539512.1540645.-	1540645	1539512	-	H37Rv	1545211.1546344.-	1546344	1545211	-	F11
2662067.2667115.-	2667115	2662067	-	H37Rv	2675362.2680410.-	2680410	2675362	-	F11
700263.701189.+	700263	701189	+	H37Rv	703491.704417.+	703491	704417	+	F11
1848517.1852041.-	1852041	1848517	-	H37Rv	1843908.1847432.-	1847432	1843908	-	F11
2628781.2630319.-	2630319	2628781	-	H37Rv	2639578.2641116.-	2641116	2639578	-	F11
1064114.1064962.-	1064962	1064114	-	H37Rv	1067937.1068785.-	1068785	1067937	-	F11
3547618.3548907.+	3547618	3548907	+	H37Rv	3560741.3562030.+	3560741	3562030	+	F11
737268.738149.-	738149	737268	-	H37Rv	740496.741377.-	741377	740496	-	F11
987182.988705.+	987182	988705	+	H37Rv	991007.992530.+	991007	992530	+	F11
2760854.2762380.+	2760854	2762380	+	H37Rv	2775528.2777054.+	2775528	2777054	+	F11
349983.351476.+	349983	351476	+	H37Rv	353124.354617.+	353124	354617	+	F11
2711332.2712885.-	2712885	2711332	-	H37Rv	2726006.2727559.-	2727559	2726006	-	F11
2791019.2792494.-	2792494	2791019	-	H37Rv	2804335.2805810.-	2805810	2804335	-	F11
2646747.2647088.-	2647088	2646747	-	H37Rv	2660042.2660383.-	2660383	2660042	-	F11
2508434.2509393.-	2509393	2508434	-	H37Rv	2520580.2521539.-	2521539	2520580	-	F11
2581424.2581750.-	2581750	2581424	-	H37Rv	2592212.2592538.-	2592538	2592212	-	F11
3709715.3710269.-	3710269	3709715	-	H37Rv	3721372.3721926.-	3721926	3721372	-	F11
3900493.3901182.-	3901182	3900493	-	H37Rv	3912846.3913535.-	3913535	3912846	-	F11
1568109.1569587.-	1569587	1568109	-	H37Rv	1572450.1573928.-	1573928	1572450	-	F11
3066222.3067133.-	3067133	3066222	-	H37Rv	3078177.3079088.-	3079088	3078177	-	F11
1340836.1340955.+	1340836	1340955	+	H37Rv	1344600.1344719.+	1344600	1344719	+	F11
2626223.2626342.-	2626342	2626223	-	H37Rv	1344600.1344719.+	1344600	1344719	+	F11
1160855.1160974.-	1160974	1160855	-	H37Rv	1344600.1344719.+	1344600	1344719	+	F11
4060295.4060414.-	4060414	4060295	-	H37Rv	1344600.1344719.+	1344600	1344719	+	F11
2030524.2030643.+	2030524	2030643	+	H37Rv	1344600.1344719.+	1344600	1344719	+	F11
3983125.3984144.-	3984144	3983125	-	H37Rv	3995909.3996928.-	3996928	3995909	-	F11
532354.532911.+	532354	532911	+	H37Rv	535523.536080.+	535523	536080	+	F11
3412085.3414166.-	3414166	3412085	-	H37Rv	3423795.3425876.-	3425876	3423795	-	F11
2051282.2052688.+	2051282	2052688	+	H37Rv	2059534.2060940.+	2059534	2060940	+	F11
3849024.3849233.-	3849233	3849024	-	H37Rv	3862735.3862944.-	3862944	3862735	-	F11
578405.579175.+	578405	579175	+	H37Rv	581574.582344.+	581574	582344	+	F11
4128751.4129200.-	4129200	4128751	-	H37Rv	4141752.4142201.-	4142201	4141752	-	F11
3181770.3183059.-	3183059	3181770	-	H37Rv	3193300.3194589.-	3194589	3193300	-	F11
462135.463307.+	462135	463307	+	H37Rv	465303.466475.+	465303	466475	+	F11
3136330.3137055.-	3137055	3136330	-	H37Rv	3147968.3148693.-	3148693	3147968	-	F11
3296350.3296640.-	3296640	3296350	-	H37Rv	3307823.3308113.-	3308113	3307823	-	F11
3755952.3767102.-	3767102	3755952	-	H37Rv	3768418.3779568.-	3779568	3768418	-	F11
3874822.3876090.+	3874822	3876090	+	H37Rv	3888533.3889801.+	3888533	3889801	+	F11
3238601.3239515.-	3239515	3238601	-	H37Rv	3250074.3250988.-	3250988	3250074	-	F11
2321057.2321467.+	2321057	2321467	+	H37Rv	2335669.2336079.+	2335669	2336079	+	F11
1151920.1152012.+	1151920	1152012	+	H37Rv	1155688.1155780.+	1155688	1155780	+	F11
2851091.2851318.+	2851091	2851318	+	H37Rv	2864409.2864636.+	2864409	2864636	+	F11
330422.331003.+	330422	331003	+	H37Rv	330739.331320.+	330739	331320	+	F11
3997740.3999638.+	3997740	3999638	+	H37Rv	4010524.4012419.+	4010524	4012419	+	F11
2725578.2725847.+	2725578	2725847	+	H37Rv	2740252.2740521.+	2740252	2740521	+	F11
3557311.3558369.-	3558369	3557311	-	H37Rv	3569076.3570134.-	3570134	3569076	-	F11
2137519.2138118.-	2138118	2137519	-	H37Rv	2145576.2146334.-	2146334	2145576	-	F11
3359320.3359538.-	3359538	3359320	-	H37Rv	3371029.3371247.-	3371247	3371029	-	F11
2594154.2594699.-	2594699	2594154	-	H37Rv	2604942.2605487.-	2605487	2604942	-	F11
1077233.1077835.-	1077835	1077233	-	H37Rv	1081056.1081658.-	1081658	1081056	-	F11
2337790.2338188.+	2337790	2338188	+	H37Rv	2353760.2354158.+	2353760	2354158	+	F11
2373816.2374457.+	2373816	2374457	+	H37Rv	2387379.2388020.+	2387379	2388020	+	F11
2028011.2028313.+	2028011	2028313	+	H37Rv	2036264.2036566.+	2036264	2036566	+	F11
218705.219367.+	218705	219367	+	H37Rv	219021.219683.+	219021	219683	+	F11
1169423.1170670.+	1169423	1170670	+	H37Rv	3494574.3495821.+	3494574	3495821	+	F11
1341358.1342605.-	1342605	1341358	-	H37Rv	3494574.3495821.+	3494574	3495821	+	F11
2828556.2829803.-	2829803	2828556	-	H37Rv	3494574.3495821.+	3494574	3495821	+	F11
3381375.3382622.-	3382622	3381375	-	H37Rv	3494574.3495821.+	3494574	3495821	+	F11
3481451.3482698.+	3481451	3482698	+	H37Rv	3494574.3495821.+	3494574	3495821	+	F11
3957521.3958432.+	3957521	3958432	+	H37Rv	3970305.3971216.+	3970305	3971216	+	F11
1858700.1859758.+	1858700	1859758	+	H37Rv	1854091.1855149.+	1854091	1855149	+	F11
1232416.1232826.+	1232416	1232826	+	H37Rv	1236183.1236593.+	1236183	1236593	+	F11
3162268.3164115.+	3162268	3164115	+	H37Rv	3173906.3175753.+	3173906	3175753	+	F11
832058.832303.+	832058	832303	+	H37Rv	835927.836172.+	835927	836172	+	F11
842033.842278.+	842033	842278	+	H37Rv	835927.836172.+	835927	836172	+	F11
1403386.1404591.-	1404591	1403386	-	H37Rv	1407153.1408358.-	1408358	1407153	-	F11
1774860.1775144.-	1775144	1774860	-	H37Rv	1779498.1779782.-	1779782	1779498	-	F11
2206950.2207207.+	2206950	2207207	+	H37Rv	2215205.2215462.+	2215205	2215462	+	F11
2583045.2583332.+	2583045	2583332	+	H37Rv	2593833.2594120.+	2593833	2594120	+	F11
3488569.3489063.+	3488569	3489063	+	H37Rv	3501692.3502186.+	3501692	3502186	+	F11
3580286.3580495.+	3580286	3580495	+	H37Rv	3592051.3592260.+	3592051	3592260	+	F11
846168.847913.+	846168	847913	+	H37Rv	850037.851782.+	850037	851782	+	F11
1341358.1342668.-	1342668	1341358	-	H37Rv	1345122.1346432.-	1346432	1345122	-	F11
2828556.2829866.-	2829866	2828556	-	H37Rv	1345122.1346432.-	1346432	1345122	-	F11
1169360.1170670.+	1169360	1170670	+	H37Rv	1345122.1346432.-	1346432	1345122	-	F11
3381375.3382685.-	3382685	3381375	-	H37Rv	1345122.1346432.-	1346432	1345122	-	F11
3481388.3482698.+	3481388	3482698	+	H37Rv	1345122.1346432.-	1346432	1345122	-	F11
3876052.3876822.-	3876822	3876052	-	H37Rv	3889763.3890533.-	3890533	3889763	-	F11
3132892.3133437.-	3133437	3132892	-	H37Rv	3144530.3145075.-	3145075	3144530	-	F11
3135788.3136333.-	3136333	3135788	-	H37Rv	3144530.3145075.-	3145075	3144530	-	F11
2876576.2876977.-	2876977	2876576	-	H37Rv	2889894.2890295.-	2890295	2889894	-	F11
2265989.2266405.+	2265989	2266405	+	H37Rv	2275601.2276017.+	2275601	2276017	+	F11
4118530.4118691.-	4118691	4118530	-	H37Rv	4131531.4131692.-	4131692	4131531	-	F11
3704102.3704440.+	3704102	3704440	+	H37Rv	3715759.3716097.+	3715759	3716097	+	F11
2453458.2453736.-	2453736	2453458	-	H37Rv	2465661.2465939.-	2465939	2465661	-	F11
2547219.2547752.+	2547219	2547752	+	H37Rv	2559365.2559898.+	2559365	2559898	+	F11
3168212.3168427.+	3168212	3168427	+	H37Rv	3179850.3180065.+	3179850	3180065	+	F11
3335930.3336505.+	3335930	3336505	+	H37Rv	3347403.3347978.+	3347403	3347978	+	F11
872672.873292.-	873292	872672	-	H37Rv	876540.877160.-	877160	876540	-	F11
363826.364047.+	363826	364047	+	H37Rv	366967.367188.+	366967	367188	+	F11
3423262.3425064.-	3425064	3423262	-	H37Rv	3435026.3436828.-	3436828	3435026	-	F11
1176566.1176904.+	1176566	1176904	+	H37Rv	1180336.1180674.+	1180336	1180674	+	F11
1207299.1207649.+	1207299	1207649	+	H37Rv	1211069.1211419.+	1211069	1211419	+	F11
701400.702014.+	701400	702014	+	H37Rv	704628.705242.+	704628	705242	+	F11
3101581.3102192.-	3102192	3101581	-	H37Rv	704628.705242.+	704628	705242	+	F11
3335164.3335778.-	3335778	3335164	-	H37Rv	704628.705242.+	704628	705242	+	F11
4302786.4303397.-	4303397	4302786	-	H37Rv	704628.705242.+	704628	705242	+	F11
4017089.4018168.-	4018168	4017089	-	H37Rv	4029870.4030949.-	4030949	4029870	-	F11
2751662.2752180.-	2752180	2751662	-	H37Rv	2766336.2766854.-	2766854	2766336	-	F11
863298.864143.+	863298	864143	+	H37Rv	867166.868011.+	867166	868011	+	F11
3207942.3208328.-	3208328	3207942	-	H37Rv	3219471.3219857.-	3219857	3219471	-	F11
3914531.3915883.-	3915883	3914531	-	H37Rv	3926884.3928236.-	3928236	3926884	-	F11
3022431.3023432.+	3022431	3023432	+	H37Rv	3034386.3035387.+	3034386	3035387	+	F11
906423.907292.+	906423	907292	+	H37Rv	908934.909803.+	908934	909803	+	F11
4178249.4180615.+	4178249	4180615	+	H37Rv	4191250.4193616.+	4191250	4193616	+	F11
2692799.2693884.+	2692799	2693884	+	H37Rv	2707452.2708537.+	2707452	2708537	+	F11
2529094.2529312.+	2529094	2529312	+	H37Rv	2541242.2541460.+	2541242	2541460	+	F11
3511592.3512068.+	3511592	3512068	+	H37Rv	3524715.3525191.+	3524715	3525191	+	F11
1597900.1598883.+	1597900	1598883	+	H37Rv	1602241.1603224.+	1602241	1603224	+	F11
4200382.4201326.+	4200382	4201326	+	H37Rv	4213383.4214327.+	4213383	4214327	+	F11
456268.456918.-	456918	456268	-	H37Rv	459436.460086.-	460086	459436	-	F11
2544289.2544621.-	2544621	2544289	-	H37Rv	2556435.2556767.-	2556767	2556435	-	F11
4072667.4073635.-	4073635	4072667	-	H37Rv	4085670.4086638.-	4086638	4085670	-	F11
1164572.1165009.-	1165009	1164572	-	H37Rv	1282147.1282584.+	1282147	1282584	+	F11
1278383.1278820.+	1278383	1278820	+	H37Rv	1282147.1282584.+	1282147	1282584	+	F11
4269840.4270337.-	4270337	4269840	-	H37Rv	4282841.4283338.-	4283338	4282841	-	F11
4081516.4082724.-	4082724	4081516	-	H37Rv	4094519.4095727.-	4095727	4094519	-	F11
1030578.1031864.-	1031864	1030578	-	H37Rv	1034404.1035690.-	1035690	1034404	-	F11
1309005.1309331.+	1309005	1309331	+	H37Rv	1312769.1313095.+	1312769	1313095	+	F11
3510088.3511305.-	3511305	3510088	-	H37Rv	3523211.3524428.-	3524428	3523211	-	F11
952819.953229.+	952819	953229	+	H37Rv	956634.957044.+	956634	957044	+	F11
2156706.2157299.-	2157299	2156706	-	H37Rv	2164967.2165560.-	2165560	2164967	-	F11
1131128.1131421.+	1131128	1131421	+	H37Rv	1134896.1135189.+	1134896	1135189	+	F11
141194.142144.+	141194	142144	+	H37Rv	141330.142280.+	141330	142280	+	F11
4325053.4325478.+	4325053	4325478	+	H37Rv	4338054.4338479.+	4338054	4338479	+	F11
3025432.3026847.+	3025432	3026847	+	H37Rv	3037387.3038802.+	3037387	3038802	+	F11
2906089.2906763.-	2906763	2906089	-	H37Rv	2919406.2920080.-	2920080	2919406	-	F11
1970975.1971160.-	1971160	1970975	-	H37Rv	1967675.1967860.-	1967860	1967675	-	F11
2234643.2234891.-	2234891	2234643	-	H37Rv	2242897.2243145.-	2243145	2242897	-	F11
3183138.3183395.+	3183138	3183395	+	H37Rv	3194668.3194925.+	3194668	3194925	+	F11
3642914.3643027.+	3642914	3643027	+	H37Rv	3654692.3654805.+	3654692	3654805	+	F11
1242864.1243064.-	1243064	1242864	-	H37Rv	1246631.1246831.-	1246831	1246631	-	F11
1997418.1998515.-	1998515	1997418	-	H37Rv	2271794.2272684.-	2272684	2271794	-	F11
2406840.2407625.-	2407625	2406840	-	H37Rv	2420401.2421186.-	2421186	2420401	-	F11
3404967.3405218.+	3404967	3405218	+	H37Rv	3416677.3416928.+	3416677	3416928	+	F11
3585677.3585964.-	3585964	3585677	-	H37Rv	3597441.3597728.-	3597728	3597441	-	F11
2218109.2218717.+	2218109	2218717	+	H37Rv	2226363.2226971.+	2226363	2226971	+	F11
1292738.1293403.+	1292738	1293403	+	H37Rv	1296502.1297167.+	1296502	1297167	+	F11
1052360.1052638.+	1052360	1052638	+	H37Rv	1056186.1056464.+	1056186	1056464	+	F11
2860446.2861144.+	2860446	2861144	+	H37Rv	2873764.2874462.+	2873764	2874462	+	F11
2626654.2626980.-	2626980	2626654	-	H37Rv	2637451.2637777.-	2637777	2637451	-	F11
103710.104429.-	104429	103710	-	H37Rv	103843.104562.-	104562	103843	-	F11
3884198.3884917.+	3884198	3884917	+	H37Rv	103843.104562.-	104562	103843	-	F11
1693996.1694436.-	1694436	1693996	-	H37Rv	1698633.1699073.-	1699073	1698633	-	F11
714202.715266.+	714202	715266	+	H37Rv	717430.718494.+	717430	718494	+	F11
2959847.2960101.-	2960101	2959847	-	H37Rv	2973164.2973418.-	2973418	2973164	-	F11
3034635.3034883.+	3034635	3034883	+	H37Rv	3046590.3046838.+	3046590	3046838	+	F11
2452115.2453272.-	2453272	2452115	-	H37Rv	2464318.2465475.-	2465475	2464318	-	F11
4042952.4043035.-	4043035	4042952	-	H37Rv	4055733.4055816.-	4055816	4055733	-	F11
409356.410801.+	409356	410801	+	H37Rv	412436.413881.+	412436	413881	+	F11
3558629.3558853.-	3558853	3558629	-	H37Rv	3570394.3570618.-	3570618	3570394	-	F11
103710.104663.-	104663	103710	-	H37Rv	1783832.1784788.-	1784788	1783832	-	F11
3883964.3884917.+	3883964	3884917	+	H37Rv	1783832.1784788.-	1784788	1783832	-	F11
1788162.1789397.-	1789397	1788162	-	H37Rv	1783832.1784788.-	1784788	1783832	-	F11
3200794.3202008.-	3202008	3200794	-	H37Rv	3212323.3213537.-	3213537	3212323	-	F11
676032.676310.+	676032	676310	+	H37Rv	679260.679538.+	679260	679538	+	F11
563567.564934.+	563567	564934	+	H37Rv	566736.568103.+	566736	568103	+	F11
4169606.4170169.+	4169606	4170169	+	H37Rv	4182607.4183170.+	4182607	4183170	+	F11
2448151.2449962.+	2448151	2449962	+	H37Rv	2460354.2462165.+	2460354	2462165	+	F11
31824.31967.-	31967	31824	-	H37Rv	31925.32068.-	32068	31925	-	F11
614326.614730.-	614730	614326	-	H37Rv	617470.617874.-	617874	617470	-	F11
1576930.1577532.+	1576930	1577532	+	H37Rv	1581271.1581873.+	1581271	1581873	+	F11
1789168.1789836.-	1789836	1789168	-	H37Rv	104567.105235.-	105235	104567	-	F11
1580591.1581073.+	1580591	1581073	+	H37Rv	1584932.1585414.+	1584932	1585414	+	F11
103710.104669.-	104669	103710	-	H37Rv	1783832.1784794.-	1784794	1783832	-	F11
3883958.3884917.+	3883958	3884917	+	H37Rv	1783832.1784794.-	1784794	1783832	-	F11
1788162.1789403.-	1789403	1788162	-	H37Rv	1783832.1784794.-	1784794	1783832	-	F11
1346936.1347688.-	1347688	1346936	-	H37Rv	1350700.1351452.-	1351452	1350700	-	F11
2773160.2773564.+	2773160	2773564	+	H37Rv	2787834.2788238.+	2787834	2788238	+	F11
2069696.2070625.+	2069696	2070625	+	H37Rv	2077948.2078877.+	2077948	2078877	+	F11
3664856.3665821.+	3664856	3665821	+	H37Rv	3676571.3677536.+	3676571	3677536	+	F11
2619597.2620016.+	2619597	2620016	+	H37Rv	2630394.2630813.+	2630394	2630813	+	F11
2983008.2983874.+	2983008	2983874	+	H37Rv	2994967.2995833.+	2994967	2995833	+	F11
2445807.2446946.-	2446946	2445807	-	H37Rv	2458010.2459149.-	2459149	2458010	-	F11
4351066.4352181.+	4351066	4352181	+	H37Rv	4364066.4365181.+	4364066	4365181	+	F11
775586.778402.-	778402	775586	-	H37Rv	779347.782163.-	782163	779347	-	F11
1073327.1073548.+	1073327	1073548	+	H37Rv	1077150.1077371.+	1077150	1077371	+	F11
1164572.1165435.-	1165435	1164572	-	H37Rv	1168340.1169203.-	1169203	1168340	-	F11
1277957.1278820.+	1277957	1278820	+	H37Rv	1168340.1169203.-	1169203	1168340	-	F11
3755952.3766976.-	3766976	3755952	-	H37Rv	3768418.3779442.-	3779442	3768418	-	F11
640638.640904.-	640904	640638	-	H37Rv	643866.644132.-	644132	643866	-	F11
510377.510655.-	510655	510377	-	H37Rv	513547.513825.-	513825	513547	-	F11
2975928.2976554.-	2976554	2975928	-	H37Rv	2987887.2988513.-	2988513	2987887	-	F11
3647885.3649381.+	3647885	3649381	+	H37Rv	3659663.3661159.+	3659663	3661159	+	F11
1214495.1214947.+	1214495	1214947	+	H37Rv	1218262.1218714.+	1218262	1218714	+	F11
2979326.2979691.-	2979691	2979326	-	H37Rv	2991285.2991650.-	2991650	2991285	-	F11
4209582.4211009.-	4211009	4209582	-	H37Rv	4222583.4224010.-	4224010	4222583	-	F11
2768231.2769037.+	2768231	2769037	+	H37Rv	2782905.2783711.+	2782905	2783711	+	F11
3489506.3490375.+	3489506	3490375	+	H37Rv	3502629.3503498.+	3502629	3503498	+	F11
1146561.1147028.+	1146561	1147028	+	H37Rv	1150329.1150796.+	1150329	1150796	+	F11
4221020.4222648.+	4221020	4222648	+	H37Rv	4234021.4235649.+	4234021	4235649	+	F11
41307.41912.+	41307	41912	+	H37Rv	41408.42013.+	41408	42013	+	F11
2028386.2029477.+	2028386	2029477	+	H37Rv	2036639.2037730.+	2036639	2037730	+	F11
542142.542852.+	542142	542852	+	H37Rv	545311.546021.+	545311	546021	+	F11
1485768.1485950.-	1485950	1485768	-	H37Rv	1492567.1492749.-	1492749	1492567	-	F11
1365149.1365808.+	1365149	1365808	+	H37Rv	1368914.1369573.+	1368914	1369573	+	F11
698524.698994.-	698994	698524	-	H37Rv	701752.702222.-	702222	701752	-	F11
254637.255968.-	255968	254637	-	H37Rv	254955.256286.-	256286	254955	-	F11
1014397.1014555.+	1014397	1014555	+	H37Rv	1018223.1018381.+	1018223	1018381	+	F11
2054157.2055359.-	2055359	2054157	-	H37Rv	2062409.2063611.-	2063611	2062409	-	F11
3174801.3174995.+	3174801	3174995	+	H37Rv	3186331.3186525.+	3186331	3186525	+	F11
2157382.2157999.-	2157999	2157382	-	H37Rv	2165643.2166260.-	2166260	2165643	-	F11
2182460.2183239.-	2183239	2182460	-	H37Rv	2190715.2191494.-	2191494	2190715	-	F11
4125439.4126479.+	4125439	4126479	+	H37Rv	4138440.4139480.+	4138440	4139480	+	F11
767317.767637.-	767637	767317	-	H37Rv	771078.771398.-	771398	771078	-	F11
1184883.1185740.+	1184883	1185740	+	H37Rv	1188653.1189510.+	1188653	1189510	+	F11
3357225.3357428.-	3357428	3357225	-	H37Rv	3368934.3369137.-	3369137	3368934	-	F11
3894426.3895607.+	3894426	3895607	+	H37Rv	3906779.3907960.+	3906779	3907960	+	F11
1532443.1533633.-	1533633	1532443	-	H37Rv	3906779.3907960.+	3906779	3907960	+	F11
1339349.1340524.+	1339349	1340524	+	H37Rv	3906779.3907960.+	3906779	3907960	+	F11
4195440.4195802.+	4195440	4195802	+	H37Rv	4208441.4208803.+	4208441	4208803	+	F11
4309038.4310396.+	4309038	4310396	+	H37Rv	4322039.4323397.+	4322039	4323397	+	F11
3729364.3736935.-	3736935	3729364	-	H37Rv	3741691.3749304.-	3749304	3741691	-	F11
889449.890333.+	889449	890333	+	H37Rv	1485727.1486611.+	1485727	1486611	+	F11
1541994.1542878.-	1542878	1541994	-	H37Rv	1485727.1486611.+	1485727	1486611	+	F11
1987745.1988629.-	1988629	1987745	-	H37Rv	1485727.1486611.+	1485727	1486611	+	F11
1996529.1997413.+	1996529	1997413	+	H37Rv	1485727.1486611.+	1485727	1486611	+	F11
2365842.2366726.+	2365842	2366726	+	H37Rv	1485727.1486611.+	1485727	1486611	+	F11
2430159.2431043.-	2431043	2430159	-	H37Rv	1485727.1486611.+	1485727	1486611	+	F11
2550442.2551326.+	2550442	2551326	+	H37Rv	1485727.1486611.+	1485727	1486611	+	F11
2636005.2636889.+	2636005	2636889	+	H37Rv	1485727.1486611.+	1485727	1486611	+	F11
2784657.2785541.-	2785541	2784657	-	H37Rv	1485727.1486611.+	1485727	1486611	+	F11
2972537.2973421.+	2972537	2973421	+	H37Rv	1485727.1486611.+	1485727	1486611	+	F11
3120566.3121450.-	3121450	3120566	-	H37Rv	1485727.1486611.+	1485727	1486611	+	F11
3551658.3552542.+	3551658	3552542	+	H37Rv	1485727.1486611.+	1485727	1486611	+	F11
3553141.3554025.+	3553141	3554025	+	H37Rv	1485727.1486611.+	1485727	1486611	+	F11
3710810.3711694.+	3710810	3711694	+	H37Rv	1485727.1486611.+	1485727	1486611	+	F11
3795100.3795984.-	3795984	3795100	-	H37Rv	1485727.1486611.+	1485727	1486611	+	F11
3891207.3892091.+	3891207	3892091	+	H37Rv	1485727.1486611.+	1485727	1486611	+	F11
2608973.2609728.+	2608973	2609728	+	H37Rv	2619770.2620525.+	2619770	2620525	+	F11
333437.336310.-	336310	333437	-	H37Rv	336752.339451.-	339451	336752	-	F11
2225841.2226101.-	2226101	2225841	-	H37Rv	2234095.2234355.-	2234355	2234095	-	F11
103710.104669.-	104669	103710	-	H37Rv	3897669.3898628.+	3897669	3898628	+	F11
3883958.3884917.+	3883958	3884917	+	H37Rv	3897669.3898628.+	3897669	3898628	+	F11
1788162.1789403.-	1789403	1788162	-	H37Rv	3897669.3898628.+	3897669	3898628	+	F11
4131691.4132392.+	4131691	4132392	+	H37Rv	4144692.4145393.+	4144692	4145393	+	F11
1053759.1054241.+	1053759	1054241	+	H37Rv	1057585.1058067.+	1057585	1058067	+	F11
2584486.2584755.+	2584486	2584755	+	H37Rv	2595274.2595543.+	2595274	2595543	+	F11
241976.243214.-	243214	241976	-	H37Rv	242294.243532.-	243532	242294	-	F11
2760764.2762380.+	2760764	2762380	+	H37Rv	2775438.2777054.+	2775438	2777054	+	F11
1461045.1461290.+	1461045	1461290	+	H37Rv	1464812.1465057.+	1464812	1465057	+	F11
2968533.2968850.-	2968850	2968533	-	H37Rv	2981850.2982167.-	2982167	2981850	-	F11
452294.453154.-	453154	452294	-	H37Rv	455462.456322.-	456322	455462	-	F11
710345.710587.+	710345	710587	+	H37Rv	713573.713815.+	713573	713815	+	F11
2960105.2962441.-	2962441	2960105	-	H37Rv	2973422.2975758.-	2975758	2973422	-	F11
2981482.2981754.+	2981482	2981754	+	H37Rv	2993441.2993713.+	2993441	2993713	+	F11
1468171.1468485.-	1468485	1468171	-	H37Rv	1471938.1472252.-	1472252	1471938	-	F11
4254013.4254327.+	4254013	4254327	+	H37Rv	1471938.1472252.-	1472252	1471938	-	F11
832534.832848.+	832534	832848	+	H37Rv	1471938.1472252.-	1472252	1471938	-	F11
4080571.4080765.-	4080765	4080571	-	H37Rv	4093574.4093768.-	4093768	4093574	-	F11
767317.767691.-	767691	767317	-	H37Rv	771078.771452.-	771452	771078	-	F11
1169360.1170670.+	1169360	1170670	+	H37Rv	1173130.1174440.+	1173130	1174440	+	F11
3381375.3382685.-	3382685	3381375	-	H37Rv	1173130.1174440.+	1173130	1174440	+	F11
3481388.3482698.+	3481388	3482698	+	H37Rv	1173130.1174440.+	1173130	1174440	+	F11
1341358.1342668.-	1342668	1341358	-	H37Rv	1173130.1174440.+	1173130	1174440	+	F11
2828556.2829866.-	2829866	2828556	-	H37Rv	1173130.1174440.+	1173130	1174440	+	F11
1409484.1409957.-	1409957	1409484	-	H37Rv	1413251.1413724.-	1413724	1413251	-	F11
799629.799850.+	799629	799850	+	H37Rv	803390.803611.+	803390	803611	+	F11
2400376.2401722.-	2401722	2400376	-	H37Rv	2413937.2415283.-	2415283	2413937	-	F11
547586.549616.-	549616	547586	-	H37Rv	550755.552785.-	552785	550755	-	F11
2728844.2729134.-	2729134	2728844	-	H37Rv	2743518.2743808.-	2743808	2743518	-	F11
3021548.3021796.-	3021796	3021548	-	H37Rv	3033503.3033751.-	3033751	3033503	-	F11
2030524.2030643.+	2030524	2030643	+	H37Rv	2038776.2038895.+	2038776	2038895	+	F11
1160855.1160974.-	1160974	1160855	-	H37Rv	2038776.2038895.+	2038776	2038895	+	F11
4060295.4060414.-	4060414	4060295	-	H37Rv	2038776.2038895.+	2038776	2038895	+	F11
1340836.1340955.+	1340836	1340955	+	H37Rv	2038776.2038895.+	2038776	2038895	+	F11
2626223.2626342.-	2626342	2626223	-	H37Rv	2038776.2038895.+	2038776	2038895	+	F11
3623159.3624922.-	3624922	3623159	-	H37Rv	3634937.3636700.-	3636700	3634937	-	F11
2829954.2830139.+	2829954	2830139	+	H37Rv	2843272.2843457.+	2843272	2843457	+	F11
53354.55699.+	53354	55699	+	H37Rv	53455.55803.+	53455	55803	+	F11
2442327.2443214.-	2443214	2442327	-	H37Rv	2454530.2455417.-	2455417	2454530	-	F11
3350274.3351119.-	3351119	3350274	-	H37Rv	3361983.3362828.-	3362828	3361983	-	F11
627293.628288.+	627293	628288	+	H37Rv	630521.631516.+	630521	631516	+	F11
4212203.4212982.+	4212203	4212982	+	H37Rv	4225204.4225983.+	4225204	4225983	+	F11
1327689.1329062.-	1329062	1327689	-	H37Rv	1331454.1332827.-	1332827	1331454	-	F11
