3195545.3196162.-	3196162	3195545	-	H37Rv	1217666.1218283.+	1217666	1218283	+	KZN_1435
3101581.3102192.-	3102192	3101581	-	H37Rv	1217666.1218283.+	1217666	1218283	+	KZN_1435
3335164.3335778.-	3335778	3335164	-	H37Rv	1077826.1078440.+	1077826	1078440	+	KZN_1435
701400.702014.+	701400	702014	+	H37Rv	1077826.1078440.+	1077826	1078440	+	KZN_1435
