931730.932566.-	932566	931730	-	KZN_R506	2004661.2005497.+	2004661	2005497	+	F11
1976816.1977652.-	1977652	1976816	-	KZN_R506	2004661.2005497.+	2004661	2005497	+	F11
2036054.2036890.-	2036890	2036054	-	KZN_R506	2004661.2005497.+	2004661	2005497	+	F11
2360311.2361147.-	2361147	2360311	-	KZN_R506	2004661.2005497.+	2004661	2005497	+	F11
2547727.2548563.-	2548563	2547727	-	KZN_R506	2004661.2005497.+	2004661	2005497	+	F11
2627283.2628119.-	2628119	2627283	-	KZN_R506	2004661.2005497.+	2004661	2005497	+	F11
2802833.2803669.+	2802833	2803669	+	KZN_R506	2004661.2005497.+	2004661	2005497	+	F11
3078162.3078998.+	3078162	3078998	+	KZN_R506	2004661.2005497.+	2004661	2005497	+	F11
3116329.3117165.-	3117165	3116329	-	KZN_R506	2004661.2005497.+	2004661	2005497	+	F11
3476117.3476953.+	3476117	3476953	+	KZN_R506	2004661.2005497.+	2004661	2005497	+	F11
3704481.3705317.-	3705317	3704481	-	KZN_R506	2004661.2005497.+	2004661	2005497	+	F11
4062487.4063323.-	4063323	4062487	-	KZN_R506	2004661.2005497.+	2004661	2005497	+	F11
931730.932566.-	932566	931730	-	KZN_R506	934704.935540.-	935540	934704	-	F11
1976816.1977652.-	1977652	1976816	-	KZN_R506	934704.935540.-	935540	934704	-	F11
2036054.2036890.-	2036890	2036054	-	KZN_R506	934704.935540.-	935540	934704	-	F11
2360311.2361147.-	2361147	2360311	-	KZN_R506	934704.935540.-	935540	934704	-	F11
2547727.2548563.-	2548563	2547727	-	KZN_R506	934704.935540.-	935540	934704	-	F11
2627283.2628119.-	2628119	2627283	-	KZN_R506	934704.935540.-	935540	934704	-	F11
2802833.2803669.+	2802833	2803669	+	KZN_R506	934704.935540.-	935540	934704	-	F11
3078162.3078998.+	3078162	3078998	+	KZN_R506	934704.935540.-	935540	934704	-	F11
3116329.3117165.-	3117165	3116329	-	KZN_R506	934704.935540.-	935540	934704	-	F11
3476117.3476953.+	3476117	3476953	+	KZN_R506	934704.935540.-	935540	934704	-	F11
3704481.3705317.-	3705317	3704481	-	KZN_R506	934704.935540.-	935540	934704	-	F11
4062487.4063323.-	4063323	4062487	-	KZN_R506	934704.935540.-	935540	934704	-	F11
931730.932566.-	932566	931730	-	KZN_R506	3132521.3133357.-	3133357	3132521	-	F11
1976816.1977652.-	1977652	1976816	-	KZN_R506	3132521.3133357.-	3133357	3132521	-	F11
2036054.2036890.-	2036890	2036054	-	KZN_R506	3132521.3133357.-	3133357	3132521	-	F11
2360311.2361147.-	2361147	2360311	-	KZN_R506	3132521.3133357.-	3133357	3132521	-	F11
2547727.2548563.-	2548563	2547727	-	KZN_R506	3132521.3133357.-	3133357	3132521	-	F11
2627283.2628119.-	2628119	2627283	-	KZN_R506	3132521.3133357.-	3133357	3132521	-	F11
2802833.2803669.+	2802833	2803669	+	KZN_R506	3132521.3133357.-	3133357	3132521	-	F11
3078162.3078998.+	3078162	3078998	+	KZN_R506	3132521.3133357.-	3133357	3132521	-	F11
3116329.3117165.-	3117165	3116329	-	KZN_R506	3132521.3133357.-	3133357	3132521	-	F11
3476117.3476953.+	3476117	3476953	+	KZN_R506	3132521.3133357.-	3133357	3132521	-	F11
3704481.3705317.-	3705317	3704481	-	KZN_R506	3132521.3133357.-	3133357	3132521	-	F11
4062487.4063323.-	4063323	4062487	-	KZN_R506	3132521.3133357.-	3133357	3132521	-	F11
931730.932566.-	932566	931730	-	KZN_R506	2697370.2698206.-	2698206	2697370	-	F11
1976816.1977652.-	1977652	1976816	-	KZN_R506	2697370.2698206.-	2698206	2697370	-	F11
2036054.2036890.-	2036890	2036054	-	KZN_R506	2697370.2698206.-	2698206	2697370	-	F11
2360311.2361147.-	2361147	2360311	-	KZN_R506	2697370.2698206.-	2698206	2697370	-	F11
2547727.2548563.-	2548563	2547727	-	KZN_R506	2697370.2698206.-	2698206	2697370	-	F11
2627283.2628119.-	2628119	2627283	-	KZN_R506	2697370.2698206.-	2698206	2697370	-	F11
2802833.2803669.+	2802833	2803669	+	KZN_R506	2697370.2698206.-	2698206	2697370	-	F11
3078162.3078998.+	3078162	3078998	+	KZN_R506	2697370.2698206.-	2698206	2697370	-	F11
3116329.3117165.-	3117165	3116329	-	KZN_R506	2697370.2698206.-	2698206	2697370	-	F11
3476117.3476953.+	3476117	3476953	+	KZN_R506	2697370.2698206.-	2698206	2697370	-	F11
3704481.3705317.-	3705317	3704481	-	KZN_R506	2697370.2698206.-	2698206	2697370	-	F11
4062487.4063323.-	4063323	4062487	-	KZN_R506	2697370.2698206.-	2698206	2697370	-	F11
3832679.3833206.+	3832679	3833206	+	KZN_R506	3853539.3854060.+	3853539	3854060	+	F11
931730.932566.-	932566	931730	-	KZN_R506	3722337.3723173.-	3723173	3722337	-	F11
1976816.1977652.-	1977652	1976816	-	KZN_R506	3722337.3723173.-	3723173	3722337	-	F11
2036054.2036890.-	2036890	2036054	-	KZN_R506	3722337.3723173.-	3723173	3722337	-	F11
2360311.2361147.-	2361147	2360311	-	KZN_R506	3722337.3723173.-	3723173	3722337	-	F11
2547727.2548563.-	2548563	2547727	-	KZN_R506	3722337.3723173.-	3723173	3722337	-	F11
2627283.2628119.-	2628119	2627283	-	KZN_R506	3722337.3723173.-	3723173	3722337	-	F11
2802833.2803669.+	2802833	2803669	+	KZN_R506	3722337.3723173.-	3723173	3722337	-	F11
3078162.3078998.+	3078162	3078998	+	KZN_R506	3722337.3723173.-	3723173	3722337	-	F11
3116329.3117165.-	3117165	3116329	-	KZN_R506	3722337.3723173.-	3723173	3722337	-	F11
3476117.3476953.+	3476117	3476953	+	KZN_R506	3722337.3723173.-	3723173	3722337	-	F11
3704481.3705317.-	3705317	3704481	-	KZN_R506	3722337.3723173.-	3723173	3722337	-	F11
4062487.4063323.-	4063323	4062487	-	KZN_R506	3722337.3723173.-	3723173	3722337	-	F11
3330664.3331278.-	3331278	3330664	-	KZN_R506	3346637.3347251.-	3347251	3346637	-	F11
701645.702259.+	701645	702259	+	KZN_R506	3346637.3347251.-	3347251	3346637	-	F11
931730.932566.-	932566	931730	-	KZN_R506	2645453.2646289.+	2645453	2646289	+	F11
1976816.1977652.-	1977652	1976816	-	KZN_R506	2645453.2646289.+	2645453	2646289	+	F11
2036054.2036890.-	2036890	2036054	-	KZN_R506	2645453.2646289.+	2645453	2646289	+	F11
2360311.2361147.-	2361147	2360311	-	KZN_R506	2645453.2646289.+	2645453	2646289	+	F11
2547727.2548563.-	2548563	2547727	-	KZN_R506	2645453.2646289.+	2645453	2646289	+	F11
2627283.2628119.-	2628119	2627283	-	KZN_R506	2645453.2646289.+	2645453	2646289	+	F11
2802833.2803669.+	2802833	2803669	+	KZN_R506	2645453.2646289.+	2645453	2646289	+	F11
3078162.3078998.+	3078162	3078998	+	KZN_R506	2645453.2646289.+	2645453	2646289	+	F11
3116329.3117165.-	3117165	3116329	-	KZN_R506	2645453.2646289.+	2645453	2646289	+	F11
3476117.3476953.+	3476117	3476953	+	KZN_R506	2645453.2646289.+	2645453	2646289	+	F11
3704481.3705317.-	3705317	3704481	-	KZN_R506	2645453.2646289.+	2645453	2646289	+	F11
4062487.4063323.-	4063323	4062487	-	KZN_R506	2645453.2646289.+	2645453	2646289	+	F11
931730.932566.-	932566	931730	-	KZN_R506	3492615.3493451.+	3492615	3493451	+	F11
1976816.1977652.-	1977652	1976816	-	KZN_R506	3492615.3493451.+	3492615	3493451	+	F11
2036054.2036890.-	2036890	2036054	-	KZN_R506	3492615.3493451.+	3492615	3493451	+	F11
2360311.2361147.-	2361147	2360311	-	KZN_R506	3492615.3493451.+	3492615	3493451	+	F11
2547727.2548563.-	2548563	2547727	-	KZN_R506	3492615.3493451.+	3492615	3493451	+	F11
2627283.2628119.-	2628119	2627283	-	KZN_R506	3492615.3493451.+	3492615	3493451	+	F11
2802833.2803669.+	2802833	2803669	+	KZN_R506	3492615.3493451.+	3492615	3493451	+	F11
3078162.3078998.+	3078162	3078998	+	KZN_R506	3492615.3493451.+	3492615	3493451	+	F11
3116329.3117165.-	3117165	3116329	-	KZN_R506	3492615.3493451.+	3492615	3493451	+	F11
3476117.3476953.+	3476117	3476953	+	KZN_R506	3492615.3493451.+	3492615	3493451	+	F11
3704481.3705317.-	3705317	3704481	-	KZN_R506	3492615.3493451.+	3492615	3493451	+	F11
4062487.4063323.-	4063323	4062487	-	KZN_R506	3492615.3493451.+	3492615	3493451	+	F11
931730.932566.-	932566	931730	-	KZN_R506	1983134.1983970.-	1983970	1983134	-	F11
1976816.1977652.-	1977652	1976816	-	KZN_R506	1983134.1983970.-	1983970	1983134	-	F11
2036054.2036890.-	2036890	2036054	-	KZN_R506	1983134.1983970.-	1983970	1983134	-	F11
2360311.2361147.-	2361147	2360311	-	KZN_R506	1983134.1983970.-	1983970	1983134	-	F11
2547727.2548563.-	2548563	2547727	-	KZN_R506	1983134.1983970.-	1983970	1983134	-	F11
2627283.2628119.-	2628119	2627283	-	KZN_R506	1983134.1983970.-	1983970	1983134	-	F11
2802833.2803669.+	2802833	2803669	+	KZN_R506	1983134.1983970.-	1983970	1983134	-	F11
3078162.3078998.+	3078162	3078998	+	KZN_R506	1983134.1983970.-	1983970	1983134	-	F11
3116329.3117165.-	3117165	3116329	-	KZN_R506	1983134.1983970.-	1983970	1983134	-	F11
3476117.3476953.+	3476117	3476953	+	KZN_R506	1983134.1983970.-	1983970	1983134	-	F11
3704481.3705317.-	3705317	3704481	-	KZN_R506	1983134.1983970.-	1983970	1983134	-	F11
4062487.4063323.-	4063323	4062487	-	KZN_R506	1983134.1983970.-	1983970	1983134	-	F11
931730.932566.-	932566	931730	-	KZN_R506	2649321.2650157.+	2649321	2650157	+	F11
1976816.1977652.-	1977652	1976816	-	KZN_R506	2649321.2650157.+	2649321	2650157	+	F11
2036054.2036890.-	2036890	2036054	-	KZN_R506	2649321.2650157.+	2649321	2650157	+	F11
2360311.2361147.-	2361147	2360311	-	KZN_R506	2649321.2650157.+	2649321	2650157	+	F11
2547727.2548563.-	2548563	2547727	-	KZN_R506	2649321.2650157.+	2649321	2650157	+	F11
2627283.2628119.-	2628119	2627283	-	KZN_R506	2649321.2650157.+	2649321	2650157	+	F11
2802833.2803669.+	2802833	2803669	+	KZN_R506	2649321.2650157.+	2649321	2650157	+	F11
3078162.3078998.+	3078162	3078998	+	KZN_R506	2649321.2650157.+	2649321	2650157	+	F11
3116329.3117165.-	3117165	3116329	-	KZN_R506	2649321.2650157.+	2649321	2650157	+	F11
3476117.3476953.+	3476117	3476953	+	KZN_R506	2649321.2650157.+	2649321	2650157	+	F11
3704481.3705317.-	3705317	3704481	-	KZN_R506	2649321.2650157.+	2649321	2650157	+	F11
4062487.4063323.-	4063323	4062487	-	KZN_R506	2649321.2650157.+	2649321	2650157	+	F11
3832679.3833206.+	3832679	3833206	+	KZN_R506	3860885.3861412.+	3860885	3861412	+	F11
931730.932566.-	932566	931730	-	KZN_R506	1946034.1946870.-	1946870	1946034	-	F11
1976816.1977652.-	1977652	1976816	-	KZN_R506	1946034.1946870.-	1946870	1946034	-	F11
2036054.2036890.-	2036890	2036054	-	KZN_R506	1946034.1946870.-	1946870	1946034	-	F11
2360311.2361147.-	2361147	2360311	-	KZN_R506	1946034.1946870.-	1946870	1946034	-	F11
2547727.2548563.-	2548563	2547727	-	KZN_R506	1946034.1946870.-	1946870	1946034	-	F11
2627283.2628119.-	2628119	2627283	-	KZN_R506	1946034.1946870.-	1946870	1946034	-	F11
2802833.2803669.+	2802833	2803669	+	KZN_R506	1946034.1946870.-	1946870	1946034	-	F11
3078162.3078998.+	3078162	3078998	+	KZN_R506	1946034.1946870.-	1946870	1946034	-	F11
3116329.3117165.-	3117165	3116329	-	KZN_R506	1946034.1946870.-	1946870	1946034	-	F11
3476117.3476953.+	3476117	3476953	+	KZN_R506	1946034.1946870.-	1946870	1946034	-	F11
3704481.3705317.-	3705317	3704481	-	KZN_R506	1946034.1946870.-	1946870	1946034	-	F11
4062487.4063323.-	4063323	4062487	-	KZN_R506	1946034.1946870.-	1946870	1946034	-	F11
931730.932566.-	932566	931730	-	KZN_R506	2349765.2350601.+	2349765	2350601	+	F11
1976816.1977652.-	1977652	1976816	-	KZN_R506	2349765.2350601.+	2349765	2350601	+	F11
2036054.2036890.-	2036890	2036054	-	KZN_R506	2349765.2350601.+	2349765	2350601	+	F11
2360311.2361147.-	2361147	2360311	-	KZN_R506	2349765.2350601.+	2349765	2350601	+	F11
2547727.2548563.-	2548563	2547727	-	KZN_R506	2349765.2350601.+	2349765	2350601	+	F11
2627283.2628119.-	2628119	2627283	-	KZN_R506	2349765.2350601.+	2349765	2350601	+	F11
2802833.2803669.+	2802833	2803669	+	KZN_R506	2349765.2350601.+	2349765	2350601	+	F11
3078162.3078998.+	3078162	3078998	+	KZN_R506	2349765.2350601.+	2349765	2350601	+	F11
3116329.3117165.-	3117165	3116329	-	KZN_R506	2349765.2350601.+	2349765	2350601	+	F11
3476117.3476953.+	3476117	3476953	+	KZN_R506	2349765.2350601.+	2349765	2350601	+	F11
3704481.3705317.-	3705317	3704481	-	KZN_R506	2349765.2350601.+	2349765	2350601	+	F11
4062487.4063323.-	4063323	4062487	-	KZN_R506	2349765.2350601.+	2349765	2350601	+	F11
931730.932566.-	932566	931730	-	KZN_R506	1992399.1993235.-	1993235	1992399	-	F11
1976816.1977652.-	1977652	1976816	-	KZN_R506	1992399.1993235.-	1993235	1992399	-	F11
2036054.2036890.-	2036890	2036054	-	KZN_R506	1992399.1993235.-	1993235	1992399	-	F11
2360311.2361147.-	2361147	2360311	-	KZN_R506	1992399.1993235.-	1993235	1992399	-	F11
2547727.2548563.-	2548563	2547727	-	KZN_R506	1992399.1993235.-	1993235	1992399	-	F11
2627283.2628119.-	2628119	2627283	-	KZN_R506	1992399.1993235.-	1993235	1992399	-	F11
2802833.2803669.+	2802833	2803669	+	KZN_R506	1992399.1993235.-	1993235	1992399	-	F11
3078162.3078998.+	3078162	3078998	+	KZN_R506	1992399.1993235.-	1993235	1992399	-	F11
3116329.3117165.-	3117165	3116329	-	KZN_R506	1992399.1993235.-	1993235	1992399	-	F11
3476117.3476953.+	3476117	3476953	+	KZN_R506	1992399.1993235.-	1993235	1992399	-	F11
3704481.3705317.-	3705317	3704481	-	KZN_R506	1992399.1993235.-	1993235	1992399	-	F11
4062487.4063323.-	4063323	4062487	-	KZN_R506	1992399.1993235.-	1993235	1992399	-	F11
3191103.3191720.-	3191720	3191103	-	KZN_R506	3207074.3207691.-	3207691	3207074	-	F11
3097418.3098029.-	3098029	3097418	-	KZN_R506	3207074.3207691.-	3207691	3207074	-	F11
931730.932566.-	932566	931730	-	KZN_R506	2270484.2271320.-	2271320	2270484	-	F11
1976816.1977652.-	1977652	1976816	-	KZN_R506	2270484.2271320.-	2271320	2270484	-	F11
2036054.2036890.-	2036890	2036054	-	KZN_R506	2270484.2271320.-	2271320	2270484	-	F11
2360311.2361147.-	2361147	2360311	-	KZN_R506	2270484.2271320.-	2271320	2270484	-	F11
2547727.2548563.-	2548563	2547727	-	KZN_R506	2270484.2271320.-	2271320	2270484	-	F11
2627283.2628119.-	2628119	2627283	-	KZN_R506	2270484.2271320.-	2271320	2270484	-	F11
2802833.2803669.+	2802833	2803669	+	KZN_R506	2270484.2271320.-	2271320	2270484	-	F11
3078162.3078998.+	3078162	3078998	+	KZN_R506	2270484.2271320.-	2271320	2270484	-	F11
3116329.3117165.-	3117165	3116329	-	KZN_R506	2270484.2271320.-	2271320	2270484	-	F11
3476117.3476953.+	3476117	3476953	+	KZN_R506	2270484.2271320.-	2271320	2270484	-	F11
3704481.3705317.-	3705317	3704481	-	KZN_R506	2270484.2271320.-	2271320	2270484	-	F11
4062487.4063323.-	4063323	4062487	-	KZN_R506	2270484.2271320.-	2271320	2270484	-	F11
931730.932566.-	932566	931730	-	KZN_R506	2017907.2018743.-	2018743	2017907	-	F11
1976816.1977652.-	1977652	1976816	-	KZN_R506	2017907.2018743.-	2018743	2017907	-	F11
2036054.2036890.-	2036890	2036054	-	KZN_R506	2017907.2018743.-	2018743	2017907	-	F11
2360311.2361147.-	2361147	2360311	-	KZN_R506	2017907.2018743.-	2018743	2017907	-	F11
2547727.2548563.-	2548563	2547727	-	KZN_R506	2017907.2018743.-	2018743	2017907	-	F11
2627283.2628119.-	2628119	2627283	-	KZN_R506	2017907.2018743.-	2018743	2017907	-	F11
2802833.2803669.+	2802833	2803669	+	KZN_R506	2017907.2018743.-	2018743	2017907	-	F11
3078162.3078998.+	3078162	3078998	+	KZN_R506	2017907.2018743.-	2018743	2017907	-	F11
3116329.3117165.-	3117165	3116329	-	KZN_R506	2017907.2018743.-	2018743	2017907	-	F11
3476117.3476953.+	3476117	3476953	+	KZN_R506	2017907.2018743.-	2018743	2017907	-	F11
3704481.3705317.-	3705317	3704481	-	KZN_R506	2017907.2018743.-	2018743	2017907	-	F11
4062487.4063323.-	4063323	4062487	-	KZN_R506	2017907.2018743.-	2018743	2017907	-	F11
931730.932566.-	932566	931730	-	KZN_R506	1997839.1998675.+	1997839	1998675	+	F11
1976816.1977652.-	1977652	1976816	-	KZN_R506	1997839.1998675.+	1997839	1998675	+	F11
2036054.2036890.-	2036890	2036054	-	KZN_R506	1997839.1998675.+	1997839	1998675	+	F11
2360311.2361147.-	2361147	2360311	-	KZN_R506	1997839.1998675.+	1997839	1998675	+	F11
2547727.2548563.-	2548563	2547727	-	KZN_R506	1997839.1998675.+	1997839	1998675	+	F11
2627283.2628119.-	2628119	2627283	-	KZN_R506	1997839.1998675.+	1997839	1998675	+	F11
2802833.2803669.+	2802833	2803669	+	KZN_R506	1997839.1998675.+	1997839	1998675	+	F11
3078162.3078998.+	3078162	3078998	+	KZN_R506	1997839.1998675.+	1997839	1998675	+	F11
3116329.3117165.-	3117165	3116329	-	KZN_R506	1997839.1998675.+	1997839	1998675	+	F11
3476117.3476953.+	3476117	3476953	+	KZN_R506	1997839.1998675.+	1997839	1998675	+	F11
3704481.3705317.-	3705317	3704481	-	KZN_R506	1997839.1998675.+	1997839	1998675	+	F11
4062487.4063323.-	4063323	4062487	-	KZN_R506	1997839.1998675.+	1997839	1998675	+	F11
931730.932566.-	932566	931730	-	KZN_R506	3564305.3565141.-	3565141	3564305	-	F11
1976816.1977652.-	1977652	1976816	-	KZN_R506	3564305.3565141.-	3565141	3564305	-	F11
2036054.2036890.-	2036890	2036054	-	KZN_R506	3564305.3565141.-	3565141	3564305	-	F11
2360311.2361147.-	2361147	2360311	-	KZN_R506	3564305.3565141.-	3565141	3564305	-	F11
2547727.2548563.-	2548563	2547727	-	KZN_R506	3564305.3565141.-	3565141	3564305	-	F11
2627283.2628119.-	2628119	2627283	-	KZN_R506	3564305.3565141.-	3565141	3564305	-	F11
2802833.2803669.+	2802833	2803669	+	KZN_R506	3564305.3565141.-	3565141	3564305	-	F11
3078162.3078998.+	3078162	3078998	+	KZN_R506	3564305.3565141.-	3565141	3564305	-	F11
3116329.3117165.-	3117165	3116329	-	KZN_R506	3564305.3565141.-	3565141	3564305	-	F11
3476117.3476953.+	3476117	3476953	+	KZN_R506	3564305.3565141.-	3565141	3564305	-	F11
3704481.3705317.-	3705317	3704481	-	KZN_R506	3564305.3565141.-	3565141	3564305	-	F11
4062487.4063323.-	4063323	4062487	-	KZN_R506	3564305.3565141.-	3565141	3564305	-	F11
