1217784.1218395.+	1217784	1218395	+	KZN_605	1217670.1218281.+	1217670	1218281	+	KZN_4207-B
1311583.1312188.+	1311583	1312188	+	KZN_605	1217670.1218281.+	1217670	1218281	+	KZN_4207-B
1217778.1218395.+	1217778	1218395	+	KZN_605	1217664.1218281.+	1217664	1218281	+	KZN_4207-B
1311577.1312188.+	1311577	1312188	+	KZN_605	1217664.1218281.+	1217664	1218281	+	KZN_4207-B
1077828.1078442.+	1077828	1078442	+	KZN_605	1077826.1078440.+	1077826	1078440	+	KZN_4207-B
701711.702325.+	701711	702325	+	KZN_605	1077826.1078440.+	1077826	1078440	+	KZN_4207-B
