3347156.3347770.-	3347770	3347156	-	H37Ra	3330664.3331278.-	3331278	3330664	-	KZN_R506
702710.703324.+	702710	703324	+	H37Ra	3330664.3331278.-	3331278	3330664	-	KZN_R506
3207537.3208154.-	3208154	3207537	-	H37Ra	3191103.3191720.-	3191720	3191103	-	KZN_R506
3113549.3114160.-	3114160	3113549	-	H37Ra	3191103.3191720.-	3191720	3191103	-	KZN_R506
