931730.932566.-	932566	931730	-	KZN_V2475	2004661.2005497.+	2004661	2005497	+	F11
1976816.1977652.-	1977652	1976816	-	KZN_V2475	2004661.2005497.+	2004661	2005497	+	F11
2036054.2036890.-	2036890	2036054	-	KZN_V2475	2004661.2005497.+	2004661	2005497	+	F11
2360310.2361146.-	2361146	2360310	-	KZN_V2475	2004661.2005497.+	2004661	2005497	+	F11
2547726.2548562.-	2548562	2547726	-	KZN_V2475	2004661.2005497.+	2004661	2005497	+	F11
2627282.2628118.-	2628118	2627282	-	KZN_V2475	2004661.2005497.+	2004661	2005497	+	F11
2802832.2803668.+	2802832	2803668	+	KZN_V2475	2004661.2005497.+	2004661	2005497	+	F11
3078161.3078997.+	3078161	3078997	+	KZN_V2475	2004661.2005497.+	2004661	2005497	+	F11
3116328.3117164.-	3117164	3116328	-	KZN_V2475	2004661.2005497.+	2004661	2005497	+	F11
3476116.3476952.+	3476116	3476952	+	KZN_V2475	2004661.2005497.+	2004661	2005497	+	F11
3704480.3705316.-	3705316	3704480	-	KZN_V2475	2004661.2005497.+	2004661	2005497	+	F11
4062486.4063322.-	4063322	4062486	-	KZN_V2475	2004661.2005497.+	2004661	2005497	+	F11
931730.932566.-	932566	931730	-	KZN_V2475	934704.935540.-	935540	934704	-	F11
1976816.1977652.-	1977652	1976816	-	KZN_V2475	934704.935540.-	935540	934704	-	F11
2036054.2036890.-	2036890	2036054	-	KZN_V2475	934704.935540.-	935540	934704	-	F11
2360310.2361146.-	2361146	2360310	-	KZN_V2475	934704.935540.-	935540	934704	-	F11
2547726.2548562.-	2548562	2547726	-	KZN_V2475	934704.935540.-	935540	934704	-	F11
2627282.2628118.-	2628118	2627282	-	KZN_V2475	934704.935540.-	935540	934704	-	F11
2802832.2803668.+	2802832	2803668	+	KZN_V2475	934704.935540.-	935540	934704	-	F11
3078161.3078997.+	3078161	3078997	+	KZN_V2475	934704.935540.-	935540	934704	-	F11
3116328.3117164.-	3117164	3116328	-	KZN_V2475	934704.935540.-	935540	934704	-	F11
3476116.3476952.+	3476116	3476952	+	KZN_V2475	934704.935540.-	935540	934704	-	F11
3704480.3705316.-	3705316	3704480	-	KZN_V2475	934704.935540.-	935540	934704	-	F11
4062486.4063322.-	4063322	4062486	-	KZN_V2475	934704.935540.-	935540	934704	-	F11
931730.932566.-	932566	931730	-	KZN_V2475	3132521.3133357.-	3133357	3132521	-	F11
1976816.1977652.-	1977652	1976816	-	KZN_V2475	3132521.3133357.-	3133357	3132521	-	F11
2036054.2036890.-	2036890	2036054	-	KZN_V2475	3132521.3133357.-	3133357	3132521	-	F11
2360310.2361146.-	2361146	2360310	-	KZN_V2475	3132521.3133357.-	3133357	3132521	-	F11
2547726.2548562.-	2548562	2547726	-	KZN_V2475	3132521.3133357.-	3133357	3132521	-	F11
2627282.2628118.-	2628118	2627282	-	KZN_V2475	3132521.3133357.-	3133357	3132521	-	F11
2802832.2803668.+	2802832	2803668	+	KZN_V2475	3132521.3133357.-	3133357	3132521	-	F11
3078161.3078997.+	3078161	3078997	+	KZN_V2475	3132521.3133357.-	3133357	3132521	-	F11
3116328.3117164.-	3117164	3116328	-	KZN_V2475	3132521.3133357.-	3133357	3132521	-	F11
3476116.3476952.+	3476116	3476952	+	KZN_V2475	3132521.3133357.-	3133357	3132521	-	F11
3704480.3705316.-	3705316	3704480	-	KZN_V2475	3132521.3133357.-	3133357	3132521	-	F11
4062486.4063322.-	4063322	4062486	-	KZN_V2475	3132521.3133357.-	3133357	3132521	-	F11
931730.932566.-	932566	931730	-	KZN_V2475	2697370.2698206.-	2698206	2697370	-	F11
1976816.1977652.-	1977652	1976816	-	KZN_V2475	2697370.2698206.-	2698206	2697370	-	F11
2036054.2036890.-	2036890	2036054	-	KZN_V2475	2697370.2698206.-	2698206	2697370	-	F11
2360310.2361146.-	2361146	2360310	-	KZN_V2475	2697370.2698206.-	2698206	2697370	-	F11
2547726.2548562.-	2548562	2547726	-	KZN_V2475	2697370.2698206.-	2698206	2697370	-	F11
2627282.2628118.-	2628118	2627282	-	KZN_V2475	2697370.2698206.-	2698206	2697370	-	F11
2802832.2803668.+	2802832	2803668	+	KZN_V2475	2697370.2698206.-	2698206	2697370	-	F11
3078161.3078997.+	3078161	3078997	+	KZN_V2475	2697370.2698206.-	2698206	2697370	-	F11
3116328.3117164.-	3117164	3116328	-	KZN_V2475	2697370.2698206.-	2698206	2697370	-	F11
3476116.3476952.+	3476116	3476952	+	KZN_V2475	2697370.2698206.-	2698206	2697370	-	F11
3704480.3705316.-	3705316	3704480	-	KZN_V2475	2697370.2698206.-	2698206	2697370	-	F11
4062486.4063322.-	4063322	4062486	-	KZN_V2475	2697370.2698206.-	2698206	2697370	-	F11
3832678.3833205.+	3832678	3833205	+	KZN_V2475	3853539.3854060.+	3853539	3854060	+	F11
931730.932566.-	932566	931730	-	KZN_V2475	3722337.3723173.-	3723173	3722337	-	F11
1976816.1977652.-	1977652	1976816	-	KZN_V2475	3722337.3723173.-	3723173	3722337	-	F11
2036054.2036890.-	2036890	2036054	-	KZN_V2475	3722337.3723173.-	3723173	3722337	-	F11
2360310.2361146.-	2361146	2360310	-	KZN_V2475	3722337.3723173.-	3723173	3722337	-	F11
2547726.2548562.-	2548562	2547726	-	KZN_V2475	3722337.3723173.-	3723173	3722337	-	F11
2627282.2628118.-	2628118	2627282	-	KZN_V2475	3722337.3723173.-	3723173	3722337	-	F11
2802832.2803668.+	2802832	2803668	+	KZN_V2475	3722337.3723173.-	3723173	3722337	-	F11
3078161.3078997.+	3078161	3078997	+	KZN_V2475	3722337.3723173.-	3723173	3722337	-	F11
3116328.3117164.-	3117164	3116328	-	KZN_V2475	3722337.3723173.-	3723173	3722337	-	F11
3476116.3476952.+	3476116	3476952	+	KZN_V2475	3722337.3723173.-	3723173	3722337	-	F11
3704480.3705316.-	3705316	3704480	-	KZN_V2475	3722337.3723173.-	3723173	3722337	-	F11
4062486.4063322.-	4063322	4062486	-	KZN_V2475	3722337.3723173.-	3723173	3722337	-	F11
3330663.3331277.-	3331277	3330663	-	KZN_V2475	3346637.3347251.-	3347251	3346637	-	F11
701645.702259.+	701645	702259	+	KZN_V2475	3346637.3347251.-	3347251	3346637	-	F11
931730.932566.-	932566	931730	-	KZN_V2475	2645453.2646289.+	2645453	2646289	+	F11
1976816.1977652.-	1977652	1976816	-	KZN_V2475	2645453.2646289.+	2645453	2646289	+	F11
2036054.2036890.-	2036890	2036054	-	KZN_V2475	2645453.2646289.+	2645453	2646289	+	F11
2360310.2361146.-	2361146	2360310	-	KZN_V2475	2645453.2646289.+	2645453	2646289	+	F11
2547726.2548562.-	2548562	2547726	-	KZN_V2475	2645453.2646289.+	2645453	2646289	+	F11
2627282.2628118.-	2628118	2627282	-	KZN_V2475	2645453.2646289.+	2645453	2646289	+	F11
2802832.2803668.+	2802832	2803668	+	KZN_V2475	2645453.2646289.+	2645453	2646289	+	F11
3078161.3078997.+	3078161	3078997	+	KZN_V2475	2645453.2646289.+	2645453	2646289	+	F11
3116328.3117164.-	3117164	3116328	-	KZN_V2475	2645453.2646289.+	2645453	2646289	+	F11
3476116.3476952.+	3476116	3476952	+	KZN_V2475	2645453.2646289.+	2645453	2646289	+	F11
3704480.3705316.-	3705316	3704480	-	KZN_V2475	2645453.2646289.+	2645453	2646289	+	F11
4062486.4063322.-	4063322	4062486	-	KZN_V2475	2645453.2646289.+	2645453	2646289	+	F11
931730.932566.-	932566	931730	-	KZN_V2475	3492615.3493451.+	3492615	3493451	+	F11
1976816.1977652.-	1977652	1976816	-	KZN_V2475	3492615.3493451.+	3492615	3493451	+	F11
2036054.2036890.-	2036890	2036054	-	KZN_V2475	3492615.3493451.+	3492615	3493451	+	F11
2360310.2361146.-	2361146	2360310	-	KZN_V2475	3492615.3493451.+	3492615	3493451	+	F11
2547726.2548562.-	2548562	2547726	-	KZN_V2475	3492615.3493451.+	3492615	3493451	+	F11
2627282.2628118.-	2628118	2627282	-	KZN_V2475	3492615.3493451.+	3492615	3493451	+	F11
2802832.2803668.+	2802832	2803668	+	KZN_V2475	3492615.3493451.+	3492615	3493451	+	F11
3078161.3078997.+	3078161	3078997	+	KZN_V2475	3492615.3493451.+	3492615	3493451	+	F11
3116328.3117164.-	3117164	3116328	-	KZN_V2475	3492615.3493451.+	3492615	3493451	+	F11
3476116.3476952.+	3476116	3476952	+	KZN_V2475	3492615.3493451.+	3492615	3493451	+	F11
3704480.3705316.-	3705316	3704480	-	KZN_V2475	3492615.3493451.+	3492615	3493451	+	F11
4062486.4063322.-	4063322	4062486	-	KZN_V2475	3492615.3493451.+	3492615	3493451	+	F11
931730.932566.-	932566	931730	-	KZN_V2475	1983134.1983970.-	1983970	1983134	-	F11
1976816.1977652.-	1977652	1976816	-	KZN_V2475	1983134.1983970.-	1983970	1983134	-	F11
2036054.2036890.-	2036890	2036054	-	KZN_V2475	1983134.1983970.-	1983970	1983134	-	F11
2360310.2361146.-	2361146	2360310	-	KZN_V2475	1983134.1983970.-	1983970	1983134	-	F11
2547726.2548562.-	2548562	2547726	-	KZN_V2475	1983134.1983970.-	1983970	1983134	-	F11
2627282.2628118.-	2628118	2627282	-	KZN_V2475	1983134.1983970.-	1983970	1983134	-	F11
2802832.2803668.+	2802832	2803668	+	KZN_V2475	1983134.1983970.-	1983970	1983134	-	F11
3078161.3078997.+	3078161	3078997	+	KZN_V2475	1983134.1983970.-	1983970	1983134	-	F11
3116328.3117164.-	3117164	3116328	-	KZN_V2475	1983134.1983970.-	1983970	1983134	-	F11
3476116.3476952.+	3476116	3476952	+	KZN_V2475	1983134.1983970.-	1983970	1983134	-	F11
3704480.3705316.-	3705316	3704480	-	KZN_V2475	1983134.1983970.-	1983970	1983134	-	F11
4062486.4063322.-	4063322	4062486	-	KZN_V2475	1983134.1983970.-	1983970	1983134	-	F11
931730.932566.-	932566	931730	-	KZN_V2475	2649321.2650157.+	2649321	2650157	+	F11
1976816.1977652.-	1977652	1976816	-	KZN_V2475	2649321.2650157.+	2649321	2650157	+	F11
2036054.2036890.-	2036890	2036054	-	KZN_V2475	2649321.2650157.+	2649321	2650157	+	F11
2360310.2361146.-	2361146	2360310	-	KZN_V2475	2649321.2650157.+	2649321	2650157	+	F11
2547726.2548562.-	2548562	2547726	-	KZN_V2475	2649321.2650157.+	2649321	2650157	+	F11
2627282.2628118.-	2628118	2627282	-	KZN_V2475	2649321.2650157.+	2649321	2650157	+	F11
2802832.2803668.+	2802832	2803668	+	KZN_V2475	2649321.2650157.+	2649321	2650157	+	F11
3078161.3078997.+	3078161	3078997	+	KZN_V2475	2649321.2650157.+	2649321	2650157	+	F11
3116328.3117164.-	3117164	3116328	-	KZN_V2475	2649321.2650157.+	2649321	2650157	+	F11
3476116.3476952.+	3476116	3476952	+	KZN_V2475	2649321.2650157.+	2649321	2650157	+	F11
3704480.3705316.-	3705316	3704480	-	KZN_V2475	2649321.2650157.+	2649321	2650157	+	F11
4062486.4063322.-	4063322	4062486	-	KZN_V2475	2649321.2650157.+	2649321	2650157	+	F11
3832678.3833205.+	3832678	3833205	+	KZN_V2475	3860885.3861412.+	3860885	3861412	+	F11
931730.932566.-	932566	931730	-	KZN_V2475	1946034.1946870.-	1946870	1946034	-	F11
1976816.1977652.-	1977652	1976816	-	KZN_V2475	1946034.1946870.-	1946870	1946034	-	F11
2036054.2036890.-	2036890	2036054	-	KZN_V2475	1946034.1946870.-	1946870	1946034	-	F11
2360310.2361146.-	2361146	2360310	-	KZN_V2475	1946034.1946870.-	1946870	1946034	-	F11
2547726.2548562.-	2548562	2547726	-	KZN_V2475	1946034.1946870.-	1946870	1946034	-	F11
2627282.2628118.-	2628118	2627282	-	KZN_V2475	1946034.1946870.-	1946870	1946034	-	F11
2802832.2803668.+	2802832	2803668	+	KZN_V2475	1946034.1946870.-	1946870	1946034	-	F11
3078161.3078997.+	3078161	3078997	+	KZN_V2475	1946034.1946870.-	1946870	1946034	-	F11
3116328.3117164.-	3117164	3116328	-	KZN_V2475	1946034.1946870.-	1946870	1946034	-	F11
3476116.3476952.+	3476116	3476952	+	KZN_V2475	1946034.1946870.-	1946870	1946034	-	F11
3704480.3705316.-	3705316	3704480	-	KZN_V2475	1946034.1946870.-	1946870	1946034	-	F11
4062486.4063322.-	4063322	4062486	-	KZN_V2475	1946034.1946870.-	1946870	1946034	-	F11
931730.932566.-	932566	931730	-	KZN_V2475	2349765.2350601.+	2349765	2350601	+	F11
1976816.1977652.-	1977652	1976816	-	KZN_V2475	2349765.2350601.+	2349765	2350601	+	F11
2036054.2036890.-	2036890	2036054	-	KZN_V2475	2349765.2350601.+	2349765	2350601	+	F11
2360310.2361146.-	2361146	2360310	-	KZN_V2475	2349765.2350601.+	2349765	2350601	+	F11
2547726.2548562.-	2548562	2547726	-	KZN_V2475	2349765.2350601.+	2349765	2350601	+	F11
2627282.2628118.-	2628118	2627282	-	KZN_V2475	2349765.2350601.+	2349765	2350601	+	F11
2802832.2803668.+	2802832	2803668	+	KZN_V2475	2349765.2350601.+	2349765	2350601	+	F11
3078161.3078997.+	3078161	3078997	+	KZN_V2475	2349765.2350601.+	2349765	2350601	+	F11
3116328.3117164.-	3117164	3116328	-	KZN_V2475	2349765.2350601.+	2349765	2350601	+	F11
3476116.3476952.+	3476116	3476952	+	KZN_V2475	2349765.2350601.+	2349765	2350601	+	F11
3704480.3705316.-	3705316	3704480	-	KZN_V2475	2349765.2350601.+	2349765	2350601	+	F11
4062486.4063322.-	4063322	4062486	-	KZN_V2475	2349765.2350601.+	2349765	2350601	+	F11
931730.932566.-	932566	931730	-	KZN_V2475	1992399.1993235.-	1993235	1992399	-	F11
1976816.1977652.-	1977652	1976816	-	KZN_V2475	1992399.1993235.-	1993235	1992399	-	F11
2036054.2036890.-	2036890	2036054	-	KZN_V2475	1992399.1993235.-	1993235	1992399	-	F11
2360310.2361146.-	2361146	2360310	-	KZN_V2475	1992399.1993235.-	1993235	1992399	-	F11
2547726.2548562.-	2548562	2547726	-	KZN_V2475	1992399.1993235.-	1993235	1992399	-	F11
2627282.2628118.-	2628118	2627282	-	KZN_V2475	1992399.1993235.-	1993235	1992399	-	F11
2802832.2803668.+	2802832	2803668	+	KZN_V2475	1992399.1993235.-	1993235	1992399	-	F11
3078161.3078997.+	3078161	3078997	+	KZN_V2475	1992399.1993235.-	1993235	1992399	-	F11
3116328.3117164.-	3117164	3116328	-	KZN_V2475	1992399.1993235.-	1993235	1992399	-	F11
3476116.3476952.+	3476116	3476952	+	KZN_V2475	1992399.1993235.-	1993235	1992399	-	F11
3704480.3705316.-	3705316	3704480	-	KZN_V2475	1992399.1993235.-	1993235	1992399	-	F11
4062486.4063322.-	4063322	4062486	-	KZN_V2475	1992399.1993235.-	1993235	1992399	-	F11
3191102.3191719.-	3191719	3191102	-	KZN_V2475	3207074.3207691.-	3207691	3207074	-	F11
3097417.3098028.-	3098028	3097417	-	KZN_V2475	3207074.3207691.-	3207691	3207074	-	F11
931730.932566.-	932566	931730	-	KZN_V2475	2270484.2271320.-	2271320	2270484	-	F11
1976816.1977652.-	1977652	1976816	-	KZN_V2475	2270484.2271320.-	2271320	2270484	-	F11
2036054.2036890.-	2036890	2036054	-	KZN_V2475	2270484.2271320.-	2271320	2270484	-	F11
2360310.2361146.-	2361146	2360310	-	KZN_V2475	2270484.2271320.-	2271320	2270484	-	F11
2547726.2548562.-	2548562	2547726	-	KZN_V2475	2270484.2271320.-	2271320	2270484	-	F11
2627282.2628118.-	2628118	2627282	-	KZN_V2475	2270484.2271320.-	2271320	2270484	-	F11
2802832.2803668.+	2802832	2803668	+	KZN_V2475	2270484.2271320.-	2271320	2270484	-	F11
3078161.3078997.+	3078161	3078997	+	KZN_V2475	2270484.2271320.-	2271320	2270484	-	F11
3116328.3117164.-	3117164	3116328	-	KZN_V2475	2270484.2271320.-	2271320	2270484	-	F11
3476116.3476952.+	3476116	3476952	+	KZN_V2475	2270484.2271320.-	2271320	2270484	-	F11
3704480.3705316.-	3705316	3704480	-	KZN_V2475	2270484.2271320.-	2271320	2270484	-	F11
4062486.4063322.-	4063322	4062486	-	KZN_V2475	2270484.2271320.-	2271320	2270484	-	F11
931730.932566.-	932566	931730	-	KZN_V2475	2017907.2018743.-	2018743	2017907	-	F11
1976816.1977652.-	1977652	1976816	-	KZN_V2475	2017907.2018743.-	2018743	2017907	-	F11
2036054.2036890.-	2036890	2036054	-	KZN_V2475	2017907.2018743.-	2018743	2017907	-	F11
2360310.2361146.-	2361146	2360310	-	KZN_V2475	2017907.2018743.-	2018743	2017907	-	F11
2547726.2548562.-	2548562	2547726	-	KZN_V2475	2017907.2018743.-	2018743	2017907	-	F11
2627282.2628118.-	2628118	2627282	-	KZN_V2475	2017907.2018743.-	2018743	2017907	-	F11
2802832.2803668.+	2802832	2803668	+	KZN_V2475	2017907.2018743.-	2018743	2017907	-	F11
3078161.3078997.+	3078161	3078997	+	KZN_V2475	2017907.2018743.-	2018743	2017907	-	F11
3116328.3117164.-	3117164	3116328	-	KZN_V2475	2017907.2018743.-	2018743	2017907	-	F11
3476116.3476952.+	3476116	3476952	+	KZN_V2475	2017907.2018743.-	2018743	2017907	-	F11
3704480.3705316.-	3705316	3704480	-	KZN_V2475	2017907.2018743.-	2018743	2017907	-	F11
4062486.4063322.-	4063322	4062486	-	KZN_V2475	2017907.2018743.-	2018743	2017907	-	F11
931730.932566.-	932566	931730	-	KZN_V2475	1997839.1998675.+	1997839	1998675	+	F11
1976816.1977652.-	1977652	1976816	-	KZN_V2475	1997839.1998675.+	1997839	1998675	+	F11
2036054.2036890.-	2036890	2036054	-	KZN_V2475	1997839.1998675.+	1997839	1998675	+	F11
2360310.2361146.-	2361146	2360310	-	KZN_V2475	1997839.1998675.+	1997839	1998675	+	F11
2547726.2548562.-	2548562	2547726	-	KZN_V2475	1997839.1998675.+	1997839	1998675	+	F11
2627282.2628118.-	2628118	2627282	-	KZN_V2475	1997839.1998675.+	1997839	1998675	+	F11
2802832.2803668.+	2802832	2803668	+	KZN_V2475	1997839.1998675.+	1997839	1998675	+	F11
3078161.3078997.+	3078161	3078997	+	KZN_V2475	1997839.1998675.+	1997839	1998675	+	F11
3116328.3117164.-	3117164	3116328	-	KZN_V2475	1997839.1998675.+	1997839	1998675	+	F11
3476116.3476952.+	3476116	3476952	+	KZN_V2475	1997839.1998675.+	1997839	1998675	+	F11
3704480.3705316.-	3705316	3704480	-	KZN_V2475	1997839.1998675.+	1997839	1998675	+	F11
4062486.4063322.-	4063322	4062486	-	KZN_V2475	1997839.1998675.+	1997839	1998675	+	F11
931730.932566.-	932566	931730	-	KZN_V2475	3564305.3565141.-	3565141	3564305	-	F11
1976816.1977652.-	1977652	1976816	-	KZN_V2475	3564305.3565141.-	3565141	3564305	-	F11
2036054.2036890.-	2036890	2036054	-	KZN_V2475	3564305.3565141.-	3565141	3564305	-	F11
2360310.2361146.-	2361146	2360310	-	KZN_V2475	3564305.3565141.-	3565141	3564305	-	F11
2547726.2548562.-	2548562	2547726	-	KZN_V2475	3564305.3565141.-	3565141	3564305	-	F11
2627282.2628118.-	2628118	2627282	-	KZN_V2475	3564305.3565141.-	3565141	3564305	-	F11
2802832.2803668.+	2802832	2803668	+	KZN_V2475	3564305.3565141.-	3565141	3564305	-	F11
3078161.3078997.+	3078161	3078997	+	KZN_V2475	3564305.3565141.-	3565141	3564305	-	F11
3116328.3117164.-	3117164	3116328	-	KZN_V2475	3564305.3565141.-	3565141	3564305	-	F11
3476116.3476952.+	3476116	3476952	+	KZN_V2475	3564305.3565141.-	3565141	3564305	-	F11
3704480.3705316.-	3705316	3704480	-	KZN_V2475	3564305.3565141.-	3565141	3564305	-	F11
4062486.4063322.-	4063322	4062486	-	KZN_V2475	3564305.3565141.-	3565141	3564305	-	F11
