3207537.3208154.-	3208154	3207537	-	H37Ra	1217778.1218395.+	1217778	1218395	+	KZN_605
3113549.3114160.-	3114160	3113549	-	H37Ra	1217778.1218395.+	1217778	1218395	+	KZN_605
3347156.3347770.-	3347770	3347156	-	H37Ra	1077828.1078442.+	1077828	1078442	+	KZN_605
702710.703324.+	702710	703324	+	H37Ra	1077828.1078442.+	1077828	1078442	+	KZN_605
