41406.42014.+	41406	42014	+	KZN_4207	41406.42014.+	41406	42014	+	KZN_V2475
48335.49129.-	49129	48335	-	KZN_4207	48335.49129.-	49129	48335	-	KZN_V2475
108286.109908.+	108286	109908	+	KZN_4207	108286.109908.+	108286	109908	+	KZN_V2475
46683.47309.-	47309	46683	-	KZN_4207	46683.47309.-	47309	46683	-	KZN_V2475
7403.9919.+	7403	9919	+	KZN_4207	7403.9919.+	7403	9919	+	KZN_V2475
39158.39931.-	39931	39158	-	KZN_4207	39158.39931.-	39931	39158	-	KZN_V2475
148040.148474.-	148474	148040	-	KZN_4207	148040.148474.-	148474	148040	-	KZN_V2475
82878.84113.+	82878	84113	+	KZN_4207	82878.84113.+	82878	84113	+	KZN_V2475
67025.68464.+	67025	68464	+	KZN_4207	67025.68464.+	67025	68464	+	KZN_V2475
59511.59969.+	59511	59969	+	KZN_4207	59511.59969.+	59511	59969	+	KZN_V2475
33683.33895.+	33683	33895	+	KZN_4207	33683.33895.+	33683	33895	+	KZN_V2475
74768.75337.-	75337	74768	-	KZN_4207	74768.75337.-	75337	74768	-	KZN_V2475
95544.97022.+	95544	97022	+	KZN_4207	95544.97022.+	95544	97022	+	KZN_V2475
51930.52799.-	52799	51930	-	KZN_4207	51930.52799.-	52799	51930	-	KZN_V2475
79625.80323.+	79625	80323	+	KZN_4207	79625.80323.+	79625	80323	+	KZN_V2475
14190.14978.+	14190	14978	+	KZN_4207	14190.14978.+	14190	14978	+	KZN_V2475
764149.768099.+	764149	768099	+	KZN_4207	764148.768098.+	764148	768098	+	KZN_V2475
42535.43467.-	43467	42535	-	KZN_4207	42535.43467.-	43467	42535	-	KZN_V2475
75440.76351.+	75440	76351	+	KZN_4207	75440.76351.+	75440	76351	+	KZN_V2475
52933.53346.+	52933	53346	+	KZN_4207	52933.53346.+	52933	53346	+	KZN_V2475
29346.29708.+	29346	29708	+	KZN_4207	29346.29708.+	29346	29708	+	KZN_V2475
13815.14096.-	14096	13815	-	KZN_4207	13815.14096.-	14096	13815	-	KZN_V2475
21738.23273.-	23273	21738	-	KZN_4207	21738.23273.-	23273	21738	-	KZN_V2475
994705.996192.+	994705	996192	+	KZN_4207	994704.996191.+	994704	996191	+	KZN_V2475
49145.50041.-	50041	49145	-	KZN_4207	49145.50041.-	50041	49145	-	KZN_V2475
99814.100581.+	99814	100581	+	KZN_4207	99814.100581.+	99814	100581	+	KZN_V2475
57512.58075.+	57512	58075	+	KZN_4207	57512.58075.+	57512	58075	+	KZN_V2475
2153.3361.+	2153	3361	+	KZN_4207	2153.3361.+	2153	3361	+	KZN_V2475
120045.122303.-	122303	120045	-	KZN_4207	120045.122303.-	122303	120045	-	KZN_V2475
85313.85702.-	85702	85313	-	KZN_4207	85313.85702.-	85702	85313	-	KZN_V2475
71960.72361.+	71960	72361	+	KZN_4207	71960.72361.+	71960	72361	+	KZN_V2475
23962.25545.-	25545	23962	-	KZN_4207	23962.25545.-	25545	23962	-	KZN_V2475
12569.13117.+	12569	13117	+	KZN_4207	12569.13117.+	12569	13117	+	KZN_V2475
142260.144008.-	144008	142260	-	KZN_4207	142260.144008.-	144008	142260	-	KZN_V2475
65093.65518.+	65093	65518	+	KZN_4207	65093.65518.+	65093	65518	+	KZN_V2475
31615.31920.+	31615	31920	+	KZN_4207	31615.31920.+	31615	31920	+	KZN_V2475
134082.136139.+	134082	136139	+	KZN_4207	134082.136139.+	134082	136139	+	KZN_V2475
136421.137377.+	136421	137377	+	KZN_4207	136421.137377.+	136421	137377	+	KZN_V2475
140399.141154.-	141154	140399	-	KZN_4207	140399.141154.-	141154	140399	-	KZN_V2475
98610.99380.+	98610	99380	+	KZN_4207	98610.99380.+	98610	99380	+	KZN_V2475
148988.149356.+	148988	149356	+	KZN_4207	148988.149356.+	148988	149356	+	KZN_V2475
131514.133004.+	131514	133004	+	KZN_4207	131514.133004.+	131514	133004	+	KZN_V2475
86658.87263.+	86658	87263	+	KZN_4207	86658.87263.+	86658	87263	+	KZN_V2475
59224.59478.+	59224	59478	+	KZN_4207	59224.59478.+	59224	59478	+	KZN_V2475
58294.58584.+	58294	58584	+	KZN_4207	58294.58584.+	58294	58584	+	KZN_V2475
64011.65069.+	64011	65069	+	KZN_4207	64011.65069.+	64011	65069	+	KZN_V2475
89152.89610.+	89152	89610	+	KZN_4207	89152.89610.+	89152	89610	+	KZN_V2475
55798.57480.+	55798	57480	+	KZN_4207	55798.57480.+	55798	57480	+	KZN_V2475
51287.51829.-	51829	51287	-	KZN_4207	51287.51829.-	51829	51287	-	KZN_V2475
85766.86596.-	86596	85766	-	KZN_4207	85766.86596.-	86596	85766	-	KZN_V2475
27124.27543.-	27543	27124	-	KZN_4207	27124.27543.-	27543	27124	-	KZN_V2475
58688.59182.+	58688	59182	+	KZN_4207	58688.59182.+	58688	59182	+	KZN_V2475
63302.63994.+	63302	63994	+	KZN_4207	63302.63994.+	63302	63994	+	KZN_V2475
68722.71661.+	68722	71661	+	KZN_4207	68722.71661.+	68722	71661	+	KZN_V2475
137451.138041.+	137451	138041	+	KZN_4207	137451.138041.+	137451	138041	+	KZN_V2475
2283422.2283982.-	2283982	2283422	-	KZN_4207	2283421.2283981.-	2283981	2283421	-	KZN_V2475
26014.26982.-	26982	26014	-	KZN_4207	26014.26982.-	26982	26014	-	KZN_V2475
5224.7368.+	5224	7368	+	KZN_4207	5224.7368.+	5224	7368	+	KZN_V2475
31290.31607.+	31290	31607	+	KZN_4207	31290.31607.+	31290	31607	+	KZN_V2475
72413.74650.-	74650	72413	-	KZN_4207	72413.74650.-	74650	72413	-	KZN_V2475
102.1625.+	102	1625	+	KZN_4207	102.1625.+	102	1625	+	KZN_V2475
37361.39049.+	37361	39049	+	KZN_4207	37361.39049.+	37361	39049	+	KZN_V2475
133152.133901.+	133152	133901	+	KZN_4207	133152.133901.+	133152	133901	+	KZN_V2475
124110.124394.-	124394	124110	-	KZN_4207	124110.124394.-	124394	124110	-	KZN_V2475
81806.82798.+	81806	82798	+	KZN_4207	81806.82798.+	81806	82798	+	KZN_V2475
60498.63122.+	60498	63122	+	KZN_4207	60498.63122.+	60498	63122	+	KZN_V2475
102945.103793.-	103793	102945	-	KZN_4207	102945.103793.-	103793	102945	-	KZN_V2475
117844.119829.+	117844	119829	+	KZN_4207	117844.119829.+	117844	119829	+	KZN_V2475
1673879.1674688.+	1673879	1674688	+	KZN_4207	1673878.1674687.+	1673878	1674687	+	KZN_V2475
760586.764104.+	760586	764104	+	KZN_4207	760585.764103.+	760585	764103	+	KZN_V2475
138645.139805.+	138645	139805	+	KZN_4207	138645.139805.+	138645	139805	+	KZN_V2475
84126.85298.+	84126	85298	+	KZN_4207	84126.85298.+	84126	85298	+	KZN_V2475
105454.106845.+	105454	106845	+	KZN_4207	105454.106845.+	105454	106845	+	KZN_V2475
131026.131235.-	131235	131026	-	KZN_4207	131026.131235.-	131235	131026	-	KZN_V2475
4535.5098.+	4535	5098	+	KZN_4207	4535.5098.+	4535	5098	+	KZN_V2475
144181.145758.+	144181	145758	+	KZN_4207	144181.145758.+	144181	145758	+	KZN_V2475
122447.123961.+	122447	123961	+	KZN_4207	122447.123961.+	122447	123961	+	KZN_V2475
89705.90049.+	89705	90049	+	KZN_4207	89705.90049.+	89705	90049	+	KZN_V2475
65654.66796.+	65654	66796	+	KZN_4207	65654.66796.+	65654	66796	+	KZN_V2475
42106.42453.-	42453	42106	-	KZN_4207	42106.42453.-	42453	42106	-	KZN_V2475
107730.108281.+	107730	108281	+	KZN_4207	107730.108281.+	107730	108281	+	KZN_V2475
110131.117669.+	110131	117669	+	KZN_4207	110131.117669.+	110131	117669	+	KZN_V2475
11975.12412.-	12412	11975	-	KZN_4207	11975.12412.-	12412	11975	-	KZN_V2475
10015.10929.+	10015	10929	+	KZN_4207	10015.10929.+	10015	10929	+	KZN_V2475
92458.93408.+	92458	93408	+	KZN_4207	92458.93408.+	92458	93408	+	KZN_V2475
28463.29308.+	28463	29308	+	KZN_4207	28463.29308.+	28463	29308	+	KZN_V2475
50123.51226.-	51226	50123	-	KZN_4207	50123.51226.-	51226	50123	-	KZN_V2475
97057.97731.+	97057	97731	+	KZN_4207	97057.97731.+	97057	97731	+	KZN_V2475
77758.79035.-	79035	77758	-	KZN_4207	77758.79035.-	79035	77758	-	KZN_V2475
29823.31169.+	29823	31169	+	KZN_4207	29823.31169.+	29823	31169	+	KZN_V2475
13234.13659.-	13659	13234	-	KZN_4207	13234.13659.-	13659	13234	-	KZN_V2475
97888.98481.+	97888	98481	+	KZN_4207	97888.98481.+	97888	98481	+	KZN_V2475
47468.48202.-	48202	47468	-	KZN_4207	47468.48202.-	48202	47468	-	KZN_V2475
145759.147903.-	147903	145759	-	KZN_4207	145759.147903.-	147903	145759	-	KZN_V2475
39979.41304.-	41304	39979	-	KZN_4207	39979.41304.-	41304	39979	-	KZN_V2475
32158.33255.+	32158	33255	+	KZN_4207	32158.33255.+	32158	33255	+	KZN_V2475
80754.81803.+	80754	81803	+	KZN_4207	80754.81803.+	80754	81803	+	KZN_V2475
124504.125700.+	124504	125700	+	KZN_4207	124504.125700.+	124504	125700	+	KZN_V2475
87338.87931.-	87931	87338	-	KZN_4207	87338.87931.-	87931	87338	-	KZN_V2475
43664.46573.+	43664	46573	+	KZN_4207	43664.46573.+	43664	46573	+	KZN_V2475
90530.92452.+	90530	92452	+	KZN_4207	90530.92452.+	90530	92452	+	KZN_V2475
