1217666.1218283.+	1217666	1218283	+	KZN_1435	3195545.3196162.-	3196162	3195545	-	H37Rv
1311465.1312076.+	1311465	1312076	+	KZN_1435	3195545.3196162.-	3196162	3195545	-	H37Rv
1077826.1078440.+	1077826	1078440	+	KZN_1435	3335164.3335778.-	3335778	3335164	-	H37Rv
701652.702266.+	701652	702266	+	KZN_1435	3335164.3335778.-	3335778	3335164	-	H37Rv
