3346637.3347251.-	3347251	3346637	-	F11	3330664.3331278.-	3331278	3330664	-	KZN_4207
704628.705242.+	704628	705242	+	F11	3330664.3331278.-	3331278	3330664	-	KZN_4207
3207074.3207691.-	3207691	3207074	-	F11	3191103.3191720.-	3191720	3191103	-	KZN_4207
3113536.3114147.-	3114147	3113536	-	F11	3191103.3191720.-	3191720	3191103	-	KZN_4207
