732569.733066.+	732569	733066	+	KZN_R506	735552.736049.+	735552	736049	+	F11
515558.516019.-	516019	515558	-	KZN_R506	518543.519004.-	519004	518543	-	F11
447615.448043.+	447615	448043	+	KZN_R506	447994.448422.+	447994	448422	+	F11
2667602.2671843.-	2671843	2667602	-	KZN_R506	2684888.2689129.-	2689129	2684888	-	F11
2289272.2297464.-	2297464	2289272	-	KZN_R506	2309143.2317335.-	2317335	2309143	-	F11
1759112.1759855.+	1759112	1759855	+	KZN_R506	1764073.1764816.+	1764073	1764816	+	F11
2555710.2556225.+	2555710	2556225	+	KZN_R506	2573387.2573902.+	2573387	2573902	+	F11
3801975.3802601.+	3801975	3802601	+	KZN_R506	3822836.3823462.+	3822836	3823462	+	F11
3448191.3449609.+	3448191	3449609	+	KZN_R506	3464689.3466107.+	3464689	3466107	+	F11
1611722.1612342.-	1612342	1611722	-	KZN_R506	1616683.1617303.-	1617303	1616683	-	F11
2462498.2463574.-	2463574	2462498	-	KZN_R506	2481533.2482609.-	2482609	2481533	-	F11
1108967.1109320.-	1109320	1108967	-	KZN_R506	1111940.1112293.-	1112293	1111940	-	F11
1283792.1284865.-	1284865	1283792	-	KZN_R506	1286820.1287893.-	1287893	1286820	-	F11
710829.711062.-	711062	710829	-	KZN_R506	713812.714045.-	714045	713812	-	F11
3038853.3039473.-	3039473	3038853	-	KZN_R506	3056330.3056950.-	3056950	3056330	-	F11
4055097.4055822.+	4055097	4055822	+	KZN_R506	4083517.4084242.+	4083517	4084242	+	F11
1061660.1062070.-	1062070	1061660	-	KZN_R506	1064634.1065044.-	1065044	1064634	-	F11
1778871.1779737.-	1779737	1778871	-	KZN_R506	1783832.1784698.-	1784698	1783832	-	F11
103840.104703.-	104703	103840	-	KZN_R506	1783832.1784698.-	1784698	1783832	-	F11
3869558.3870421.+	3869558	3870421	+	KZN_R506	1783832.1784698.-	1784698	1783832	-	F11
2128351.2128524.-	2128524	2128351	-	KZN_R506	2146660.2146833.-	2146833	2146660	-	F11
1340089.1341261.+	1340089	1341261	+	KZN_R506	1343117.1344289.+	1343117	1344289	+	F11
1533182.1534369.-	1534369	1533182	-	KZN_R506	1343117.1344289.+	1343117	1344289	+	F11
3878575.3879753.+	3878575	3879753	+	KZN_R506	1343117.1344289.+	1343117	1344289	+	F11
3603703.3604293.-	3604293	3603703	-	KZN_R506	3621559.3622149.-	3622149	3621559	-	F11
1262715.1262951.+	1262715	1262951	+	KZN_R506	1265689.1265925.+	1265689	1265925	+	F11
1191554.1192963.-	1192963	1191554	-	KZN_R506	1194527.1195936.-	1195936	1194527	-	F11
743497.747144.+	743497	747144	+	KZN_R506	746480.750127.+	746480	750127	+	F11
4029790.4030701.-	4030701	4029790	-	KZN_R506	4057988.4058899.-	4058899	4057988	-	F11
1687617.1688906.+	1687617	1688906	+	KZN_R506	1692578.1693867.+	1692578	1693867	+	F11
945184.945576.+	945184	945576	+	KZN_R506	948158.948550.+	948158	948550	+	F11
2426800.2427723.-	2427723	2426800	-	KZN_R506	2445834.2446757.-	2446757	2445834	-	F11
307815.309377.-	309377	307815	-	KZN_R506	308194.309756.-	309756	308194	-	F11
2515471.2516286.+	2515471	2516286	+	KZN_R506	2534506.2535321.+	2534506	2535321	+	F11
2849097.2850107.+	2849097	2850107	+	KZN_R506	2866574.2867584.+	2866574	2867584	+	F11
207395.208357.+	207395	208357	+	KZN_R506	207774.208736.+	207774	208736	+	F11
995913.996191.+	995913	996191	+	KZN_R506	998887.999165.+	998887	999165	+	F11
2113566.2114252.+	2113566	2114252	+	KZN_R506	2131875.2132561.+	2131875	2132561	+	F11
26014.26979.-	26979	26014	-	KZN_R506	26014.26979.-	26979	26014	-	F11
204005.205174.+	204005	205174	+	KZN_R506	204384.205553.+	204384	205553	+	F11
1129929.1130900.+	1129929	1130900	+	KZN_R506	1132902.1133873.+	1132902	1133873	+	F11
1268938.1269753.-	1269753	1268938	-	KZN_R506	1271967.1272782.-	1272782	1271967	-	F11
68520.68681.+	68520	68681	+	KZN_R506	68522.68683.+	68522	68683	+	F11
3285206.3285736.+	3285206	3285736	+	KZN_R506	3301178.3301708.+	3301178	3301708	+	F11
918440.919099.-	919099	918440	-	KZN_R506	921423.922082.-	922082	921423	-	F11
3157938.3159782.+	3157938	3159782	+	KZN_R506	3173909.3175753.+	3173909	3175753	+	F11
3627561.3628985.+	3627561	3628985	+	KZN_R506	3645417.3646841.+	3645417	3646841	+	F11
65093.65518.+	65093	65518	+	KZN_R506	65095.65520.+	65095	65520	+	F11
977708.978985.-	978985	977708	-	KZN_R506	980682.981959.-	981959	980682	-	F11
3371754.3372119.-	3372119	3371754	-	KZN_R506	3388199.3388564.-	3388564	3388199	-	F11
677972.678820.-	678820	677972	-	KZN_R506	680955.681803.-	681803	680955	-	F11
1924751.1924918.-	1924918	1924751	-	KZN_R506	1929711.1929878.-	1929878	1929711	-	F11
831740.832546.+	831740	832546	+	KZN_R506	834724.835530.+	834724	835530	+	F11
2046520.2047422.+	2046520	2047422	+	KZN_R506	2064773.2065675.+	2064773	2065675	+	F11
2619344.2619463.-	2619463	2619344	-	KZN_R506	2637020.2637139.-	2637139	2637020	-	F11
4044878.4044997.-	4044997	4044878	-	KZN_R506	2637020.2637139.-	2637139	2637020	-	F11
1341573.1341692.+	1341573	1341692	+	KZN_R506	2637020.2637139.-	2637139	2637020	-	F11
1161650.1161769.-	1161769	1161650	-	KZN_R506	2637020.2637139.-	2637139	2637020	-	F11
2019165.2019284.+	2019165	2019284	+	KZN_R506	2637020.2637139.-	2637139	2637020	-	F11
2114712.2114930.-	2114930	2114712	-	KZN_R506	2133021.2133239.-	2133239	2133021	-	F11
1170172.1171467.+	1170172	1171467	+	KZN_R506	1173145.1174440.+	1173145	1174440	+	F11
1342095.1343390.-	1343390	1342095	-	KZN_R506	1173145.1174440.+	1173145	1174440	+	F11
2824397.2825692.-	2825692	2824397	-	KZN_R506	1173145.1174440.+	1173145	1174440	+	F11
3376640.3377935.-	3377935	3376640	-	KZN_R506	1173145.1174440.+	1173145	1174440	+	F11
3478028.3479323.+	3478028	3479323	+	KZN_R506	1173145.1174440.+	1173145	1174440	+	F11
975141.976820.-	976820	975141	-	KZN_R506	978115.979794.-	979794	978115	-	F11
2925910.2926197.+	2925910	2926197	+	KZN_R506	2943387.2943674.+	2943387	2943674	+	F11
877705.879342.-	879342	877705	-	KZN_R506	880688.882325.-	882325	880688	-	F11
2975445.2975912.-	2975912	2975445	-	KZN_R506	2992922.2993389.-	2993389	2992922	-	F11
1886741.1887136.+	1886741	1887136	+	KZN_R506	1891701.1892096.+	1891701	1892096	+	F11
110437.117669.+	110437	117669	+	KZN_R506	110441.117673.+	110441	117673	+	F11
4044878.4044997.-	4044997	4044878	-	KZN_R506	4073298.4073417.-	4073417	4073298	-	F11
2619344.2619463.-	2619463	2619344	-	KZN_R506	4073298.4073417.-	4073417	4073298	-	F11
1161650.1161769.-	1161769	1161650	-	KZN_R506	4073298.4073417.-	4073417	4073298	-	F11
1341573.1341692.+	1341573	1341692	+	KZN_R506	4073298.4073417.-	4073417	4073298	-	F11
2019165.2019284.+	2019165	2019284	+	KZN_R506	4073298.4073417.-	4073417	4073298	-	F11
3108302.3108931.-	3108931	3108302	-	KZN_R506	3124420.3125049.-	3125049	3124420	-	F11
2276034.2276357.+	2276034	2276357	+	KZN_R506	2295906.2296229.+	2295906	2296229	+	F11
186432.186560.-	186560	186432	-	KZN_R506	186811.186939.-	186939	186811	-	F11
2942274.2942951.+	2942274	2942951	+	KZN_R506	2959751.2960428.+	2959751	2960428	+	F11
3335118.3337346.+	3335118	3337346	+	KZN_R506	3351563.3353791.+	3351563	3353791	+	F11
4082875.4084038.-	4084038	4082875	-	KZN_R506	4109937.4111100.-	4111100	4109937	-	F11
1937684.1937911.-	1937911	1937684	-	KZN_R506	1942644.1942871.-	1942871	1942644	-	F11
1827382.1829601.+	1827382	1829601	+	KZN_R506	1832343.1834562.+	1832343	1834562	+	F11
4296340.4296753.+	4296340	4296753	+	KZN_R506	4323402.4323815.+	4323402	4323815	+	F11
2302875.2305664.-	2305664	2302875	-	KZN_R506	2322743.2325532.-	2325532	2322743	-	F11
1591069.1591533.+	1591069	1591533	+	KZN_R506	1596030.1596494.+	1596030	1596494	+	F11
3319209.3319994.-	3319994	3319209	-	KZN_R506	3335182.3335967.-	3335967	3335182	-	F11
3715309.3715695.+	3715309	3715695	+	KZN_R506	3735983.3736369.+	3735983	3736369	+	F11
1173675.1174583.+	1173675	1174583	+	KZN_R506	1176648.1177556.+	1176648	1177556	+	F11
4232453.4235749.+	4232453	4235749	+	KZN_R506	4259515.4262811.+	4259515	4262811	+	F11
4396225.4396575.-	4396575	4396225	-	KZN_R506	4423416.4423766.-	4423766	4423416	-	F11
2337772.2338077.+	2337772	2338077	+	KZN_R506	2358998.2359303.+	2358998	2359303	+	F11
2699278.2699847.+	2699278	2699847	+	KZN_R506	2717922.2718491.+	2717922	2718491	+	F11
2710100.2711326.-	2711326	2710100	-	KZN_R506	2728798.2730024.-	2730024	2728798	-	F11
1339740.1340039.+	1339740	1340039	+	KZN_R506	1342768.1343067.+	1342768	1343067	+	F11
1200222.1201172.-	1201172	1200222	-	KZN_R506	1203196.1204146.-	1204146	1203196	-	F11
4305764.4305979.+	4305764	4305979	+	KZN_R506	4332826.4333041.+	4332826	4333041	+	F11
1713848.1717384.-	1717384	1713848	-	KZN_R506	1718809.1722345.-	1722345	1718809	-	F11
1531712.1531936.-	1531936	1531712	-	KZN_R506	1536672.1536896.-	1536896	1536672	-	F11
4067101.4067292.+	4067101	4067292	+	KZN_R506	4094163.4094354.+	4094163	4094354	+	F11
2103022.2105358.+	2103022	2105358	+	KZN_R506	2121331.2123667.+	2121331	2123667	+	F11
4191477.4191779.+	4191477	4191779	+	KZN_R506	4218539.4218841.+	4218539	4218841	+	F11
4084035.4085108.-	4085108	4084035	-	KZN_R506	4111097.4112170.-	4112170	4111097	-	F11
181924.183147.-	183147	181924	-	KZN_R506	182303.183526.-	183526	182303	-	F11
3834349.3834504.-	3834504	3834349	-	KZN_R506	3862555.3862710.-	3862710	3862555	-	F11
2701990.2702709.+	2701990	2702709	+	KZN_R506	2720691.2721410.+	2720691	2721410	+	F11
955918.957129.+	955918	957129	+	KZN_R506	958892.960103.+	958892	960103	+	F11
1024717.1024974.+	1024717	1024974	+	KZN_R506	1027691.1027948.+	1027691	1027948	+	F11
1170172.1171467.+	1170172	1171467	+	KZN_R506	3393085.3394380.-	3394380	3393085	-	F11
1342095.1343390.-	1343390	1342095	-	KZN_R506	3393085.3394380.-	3394380	3393085	-	F11
2824397.2825692.-	2825692	2824397	-	KZN_R506	3393085.3394380.-	3394380	3393085	-	F11
3376640.3377935.-	3377935	3376640	-	KZN_R506	3393085.3394380.-	3394380	3393085	-	F11
3478028.3479323.+	3478028	3479323	+	KZN_R506	3393085.3394380.-	3394380	3393085	-	F11
3884639.3885385.-	3885385	3884639	-	KZN_R506	3912846.3913592.-	3913592	3912846	-	F11
881962.882351.-	882351	881962	-	KZN_R506	884945.885334.-	885334	884945	-	F11
736543.737448.-	737448	736543	-	KZN_R506	739526.740431.-	740431	739526	-	F11
1861272.1861784.+	1861272	1861784	+	KZN_R506	1866232.1866744.+	1866232	1866744	+	F11
232168.234414.+	232168	234414	+	KZN_R506	232547.234793.+	232547	234793	+	F11
3563018.3565207.-	3565207	3563018	-	KZN_R506	3580874.3583063.-	3583063	3580874	-	F11
3191103.3191714.-	3191714	3191103	-	KZN_R506	3207074.3207685.-	3207685	3207074	-	F11
3097418.3098023.-	3098023	3097418	-	KZN_R506	3207074.3207685.-	3207685	3207074	-	F11
842622.842759.-	842759	842622	-	KZN_R506	845606.845743.-	845743	845606	-	F11
806641.807051.+	806641	807051	+	KZN_R506	809625.810035.+	809625	810035	+	F11
1528218.1530830.+	1528218	1530830	+	KZN_R506	1533178.1535790.+	1533178	1535790	+	F11
953666.954070.+	953666	954070	+	KZN_R506	956640.957044.+	956640	957044	+	F11
709700.710593.+	709700	710593	+	KZN_R506	712683.713576.+	712683	713576	+	F11
3120654.3121802.-	3121802	3120654	-	KZN_R506	3136625.3137773.-	3137773	3136625	-	F11
2721571.2721804.-	2721804	2721571	-	KZN_R506	2740269.2740502.-	2740502	2740269	-	F11
1198588.1198878.+	1198588	1198878	+	KZN_R506	1201562.1201852.+	1201562	1201852	+	F11
2990583.2991215.+	2990583	2991215	+	KZN_R506	3008060.3008692.+	3008060	3008692	+	F11
2958310.2958552.+	2958310	2958552	+	KZN_R506	2975787.2976029.+	2975787	2976029	+	F11
2387996.2388226.+	2387996	2388226	+	KZN_R506	2406972.2407202.+	2406972	2407202	+	F11
4013551.4014345.-	4014345	4013551	-	KZN_R506	4041749.4042543.-	4042543	4041749	-	F11
1114968.1115177.-	1115177	1114968	-	KZN_R506	1117941.1118150.-	1118150	1117941	-	F11
4369597.4369935.-	4369935	4369597	-	KZN_R506	4396658.4396996.-	4396996	4396658	-	F11
3551220.3552254.-	3552254	3551220	-	KZN_R506	3569076.3570110.-	3570110	3569076	-	F11
879507.880211.+	879507	880211	+	KZN_R506	882490.883194.+	882490	883194	+	F11
1180193.1181374.+	1180193	1181374	+	KZN_R506	1183166.1184347.+	1183166	1184347	+	F11
1951673.1952170.-	1952170	1951673	-	KZN_R506	1957991.1958488.-	1958488	1957991	-	F11
2676467.2676676.+	2676467	2676676	+	KZN_R506	2693753.2693962.+	2693753	2693962	+	F11
877206.877598.-	877598	877206	-	KZN_R506	880189.880581.-	880581	880189	-	F11
1702726.1703772.+	1702726	1703772	+	KZN_R506	1707687.1708733.+	1707687	1708733	+	F11
3715557.3716201.+	3715557	3716201	+	KZN_R506	3736231.3736875.+	3736231	3736875	+	F11
2971068.2971484.-	2971484	2971068	-	KZN_R506	2988545.2988961.-	2988961	2988545	-	F11
2018545.2018844.+	2018545	2018844	+	KZN_R506	2038157.2038456.+	2038157	2038456	+	F11
2322966.2323739.-	2323739	2322966	-	KZN_R506	2342834.2343607.-	2343607	2342834	-	F11
4146451.4146852.-	4146852	4146451	-	KZN_R506	4173513.4173914.-	4173914	4173513	-	F11
580682.580888.-	580888	580682	-	KZN_R506	583666.583872.-	583872	583666	-	F11
1919400.1919990.-	1919990	1919400	-	KZN_R506	1924360.1924950.-	1924950	1924360	-	F11
736543.737490.-	737490	736543	-	KZN_R506	739526.740473.-	740473	739526	-	F11
2135121.2136245.-	2136245	2135121	-	KZN_R506	2153430.2154554.-	2154554	2153430	-	F11
2432451.2433116.-	2433116	2432451	-	KZN_R506	2735450.2736115.-	2736115	2735450	-	F11
2716752.2717417.-	2717417	2716752	-	KZN_R506	2735450.2736115.-	2736115	2735450	-	F11
2373832.2374347.-	2374347	2373832	-	KZN_R506	2392808.2393323.-	2393323	2392808	-	F11
2332921.2333250.-	2333250	2332921	-	KZN_R506	2354147.2354476.-	2354476	2354147	-	F11
2625686.2625913.+	2625686	2625913	+	KZN_R506	2643362.2643589.+	2643362	2643589	+	F11
179256.180833.-	180833	179256	-	KZN_R506	179635.181212.-	181212	179635	-	F11
103840.104799.-	104799	103840	-	KZN_R506	103843.104802.-	104802	103843	-	F11
3869462.3870421.+	3869462	3870421	+	KZN_R506	103843.104802.-	104802	103843	-	F11
1778871.1779833.-	1779833	1778871	-	KZN_R506	103843.104802.-	104802	103843	-	F11
3839444.3840298.-	3840298	3839444	-	KZN_R506	3867651.3868505.-	3868505	3867651	-	F11
4149654.4150937.+	4149654	4150937	+	KZN_R506	4176716.4177999.+	4176716	4177999	+	F11
2917361.2919022.+	2917361	2919022	+	KZN_R506	2934838.2936499.+	2934838	2936499	+	F11
4354457.4356109.-	4356109	4354457	-	KZN_R506	4381518.4383170.-	4383170	4381518	-	F11
1364240.1364887.-	1364887	1364240	-	KZN_R506	1367268.1367915.-	1367915	1367268	-	F11
3103148.3103495.-	3103495	3103148	-	KZN_R506	3119266.3119613.-	3119613	3119266	-	F11
1900855.1901079.+	1900855	1901079	+	KZN_R506	1905815.1906039.+	1905815	1906039	+	F11
2549052.2549246.+	2549052	2549246	+	KZN_R506	2566729.2566923.+	2566729	2566923	+	F11
3130263.3131165.-	3131165	3130263	-	KZN_R506	3146234.3147136.-	3147136	3146234	-	F11
591636.591737.+	591636	591737	+	KZN_R506	594620.594721.+	594620	594721	+	F11
1079592.1081904.+	1079592	1081904	+	KZN_R506	1082566.1084878.+	1082566	1084878	+	F11
658563.659585.+	658563	659585	+	KZN_R506	661546.662568.+	661546	662568	+	F11
466855.467589.-	467589	466855	-	KZN_R506	469840.470574.-	470574	469840	-	F11
27094.27402.+	27094	27402	+	KZN_R506	27094.27402.+	27094	27402	+	F11
739572.740432.-	740432	739572	-	KZN_R506	742555.743415.-	743415	742555	-	F11
1739517.1740923.+	1739517	1740923	+	KZN_R506	1744478.1745884.+	1744478	1745884	+	F11
2499506.2500264.+	2499506	2500264	+	KZN_R506	2518541.2519299.+	2518541	2519299	+	F11
3829017.3829499.-	3829499	3829017	-	KZN_R506	3849878.3850360.-	3850360	3849878	-	F11
2568127.2568336.-	2568336	2568127	-	KZN_R506	2585804.2586013.-	2586013	2585804	-	F11
4288725.4289330.-	4289330	4288725	-	KZN_R506	4315787.4316392.-	4316392	4315787	-	F11
3097418.3098023.-	3098023	3097418	-	KZN_R506	4315787.4316392.-	4316392	4315787	-	F11
4089614.4090477.-	4090477	4089614	-	KZN_R506	4116676.4117539.-	4117539	4116676	-	F11
1076146.1076946.-	1076946	1076146	-	KZN_R506	1079120.1079920.-	1079920	1079120	-	F11
3267694.3268710.+	3267694	3268710	+	KZN_R506	3283666.3284682.+	3283666	3284682	+	F11
1179401.1179547.-	1179547	1179401	-	KZN_R506	1182374.1182520.-	1182520	1182374	-	F11
1539919.1540179.+	1539919	1540179	+	KZN_R506	1544879.1545139.+	1544879	1545139	+	F11
2706324.2707274.-	2707274	2706324	-	KZN_R506	2725025.2725975.-	2725975	2725025	-	F11
4001067.4001666.+	4001067	4001666	+	KZN_R506	4029265.4029864.+	4029265	4029864	+	F11
131026.131235.-	131235	131026	-	KZN_R506	131030.131239.-	131239	131030	-	F11
677370.677936.-	677936	677370	-	KZN_R506	680353.680919.-	680919	680353	-	F11
339322.341856.-	341856	339322	-	KZN_R506	339701.342235.-	342235	339701	-	F11
1376968.1377573.-	1377573	1376968	-	KZN_R506	1379996.1380601.-	1380601	1379996	-	F11
1166577.1167608.-	1167608	1166577	-	KZN_R506	1169550.1170581.-	1170581	1169550	-	F11
2327781.2328032.-	2328032	2327781	-	KZN_R506	2347649.2347900.-	2347900	2347649	-	F11
4021181.4021879.-	4021879	4021181	-	KZN_R506	4049379.4050077.-	4050077	4049379	-	F11
2505563.2508355.+	2505563	2508355	+	KZN_R506	2524598.2527390.+	2524598	2527390	+	F11
3246573.3251189.+	3246573	3251189	+	KZN_R506	3262545.3267161.+	3262545	3267161	+	F11
2730768.2732807.-	2732807	2730768	-	KZN_R506	2749466.2751505.-	2751505	2749466	-	F11
1895516.1896511.+	1895516	1896511	+	KZN_R506	1900476.1901471.+	1900476	1901471	+	F11
3773115.3776411.-	3776411	3773115	-	KZN_R506	3793976.3797272.-	3797272	3793976	-	F11
4370091.4371323.-	4371323	4370091	-	KZN_R506	4397152.4398384.-	4398384	4397152	-	F11
1109373.1110044.-	1110044	1109373	-	KZN_R506	1112346.1113017.-	1113017	1112346	-	F11
3373759.3373935.-	3373935	3373759	-	KZN_R506	3390204.3390380.-	3390380	3390204	-	F11
1270797.1271879.+	1270797	1271879	+	KZN_R506	1273826.1274908.+	1273826	1274908	+	F11
2859048.2860250.-	2860250	2859048	-	KZN_R506	2876525.2877727.-	2877727	2876525	-	F11
2877598.2877987.+	2877598	2877987	+	KZN_R506	2895075.2895464.+	2895075	2895464	+	F11
1139095.1139703.+	1139095	1139703	+	KZN_R506	1142068.1142676.+	1142068	1142676	+	F11
3535130.3536476.+	3535130	3536476	+	KZN_R506	3551628.3552974.+	3551628	3552974	+	F11
3550764.3550973.+	3550764	3550973	+	KZN_R506	3568620.3568829.+	3568620	3568829	+	F11
3832670.3833206.+	3832670	3833206	+	KZN_R506	3854327.3854857.+	3854327	3854857	+	F11
427007.427564.-	427564	427007	-	KZN_R506	427326.427883.-	427883	427326	-	F11
1095465.1095659.-	1095659	1095465	-	KZN_R506	1098439.1098633.-	1098633	1098439	-	F11
4128687.4129874.-	4129874	4128687	-	KZN_R506	4155749.4156936.-	4156936	4155749	-	F11
3856588.3858000.-	3858000	3856588	-	KZN_R506	3884795.3886207.-	3886207	3884795	-	F11
3786704.3787693.-	3787693	3786704	-	KZN_R506	3807565.3808554.-	3808554	3807565	-	F11
3119625.3120650.-	3120650	3119625	-	KZN_R506	3135596.3136621.-	3136621	3135596	-	F11
2748824.2748970.-	2748970	2748824	-	KZN_R506	2767522.2767668.-	2767668	2767522	-	F11
2566159.2566818.+	2566159	2566818	+	KZN_R506	2583836.2584495.+	2583836	2584495	+	F11
1773605.1774297.-	1774297	1773605	-	KZN_R506	1778566.1779258.-	1779258	1778566	-	F11
2185644.2187092.+	2185644	2187092	+	KZN_R506	2204160.2205608.+	2204160	2205608	+	F11
1277035.1278483.-	1278483	1277035	-	KZN_R506	2204160.2205608.+	2204160	2205608	+	F11
3499570.3499902.-	3499902	3499570	-	KZN_R506	3516068.3516400.-	3516400	3516068	-	F11
3137976.3139295.-	3139295	3137976	-	KZN_R506	3153947.3155266.-	3155266	3153947	-	F11
2803924.2804145.+	2803924	2804145	+	KZN_R506	2821401.2821622.+	2821401	2821622	+	F11
1058498.1059151.-	1059151	1058498	-	KZN_R506	1061472.1062125.-	1062125	1061472	-	F11
602009.602947.+	602009	602947	+	KZN_R506	604993.605931.+	604993	605931	+	F11
2359527.2359823.-	2359823	2359527	-	KZN_R506	2380833.2381129.-	2381129	2380833	-	F11
3394684.3395469.-	3395469	3394684	-	KZN_R506	3411129.3411914.-	3411914	3411129	-	F11
3129376.3130260.-	3130260	3129376	-	KZN_R506	3145347.3146231.-	3146231	3145347	-	F11
131514.133004.+	131514	133004	+	KZN_R506	131518.133008.+	131518	133008	+	F11
3189724.3191103.-	3191103	3189724	-	KZN_R506	3205695.3207074.-	3207074	3205695	-	F11
3477056.3477367.+	3477056	3477367	+	KZN_R506	3493554.3493865.+	3493554	3493865	+	F11
2222139.2222411.+	2222139	2222411	+	KZN_R506	2240653.2240925.+	2240653	2240925	+	F11
2732685.2732963.+	2732685	2732963	+	KZN_R506	2751383.2751661.+	2751383	2751661	+	F11
602971.604677.+	602971	604677	+	KZN_R506	605955.607661.+	605955	607661	+	F11
2502600.2503367.+	2502600	2503367	+	KZN_R506	2521635.2522402.+	2521635	2522402	+	F11
2284023.2284340.-	2284340	2284023	-	KZN_R506	2303894.2304211.-	2304211	2303894	-	F11
2090903.2091529.+	2090903	2091529	+	KZN_R506	2109212.2109838.+	2109212	2109838	+	F11
3308816.3309229.-	3309229	3308816	-	KZN_R506	3324789.3325202.-	3325202	3324789	-	F11
703058.703444.+	703058	703444	+	KZN_R506	706041.706427.+	706041	706427	+	F11
1229476.1230177.+	1229476	1230177	+	KZN_R506	1232450.1233151.+	1232450	1233151	+	F11
3386811.3388043.+	3386811	3388043	+	KZN_R506	3403256.3404488.+	3403256	3404488	+	F11
142260.144017.-	144017	142260	-	KZN_R506	142264.144021.-	144021	142264	-	F11
3354849.3355862.-	3355862	3354849	-	KZN_R506	3371294.3372307.-	3372307	3371294	-	F11
2191482.2191835.+	2191482	2191835	+	KZN_R506	2209998.2210351.+	2209998	2210351	+	F11
52912.53346.+	52912	53346	+	KZN_R506	52911.53345.+	52911	53345	+	F11
1842754.1843308.+	1842754	1843308	+	KZN_R506	1847715.1848269.+	1847715	1848269	+	F11
4340946.4342481.+	4340946	4342481	+	KZN_R506	4368007.4369542.+	4368007	4369542	+	F11
3490225.3490806.-	3490806	3490225	-	KZN_R506	3506723.3507304.-	3507304	3506723	-	F11
4049434.4050486.-	4050486	4049434	-	KZN_R506	4077854.4078906.-	4078906	4077854	-	F11
3079211.3080140.-	3080140	3079211	-	KZN_R506	3095329.3096258.-	3096258	3095329	-	F11
670093.671397.+	670093	671397	+	KZN_R506	673076.674380.+	673076	674380	+	F11
2033564.2035483.-	2035483	2033564	-	KZN_R506	2053175.2055094.-	2055094	2053175	-	F11
473935.474291.+	473935	474291	+	KZN_R506	476920.477276.+	476920	477276	+	F11
476001.476369.+	476001	476369	+	KZN_R506	476920.477276.+	476920	477276	+	F11
3068158.3068958.-	3068958	3068158	-	KZN_R506	3085635.3086435.-	3086435	3085635	-	F11
4118328.4119458.+	4118328	4119458	+	KZN_R506	4145390.4146520.+	4145390	4146520	+	F11
2358121.2358837.+	2358121	2358837	+	KZN_R506	2379427.2380143.+	2379427	2380143	+	F11
562908.563678.-	563678	562908	-	KZN_R506	565892.566662.-	566662	565892	-	F11
968739.969146.+	968739	969146	+	KZN_R506	971713.972120.+	971713	972120	+	F11
2321688.2322245.+	2321688	2322245	+	KZN_R506	2341556.2342113.+	2341556	2342113	+	F11
3824065.3824916.-	3824916	3824065	-	KZN_R506	3844986.3845777.-	3845777	3844986	-	F11
1228389.1229375.-	1229375	1228389	-	KZN_R506	1231363.1232349.-	1232349	1231363	-	F11
2574535.2574858.-	2574858	2574535	-	KZN_R506	2592212.2592535.-	2592535	2592212	-	F11
4081479.4082159.-	4082159	4081479	-	KZN_R506	4108541.4109221.-	4109221	4108541	-	F11
1414064.1414678.+	1414064	1414678	+	KZN_R506	1417093.1417707.+	1417093	1417707	+	F11
1170172.1171467.+	1170172	1171467	+	KZN_R506	3494526.3495821.+	3494526	3495821	+	F11
1342095.1343390.-	1343390	1342095	-	KZN_R506	3494526.3495821.+	3494526	3495821	+	F11
2824397.2825692.-	2825692	2824397	-	KZN_R506	3494526.3495821.+	3494526	3495821	+	F11
3376640.3377935.-	3377935	3376640	-	KZN_R506	3494526.3495821.+	3494526	3495821	+	F11
3478028.3479323.+	3478028	3479323	+	KZN_R506	3494526.3495821.+	3494526	3495821	+	F11
151499.152527.+	151499	152527	+	KZN_R506	151503.152531.+	151503	152531	+	F11
2365321.2367072.-	2367072	2365321	-	KZN_R506	2384297.2386048.-	2386048	2384297	-	F11
2037686.2038033.-	2038033	2037686	-	KZN_R506	2055939.2056286.-	2056286	2055939	-	F11
2000722.2001171.-	2001171	2000722	-	KZN_R506	2020379.2020828.-	2020828	2020379	-	F11
1908025.1908201.+	1908025	1908201	+	KZN_R506	1912985.1913161.+	1912985	1913161	+	F11
2503462.2503698.-	2503698	2503462	-	KZN_R506	2522497.2522733.-	2522733	2522497	-	F11
1622169.1622408.+	1622169	1622408	+	KZN_R506	1627130.1627369.+	1627130	1627369	+	F11
854710.855042.-	855042	854710	-	KZN_R506	857694.858026.-	858026	857694	-	F11
1274090.1275502.+	1274090	1275502	+	KZN_R506	1277119.1278531.+	1277119	1278531	+	F11
800881.801171.-	801171	800881	-	KZN_R506	803865.804155.-	804155	803865	-	F11
3352866.3353831.+	3352866	3353831	+	KZN_R506	3369311.3370276.+	3369311	3370276	+	F11
3373593.3373877.-	3373877	3373593	-	KZN_R506	3390038.3390322.-	3390322	3390038	-	F11
2647762.2647947.+	2647762	2647947	+	KZN_R506	2665048.2665233.+	2665048	2665233	+	F11
1419752.1420525.-	1420525	1419752	-	KZN_R506	1422781.1423554.-	1423554	1422781	-	F11
3191103.3191690.-	3191690	3191103	-	KZN_R506	3207074.3207661.-	3207661	3207074	-	F11
3097418.3097999.-	3097999	3097418	-	KZN_R506	3207074.3207661.-	3207661	3207074	-	F11
4080600.4080854.-	4080854	4080600	-	KZN_R506	4107662.4107916.-	4107916	4107662	-	F11
2893883.2894623.+	2893883	2894623	+	KZN_R506	2911360.2912100.+	2911360	2912100	+	F11
4000935.4001666.+	4000935	4001666	+	KZN_R506	4029133.4029864.+	4029133	4029864	+	F11
3171013.3172869.-	3172869	3171013	-	KZN_R506	3186984.3188840.-	3188840	3186984	-	F11
3633794.3634063.-	3634063	3633794	-	KZN_R506	3651650.3651919.-	3651919	3651650	-	F11
1964012.1966609.+	1964012	1966609	+	KZN_R506	1970330.1972927.+	1970330	1972927	+	F11
1170172.1171467.+	1170172	1171467	+	KZN_R506	2841874.2843169.-	2843169	2841874	-	F11
1342095.1343390.-	1343390	1342095	-	KZN_R506	2841874.2843169.-	2843169	2841874	-	F11
2824397.2825692.-	2825692	2824397	-	KZN_R506	2841874.2843169.-	2843169	2841874	-	F11
3376640.3377935.-	3377935	3376640	-	KZN_R506	2841874.2843169.-	2843169	2841874	-	F11
3478028.3479323.+	3478028	3479323	+	KZN_R506	2841874.2843169.-	2843169	2841874	-	F11
1789986.1791329.+	1789986	1791329	+	KZN_R506	1794947.1796290.+	1794947	1796290	+	F11
2082146.2083585.-	2083585	2082146	-	KZN_R506	2100455.2101894.-	2101894	2100455	-	F11
3108704.3109108.+	3108704	3109108	+	KZN_R506	3124822.3125226.+	3124822	3125226	+	F11
417805.418221.+	417805	418221	+	KZN_R506	418124.418540.+	418124	418540	+	F11
149665.151308.+	149665	151308	+	KZN_R506	149669.151312.+	149669	151312	+	F11
1639297.1640304.-	1640304	1639297	-	KZN_R506	1644258.1645265.-	1645265	1644258	-	F11
2574256.2574588.+	2574256	2574588	+	KZN_R506	2591933.2592265.+	2591933	2592265	+	F11
2576388.2576540.+	2576388	2576540	+	KZN_R506	2594065.2594217.+	2594065	2594217	+	F11
3345538.3346335.-	3346335	3345538	-	KZN_R506	3361983.3362780.-	3362780	3361983	-	F11
2077536.2077799.-	2077799	2077536	-	KZN_R506	2095845.2096108.-	2096108	2095845	-	F11
2218416.2218646.+	2218416	2218646	+	KZN_R506	2236930.2237160.+	2236930	2237160	+	F11
1576199.1576912.+	1576199	1576912	+	KZN_R506	1581160.1581873.+	1581160	1581873	+	F11
2800806.2801012.-	2801012	2800806	-	KZN_R506	2819641.2819847.-	2819847	2819641	-	F11
4198232.4198921.+	4198232	4198921	+	KZN_R506	4225294.4225983.+	4225294	4225983	+	F11
738542.739405.-	739405	738542	-	KZN_R506	741525.742388.-	742388	741525	-	F11
2397034.2397249.-	2397249	2397034	-	KZN_R506	2416068.2416283.-	2416283	2416068	-	F11
3515907.3517139.+	3515907	3517139	+	KZN_R506	3532405.3533637.+	3532405	3533637	+	F11
3016026.3016313.-	3016313	3016026	-	KZN_R506	3033503.3033790.-	3033790	3033503	-	F11
1801521.1802789.+	1801521	1802789	+	KZN_R506	1806482.1807750.+	1806482	1807750	+	F11
2256161.2256460.-	2256460	2256161	-	KZN_R506	2276033.2276332.-	2276332	2276033	-	F11
835944.836090.-	836090	835944	-	KZN_R506	838928.839074.-	839074	838928	-	F11
2701459.2701731.-	2701731	2701459	-	KZN_R506	2720160.2720432.-	2720432	2720160	-	F11
507943.508770.-	508770	507943	-	KZN_R506	510928.511755.-	511755	510928	-	F11
1991267.1992511.+	1991267	1992511	+	KZN_R506	2009566.2010810.+	2009566	2010810	+	F11
4079922.4080467.+	4079922	4080467	+	KZN_R506	4106984.4107529.+	4106984	4107529	+	F11
3879966.3883031.+	3879966	3883031	+	KZN_R506	3908173.3911238.+	3908173	3911238	+	F11
2576923.2577519.+	2576923	2577519	+	KZN_R506	2594600.2595196.+	2594600	2595196	+	F11
3856588.3858012.-	3858012	3856588	-	KZN_R506	3884795.3886219.-	3886219	3884795	-	F11
3132287.3132679.-	3132679	3132287	-	KZN_R506	3148258.3148650.-	3148650	3148258	-	F11
3179407.3180126.+	3179407	3180126	+	KZN_R506	3195378.3196097.+	3195378	3196097	+	F11
2255843.2256145.+	2255843	2256145	+	KZN_R506	2275715.2276017.+	2275715	2276017	+	F11
2570219.2570812.+	2570219	2570812	+	KZN_R506	2587896.2588489.+	2587896	2588489	+	F11
2876806.2877129.-	2877129	2876806	-	KZN_R506	2894283.2894606.-	2894606	2894283	-	F11
3296096.3297844.-	3297844	3296096	-	KZN_R506	3312069.3313817.-	3313817	3312069	-	F11
1277035.1278399.-	1278399	1277035	-	KZN_R506	1280064.1281428.-	1281428	1280064	-	F11
2185728.2187092.+	2185728	2187092	+	KZN_R506	1280064.1281428.-	1281428	1280064	-	F11
3374300.3374608.-	3374608	3374300	-	KZN_R506	3390745.3391053.-	3391053	3390745	-	F11
2903666.2906047.-	2906047	2903666	-	KZN_R506	2921143.2923524.-	2923524	2921143	-	F11
3413977.3414627.-	3414627	3413977	-	KZN_R506	3430422.3431072.-	3431072	3430422	-	F11
2302037.2302261.-	2302261	2302037	-	KZN_R506	2321905.2322129.-	2322129	2321905	-	F11
551934.552173.+	551934	552173	+	KZN_R506	554918.555157.+	554918	555157	+	F11
3321434.3321604.+	3321434	3321604	+	KZN_R506	3337407.3337577.+	3337407	3337577	+	F11
2853694.2854098.-	2854098	2853694	-	KZN_R506	2871171.2871575.-	2871575	2871171	-	F11
475511.475927.+	475511	475927	+	KZN_R506	478496.478912.+	478496	478912	+	F11
1831002.1832672.-	1832672	1831002	-	KZN_R506	1835963.1837633.-	1837633	1835963	-	F11
437619.438263.-	438263	437619	-	KZN_R506	437998.438642.-	438642	437998	-	F11
3594717.3594944.-	3594944	3594717	-	KZN_R506	3612573.3612800.-	3612800	3612573	-	F11
1283792.1284835.-	1284835	1283792	-	KZN_R506	1286820.1287863.-	1287863	1286820	-	F11
933120.933773.-	933773	933120	-	KZN_R506	936094.936747.-	936747	936094	-	F11
1004656.1004808.+	1004656	1004808	+	KZN_R506	1007630.1007782.+	1007630	1007782	+	F11
2693737.2694066.+	2693737	2694066	+	KZN_R506	2712381.2712710.+	2712381	2712710	+	F11
1978076.1978615.+	1978076	1978615	+	KZN_R506	1993659.1994198.+	1993659	1994198	+	F11
2741743.2742114.-	2742114	2741743	-	KZN_R506	2760441.2760812.-	2760812	2760441	-	F11
1274003.1275502.+	1274003	1275502	+	KZN_R506	1277032.1278531.+	1277032	1278531	+	F11
865025.865459.+	865025	865459	+	KZN_R506	868008.868442.+	868008	868442	+	F11
738542.739495.-	739495	738542	-	KZN_R506	741525.742478.-	742478	741525	-	F11
3574546.3575220.+	3574546	3575220	+	KZN_R506	3592402.3593076.+	3592402	3593076	+	F11
4304186.4304662.-	4304662	4304186	-	KZN_R506	4331248.4331724.-	4331724	4331248	-	F11
3744827.3745318.-	3745318	3744827	-	KZN_R506	4331248.4331724.-	4331724	4331248	-	F11
3639901.3640824.-	3640824	3639901	-	KZN_R506	3657757.3658680.-	3658680	3657757	-	F11
3991914.3992765.-	3992765	3991914	-	KZN_R506	4020112.4020963.-	4020963	4020112	-	F11
4323886.4324212.+	4323886	4324212	+	KZN_R506	4350947.4351273.+	4350947	4351273	+	F11
1169432.1170025.-	1170025	1169432	-	KZN_R506	1172405.1172998.-	1172998	1172405	-	F11
594032.594940.-	594940	594032	-	KZN_R506	597016.597924.-	597924	597016	-	F11
2587810.2588475.-	2588475	2587810	-	KZN_R506	2605487.2606152.-	2606152	2605487	-	F11
2446626.2446877.-	2446877	2446626	-	KZN_R506	2465661.2465912.-	2465912	2465661	-	F11
1686563.1687564.+	1686563	1687564	+	KZN_R506	1691524.1692525.+	1691524	1692525	+	F11
386393.387247.+	386393	387247	+	KZN_R506	386712.387566.+	386712	387566	+	F11
3018748.3019815.-	3019815	3018748	-	KZN_R506	3036225.3037292.-	3037292	3036225	-	F11
3238471.3238782.+	3238471	3238782	+	KZN_R506	3254443.3254754.+	3254443	3254754	+	F11
2819097.2820443.-	2820443	2819097	-	KZN_R506	2836574.2837920.-	2837920	2836574	-	F11
1681833.1683680.+	1681833	1683680	+	KZN_R506	1686794.1688641.+	1686794	1688641	+	F11
1790013.1791329.+	1790013	1791329	+	KZN_R506	1794974.1796290.+	1794974	1796290	+	F11
1112407.1113018.+	1112407	1113018	+	KZN_R506	1115380.1115991.+	1115380	1115991	+	F11
3517132.3517767.+	3517132	3517767	+	KZN_R506	3533630.3534265.+	3533630	3534265	+	F11
3359973.3361094.+	3359973	3361094	+	KZN_R506	3376418.3377539.+	3376418	3377539	+	F11
841916.842089.+	841916	842089	+	KZN_R506	844900.845073.+	844900	845073	+	F11
333098.333271.-	333271	333098	-	KZN_R506	844900.845073.+	844900	845073	+	F11
2939440.2940870.-	2940870	2939440	-	KZN_R506	2956917.2958347.-	2958347	2956917	-	F11
2465607.2466353.+	2465607	2466353	+	KZN_R506	2484642.2485388.+	2484642	2485388	+	F11
1265880.1266248.-	1266248	1265880	-	KZN_R506	1268851.1269219.-	1269219	1268851	-	F11
2562097.2563164.+	2562097	2563164	+	KZN_R506	2579774.2580841.+	2579774	2580841	+	F11
1206780.1207241.-	1207241	1206780	-	KZN_R506	1209754.1210215.-	1210215	1209754	-	F11
2384670.2384873.+	2384670	2384873	+	KZN_R506	2403646.2403849.+	2403646	2403849	+	F11
1468909.1469223.-	1469223	1468909	-	KZN_R506	4267014.4267328.+	4267014	4267328	+	F11
4239952.4240266.+	4239952	4240266	+	KZN_R506	4267014.4267328.+	4267014	4267328	+	F11
833419.833733.+	833419	833733	+	KZN_R506	4267014.4267328.+	4267014	4267328	+	F11
2771248.2771541.+	2771248	2771541	+	KZN_R506	2789946.2790239.+	2789946	2790239	+	F11
3039464.3041101.-	3041101	3039464	-	KZN_R506	3056941.3058578.-	3058578	3056941	-	F11
3915217.3922185.+	3915217	3922185	+	KZN_R506	3943424.3950383.+	3943424	3950383	+	F11
565967.566581.+	565967	566581	+	KZN_R506	568951.569565.+	568951	569565	+	F11
2750719.2752695.-	2752695	2750719	-	KZN_R506	2769417.2771393.-	2771393	2769417	-	F11
1160890.1161228.-	1161228	1160890	-	KZN_R506	1163863.1164201.-	1164201	1163863	-	F11
1086605.1088200.-	1088200	1086605	-	KZN_R506	1089579.1091174.-	1091174	1089579	-	F11
274649.274843.-	274843	274649	-	KZN_R506	275028.275222.-	275222	275028	-	F11
2982164.2983750.+	2982164	2983750	+	KZN_R506	2999641.3001227.+	2999641	3001227	+	F11
1170157.1171467.+	1170157	1171467	+	KZN_R506	2841874.2843184.-	2843184	2841874	-	F11
1342095.1343405.-	1343405	1342095	-	KZN_R506	2841874.2843184.-	2843184	2841874	-	F11
2824397.2825707.-	2825707	2824397	-	KZN_R506	2841874.2843184.-	2843184	2841874	-	F11
3376640.3377950.-	3377950	3376640	-	KZN_R506	2841874.2843184.-	2843184	2841874	-	F11
3478013.3479323.+	3478013	3479323	+	KZN_R506	2841874.2843184.-	2843184	2841874	-	F11
760567.764103.+	760567	764103	+	KZN_R506	763550.767086.+	763550	767086	+	F11
1273158.1274069.+	1273158	1274069	+	KZN_R506	1276187.1277098.+	1276187	1277098	+	F11
3744827.3745351.-	3745351	3744827	-	KZN_R506	3765688.3766212.-	3766212	3765688	-	F11
4304186.4304695.-	4304695	4304186	-	KZN_R506	3765688.3766212.-	3766212	3765688	-	F11
560073.560933.+	560073	560933	+	KZN_R506	563057.563917.+	563057	563917	+	F11
3358612.3358950.+	3358612	3358950	+	KZN_R506	3375057.3375395.+	3375057	3375395	+	F11
4289337.4290962.-	4290962	4289337	-	KZN_R506	4316399.4318024.-	4318024	4316399	-	F11
2462498.2463784.-	2463784	2462498	-	KZN_R506	2481533.2482819.-	2482819	2481533	-	F11
3048290.3049969.+	3048290	3049969	+	KZN_R506	3065767.3067446.+	3065767	3067446	+	F11
3422503.3424785.+	3422503	3424785	+	KZN_R506	3439001.3441283.+	3439001	3441283	+	F11
144181.145758.+	144181	145758	+	KZN_R506	144185.145762.+	144185	145762	+	F11
4370091.4371410.-	4371410	4370091	-	KZN_R506	4397152.4398471.-	4398471	4397152	-	F11
875121.877277.+	875121	877277	+	KZN_R506	878104.880260.+	878104	880260	+	F11
2526440.2527078.+	2526440	2527078	+	KZN_R506	2545475.2546113.+	2545475	2546113	+	F11
2570599.2571033.+	2570599	2571033	+	KZN_R506	2588276.2588710.+	2588276	2588710	+	F11
677370.677861.-	677861	677370	-	KZN_R506	680353.680844.-	680844	680353	-	F11
2142905.2143135.-	2143135	2142905	-	KZN_R506	2161214.2161444.-	2161444	2161214	-	F11
3992750.3993016.-	3993016	3992750	-	KZN_R506	4020948.4021214.-	4021214	4020948	-	F11
3424834.3425016.+	3424834	3425016	+	KZN_R506	3441332.3441514.+	3441332	3441514	+	F11
2102944.2105358.+	2102944	2105358	+	KZN_R506	2121253.2123667.+	2121253	2123667	+	F11
4093109.4093465.+	4093109	4093465	+	KZN_R506	4120171.4120527.+	4120171	4120527	+	F11
3332060.3333136.-	3333136	3332060	-	KZN_R506	3348505.3349581.-	3349581	3348505	-	F11
544921.545475.-	545475	544921	-	KZN_R506	547905.548459.-	548459	547905	-	F11
3591473.3591688.-	3591688	3591473	-	KZN_R506	3609329.3609544.-	3609544	3609329	-	F11
1710409.1710678.+	1710409	1710678	+	KZN_R506	1715370.1715639.+	1715370	1715639	+	F11
1426176.1426652.-	1426652	1426176	-	KZN_R506	1429205.1429681.-	1429681	1429205	-	F11
1113179.1114255.+	1113179	1114255	+	KZN_R506	1116152.1117228.+	1116152	1117228	+	F11
2955945.2958245.-	2958245	2955945	-	KZN_R506	2973422.2975722.-	2975722	2973422	-	F11
2009275.2012073.+	2009275	2012073	+	KZN_R506	2028932.2031730.+	2028932	2031730	+	F11
2701735.2702709.+	2701735	2702709	+	KZN_R506	2720436.2721410.+	2720436	2721410	+	F11
3829490.3830125.-	3830125	3829490	-	KZN_R506	3850351.3850986.-	3850986	3850351	-	F11
543380.544915.+	543380	544915	+	KZN_R506	546364.547899.+	546364	547899	+	F11
1635639.1637855.-	1637855	1635639	-	KZN_R506	1640600.1642816.-	1642816	1640600	-	F11
3026266.3026976.+	3026266	3026976	+	KZN_R506	3043743.3044453.+	3043743	3044453	+	F11
1946074.1947627.-	1947627	1946074	-	KZN_R506	1952392.1953945.-	1953945	1952392	-	F11
3073787.3074995.-	3074995	3073787	-	KZN_R506	3091264.3092472.-	3092472	3091264	-	F11
1367111.1368199.+	1367111	1368199	+	KZN_R506	1370139.1371227.+	1370139	1371227	+	F11
3313601.3313786.+	3313601	3313786	+	KZN_R506	3329574.3329759.+	3329574	3329759	+	F11
848988.850928.-	850928	848988	-	KZN_R506	851972.853912.-	853912	851972	-	F11
709601.710593.+	709601	710593	+	KZN_R506	712584.713576.+	712584	713576	+	F11
882577.883305.+	882577	883305	+	KZN_R506	885560.886288.+	885560	886288	+	F11
3303080.3304054.-	3304054	3303080	-	KZN_R506	3319053.3320027.-	3320027	3319053	-	F11
2780877.2781134.+	2780877	2781134	+	KZN_R506	2799578.2799835.+	2799578	2799835	+	F11
1564822.1566078.+	1564822	1566078	+	KZN_R506	1569782.1571038.+	1569782	1571038	+	F11
1793724.1794461.+	1793724	1794461	+	KZN_R506	1798685.1799422.+	1798685	1799422	+	F11
1159713.1160102.-	1160102	1159713	-	KZN_R506	1162686.1163075.-	1163075	1162686	-	F11
704230.704457.+	704230	704457	+	KZN_R506	707213.707440.+	707213	707440	+	F11
2416189.2416530.-	2416530	2416189	-	KZN_R506	2435223.2435564.-	2435564	2435223	-	F11
1955991.1956323.+	1955991	1956323	+	KZN_R506	1962309.1962641.+	1962309	1962641	+	F11
2498825.2499196.-	2499196	2498825	-	KZN_R506	2517860.2518231.-	2518231	2517860	-	F11
711027.711254.+	711027	711254	+	KZN_R506	714010.714237.+	714010	714237	+	F11
1638004.1639269.+	1638004	1639269	+	KZN_R506	1642965.1644230.+	1642965	1644230	+	F11
2613393.2613650.+	2613393	2613650	+	KZN_R506	2631069.2631326.+	2631069	2631326	+	F11
1486051.1486509.-	1486509	1486051	-	KZN_R506	1492112.1492570.-	1492570	1492112	-	F11
200911.202416.+	200911	202416	+	KZN_R506	201290.202795.+	201290	202795	+	F11
2585834.2587264.-	2587264	2585834	-	KZN_R506	2603511.2604941.-	2604941	2603511	-	F11
1936685.1936792.+	1936685	1936792	+	KZN_R506	1941645.1941752.+	1941645	1941752	+	F11
2315885.2316211.+	2315885	2316211	+	KZN_R506	2335753.2336079.+	2335753	2336079	+	F11
2527155.2527577.-	2527577	2527155	-	KZN_R506	2546190.2546612.-	2546612	2546190	-	F11
545020.545370.+	545020	545370	+	KZN_R506	548004.548354.+	548004	548354	+	F11
3662810.3663247.-	3663247	3662810	-	KZN_R506	3680666.3681103.-	3681103	3680666	-	F11
1170172.1171467.+	1170172	1171467	+	KZN_R506	1345122.1346417.-	1346417	1345122	-	F11
1342095.1343390.-	1343390	1342095	-	KZN_R506	1345122.1346417.-	1346417	1345122	-	F11
2824397.2825692.-	2825692	2824397	-	KZN_R506	1345122.1346417.-	1346417	1345122	-	F11
3376640.3377935.-	3377935	3376640	-	KZN_R506	1345122.1346417.-	1346417	1345122	-	F11
3478028.3479323.+	3478028	3479323	+	KZN_R506	1345122.1346417.-	1346417	1345122	-	F11
569149.570171.-	570171	569149	-	KZN_R506	572133.573155.-	573155	572133	-	F11
2352717.2353016.-	2353016	2352717	-	KZN_R506	2373943.2374242.-	2374242	2373943	-	F11
3287004.3291866.-	3291866	3287004	-	KZN_R506	3302976.3307838.-	3307838	3302976	-	F11
71728.71967.+	71728	71967	+	KZN_R506	71731.71970.+	71731	71970	+	F11
1121684.1122943.-	1122943	1121684	-	KZN_R506	1124657.1125916.-	1125916	1124657	-	F11
4255779.4256312.-	4256312	4255779	-	KZN_R506	4282841.4283374.-	4283374	4282841	-	F11
183352.183498.+	183352	183498	+	KZN_R506	183731.183877.+	183731	183877	+	F11
2573139.2573321.-	2573321	2573139	-	KZN_R506	2590816.2590998.-	2590998	2590816	-	F11
4287502.4288728.-	4288728	4287502	-	KZN_R506	4314564.4315790.-	4315790	4314564	-	F11
4288725.4289306.-	4289306	4288725	-	KZN_R506	4315787.4316368.-	4316368	4315787	-	F11
3097418.3097999.-	3097999	3097418	-	KZN_R506	4315787.4316368.-	4316368	4315787	-	F11
3164250.3165023.-	3165023	3164250	-	KZN_R506	3180221.3180994.-	3180994	3180221	-	F11
2527155.2528675.-	2528675	2527155	-	KZN_R506	2546190.2547710.-	2547710	2546190	-	F11
3110871.3111140.+	3110871	3111140	+	KZN_R506	3126989.3127258.+	3126989	3127258	+	F11
2250405.2250884.+	2250405	2250884	+	KZN_R506	2268919.2269398.+	2268919	2269398	+	F11
3577709.3578566.-	3578566	3577709	-	KZN_R506	3595565.3596422.-	3596422	3595565	-	F11
1178036.1178170.+	1178036	1178170	+	KZN_R506	1181009.1181143.+	1181009	1181143	+	F11
1563782.1564408.+	1563782	1564408	+	KZN_R506	1568742.1569368.+	1568742	1569368	+	F11
1300558.1300860.-	1300860	1300558	-	KZN_R506	1303586.1303888.-	1303888	1303586	-	F11
3697265.3697753.-	3697753	3697265	-	KZN_R506	3715121.3715609.-	3715609	3715121	-	F11
2275950.2276357.+	2275950	2276357	+	KZN_R506	2295822.2296229.+	2295822	2296229	+	F11
257722.258795.-	258795	257722	-	KZN_R506	258101.259174.-	259174	258101	-	F11
4139799.4141613.+	4139799	4141613	+	KZN_R506	4166861.4168675.+	4166861	4168675	+	F11
2355462.2358011.+	2355462	2358011	+	KZN_R506	2376768.2379317.+	2376768	2379317	+	F11
1390095.1393739.-	1393739	1390095	-	KZN_R506	1393124.1396768.-	1396768	1393124	-	F11
661179.661514.+	661179	661514	+	KZN_R506	664162.664497.+	664162	664497	+	F11
3865936.3866157.-	3866157	3865936	-	KZN_R506	3894143.3894364.-	3894364	3894143	-	F11
1259860.1262139.-	1262139	1259860	-	KZN_R506	1262834.1265113.-	1265113	1262834	-	F11
545560.546087.-	546087	545560	-	KZN_R506	548544.549071.-	549071	548544	-	F11
3077387.3077962.+	3077387	3077962	+	KZN_R506	3094864.3095325.+	3094864	3095325	+	F11
1611722.1612351.-	1612351	1611722	-	KZN_R506	1616683.1617312.-	1617312	1616683	-	F11
3351997.3352197.-	3352197	3351997	-	KZN_R506	3368442.3368642.-	3368642	3368442	-	F11
3799698.3801278.-	3801278	3799698	-	KZN_R506	3820559.3822139.-	3822139	3820559	-	F11
3097418.3098029.-	3098029	3097418	-	KZN_R506	3113536.3114147.-	3114147	3113536	-	F11
701645.702259.+	701645	702259	+	KZN_R506	3113536.3114147.-	3114147	3113536	-	F11
4288725.4289336.-	4289336	4288725	-	KZN_R506	3113536.3114147.-	3114147	3113536	-	F11
3191103.3191720.-	3191720	3191103	-	KZN_R506	3113536.3114147.-	3114147	3113536	-	F11
53765.55801.+	53765	55801	+	KZN_R506	53764.55803.+	53764	55803	+	F11
3633347.3633766.+	3633347	3633766	+	KZN_R506	3651203.3651622.+	3651203	3651622	+	F11
4269935.4270270.+	4269935	4270270	+	KZN_R506	4296997.4297332.+	4296997	4297332	+	F11
34408.36642.+	34408	36642	+	KZN_R506	34408.36711.+	34408	36711	+	F11
1179401.1179613.-	1179613	1179401	-	KZN_R506	1182374.1182586.-	1182586	1182374	-	F11
1170157.1171467.+	1170157	1171467	+	KZN_R506	3393085.3394395.-	3394395	3393085	-	F11
1342095.1343405.-	1343405	1342095	-	KZN_R506	3393085.3394395.-	3394395	3393085	-	F11
2824397.2825707.-	2825707	2824397	-	KZN_R506	3393085.3394395.-	3394395	3393085	-	F11
3376640.3377950.-	3377950	3376640	-	KZN_R506	3393085.3394395.-	3394395	3393085	-	F11
3478013.3479323.+	3478013	3479323	+	KZN_R506	3393085.3394395.-	3394395	3393085	-	F11
1611636.1611773.+	1611636	1611773	+	KZN_R506	1616597.1616734.+	1616597	1616734	+	F11
3552707.3552889.-	3552889	3552707	-	KZN_R506	3570563.3570745.-	3570745	3570563	-	F11
3014801.3014989.+	3014801	3014989	+	KZN_R506	3032278.3032466.+	3032278	3032466	+	F11
2967499.2967867.+	2967499	2967867	+	KZN_R506	2984976.2985344.+	2984976	2985344	+	F11
1978882.1981725.-	1981725	1978882	-	KZN_R506	1994465.1997308.-	1997308	1994465	-	F11
4197019.4197723.-	4197723	4197019	-	KZN_R506	4224081.4224785.-	4224785	4224081	-	F11
698149.698655.-	698655	698149	-	KZN_R506	701132.701638.-	701638	701132	-	F11
3106344.3106568.-	3106568	3106344	-	KZN_R506	3122462.3122686.-	3122686	3122462	-	F11
3869558.3870421.+	3869558	3870421	+	KZN_R506	3897765.3898628.+	3897765	3898628	+	F11
103840.104703.-	104703	103840	-	KZN_R506	3897765.3898628.+	3897765	3898628	+	F11
1778871.1779737.-	1779737	1778871	-	KZN_R506	3897765.3898628.+	3897765	3898628	+	F11
1115181.1115501.-	1115501	1115181	-	KZN_R506	1118154.1118474.-	1118474	1118154	-	F11
3869468.3870421.+	3869468	3870421	+	KZN_R506	3897675.3898628.+	3897675	3898628	+	F11
103840.104793.-	104793	103840	-	KZN_R506	3897675.3898628.+	3897675	3898628	+	F11
1778871.1779827.-	1779827	1778871	-	KZN_R506	3897675.3898628.+	3897675	3898628	+	F11
2921332.2921577.+	2921332	2921577	+	KZN_R506	2938809.2939054.+	2938809	2939054	+	F11
1164959.1165267.-	1165267	1164959	-	KZN_R506	1167932.1168240.-	1168240	1167932	-	F11
2013822.2015039.+	2013822	2015039	+	KZN_R506	2033479.2034651.+	2033479	2034651	+	F11
3048392.3049969.+	3048392	3049969	+	KZN_R506	3065869.3067446.+	3065869	3067446	+	F11
4185660.4186160.-	4186160	4185660	-	KZN_R506	4212722.4213222.-	4213222	4212722	-	F11
2645955.2646257.-	2646257	2645955	-	KZN_R506	2663241.2663543.-	2663543	2663241	-	F11
2673675.2674658.+	2673675	2674658	+	KZN_R506	2690961.2691944.+	2690961	2691944	+	F11
2381787.2382557.-	2382557	2381787	-	KZN_R506	2400763.2401533.-	2401533	2400763	-	F11
3790273.3791052.+	3790273	3791052	+	KZN_R506	3811134.3811913.+	3811134	3811913	+	F11
2576549.2576890.+	2576549	2576890	+	KZN_R506	2594226.2594567.+	2594226	2594567	+	F11
518774.519226.+	518774	519226	+	KZN_R506	521759.522211.+	521759	522211	+	F11
3035244.3035936.-	3035936	3035244	-	KZN_R506	3052721.3053413.-	3053413	3052721	-	F11
33683.33895.+	33683	33895	+	KZN_R506	33683.33895.+	33683	33895	+	F11
85766.86620.-	86620	85766	-	KZN_R506	85769.86623.-	86623	85769	-	F11
2381787.2382854.-	2382854	2381787	-	KZN_R506	2400763.2401830.-	2401830	2400763	-	F11
2382554.2382820.-	2382820	2382554	-	KZN_R506	2401530.2401796.-	2401796	2401530	-	F11
3643291.3644031.+	3643291	3644031	+	KZN_R506	3661147.3661887.+	3661147	3661887	+	F11
1892660.1893568.+	1892660	1893568	+	KZN_R506	1897620.1898528.+	1897620	1898528	+	F11
3592823.3593473.-	3593473	3592823	-	KZN_R506	3610679.3611329.-	3611329	3610679	-	F11
2253166.2253741.+	2253166	2253741	+	KZN_R506	2273038.2273613.+	2273038	2273613	+	F11
2939216.2939443.+	2939216	2939443	+	KZN_R506	2956693.2956920.+	2956693	2956920	+	F11
3770071.3771948.+	3770071	3771948	+	KZN_R506	3790932.3792809.+	3790932	3792809	+	F11
2249557.2249805.+	2249557	2249805	+	KZN_R506	2268071.2268319.+	2268071	2268319	+	F11
186432.186557.-	186557	186432	-	KZN_R506	186811.186936.-	186936	186811	-	F11
3959946.3961646.+	3959946	3961646	+	KZN_R506	3988144.3989844.+	3988144	3989844	+	F11
665679.665846.-	665846	665679	-	KZN_R506	668662.668829.-	668829	668662	-	F11
770776.771327.+	770776	771327	+	KZN_R506	773760.774311.+	773760	774311	+	F11
1201389.1202456.+	1201389	1202456	+	KZN_R506	1204363.1205430.+	1204363	1205430	+	F11
103840.104703.-	104703	103840	-	KZN_R506	103843.104706.-	104706	103843	-	F11
3869558.3870421.+	3869558	3870421	+	KZN_R506	103843.104706.-	104706	103843	-	F11
1778871.1779737.-	1779737	1778871	-	KZN_R506	103843.104706.-	104706	103843	-	F11
3128559.3129281.-	3129281	3128559	-	KZN_R506	3144530.3145252.-	3145252	3144530	-	F11
3235016.3235207.-	3235207	3235016	-	KZN_R506	3250988.3251179.-	3251179	3250988	-	F11
3235071.3235286.-	3235286	3235071	-	KZN_R506	3250988.3251179.-	3251179	3250988	-	F11
577828.578454.+	577828	578454	+	KZN_R506	580812.581438.+	580812	581438	+	F11
750012.750779.-	750779	750012	-	KZN_R506	752995.753762.-	753762	752995	-	F11
1531712.1531948.-	1531948	1531712	-	KZN_R506	1536672.1536908.-	1536908	1536672	-	F11
3070845.3071198.-	3071198	3070845	-	KZN_R506	3088322.3088675.-	3088675	3088322	-	F11
661498.663618.+	661498	663618	+	KZN_R506	664481.666601.+	664481	666601	+	F11
1668095.1668820.+	1668095	1668820	+	KZN_R506	1673056.1673781.+	1673056	1673781	+	F11
3892218.3892382.+	3892218	3892382	+	KZN_R506	3920425.3920589.+	3920425	3920589	+	F11
2152884.2157083.-	2157083	2152884	-	KZN_R506	2171193.2175599.-	2175599	2171193	-	F11
172139.173080.+	172139	173080	+	KZN_R506	172518.173459.+	172518	173459	+	F11
21738.23273.-	23273	21738	-	KZN_R506	21738.23273.-	23273	21738	-	F11
1366081.1366545.+	1366081	1366545	+	KZN_R506	1369109.1369573.+	1369109	1369573	+	F11
1988372.1988647.+	1988372	1988647	+	KZN_R506	2006671.2006946.+	2006671	2006946	+	F11
1339704.1340039.+	1339704	1340039	+	KZN_R506	1342732.1343067.+	1342732	1343067	+	F11
2087211.2087531.+	2087211	2087531	+	KZN_R506	2105520.2105840.+	2105520	2105840	+	F11
1929110.1929871.+	1929110	1929871	+	KZN_R506	1934070.1934831.+	1934070	1934831	+	F11
1710704.1711744.+	1710704	1711744	+	KZN_R506	1715665.1716705.+	1715665	1716705	+	F11
171740.172105.+	171740	172105	+	KZN_R506	172119.172484.+	172119	172484	+	F11
781498.782088.+	781498	782088	+	KZN_R506	784482.785072.+	784482	785072	+	F11
552166.552735.+	552166	552735	+	KZN_R506	555150.555719.+	555150	555719	+	F11
1259860.1262169.-	1262169	1259860	-	KZN_R506	1262834.1265143.-	1265143	1262834	-	F11
4118457.4119458.+	4118457	4119458	+	KZN_R506	4145519.4146520.+	4145519	4146520	+	F11
1054617.1055093.+	1054617	1055093	+	KZN_R506	1057591.1058067.+	1057591	1058067	+	F11
1408969.1410096.+	1408969	1410096	+	KZN_R506	1411998.1413125.+	1411998	1413125	+	F11
364096.365871.+	364096	365871	+	KZN_R506	364475.366250.+	364475	366250	+	F11
704075.704302.+	704075	704302	+	KZN_R506	707058.707285.+	707058	707285	+	F11
2787338.2788615.-	2788615	2787338	-	KZN_R506	2806039.2807316.-	2807316	2806039	-	F11
315721.316353.-	316353	315721	-	KZN_R506	316100.316732.-	316732	316100	-	F11
503331.503483.+	503331	503483	+	KZN_R506	506316.506468.+	506316	506468	+	F11
3014678.3014935.-	3014935	3014678	-	KZN_R506	3032155.3032412.-	3032412	3032155	-	F11
3046284.3046490.-	3046490	3046284	-	KZN_R506	3063761.3063967.-	3063967	3063761	-	F11
95547.97022.+	95547	97022	+	KZN_R506	95550.97025.+	95550	97025	+	F11
3182580.3183170.+	3182580	3183170	+	KZN_R506	3198551.3199141.+	3198551	3199141	+	F11
2721842.2722036.-	2722036	2721842	-	KZN_R506	2740540.2740734.-	2740734	2740540	-	F11
3381339.3382184.-	3382184	3381339	-	KZN_R506	3397784.3398629.-	3398629	3397784	-	F11
1566197.1567417.+	1566197	1567417	+	KZN_R506	1571157.1572377.+	1571157	1572377	+	F11
3657653.3658081.+	3657653	3658081	+	KZN_R506	3675509.3675937.+	3675509	3675937	+	F11
1837419.1838600.-	1838600	1837419	-	KZN_R506	1842380.1843561.-	1843561	1842380	-	F11
631964.632620.+	631964	632620	+	KZN_R506	634947.635603.+	634947	635603	+	F11
3553469.3553933.+	3553469	3553933	+	KZN_R506	3571325.3571789.+	3571325	3571789	+	F11
2329039.2329338.-	2329338	2329039	-	KZN_R506	2348907.2349206.-	2349206	2348907	-	F11
1159713.1160207.-	1160207	1159713	-	KZN_R506	1162686.1163180.-	1163180	1162686	-	F11
87928.88134.-	88134	87928	-	KZN_R506	87931.88137.-	88137	87931	-	F11
4148245.4149657.+	4148245	4149657	+	KZN_R506	4175307.4176719.+	4175307	4176719	+	F11
3309273.3310091.-	3310091	3309273	-	KZN_R506	3325246.3326064.-	3326064	3325246	-	F11
3180222.3180413.+	3180222	3180413	+	KZN_R506	3196193.3196384.+	3196193	3196384	+	F11
3442670.3443695.-	3443695	3442670	-	KZN_R506	3459168.3460193.-	3460193	3459168	-	F11
2051177.2052673.-	2052673	2051177	-	KZN_R506	2069430.2070926.-	2070926	2069430	-	F11
4038464.4038625.-	4038625	4038464	-	KZN_R506	4066884.4067045.-	4067045	4066884	-	F11
2392988.2393269.+	2392988	2393269	+	KZN_R506	2411964.2412245.+	2411964	2412245	+	F11
2409461.2410930.-	2410930	2409461	-	KZN_R506	2428495.2429964.-	2429964	2428495	-	F11
3683382.3684827.-	3684827	3683382	-	KZN_R506	3701238.3702683.-	3702683	3701238	-	F11
1533182.1534369.-	1534369	1533182	-	KZN_R506	1538142.1539329.-	1539329	1538142	-	F11
3878575.3879753.+	3878575	3879753	+	KZN_R506	1538142.1539329.-	1539329	1538142	-	F11
1340089.1341261.+	1340089	1341261	+	KZN_R506	1538142.1539329.-	1539329	1538142	-	F11
3786426.3786707.-	3786707	3786426	-	KZN_R506	3807287.3807568.-	3807568	3807287	-	F11
2365321.2366958.-	2366958	2365321	-	KZN_R506	2384297.2385934.-	2385934	2384297	-	F11
1617610.1619073.-	1619073	1617610	-	KZN_R506	1622571.1624034.-	1624034	1622571	-	F11
3499570.3499884.-	3499884	3499570	-	KZN_R506	3516068.3516382.-	3516382	3516068	-	F11
278324.278527.+	278324	278527	+	KZN_R506	278703.278906.+	278703	278906	+	F11
1263065.1264921.-	1264921	1263065	-	KZN_R506	1266039.1267895.-	1267895	1266039	-	F11
3109498.3110649.+	3109498	3110649	+	KZN_R506	3125616.3126767.+	3125616	3126767	+	F11
3367079.3367735.+	3367079	3367735	+	KZN_R506	3383524.3384180.+	3383524	3384180	+	F11
274245.274658.-	274658	274245	-	KZN_R506	274624.275037.-	275037	274624	-	F11
1615766.1616002.-	1616002	1615766	-	KZN_R506	1620727.1620963.-	1620963	1620727	-	F11
4144154.4144861.+	4144154	4144861	+	KZN_R506	4171216.4171923.+	4171216	4171923	+	F11
988084.989556.+	988084	989556	+	KZN_R506	991058.992530.+	991058	992530	+	F11
2338739.2338969.+	2338739	2338969	+	KZN_R506	2359965.2360195.+	2359965	2360195	+	F11
3375944.3376258.-	3376258	3375944	-	KZN_R506	3392389.3392703.-	3392703	3392389	-	F11
2711448.2712281.-	2712281	2711448	-	KZN_R506	2730146.2730979.-	2730979	2730146	-	F11
1680403.1680666.+	1680403	1680666	+	KZN_R506	1685364.1685627.+	1685364	1685627	+	F11
2255011.2255739.+	2255011	2255739	+	KZN_R506	2274883.2275611.+	2274883	2275611	+	F11
4221250.4221678.+	4221250	4221678	+	KZN_R506	4248312.4248740.+	4248312	4248740	+	F11
1017672.1018067.-	1018067	1017672	-	KZN_R506	1020646.1021041.-	1021041	1020646	-	F11
1981779.1982012.+	1981779	1982012	+	KZN_R506	1998720.1998953.+	1998720	1998953	+	F11
2678024.2679151.-	2679151	2678024	-	KZN_R506	2695310.2696437.-	2696437	2695310	-	F11
1803598.1805007.+	1803598	1805007	+	KZN_R506	1808559.1809968.+	1808559	1809968	+	F11
1164959.1165231.-	1165231	1164959	-	KZN_R506	1167932.1168204.-	1168204	1167932	-	F11
1884007.1884660.-	1884660	1884007	-	KZN_R506	1888967.1889620.-	1889620	1888967	-	F11
2721571.2721837.-	2721837	2721571	-	KZN_R506	2740269.2740535.-	2740535	2740269	-	F11
3875452.3876237.-	3876237	3875452	-	KZN_R506	3903659.3904444.-	3904444	3903659	-	F11
4135969.4137075.-	4137075	4135969	-	KZN_R506	4163031.4164137.-	4164137	4163031	-	F11
1031430.1032218.-	1032218	1031430	-	KZN_R506	1034404.1035192.-	1035192	1034404	-	F11
1741920.1742528.+	1741920	1742528	+	KZN_R506	1746881.1747489.+	1746881	1747489	+	F11
3832145.3832507.-	3832507	3832145	-	KZN_R506	3860351.3860713.-	3860713	3860351	-	F11
1095873.1097291.-	1097291	1095873	-	KZN_R506	1098847.1100265.-	1100265	1098847	-	F11
806683.807051.+	806683	807051	+	KZN_R506	809667.810035.+	809667	810035	+	F11
586555.587541.+	586555	587541	+	KZN_R506	589539.590525.+	589539	590525	+	F11
4155406.4155648.+	4155406	4155648	+	KZN_R506	4182468.4182710.+	4182468	4182710	+	F11
3508307.3508693.+	3508307	3508693	+	KZN_R506	3524805.3525191.+	3524805	3525191	+	F11
456451.457002.-	457002	456451	-	KZN_R506	459436.459987.-	459987	459436	-	F11
2979170.2979736.+	2979170	2979736	+	KZN_R506	2996647.2997213.+	2996647	2997213	+	F11
704669.705004.+	704669	705004	+	KZN_R506	707652.707987.+	707652	707987	+	F11
2329803.2330117.+	2329803	2330117	+	KZN_R506	2351029.2351343.+	2351029	2351343	+	F11
832661.833188.+	832661	833188	+	KZN_R506	835645.836172.+	835645	836172	+	F11
2311425.2311838.-	2311838	2311425	-	KZN_R506	2331293.2331706.-	2331706	2331293	-	F11
4250502.4251401.-	4251401	4250502	-	KZN_R506	4277564.4278463.-	4278463	4277564	-	F11
829832.830044.+	829832	830044	+	KZN_R506	832816.833028.+	832816	833028	+	F11
3524016.3525947.-	3525947	3524016	-	KZN_R506	3540514.3542445.-	3542445	3540514	-	F11
2190962.2191483.-	2191483	2190962	-	KZN_R506	2209478.2209999.-	2209999	2209478	-	F11
1655285.1656397.-	1656397	1655285	-	KZN_R506	1660246.1661358.-	1661358	1660246	-	F11
3773115.3776390.-	3776390	3773115	-	KZN_R506	3793976.3797251.-	3797251	3793976	-	F11
2850524.2850748.-	2850748	2850524	-	KZN_R506	2868001.2868225.-	2868225	2868001	-	F11
57437.58075.+	57437	58075	+	KZN_R506	57439.58077.+	57439	58077	+	F11
2610788.2612125.-	2612125	2610788	-	KZN_R506	2628464.2629801.-	2629801	2628464	-	F11
2157388.2160351.-	2160351	2157388	-	KZN_R506	2175904.2178867.-	2178867	2175904	-	F11
2365014.2365229.-	2365229	2365014	-	KZN_R506	2383990.2384205.-	2384205	2383990	-	F11
1091192.1093993.+	1091192	1093993	+	KZN_R506	1094166.1096967.+	1094166	1096967	+	F11
818416.818790.-	818790	818416	-	KZN_R506	821400.821774.-	821774	821400	-	F11
3832145.3832507.-	3832507	3832145	-	KZN_R506	3852990.3853367.-	3853367	3852990	-	F11
3048067.3048333.+	3048067	3048333	+	KZN_R506	3065544.3065810.+	3065544	3065810	+	F11
230836.231471.+	230836	231471	+	KZN_R506	231215.231850.+	231215	231850	+	F11
3239198.3240949.+	3239198	3240949	+	KZN_R506	3255170.3256921.+	3255170	3256921	+	F11
515558.516001.-	516001	515558	-	KZN_R506	518543.518986.-	518986	518543	-	F11
2620293.2621819.-	2621819	2620293	-	KZN_R506	2637969.2639495.-	2639495	2637969	-	F11
729572.730432.-	730432	729572	-	KZN_R506	732555.733415.-	733415	732555	-	F11
2574319.2574588.+	2574319	2574588	+	KZN_R506	2591996.2592265.+	2591996	2592265	+	F11
1074929.1075270.+	1074929	1075270	+	KZN_R506	1077903.1078244.+	1077903	1078244	+	F11
1161650.1161769.-	1161769	1161650	-	KZN_R506	1164623.1164742.-	1164742	1164623	-	F11
1341573.1341692.+	1341573	1341692	+	KZN_R506	1164623.1164742.-	1164742	1164623	-	F11
4044878.4044997.-	4044997	4044878	-	KZN_R506	1164623.1164742.-	1164742	1164623	-	F11
2019165.2019284.+	2019165	2019284	+	KZN_R506	1164623.1164742.-	1164742	1164623	-	F11
2619344.2619463.-	2619463	2619344	-	KZN_R506	1164623.1164742.-	1164742	1164623	-	F11
3388077.3388466.+	3388077	3388466	+	KZN_R506	3404522.3404911.+	3404522	3404911	+	F11
2743571.2746231.-	2746231	2743571	-	KZN_R506	2762269.2764929.-	2764929	2762269	-	F11
3389284.3390186.-	3390186	3389284	-	KZN_R506	3405729.3406631.-	3406631	3405729	-	F11
4080600.4080923.-	4080923	4080600	-	KZN_R506	4107662.4107985.-	4107985	4107662	-	F11
3466679.3467155.-	3467155	3466679	-	KZN_R506	3483177.3483653.-	3483653	3483177	-	F11
1277035.1278483.-	1278483	1277035	-	KZN_R506	1280064.1281512.-	1281512	1280064	-	F11
2185644.2187092.+	2185644	2187092	+	KZN_R506	1280064.1281512.-	1281512	1280064	-	F11
1890241.1890516.+	1890241	1890516	+	KZN_R506	1895201.1895476.+	1895201	1895476	+	F11
2542235.2543149.-	2543149	2542235	-	KZN_R506	2561270.2562184.-	2562184	2561270	-	F11
521696.522352.+	521696	522352	+	KZN_R506	524681.525337.+	524681	525337	+	F11
1201563.1202456.+	1201563	1202456	+	KZN_R506	1204537.1205430.+	1204537	1205430	+	F11
4252892.4254835.-	4254835	4252892	-	KZN_R506	4279954.4281897.-	4281897	4279954	-	F11
2019003.2019164.+	2019003	2019164	+	KZN_R506	2038614.2038775.+	2038614	2038775	+	F11
2039917.2041149.+	2039917	2041149	+	KZN_R506	2058170.2059402.+	2058170	2059402	+	F11
3285468.3286007.+	3285468	3286007	+	KZN_R506	3301440.3301979.+	3301440	3301979	+	F11
17568.18845.-	18845	17568	-	KZN_R506	17568.18845.-	18845	17568	-	F11
1800670.1801488.+	1800670	1801488	+	KZN_R506	1805631.1806449.+	1805631	1806449	+	F11
2422762.2423796.-	2423796	2422762	-	KZN_R506	2441796.2442830.-	2442830	2441796	-	F11
3475341.3475643.+	3475341	3475643	+	KZN_R506	3491839.3492141.+	3491839	3492141	+	F11
2311023.2311424.+	2311023	2311424	+	KZN_R506	2330891.2331292.+	2330891	2331292	+	F11
3235071.3235286.-	3235286	3235071	-	KZN_R506	3251043.3251258.-	3251258	3251043	-	F11
4126178.4126402.-	4126402	4126178	-	KZN_R506	4153240.4153464.-	4153464	4153240	-	F11
986364.986822.-	986822	986364	-	KZN_R506	989338.989796.-	989796	989338	-	F11
2111377.2111754.-	2111754	2111377	-	KZN_R506	2129686.2130063.-	2130063	2129686	-	F11
3191103.3191774.-	3191774	3191103	-	KZN_R506	3207074.3207745.-	3207745	3207074	-	F11
2074446.2074646.+	2074446	2074646	+	KZN_R506	2092755.2092955.+	2092755	2092955	+	F11
2912062.2912271.-	2912271	2912062	-	KZN_R506	2929539.2929748.-	2929748	2929539	-	F11
1004805.1005335.+	1004805	1005335	+	KZN_R506	1007779.1008309.+	1007779	1008309	+	F11
4349356.4350696.-	4350696	4349356	-	KZN_R506	4376417.4377757.-	4377757	4376417	-	F11
140097.140276.+	140097	140276	+	KZN_R506	140101.140280.+	140101	140280	+	F11
223501.224601.+	223501	224601	+	KZN_R506	223880.224980.+	223880	224980	+	F11
2522093.2522287.-	2522287	2522093	-	KZN_R506	2541128.2541322.-	2541322	2541128	-	F11
1165887.1166294.-	1166294	1165887	-	KZN_R506	1281657.1282064.+	1281657	1282064	+	F11
1278629.1279036.+	1278629	1279036	+	KZN_R506	1281657.1282064.+	1281657	1282064	+	F11
4279164.4285475.-	4285475	4279164	-	KZN_R506	4306226.4312537.-	4312537	4306226	-	F11
4114690.4115055.-	4115055	4114690	-	KZN_R506	4141752.4142117.-	4142117	4141752	-	F11
1617058.1617471.+	1617058	1617471	+	KZN_R506	1622019.1622432.+	1622019	1622432	+	F11
3745898.3746638.-	3746638	3745898	-	KZN_R506	3766759.3767499.-	3767499	3766759	-	F11
3462872.3463192.+	3462872	3463192	+	KZN_R506	3479370.3479690.+	3479370	3479690	+	F11
362520.363926.-	363926	362520	-	KZN_R506	362899.364305.-	364305	362899	-	F11
1177725.1178039.+	1177725	1178039	+	KZN_R506	1180698.1181012.+	1180698	1181012	+	F11
842894.843163.+	842894	843163	+	KZN_R506	845878.846147.+	845878	846147	+	F11
4080940.4081482.-	4081482	4080940	-	KZN_R506	4108002.4108544.-	4108544	4108002	-	F11
1750973.1753009.-	1753009	1750973	-	KZN_R506	1755934.1757970.-	1757970	1755934	-	F11
1945804.1946052.-	1946052	1945804	-	KZN_R506	1952122.1952370.-	1952370	1952122	-	F11
4093414.4093608.+	4093414	4093608	+	KZN_R506	4120476.4120670.+	4120476	4120670	+	F11
768095.768598.-	768598	768095	-	KZN_R506	771078.771581.-	771581	771078	-	F11
3879783.3883031.+	3879783	3883031	+	KZN_R506	3907990.3911238.+	3907990	3911238	+	F11
1315971.1320719.+	1315971	1320719	+	KZN_R506	1318999.1323747.+	1318999	1323747	+	F11
1078082.1078741.-	1078741	1078082	-	KZN_R506	1081056.1081715.-	1081715	1081056	-	F11
938434.938676.+	938434	938676	+	KZN_R506	941408.941650.+	941408	941650	+	F11
3097418.3098023.-	3098023	3097418	-	KZN_R506	3113536.3114141.-	3114141	3113536	-	F11
701651.702259.+	701651	702259	+	KZN_R506	3113536.3114141.-	3114141	3113536	-	F11
4288725.4289330.-	4289330	4288725	-	KZN_R506	3113536.3114141.-	3114141	3113536	-	F11
3191103.3191714.-	3191714	3191103	-	KZN_R506	3113536.3114141.-	3114141	3113536	-	F11
2829351.2829602.-	2829602	2829351	-	KZN_R506	2846828.2847079.-	2847079	2846828	-	F11
536689.537354.-	537354	536689	-	KZN_R506	539673.540338.-	540338	539673	-	F11
1095330.1095854.+	1095330	1095854	+	KZN_R506	1098304.1098828.+	1098304	1098828	+	F11
2329596.2329766.-	2329766	2329596	-	KZN_R506	2350822.2350992.-	2350992	2350822	-	F11
1277035.1277595.-	1277595	1277035	-	KZN_R506	1280064.1280624.-	1280624	1280064	-	F11
1818601.1819227.+	1818601	1819227	+	KZN_R506	1823562.1824188.+	1823562	1824188	+	F11
2202625.2203866.+	2202625	2203866	+	KZN_R506	2221139.2222380.+	2221139	2222380	+	F11
938953.940245.+	938953	940245	+	KZN_R506	941927.943219.+	941927	943219	+	F11
4114690.4115022.-	4115022	4114690	-	KZN_R506	4141752.4142084.-	4142084	4141752	-	F11
2781190.2781513.-	2781513	2781190	-	KZN_R506	2799891.2800214.-	2800214	2799891	-	F11
1119223.1120734.-	1120734	1119223	-	KZN_R506	1122196.1123707.-	1123707	1122196	-	F11
4186360.4187265.+	4186360	4187265	+	KZN_R506	4213422.4214327.+	4213422	4214327	+	F11
3702239.3702871.-	3702871	3702239	-	KZN_R506	3720095.3720727.-	3720727	3720095	-	F11
2780096.2780581.-	2780581	2780096	-	KZN_R506	2798797.2799282.-	2799282	2798797	-	F11
402953.404464.+	402953	404464	+	KZN_R506	403272.404783.+	403272	404783	+	F11
606712.608223.+	606712	608223	+	KZN_R506	403272.404783.+	403272	404783	+	F11
2074643.2076868.-	2076868	2074643	-	KZN_R506	2092952.2095177.-	2095177	2092952	-	F11
3326858.3327112.-	3327112	3326858	-	KZN_R506	3342831.3343085.-	3343085	3342831	-	F11
3858956.3859636.+	3858956	3859636	+	KZN_R506	3887163.3887843.+	3887163	3887843	+	F11
3790979.3791719.+	3790979	3791719	+	KZN_R506	3811840.3812580.+	3811840	3812580	+	F11
1017064.1017537.+	1017064	1017537	+	KZN_R506	1020038.1020511.+	1020038	1020511	+	F11
1571508.1571831.-	1571831	1571508	-	KZN_R506	1576468.1576791.-	1576791	1576468	-	F11
1467987.1468418.+	1467987	1468418	+	KZN_R506	1471016.1471447.+	1471016	1471447	+	F11
1385004.1385276.+	1385004	1385276	+	KZN_R506	1388032.1388304.+	1388032	1388304	+	F11
2539950.2540198.-	2540198	2539950	-	KZN_R506	2558985.2559233.-	2559233	2558985	-	F11
475968.476438.-	476438	475968	-	KZN_R506	478953.479423.-	479423	478953	-	F11
877576.877716.+	877576	877716	+	KZN_R506	880559.880699.+	880559	880699	+	F11
4120665.4121987.+	4120665	4121987	+	KZN_R506	4147727.4149049.+	4147727	4149049	+	F11
2499318.2499494.-	2499494	2499318	-	KZN_R506	2518353.2518529.-	2518529	2518353	-	F11
3872648.3874321.-	3874321	3872648	-	KZN_R506	3900855.3902528.-	3902528	3900855	-	F11
2201354.2202598.+	2201354	2202598	+	KZN_R506	2219868.2221112.+	2219868	2221112	+	F11
3585555.3586166.+	3585555	3586166	+	KZN_R506	3603411.3604022.+	3603411	3604022	+	F11
1956039.1956323.+	1956039	1956323	+	KZN_R506	1962357.1962641.+	1962357	1962641	+	F11
449320.449835.-	449835	449320	-	KZN_R506	449699.450214.-	450214	449699	-	F11
4003845.4004711.+	4003845	4004711	+	KZN_R506	4032043.4032909.+	4032043	4032909	+	F11
3816683.3816982.+	3816683	3816982	+	KZN_R506	3837544.3837843.+	3837544	3837843	+	F11
715537.716562.+	715537	716562	+	KZN_R506	718520.719545.+	718520	719545	+	F11
3497959.3498357.+	3497959	3498357	+	KZN_R506	3514457.3514855.+	3514457	3514855	+	F11
3801960.3802601.+	3801960	3802601	+	KZN_R506	3822821.3823462.+	3822821	3823462	+	F11
3526615.3527772.-	3527772	3526615	-	KZN_R506	3543113.3544270.-	3544270	3543113	-	F11
2494447.2494749.-	2494749	2494447	-	KZN_R506	2513482.2513784.-	2513784	2513482	-	F11
661131.661514.+	661131	661514	+	KZN_R506	664114.664497.+	664114	664497	+	F11
144139.145758.+	144139	145758	+	KZN_R506	144143.145762.+	144143	145762	+	F11
4047032.4047832.+	4047032	4047832	+	KZN_R506	4075452.4076252.+	4075452	4076252	+	F11
3431064.3431588.-	3431588	3431064	-	KZN_R506	3447562.3448086.-	3448086	3447562	-	F11
738542.739462.-	739462	738542	-	KZN_R506	741525.742445.-	742445	741525	-	F11
2539599.2539916.-	2539916	2539599	-	KZN_R506	2558634.2558951.-	2558951	2558634	-	F11
2065458.2065715.+	2065458	2065715	+	KZN_R506	2083767.2084024.+	2083767	2084024	+	F11
2273238.2273723.-	2273723	2273238	-	KZN_R506	2293110.2293595.-	2293595	2293110	-	F11
2450805.2451563.+	2450805	2451563	+	KZN_R506	2469840.2470598.+	2469840	2470598	+	F11
3067608.3068093.-	3068093	3067608	-	KZN_R506	3085085.3085570.-	3085570	3085085	-	F11
2433050.2433232.-	2433232	2433050	-	KZN_R506	2452084.2452266.-	2452266	2452084	-	F11
3016939.3017910.+	3016939	3017910	+	KZN_R506	3034416.3035387.+	3034416	3035387	+	F11
2347859.2348110.-	2348110	2347859	-	KZN_R506	2369085.2369336.-	2369336	2369085	-	F11
1876918.1878450.+	1876918	1878450	+	KZN_R506	1881878.1883410.+	1881878	1883410	+	F11
655169.656254.-	656254	655169	-	KZN_R506	658152.659237.-	659237	658152	-	F11
1781764.1782003.+	1781764	1782003	+	KZN_R506	1786725.1786964.+	1786725	1786964	+	F11
1587152.1587871.-	1587871	1587152	-	KZN_R506	1592113.1592832.-	1592832	1592113	-	F11
237831.238334.-	238334	237831	-	KZN_R506	238210.238713.-	238713	238210	-	F11
1675693.1676559.-	1676559	1675693	-	KZN_R506	1680654.1681520.-	1681520	1680654	-	F11
3334355.3335026.+	3334355	3335026	+	KZN_R506	3350800.3351471.+	3350800	3351471	+	F11
643134.644738.+	643134	644738	+	KZN_R506	646117.647721.+	646117	647721	+	F11
133152.133901.+	133152	133901	+	KZN_R506	133156.133905.+	133156	133905	+	F11
3358603.3358950.+	3358603	3358950	+	KZN_R506	3375048.3375395.+	3375048	3375395	+	F11
2623658.2625196.-	2625196	2623658	-	KZN_R506	2641334.2642872.-	2642872	2641334	-	F11
247323.248057.-	248057	247323	-	KZN_R506	247702.248436.-	248436	247702	-	F11
1540251.1541384.-	1541384	1540251	-	KZN_R506	1545211.1546344.-	1546344	1545211	-	F11
2658076.2663124.-	2663124	2658076	-	KZN_R506	2675362.2680410.-	2680410	2675362	-	F11
700508.701434.+	700508	701434	+	KZN_R506	703491.704417.+	703491	704417	+	F11
1838947.1842471.-	1842471	1838947	-	KZN_R506	1843908.1847432.-	1847432	1843908	-	F11
2621902.2623440.-	2623440	2621902	-	KZN_R506	2639578.2641116.-	2641116	2639578	-	F11
1064963.1065811.-	1065811	1064963	-	KZN_R506	1067937.1068785.-	1068785	1067937	-	F11
3544243.3545532.+	3544243	3545532	+	KZN_R506	3560741.3562030.+	3560741	3562030	+	F11
737513.738394.-	738394	737513	-	KZN_R506	740496.741377.-	741377	740496	-	F11
988033.989556.+	988033	989556	+	KZN_R506	991007.992530.+	991007	992530	+	F11
2756830.2758356.+	2756830	2758356	+	KZN_R506	2775528.2777054.+	2775528	2777054	+	F11
352745.354238.+	352745	354238	+	KZN_R506	353124.354617.+	353124	354617	+	F11
2707305.2708858.-	2708858	2707305	-	KZN_R506	2726006.2727559.-	2727559	2726006	-	F11
2785634.2787109.-	2787109	2785634	-	KZN_R506	2804335.2805810.-	2805810	2804335	-	F11
2642756.2643097.-	2643097	2642756	-	KZN_R506	2660042.2660383.-	2660383	2660042	-	F11
2501545.2502504.-	2502504	2501545	-	KZN_R506	2520580.2521539.-	2521539	2520580	-	F11
2574535.2574861.-	2574861	2574535	-	KZN_R506	2592212.2592538.-	2592538	2592212	-	F11
3703516.3704070.-	3704070	3703516	-	KZN_R506	3721372.3721926.-	3721926	3721372	-	F11
3884639.3885328.-	3885328	3884639	-	KZN_R506	3912846.3913535.-	3913535	3912846	-	F11
1567490.1568968.-	1568968	1567490	-	KZN_R506	1572450.1573928.-	1573928	1572450	-	F11
3060700.3061611.-	3061611	3060700	-	KZN_R506	3078177.3079088.-	3079088	3078177	-	F11
2619344.2619463.-	2619463	2619344	-	KZN_R506	1344600.1344719.+	1344600	1344719	+	F11
4044878.4044997.-	4044997	4044878	-	KZN_R506	1344600.1344719.+	1344600	1344719	+	F11
1341573.1341692.+	1341573	1341692	+	KZN_R506	1344600.1344719.+	1344600	1344719	+	F11
1161650.1161769.-	1161769	1161650	-	KZN_R506	1344600.1344719.+	1344600	1344719	+	F11
2019165.2019284.+	2019165	2019284	+	KZN_R506	1344600.1344719.+	1344600	1344719	+	F11
3967711.3968730.-	3968730	3967711	-	KZN_R506	3995909.3996928.-	3996928	3995909	-	F11
532539.533096.+	532539	533096	+	KZN_R506	535523.536080.+	535523	536080	+	F11
3407350.3409431.-	3409431	3407350	-	KZN_R506	3423795.3425876.-	3425876	3423795	-	F11
2041281.2042687.+	2041281	2042687	+	KZN_R506	2059534.2060940.+	2059534	2060940	+	F11
3834529.3834738.-	3834738	3834529	-	KZN_R506	3862735.3862944.-	3862944	3862735	-	F11
578590.579360.+	578590	579360	+	KZN_R506	581574.582344.+	581574	582344	+	F11
4114690.4115139.-	4115139	4114690	-	KZN_R506	4141752.4142201.-	4142201	4141752	-	F11
3177329.3178618.-	3178618	3177329	-	KZN_R506	3193300.3194589.-	3194589	3193300	-	F11
462318.463490.+	462318	463490	+	KZN_R506	465303.466475.+	465303	466475	+	F11
3131997.3132722.-	3132722	3131997	-	KZN_R506	3147968.3148693.-	3148693	3147968	-	F11
3291851.3292141.-	3292141	3291851	-	KZN_R506	3307823.3308113.-	3308113	3307823	-	F11
3747557.3758707.-	3758707	3747557	-	KZN_R506	3768418.3779568.-	3779568	3768418	-	F11
3860326.3861594.+	3860326	3861594	+	KZN_R506	3888533.3889801.+	3888533	3889801	+	F11
3234102.3235016.-	3235016	3234102	-	KZN_R506	3250074.3250988.-	3250988	3250074	-	F11
2315801.2316211.+	2315801	2316211	+	KZN_R506	2335669.2336079.+	2335669	2336079	+	F11
1152715.1152807.+	1152715	1152807	+	KZN_R506	1155688.1155780.+	1155688	1155780	+	F11
2846932.2847159.+	2846932	2847159	+	KZN_R506	2864409.2864636.+	2864409	2864636	+	F11
330360.330941.+	330360	330941	+	KZN_R506	330739.331320.+	330739	331320	+	F11
3982326.3984221.+	3982326	3984221	+	KZN_R506	4010524.4012419.+	4010524	4012419	+	F11
2721554.2721823.+	2721554	2721823	+	KZN_R506	2740252.2740521.+	2740252	2740521	+	F11
3551220.3552278.-	3552278	3551220	-	KZN_R506	3569076.3570134.-	3570134	3569076	-	F11
2127267.2128025.-	2128025	2127267	-	KZN_R506	2145576.2146334.-	2146334	2145576	-	F11
3354584.3354802.-	3354802	3354584	-	KZN_R506	3371029.3371247.-	3371247	3371029	-	F11
2587265.2587810.-	2587810	2587265	-	KZN_R506	2604942.2605487.-	2605487	2604942	-	F11
1078082.1078684.-	1078684	1078082	-	KZN_R506	1081056.1081658.-	1081658	1081056	-	F11
2332534.2332932.+	2332534	2332932	+	KZN_R506	2353760.2354158.+	2353760	2354158	+	F11
2368403.2369044.+	2368403	2369044	+	KZN_R506	2387379.2388020.+	2387379	2388020	+	F11
2016652.2016954.+	2016652	2016954	+	KZN_R506	2036264.2036566.+	2036264	2036566	+	F11
218642.219304.+	218642	219304	+	KZN_R506	219021.219683.+	219021	219683	+	F11
1170220.1171467.+	1170220	1171467	+	KZN_R506	3494574.3495821.+	3494574	3495821	+	F11
1342095.1343342.-	1343342	1342095	-	KZN_R506	3494574.3495821.+	3494574	3495821	+	F11
2824397.2825644.-	2825644	2824397	-	KZN_R506	3494574.3495821.+	3494574	3495821	+	F11
3376640.3377887.-	3377887	3376640	-	KZN_R506	3494574.3495821.+	3494574	3495821	+	F11
3478076.3479323.+	3478076	3479323	+	KZN_R506	3494574.3495821.+	3494574	3495821	+	F11
3942107.3943018.+	3942107	3943018	+	KZN_R506	3970305.3971216.+	3970305	3971216	+	F11
1849130.1850188.+	1849130	1850188	+	KZN_R506	1854091.1855149.+	1854091	1855149	+	F11
1233209.1233619.+	1233209	1233619	+	KZN_R506	1236183.1236593.+	1236183	1236593	+	F11
3157935.3159782.+	3157935	3159782	+	KZN_R506	3173906.3175753.+	3173906	3175753	+	F11
832943.833188.+	832943	833188	+	KZN_R506	835927.836172.+	835927	836172	+	F11
842918.843163.+	842918	843163	+	KZN_R506	835927.836172.+	835927	836172	+	F11
1404124.1405329.-	1405329	1404124	-	KZN_R506	1407153.1408358.-	1408358	1407153	-	F11
1774537.1774821.-	1774821	1774537	-	KZN_R506	1779498.1779782.-	1779782	1779498	-	F11
2196689.2196946.+	2196689	2196946	+	KZN_R506	2215205.2215462.+	2215205	2215462	+	F11
2576156.2576443.+	2576156	2576443	+	KZN_R506	2593833.2594120.+	2593833	2594120	+	F11
3485194.3485688.+	3485194	3485688	+	KZN_R506	3501692.3502186.+	3501692	3502186	+	F11
3574195.3574404.+	3574195	3574404	+	KZN_R506	3592051.3592260.+	3592051	3592260	+	F11
847053.848798.+	847053	848798	+	KZN_R506	850037.851782.+	850037	851782	+	F11
1170157.1171467.+	1170157	1171467	+	KZN_R506	1345122.1346432.-	1346432	1345122	-	F11
1342095.1343405.-	1343405	1342095	-	KZN_R506	1345122.1346432.-	1346432	1345122	-	F11
2824397.2825707.-	2825707	2824397	-	KZN_R506	1345122.1346432.-	1346432	1345122	-	F11
3376640.3377950.-	3377950	3376640	-	KZN_R506	1345122.1346432.-	1346432	1345122	-	F11
3478013.3479323.+	3478013	3479323	+	KZN_R506	1345122.1346432.-	1346432	1345122	-	F11
3861556.3862326.-	3862326	3861556	-	KZN_R506	3889763.3890533.-	3890533	3889763	-	F11
3128559.3129104.-	3129104	3128559	-	KZN_R506	3144530.3145075.-	3145075	3144530	-	F11
3131455.3132000.-	3132000	3131455	-	KZN_R506	3144530.3145075.-	3145075	3144530	-	F11
2872417.2872818.-	2872818	2872417	-	KZN_R506	2889894.2890295.-	2890295	2889894	-	F11
2255729.2256145.+	2255729	2256145	+	KZN_R506	2275601.2276017.+	2275601	2276017	+	F11
4104469.4104630.-	4104630	4104469	-	KZN_R506	4131531.4131692.-	4131692	4131531	-	F11
3697903.3698241.+	3697903	3698241	+	KZN_R506	3715759.3716097.+	3715759	3716097	+	F11
2446626.2446904.-	2446904	2446626	-	KZN_R506	2465661.2465939.-	2465939	2465661	-	F11
2540330.2540863.+	2540330	2540863	+	KZN_R506	2559365.2559898.+	2559365	2559898	+	F11
3163879.3164094.+	3163879	3164094	+	KZN_R506	3179850.3180065.+	3179850	3180065	+	F11
3331430.3332005.+	3331430	3332005	+	KZN_R506	3347403.3347978.+	3347403	3347978	+	F11
873557.874177.-	874177	873557	-	KZN_R506	876540.877160.-	877160	876540	-	F11
366588.366809.+	366588	366809	+	KZN_R506	366967.367188.+	366967	367188	+	F11
3418581.3420383.-	3420383	3418581	-	KZN_R506	3435026.3436828.-	3436828	3435026	-	F11
1177363.1177701.+	1177363	1177701	+	KZN_R506	1180336.1180674.+	1180336	1180674	+	F11
1208095.1208445.+	1208095	1208445	+	KZN_R506	1211069.1211419.+	1211069	1211419	+	F11
701645.702259.+	701645	702259	+	KZN_R506	704628.705242.+	704628	705242	+	F11
3097418.3098029.-	3098029	3097418	-	KZN_R506	704628.705242.+	704628	705242	+	F11
3330664.3331278.-	3331278	3330664	-	KZN_R506	704628.705242.+	704628	705242	+	F11
4288725.4289336.-	4289336	4288725	-	KZN_R506	704628.705242.+	704628	705242	+	F11
4001672.4002751.-	4002751	4001672	-	KZN_R506	4029870.4030949.-	4030949	4029870	-	F11
2747638.2748156.-	2748156	2747638	-	KZN_R506	2766336.2766854.-	2766854	2766336	-	F11
864183.865028.+	864183	865028	+	KZN_R506	867166.868011.+	867166	868011	+	F11
3203500.3203886.-	3203886	3203500	-	KZN_R506	3219471.3219857.-	3219857	3219471	-	F11
3898677.3900029.-	3900029	3898677	-	KZN_R506	3926884.3928236.-	3928236	3926884	-	F11
3016909.3017910.+	3016909	3017910	+	KZN_R506	3034386.3035387.+	3034386	3035387	+	F11
905951.906820.+	905951	906820	+	KZN_R506	908934.909803.+	908934	909803	+	F11
4164188.4166554.+	4164188	4166554	+	KZN_R506	4191250.4193616.+	4191250	4193616	+	F11
2688808.2689893.+	2688808	2689893	+	KZN_R506	2707452.2708537.+	2707452	2708537	+	F11
2522207.2522425.+	2522207	2522425	+	KZN_R506	2541242.2541460.+	2541242	2541460	+	F11
3508217.3508693.+	3508217	3508693	+	KZN_R506	3524715.3525191.+	3524715	3525191	+	F11
1597280.1598263.+	1597280	1598263	+	KZN_R506	1602241.1603224.+	1602241	1603224	+	F11
4186321.4187265.+	4186321	4187265	+	KZN_R506	4213383.4214327.+	4213383	4214327	+	F11
456451.457101.-	457101	456451	-	KZN_R506	459436.460086.-	460086	459436	-	F11
2537400.2537732.-	2537732	2537400	-	KZN_R506	2556435.2556767.-	2556767	2556435	-	F11
4057250.4058218.-	4058218	4057250	-	KZN_R506	4085670.4086638.-	4086638	4085670	-	F11
1165367.1165804.-	1165804	1165367	-	KZN_R506	1282147.1282584.+	1282147	1282584	+	F11
1279119.1279556.+	1279119	1279556	+	KZN_R506	1282147.1282584.+	1282147	1282584	+	F11
4255779.4256276.-	4256276	4255779	-	KZN_R506	4282841.4283338.-	4283338	4282841	-	F11
4067457.4068665.-	4068665	4067457	-	KZN_R506	4094519.4095727.-	4095727	4094519	-	F11
1031430.1032716.-	1032716	1031430	-	KZN_R506	1034404.1035690.-	1035690	1034404	-	F11
1309741.1310067.+	1309741	1310067	+	KZN_R506	1312769.1313095.+	1312769	1313095	+	F11
3506713.3507930.-	3507930	3506713	-	KZN_R506	3523211.3524428.-	3524428	3523211	-	F11
953660.954070.+	953660	954070	+	KZN_R506	956634.957044.+	956634	957044	+	F11
2146658.2147251.-	2147251	2146658	-	KZN_R506	2164967.2165560.-	2165560	2164967	-	F11
336373.336795.-	336795	336373	-	KZN_R506	336752.337174.-	337174	336752	-	F11
1131923.1132216.+	1131923	1132216	+	KZN_R506	1134896.1135189.+	1134896	1135189	+	F11
141326.142276.+	141326	142276	+	KZN_R506	141330.142280.+	141330	142280	+	F11
4310992.4311417.+	4310992	4311417	+	KZN_R506	4338054.4338479.+	4338054	4338479	+	F11
3019910.3021325.+	3019910	3021325	+	KZN_R506	3037387.3038802.+	3037387	3038802	+	F11
2901929.2902603.-	2902603	2901929	-	KZN_R506	2919406.2920080.-	2920080	2919406	-	F11
1961357.1961542.-	1961542	1961357	-	KZN_R506	1967675.1967860.-	1967860	1967675	-	F11
2224383.2224631.-	2224631	2224383	-	KZN_R506	2242897.2243145.-	2243145	2242897	-	F11
3178697.3178954.+	3178697	3178954	+	KZN_R506	3194668.3194925.+	3194668	3194925	+	F11
3636836.3636949.+	3636836	3636949	+	KZN_R506	3654692.3654805.+	3654692	3654805	+	F11
1243657.1243857.-	1243857	1243657	-	KZN_R506	1246631.1246831.-	1246831	1246631	-	F11
2401367.2402152.-	2402152	2401367	-	KZN_R506	2420401.2421186.-	2421186	2420401	-	F11
3400232.3400483.+	3400232	3400483	+	KZN_R506	3416677.3416928.+	3416677	3416928	+	F11
2923773.2924231.+	2923773	2924231	+	KZN_R506	2941250.2941708.+	2941250	2941708	+	F11
3579585.3579872.-	3579872	3579585	-	KZN_R506	3597441.3597728.-	3597728	3597441	-	F11
2207849.2208457.+	2207849	2208457	+	KZN_R506	2226363.2226971.+	2226363	2226971	+	F11
1293474.1294139.+	1293474	1294139	+	KZN_R506	1296502.1297167.+	1296502	1297167	+	F11
1053212.1053490.+	1053212	1053490	+	KZN_R506	1056186.1056464.+	1056186	1056464	+	F11
2856287.2856985.+	2856287	2856985	+	KZN_R506	2873764.2874462.+	2873764	2874462	+	F11
2619775.2620101.-	2620101	2619775	-	KZN_R506	2637451.2637777.-	2637777	2637451	-	F11
2260160.2264980.-	2264980	2260160	-	KZN_R506	2280032.2284852.-	2284852	2280032	-	F11
103840.104559.-	104559	103840	-	KZN_R506	103843.104562.-	104562	103843	-	F11
3869702.3870421.+	3869702	3870421	+	KZN_R506	103843.104562.-	104562	103843	-	F11
1778871.1779593.-	1779593	1778871	-	KZN_R506	103843.104562.-	104562	103843	-	F11
1693672.1694112.-	1694112	1693672	-	KZN_R506	1698633.1699073.-	1699073	1698633	-	F11
714447.715511.+	714447	715511	+	KZN_R506	717430.718494.+	717430	718494	+	F11
2955687.2955941.-	2955941	2955687	-	KZN_R506	2973164.2973418.-	2973418	2973164	-	F11
3029113.3029361.+	3029113	3029361	+	KZN_R506	3046590.3046838.+	3046590	3046838	+	F11
2445283.2446440.-	2446440	2445283	-	KZN_R506	2464318.2465475.-	2465475	2464318	-	F11
4027535.4027618.-	4027618	4027535	-	KZN_R506	4055733.4055816.-	4055816	4055733	-	F11
412117.413562.+	412117	413562	+	KZN_R506	412436.413881.+	412436	413881	+	F11
3552538.3552762.-	3552762	3552538	-	KZN_R506	3570394.3570618.-	3570618	3570394	-	F11
889859.890077.+	889859	890077	+	KZN_R506	3724019.3724237.+	3724019	3724237	+	F11
1778871.1779827.-	1779827	1778871	-	KZN_R506	1783832.1784788.-	1784788	1783832	-	F11
103840.104793.-	104793	103840	-	KZN_R506	1783832.1784788.-	1784788	1783832	-	F11
3869468.3870421.+	3869468	3870421	+	KZN_R506	1783832.1784788.-	1784788	1783832	-	F11
3196352.3197566.-	3197566	3196352	-	KZN_R506	3212323.3213537.-	3213537	3212323	-	F11
676277.676555.+	676277	676555	+	KZN_R506	679260.679538.+	679260	679538	+	F11
563752.565119.+	563752	565119	+	KZN_R506	566736.568103.+	566736	568103	+	F11
4155545.4156108.+	4155545	4156108	+	KZN_R506	4182607.4183170.+	4182607	4183170	+	F11
2441319.2443130.+	2441319	2443130	+	KZN_R506	2460354.2462165.+	2460354	2462165	+	F11
31925.32068.-	32068	31925	-	KZN_R506	31925.32068.-	32068	31925	-	F11
614487.614891.-	614891	614487	-	KZN_R506	617470.617874.-	617874	617470	-	F11
1576310.1576912.+	1576310	1576912	+	KZN_R506	1581271.1581873.+	1581271	1581873	+	F11
150712.151308.+	150712	151308	+	KZN_R506	150716.151312.+	150716	151312	+	F11
1779598.1780266.-	1780266	1779598	-	KZN_R506	104567.105235.-	105235	104567	-	F11
1579971.1580453.+	1579971	1580453	+	KZN_R506	1584932.1585414.+	1584932	1585414	+	F11
1778871.1779833.-	1779833	1778871	-	KZN_R506	1783832.1784794.-	1784794	1783832	-	F11
103840.104799.-	104799	103840	-	KZN_R506	1783832.1784794.-	1784794	1783832	-	F11
3869462.3870421.+	3869462	3870421	+	KZN_R506	1783832.1784794.-	1784794	1783832	-	F11
1347673.1348425.-	1348425	1347673	-	KZN_R506	1350700.1351452.-	1351452	1350700	-	F11
1630039.1634265.-	1634265	1630039	-	KZN_R506	1635000.1639226.-	1639226	1635000	-	F11
2769136.2769540.+	2769136	2769540	+	KZN_R506	2787834.2788238.+	2787834	2788238	+	F11
2059695.2060624.+	2059695	2060624	+	KZN_R506	2077948.2078877.+	2077948	2078877	+	F11
3658715.3659680.+	3658715	3659680	+	KZN_R506	3676571.3677536.+	3676571	3677536	+	F11
2612718.2613137.+	2612718	2613137	+	KZN_R506	2630394.2630813.+	2630394	2630813	+	F11
2977490.2978356.+	2977490	2978356	+	KZN_R506	2994967.2995833.+	2994967	2995833	+	F11
2438975.2440114.-	2440114	2438975	-	KZN_R506	2458010.2459149.-	2459149	2458010	-	F11
4337005.4338120.+	4337005	4338120	+	KZN_R506	4364066.4365181.+	4364066	4365181	+	F11
776363.779179.-	779179	776363	-	KZN_R506	779347.782163.-	782163	779347	-	F11
1074176.1074397.+	1074176	1074397	+	KZN_R506	1077150.1077371.+	1077150	1077371	+	F11
1165367.1166230.-	1166230	1165367	-	KZN_R506	1168340.1169203.-	1169203	1168340	-	F11
1278693.1279556.+	1278693	1279556	+	KZN_R506	1168340.1169203.-	1169203	1168340	-	F11
3747557.3758581.-	3758581	3747557	-	KZN_R506	3768418.3779442.-	3779442	3768418	-	F11
640883.641149.-	641149	640883	-	KZN_R506	643866.644132.-	644132	643866	-	F11
510562.510840.-	510840	510562	-	KZN_R506	513547.513825.-	513825	513547	-	F11
2970410.2971036.-	2971036	2970410	-	KZN_R506	2987887.2988513.-	2988513	2987887	-	F11
3641807.3643303.+	3641807	3643303	+	KZN_R506	3659663.3661159.+	3659663	3661159	+	F11
1215288.1215740.+	1215288	1215740	+	KZN_R506	1218262.1218714.+	1218262	1218714	+	F11
2973808.2974173.-	2974173	2973808	-	KZN_R506	2991285.2991650.-	2991650	2991285	-	F11
4195521.4196948.-	4196948	4195521	-	KZN_R506	4222583.4224010.-	4224010	4222583	-	F11
2764207.2765013.+	2764207	2765013	+	KZN_R506	2782905.2783711.+	2782905	2783711	+	F11
3486131.3487000.+	3486131	3487000	+	KZN_R506	3502629.3503498.+	3502629	3503498	+	F11
1147356.1147823.+	1147356	1147823	+	KZN_R506	1150329.1150796.+	1150329	1150796	+	F11
4206959.4208587.+	4206959	4208587	+	KZN_R506	4234021.4235649.+	4234021	4235649	+	F11
41409.42014.+	41409	42014	+	KZN_R506	41408.42013.+	41408	42013	+	F11
1945804.1945995.-	1945995	1945804	-	KZN_R506	1952122.1952313.-	1952313	1952122	-	F11
1945804.1946052.-	1946052	1945804	-	KZN_R506	1952122.1952313.-	1952313	1952122	-	F11
2017027.2018118.+	2017027	2018118	+	KZN_R506	2036639.2037730.+	2036639	2037730	+	F11
542327.543037.+	542327	543037	+	KZN_R506	545311.546021.+	545311	546021	+	F11
1486506.1486688.-	1486688	1486506	-	KZN_R506	1492567.1492749.-	1492749	1492567	-	F11
1365886.1366545.+	1365886	1366545	+	KZN_R506	1368914.1369573.+	1368914	1369573	+	F11
698769.699239.-	699239	698769	-	KZN_R506	701752.702222.-	702222	701752	-	F11
254576.255907.-	255907	254576	-	KZN_R506	254955.256286.-	256286	254955	-	F11
1015249.1015407.+	1015249	1015407	+	KZN_R506	1018223.1018381.+	1018223	1018381	+	F11
2044156.2045358.-	2045358	2044156	-	KZN_R506	2062409.2063611.-	2063611	2062409	-	F11
3170360.3170554.+	3170360	3170554	+	KZN_R506	3186331.3186525.+	3186331	3186525	+	F11
2147334.2147951.-	2147951	2147334	-	KZN_R506	2165643.2166260.-	2166260	2165643	-	F11
2172199.2172978.-	2172978	2172199	-	KZN_R506	2190715.2191494.-	2191494	2190715	-	F11
4111378.4112418.+	4111378	4112418	+	KZN_R506	4138440.4139480.+	4138440	4139480	+	F11
768095.768415.-	768415	768095	-	KZN_R506	771078.771398.-	771398	771078	-	F11
1185680.1186537.+	1185680	1186537	+	KZN_R506	1188653.1189510.+	1188653	1189510	+	F11
3352489.3352692.-	3352692	3352489	-	KZN_R506	3368934.3369137.-	3369137	3368934	-	F11
3878572.3879753.+	3878572	3879753	+	KZN_R506	3906779.3907960.+	3906779	3907960	+	F11
1533182.1534372.-	1534372	1533182	-	KZN_R506	3906779.3907960.+	3906779	3907960	+	F11
1340086.1341261.+	1340086	1341261	+	KZN_R506	3906779.3907960.+	3906779	3907960	+	F11
4181379.4181741.+	4181379	4181741	+	KZN_R506	4208441.4208803.+	4208441	4208803	+	F11
4294977.4296335.+	4294977	4296335	+	KZN_R506	4322039.4323397.+	4322039	4323397	+	F11
3721017.3728630.-	3728630	3721017	-	KZN_R506	3741691.3749304.-	3749304	3741691	-	F11
931730.932614.-	932614	931730	-	KZN_R506	1485727.1486611.+	1485727	1486611	+	F11
1976816.1977700.-	1977700	1976816	-	KZN_R506	1485727.1486611.+	1485727	1486611	+	F11
2036054.2036938.-	2036938	2036054	-	KZN_R506	1485727.1486611.+	1485727	1486611	+	F11
2360311.2361195.-	2361195	2360311	-	KZN_R506	1485727.1486611.+	1485727	1486611	+	F11
2547727.2548611.-	2548611	2547727	-	KZN_R506	1485727.1486611.+	1485727	1486611	+	F11
2627283.2628167.-	2628167	2627283	-	KZN_R506	1485727.1486611.+	1485727	1486611	+	F11
2802785.2803669.+	2802785	2803669	+	KZN_R506	1485727.1486611.+	1485727	1486611	+	F11
3078114.3078998.+	3078114	3078998	+	KZN_R506	1485727.1486611.+	1485727	1486611	+	F11
3116329.3117213.-	3117213	3116329	-	KZN_R506	1485727.1486611.+	1485727	1486611	+	F11
3476069.3476953.+	3476069	3476953	+	KZN_R506	1485727.1486611.+	1485727	1486611	+	F11
3704481.3705365.-	3705365	3704481	-	KZN_R506	1485727.1486611.+	1485727	1486611	+	F11
4062487.4063371.-	4063371	4062487	-	KZN_R506	1485727.1486611.+	1485727	1486611	+	F11
2602094.2602849.+	2602094	2602849	+	KZN_R506	2619770.2620525.+	2619770	2620525	+	F11
336373.339072.-	339072	336373	-	KZN_R506	336752.339451.-	339451	336752	-	F11
2215581.2215841.-	2215841	2215581	-	KZN_R506	2234095.2234355.-	2234355	2234095	-	F11
3869462.3870421.+	3869462	3870421	+	KZN_R506	3897669.3898628.+	3897669	3898628	+	F11
103840.104799.-	104799	103840	-	KZN_R506	3897669.3898628.+	3897669	3898628	+	F11
1778871.1779833.-	1779833	1778871	-	KZN_R506	3897669.3898628.+	3897669	3898628	+	F11
4117630.4118331.+	4117630	4118331	+	KZN_R506	4144692.4145393.+	4144692	4145393	+	F11
1054611.1055093.+	1054611	1055093	+	KZN_R506	1057585.1058067.+	1057585	1058067	+	F11
2577597.2577866.+	2577597	2577866	+	KZN_R506	2595274.2595543.+	2595274	2595543	+	F11
241915.243153.-	243153	241915	-	KZN_R506	242294.243532.-	243532	242294	-	F11
2756740.2758356.+	2756740	2758356	+	KZN_R506	2775438.2777054.+	2775438	2777054	+	F11
1461783.1462028.+	1461783	1462028	+	KZN_R506	1464812.1465057.+	1464812	1465057	+	F11
2964373.2964690.-	2964690	2964373	-	KZN_R506	2981850.2982167.-	2982167	2981850	-	F11
455083.455943.-	455943	455083	-	KZN_R506	455462.456322.-	456322	455462	-	F11
710590.710832.+	710590	710832	+	KZN_R506	713573.713815.+	713573	713815	+	F11
2955945.2958281.-	2958281	2955945	-	KZN_R506	2973422.2975758.-	2975758	2973422	-	F11
2975964.2976236.+	2975964	2976236	+	KZN_R506	2993441.2993713.+	2993441	2993713	+	F11
1468909.1469223.-	1469223	1468909	-	KZN_R506	1471938.1472252.-	1472252	1471938	-	F11
4239952.4240266.+	4239952	4240266	+	KZN_R506	1471938.1472252.-	1472252	1471938	-	F11
833419.833733.+	833419	833733	+	KZN_R506	1471938.1472252.-	1472252	1471938	-	F11
1314462.1320719.+	1314462	1320719	+	KZN_R506	1317490.1323747.+	1317490	1323747	+	F11
4066512.4066706.-	4066706	4066512	-	KZN_R506	4093574.4093768.-	4093768	4093574	-	F11
768095.768469.-	768469	768095	-	KZN_R506	771078.771452.-	771452	771078	-	F11
1170157.1171467.+	1170157	1171467	+	KZN_R506	1173130.1174440.+	1173130	1174440	+	F11
1342095.1343405.-	1343405	1342095	-	KZN_R506	1173130.1174440.+	1173130	1174440	+	F11
2824397.2825707.-	2825707	2824397	-	KZN_R506	1173130.1174440.+	1173130	1174440	+	F11
3376640.3377950.-	3377950	3376640	-	KZN_R506	1173130.1174440.+	1173130	1174440	+	F11
3478013.3479323.+	3478013	3479323	+	KZN_R506	1173130.1174440.+	1173130	1174440	+	F11
1410222.1410695.-	1410695	1410222	-	KZN_R506	1413251.1413724.-	1413724	1413251	-	F11
800406.800627.+	800406	800627	+	KZN_R506	803390.803611.+	803390	803611	+	F11
2394961.2396307.-	2396307	2394961	-	KZN_R506	2413937.2415283.-	2415283	2413937	-	F11
547771.549801.-	549801	547771	-	KZN_R506	550755.552785.-	552785	550755	-	F11
2724820.2725110.-	2725110	2724820	-	KZN_R506	2743518.2743808.-	2743808	2743518	-	F11
3016026.3016274.-	3016274	3016026	-	KZN_R506	3033503.3033751.-	3033751	3033503	-	F11
2019165.2019284.+	2019165	2019284	+	KZN_R506	2038776.2038895.+	2038776	2038895	+	F11
1341573.1341692.+	1341573	1341692	+	KZN_R506	2038776.2038895.+	2038776	2038895	+	F11
1161650.1161769.-	1161769	1161650	-	KZN_R506	2038776.2038895.+	2038776	2038895	+	F11
2619344.2619463.-	2619463	2619344	-	KZN_R506	2038776.2038895.+	2038776	2038895	+	F11
4044878.4044997.-	4044997	4044878	-	KZN_R506	2038776.2038895.+	2038776	2038895	+	F11
2629098.2629217.-	2629217	2629098	-	KZN_R506	2038776.2038895.+	2038776	2038895	+	F11
3617081.3618844.-	3618844	3617081	-	KZN_R506	3634937.3636700.-	3636700	3634937	-	F11
2825795.2825980.+	2825795	2825980	+	KZN_R506	2843272.2843457.+	2843272	2843457	+	F11
53456.55801.+	53456	55801	+	KZN_R506	53455.55803.+	53455	55803	+	F11
2435495.2436382.-	2436382	2435495	-	KZN_R506	2454530.2455417.-	2455417	2454530	-	F11
3345538.3346383.-	3346383	3345538	-	KZN_R506	3361983.3362828.-	3362828	3361983	-	F11
627538.628533.+	627538	628533	+	KZN_R506	630521.631516.+	630521	631516	+	F11
4198142.4198921.+	4198142	4198921	+	KZN_R506	4225204.4225983.+	4225204	4225983	+	F11
1328426.1329799.-	1329799	1328426	-	KZN_R506	1331454.1332827.-	1332827	1331454	-	F11
