1077826.1078440.+	1077826	1078440	+	KZN_4207-B	3330664.3331278.-	3331278	3330664	-	KZN_R506
701710.702324.+	701710	702324	+	KZN_4207-B	3330664.3331278.-	3331278	3330664	-	KZN_R506
1217664.1218281.+	1217664	1218281	+	KZN_4207-B	3191103.3191720.-	3191720	3191103	-	KZN_R506
1311409.1312020.+	1311409	1312020	+	KZN_4207-B	3191103.3191720.-	3191720	3191103	-	KZN_R506
