732635.733132.+	732635	733132	+	KZN_605	735552.736049.+	735552	736049	+	F11
515633.516094.-	516094	515633	-	KZN_605	518543.519004.-	519004	518543	-	F11
447690.448118.+	447690	448118	+	KZN_605	447994.448422.+	447994	448422	+	F11
1737984.1742225.+	1737984	1742225	+	KZN_605	2684888.2689129.-	2689129	2684888	-	F11
2113869.2122061.+	2113869	2122061	+	KZN_605	2309143.2317335.-	2317335	2309143	-	F11
2653170.2653913.-	2653913	2653170	-	KZN_605	1764073.1764816.+	1764073	1764816	+	F11
1853594.1854109.-	1854109	1853594	-	KZN_605	2573387.2573902.+	2573387	2573902	+	F11
3807341.3807967.+	3807341	3807967	+	KZN_605	3822836.3823462.+	3822836	3823462	+	F11
959438.960856.-	960856	959438	-	KZN_605	3464689.3466107.+	3464689	3466107	+	F11
2800512.2801132.+	2800512	2801132	+	KZN_605	1616683.1617303.-	1617303	1616683	-	F11
1946247.1947323.+	1946247	1947323	+	KZN_605	2481533.2482609.-	2482609	2481533	-	F11
3303197.3303550.+	3303197	3303550	+	KZN_605	1111940.1112293.-	1112293	1111940	-	F11
3127875.3128948.+	3127875	3128948	+	KZN_605	1286820.1287893.-	1287893	1286820	-	F11
710895.711128.-	711128	710895	-	KZN_605	713812.714045.-	714045	713812	-	F11
1370133.1370753.+	1370133	1370753	+	KZN_605	3056330.3056950.-	3056950	3056330	-	F11
4056743.4057468.+	4056743	4057468	+	KZN_605	4083517.4084242.+	4083517	4084242	+	F11
3350513.3350923.+	3350513	3350923	+	KZN_605	1064634.1065044.-	1065044	1064634	-	F11
2633288.2634154.+	2633288	2634154	+	KZN_605	1783832.1784698.-	1784698	1783832	-	F11
103839.104702.-	104702	103839	-	KZN_605	1783832.1784698.-	1784698	1783832	-	F11
3874981.3875844.+	3874981	3875844	+	KZN_605	1783832.1784698.-	1784698	1783832	-	F11
2284169.2284342.+	2284169	2284342	+	KZN_605	2146660.2146833.-	2146833	2146660	-	F11
3071541.3072713.-	3072713	3071541	-	KZN_605	1343117.1344289.+	1343117	1344289	+	F11
2878487.2879674.+	2878487	2879674	+	KZN_605	1343117.1344289.+	1343117	1344289	+	F11
3883998.3885176.+	3883998	3885176	+	KZN_605	1343117.1344289.+	1343117	1344289	+	F11
3609014.3609604.-	3609604	3609014	-	KZN_605	3621559.3622149.-	3622149	3621559	-	F11
3149789.3150025.-	3150025	3149789	-	KZN_605	1265689.1265925.+	1265689	1265925	+	F11
3219558.3220967.+	3219558	3220967	+	KZN_605	1194527.1195936.-	1195936	1194527	-	F11
743563.747210.+	743563	747210	+	KZN_605	746480.750127.+	746480	750127	+	F11
4031436.4032347.-	4032347	4031436	-	KZN_605	4057988.4058899.-	4058899	4057988	-	F11
2724119.2725408.-	2725408	2724119	-	KZN_605	1692578.1693867.+	1692578	1693867	+	F11
3467060.3467452.-	3467452	3467060	-	KZN_605	948158.948550.+	948158	948550	+	F11
1982097.1983020.+	1982097	1983020	+	KZN_605	2445834.2446757.-	2446757	2445834	-	F11
307816.309378.-	309378	307816	-	KZN_605	308194.309756.-	309756	308194	-	F11
1893534.1894349.-	1894349	1893534	-	KZN_605	2534506.2535321.+	2534506	2535321	+	F11
1559661.1560671.-	1560671	1559661	-	KZN_605	2866574.2867584.+	2866574	2867584	+	F11
207395.208357.+	207395	208357	+	KZN_605	207774.208736.+	207774	208736	+	F11
3416392.3416670.-	3416670	3416392	-	KZN_605	998887.999165.+	998887	999165	+	F11
2298441.2299127.-	2299127	2298441	-	KZN_605	2131875.2132561.+	2131875	2132561	+	F11
26014.26979.-	26979	26014	-	KZN_605	26014.26979.-	26979	26014	-	F11
204005.205174.+	204005	205174	+	KZN_605	204384.205553.+	204384	205553	+	F11
3281617.3282588.-	3282588	3281617	-	KZN_605	1132902.1133873.+	1132902	1133873	+	F11
3142987.3143802.+	3142987	3143802	+	KZN_605	1271967.1272782.-	1272782	1271967	-	F11
68519.68680.+	68519	68680	+	KZN_605	68522.68683.+	68522	68683	+	F11
1123370.1123900.-	1123900	1123370	-	KZN_605	3301178.3301708.+	3301178	3301708	+	F11
918759.919418.-	919418	918759	-	KZN_605	921423.922082.-	922082	921423	-	F11
1249824.1251668.-	1251668	1249824	-	KZN_605	3173909.3175753.+	3173909	3175753	+	F11
3632872.3634296.+	3632872	3634296	+	KZN_605	3645417.3646841.+	3645417	3646841	+	F11
65092.65517.+	65092	65517	+	KZN_605	65095.65520.+	65095	65520	+	F11
3433598.3434875.+	3433598	3434875	+	KZN_605	980682.981959.-	981959	980682	-	F11
1036928.1037293.+	1036928	1037293	+	KZN_605	3388199.3388564.-	3388564	3388199	-	F11
678038.678886.-	678886	678038	-	KZN_605	680955.681803.-	681803	680955	-	F11
2487935.2488102.+	2487935	2488102	+	KZN_605	1929711.1929878.-	1929878	1929711	-	F11
831860.832666.+	831860	832666	+	KZN_605	834724.835530.+	834724	835530	+	F11
2365328.2366230.-	2366230	2365328	-	KZN_605	2064773.2065675.+	2064773	2065675	+	F11
1790365.1790484.+	1790365	1790484	+	KZN_605	2637020.2637139.-	2637139	2637020	-	F11
3071110.3071229.-	3071229	3071110	-	KZN_605	2637020.2637139.-	2637139	2637020	-	F11
3250749.3250868.+	3250749	3250868	+	KZN_605	2637020.2637139.-	2637139	2637020	-	F11
4046524.4046643.-	4046643	4046524	-	KZN_605	2637020.2637139.-	2637139	2637020	-	F11
2393466.2393585.-	2393585	2393466	-	KZN_605	2637020.2637139.-	2637139	2637020	-	F11
2297763.2297981.+	2297763	2297981	+	KZN_605	2133021.2133239.-	2133239	2133021	-	F11
1031112.1032407.+	1031112	1032407	+	KZN_605	1173145.1174440.+	1173145	1174440	+	F11
1584076.1585371.+	1584076	1585371	+	KZN_605	1173145.1174440.+	1173145	1174440	+	F11
3069412.3070707.+	3069412	3070707	+	KZN_605	1173145.1174440.+	1173145	1174440	+	F11
3241051.3242346.-	3242346	3241051	-	KZN_605	1173145.1174440.+	1173145	1174440	+	F11
3481981.3483276.+	3481981	3483276	+	KZN_605	1173145.1174440.+	1173145	1174440	+	F11
3435763.3437442.+	3435763	3437442	+	KZN_605	978115.979794.-	979794	978115	-	F11
1483570.1483857.-	1483857	1483570	-	KZN_605	2943387.2943674.+	2943387	2943674	+	F11
878024.879661.-	879661	878024	-	KZN_605	880688.882325.-	882325	880688	-	F11
1433855.1434322.+	1433855	1434322	+	KZN_605	2992922.2993389.-	2993389	2992922	-	F11
2525717.2526112.-	2526112	2525717	-	KZN_605	1891701.1892096.+	1891701	1892096	+	F11
110436.117668.+	110436	117668	+	KZN_605	110441.117673.+	110441	117673	+	F11
1790365.1790484.+	1790365	1790484	+	KZN_605	4073298.4073417.-	4073417	4073298	-	F11
3250749.3250868.+	3250749	3250868	+	KZN_605	4073298.4073417.-	4073417	4073298	-	F11
4046524.4046643.-	4046643	4046524	-	KZN_605	4073298.4073417.-	4073417	4073298	-	F11
3071110.3071229.-	3071229	3071110	-	KZN_605	4073298.4073417.-	4073417	4073298	-	F11
2393466.2393585.-	2393585	2393466	-	KZN_605	4073298.4073417.-	4073417	4073298	-	F11
1300675.1301304.+	1300675	1301304	+	KZN_605	3124420.3125049.-	3125049	3124420	-	F11
2134977.2135300.-	2135300	2134977	-	KZN_605	2295906.2296229.+	2295906	2296229	+	F11
186432.186560.-	186560	186432	-	KZN_605	186811.186939.-	186939	186811	-	F11
1466816.1467493.-	1467493	1466816	-	KZN_605	2959751.2960428.+	2959751	2960428	+	F11
1071701.1073929.-	1073929	1071701	-	KZN_605	3351563.3353791.+	3351563	3353791	+	F11
4084521.4085684.-	4085684	4084521	-	KZN_605	4109937.4111100.-	4111100	4109937	-	F11
2474941.2475168.+	2474941	2475168	+	KZN_605	1942644.1942871.-	1942871	1942644	-	F11
2583423.2585642.-	2585642	2583423	-	KZN_605	1832343.1834562.+	1832343	1834562	+	F11
4298216.4298629.+	4298216	4298629	+	KZN_605	4323402.4323815.+	4323402	4323815	+	F11
2105668.2108457.+	2105668	2108457	+	KZN_605	2322743.2325532.-	2325532	2322743	-	F11
2821322.2821786.-	2821786	2821322	-	KZN_605	1596030.1596494.+	1596030	1596494	+	F11
1089112.1089897.+	1089112	1089897	+	KZN_605	3335182.3335967.-	3335967	3335182	-	F11
3720678.3721064.+	3720678	3721064	+	KZN_605	3735983.3736369.+	3735983	3736369	+	F11
3237935.3238843.-	3238843	3237935	-	KZN_605	1176648.1177556.+	1176648	1177556	+	F11
4234329.4237625.+	4234329	4237625	+	KZN_605	4259515.4262811.+	4259515	4262811	+	F11
4398101.4398451.-	4398451	4398101	-	KZN_605	4423416.4423766.-	4423766	4423416	-	F11
2073243.2073548.-	2073548	2073243	-	KZN_605	2358998.2359303.+	2358998	2359303	+	F11
1709980.1710549.-	1710549	1709980	-	KZN_605	2717922.2718491.+	2717922	2718491	+	F11
1698444.1699670.+	1698444	1699670	+	KZN_605	2728798.2730024.-	2730024	2728798	-	F11
3072763.3073062.-	3073062	3072763	-	KZN_605	1342768.1343067.+	1342768	1343067	+	F11
3211348.3212187.+	3211348	3212187	+	KZN_605	1203196.1204146.-	1204146	1203196	-	F11
4307640.4307855.+	4307640	4307855	+	KZN_605	4332826.4333041.+	4332826	4333041	+	F11
2695641.2699177.+	2695641	2699177	+	KZN_605	1718809.1722345.-	1722345	1718809	-	F11
2880920.2881144.+	2880920	2881144	+	KZN_605	1536672.1536896.-	1536896	1536672	-	F11
4068747.4068938.+	4068747	4068938	+	KZN_605	4094163.4094354.+	4094163	4094354	+	F11
2307336.2309672.-	2309672	2307336	-	KZN_605	2121331.2123667.+	2121331	2123667	+	F11
4193353.4193655.+	4193353	4193655	+	KZN_605	4218539.4218841.+	4218539	4218841	+	F11
4085681.4086754.-	4086754	4085681	-	KZN_605	4111097.4112170.-	4112170	4111097	-	F11
181924.183147.-	183147	181924	-	KZN_605	182303.183526.-	183526	182303	-	F11
3839772.3839927.-	3839927	3839772	-	KZN_605	3862555.3862710.-	3862710	3862555	-	F11
1707061.1707780.-	1707780	1707061	-	KZN_605	2720691.2721410.+	2720691	2721410	+	F11
3455507.3456718.-	3456718	3455507	-	KZN_605	958892.960103.+	958892	960103	+	F11
3387609.3387866.-	3387866	3387609	-	KZN_605	1027691.1027948.+	1027691	1027948	+	F11
1031112.1032407.+	1031112	1032407	+	KZN_605	3393085.3394380.-	3394380	3393085	-	F11
1584076.1585371.+	1584076	1585371	+	KZN_605	3393085.3394380.-	3394380	3393085	-	F11
3069412.3070707.+	3069412	3070707	+	KZN_605	3393085.3394380.-	3394380	3393085	-	F11
3241051.3242346.-	3242346	3241051	-	KZN_605	3393085.3394380.-	3394380	3393085	-	F11
3481981.3483276.+	3481981	3483276	+	KZN_605	3393085.3394380.-	3394380	3393085	-	F11
3890062.3890808.-	3890808	3890062	-	KZN_605	3912846.3913592.-	3913592	3912846	-	F11
882281.882670.-	882670	882281	-	KZN_605	884945.885334.-	885334	884945	-	F11
736609.737514.-	737514	736609	-	KZN_605	739526.740431.-	740431	739526	-	F11
2551240.2551752.-	2551752	2551240	-	KZN_605	1866232.1866744.+	1866232	1866744	+	F11
232168.234414.+	232168	234414	+	KZN_605	232547.234793.+	232547	234793	+	F11
3568329.3570518.-	3570518	3568329	-	KZN_605	3580874.3583063.-	3583063	3580874	-	F11
1217784.1218395.+	1217784	1218395	+	KZN_605	3207074.3207685.-	3207685	3207074	-	F11
1311583.1312188.+	1311583	1312188	+	KZN_605	3207074.3207685.-	3207685	3207074	-	F11
842941.843078.-	843078	842941	-	KZN_605	845606.845743.-	845743	845606	-	F11
806761.807171.+	806761	807171	+	KZN_605	809625.810035.+	809625	810035	+	F11
2882026.2884638.-	2884638	2882026	-	KZN_605	1533178.1535790.+	1533178	1535790	+	F11
3458566.3458970.-	3458970	3458566	-	KZN_605	956640.957044.+	956640	957044	+	F11
709766.710659.+	709766	710659	+	KZN_605	712683.713576.+	712683	713576	+	F11
1287804.1288952.+	1287804	1288952	+	KZN_605	3136625.3137773.-	3137773	3136625	-	F11
1687966.1688199.+	1687966	1688199	+	KZN_605	2740269.2740502.-	2740502	2740269	-	F11
3213643.3213933.-	3213933	3213643	-	KZN_605	1201562.1201852.+	1201562	1201852	+	F11
1418391.1419023.-	1419023	1418391	-	KZN_605	3008060.3008692.+	3008060	3008692	+	F11
1451215.1451457.-	1451457	1451215	-	KZN_605	2975787.2976029.+	2975787	2976029	+	F11
2021594.2021824.-	2021824	2021594	-	KZN_605	2406972.2407202.+	2406972	2407202	+	F11
4015197.4015991.-	4015991	4015197	-	KZN_605	4041749.4042543.-	4042543	4041749	-	F11
3297340.3297549.+	3297340	3297549	+	KZN_605	1117941.1118150.-	1118150	1117941	-	F11
4371473.4371811.-	4371811	4371473	-	KZN_605	4396658.4396996.-	4396996	4396658	-	F11
3556531.3557565.-	3557565	3556531	-	KZN_605	3569076.3570110.-	3570110	3569076	-	F11
879826.880530.+	879826	880530	+	KZN_605	882490.883194.+	882490	883194	+	F11
3231144.3232325.-	3232325	3231144	-	KZN_605	1183166.1184347.+	1183166	1184347	+	F11
2460739.2461236.+	2460739	2461236	+	KZN_605	1957991.1958488.-	1958488	1957991	-	F11
1733151.1733360.-	1733360	1733151	-	KZN_605	2693753.2693962.+	2693753	2693962	+	F11
877525.877917.-	877917	877525	-	KZN_605	880189.880581.-	880581	880189	-	F11
2709253.2710299.-	2710299	2709253	-	KZN_605	1707687.1708733.+	1707687	1708733	+	F11
3720926.3721570.+	3720926	3721570	+	KZN_605	3736231.3736875.+	3736231	3736875	+	F11
1438283.1438699.+	1438283	1438699	+	KZN_605	2988545.2988961.-	2988961	2988545	-	F11
2393906.2394205.-	2394205	2393906	-	KZN_605	2038157.2038456.+	2038157	2038456	+	F11
2087593.2088366.+	2087593	2088366	+	KZN_605	2342834.2343607.-	2343607	2342834	-	F11
4148327.4148728.-	4148728	4148327	-	KZN_605	4173513.4173914.-	4173914	4173513	-	F11
580757.580963.-	580963	580757	-	KZN_605	583666.583872.-	583872	583666	-	F11
2492863.2493453.+	2492863	2493453	+	KZN_605	1924360.1924950.-	1924950	1924360	-	F11
736609.737556.-	737556	736609	-	KZN_605	739526.740473.-	740473	739526	-	F11
2276448.2277572.+	2276448	2277572	+	KZN_605	2153430.2154554.-	2154554	2153430	-	F11
1692353.1693018.+	1692353	1693018	+	KZN_605	2735450.2736115.-	2736115	2735450	-	F11
1976705.1977370.+	1976705	1977370	+	KZN_605	2735450.2736115.-	2736115	2735450	-	F11
2035473.2035988.+	2035473	2035988	+	KZN_605	2392808.2393323.-	2393323	2392808	-	F11
1783915.1784142.-	1784142	1783915	-	KZN_605	2643362.2643589.+	2643362	2643589	+	F11
179256.180833.-	180833	179256	-	KZN_605	179635.181212.-	181212	179635	-	F11
103839.104798.-	104798	103839	-	KZN_605	103843.104802.-	104802	103843	-	F11
3874885.3875844.+	3874885	3875844	+	KZN_605	103843.104802.-	104802	103843	-	F11
2633192.2634154.+	2633192	2634154	+	KZN_605	103843.104802.-	104802	103843	-	F11
3844867.3845721.-	3845721	3844867	-	KZN_605	3867651.3868505.-	3868505	3867651	-	F11
4151530.4152813.+	4151530	4152813	+	KZN_605	4176716.4177999.+	4176716	4177999	+	F11
1490745.1492406.-	1492406	1490745	-	KZN_605	2934838.2936499.+	2934838	2936499	+	F11
4356333.4357985.-	4357985	4356333	-	KZN_605	4381518.4383170.-	4383170	4381518	-	F11
3047914.3048561.+	3047914	3048561	+	KZN_605	1367268.1367915.-	1367915	1367268	-	F11
1306111.1306458.+	1306111	1306458	+	KZN_605	3119266.3119613.-	3119613	3119266	-	F11
2511774.2511998.-	2511998	2511774	-	KZN_605	1905815.1906039.+	1905815	1906039	+	F11
1860573.1860767.-	1860767	1860573	-	KZN_605	2566729.2566923.+	2566729	2566923	+	F11
1278441.1279343.+	1278441	1279343	+	KZN_605	3146234.3147136.-	3147136	3146234	-	F11
591711.591812.+	591711	591812	+	KZN_605	594620.594721.+	594620	594721	+	F11
3330679.3332991.-	3332991	3330679	-	KZN_605	1082566.1084878.+	1082566	1084878	+	F11
658638.659660.+	658638	659660	+	KZN_605	661546.662568.+	661546	662568	+	F11
466930.467664.-	467664	466930	-	KZN_605	469840.470574.-	470574	469840	-	F11
27094.27402.+	27094	27402	+	KZN_605	27094.27402.+	27094	27402	+	F11
739638.740498.-	740498	739638	-	KZN_605	742555.743415.-	743415	742555	-	F11
2672102.2673508.-	2673508	2672102	-	KZN_605	1744478.1745884.+	1744478	1745884	+	F11
1909556.1910314.-	1910314	1909556	-	KZN_605	2518541.2519299.+	2518541	2519299	+	F11
3834440.3834922.-	3834922	3834440	-	KZN_605	3849878.3850360.-	3850360	3849878	-	F11
1841483.1841692.+	1841483	1841692	+	KZN_605	2585804.2586013.-	2586013	2585804	-	F11
4290601.4291206.-	4291206	4290601	-	KZN_605	4315787.4316392.-	4316392	4315787	-	F11
1311583.1312188.+	1311583	1312188	+	KZN_605	4315787.4316392.-	4316392	4315787	-	F11
4091260.4092123.-	4092123	4091260	-	KZN_605	4116676.4117539.-	4117539	4116676	-	F11
3335637.3336437.+	3335637	3336437	+	KZN_605	1079120.1079920.-	1079920	1079120	-	F11
1140396.1141412.-	1141412	1140396	-	KZN_605	3283666.3284682.+	3283666	3284682	+	F11
3232971.3233117.+	3232971	3233117	+	KZN_605	1182374.1182520.-	1182520	1182374	-	F11
2872677.2872937.-	2872937	2872677	-	KZN_605	1544879.1545139.+	1544879	1545139	+	F11
1702496.1703446.+	1702496	1703446	+	KZN_605	2725025.2725975.-	2725975	2725025	-	F11
4002713.4003312.+	4002713	4003312	+	KZN_605	4029265.4029864.+	4029265	4029864	+	F11
131025.131234.-	131234	131025	-	KZN_605	131030.131239.-	131239	131030	-	F11
677436.678002.-	678002	677436	-	KZN_605	680353.680919.-	680919	680353	-	F11
339426.341960.-	341960	339426	-	KZN_605	339701.342235.-	342235	339701	-	F11
3035228.3035833.+	3035228	3035833	+	KZN_605	1379996.1380601.-	1380601	1379996	-	F11
3244910.3245941.+	3244910	3245941	+	KZN_605	1169550.1170581.-	1170581	1169550	-	F11
2083300.2083551.+	2083300	2083551	+	KZN_605	2347649.2347900.-	2347900	2347649	-	F11
4022827.4023525.-	4023525	4022827	-	KZN_605	4049379.4050077.-	4050077	4049379	-	F11
1901465.1904257.-	1904257	1901465	-	KZN_605	2524598.2527390.+	2524598	2527390	+	F11
1157917.1162533.-	1162533	1157917	-	KZN_605	3262545.3267161.+	3262545	3267161	+	F11
1676963.1679002.+	1676963	1679002	+	KZN_605	2749466.2751505.-	2751505	2749466	-	F11
2516342.2517337.-	2517337	2516342	-	KZN_605	1900476.1901471.+	1900476	1901471	+	F11
3778484.3781780.-	3781780	3778484	-	KZN_605	3793976.3797272.-	3797272	3793976	-	F11
4371967.4373199.-	4373199	4371967	-	KZN_605	4397152.4398384.-	4398384	4397152	-	F11
3302473.3303144.+	3302473	3303144	+	KZN_605	1112346.1113017.-	1113017	1112346	-	F11
1035112.1035288.+	1035112	1035288	+	KZN_605	3390204.3390380.-	3390380	3390204	-	F11
3140861.3141943.-	3141943	3140861	-	KZN_605	1273826.1274908.+	1273826	1274908	+	F11
1549518.1550720.+	1549518	1550720	+	KZN_605	2876525.2877727.-	2877727	2876525	-	F11
1531781.1532170.-	1532170	1531781	-	KZN_605	2895075.2895464.+	2895075	2895464	+	F11
3272814.3273422.-	3273422	3272814	-	KZN_605	1142068.1142676.+	1142068	1142676	+	F11
3540441.3541787.+	3540441	3541787	+	KZN_605	3551628.3552974.+	3551628	3552974	+	F11
3556075.3556284.+	3556075	3556284	+	KZN_605	3568620.3568829.+	3568620	3568829	+	F11
3838093.3838629.+	3838093	3838629	+	KZN_605	3854327.3854857.+	3854327	3854857	+	F11
427082.427639.-	427639	427082	-	KZN_605	427326.427883.-	427883	427326	-	F11
3316858.3317052.+	3316858	3317052	+	KZN_605	1098439.1098633.-	1098633	1098439	-	F11
4130504.4131691.-	4131691	4130504	-	KZN_605	4155749.4156936.-	4156936	4155749	-	F11
3862011.3863423.-	3863423	3862011	-	KZN_605	3884795.3886207.-	3886207	3884795	-	F11
3792073.3793062.-	3793062	3792073	-	KZN_605	3807565.3808554.-	3808554	3807565	-	F11
1288956.1289981.+	1288956	1289981	+	KZN_605	3135596.3136621.-	3136621	3135596	-	F11
1660800.1660946.+	1660800	1660946	+	KZN_605	2767522.2767668.-	2767668	2767522	-	F11
1843001.1843660.-	1843660	1843001	-	KZN_605	2583836.2584495.+	2583836	2584495	+	F11
2638728.2639420.+	2638728	2639420	+	KZN_605	1778566.1779258.-	1779258	1778566	-	F11
2225601.2227049.-	2227049	2225601	-	KZN_605	2204160.2205608.+	2204160	2205608	+	F11
3134257.3135705.+	3134257	3135705	+	KZN_605	2204160.2205608.+	2204160	2205608	+	F11
3504881.3505213.-	3505213	3504881	-	KZN_605	3516068.3516400.-	3516400	3516068	-	F11
1270311.1271630.+	1270311	1271630	+	KZN_605	3153947.3155266.-	3155266	3153947	-	F11
1605625.1605846.-	1605846	1605625	-	KZN_605	2821401.2821622.+	2821401	2821622	+	F11
3353432.3354085.+	3353432	3354085	+	KZN_605	1061472.1062125.-	1062125	1061472	-	F11
602084.603022.+	602084	603022	+	KZN_605	604993.605931.+	604993	605931	+	F11
2051497.2051793.+	2051497	2051793	+	KZN_605	2380833.2381129.-	2381129	2380833	-	F11
1013578.1014363.+	1013578	1014363	+	KZN_605	3411129.3411914.-	3411914	3411129	-	F11
1279346.1280230.+	1279346	1280230	+	KZN_605	3145347.3146231.-	3146231	3145347	-	F11
131513.133003.+	131513	133003	+	KZN_605	131518.133008.+	131518	133008	+	F11
1218395.1219774.+	1218395	1219774	+	KZN_605	3205695.3207074.-	3207074	3205695	-	F11
3481009.3481320.+	3481009	3481320	+	KZN_605	3493554.3493865.+	3493554	3493865	+	F11
2190281.2190553.-	2190553	2190281	-	KZN_605	2240653.2240925.+	2240653	2240925	+	F11
1676807.1677085.-	1677085	1676807	-	KZN_605	2751383.2751661.+	2751383	2751661	+	F11
603046.604752.+	603046	604752	+	KZN_605	605955.607661.+	605955	607661	+	F11
1906453.1907220.-	1907220	1906453	-	KZN_605	2521635.2522402.+	2521635	2522402	+	F11
2126994.2127311.+	2126994	2127311	+	KZN_605	2303894.2304211.-	2304211	2303894	-	F11
2321165.2321791.-	2321791	2321165	-	KZN_605	2109212.2109838.+	2109212	2109838	+	F11
1099877.1100290.+	1099877	1100290	+	KZN_605	3324789.3325202.-	3325202	3324789	-	F11
703124.703510.+	703124	703510	+	KZN_605	706041.706427.+	706041	706427	+	F11
3182564.3183265.-	3183265	3182564	-	KZN_605	1232450.1233151.+	1232450	1233151	+	F11
1021004.1022236.-	1022236	1021004	-	KZN_605	3403256.3404488.+	3403256	3404488	+	F11
142259.144016.-	144016	142259	-	KZN_605	142264.144021.-	144021	142264	-	F11
1053185.1054198.+	1053185	1054198	+	KZN_605	3371294.3372307.-	3372307	3371294	-	F11
2220858.2221211.-	2221211	2220858	-	KZN_605	2209998.2210351.+	2209998	2210351	+	F11
52912.53346.+	52912	53346	+	KZN_605	52911.53345.+	52911	53345	+	F11
2569716.2570270.-	2570270	2569716	-	KZN_605	1847715.1848269.+	1847715	1848269	+	F11
4342822.4344357.+	4342822	4344357	+	KZN_605	4368007.4369542.+	4368007	4369542	+	F11
3495536.3496117.-	3496117	3495536	-	KZN_605	3506723.3507304.-	3507304	3506723	-	F11
4051080.4052132.-	4052132	4051080	-	KZN_605	4077854.4078906.-	4078906	4077854	-	F11
1329466.1330395.+	1329466	1330395	+	KZN_605	3095329.3096258.-	3096258	3095329	-	F11
670168.671472.+	670168	671472	+	KZN_605	673076.674380.+	673076	674380	+	F11
2377267.2379186.+	2377267	2379186	+	KZN_605	2053175.2055094.-	2055094	2053175	-	F11
474010.474366.+	474010	474366	+	KZN_605	476920.477276.+	476920	477276	+	F11
476076.476444.+	476076	476444	+	KZN_605	476920.477276.+	476920	477276	+	F11
1340648.1341448.+	1340648	1341448	+	KZN_605	3085635.3086435.-	3086435	3085635	-	F11
4120145.4121275.+	4120145	4121275	+	KZN_605	4145390.4146520.+	4145390	4146520	+	F11
2052483.2053199.-	2053199	2052483	-	KZN_605	2379427.2380143.+	2379427	2380143	+	F11
562983.563753.-	563753	562983	-	KZN_605	565892.566662.-	566662	565892	-	F11
3443437.3443844.-	3443844	3443437	-	KZN_605	971713.972120.+	971713	972120	+	F11
2089087.2089644.-	2089644	2089087	-	KZN_605	2341556.2342113.+	2341556	2342113	+	F11
3829488.3830339.-	3830339	3829488	-	KZN_605	3844986.3845777.-	3845777	3844986	-	F11
3183366.3184352.+	3183366	3184352	+	KZN_605	1231363.1232349.-	1232349	1231363	-	F11
1834961.1835284.+	1834961	1835284	+	KZN_605	2592212.2592535.-	2592535	2592212	-	F11
4083125.4083805.-	4083805	4083125	-	KZN_605	4108541.4109221.-	4109221	4108541	-	F11
2998051.2998737.-	2998737	2998051	-	KZN_605	1417093.1417707.+	1417093	1417707	+	F11
1031112.1032407.+	1031112	1032407	+	KZN_605	3494526.3495821.+	3494526	3495821	+	F11
1584076.1585371.+	1584076	1585371	+	KZN_605	3494526.3495821.+	3494526	3495821	+	F11
3069412.3070707.+	3069412	3070707	+	KZN_605	3494526.3495821.+	3494526	3495821	+	F11
3241051.3242346.-	3242346	3241051	-	KZN_605	3494526.3495821.+	3494526	3495821	+	F11
3481981.3483276.+	3481981	3483276	+	KZN_605	3494526.3495821.+	3494526	3495821	+	F11
151499.152527.+	151499	152527	+	KZN_605	151503.152531.+	151503	152531	+	F11
2374717.2375064.+	2374717	2375064	+	KZN_605	2055939.2056286.-	2056286	2055939	-	F11
2411579.2412028.+	2411579	2412028	+	KZN_605	2020379.2020828.-	2020828	2020379	-	F11
2504652.2504828.-	2504828	2504652	-	KZN_605	1912985.1913161.+	1912985	1913161	+	F11
1906122.1906358.+	1906122	1906358	+	KZN_605	2522497.2522733.-	2522733	2522497	-	F11
2790503.2790742.-	2790742	2790503	-	KZN_605	1627130.1627369.+	1627130	1627369	+	F11
855029.855361.-	855361	855029	-	KZN_605	857694.858026.-	858026	857694	-	F11
3137238.3138650.-	3138650	3137238	-	KZN_605	1277119.1278531.+	1277119	1278531	+	F11
800947.801237.-	801237	800947	-	KZN_605	803865.804155.-	804155	803865	-	F11
1055216.1056181.-	1056181	1055216	-	KZN_605	3369311.3370276.+	3369311	3370276	+	F11
1035170.1035454.+	1035170	1035454	+	KZN_605	3390038.3390322.-	3390322	3390038	-	F11
1761881.1762066.-	1762066	1761881	-	KZN_605	2665048.2665233.+	2665048	2665233	+	F11
2992275.2993048.+	2992275	2993048	+	KZN_605	1422781.1423554.-	1423554	1422781	-	F11
1217808.1218395.+	1217808	1218395	+	KZN_605	3207074.3207661.-	3207661	3207074	-	F11
1311607.1312188.+	1311607	1312188	+	KZN_605	3207074.3207661.-	3207661	3207074	-	F11
4082246.4082500.-	4082500	4082246	-	KZN_605	4107662.4107916.-	4107916	4107662	-	F11
1515145.1515885.-	1515885	1515145	-	KZN_605	2911360.2912100.+	2911360	2912100	+	F11
4002581.4003312.+	4002581	4003312	+	KZN_605	4029133.4029864.+	4029133	4029864	+	F11
1236629.1238485.+	1236629	1238485	+	KZN_605	3186984.3188840.-	3188840	3186984	-	F11
3639105.3639374.-	3639374	3639105	-	KZN_605	3651650.3651919.-	3651919	3651650	-	F11
2446300.2448897.-	2448897	2446300	-	KZN_605	1970330.1972927.+	1970330	1972927	+	F11
1031112.1032407.+	1031112	1032407	+	KZN_605	2841874.2843169.-	2843169	2841874	-	F11
1584076.1585371.+	1584076	1585371	+	KZN_605	2841874.2843169.-	2843169	2841874	-	F11
3069412.3070707.+	3069412	3070707	+	KZN_605	2841874.2843169.-	2843169	2841874	-	F11
3241051.3242346.-	3242346	3241051	-	KZN_605	2841874.2843169.-	2843169	2841874	-	F11
3481981.3483276.+	3481981	3483276	+	KZN_605	2841874.2843169.-	2843169	2841874	-	F11
2621696.2623039.-	2623039	2621696	-	KZN_605	1794947.1796290.+	1794947	1796290	+	F11
2329109.2330548.+	2329109	2330548	+	KZN_605	2100455.2101894.-	2101894	2100455	-	F11
1300498.1300902.-	1300902	1300498	-	KZN_605	3124822.3125226.+	3124822	3125226	+	F11
417931.418347.+	417931	418347	+	KZN_605	418124.418540.+	418124	418540	+	F11
2772721.2773728.+	2772721	2773728	+	KZN_605	1644258.1645265.-	1645265	1644258	-	F11
1835231.1835563.-	1835563	1835231	-	KZN_605	2591933.2592265.+	2591933	2592265	+	F11
1833279.1833431.-	1833431	1833279	-	KZN_605	2594065.2594217.+	2594065	2594217	+	F11
1062712.1063509.+	1062712	1063509	+	KZN_605	3361983.3362780.-	3362780	3361983	-	F11
2334895.2335158.+	2334895	2335158	+	KZN_605	2095845.2096108.-	2096108	2095845	-	F11
2194046.2194276.-	2194276	2194046	-	KZN_605	2236930.2237160.+	2236930	2237160	+	F11
2835943.2836656.-	2836656	2835943	-	KZN_605	1581160.1581873.+	1581160	1581873	+	F11
1608758.1608964.+	1608758	1608964	+	KZN_605	2819641.2819847.-	2819847	2819641	-	F11
4200108.4200797.+	4200108	4200797	+	KZN_605	4225294.4225983.+	4225294	4225983	+	F11
738608.739471.-	739471	738608	-	KZN_605	741525.742388.-	742388	741525	-	F11
2012571.2012786.+	2012571	2012786	+	KZN_605	2416068.2416283.-	2416283	2416068	-	F11
3521218.3522450.+	3521218	3522450	+	KZN_605	3532405.3533637.+	3532405	3533637	+	F11
1393293.1393580.+	1393293	1393580	+	KZN_605	3033503.3033790.-	3033790	3033503	-	F11
2610236.2611504.-	2611504	2610236	-	KZN_605	1806482.1807750.+	1806482	1807750	+	F11
2154874.2155173.+	2154874	2155173	+	KZN_605	2276033.2276332.-	2276332	2276033	-	F11
836064.836210.-	836210	836064	-	KZN_605	838928.839074.-	839074	838928	-	F11
1708039.1708311.+	1708039	1708311	+	KZN_605	2720160.2720432.-	2720432	2720160	-	F11
508018.508845.-	508845	508018	-	KZN_605	510928.511755.-	511755	510928	-	F11
2420239.2421483.-	2421483	2420239	-	KZN_605	2009566.2010810.+	2009566	2010810	+	F11
4081568.4082113.+	4081568	4082113	+	KZN_605	4106984.4107529.+	4106984	4107529	+	F11
3885389.3888454.+	3885389	3888454	+	KZN_605	3908173.3911238.+	3908173	3911238	+	F11
1832300.1832896.-	1832896	1832300	-	KZN_605	2594600.2595196.+	2594600	2595196	+	F11
3862011.3863435.-	3863435	3862011	-	KZN_605	3884795.3886219.-	3886219	3884795	-	F11
1276927.1277319.+	1276927	1277319	+	KZN_605	3148258.3148650.-	3148650	3148258	-	F11
1229372.1230091.-	1230091	1229372	-	KZN_605	3195378.3196097.+	3195378	3196097	+	F11
2155189.2155491.-	2155491	2155189	-	KZN_605	2275715.2276017.+	2275715	2276017	+	F11
1839007.1839600.-	1839600	1839007	-	KZN_605	2587896.2588489.+	2587896	2588489	+	F11
1532639.1532962.+	1532639	1532962	+	KZN_605	2894283.2894606.-	2894606	2894283	-	F11
1111262.1113010.+	1111262	1113010	+	KZN_605	3312069.3313817.-	3313817	3312069	-	F11
3134341.3135705.+	3134341	3135705	+	KZN_605	1280064.1281428.-	1281428	1280064	-	F11
2225601.2226965.-	2226965	2225601	-	KZN_605	1280064.1281428.-	1281428	1280064	-	F11
1034439.1034747.+	1034439	1034747	+	KZN_605	3390745.3391053.-	3391053	3390745	-	F11
1503720.1506101.+	1503720	1506101	+	KZN_605	2921143.2923524.-	2923524	2921143	-	F11
994420.995070.+	994420	995070	+	KZN_605	3430422.3431072.-	3431072	3430422	-	F11
2109071.2109295.+	2109071	2109295	+	KZN_605	2321905.2322129.-	2322129	2321905	-	F11
552009.552248.+	552009	552248	+	KZN_605	554918.555157.+	554918	555157	+	F11
1087502.1087672.-	1087672	1087502	-	KZN_605	3337407.3337577.+	3337407	3337577	+	F11
1555670.1556074.+	1555670	1556074	+	KZN_605	2871171.2871575.-	2871575	2871171	-	F11
475586.476002.+	475586	476002	+	KZN_605	478496.478912.+	478496	478912	+	F11
2580352.2582022.+	2580352	2582022	+	KZN_605	1835963.1837633.-	1837633	1835963	-	F11
437694.438338.-	438338	437694	-	KZN_605	437998.438642.-	438642	437998	-	F11
3600028.3600255.-	3600255	3600028	-	KZN_605	3612573.3612800.-	3612800	3612573	-	F11
3127905.3128948.+	3127905	3128948	+	KZN_605	1286820.1287863.-	1287863	1286820	-	F11
3478863.3479516.+	3478863	3479516	+	KZN_605	936094.936747.-	936747	936094	-	F11
3407775.3407927.-	3407927	3407775	-	KZN_605	1007630.1007782.+	1007630	1007782	+	F11
1715761.1716090.-	1716090	1715761	-	KZN_605	2712381.2712710.+	2712381	2712710	+	F11
2434144.2434683.-	2434683	2434144	-	KZN_605	1993659.1994198.+	1993659	1994198	+	F11
1667656.1668027.+	1667656	1668027	+	KZN_605	2760441.2760812.-	2760812	2760441	-	F11
3137238.3138737.-	3138737	3137238	-	KZN_605	1277032.1278531.+	1277032	1278531	+	F11
865344.865778.+	865344	865778	+	KZN_605	868008.868442.+	868008	868442	+	F11
738608.739561.-	739561	738608	-	KZN_605	741525.742478.-	742478	741525	-	F11
3579857.3580531.+	3579857	3580531	+	KZN_605	3592402.3593076.+	3592402	3593076	+	F11
4306062.4306538.-	4306538	4306062	-	KZN_605	4331248.4331724.-	4331724	4331248	-	F11
3750196.3750687.-	3750687	3750196	-	KZN_605	4331248.4331724.-	4331724	4331248	-	F11
3645212.3646135.-	3646135	3645212	-	KZN_605	3657757.3658680.-	3658680	3657757	-	F11
3993560.3994411.-	3994411	3993560	-	KZN_605	4020112.4020963.-	4020963	4020112	-	F11
4325762.4326088.+	4325762	4326088	+	KZN_605	4350947.4351273.+	4350947	4351273	+	F11
3242493.3243086.+	3242493	3243086	+	KZN_605	1172405.1172998.-	1172998	1172405	-	F11
594107.595015.-	595015	594107	-	KZN_605	597016.597924.-	597924	597016	-	F11
1821344.1822009.+	1821344	1822009	+	KZN_605	2605487.2606152.-	2606152	2605487	-	F11
1962944.1963195.+	1962944	1963195	+	KZN_605	2465661.2465912.-	2465912	2465661	-	F11
2725461.2726462.-	2726462	2725461	-	KZN_605	1691524.1692525.+	1691524	1692525	+	F11
386518.387372.+	386518	387372	+	KZN_605	386712.387566.+	386712	387566	+	F11
1389791.1390858.+	1389791	1390858	+	KZN_605	3036225.3037292.-	3037292	3036225	-	F11
1170324.1170635.-	1170635	1170324	-	KZN_605	3254443.3254754.+	3254443	3254754	+	F11
1589325.1590671.+	1589325	1590671	+	KZN_605	2836574.2837920.-	2837920	2836574	-	F11
2729345.2731192.-	2731192	2729345	-	KZN_605	1686794.1688641.+	1686794	1688641	+	F11
2621696.2623012.-	2623012	2621696	-	KZN_605	1794974.1796290.+	1794974	1796290	+	F11
3299499.3300110.-	3300110	3299499	-	KZN_605	1115380.1115991.+	1115380	1115991	+	F11
3522443.3523078.+	3522443	3523078	+	KZN_605	3533630.3534265.+	3533630	3534265	+	F11
1047953.1049074.-	1049074	1047953	-	KZN_605	3376418.3377539.+	3376418	3377539	+	F11
842235.842408.+	842235	842408	+	KZN_605	844900.845073.+	844900	845073	+	F11
333099.333272.-	333272	333099	-	KZN_605	844900.845073.+	844900	845073	+	F11
1468897.1470327.+	1468897	1470327	+	KZN_605	2956917.2958347.-	2958347	2956917	-	F11
1943468.1944214.-	1944214	1943468	-	KZN_605	2484642.2485388.+	2484642	2485388	+	F11
3146492.3146860.+	3146492	3146860	+	KZN_605	1268851.1269219.-	1269219	1268851	-	F11
1846655.1847722.-	1847722	1846655	-	KZN_605	2579774.2580841.+	2579774	2580841	+	F11
3205279.3205740.+	3205279	3205740	+	KZN_605	1209754.1210215.-	1210215	1209754	-	F11
2024947.2025150.-	2025150	2024947	-	KZN_605	2403646.2403849.+	2403646	2403849	+	F11
2943634.2943948.+	2943634	2943948	+	KZN_605	4267014.4267328.+	4267014	4267328	+	F11
4241828.4242142.+	4241828	4242142	+	KZN_605	4267014.4267328.+	4267014	4267328	+	F11
833539.833853.+	833539	833853	+	KZN_605	4267014.4267328.+	4267014	4267328	+	F11
1638229.1638522.-	1638522	1638229	-	KZN_605	2789946.2790239.+	2789946	2790239	+	F11
1368505.1370142.+	1368505	1370142	+	KZN_605	3056941.3058578.-	3058578	3056941	-	F11
566042.566656.+	566042	566656	+	KZN_605	568951.569565.+	568951	569565	+	F11
1657075.1659051.+	1657075	1659051	+	KZN_605	2769417.2771393.-	2771393	2769417	-	F11
3251290.3251628.+	3251290	3251628	+	KZN_605	1163863.1164201.-	1164201	1163863	-	F11
3324383.3325978.+	3324383	3325978	+	KZN_605	1089579.1091174.-	1091174	1089579	-	F11
274650.274844.-	274844	274650	-	KZN_605	275028.275222.-	275222	275028	-	F11
1426017.1427603.-	1427603	1426017	-	KZN_605	2999641.3001227.+	2999641	3001227	+	F11
1031097.1032407.+	1031097	1032407	+	KZN_605	2841874.2843184.-	2843184	2841874	-	F11
1584061.1585371.+	1584061	1585371	+	KZN_605	2841874.2843184.-	2843184	2841874	-	F11
3069397.3070707.+	3069397	3070707	+	KZN_605	2841874.2843184.-	2843184	2841874	-	F11
3241051.3242361.-	3242361	3241051	-	KZN_605	2841874.2843184.-	2843184	2841874	-	F11
3481966.3483276.+	3481966	3483276	+	KZN_605	2841874.2843184.-	2843184	2841874	-	F11
760633.764169.+	760633	764169	+	KZN_605	763550.767086.+	763550	767086	+	F11
3138671.3139582.-	3139582	3138671	-	KZN_605	1276187.1277098.+	1276187	1277098	+	F11
3750196.3750720.-	3750720	3750196	-	KZN_605	3765688.3766212.-	3766212	3765688	-	F11
4306062.4306571.-	4306571	4306062	-	KZN_605	3765688.3766212.-	3766212	3765688	-	F11
560148.561008.+	560148	561008	+	KZN_605	563057.563917.+	563057	563917	+	F11
1050097.1050435.-	1050435	1050097	-	KZN_605	3375057.3375395.+	3375057	3375395	+	F11
4291213.4292838.-	4292838	4291213	-	KZN_605	4316399.4318024.-	4318024	4316399	-	F11
1946037.1947323.+	1946037	1947323	+	KZN_605	2481533.2482819.-	2482819	2481533	-	F11
1359637.1361316.-	1361316	1359637	-	KZN_605	3065767.3067446.+	3065767	3067446	+	F11
984262.986544.-	986544	984262	-	KZN_605	3439001.3441283.+	3439001	3441283	+	F11
144180.145757.+	144180	145757	+	KZN_605	144185.145762.+	144185	145762	+	F11
4371967.4373286.-	4373286	4371967	-	KZN_605	4397152.4398471.-	4398471	4397152	-	F11
875440.877596.+	875440	877596	+	KZN_605	878104.880260.+	878104	880260	+	F11
1882742.1883380.-	1883380	1882742	-	KZN_605	2545475.2546113.+	2545475	2546113	+	F11
1838786.1839220.-	1839220	1838786	-	KZN_605	2588276.2588710.+	2588276	2588710	+	F11
677436.677927.-	677927	677436	-	KZN_605	680353.680844.-	680844	680353	-	F11
2269558.2269788.+	2269558	2269788	+	KZN_605	2161214.2161444.-	2161444	2161214	-	F11
3994396.3994662.-	3994662	3994396	-	KZN_605	4020948.4021214.-	4021214	4020948	-	F11
984031.984213.-	984213	984031	-	KZN_605	3441332.3441514.+	3441332	3441514	+	F11
2307336.2309750.-	2309750	2307336	-	KZN_605	2121253.2123667.+	2121253	2123667	+	F11
4094755.4095111.+	4094755	4095111	+	KZN_605	4120171.4120527.+	4120171	4120527	+	F11
1075911.1076987.+	1075911	1076987	+	KZN_605	3348505.3349581.-	3349581	3348505	-	F11
544996.545550.-	545550	544996	-	KZN_605	547905.548459.-	548459	547905	-	F11
3596784.3596999.-	3596999	3596784	-	KZN_605	3609329.3609544.-	3609544	3609329	-	F11
2702347.2702616.-	2702616	2702347	-	KZN_605	1715370.1715639.+	1715370	1715639	+	F11
2986148.2986624.+	2986148	2986624	+	KZN_605	1429205.1429681.-	1429681	1429205	-	F11
3298262.3299338.-	3299338	3298262	-	KZN_605	1116152.1117228.+	1116152	1117228	+	F11
1451522.1453822.+	1451522	1453822	+	KZN_605	2973422.2975722.-	2975722	2973422	-	F11
2400677.2403475.-	2403475	2400677	-	KZN_605	2028932.2031730.+	2028932	2031730	+	F11
1707061.1708035.-	1708035	1707061	-	KZN_605	2720436.2721410.+	2720436	2721410	+	F11
3834913.3835548.-	3835548	3834913	-	KZN_605	3850351.3850986.-	3850986	3850351	-	F11
543455.544990.+	543455	544990	+	KZN_605	546364.547899.+	546364	547899	+	F11
2775170.2777386.+	2775170	2777386	+	KZN_605	1640600.1642816.-	1642816	1640600	-	F11
1382630.1383340.-	1383340	1382630	-	KZN_605	3043743.3044453.+	3043743	3044453	+	F11
2465282.2466835.+	2465282	2466835	+	KZN_605	1952392.1953945.-	1953945	1952392	-	F11
1334611.1335819.+	1334611	1335819	+	KZN_605	3091264.3092472.-	3092472	3091264	-	F11
3044602.3045690.-	3045690	3044602	-	KZN_605	1370139.1371227.+	1370139	1371227	+	F11
1095320.1095505.-	1095505	1095320	-	KZN_605	3329574.3329759.+	3329574	3329759	+	F11
849307.851247.-	851247	849307	-	KZN_605	851972.853912.-	853912	851972	-	F11
709667.710659.+	709667	710659	+	KZN_605	712584.713576.+	712584	713576	+	F11
882896.883624.+	882896	883624	+	KZN_605	885560.886288.+	885560	886288	+	F11
1105052.1106026.+	1105052	1106026	+	KZN_605	3319053.3320027.-	3320027	3319053	-	F11
1628636.1628893.-	1628893	1628636	-	KZN_605	2799578.2799835.+	2799578	2799835	+	F11
2846777.2848033.-	2848033	2846777	-	KZN_605	1569782.1571038.+	1569782	1571038	+	F11
2618564.2619301.-	2619301	2618564	-	KZN_605	1798685.1799422.+	1798685	1799422	+	F11
3252416.3252805.+	3252416	3252805	+	KZN_605	1162686.1163075.-	1163075	1162686	-	F11
704296.704523.+	704296	704523	+	KZN_605	707213.707440.+	707213	707440	+	F11
1993290.1993631.+	1993290	1993631	+	KZN_605	2435223.2435564.-	2435564	2435223	-	F11
2456586.2456918.-	2456918	2456586	-	KZN_605	1962309.1962641.+	1962309	1962641	+	F11
1910624.1910995.+	1910624	1910995	+	KZN_605	2517860.2518231.-	2518231	2517860	-	F11
711093.711320.+	711093	711320	+	KZN_605	714010.714237.+	714010	714237	+	F11
2773756.2775021.-	2775021	2773756	-	KZN_605	1642965.1644230.+	1642965	1644230	+	F11
1796178.1796435.-	1796435	1796178	-	KZN_605	2631069.2631326.+	2631069	2631326	+	F11
2926347.2926805.+	2926347	2926805	+	KZN_605	1492112.1492570.-	1492570	1492112	-	F11
200911.202416.+	200911	202416	+	KZN_605	201290.202795.+	201290	202795	+	F11
1822555.1823985.+	1822555	1823985	+	KZN_605	2603511.2604941.-	2604941	2603511	-	F11
2476060.2476167.-	2476167	2476060	-	KZN_605	1941645.1941752.+	1941645	1941752	+	F11
2095121.2095447.-	2095447	2095121	-	KZN_605	2335753.2336079.+	2335753	2336079	+	F11
1882243.1882665.+	1882243	1882665	+	KZN_605	2546190.2546612.-	2546612	2546190	-	F11
545095.545445.+	545095	545445	+	KZN_605	548004.548354.+	548004	548354	+	F11
3668121.3668558.-	3668558	3668121	-	KZN_605	3680666.3681103.-	3681103	3680666	-	F11
1031112.1032407.+	1031112	1032407	+	KZN_605	1345122.1346417.-	1346417	1345122	-	F11
1584076.1585371.+	1584076	1585371	+	KZN_605	1345122.1346417.-	1346417	1345122	-	F11
3069412.3070707.+	3069412	3070707	+	KZN_605	1345122.1346417.-	1346417	1345122	-	F11
3241051.3242346.-	3242346	3241051	-	KZN_605	1345122.1346417.-	1346417	1345122	-	F11
3481981.3483276.+	3481981	3483276	+	KZN_605	1345122.1346417.-	1346417	1345122	-	F11
569224.570246.-	570246	569224	-	KZN_605	572133.573155.-	573155	572133	-	F11
2058304.2058603.+	2058304	2058603	+	KZN_605	2373943.2374242.-	2374242	2373943	-	F11
1117240.1122102.+	1117240	1122102	+	KZN_605	3302976.3307838.-	3307838	3302976	-	F11
71727.71966.+	71727	71966	+	KZN_605	71731.71970.+	71731	71970	+	F11
3289574.3290833.+	3289574	3290833	+	KZN_605	1124657.1125916.-	1125916	1124657	-	F11
4257655.4258188.-	4258188	4257655	-	KZN_605	4282841.4283374.-	4283374	4282841	-	F11
183352.183498.+	183352	183498	+	KZN_605	183731.183877.+	183731	183877	+	F11
1836498.1836680.+	1836498	1836680	+	KZN_605	2590816.2590998.-	2590998	2590816	-	F11
4289378.4290604.-	4290604	4289378	-	KZN_605	4314564.4315790.-	4315790	4314564	-	F11
4290601.4291182.-	4291182	4290601	-	KZN_605	4315787.4316368.-	4316368	4315787	-	F11
1311607.1312188.+	1311607	1312188	+	KZN_605	4315787.4316368.-	4316368	4315787	-	F11
1244583.1245356.+	1244583	1245356	+	KZN_605	3180221.3180994.-	3180994	3180221	-	F11
1881145.1882665.+	1881145	1882665	+	KZN_605	2546190.2547710.-	2547710	2546190	-	F11
1298466.1298735.-	1298735	1298466	-	KZN_605	3126989.3127258.+	3126989	3127258	+	F11
2161808.2162287.-	2162287	2161808	-	KZN_605	2268919.2269398.+	2268919	2269398	+	F11
3583020.3583877.-	3583877	3583020	-	KZN_605	3595565.3596422.-	3596422	3595565	-	F11
3234348.3234482.-	3234482	3234348	-	KZN_605	1181009.1181143.+	1181009	1181143	+	F11
2848447.2849073.-	2849073	2848447	-	KZN_605	1568742.1569368.+	1568742	1569368	+	F11
3111880.3112182.+	3111880	3112182	+	KZN_605	1303586.1303888.-	1303888	1303586	-	F11
3702634.3703122.-	3703122	3702634	-	KZN_605	3715121.3715609.-	3715609	3715121	-	F11
2134977.2135384.-	2135384	2134977	-	KZN_605	2295822.2296229.+	2295822	2296229	+	F11
257723.258796.-	258796	257723	-	KZN_605	258101.259174.-	259174	258101	-	F11
4141616.4143430.+	4141616	4143430	+	KZN_605	4166861.4168675.+	4166861	4168675	+	F11
2053309.2055858.-	2055858	2053309	-	KZN_605	2376768.2379317.+	2376768	2379317	+	F11
3019062.3022706.+	3019062	3022706	+	KZN_605	1393124.1396768.-	1396768	1393124	-	F11
661254.661589.+	661254	661589	+	KZN_605	664162.664497.+	664162	664497	+	F11
3871359.3871580.-	3871580	3871359	-	KZN_605	3894143.3894364.-	3894364	3894143	-	F11
545635.546162.-	546162	545635	-	KZN_605	548544.549071.-	549071	548544	-	F11
1331644.1332219.-	1332219	1331644	-	KZN_605	3094864.3095325.+	3094864	3095325	+	F11
2800503.2801132.+	2800503	2801132	+	KZN_605	1616683.1617312.-	1617312	1616683	-	F11
1056850.1057050.+	1056850	1057050	+	KZN_605	3368442.3368642.-	3368642	3368442	-	F11
3805064.3806644.-	3806644	3805064	-	KZN_605	3820559.3822139.-	3822139	3820559	-	F11
1311577.1312188.+	1311577	1312188	+	KZN_605	3113536.3114147.-	3114147	3113536	-	F11
701711.702325.+	701711	702325	+	KZN_605	3113536.3114147.-	3114147	3113536	-	F11
4290601.4291212.-	4291212	4290601	-	KZN_605	3113536.3114147.-	3114147	3113536	-	F11
1217778.1218395.+	1217778	1218395	+	KZN_605	3113536.3114147.-	3114147	3113536	-	F11
53765.55801.+	53765	55801	+	KZN_605	53764.55803.+	53764	55803	+	F11
3638658.3639077.+	3638658	3639077	+	KZN_605	3651203.3651622.+	3651203	3651622	+	F11
4271811.4272146.+	4271811	4272146	+	KZN_605	4296997.4297332.+	4296997	4297332	+	F11
34408.36642.+	34408	36642	+	KZN_605	34408.36711.+	34408	36711	+	F11
3232905.3233117.+	3232905	3233117	+	KZN_605	1182374.1182586.-	1182586	1182374	-	F11
1031097.1032407.+	1031097	1032407	+	KZN_605	3393085.3394395.-	3394395	3393085	-	F11
1584061.1585371.+	1584061	1585371	+	KZN_605	3393085.3394395.-	3394395	3393085	-	F11
3069397.3070707.+	3069397	3070707	+	KZN_605	3393085.3394395.-	3394395	3393085	-	F11
3241051.3242361.-	3242361	3241051	-	KZN_605	3393085.3394395.-	3394395	3393085	-	F11
3481966.3483276.+	3481966	3483276	+	KZN_605	3393085.3394395.-	3394395	3393085	-	F11
2801081.2801218.-	2801218	2801081	-	KZN_605	1616597.1616734.+	1616597	1616734	+	F11
3558018.3558200.-	3558200	3558018	-	KZN_605	3570563.3570745.-	3570745	3570563	-	F11
1394617.1394805.-	1394805	1394617	-	KZN_605	3032278.3032466.+	3032278	3032466	+	F11
1441900.1442268.-	1442268	1441900	-	KZN_605	2984976.2985344.+	2984976	2985344	+	F11
2431025.2433877.+	2431025	2433877	+	KZN_605	1994465.1997308.-	1997308	1994465	-	F11
4198895.4199599.-	4199599	4198895	-	KZN_605	4224081.4224785.-	4224785	4224081	-	F11
698215.698721.-	698721	698215	-	KZN_605	701132.701638.-	701638	701132	-	F11
1303038.1303262.+	1303038	1303262	+	KZN_605	3122462.3122686.-	3122686	3122462	-	F11
3874981.3875844.+	3874981	3875844	+	KZN_605	3897765.3898628.+	3897765	3898628	+	F11
103839.104702.-	104702	103839	-	KZN_605	3897765.3898628.+	3897765	3898628	+	F11
2633288.2634154.+	2633288	2634154	+	KZN_605	3897765.3898628.+	3897765	3898628	+	F11
3297016.3297336.+	3297016	3297336	+	KZN_605	1118154.1118474.-	1118474	1118154	-	F11
3874891.3875844.+	3874891	3875844	+	KZN_605	3897675.3898628.+	3897675	3898628	+	F11
103839.104792.-	104792	103839	-	KZN_605	3897675.3898628.+	3897675	3898628	+	F11
2633198.2634154.+	2633198	2634154	+	KZN_605	3897675.3898628.+	3897675	3898628	+	F11
1488190.1488435.-	1488435	1488190	-	KZN_605	2938809.2939054.+	2938809	2939054	+	F11
3247251.3247559.+	3247251	3247559	+	KZN_605	1167932.1168240.-	1168240	1167932	-	F11
2397711.2398928.-	2398928	2397711	-	KZN_605	2033479.2034651.+	2033479	2034651	+	F11
1359637.1361214.-	1361214	1359637	-	KZN_605	3065869.3067446.+	3065869	3067446	+	F11
4187536.4188036.-	4188036	4187536	-	KZN_605	4212722.4213222.-	4213222	4212722	-	F11
1763571.1763873.+	1763571	1763873	+	KZN_605	2663241.2663543.-	2663543	2663241	-	F11
1735169.1736152.-	1736152	1735169	-	KZN_605	2690961.2691944.+	2690961	2691944	+	F11
2027263.2028033.+	2027263	2028033	+	KZN_605	2400763.2401533.-	2401533	2400763	-	F11
3795642.3796421.+	3795642	3796421	+	KZN_605	3811134.3811913.+	3811134	3811913	+	F11
1832929.1833270.-	1833270	1832929	-	KZN_605	2594226.2594567.+	2594226	2594567	+	F11
518849.519301.+	518849	519301	+	KZN_605	521759.522211.+	521759	522211	+	F11
1373670.1374362.+	1373670	1374362	+	KZN_605	3052721.3053413.-	3053413	3052721	-	F11
33683.33895.+	33683	33895	+	KZN_605	33683.33895.+	33683	33895	+	F11
85765.86619.-	86619	85765	-	KZN_605	85769.86623.-	86623	85769	-	F11
2026966.2028033.+	2026966	2028033	+	KZN_605	2400763.2401830.-	2401830	2400763	-	F11
2027000.2027266.+	2027000	2027266	+	KZN_605	2401530.2401796.-	2401796	2401530	-	F11
3648602.3649342.+	3648602	3649342	+	KZN_605	3661147.3661887.+	3661147	3661887	+	F11
2519285.2520193.-	2520193	2519285	-	KZN_605	1897620.1898528.+	1897620	1898528	+	F11
3598134.3598784.-	3598784	3598134	-	KZN_605	3610679.3611329.-	3611329	3610679	-	F11
2158951.2159526.-	2159526	2158951	-	KZN_605	2273038.2273613.+	2273038	2273613	+	F11
1470324.1470551.-	1470551	1470324	-	KZN_605	2956693.2956920.+	2956693	2956920	+	F11
3775440.3777317.+	3775440	3777317	+	KZN_605	3790932.3792809.+	3790932	3792809	+	F11
2162887.2163135.-	2163135	2162887	-	KZN_605	2268071.2268319.+	2268071	2268319	+	F11
186432.186557.-	186557	186432	-	KZN_605	186811.186936.-	186936	186811	-	F11
3961592.3963292.+	3961592	3963292	+	KZN_605	3988144.3989844.+	3988144	3989844	+	F11
665754.665921.-	665921	665754	-	KZN_605	668662.668829.-	668829	668662	-	F11
770842.771393.+	770842	771393	+	KZN_605	773760.774311.+	773760	774311	+	F11
3210064.3211131.-	3211131	3210064	-	KZN_605	1204363.1205430.+	1204363	1205430	+	F11
103839.104702.-	104702	103839	-	KZN_605	103843.104706.-	104706	103843	-	F11
3874981.3875844.+	3874981	3875844	+	KZN_605	103843.104706.-	104706	103843	-	F11
2633288.2634154.+	2633288	2634154	+	KZN_605	103843.104706.-	104706	103843	-	F11
1280325.1281047.+	1280325	1281047	+	KZN_605	3144530.3145252.-	3145252	3144530	-	F11
1173899.1174090.+	1173899	1174090	+	KZN_605	3250988.3251179.-	3251179	3250988	-	F11
1173820.1174035.+	1173820	1174035	+	KZN_605	3250988.3251179.-	3251179	3250988	-	F11
577903.578529.+	577903	578529	+	KZN_605	580812.581438.+	580812	581438	+	F11
750078.750845.-	750845	750078	-	KZN_605	752995.753762.-	753762	752995	-	F11
2880908.2881144.+	2880908	2881144	+	KZN_605	1536672.1536908.-	1536908	1536672	-	F11
1338408.1338761.+	1338408	1338761	+	KZN_605	3088322.3088675.-	3088675	3088322	-	F11
661573.663693.+	661573	663693	+	KZN_605	664481.666601.+	664481	666601	+	F11
2744205.2744930.-	2744930	2744205	-	KZN_605	1673056.1673781.+	1673056	1673781	+	F11
3897641.3897805.+	3897641	3897805	+	KZN_605	3920425.3920589.+	3920425	3920589	+	F11
2255610.2259809.+	2255610	2259809	+	KZN_605	2171193.2175599.-	2175599	2171193	-	F11
172139.173080.+	172139	173080	+	KZN_605	172518.173459.+	172518	173459	+	F11
21738.23273.-	23273	21738	-	KZN_605	21738.23273.-	23273	21738	-	F11
3046256.3046720.-	3046720	3046256	-	KZN_605	1369109.1369573.+	1369109	1369573	+	F11
2424103.2424378.-	2424378	2424103	-	KZN_605	2006671.2006946.+	2006671	2006946	+	F11
3072763.3073098.-	3073098	3072763	-	KZN_605	1342732.1343067.+	1342732	1343067	+	F11
2325163.2325483.-	2325483	2325163	-	KZN_605	2105520.2105840.+	2105520	2105840	+	F11
2482981.2483742.-	2483742	2482981	-	KZN_605	1934070.1934831.+	1934070	1934831	+	F11
2701281.2702321.-	2702321	2701281	-	KZN_605	1715665.1716705.+	1715665	1716705	+	F11
171740.172105.+	171740	172105	+	KZN_605	172119.172484.+	172119	172484	+	F11
781564.782154.+	781564	782154	+	KZN_605	784482.785072.+	784482	785072	+	F11
552241.552810.+	552241	552810	+	KZN_605	555150.555719.+	555150	555719	+	F11
4120274.4121275.+	4120274	4121275	+	KZN_605	4145519.4146520.+	4145519	4146520	+	F11
3357490.3357966.-	3357966	3357490	-	KZN_605	1057591.1058067.+	1057591	1058067	+	F11
3002705.3003832.-	3003832	3002705	-	KZN_605	1411998.1413125.+	1411998	1413125	+	F11
364200.365966.+	364200	365966	+	KZN_605	364475.366250.+	364475	366250	+	F11
704141.704368.+	704141	704368	+	KZN_605	707058.707285.+	707058	707285	+	F11
1621155.1622432.+	1621155	1622432	+	KZN_605	2806039.2807316.-	2807316	2806039	-	F11
315722.316354.-	316354	315722	-	KZN_605	316100.316732.-	316732	316100	-	F11
503406.503558.+	503406	503558	+	KZN_605	506316.506468.+	506316	506468	+	F11
1394671.1394928.+	1394671	1394928	+	KZN_605	3032155.3032412.-	3032412	3032155	-	F11
1363116.1363322.+	1363116	1363322	+	KZN_605	3063761.3063967.-	3063967	3063761	-	F11
95546.97021.+	95546	97021	+	KZN_605	95550.97025.+	95550	97025	+	F11
1226328.1226918.-	1226918	1226328	-	KZN_605	3198551.3199141.+	3198551	3199141	+	F11
1687734.1687928.+	1687734	1687928	+	KZN_605	2740540.2740734.-	2740734	2740540	-	F11
1026863.1027708.+	1026863	1027708	+	KZN_605	3397784.3398629.-	3398629	3397784	-	F11
2845438.2846658.-	2846658	2845438	-	KZN_605	1571157.1572377.+	1571157	1572377	+	F11
3662964.3663392.+	3662964	3663392	+	KZN_605	3675509.3675937.+	3675509	3675937	+	F11
2574424.2575605.+	2574424	2575605	+	KZN_605	1842380.1843561.-	1843561	1842380	-	F11
632039.632695.+	632039	632695	+	KZN_605	634947.635603.+	634947	635603	+	F11
3558780.3559244.+	3558780	3559244	+	KZN_605	3571325.3571789.+	3571325	3571789	+	F11
2081994.2082293.+	2081994	2082293	+	KZN_605	2348907.2349206.-	2349206	2348907	-	F11
3252311.3252805.+	3252311	3252805	+	KZN_605	1162686.1163180.-	1163180	1162686	-	F11
87927.88133.-	88133	87927	-	KZN_605	87931.88137.-	88137	87931	-	F11
4150121.4151533.+	4150121	4151533	+	KZN_605	4175307.4176719.+	4175307	4176719	+	F11
1099015.1099833.+	1099015	1099833	+	KZN_605	3325246.3326064.-	3326064	3325246	-	F11
1229085.1229276.-	1229276	1229085	-	KZN_605	3196193.3196384.+	3196193	3196384	+	F11
965352.966377.+	965352	966377	+	KZN_605	3459168.3460193.-	3460193	3459168	-	F11
2360077.2361573.+	2360077	2361573	+	KZN_605	2069430.2070926.-	2070926	2069430	-	F11
4040110.4040271.-	4040271	4040110	-	KZN_605	4066884.4067045.-	4067045	4066884	-	F11
2016551.2016832.-	2016832	2016551	-	KZN_605	2411964.2412245.+	2411964	2412245	+	F11
1998890.2000359.+	1998890	2000359	+	KZN_605	2428495.2429964.-	2429964	2428495	-	F11
3688693.3690138.-	3690138	3688693	-	KZN_605	3701238.3702683.-	3702683	3701238	-	F11
2878487.2879674.+	2878487	2879674	+	KZN_605	1538142.1539329.-	1539329	1538142	-	F11
3883998.3885176.+	3883998	3885176	+	KZN_605	1538142.1539329.-	1539329	1538142	-	F11
3071541.3072713.-	3072713	3071541	-	KZN_605	1538142.1539329.-	1539329	1538142	-	F11
3791795.3792076.-	3792076	3791795	-	KZN_605	3807287.3807568.-	3807568	3807287	-	F11
2042691.2044328.+	2042691	2044328	+	KZN_605	2384297.2385934.-	2385934	2384297	-	F11
2793838.2795244.+	2793838	2795244	+	KZN_605	1622571.1624034.-	1624034	1622571	-	F11
3504881.3505195.-	3505195	3504881	-	KZN_605	3516068.3516382.-	3516382	3516068	-	F11
278325.278528.+	278325	278528	+	KZN_605	278703.278906.+	278703	278906	+	F11
3147819.3149675.+	3147819	3149675	+	KZN_605	1266039.1267895.-	1267895	1266039	-	F11
1298957.1300108.-	1300108	1298957	-	KZN_605	3125616.3126767.+	3125616	3126767	+	F11
1041312.1041968.-	1041968	1041312	-	KZN_605	3383524.3384180.+	3383524	3384180	+	F11
274246.274659.-	274659	274246	-	KZN_605	274624.275037.-	275037	274624	-	F11
2796852.2797088.+	2796852	2797088	+	KZN_605	1620727.1620963.-	1620963	1620727	-	F11
4146030.4146737.+	4146030	4146737	+	KZN_605	4171216.4171923.+	4171216	4171923	+	F11
3423027.3424499.-	3424499	3423027	-	KZN_605	991058.992530.+	991058	992530	+	F11
2072351.2072581.-	2072581	2072351	-	KZN_605	2359965.2360195.+	2359965	2360195	+	F11
1032789.1033103.+	1032789	1033103	+	KZN_605	3392389.3392703.-	3392703	3392389	-	F11
1697489.1698322.+	1697489	1698322	+	KZN_605	2730146.2730979.-	2730979	2730146	-	F11
2732359.2732622.-	2732622	2732359	-	KZN_605	1685364.1685627.+	1685364	1685627	+	F11
2156953.2157681.-	2157681	2156953	-	KZN_605	2274883.2275611.+	2274883	2275611	+	F11
4223126.4223554.+	4223126	4223554	+	KZN_605	4248312.4248740.+	4248312	4248740	+	F11
3394516.3394911.+	3394516	3394911	+	KZN_605	1020646.1021041.-	1021041	1020646	-	F11
2430738.2430971.-	2430971	2430738	-	KZN_605	1998720.1998953.+	1998720	1998953	+	F11
1730676.1731803.+	1730676	1731803	+	KZN_605	2695310.2696437.-	2696437	2695310	-	F11
2608018.2609427.-	2609427	2608018	-	KZN_605	1808559.1809968.+	1808559	1809968	+	F11
3247287.3247559.+	3247287	3247559	+	KZN_605	1167932.1168204.-	1168204	1167932	-	F11
2528364.2529017.+	2528364	2529017	+	KZN_605	1888967.1889620.-	1889620	1888967	-	F11
1687933.1688199.+	1687933	1688199	+	KZN_605	2740269.2740535.-	2740535	2740269	-	F11
3880875.3881660.-	3881660	3880875	-	KZN_605	3903659.3904444.-	3904444	3903659	-	F11
4137786.4138892.-	4138892	4137786	-	KZN_605	4163031.4164137.-	4164137	4163031	-	F11
3380365.3381153.+	3380365	3381153	+	KZN_605	1034404.1035192.-	1035192	1034404	-	F11
2670497.2671105.-	2671105	2670497	-	KZN_605	1746881.1747489.+	1746881	1747489	+	F11
3837568.3837930.-	3837930	3837568	-	KZN_605	3860351.3860713.-	3860713	3860351	-	F11
3315226.3316644.+	3315226	3316644	+	KZN_605	1098847.1100265.-	1100265	1098847	-	F11
806803.807171.+	806803	807171	+	KZN_605	809667.810035.+	809667	810035	+	F11
586630.587616.+	586630	587616	+	KZN_605	589539.590525.+	589539	590525	+	F11
4157282.4157524.+	4157282	4157524	+	KZN_605	4182468.4182710.+	4182468	4182710	+	F11
3513618.3514004.+	3513618	3514004	+	KZN_605	3524805.3525191.+	3524805	3525191	+	F11
456526.457077.-	457077	456526	-	KZN_605	459436.459987.-	459987	459436	-	F11
1430031.1430597.-	1430597	1430031	-	KZN_605	2996647.2997213.+	2996647	2997213	+	F11
704735.705070.+	704735	705070	+	KZN_605	707652.707987.+	707652	707987	+	F11
2081215.2081529.-	2081529	2081215	-	KZN_605	2351029.2351343.+	2351029	2351343	+	F11
832781.833308.+	832781	833308	+	KZN_605	835645.836172.+	835645	836172	+	F11
2099494.2099907.+	2099494	2099907	+	KZN_605	2331293.2331706.-	2331706	2331293	-	F11
4252378.4253277.-	4253277	4252378	-	KZN_605	4277564.4278463.-	4278463	4277564	-	F11
829952.830164.+	829952	830164	+	KZN_605	832816.833028.+	832816	833028	+	F11
3529327.3531258.-	3531258	3529327	-	KZN_605	3540514.3542445.-	3542445	3540514	-	F11
2221210.2221731.+	2221210	2221731	+	KZN_605	2209478.2209999.-	2209999	2209478	-	F11
2756628.2757740.+	2756628	2757740	+	KZN_605	1660246.1661358.-	1661358	1660246	-	F11
3778484.3781759.-	3781759	3778484	-	KZN_605	3793976.3797251.-	3797251	3793976	-	F11
1559020.1559244.+	1559020	1559244	+	KZN_605	2868001.2868225.-	2868225	2868001	-	F11
57437.58075.+	57437	58075	+	KZN_605	57439.58077.+	57439	58077	+	F11
1797703.1799040.+	1797703	1799040	+	KZN_605	2628464.2629801.-	2629801	2628464	-	F11
2252342.2255305.+	2252342	2255305	+	KZN_605	2175904.2178867.-	2178867	2175904	-	F11
2044420.2044635.+	2044420	2044635	+	KZN_605	2383990.2384205.-	2384205	2383990	-	F11
3318590.3321391.-	3321391	3318590	-	KZN_605	1094166.1096967.+	1094166	1096967	+	F11
818536.818910.-	818910	818536	-	KZN_605	821400.821774.-	821774	821400	-	F11
3837568.3837930.-	3837930	3837568	-	KZN_605	3852990.3853367.-	3853367	3852990	-	F11
1361273.1361539.-	1361539	1361273	-	KZN_605	3065544.3065810.+	3065544	3065810	+	F11
230836.231471.+	230836	231471	+	KZN_605	231215.231850.+	231215	231850	+	F11
1168157.1169908.-	1169908	1168157	-	KZN_605	3255170.3256921.+	3255170	3256921	+	F11
515633.516076.-	516076	515633	-	KZN_605	518543.518986.-	518986	518543	-	F11
1788009.1789535.+	1788009	1789535	+	KZN_605	2637969.2639495.-	2639495	2637969	-	F11
729638.730498.-	730498	729638	-	KZN_605	732555.733415.-	733415	732555	-	F11
1835231.1835500.-	1835500	1835231	-	KZN_605	2591996.2592265.+	2591996	2592265	+	F11
3337313.3337654.-	3337654	3337313	-	KZN_605	1077903.1078244.+	1077903	1078244	+	F11
3250749.3250868.+	3250749	3250868	+	KZN_605	1164623.1164742.-	1164742	1164623	-	F11
4046524.4046643.-	4046643	4046524	-	KZN_605	1164623.1164742.-	1164742	1164623	-	F11
3071110.3071229.-	3071229	3071110	-	KZN_605	1164623.1164742.-	1164742	1164623	-	F11
1790365.1790484.+	1790365	1790484	+	KZN_605	1164623.1164742.-	1164742	1164623	-	F11
2393466.2393585.-	2393585	2393466	-	KZN_605	1164623.1164742.-	1164742	1164623	-	F11
1020581.1020970.-	1020970	1020581	-	KZN_605	3404522.3404911.+	3404522	3404911	+	F11
1663539.1666199.+	1663539	1666199	+	KZN_605	2762269.2764929.-	2764929	2762269	-	F11
1018861.1019763.+	1018861	1019763	+	KZN_605	3405729.3406631.-	3406631	3405729	-	F11
4082246.4082569.-	4082569	4082246	-	KZN_605	4107662.4107985.-	4107985	4107662	-	F11
941892.942368.+	941892	942368	+	KZN_605	3483177.3483653.-	3483653	3483177	-	F11
3134257.3135705.+	3134257	3135705	+	KZN_605	1280064.1281512.-	1281512	1280064	-	F11
2225601.2227049.-	2227049	2225601	-	KZN_605	1280064.1281512.-	1281512	1280064	-	F11
2522337.2522612.-	2522612	2522337	-	KZN_605	1895201.1895476.+	1895201	1895476	+	F11
1866670.1867584.+	1866670	1867584	+	KZN_605	2561270.2562184.-	2562184	2561270	-	F11
521771.522427.+	521771	522427	+	KZN_605	524681.525337.+	524681	525337	+	F11
3210064.3210957.-	3210957	3210064	-	KZN_605	1204537.1205430.+	1204537	1205430	+	F11
4254768.4256711.-	4256711	4254768	-	KZN_605	4279954.4281897.-	4281897	4279954	-	F11
2393586.2393747.-	2393747	2393586	-	KZN_605	2038614.2038775.+	2038614	2038775	+	F11
2371601.2372833.-	2372833	2371601	-	KZN_605	2058170.2059402.+	2058170	2059402	+	F11
1123099.1123638.-	1123638	1123099	-	KZN_605	3301440.3301979.+	3301440	3301979	+	F11
17568.18845.-	18845	17568	-	KZN_605	17568.18845.-	18845	17568	-	F11
2611537.2612355.-	2612355	2611537	-	KZN_605	1805631.1806449.+	1805631	1806449	+	F11
1986024.1987058.+	1986024	1987058	+	KZN_605	2441796.2442830.-	2442830	2441796	-	F11
933404.933706.-	933706	933404	-	KZN_605	3491839.3492141.+	3491839	3492141	+	F11
2099908.2100309.-	2100309	2099908	-	KZN_605	2330891.2331292.+	2330891	2331292	+	F11
1173820.1174035.+	1173820	1174035	+	KZN_605	3251043.3251258.-	3251258	3251043	-	F11
4127995.4128219.-	4128219	4127995	-	KZN_605	4153240.4153464.-	4153464	4153240	-	F11
3425761.3426219.+	3425761	3426219	+	KZN_605	989338.989796.-	989796	989338	-	F11
2300939.2301418.+	2300939	2301418	+	KZN_605	2129686.2130063.-	2130063	2129686	-	F11
1217724.1218395.+	1217724	1218395	+	KZN_605	3207074.3207745.-	3207745	3207074	-	F11
2338048.2338248.-	2338248	2338048	-	KZN_605	2092755.2092955.+	2092755	2092955	+	F11
1497496.1497705.+	1497496	1497705	+	KZN_605	2929539.2929748.-	2929748	2929539	-	F11
3407248.3407778.-	3407778	3407248	-	KZN_605	1007779.1008309.+	1007779	1008309	+	F11
4351232.4352572.-	4352572	4351232	-	KZN_605	4376417.4377757.-	4377757	4376417	-	F11
140096.140275.+	140096	140275	+	KZN_605	140101.140280.+	140101	140280	+	F11
223501.224601.+	223501	224601	+	KZN_605	223880.224980.+	223880	224980	+	F11
1887533.1887727.+	1887533	1887727	+	KZN_605	2541128.2541322.-	2541322	2541128	-	F11
3133704.3134111.-	3134111	3133704	-	KZN_605	1281657.1282064.+	1281657	1282064	+	F11
3246224.3246631.+	3246224	3246631	+	KZN_605	1281657.1282064.+	1281657	1282064	+	F11
4281040.4287351.-	4287351	4281040	-	KZN_605	4306226.4312537.-	4312537	4306226	-	F11
4116507.4116872.-	4116872	4116507	-	KZN_605	4141752.4142117.-	4142117	4141752	-	F11
2795383.2795796.-	2795796	2795383	-	KZN_605	1622019.1622432.+	1622019	1622432	+	F11
3751267.3752007.-	3752007	3751267	-	KZN_605	3766759.3767499.-	3767499	3766759	-	F11
945855.946175.-	946175	945855	-	KZN_605	3479370.3479690.+	3479370	3479690	+	F11
362624.364030.-	364030	362624	-	KZN_605	362899.364305.-	364305	362899	-	F11
3234479.3234793.-	3234793	3234479	-	KZN_605	1180698.1181012.+	1180698	1181012	+	F11
843213.843482.+	843213	843482	+	KZN_605	845878.846147.+	845878	846147	+	F11
4082586.4083128.-	4083128	4082586	-	KZN_605	4108002.4108544.-	4108544	4108002	-	F11
2660016.2662052.+	2660016	2662052	+	KZN_605	1755934.1757970.-	1757970	1755934	-	F11
4095060.4095254.+	4095060	4095254	+	KZN_605	4120476.4120670.+	4120476	4120670	+	F11
768161.768664.-	768664	768161	-	KZN_605	771078.771581.-	771581	771078	-	F11
3885206.3888454.+	3885206	3888454	+	KZN_605	3907990.3911238.+	3907990	3911238	+	F11
3092083.3096831.-	3096831	3092083	-	KZN_605	1318999.1323747.+	1318999	1323747	+	F11
3333842.3334501.+	3333842	3334501	+	KZN_605	1081056.1081715.-	1081715	1081056	-	F11
3473960.3474202.-	3474202	3473960	-	KZN_605	941408.941650.+	941408	941650	+	F11
1311583.1312188.+	1311583	1312188	+	KZN_605	3113536.3114141.-	3114141	3113536	-	F11
701717.702325.+	701717	702325	+	KZN_605	3113536.3114141.-	3114141	3113536	-	F11
4290601.4291206.-	4291206	4290601	-	KZN_605	3113536.3114141.-	3114141	3113536	-	F11
1217784.1218395.+	1217784	1218395	+	KZN_605	3113536.3114141.-	3114141	3113536	-	F11
1580166.1580417.+	1580166	1580417	+	KZN_605	2846828.2847079.-	2847079	2846828	-	F11
536764.537429.-	537429	536764	-	KZN_605	539673.540338.-	540338	539673	-	F11
3316663.3317187.-	3317187	3316663	-	KZN_605	1098304.1098828.+	1098304	1098828	+	F11
2081566.2081736.+	2081566	2081736	+	KZN_605	2350822.2350992.-	2350992	2350822	-	F11
3135145.3135705.+	3135145	3135705	+	KZN_605	1280064.1280624.-	1280624	1280064	-	F11
2593797.2594423.-	2594423	2593797	-	KZN_605	1823562.1824188.+	1823562	1824188	+	F11
2208826.2210067.-	2210067	2208826	-	KZN_605	2221139.2222380.+	2221139	2222380	+	F11
3472391.3473683.-	3473683	3472391	-	KZN_605	941927.943219.+	941927	943219	+	F11
4116507.4116839.-	4116839	4116507	-	KZN_605	4141752.4142084.-	4142084	4141752	-	F11
1628257.1628580.+	1628257	1628580	+	KZN_605	2799891.2800214.-	2800214	2799891	-	F11
3291783.3293294.+	3291783	3293294	+	KZN_605	1122196.1123707.-	1123707	1122196	-	F11
4188236.4189141.+	4188236	4189141	+	KZN_605	4213422.4214327.+	4213422	4214327	+	F11
3707608.3708240.-	3708240	3707608	-	KZN_605	3720095.3720727.-	3720727	3720095	-	F11
1629189.1629674.+	1629189	1629674	+	KZN_605	2798797.2799282.-	2799282	2798797	-	F11
606787.608298.+	606787	608298	+	KZN_605	403272.404783.+	403272	404783	+	F11
2335826.2338051.+	2335826	2338051	+	KZN_605	2092952.2095177.-	2095177	2092952	-	F11
1081994.1082248.+	1081994	1082248	+	KZN_605	3342831.3343085.-	3343085	3342831	-	F11
3864379.3865059.+	3864379	3865059	+	KZN_605	3887163.3887843.+	3887163	3887843	+	F11
3796348.3797088.+	3796348	3797088	+	KZN_605	3811840.3812580.+	3811840	3812580	+	F11
3395046.3395519.-	3395519	3395046	-	KZN_605	1020038.1020511.+	1020038	1020511	+	F11
2841024.2841347.+	2841024	2841347	+	KZN_605	1576468.1576791.-	1576791	1576468	-	F11
2944439.2944870.-	2944870	2944439	-	KZN_605	1471016.1471447.+	1471016	1471447	+	F11
3027525.3027797.-	3027797	3027525	-	KZN_605	1388032.1388304.+	1388032	1388304	+	F11
1869621.1869869.+	1869621	1869869	+	KZN_605	2558985.2559233.-	2559233	2558985	-	F11
476043.476513.-	476513	476043	-	KZN_605	478953.479423.-	479423	478953	-	F11
877895.878035.+	877895	878035	+	KZN_605	880559.880699.+	880559	880699	+	F11
4122482.4123804.+	4122482	4123804	+	KZN_605	4147727.4149049.+	4147727	4149049	+	F11
1910326.1910502.+	1910326	1910502	+	KZN_605	2518353.2518529.-	2518529	2518353	-	F11
3878071.3879744.-	3879744	3878071	-	KZN_605	3900855.3902528.-	3902528	3900855	-	F11
2210094.2211338.-	2211338	2210094	-	KZN_605	2219868.2221112.+	2219868	2221112	+	F11
3590866.3591477.+	3590866	3591477	+	KZN_605	3603411.3604022.+	3603411	3604022	+	F11
2456586.2456870.-	2456870	2456586	-	KZN_605	1962357.1962641.+	1962357	1962641	+	F11
449395.449910.-	449910	449395	-	KZN_605	449699.450214.-	450214	449699	-	F11
4005491.4006357.+	4005491	4006357	+	KZN_605	4032043.4032909.+	4032043	4032909	+	F11
3822106.3822405.+	3822106	3822405	+	KZN_605	3837544.3837843.+	3837544	3837843	+	F11
715603.716628.+	715603	716628	+	KZN_605	718520.719545.+	718520	719545	+	F11
3503270.3503668.+	3503270	3503668	+	KZN_605	3514457.3514855.+	3514457	3514855	+	F11
3807326.3807967.+	3807326	3807967	+	KZN_605	3822821.3823462.+	3822821	3823462	+	F11
3531926.3533083.-	3533083	3531926	-	KZN_605	3543113.3544270.-	3544270	3543113	-	F11
1915071.1915373.+	1915071	1915373	+	KZN_605	2513482.2513784.-	2513784	2513482	-	F11
661206.661589.+	661206	661589	+	KZN_605	664114.664497.+	664114	664497	+	F11
144138.145757.+	144138	145757	+	KZN_605	144143.145762.+	144143	145762	+	F11
4048678.4049478.+	4048678	4049478	+	KZN_605	4075452.4076252.+	4075452	4076252	+	F11
977459.977983.+	977459	977983	+	KZN_605	3447562.3448086.-	3448086	3447562	-	F11
738608.739528.-	739528	738608	-	KZN_605	741525.742445.-	742445	741525	-	F11
1869903.1870220.+	1869903	1870220	+	KZN_605	2558634.2558951.-	2558951	2558634	-	F11
2346979.2347236.-	2347236	2346979	-	KZN_605	2083767.2084024.+	2083767	2084024	+	F11
2137611.2138096.+	2137611	2138096	+	KZN_605	2293110.2293595.-	2293595	2293110	-	F11
1958258.1959016.-	1959016	1958258	-	KZN_605	2469840.2470598.+	2469840	2470598	+	F11
1341513.1341998.+	1341513	1341998	+	KZN_605	3085085.3085570.-	3085570	3085085	-	F11
1976589.1976771.+	1976589	1976771	+	KZN_605	2452084.2452266.-	2452266	2452084	-	F11
1391696.1392667.-	1392667	1391696	-	KZN_605	3034416.3035387.+	3034416	3035387	+	F11
2063210.2063461.+	2063210	2063461	+	KZN_605	2369085.2369336.-	2369336	2369085	-	F11
2534574.2536106.-	2536106	2534574	-	KZN_605	1881878.1883410.+	1881878	1883410	+	F11
655244.656329.-	656329	655244	-	KZN_605	658152.659237.-	659237	658152	-	F11
2631022.2631261.-	2631261	2631022	-	KZN_605	1786725.1786964.+	1786725	1786964	+	F11
2824984.2825703.+	2824984	2825703	+	KZN_605	1592113.1592832.-	1592832	1592113	-	F11
237831.238334.-	238334	237831	-	KZN_605	238210.238713.-	238713	238210	-	F11
2736466.2737332.+	2736466	2737332	+	KZN_605	1680654.1681520.-	1681520	1680654	-	F11
1074021.1074692.-	1074692	1074021	-	KZN_605	3350800.3351471.+	3350800	3351471	+	F11
643209.644813.+	643209	644813	+	KZN_605	646117.647721.+	646117	647721	+	F11
133151.133900.+	133151	133900	+	KZN_605	133156.133905.+	133156	133905	+	F11
1050097.1050444.-	1050444	1050097	-	KZN_605	3375048.3375395.+	3375048	3375395	+	F11
1784632.1786170.+	1784632	1786170	+	KZN_605	2641334.2642872.-	2642872	2641334	-	F11
2871472.2872605.+	2871472	2872605	+	KZN_605	1545211.1546344.-	1546344	1545211	-	F11
1746703.1751751.+	1746703	1751751	+	KZN_605	2675362.2680410.-	2680410	2675362	-	F11
700574.701500.+	700574	701500	+	KZN_605	703491.704417.+	703491	704417	+	F11
2570553.2574077.+	2570553	2574077	+	KZN_605	1843908.1847432.-	1847432	1843908	-	F11
1786388.1787926.+	1786388	1787926	+	KZN_605	2639578.2641116.-	2641116	2639578	-	F11
3346772.3347620.+	3346772	3347620	+	KZN_605	1067937.1068785.-	1068785	1067937	-	F11
3549554.3550843.+	3549554	3550843	+	KZN_605	3560741.3562030.+	3560741	3562030	+	F11
737579.738460.-	738460	737579	-	KZN_605	740496.741377.-	741377	740496	-	F11
3423027.3424550.-	3424550	3423027	-	KZN_605	991007.992530.+	991007	992530	+	F11
1651414.1652940.-	1652940	1651414	-	KZN_605	2775528.2777054.+	2775528	2777054	+	F11
352849.354342.+	352849	354342	+	KZN_605	353124.354617.+	353124	354617	+	F11
1700912.1702465.+	1700912	1702465	+	KZN_605	2726006.2727559.-	2727559	2726006	-	F11
1622661.1624136.+	1622661	1624136	+	KZN_605	2804335.2805810.-	2805810	2804335	-	F11
1766731.1767072.+	1766731	1767072	+	KZN_605	2660042.2660383.-	2660383	2660042	-	F11
1907316.1908275.+	1907316	1908275	+	KZN_605	2520580.2521539.-	2521539	2520580	-	F11
1834958.1835284.+	1834958	1835284	+	KZN_605	2592212.2592538.-	2592538	2592212	-	F11
3708885.3709439.-	3709439	3708885	-	KZN_605	3721372.3721926.-	3721926	3721372	-	F11
3890062.3890751.-	3890751	3890062	-	KZN_605	3912846.3913535.-	3913535	3912846	-	F11
2843887.2845365.+	2843887	2845365	+	KZN_605	1572450.1573928.-	1573928	1572450	-	F11
1347995.1348906.+	1347995	1348906	+	KZN_605	3078177.3079088.-	3079088	3078177	-	F11
1790365.1790484.+	1790365	1790484	+	KZN_605	1344600.1344719.+	1344600	1344719	+	F11
3071110.3071229.-	3071229	3071110	-	KZN_605	1344600.1344719.+	1344600	1344719	+	F11
3250749.3250868.+	3250749	3250868	+	KZN_605	1344600.1344719.+	1344600	1344719	+	F11
4046524.4046643.-	4046643	4046524	-	KZN_605	1344600.1344719.+	1344600	1344719	+	F11
2393466.2393585.-	2393585	2393466	-	KZN_605	1344600.1344719.+	1344600	1344719	+	F11
3969357.3970376.-	3970376	3969357	-	KZN_605	3995909.3996928.-	3996928	3995909	-	F11
532614.533171.+	532614	533171	+	KZN_605	535523.536080.+	535523	536080	+	F11
999616.1001697.+	999616	1001697	+	KZN_605	3423795.3425876.-	3425876	3423795	-	F11
2370063.2371469.-	2371469	2370063	-	KZN_605	2059534.2060940.+	2059534	2060940	+	F11
3839952.3840161.-	3840161	3839952	-	KZN_605	3862735.3862944.-	3862944	3862735	-	F11
578665.579435.+	578665	579435	+	KZN_605	581574.582344.+	581574	582344	+	F11
4116507.4116956.-	4116956	4116507	-	KZN_605	4141752.4142201.-	4142201	4141752	-	F11
1230880.1232169.+	1230880	1232169	+	KZN_605	3193300.3194589.-	3194589	3193300	-	F11
462393.463565.+	462393	463565	+	KZN_605	465303.466475.+	465303	466475	+	F11
1276884.1277609.+	1276884	1277609	+	KZN_605	3147968.3148693.-	3148693	3147968	-	F11
1116965.1117255.+	1116965	1117255	+	KZN_605	3307823.3308113.-	3308113	3307823	-	F11
3752926.3764076.-	3764076	3752926	-	KZN_605	3768418.3779568.-	3779568	3768418	-	F11
3865749.3867017.+	3865749	3867017	+	KZN_605	3888533.3889801.+	3888533	3889801	+	F11
1174090.1175004.+	1174090	1175004	+	KZN_605	3250074.3250988.-	3250988	3250074	-	F11
2095121.2095531.-	2095531	2095121	-	KZN_605	2335669.2336079.+	2335669	2336079	+	F11
3259711.3259803.-	3259803	3259711	-	KZN_605	1155688.1155780.+	1155688	1155780	+	F11
1562609.1562836.-	1562836	1562609	-	KZN_605	2864409.2864636.+	2864409	2864636	+	F11
330361.330942.+	330361	330942	+	KZN_605	330739.331320.+	330739	331320	+	F11
3983972.3985867.+	3983972	3985867	+	KZN_605	4010524.4012419.+	4010524	4012419	+	F11
1687947.1688216.-	1688216	1687947	-	KZN_605	2740252.2740521.+	2740252	2740521	+	F11
3556531.3557589.-	3557589	3556531	-	KZN_605	3569076.3570134.-	3570134	3569076	-	F11
2284668.2285426.+	2284668	2285426	+	KZN_605	2145576.2146334.-	2146334	2145576	-	F11
1054245.1054463.+	1054245	1054463	+	KZN_605	3371029.3371247.-	3371247	3371029	-	F11
1822009.1822554.+	1822009	1822554	+	KZN_605	2604942.2605487.-	2605487	2604942	-	F11
3333899.3334501.+	3333899	3334501	+	KZN_605	1081056.1081658.-	1081658	1081056	-	F11
2078400.2078798.-	2078798	2078400	-	KZN_605	2353760.2354158.+	2353760	2354158	+	F11
2040776.2041417.-	2041417	2040776	-	KZN_605	2387379.2388020.+	2387379	2388020	+	F11
2395796.2396098.-	2396098	2395796	-	KZN_605	2036264.2036566.+	2036264	2036566	+	F11
218642.219304.+	218642	219304	+	KZN_605	219021.219683.+	219021	219683	+	F11
1031160.1032407.+	1031160	1032407	+	KZN_605	3494574.3495821.+	3494574	3495821	+	F11
1584124.1585371.+	1584124	1585371	+	KZN_605	3494574.3495821.+	3494574	3495821	+	F11
3069460.3070707.+	3069460	3070707	+	KZN_605	3494574.3495821.+	3494574	3495821	+	F11
3241051.3242298.-	3242298	3241051	-	KZN_605	3494574.3495821.+	3494574	3495821	+	F11
3482029.3483276.+	3482029	3483276	+	KZN_605	3494574.3495821.+	3494574	3495821	+	F11
3943753.3944664.+	3943753	3944664	+	KZN_605	3970305.3971216.+	3970305	3971216	+	F11
2562836.2563894.-	2563894	2562836	-	KZN_605	1854091.1855149.+	1854091	1855149	+	F11
3179122.3179532.-	3179532	3179122	-	KZN_605	1236183.1236593.+	1236183	1236593	+	F11
1249824.1251671.-	1251671	1249824	-	KZN_605	3173906.3175753.+	3173906	3175753	+	F11
833063.833308.+	833063	833308	+	KZN_605	835927.836172.+	835927	836172	+	F11
843237.843482.+	843237	843482	+	KZN_605	835927.836172.+	835927	836172	+	F11
3007472.3008677.+	3007472	3008677	+	KZN_605	1407153.1408358.-	1408358	1407153	-	F11
2638204.2638488.+	2638204	2638488	+	KZN_605	1779498.1779782.-	1779782	1779498	-	F11
2215747.2216004.-	2216004	2215747	-	KZN_605	2215205.2215462.+	2215205	2215462	+	F11
1833376.1833663.-	1833663	1833376	-	KZN_605	2593833.2594120.+	2593833	2594120	+	F11
3490505.3490999.+	3490505	3490999	+	KZN_605	3501692.3502186.+	3501692	3502186	+	F11
3579506.3579715.+	3579506	3579715	+	KZN_605	3592051.3592260.+	3592051	3592260	+	F11
847372.849117.+	847372	849117	+	KZN_605	850037.851782.+	850037	851782	+	F11
1031097.1032407.+	1031097	1032407	+	KZN_605	1345122.1346432.-	1346432	1345122	-	F11
1584061.1585371.+	1584061	1585371	+	KZN_605	1345122.1346432.-	1346432	1345122	-	F11
3069397.3070707.+	3069397	3070707	+	KZN_605	1345122.1346432.-	1346432	1345122	-	F11
3241051.3242361.-	3242361	3241051	-	KZN_605	1345122.1346432.-	1346432	1345122	-	F11
3481966.3483276.+	3481966	3483276	+	KZN_605	1345122.1346432.-	1346432	1345122	-	F11
3866979.3867749.-	3867749	3866979	-	KZN_605	3889763.3890533.-	3890533	3889763	-	F11
1280502.1281047.+	1280502	1281047	+	KZN_605	3144530.3145075.-	3145075	3144530	-	F11
1277606.1278151.+	1277606	1278151	+	KZN_605	3144530.3145075.-	3145075	3144530	-	F11
1536950.1537351.+	1536950	1537351	+	KZN_605	2889894.2890295.-	2890295	2889894	-	F11
4106115.4106276.-	4106276	4106115	-	KZN_605	4131531.4131692.-	4131692	4131531	-	F11
3703272.3703610.+	3703272	3703610	+	KZN_605	3715759.3716097.+	3715759	3716097	+	F11
1962917.1963195.+	1962917	1963195	+	KZN_605	2465661.2465939.-	2465939	2465661	-	F11
1868956.1869489.-	1869489	1868956	-	KZN_605	2559365.2559898.+	2559365	2559898	+	F11
1245512.1245727.-	1245727	1245512	-	KZN_605	3179850.3180065.+	3179850	3180065	+	F11
1077101.1077676.-	1077676	1077101	-	KZN_605	3347403.3347978.+	3347403	3347978	+	F11
873876.874496.-	874496	873876	-	KZN_605	876540.877160.-	877160	876540	-	F11
366683.366904.+	366683	366904	+	KZN_605	366967.367188.+	366967	367188	+	F11
988664.990466.+	988664	990466	+	KZN_605	3435026.3436828.-	3436828	3435026	-	F11
3234817.3235155.-	3235155	3234817	-	KZN_605	1180336.1180674.+	1180336	1180674	+	F11
3204075.3204425.-	3204425	3204075	-	KZN_605	1211069.1211419.+	1211069	1211419	+	F11
701711.702325.+	701711	702325	+	KZN_605	704628.705242.+	704628	705242	+	F11
1311577.1312188.+	1311577	1312188	+	KZN_605	704628.705242.+	704628	705242	+	F11
1077828.1078442.+	1077828	1078442	+	KZN_605	704628.705242.+	704628	705242	+	F11
4290601.4291212.-	4291212	4290601	-	KZN_605	704628.705242.+	704628	705242	+	F11
4003318.4004397.-	4004397	4003318	-	KZN_605	4029870.4030949.-	4030949	4029870	-	F11
1661614.1662132.+	1661614	1662132	+	KZN_605	2766336.2766854.-	2766854	2766336	-	F11
864502.865347.+	864502	865347	+	KZN_605	867166.868011.+	867166	868011	+	F11
1205612.1205998.+	1205612	1205998	+	KZN_605	3219471.3219857.-	3219857	3219471	-	F11
3904100.3905452.-	3905452	3904100	-	KZN_605	3926884.3928236.-	3928236	3926884	-	F11
1391696.1392697.-	1392697	1391696	-	KZN_605	3034386.3035387.+	3034386	3035387	+	F11
906270.907139.+	906270	907139	+	KZN_605	908934.909803.+	908934	909803	+	F11
4166064.4168430.+	4166064	4168430	+	KZN_605	4191250.4193616.+	4191250	4193616	+	F11
1719934.1721019.-	1721019	1719934	-	KZN_605	2707452.2708537.+	2707452	2708537	+	F11
1887395.1887613.-	1887613	1887395	-	KZN_605	2541242.2541460.+	2541242	2541460	+	F11
3513528.3514004.+	3513528	3514004	+	KZN_605	3524715.3525191.+	3524715	3525191	+	F11
2814592.2815575.-	2815575	2814592	-	KZN_605	1602241.1603224.+	1602241	1603224	+	F11
4188197.4189141.+	4188197	4189141	+	KZN_605	4213383.4214327.+	4213383	4214327	+	F11
456526.457176.-	457176	456526	-	KZN_605	459436.460086.-	460086	459436	-	F11
1872087.1872419.+	1872087	1872419	+	KZN_605	2556435.2556767.-	2556767	2556435	-	F11
4058896.4059864.-	4059864	4058896	-	KZN_605	4085670.4086638.-	4086638	4085670	-	F11
3133184.3133621.-	3133621	3133184	-	KZN_605	1282147.1282584.+	1282147	1282584	+	F11
3246714.3247151.+	3246714	3247151	+	KZN_605	1282147.1282584.+	1282147	1282584	+	F11
4257655.4258152.-	4258152	4257655	-	KZN_605	4282841.4283338.-	4283338	4282841	-	F11
4069103.4070311.-	4070311	4069103	-	KZN_605	4094519.4095727.-	4095727	4094519	-	F11
3379867.3381153.+	3379867	3381153	+	KZN_605	1034404.1035690.-	1035690	1034404	-	F11
3102735.3103061.-	3103061	3102735	-	KZN_605	1312769.1313095.+	1312769	1313095	+	F11
3512024.3513241.-	3513241	3512024	-	KZN_605	3523211.3524428.-	3524428	3523211	-	F11
3458566.3458976.-	3458976	3458566	-	KZN_605	956634.957044.+	956634	957044	+	F11
2265442.2266035.+	2265442	2266035	+	KZN_605	2164967.2165560.-	2165560	2164967	-	F11
336438.336860.-	336860	336438	-	KZN_605	336752.337174.-	337174	336752	-	F11
3280301.3280594.-	3280594	3280301	-	KZN_605	1134896.1135189.+	1134896	1135189	+	F11
141325.142275.+	141325	142275	+	KZN_605	141330.142280.+	141330	142280	+	F11
4312868.4313293.+	4312868	4313293	+	KZN_605	4338054.4338479.+	4338054	4338479	+	F11
1388281.1389696.-	1389696	1388281	-	KZN_605	3037387.3038802.+	3037387	3038802	+	F11
1507164.1507838.+	1507164	1507838	+	KZN_605	2919406.2920080.-	2920080	2919406	-	F11
2451367.2451552.+	2451367	2451552	+	KZN_605	1967675.1967860.-	1967860	1967675	-	F11
2188061.2188309.+	2188061	2188309	+	KZN_605	2242897.2243145.-	2243145	2242897	-	F11
1230544.1230801.-	1230801	1230544	-	KZN_605	3194668.3194925.+	3194668	3194925	+	F11
3642147.3642260.+	3642147	3642260	+	KZN_605	3654692.3654805.+	3654692	3654805	+	F11
3168884.3169084.+	3168884	3169084	+	KZN_605	1246631.1246831.-	1246831	1246631	-	F11
2007668.2008453.+	2007668	2008453	+	KZN_605	2420401.2421186.-	2421186	2420401	-	F11
1008564.1008815.-	1008815	1008564	-	KZN_605	3416677.3416928.+	3416677	3416928	+	F11
1485536.1485994.-	1485994	1485536	-	KZN_605	2941250.2941708.+	2941250	2941708	+	F11
3584896.3585183.-	3585183	3584896	-	KZN_605	3597441.3597728.-	3597728	3597441	-	F11
2204235.2204843.-	2204843	2204235	-	KZN_605	2226363.2226971.+	2226363	2226971	+	F11
3118601.3119266.-	3119266	3118601	-	KZN_605	1296502.1297167.+	1296502	1297167	+	F11
3359093.3359371.-	3359371	3359093	-	KZN_605	1056186.1056464.+	1056186	1056464	+	F11
1552783.1553481.-	1553481	1552783	-	KZN_605	2873764.2874462.+	2873764	2874462	+	F11
1789727.1790053.+	1789727	1790053	+	KZN_605	2637451.2637777.-	2637777	2637451	-	F11
2146354.2151174.+	2146354	2151174	+	KZN_605	2280032.2284852.-	2284852	2280032	-	F11
103839.104558.-	104558	103839	-	KZN_605	103843.104562.-	104562	103843	-	F11
3875125.3875844.+	3875125	3875844	+	KZN_605	103843.104562.-	104562	103843	-	F11
2633432.2634154.+	2633432	2634154	+	KZN_605	103843.104562.-	104562	103843	-	F11
2718913.2719353.+	2718913	2719353	+	KZN_605	1698633.1699073.-	1699073	1698633	-	F11
714513.715577.+	714513	715577	+	KZN_605	717430.718494.+	717430	718494	+	F11
1453826.1454080.+	1453826	1454080	+	KZN_605	2973164.2973418.-	2973418	2973164	-	F11
1380245.1380493.-	1380493	1380245	-	KZN_605	3046590.3046838.+	3046590	3046838	+	F11
1963381.1964538.+	1963381	1964538	+	KZN_605	2464318.2465475.-	2465475	2464318	-	F11
4029181.4029264.-	4029264	4029181	-	KZN_605	4055733.4055816.-	4055816	4055733	-	F11
412243.413688.+	412243	413688	+	KZN_605	412436.413881.+	412436	413881	+	F11
3557849.3558073.-	3558073	3557849	-	KZN_605	3570394.3570618.-	3570618	3570394	-	F11
890178.890396.+	890178	890396	+	KZN_605	3724019.3724237.+	3724019	3724237	+	F11
2633198.2634154.+	2633198	2634154	+	KZN_605	1783832.1784788.-	1784788	1783832	-	F11
103839.104792.-	104792	103839	-	KZN_605	1783832.1784788.-	1784788	1783832	-	F11
3874891.3875844.+	3874891	3875844	+	KZN_605	1783832.1784788.-	1784788	1783832	-	F11
1211932.1213146.+	1211932	1213146	+	KZN_605	3212323.3213537.-	3213537	3212323	-	F11
676343.676621.+	676343	676621	+	KZN_605	679260.679538.+	679260	679538	+	F11
563827.565194.+	563827	565194	+	KZN_605	566736.568103.+	566736	568103	+	F11
4157421.4157984.+	4157421	4157984	+	KZN_605	4182607.4183170.+	4182607	4183170	+	F11
1966691.1968502.-	1968502	1966691	-	KZN_605	2460354.2462165.+	2460354	2462165	+	F11
31925.32068.-	32068	31925	-	KZN_605	31925.32068.-	32068	31925	-	F11
614562.614966.-	614966	614562	-	KZN_605	617470.617874.-	617874	617470	-	F11
2835943.2836545.-	2836545	2835943	-	KZN_605	1581271.1581873.+	1581271	1581873	+	F11
150712.151308.+	150712	151308	+	KZN_605	150716.151312.+	150716	151312	+	F11
2632759.2633427.+	2632759	2633427	+	KZN_605	104567.105235.-	105235	104567	-	F11
2832402.2832884.-	2832884	2832402	-	KZN_605	1584932.1585414.+	1584932	1585414	+	F11
2633192.2634154.+	2633192	2634154	+	KZN_605	1783832.1784794.-	1784794	1783832	-	F11
103839.104798.-	104798	103839	-	KZN_605	1783832.1784794.-	1784794	1783832	-	F11
3874885.3875844.+	3874885	3875844	+	KZN_605	1783832.1784794.-	1784794	1783832	-	F11
3064376.3065128.+	3064376	3065128	+	KZN_605	1350700.1351452.-	1351452	1350700	-	F11
1640230.1640634.-	1640634	1640230	-	KZN_605	2787834.2788238.+	2787834	2788238	+	F11
2352126.2353055.-	2353055	2352126	-	KZN_605	2077948.2078877.+	2077948	2078877	+	F11
3664026.3664991.+	3664026	3664991	+	KZN_605	3676571.3677536.+	3676571	3677536	+	F11
1796691.1797110.-	1797110	1796691	-	KZN_605	2630394.2630813.+	2630394	2630813	+	F11
1431411.1432277.-	1432277	1431411	-	KZN_605	2994967.2995833.+	2994967	2995833	+	F11
1969707.1970846.+	1969707	1970846	+	KZN_605	2458010.2459149.-	2459149	2458010	-	F11
4338881.4339996.+	4338881	4339996	+	KZN_605	4364066.4365181.+	4364066	4365181	+	F11
776429.779245.-	779245	776429	-	KZN_605	779347.782163.-	782163	779347	-	F11
3338186.3338407.-	3338407	3338186	-	KZN_605	1077150.1077371.+	1077150	1077371	+	F11
3133184.3134047.-	3134047	3133184	-	KZN_605	1168340.1169203.-	1169203	1168340	-	F11
3246288.3247151.+	3246288	3247151	+	KZN_605	1168340.1169203.-	1169203	1168340	-	F11
3752926.3763950.-	3763950	3752926	-	KZN_605	3768418.3779442.-	3779442	3768418	-	F11
640958.641224.-	641224	640958	-	KZN_605	643866.644132.-	644132	643866	-	F11
510637.510915.-	510915	510637	-	KZN_605	513547.513825.-	513825	513547	-	F11
1438731.1439357.+	1438731	1439357	+	KZN_605	2987887.2988513.-	2988513	2987887	-	F11
3647118.3648614.+	3647118	3648614	+	KZN_605	3659663.3661159.+	3659663	3661159	+	F11
3196920.3197372.-	3197372	3196920	-	KZN_605	1218262.1218714.+	1218262	1218714	+	F11
1435594.1435959.+	1435594	1435959	+	KZN_605	2991285.2991650.-	2991650	2991285	-	F11
4197397.4198824.-	4198824	4197397	-	KZN_605	4222583.4224010.-	4224010	4222583	-	F11
1644757.1645563.-	1645563	1644757	-	KZN_605	2782905.2783711.+	2782905	2783711	+	F11
3491442.3492311.+	3491442	3492311	+	KZN_605	3502629.3503498.+	3502629	3503498	+	F11
3264695.3265162.-	3265162	3264695	-	KZN_605	1150329.1150796.+	1150329	1150796	+	F11
4208835.4210463.+	4208835	4210463	+	KZN_605	4234021.4235649.+	4234021	4235649	+	F11
41409.42014.+	41409	42014	+	KZN_605	41408.42013.+	41408	42013	+	F11
2466857.2467048.+	2466857	2467048	+	KZN_605	1952122.1952313.-	1952313	1952122	-	F11
2394632.2395723.-	2395723	2394632	-	KZN_605	2036639.2037730.+	2036639	2037730	+	F11
542402.543112.+	542402	543112	+	KZN_605	545311.546021.+	545311	546021	+	F11
2926168.2926350.+	2926168	2926350	+	KZN_605	1492567.1492749.-	1492749	1492567	-	F11
3046256.3046915.-	3046915	3046256	-	KZN_605	1368914.1369573.+	1368914	1369573	+	F11
698835.699305.-	699305	698835	-	KZN_605	701752.702222.-	702222	701752	-	F11
254577.255908.-	255908	254577	-	KZN_605	254955.256286.-	256286	254955	-	F11
3397176.3397334.-	3397334	3397176	-	KZN_605	1018223.1018381.+	1018223	1018381	+	F11
2367392.2368594.+	2367392	2368594	+	KZN_605	2062409.2063611.-	2063611	2062409	-	F11
1238944.1239138.-	1239138	1238944	-	KZN_605	3186331.3186525.+	3186331	3186525	+	F11
2264742.2265359.+	2264742	2265359	+	KZN_605	2165643.2166260.-	2166260	2165643	-	F11
2239715.2240494.+	2239715	2240494	+	KZN_605	2190715.2191494.-	2191494	2190715	-	F11
4113195.4114235.+	4113195	4114235	+	KZN_605	4138440.4139480.+	4138440	4139480	+	F11
768161.768481.-	768481	768161	-	KZN_605	771078.771398.-	771398	771078	-	F11
3225981.3226838.-	3226838	3225981	-	KZN_605	1188653.1189510.+	1188653	1189510	+	F11
1056355.1056558.+	1056355	1056558	+	KZN_605	3368934.3369137.-	3369137	3368934	-	F11
3883995.3885176.+	3883995	3885176	+	KZN_605	3906779.3907960.+	3906779	3907960	+	F11
2878484.2879674.+	2878484	2879674	+	KZN_605	3906779.3907960.+	3906779	3907960	+	F11
3071541.3072716.-	3072716	3071541	-	KZN_605	3906779.3907960.+	3906779	3907960	+	F11
4183255.4183617.+	4183255	4183617	+	KZN_605	4208441.4208803.+	4208441	4208803	+	F11
4296853.4298211.+	4296853	4298211	+	KZN_605	4322039.4323397.+	4322039	4323397	+	F11
3726386.3733999.-	3733999	3726386	-	KZN_605	3741691.3749304.-	3749304	3741691	-	F11
932094.932978.-	932978	932094	-	KZN_605	1485727.1486611.+	1485727	1486611	+	F11
1292393.1293277.+	1292393	1293277	+	KZN_605	1485727.1486611.+	1485727	1486611	+	F11
1330608.1331492.-	1331492	1330608	-	KZN_605	1485727.1486611.+	1485727	1486611	+	F11
1606101.1606985.-	1606985	1606101	-	KZN_605	1485727.1486611.+	1485727	1486611	+	F11
1781661.1782545.+	1781661	1782545	+	KZN_605	1485727.1486611.+	1485727	1486611	+	F11
1861208.1862092.+	1861208	1862092	+	KZN_605	1485727.1486611.+	1485727	1486611	+	F11
2048454.2049338.+	2048454	2049338	+	KZN_605	1485727.1486611.+	1485727	1486611	+	F11
2050125.2051009.+	2050125	2051009	+	KZN_605	1485727.1486611.+	1485727	1486611	+	F11
2155551.2156435.-	2156435	2155551	-	KZN_605	1485727.1486611.+	1485727	1486611	+	F11
2375812.2376696.+	2375812	2376696	+	KZN_605	1485727.1486611.+	1485727	1486611	+	F11
2435059.2435943.+	2435059	2435943	+	KZN_605	1485727.1486611.+	1485727	1486611	+	F11
3480022.3480906.+	3480022	3480906	+	KZN_605	1485727.1486611.+	1485727	1486611	+	F11
3488592.3489476.-	3489476	3488592	-	KZN_605	1485727.1486611.+	1485727	1486611	+	F11
3709850.3710734.-	3710734	3709850	-	KZN_605	1485727.1486611.+	1485727	1486611	+	F11
4064133.4065017.-	4065017	4064133	-	KZN_605	1485727.1486611.+	1485727	1486611	+	F11
1806979.1807734.-	1807734	1806979	-	KZN_605	2619770.2620525.+	2619770	2620525	+	F11
336438.339176.-	339176	336438	-	KZN_605	336752.339451.-	339451	336752	-	F11
2196851.2197111.+	2196851	2197111	+	KZN_605	2234095.2234355.-	2234355	2234095	-	F11
3874885.3875844.+	3874885	3875844	+	KZN_605	3897669.3898628.+	3897669	3898628	+	F11
103839.104798.-	104798	103839	-	KZN_605	3897669.3898628.+	3897669	3898628	+	F11
2633192.2634154.+	2633192	2634154	+	KZN_605	3897669.3898628.+	3897669	3898628	+	F11
4119447.4120148.+	4119447	4120148	+	KZN_605	4144692.4145393.+	4144692	4145393	+	F11
3357490.3357972.-	3357972	3357490	-	KZN_605	1057585.1058067.+	1057585	1058067	+	F11
1831953.1832222.-	1832222	1831953	-	KZN_605	2595274.2595543.+	2595274	2595543	+	F11
241915.243153.-	243153	241915	-	KZN_605	242294.243532.-	243532	242294	-	F11
1651414.1653030.-	1653030	1651414	-	KZN_605	2775438.2777054.+	2775438	2777054	+	F11
2950829.2951074.-	2951074	2950829	-	KZN_605	1464812.1465057.+	1464812	1465057	+	F11
1445077.1445394.+	1445077	1445394	+	KZN_605	2981850.2982167.-	2982167	2981850	-	F11
455158.456018.-	456018	455158	-	KZN_605	455462.456322.-	456322	455462	-	F11
710656.710898.+	710656	710898	+	KZN_605	713573.713815.+	713573	713815	+	F11
1451486.1453822.+	1451486	1453822	+	KZN_605	2973422.2975758.-	2975758	2973422	-	F11
1433531.1433803.-	1433803	1433531	-	KZN_605	2993441.2993713.+	2993441	2993713	+	F11
2943634.2943948.+	2943634	2943948	+	KZN_605	1471938.1472252.-	1472252	1471938	-	F11
4241828.4242142.+	4241828	4242142	+	KZN_605	1471938.1472252.-	1472252	1471938	-	F11
833539.833853.+	833539	833853	+	KZN_605	1471938.1472252.-	1472252	1471938	-	F11
3092083.3098340.-	3098340	3092083	-	KZN_605	1317490.1323747.+	1317490	1323747	+	F11
4068158.4068352.-	4068352	4068158	-	KZN_605	4093574.4093768.-	4093768	4093574	-	F11
768161.768535.-	768535	768161	-	KZN_605	771078.771452.-	771452	771078	-	F11
1031097.1032407.+	1031097	1032407	+	KZN_605	1173130.1174440.+	1173130	1174440	+	F11
1584061.1585371.+	1584061	1585371	+	KZN_605	1173130.1174440.+	1173130	1174440	+	F11
3069397.3070707.+	3069397	3070707	+	KZN_605	1173130.1174440.+	1173130	1174440	+	F11
3241051.3242361.-	3242361	3241051	-	KZN_605	1173130.1174440.+	1173130	1174440	+	F11
3481966.3483276.+	3481966	3483276	+	KZN_605	1173130.1174440.+	1173130	1174440	+	F11
3002106.3002579.+	3002106	3002579	+	KZN_605	1413251.1413724.-	1413724	1413251	-	F11
800472.800693.+	800472	800693	+	KZN_605	803390.803611.+	803390	803611	+	F11
2013513.2014859.+	2013513	2014859	+	KZN_605	2413937.2415283.-	2415283	2413937	-	F11
547846.549876.-	549876	547846	-	KZN_605	550755.552785.-	552785	550755	-	F11
1684660.1684950.+	1684660	1684950	+	KZN_605	2743518.2743808.-	2743808	2743518	-	F11
1393332.1393580.+	1393332	1393580	+	KZN_605	3033503.3033751.-	3033751	3033503	-	F11
2393466.2393585.-	2393585	2393466	-	KZN_605	2038776.2038895.+	2038776	2038895	+	F11
3071110.3071229.-	3071229	3071110	-	KZN_605	2038776.2038895.+	2038776	2038895	+	F11
3250749.3250868.+	3250749	3250868	+	KZN_605	2038776.2038895.+	2038776	2038895	+	F11
4046524.4046643.-	4046643	4046524	-	KZN_605	2038776.2038895.+	2038776	2038895	+	F11
1790365.1790484.+	1790365	1790484	+	KZN_605	2038776.2038895.+	2038776	2038895	+	F11
1780611.1780730.+	1780611	1780730	+	KZN_605	2038776.2038895.+	2038776	2038895	+	F11
3622392.3624155.-	3624155	3622392	-	KZN_605	3634937.3636700.-	3636700	3634937	-	F11
1583788.1583973.-	1583973	1583788	-	KZN_605	2843272.2843457.+	2843272	2843457	+	F11
53456.55801.+	53456	55801	+	KZN_605	53455.55803.+	53455	55803	+	F11
1973439.1974326.+	1973439	1974326	+	KZN_605	2454530.2455417.-	2455417	2454530	-	F11
1062664.1063509.+	1062664	1063509	+	KZN_605	3361983.3362828.-	3362828	3361983	-	F11
627613.628608.+	627613	628608	+	KZN_605	630521.631516.+	630521	631516	+	F11
4200018.4200797.+	4200018	4200797	+	KZN_605	4225204.4225983.+	4225204	4225983	+	F11
3083003.3084376.+	3083003	3084376	+	KZN_605	1331454.1332827.-	1332827	1331454	-	F11
