1077826.1078440.+	1077826	1078440	+	KZN_4207-B	3330663.3331277.-	3331277	3330663	-	KZN_V2475
701710.702324.+	701710	702324	+	KZN_4207-B	3330663.3331277.-	3331277	3330663	-	KZN_V2475
1217664.1218281.+	1217664	1218281	+	KZN_4207-B	3191102.3191719.-	3191719	3191102	-	KZN_V2475
1311409.1312020.+	1311409	1312020	+	KZN_4207-B	3191102.3191719.-	3191719	3191102	-	KZN_V2475
