3335164.3335778.-	3335778	3335164	-	H37Rv	3330664.3331278.-	3331278	3330664	-	KZN_4207
701400.702014.+	701400	702014	+	H37Rv	3330664.3331278.-	3331278	3330664	-	KZN_4207
3195545.3196162.-	3196162	3195545	-	H37Rv	3191103.3191720.-	3191720	3191103	-	KZN_4207
3101581.3102192.-	3102192	3101581	-	H37Rv	3191103.3191720.-	3191720	3191103	-	KZN_4207
