1077826.1078440.+	1077826	1078440	+	KZN_1435	3330663.3331277.-	3331277	3330663	-	KZN_V2475
701652.702266.+	701652	702266	+	KZN_1435	3330663.3331277.-	3331277	3330663	-	KZN_V2475
1217666.1218283.+	1217666	1218283	+	KZN_1435	3191102.3191719.-	3191719	3191102	-	KZN_V2475
1311465.1312076.+	1311465	1312076	+	KZN_1435	3191102.3191719.-	3191719	3191102	-	KZN_V2475
