1217666.1218283.+	1217666	1218283	+	KZN_1435	1217778.1218395.+	1217778	1218395	+	KZN_605
1311465.1312076.+	1311465	1312076	+	KZN_1435	1217778.1218395.+	1217778	1218395	+	KZN_605
1077826.1078440.+	1077826	1078440	+	KZN_1435	1077828.1078442.+	1077828	1078442	+	KZN_605
701652.702266.+	701652	702266	+	KZN_1435	1077828.1078442.+	1077828	1078442	+	KZN_605
