42662.43270.+	42662	43270	+	H37Ra	41406.42014.+	41406	42014	+	KZN_V2475
49591.50385.-	50385	49591	-	H37Ra	48335.49129.-	49129	48335	-	KZN_V2475
109514.111136.+	109514	111136	+	H37Ra	108286.109908.+	108286	109908	+	KZN_V2475
47939.48565.-	48565	47939	-	H37Ra	46683.47309.-	47309	46683	-	KZN_V2475
7302.9818.+	7302	9818	+	H37Ra	7403.9919.+	7403	9919	+	KZN_V2475
40414.41187.-	41187	40414	-	H37Ra	39158.39931.-	39931	39158	-	KZN_V2475
149267.149701.-	149701	149267	-	H37Ra	148040.148474.-	148474	148040	-	KZN_V2475
84106.85341.+	84106	85341	+	H37Ra	82878.84113.+	82878	84113	+	KZN_V2475
68281.69720.+	68281	69720	+	H37Ra	67025.68464.+	67025	68464	+	KZN_V2475
60767.61225.+	60767	61225	+	H37Ra	59511.59969.+	59511	59969	+	KZN_V2475
34940.35152.+	34940	35152	+	H37Ra	33683.33895.+	33683	33895	+	KZN_V2475
75987.76556.-	76556	75987	-	H37Ra	74768.75337.-	75337	74768	-	KZN_V2475
96772.98250.+	96772	98250	+	H37Ra	95544.97022.+	95544	97022	+	KZN_V2475
53186.54055.-	54055	53186	-	H37Ra	51930.52799.-	52799	51930	-	KZN_V2475
15447.16235.+	15447	16235	+	H37Ra	14190.14978.+	14190	14978	+	KZN_V2475
764676.768626.+	764676	768626	+	H37Ra	764148.768098.+	764148	768098	+	KZN_V2475
43791.44723.-	44723	43791	-	H37Ra	42535.43467.-	43467	42535	-	KZN_V2475
76659.77570.+	76659	77570	+	H37Ra	75440.76351.+	75440	76351	+	KZN_V2475
54189.54602.+	54189	54602	+	H37Ra	52933.53346.+	52933	53346	+	KZN_V2475
30603.30965.+	30603	30965	+	H37Ra	29346.29708.+	29346	29708	+	KZN_V2475
15072.15353.-	15353	15072	-	H37Ra	13815.14096.-	14096	13815	-	KZN_V2475
22995.24530.-	24530	22995	-	H37Ra	21738.23273.-	23273	21738	-	KZN_V2475
995160.996647.+	995160	996647	+	H37Ra	994704.996191.+	994704	996191	+	KZN_V2475
50401.51297.-	51297	50401	-	H37Ra	49145.50041.-	50041	49145	-	KZN_V2475
101042.101809.+	101042	101809	+	H37Ra	99814.100581.+	99814	100581	+	KZN_V2475
58768.59331.+	58768	59331	+	H37Ra	57512.58075.+	57512	58075	+	KZN_V2475
2052.3260.+	2052	3260	+	H37Ra	2153.3361.+	2153	3361	+	KZN_V2475
121273.123531.-	123531	121273	-	H37Ra	120045.122303.-	122303	120045	-	KZN_V2475
86541.86930.-	86930	86541	-	H37Ra	85313.85702.-	85702	85313	-	KZN_V2475
73179.73580.+	73179	73580	+	H37Ra	71960.72361.+	71960	72361	+	KZN_V2475
25219.26802.-	26802	25219	-	H37Ra	23962.25545.-	25545	23962	-	KZN_V2475
12468.13016.+	12468	13016	+	H37Ra	12569.13117.+	12569	13117	+	KZN_V2475
143487.145235.-	145235	143487	-	H37Ra	142260.144008.-	144008	142260	-	KZN_V2475
66349.66774.+	66349	66774	+	H37Ra	65093.65518.+	65093	65518	+	KZN_V2475
32872.33177.+	32872	33177	+	H37Ra	31615.31920.+	31615	31920	+	KZN_V2475
135309.137366.+	135309	137366	+	H37Ra	134082.136139.+	134082	136139	+	KZN_V2475
137648.138604.+	137648	138604	+	H37Ra	136421.137377.+	136421	137377	+	KZN_V2475
141626.142381.-	142381	141626	-	H37Ra	140399.141154.-	141154	140399	-	KZN_V2475
99838.100608.+	99838	100608	+	H37Ra	98610.99380.+	98610	99380	+	KZN_V2475
150215.150583.+	150215	150583	+	H37Ra	148988.149356.+	148988	149356	+	KZN_V2475
132741.134231.+	132741	134231	+	H37Ra	131514.133004.+	131514	133004	+	KZN_V2475
87886.88491.+	87886	88491	+	H37Ra	86658.87263.+	86658	87263	+	KZN_V2475
60480.60734.+	60480	60734	+	H37Ra	59224.59478.+	59224	59478	+	KZN_V2475
59550.59840.+	59550	59840	+	H37Ra	58294.58584.+	58294	58584	+	KZN_V2475
65267.66325.+	65267	66325	+	H37Ra	64011.65069.+	64011	65069	+	KZN_V2475
90380.90838.+	90380	90838	+	H37Ra	89152.89610.+	89152	89610	+	KZN_V2475
57054.58736.+	57054	58736	+	H37Ra	55798.57480.+	55798	57480	+	KZN_V2475
52543.53085.-	53085	52543	-	H37Ra	51287.51829.-	51829	51287	-	KZN_V2475
86994.87824.-	87824	86994	-	H37Ra	85766.86596.-	86596	85766	-	KZN_V2475
28381.28800.-	28800	28381	-	H37Ra	27124.27543.-	27543	27124	-	KZN_V2475
59944.60438.+	59944	60438	+	H37Ra	58688.59182.+	58688	59182	+	KZN_V2475
64558.65250.+	64558	65250	+	H37Ra	63302.63994.+	63302	63994	+	KZN_V2475
69978.72917.+	69978	72917	+	H37Ra	68722.71661.+	68722	71661	+	KZN_V2475
138678.139268.+	138678	139268	+	H37Ra	137451.138041.+	137451	138041	+	KZN_V2475
2298581.2299141.-	2299141	2298581	-	H37Ra	2283421.2283981.-	2283981	2283421	-	KZN_V2475
27271.28239.-	28239	27271	-	H37Ra	26014.26982.-	26982	26014	-	KZN_V2475
5123.7267.+	5123	7267	+	H37Ra	5224.7368.+	5224	7368	+	KZN_V2475
32547.32864.+	32547	32864	+	H37Ra	31290.31607.+	31290	31607	+	KZN_V2475
73632.75869.-	75869	73632	-	H37Ra	72413.74650.-	74650	72413	-	KZN_V2475
1.1524.+	1	1524	+	H37Ra	102.1625.+	102	1625	+	KZN_V2475
38617.40305.+	38617	40305	+	H37Ra	37361.39049.+	37361	39049	+	KZN_V2475
134379.135128.+	134379	135128	+	H37Ra	133152.133901.+	133152	133901	+	KZN_V2475
125338.125622.-	125622	125338	-	H37Ra	124110.124394.-	124394	124110	-	KZN_V2475
83034.84026.+	83034	84026	+	H37Ra	81806.82798.+	81806	82798	+	KZN_V2475
61754.64378.+	61754	64378	+	H37Ra	60498.63122.+	60498	63122	+	KZN_V2475
104173.105021.-	105021	104173	-	H37Ra	102945.103793.-	103793	102945	-	KZN_V2475
119072.121057.+	119072	121057	+	H37Ra	117844.119829.+	117844	119829	+	KZN_V2475
1675719.1676528.+	1675719	1676528	+	H37Ra	1673878.1674687.+	1673878	1674687	+	KZN_V2475
761113.764631.+	761113	764631	+	H37Ra	760585.764103.+	760585	764103	+	KZN_V2475
139872.141032.+	139872	141032	+	H37Ra	138645.139805.+	138645	139805	+	KZN_V2475
85354.86526.+	85354	86526	+	H37Ra	84126.85298.+	84126	85298	+	KZN_V2475
106682.108073.+	106682	108073	+	H37Ra	105454.106845.+	105454	106845	+	KZN_V2475
132253.132462.-	132462	132253	-	H37Ra	131026.131235.-	131235	131026	-	KZN_V2475
4434.4997.+	4434	4997	+	H37Ra	4535.5098.+	4535	5098	+	KZN_V2475
145408.146985.+	145408	146985	+	H37Ra	144181.145758.+	144181	145758	+	KZN_V2475
123675.125189.+	123675	125189	+	H37Ra	122447.123961.+	122447	123961	+	KZN_V2475
90933.91277.+	90933	91277	+	H37Ra	89705.90049.+	89705	90049	+	KZN_V2475
66910.68052.+	66910	68052	+	H37Ra	65654.66796.+	65654	66796	+	KZN_V2475
43362.43709.-	43709	43362	-	H37Ra	42106.42453.-	42453	42106	-	KZN_V2475
108958.109509.+	108958	109509	+	H37Ra	107730.108281.+	107730	108281	+	KZN_V2475
11874.12311.-	12311	11874	-	H37Ra	11975.12412.-	12412	11975	-	KZN_V2475
9914.10828.+	9914	10828	+	H37Ra	10015.10929.+	10015	10929	+	KZN_V2475
93686.94636.+	93686	94636	+	H37Ra	92458.93408.+	92458	93408	+	KZN_V2475
29720.30565.+	29720	30565	+	H37Ra	28463.29308.+	28463	29308	+	KZN_V2475
51379.52482.-	52482	51379	-	H37Ra	50123.51226.-	51226	50123	-	KZN_V2475
98285.98959.+	98285	98959	+	H37Ra	97057.97731.+	97057	97731	+	KZN_V2475
78977.80254.-	80254	78977	-	H37Ra	77758.79035.-	79035	77758	-	KZN_V2475
31080.32426.+	31080	32426	+	H37Ra	29823.31169.+	29823	31169	+	KZN_V2475
13133.13558.-	13558	13133	-	H37Ra	13234.13659.-	13659	13234	-	KZN_V2475
99116.99709.+	99116	99709	+	H37Ra	97888.98481.+	97888	98481	+	KZN_V2475
48724.49458.-	49458	48724	-	H37Ra	47468.48202.-	48202	47468	-	KZN_V2475
146986.149130.-	149130	146986	-	H37Ra	145759.147903.-	147903	145759	-	KZN_V2475
41235.42560.-	42560	41235	-	H37Ra	39979.41304.-	41304	39979	-	KZN_V2475
33415.34512.+	33415	34512	+	H37Ra	32158.33255.+	32158	33255	+	KZN_V2475
81982.83031.+	81982	83031	+	H37Ra	80754.81803.+	80754	81803	+	KZN_V2475
125732.126928.+	125732	126928	+	H37Ra	124504.125700.+	124504	125700	+	KZN_V2475
88566.89159.-	89159	88566	-	H37Ra	87338.87931.-	87931	87338	-	KZN_V2475
44920.47829.+	44920	47829	+	H37Ra	43664.46573.+	43664	46573	+	KZN_V2475
91758.93680.+	91758	93680	+	H37Ra	90530.92452.+	90530	92452	+	KZN_V2475
