932092.932928.-	932928	932092	-	KZN_4207-B	2004661.2005497.+	2004661	2005497	+	F11
1292273.1293109.+	1292273	1293109	+	KZN_4207-B	2004661.2005497.+	2004661	2005497	+	F11
1330440.1331276.-	1331276	1330440	-	KZN_4207-B	2004661.2005497.+	2004661	2005497	+	F11
1605930.1606766.-	1606766	1605930	-	KZN_4207-B	2004661.2005497.+	2004661	2005497	+	F11
1781480.1782316.+	1781480	1782316	+	KZN_4207-B	2004661.2005497.+	2004661	2005497	+	F11
1861027.1861863.+	1861027	1861863	+	KZN_4207-B	2004661.2005497.+	2004661	2005497	+	F11
2048386.2049222.+	2048386	2049222	+	KZN_4207-B	2004661.2005497.+	2004661	2005497	+	F11
2372709.2373545.+	2372709	2373545	+	KZN_4207-B	2004661.2005497.+	2004661	2005497	+	F11
2431956.2432792.+	2431956	2432792	+	KZN_4207-B	2004661.2005497.+	2004661	2005497	+	F11
3477049.3477885.+	3477049	3477885	+	KZN_4207-B	2004661.2005497.+	2004661	2005497	+	F11
3705471.3706307.-	3706307	3705471	-	KZN_4207-B	2004661.2005497.+	2004661	2005497	+	F11
4059867.4060703.-	4060703	4059867	-	KZN_4207-B	2004661.2005497.+	2004661	2005497	+	F11
932092.932928.-	932928	932092	-	KZN_4207-B	934704.935540.-	935540	934704	-	F11
1292273.1293109.+	1292273	1293109	+	KZN_4207-B	934704.935540.-	935540	934704	-	F11
1330440.1331276.-	1331276	1330440	-	KZN_4207-B	934704.935540.-	935540	934704	-	F11
1605930.1606766.-	1606766	1605930	-	KZN_4207-B	934704.935540.-	935540	934704	-	F11
1781480.1782316.+	1781480	1782316	+	KZN_4207-B	934704.935540.-	935540	934704	-	F11
1861027.1861863.+	1861027	1861863	+	KZN_4207-B	934704.935540.-	935540	934704	-	F11
2048386.2049222.+	2048386	2049222	+	KZN_4207-B	934704.935540.-	935540	934704	-	F11
2372709.2373545.+	2372709	2373545	+	KZN_4207-B	934704.935540.-	935540	934704	-	F11
2431956.2432792.+	2431956	2432792	+	KZN_4207-B	934704.935540.-	935540	934704	-	F11
3477049.3477885.+	3477049	3477885	+	KZN_4207-B	934704.935540.-	935540	934704	-	F11
3705471.3706307.-	3706307	3705471	-	KZN_4207-B	934704.935540.-	935540	934704	-	F11
4059867.4060703.-	4060703	4059867	-	KZN_4207-B	934704.935540.-	935540	934704	-	F11
932092.932928.-	932928	932092	-	KZN_4207-B	3132521.3133357.-	3133357	3132521	-	F11
1292273.1293109.+	1292273	1293109	+	KZN_4207-B	3132521.3133357.-	3133357	3132521	-	F11
1330440.1331276.-	1331276	1330440	-	KZN_4207-B	3132521.3133357.-	3133357	3132521	-	F11
1605930.1606766.-	1606766	1605930	-	KZN_4207-B	3132521.3133357.-	3133357	3132521	-	F11
1781480.1782316.+	1781480	1782316	+	KZN_4207-B	3132521.3133357.-	3133357	3132521	-	F11
1861027.1861863.+	1861027	1861863	+	KZN_4207-B	3132521.3133357.-	3133357	3132521	-	F11
2048386.2049222.+	2048386	2049222	+	KZN_4207-B	3132521.3133357.-	3133357	3132521	-	F11
2372709.2373545.+	2372709	2373545	+	KZN_4207-B	3132521.3133357.-	3133357	3132521	-	F11
2431956.2432792.+	2431956	2432792	+	KZN_4207-B	3132521.3133357.-	3133357	3132521	-	F11
3477049.3477885.+	3477049	3477885	+	KZN_4207-B	3132521.3133357.-	3133357	3132521	-	F11
3705471.3706307.-	3706307	3705471	-	KZN_4207-B	3132521.3133357.-	3133357	3132521	-	F11
4059867.4060703.-	4060703	4059867	-	KZN_4207-B	3132521.3133357.-	3133357	3132521	-	F11
932092.932928.-	932928	932092	-	KZN_4207-B	2697370.2698206.-	2698206	2697370	-	F11
1292273.1293109.+	1292273	1293109	+	KZN_4207-B	2697370.2698206.-	2698206	2697370	-	F11
1330440.1331276.-	1331276	1330440	-	KZN_4207-B	2697370.2698206.-	2698206	2697370	-	F11
1605930.1606766.-	1606766	1605930	-	KZN_4207-B	2697370.2698206.-	2698206	2697370	-	F11
1781480.1782316.+	1781480	1782316	+	KZN_4207-B	2697370.2698206.-	2698206	2697370	-	F11
1861027.1861863.+	1861027	1861863	+	KZN_4207-B	2697370.2698206.-	2698206	2697370	-	F11
2048386.2049222.+	2048386	2049222	+	KZN_4207-B	2697370.2698206.-	2698206	2697370	-	F11
2372709.2373545.+	2372709	2373545	+	KZN_4207-B	2697370.2698206.-	2698206	2697370	-	F11
2431956.2432792.+	2431956	2432792	+	KZN_4207-B	2697370.2698206.-	2698206	2697370	-	F11
3477049.3477885.+	3477049	3477885	+	KZN_4207-B	2697370.2698206.-	2698206	2697370	-	F11
3705471.3706307.-	3706307	3705471	-	KZN_4207-B	2697370.2698206.-	2698206	2697370	-	F11
4059867.4060703.-	4060703	4059867	-	KZN_4207-B	2697370.2698206.-	2698206	2697370	-	F11
3833494.3834021.+	3833494	3834021	+	KZN_4207-B	3853539.3854060.+	3853539	3854060	+	F11
932092.932928.-	932928	932092	-	KZN_4207-B	3722337.3723173.-	3723173	3722337	-	F11
1292273.1293109.+	1292273	1293109	+	KZN_4207-B	3722337.3723173.-	3723173	3722337	-	F11
1330440.1331276.-	1331276	1330440	-	KZN_4207-B	3722337.3723173.-	3723173	3722337	-	F11
1605930.1606766.-	1606766	1605930	-	KZN_4207-B	3722337.3723173.-	3723173	3722337	-	F11
1781480.1782316.+	1781480	1782316	+	KZN_4207-B	3722337.3723173.-	3723173	3722337	-	F11
1861027.1861863.+	1861027	1861863	+	KZN_4207-B	3722337.3723173.-	3723173	3722337	-	F11
2048386.2049222.+	2048386	2049222	+	KZN_4207-B	3722337.3723173.-	3723173	3722337	-	F11
2372709.2373545.+	2372709	2373545	+	KZN_4207-B	3722337.3723173.-	3723173	3722337	-	F11
2431956.2432792.+	2431956	2432792	+	KZN_4207-B	3722337.3723173.-	3723173	3722337	-	F11
3477049.3477885.+	3477049	3477885	+	KZN_4207-B	3722337.3723173.-	3723173	3722337	-	F11
3705471.3706307.-	3706307	3705471	-	KZN_4207-B	3722337.3723173.-	3723173	3722337	-	F11
4059867.4060703.-	4060703	4059867	-	KZN_4207-B	3722337.3723173.-	3723173	3722337	-	F11
1077826.1078440.+	1077826	1078440	+	KZN_4207-B	3346637.3347251.-	3347251	3346637	-	F11
701710.702324.+	701710	702324	+	KZN_4207-B	3346637.3347251.-	3347251	3346637	-	F11
932092.932928.-	932928	932092	-	KZN_4207-B	2645453.2646289.+	2645453	2646289	+	F11
1292273.1293109.+	1292273	1293109	+	KZN_4207-B	2645453.2646289.+	2645453	2646289	+	F11
1330440.1331276.-	1331276	1330440	-	KZN_4207-B	2645453.2646289.+	2645453	2646289	+	F11
1605930.1606766.-	1606766	1605930	-	KZN_4207-B	2645453.2646289.+	2645453	2646289	+	F11
1781480.1782316.+	1781480	1782316	+	KZN_4207-B	2645453.2646289.+	2645453	2646289	+	F11
1861027.1861863.+	1861027	1861863	+	KZN_4207-B	2645453.2646289.+	2645453	2646289	+	F11
2048386.2049222.+	2048386	2049222	+	KZN_4207-B	2645453.2646289.+	2645453	2646289	+	F11
2372709.2373545.+	2372709	2373545	+	KZN_4207-B	2645453.2646289.+	2645453	2646289	+	F11
2431956.2432792.+	2431956	2432792	+	KZN_4207-B	2645453.2646289.+	2645453	2646289	+	F11
3477049.3477885.+	3477049	3477885	+	KZN_4207-B	2645453.2646289.+	2645453	2646289	+	F11
3705471.3706307.-	3706307	3705471	-	KZN_4207-B	2645453.2646289.+	2645453	2646289	+	F11
4059867.4060703.-	4060703	4059867	-	KZN_4207-B	2645453.2646289.+	2645453	2646289	+	F11
932092.932928.-	932928	932092	-	KZN_4207-B	3492615.3493451.+	3492615	3493451	+	F11
1292273.1293109.+	1292273	1293109	+	KZN_4207-B	3492615.3493451.+	3492615	3493451	+	F11
1330440.1331276.-	1331276	1330440	-	KZN_4207-B	3492615.3493451.+	3492615	3493451	+	F11
1605930.1606766.-	1606766	1605930	-	KZN_4207-B	3492615.3493451.+	3492615	3493451	+	F11
1781480.1782316.+	1781480	1782316	+	KZN_4207-B	3492615.3493451.+	3492615	3493451	+	F11
1861027.1861863.+	1861027	1861863	+	KZN_4207-B	3492615.3493451.+	3492615	3493451	+	F11
2048386.2049222.+	2048386	2049222	+	KZN_4207-B	3492615.3493451.+	3492615	3493451	+	F11
2372709.2373545.+	2372709	2373545	+	KZN_4207-B	3492615.3493451.+	3492615	3493451	+	F11
2431956.2432792.+	2431956	2432792	+	KZN_4207-B	3492615.3493451.+	3492615	3493451	+	F11
3477049.3477885.+	3477049	3477885	+	KZN_4207-B	3492615.3493451.+	3492615	3493451	+	F11
3705471.3706307.-	3706307	3705471	-	KZN_4207-B	3492615.3493451.+	3492615	3493451	+	F11
4059867.4060703.-	4060703	4059867	-	KZN_4207-B	3492615.3493451.+	3492615	3493451	+	F11
932092.932928.-	932928	932092	-	KZN_4207-B	1983134.1983970.-	1983970	1983134	-	F11
1292273.1293109.+	1292273	1293109	+	KZN_4207-B	1983134.1983970.-	1983970	1983134	-	F11
1330440.1331276.-	1331276	1330440	-	KZN_4207-B	1983134.1983970.-	1983970	1983134	-	F11
1605930.1606766.-	1606766	1605930	-	KZN_4207-B	1983134.1983970.-	1983970	1983134	-	F11
1781480.1782316.+	1781480	1782316	+	KZN_4207-B	1983134.1983970.-	1983970	1983134	-	F11
1861027.1861863.+	1861027	1861863	+	KZN_4207-B	1983134.1983970.-	1983970	1983134	-	F11
2048386.2049222.+	2048386	2049222	+	KZN_4207-B	1983134.1983970.-	1983970	1983134	-	F11
2372709.2373545.+	2372709	2373545	+	KZN_4207-B	1983134.1983970.-	1983970	1983134	-	F11
2431956.2432792.+	2431956	2432792	+	KZN_4207-B	1983134.1983970.-	1983970	1983134	-	F11
3477049.3477885.+	3477049	3477885	+	KZN_4207-B	1983134.1983970.-	1983970	1983134	-	F11
3705471.3706307.-	3706307	3705471	-	KZN_4207-B	1983134.1983970.-	1983970	1983134	-	F11
4059867.4060703.-	4060703	4059867	-	KZN_4207-B	1983134.1983970.-	1983970	1983134	-	F11
932092.932928.-	932928	932092	-	KZN_4207-B	2649321.2650157.+	2649321	2650157	+	F11
1292273.1293109.+	1292273	1293109	+	KZN_4207-B	2649321.2650157.+	2649321	2650157	+	F11
1330440.1331276.-	1331276	1330440	-	KZN_4207-B	2649321.2650157.+	2649321	2650157	+	F11
1605930.1606766.-	1606766	1605930	-	KZN_4207-B	2649321.2650157.+	2649321	2650157	+	F11
1781480.1782316.+	1781480	1782316	+	KZN_4207-B	2649321.2650157.+	2649321	2650157	+	F11
1861027.1861863.+	1861027	1861863	+	KZN_4207-B	2649321.2650157.+	2649321	2650157	+	F11
2048386.2049222.+	2048386	2049222	+	KZN_4207-B	2649321.2650157.+	2649321	2650157	+	F11
2372709.2373545.+	2372709	2373545	+	KZN_4207-B	2649321.2650157.+	2649321	2650157	+	F11
2431956.2432792.+	2431956	2432792	+	KZN_4207-B	2649321.2650157.+	2649321	2650157	+	F11
3477049.3477885.+	3477049	3477885	+	KZN_4207-B	2649321.2650157.+	2649321	2650157	+	F11
3705471.3706307.-	3706307	3705471	-	KZN_4207-B	2649321.2650157.+	2649321	2650157	+	F11
4059867.4060703.-	4060703	4059867	-	KZN_4207-B	2649321.2650157.+	2649321	2650157	+	F11
3833494.3834021.+	3833494	3834021	+	KZN_4207-B	3860885.3861412.+	3860885	3861412	+	F11
932092.932928.-	932928	932092	-	KZN_4207-B	1946034.1946870.-	1946870	1946034	-	F11
1292273.1293109.+	1292273	1293109	+	KZN_4207-B	1946034.1946870.-	1946870	1946034	-	F11
1330440.1331276.-	1331276	1330440	-	KZN_4207-B	1946034.1946870.-	1946870	1946034	-	F11
1605930.1606766.-	1606766	1605930	-	KZN_4207-B	1946034.1946870.-	1946870	1946034	-	F11
1781480.1782316.+	1781480	1782316	+	KZN_4207-B	1946034.1946870.-	1946870	1946034	-	F11
1861027.1861863.+	1861027	1861863	+	KZN_4207-B	1946034.1946870.-	1946870	1946034	-	F11
2048386.2049222.+	2048386	2049222	+	KZN_4207-B	1946034.1946870.-	1946870	1946034	-	F11
2372709.2373545.+	2372709	2373545	+	KZN_4207-B	1946034.1946870.-	1946870	1946034	-	F11
2431956.2432792.+	2431956	2432792	+	KZN_4207-B	1946034.1946870.-	1946870	1946034	-	F11
3477049.3477885.+	3477049	3477885	+	KZN_4207-B	1946034.1946870.-	1946870	1946034	-	F11
3705471.3706307.-	3706307	3705471	-	KZN_4207-B	1946034.1946870.-	1946870	1946034	-	F11
4059867.4060703.-	4060703	4059867	-	KZN_4207-B	1946034.1946870.-	1946870	1946034	-	F11
932092.932928.-	932928	932092	-	KZN_4207-B	2349765.2350601.+	2349765	2350601	+	F11
1292273.1293109.+	1292273	1293109	+	KZN_4207-B	2349765.2350601.+	2349765	2350601	+	F11
1330440.1331276.-	1331276	1330440	-	KZN_4207-B	2349765.2350601.+	2349765	2350601	+	F11
1605930.1606766.-	1606766	1605930	-	KZN_4207-B	2349765.2350601.+	2349765	2350601	+	F11
1781480.1782316.+	1781480	1782316	+	KZN_4207-B	2349765.2350601.+	2349765	2350601	+	F11
1861027.1861863.+	1861027	1861863	+	KZN_4207-B	2349765.2350601.+	2349765	2350601	+	F11
2048386.2049222.+	2048386	2049222	+	KZN_4207-B	2349765.2350601.+	2349765	2350601	+	F11
2372709.2373545.+	2372709	2373545	+	KZN_4207-B	2349765.2350601.+	2349765	2350601	+	F11
2431956.2432792.+	2431956	2432792	+	KZN_4207-B	2349765.2350601.+	2349765	2350601	+	F11
3477049.3477885.+	3477049	3477885	+	KZN_4207-B	2349765.2350601.+	2349765	2350601	+	F11
3705471.3706307.-	3706307	3705471	-	KZN_4207-B	2349765.2350601.+	2349765	2350601	+	F11
4059867.4060703.-	4060703	4059867	-	KZN_4207-B	2349765.2350601.+	2349765	2350601	+	F11
932092.932928.-	932928	932092	-	KZN_4207-B	1992399.1993235.-	1993235	1992399	-	F11
1292273.1293109.+	1292273	1293109	+	KZN_4207-B	1992399.1993235.-	1993235	1992399	-	F11
1330440.1331276.-	1331276	1330440	-	KZN_4207-B	1992399.1993235.-	1993235	1992399	-	F11
1605930.1606766.-	1606766	1605930	-	KZN_4207-B	1992399.1993235.-	1993235	1992399	-	F11
1781480.1782316.+	1781480	1782316	+	KZN_4207-B	1992399.1993235.-	1993235	1992399	-	F11
1861027.1861863.+	1861027	1861863	+	KZN_4207-B	1992399.1993235.-	1993235	1992399	-	F11
2048386.2049222.+	2048386	2049222	+	KZN_4207-B	1992399.1993235.-	1993235	1992399	-	F11
2372709.2373545.+	2372709	2373545	+	KZN_4207-B	1992399.1993235.-	1993235	1992399	-	F11
2431956.2432792.+	2431956	2432792	+	KZN_4207-B	1992399.1993235.-	1993235	1992399	-	F11
3477049.3477885.+	3477049	3477885	+	KZN_4207-B	1992399.1993235.-	1993235	1992399	-	F11
3705471.3706307.-	3706307	3705471	-	KZN_4207-B	1992399.1993235.-	1993235	1992399	-	F11
4059867.4060703.-	4060703	4059867	-	KZN_4207-B	1992399.1993235.-	1993235	1992399	-	F11
1217664.1218281.+	1217664	1218281	+	KZN_4207-B	3207074.3207691.-	3207691	3207074	-	F11
1311409.1312020.+	1311409	1312020	+	KZN_4207-B	3207074.3207691.-	3207691	3207074	-	F11
932092.932928.-	932928	932092	-	KZN_4207-B	2270484.2271320.-	2271320	2270484	-	F11
1292273.1293109.+	1292273	1293109	+	KZN_4207-B	2270484.2271320.-	2271320	2270484	-	F11
1330440.1331276.-	1331276	1330440	-	KZN_4207-B	2270484.2271320.-	2271320	2270484	-	F11
1605930.1606766.-	1606766	1605930	-	KZN_4207-B	2270484.2271320.-	2271320	2270484	-	F11
1781480.1782316.+	1781480	1782316	+	KZN_4207-B	2270484.2271320.-	2271320	2270484	-	F11
1861027.1861863.+	1861027	1861863	+	KZN_4207-B	2270484.2271320.-	2271320	2270484	-	F11
2048386.2049222.+	2048386	2049222	+	KZN_4207-B	2270484.2271320.-	2271320	2270484	-	F11
2372709.2373545.+	2372709	2373545	+	KZN_4207-B	2270484.2271320.-	2271320	2270484	-	F11
2431956.2432792.+	2431956	2432792	+	KZN_4207-B	2270484.2271320.-	2271320	2270484	-	F11
3477049.3477885.+	3477049	3477885	+	KZN_4207-B	2270484.2271320.-	2271320	2270484	-	F11
3705471.3706307.-	3706307	3705471	-	KZN_4207-B	2270484.2271320.-	2271320	2270484	-	F11
4059867.4060703.-	4060703	4059867	-	KZN_4207-B	2270484.2271320.-	2271320	2270484	-	F11
932092.932928.-	932928	932092	-	KZN_4207-B	2017907.2018743.-	2018743	2017907	-	F11
1292273.1293109.+	1292273	1293109	+	KZN_4207-B	2017907.2018743.-	2018743	2017907	-	F11
1330440.1331276.-	1331276	1330440	-	KZN_4207-B	2017907.2018743.-	2018743	2017907	-	F11
1605930.1606766.-	1606766	1605930	-	KZN_4207-B	2017907.2018743.-	2018743	2017907	-	F11
1781480.1782316.+	1781480	1782316	+	KZN_4207-B	2017907.2018743.-	2018743	2017907	-	F11
1861027.1861863.+	1861027	1861863	+	KZN_4207-B	2017907.2018743.-	2018743	2017907	-	F11
2048386.2049222.+	2048386	2049222	+	KZN_4207-B	2017907.2018743.-	2018743	2017907	-	F11
2372709.2373545.+	2372709	2373545	+	KZN_4207-B	2017907.2018743.-	2018743	2017907	-	F11
2431956.2432792.+	2431956	2432792	+	KZN_4207-B	2017907.2018743.-	2018743	2017907	-	F11
3477049.3477885.+	3477049	3477885	+	KZN_4207-B	2017907.2018743.-	2018743	2017907	-	F11
3705471.3706307.-	3706307	3705471	-	KZN_4207-B	2017907.2018743.-	2018743	2017907	-	F11
4059867.4060703.-	4060703	4059867	-	KZN_4207-B	2017907.2018743.-	2018743	2017907	-	F11
932092.932928.-	932928	932092	-	KZN_4207-B	1997839.1998675.+	1997839	1998675	+	F11
1292273.1293109.+	1292273	1293109	+	KZN_4207-B	1997839.1998675.+	1997839	1998675	+	F11
1330440.1331276.-	1331276	1330440	-	KZN_4207-B	1997839.1998675.+	1997839	1998675	+	F11
1605930.1606766.-	1606766	1605930	-	KZN_4207-B	1997839.1998675.+	1997839	1998675	+	F11
1781480.1782316.+	1781480	1782316	+	KZN_4207-B	1997839.1998675.+	1997839	1998675	+	F11
1861027.1861863.+	1861027	1861863	+	KZN_4207-B	1997839.1998675.+	1997839	1998675	+	F11
2048386.2049222.+	2048386	2049222	+	KZN_4207-B	1997839.1998675.+	1997839	1998675	+	F11
2372709.2373545.+	2372709	2373545	+	KZN_4207-B	1997839.1998675.+	1997839	1998675	+	F11
2431956.2432792.+	2431956	2432792	+	KZN_4207-B	1997839.1998675.+	1997839	1998675	+	F11
3477049.3477885.+	3477049	3477885	+	KZN_4207-B	1997839.1998675.+	1997839	1998675	+	F11
3705471.3706307.-	3706307	3705471	-	KZN_4207-B	1997839.1998675.+	1997839	1998675	+	F11
4059867.4060703.-	4060703	4059867	-	KZN_4207-B	1997839.1998675.+	1997839	1998675	+	F11
932092.932928.-	932928	932092	-	KZN_4207-B	3564305.3565141.-	3565141	3564305	-	F11
1292273.1293109.+	1292273	1293109	+	KZN_4207-B	3564305.3565141.-	3565141	3564305	-	F11
1330440.1331276.-	1331276	1330440	-	KZN_4207-B	3564305.3565141.-	3565141	3564305	-	F11
1605930.1606766.-	1606766	1605930	-	KZN_4207-B	3564305.3565141.-	3565141	3564305	-	F11
1781480.1782316.+	1781480	1782316	+	KZN_4207-B	3564305.3565141.-	3565141	3564305	-	F11
1861027.1861863.+	1861027	1861863	+	KZN_4207-B	3564305.3565141.-	3565141	3564305	-	F11
2048386.2049222.+	2048386	2049222	+	KZN_4207-B	3564305.3565141.-	3565141	3564305	-	F11
2372709.2373545.+	2372709	2373545	+	KZN_4207-B	3564305.3565141.-	3565141	3564305	-	F11
2431956.2432792.+	2431956	2432792	+	KZN_4207-B	3564305.3565141.-	3565141	3564305	-	F11
3477049.3477885.+	3477049	3477885	+	KZN_4207-B	3564305.3565141.-	3565141	3564305	-	F11
3705471.3706307.-	3706307	3705471	-	KZN_4207-B	3564305.3565141.-	3565141	3564305	-	F11
4059867.4060703.-	4060703	4059867	-	KZN_4207-B	3564305.3565141.-	3565141	3564305	-	F11
