41405.42013.+	41405	42013	+	F11	41406.42014.+	41406	42014	+	KZN_V2475
48334.49128.-	49128	48334	-	F11	48335.49129.-	49129	48335	-	KZN_V2475
108290.109912.+	108290	109912	+	F11	108286.109908.+	108286	109908	+	KZN_V2475
46682.47308.-	47308	46682	-	F11	46683.47309.-	47309	46683	-	KZN_V2475
7403.9919.+	7403	9919	+	F11	7403.9919.+	7403	9919	+	KZN_V2475
39157.39930.-	39930	39157	-	F11	39158.39931.-	39931	39158	-	KZN_V2475
148044.148478.-	148478	148044	-	F11	148040.148474.-	148474	148040	-	KZN_V2475
82881.84116.+	82881	84116	+	F11	82878.84113.+	82878	84113	+	KZN_V2475
67027.68466.+	67027	68466	+	F11	67025.68464.+	67025	68464	+	KZN_V2475
59513.59971.+	59513	59971	+	F11	59511.59969.+	59511	59969	+	KZN_V2475
33683.33895.+	33683	33895	+	F11	33683.33895.+	33683	33895	+	KZN_V2475
74771.75340.-	75340	74771	-	F11	74768.75337.-	75337	74768	-	KZN_V2475
95547.97025.+	95547	97025	+	F11	95544.97022.+	95544	97022	+	KZN_V2475
51929.52798.-	52798	51929	-	F11	51930.52799.-	52799	51930	-	KZN_V2475
79628.80326.+	79628	80326	+	F11	79625.80323.+	79625	80323	+	KZN_V2475
14190.14978.+	14190	14978	+	F11	14190.14978.+	14190	14978	+	KZN_V2475
767131.771081.+	767131	771081	+	F11	764148.768098.+	764148	768098	+	KZN_V2475
42534.43466.-	43466	42534	-	F11	42535.43467.-	43467	42535	-	KZN_V2475
75443.76354.+	75443	76354	+	F11	75440.76351.+	75440	76351	+	KZN_V2475
52932.53345.+	52932	53345	+	F11	52933.53346.+	52933	53346	+	KZN_V2475
29346.29708.+	29346	29708	+	F11	29346.29708.+	29346	29708	+	KZN_V2475
13815.14096.-	14096	13815	-	F11	13815.14096.-	14096	13815	-	KZN_V2475
21738.23273.-	23273	21738	-	F11	21738.23273.-	23273	21738	-	KZN_V2475
997678.999165.+	997678	999165	+	F11	994704.996191.+	994704	996191	+	KZN_V2475
49144.50040.-	50040	49144	-	F11	49145.50041.-	50041	49145	-	KZN_V2475
99817.100584.+	99817	100584	+	F11	99814.100581.+	99814	100581	+	KZN_V2475
57514.58077.+	57514	58077	+	F11	57512.58075.+	57512	58075	+	KZN_V2475
2153.3361.+	2153	3361	+	F11	2153.3361.+	2153	3361	+	KZN_V2475
120049.122307.-	122307	120049	-	F11	120045.122303.-	122303	120045	-	KZN_V2475
85316.85705.-	85705	85316	-	F11	85313.85702.-	85702	85313	-	KZN_V2475
71963.72364.+	71963	72364	+	F11	71960.72361.+	71960	72361	+	KZN_V2475
23962.25545.-	25545	23962	-	F11	23962.25545.-	25545	23962	-	KZN_V2475
12569.13117.+	12569	13117	+	F11	12569.13117.+	12569	13117	+	KZN_V2475
142264.144012.-	144012	142264	-	F11	142260.144008.-	144008	142260	-	KZN_V2475
65095.65520.+	65095	65520	+	F11	65093.65518.+	65093	65518	+	KZN_V2475
31615.31920.+	31615	31920	+	F11	31615.31920.+	31615	31920	+	KZN_V2475
134086.136143.+	134086	136143	+	F11	134082.136139.+	134082	136139	+	KZN_V2475
136425.137381.+	136425	137381	+	F11	136421.137377.+	136421	137377	+	KZN_V2475
140403.141158.-	141158	140403	-	F11	140399.141154.-	141154	140399	-	KZN_V2475
98613.99383.+	98613	99383	+	F11	98610.99380.+	98610	99380	+	KZN_V2475
148992.149360.+	148992	149360	+	F11	148988.149356.+	148988	149356	+	KZN_V2475
131518.133008.+	131518	133008	+	F11	131514.133004.+	131514	133004	+	KZN_V2475
86661.87266.+	86661	87266	+	F11	86658.87263.+	86658	87263	+	KZN_V2475
59226.59480.+	59226	59480	+	F11	59224.59478.+	59224	59478	+	KZN_V2475
58296.58586.+	58296	58586	+	F11	58294.58584.+	58294	58584	+	KZN_V2475
64013.65071.+	64013	65071	+	F11	64011.65069.+	64011	65069	+	KZN_V2475
89155.89613.+	89155	89613	+	F11	89152.89610.+	89152	89610	+	KZN_V2475
55800.57482.+	55800	57482	+	F11	55798.57480.+	55798	57480	+	KZN_V2475
51286.51828.-	51828	51286	-	F11	51287.51829.-	51829	51287	-	KZN_V2475
85769.86599.-	86599	85769	-	F11	85766.86596.-	86596	85766	-	KZN_V2475
27124.27543.-	27543	27124	-	F11	27124.27543.-	27543	27124	-	KZN_V2475
58690.59184.+	58690	59184	+	F11	58688.59182.+	58688	59182	+	KZN_V2475
63304.63996.+	63304	63996	+	F11	63302.63994.+	63302	63994	+	KZN_V2475
137455.138045.+	137455	138045	+	F11	137451.138041.+	137451	138041	+	KZN_V2475
2303293.2303853.-	2303853	2303293	-	F11	2283421.2283981.-	2283981	2283421	-	KZN_V2475
26014.26982.-	26982	26014	-	F11	26014.26982.-	26982	26014	-	KZN_V2475
5224.7368.+	5224	7368	+	F11	5224.7368.+	5224	7368	+	KZN_V2475
31290.31607.+	31290	31607	+	F11	31290.31607.+	31290	31607	+	KZN_V2475
72416.74653.-	74653	72416	-	F11	72413.74650.-	74650	72413	-	KZN_V2475
102.1625.+	102	1625	+	F11	102.1625.+	102	1625	+	KZN_V2475
37360.39048.+	37360	39048	+	F11	37361.39049.+	37361	39049	+	KZN_V2475
133156.133905.+	133156	133905	+	F11	133152.133901.+	133152	133901	+	KZN_V2475
124114.124398.-	124398	124114	-	F11	124110.124394.-	124394	124110	-	KZN_V2475
81809.82801.+	81809	82801	+	F11	81806.82798.+	81806	82798	+	KZN_V2475
60500.63124.+	60500	63124	+	F11	60498.63122.+	60498	63122	+	KZN_V2475
102948.103796.-	103796	102948	-	F11	102945.103793.-	103793	102945	-	KZN_V2475
117848.119833.+	117848	119833	+	F11	117844.119829.+	117844	119829	+	KZN_V2475
1678839.1679648.+	1678839	1679648	+	F11	1673878.1674687.+	1673878	1674687	+	KZN_V2475
763568.767086.+	763568	767086	+	F11	760585.764103.+	760585	764103	+	KZN_V2475
138649.139809.+	138649	139809	+	F11	138645.139805.+	138645	139805	+	KZN_V2475
84129.85301.+	84129	85301	+	F11	84126.85298.+	84126	85298	+	KZN_V2475
105458.106849.+	105458	106849	+	F11	105454.106845.+	105454	106845	+	KZN_V2475
131030.131239.-	131239	131030	-	F11	131026.131235.-	131235	131026	-	KZN_V2475
4535.5098.+	4535	5098	+	F11	4535.5098.+	4535	5098	+	KZN_V2475
144185.145762.+	144185	145762	+	F11	144181.145758.+	144181	145758	+	KZN_V2475
122451.123965.+	122451	123965	+	F11	122447.123961.+	122447	123961	+	KZN_V2475
89708.90052.+	89708	90052	+	F11	89705.90049.+	89705	90049	+	KZN_V2475
65656.66798.+	65656	66798	+	F11	65654.66796.+	65654	66796	+	KZN_V2475
42105.42452.-	42452	42105	-	F11	42106.42453.-	42453	42106	-	KZN_V2475
107734.108285.+	107734	108285	+	F11	107730.108281.+	107730	108281	+	KZN_V2475
110135.117673.+	110135	117673	+	F11	110131.117669.+	110131	117669	+	KZN_V2475
11975.12412.-	12412	11975	-	F11	11975.12412.-	12412	11975	-	KZN_V2475
10015.10929.+	10015	10929	+	F11	10015.10929.+	10015	10929	+	KZN_V2475
92461.93411.+	92461	93411	+	F11	92458.93408.+	92458	93408	+	KZN_V2475
28463.29308.+	28463	29308	+	F11	28463.29308.+	28463	29308	+	KZN_V2475
50122.51225.-	51225	50122	-	F11	50123.51226.-	51226	50123	-	KZN_V2475
97060.97734.+	97060	97734	+	F11	97057.97731.+	97057	97731	+	KZN_V2475
77761.79038.-	79038	77761	-	F11	77758.79035.-	79035	77758	-	KZN_V2475
29823.31169.+	29823	31169	+	F11	29823.31169.+	29823	31169	+	KZN_V2475
13234.13659.-	13659	13234	-	F11	13234.13659.-	13659	13234	-	KZN_V2475
97891.98484.+	97891	98484	+	F11	97888.98481.+	97888	98481	+	KZN_V2475
47467.48201.-	48201	47467	-	F11	47468.48202.-	48202	47468	-	KZN_V2475
145763.147907.-	147907	145763	-	F11	145759.147903.-	147903	145759	-	KZN_V2475
39978.41303.-	41303	39978	-	F11	39979.41304.-	41304	39979	-	KZN_V2475
32158.33255.+	32158	33255	+	F11	32158.33255.+	32158	33255	+	KZN_V2475
80757.81806.+	80757	81806	+	F11	80754.81803.+	80754	81803	+	KZN_V2475
124508.125704.+	124508	125704	+	F11	124504.125700.+	124504	125700	+	KZN_V2475
87341.87934.-	87934	87341	-	F11	87338.87931.-	87931	87338	-	KZN_V2475
43663.46572.+	43663	46572	+	F11	43664.46573.+	43664	46573	+	KZN_V2475
90533.92455.+	90533	92455	+	F11	90530.92452.+	90530	92452	+	KZN_V2475
