3347156.3347770.-	3347770	3347156	-	H37Ra	3330663.3331277.-	3331277	3330663	-	KZN_V2475
702710.703324.+	702710	703324	+	H37Ra	3330663.3331277.-	3331277	3330663	-	KZN_V2475
3207537.3208154.-	3208154	3207537	-	H37Ra	3191102.3191719.-	3191719	3191102	-	KZN_V2475
3113549.3114160.-	3114160	3113549	-	H37Ra	3191102.3191719.-	3191719	3191102	-	KZN_V2475
