1217778.1218395.+	1217778	1218395	+	KZN_605	1217666.1218283.+	1217666	1218283	+	KZN_1435
1311577.1312188.+	1311577	1312188	+	KZN_605	1217666.1218283.+	1217666	1218283	+	KZN_1435
1077828.1078442.+	1077828	1078442	+	KZN_605	1077826.1078440.+	1077826	1078440	+	KZN_1435
701711.702325.+	701711	702325	+	KZN_605	1077826.1078440.+	1077826	1078440	+	KZN_1435
