3235070.3235285.-	3235285	3235070	-	KZN_V2475	3251562.3251777.-	3251777	3251562	-	H37Ra
3191102.3191719.-	3191719	3191102	-	KZN_V2475	3207537.3208154.-	3208154	3207537	-	H37Ra
3097417.3098028.-	3098028	3097417	-	KZN_V2475	3207537.3208154.-	3208154	3207537	-	H37Ra
3330663.3331277.-	3331277	3330663	-	KZN_V2475	3347156.3347770.-	3347770	3347156	-	H37Ra
701645.702259.+	701645	702259	+	KZN_V2475	3347156.3347770.-	3347770	3347156	-	H37Ra
