2161136.+.KZN_605	1985900.-.KZN_R506
2426850.+.KZN_605	2251556.-.KZN_R506
2251556.-.KZN_R506	2426850.+.KZN_605
1985900.-.KZN_R506	2161136.+.KZN_605
1782545.+.KZN_605	3476953.+.KZN_R506
1782545.+.KZN_605	2360311.-.KZN_R506
1782545.+.KZN_605	2803669.+.KZN_R506
1782545.+.KZN_605	931730.-.KZN_R506
1782545.+.KZN_605	3078998.+.KZN_R506
1782545.+.KZN_605	3704481.-.KZN_R506
1782545.+.KZN_605	1976816.-.KZN_R506
1782545.+.KZN_605	2036054.-.KZN_R506
1782545.+.KZN_605	4062487.-.KZN_R506
1782545.+.KZN_605	2547727.-.KZN_R506
1782545.+.KZN_605	3116329.-.KZN_R506
2803669.+.KZN_R506	4064133.-.KZN_605
2803669.+.KZN_R506	2376696.+.KZN_605
2803669.+.KZN_R506	2051009.+.KZN_605
2803669.+.KZN_R506	1862092.+.KZN_605
2803669.+.KZN_R506	1330608.-.KZN_605
2803669.+.KZN_R506	3709850.-.KZN_605
2803669.+.KZN_R506	2435943.+.KZN_605
2803669.+.KZN_R506	932094.-.KZN_605
2803669.+.KZN_R506	2155551.-.KZN_605
2803669.+.KZN_R506	1782545.+.KZN_605
2803669.+.KZN_R506	1293277.+.KZN_605
2803669.+.KZN_R506	2049338.+.KZN_605
2803669.+.KZN_R506	3480906.+.KZN_605
2803669.+.KZN_R506	3488592.-.KZN_605
2155551.-.KZN_605	3476953.+.KZN_R506
2155551.-.KZN_605	2627283.-.KZN_R506
2155551.-.KZN_605	2803669.+.KZN_R506
2155551.-.KZN_605	1976816.-.KZN_R506
2155551.-.KZN_605	3078998.+.KZN_R506
2155551.-.KZN_605	2036054.-.KZN_R506
2155551.-.KZN_605	931730.-.KZN_R506
2155551.-.KZN_605	2360311.-.KZN_R506
2155551.-.KZN_605	3704481.-.KZN_R506
2155551.-.KZN_605	4062487.-.KZN_R506
2155551.-.KZN_605	2547727.-.KZN_R506
2155551.-.KZN_605	3116329.-.KZN_R506
2049338.+.KZN_605	3476953.+.KZN_R506
2049338.+.KZN_605	2627283.-.KZN_R506
2049338.+.KZN_605	2803669.+.KZN_R506
2049338.+.KZN_605	931730.-.KZN_R506
2049338.+.KZN_605	3704481.-.KZN_R506
2049338.+.KZN_605	3078998.+.KZN_R506
2049338.+.KZN_605	2036054.-.KZN_R506
2049338.+.KZN_605	2547727.-.KZN_R506
2049338.+.KZN_605	4062487.-.KZN_R506
2049338.+.KZN_605	1976816.-.KZN_R506
2049338.+.KZN_605	3116329.-.KZN_R506
3709850.-.KZN_605	3476953.+.KZN_R506
3709850.-.KZN_605	2360311.-.KZN_R506
3709850.-.KZN_605	2627283.-.KZN_R506
3709850.-.KZN_605	2803669.+.KZN_R506
3709850.-.KZN_605	3078998.+.KZN_R506
3709850.-.KZN_605	2036054.-.KZN_R506
3709850.-.KZN_605	931730.-.KZN_R506
3709850.-.KZN_605	4062487.-.KZN_R506
3709850.-.KZN_605	1976816.-.KZN_R506
3709850.-.KZN_605	2547727.-.KZN_R506
3709850.-.KZN_605	3116329.-.KZN_R506
3480906.+.KZN_605	3476953.+.KZN_R506
3480906.+.KZN_605	2360311.-.KZN_R506
3480906.+.KZN_605	2627283.-.KZN_R506
3480906.+.KZN_605	2803669.+.KZN_R506
3480906.+.KZN_605	3116329.-.KZN_R506
3480906.+.KZN_605	3704481.-.KZN_R506
3480906.+.KZN_605	931730.-.KZN_R506
3480906.+.KZN_605	3078998.+.KZN_R506
3480906.+.KZN_605	2036054.-.KZN_R506
3480906.+.KZN_605	2547727.-.KZN_R506
3480906.+.KZN_605	4062487.-.KZN_R506
3480906.+.KZN_605	1976816.-.KZN_R506
1862092.+.KZN_605	3476953.+.KZN_R506
1862092.+.KZN_605	2360311.-.KZN_R506
1862092.+.KZN_605	2627283.-.KZN_R506
1862092.+.KZN_605	2803669.+.KZN_R506
1862092.+.KZN_605	3704481.-.KZN_R506
1862092.+.KZN_605	3078998.+.KZN_R506
1862092.+.KZN_605	2036054.-.KZN_R506
1862092.+.KZN_605	931730.-.KZN_R506
1862092.+.KZN_605	4062487.-.KZN_R506
1862092.+.KZN_605	1976816.-.KZN_R506
1862092.+.KZN_605	3116329.-.KZN_R506
4064133.-.KZN_605	3476953.+.KZN_R506
4064133.-.KZN_605	2360311.-.KZN_R506
4064133.-.KZN_605	2627283.-.KZN_R506
4064133.-.KZN_605	2803669.+.KZN_R506
4064133.-.KZN_605	931730.-.KZN_R506
4064133.-.KZN_605	3078998.+.KZN_R506
4064133.-.KZN_605	2036054.-.KZN_R506
4064133.-.KZN_605	1976816.-.KZN_R506
4064133.-.KZN_605	3704481.-.KZN_R506
4064133.-.KZN_605	2547727.-.KZN_R506
4064133.-.KZN_605	3116329.-.KZN_R506
2376696.+.KZN_605	3078998.+.KZN_R506
2376696.+.KZN_605	3476953.+.KZN_R506
2376696.+.KZN_605	2627283.-.KZN_R506
2376696.+.KZN_605	2803669.+.KZN_R506
2376696.+.KZN_605	3704481.-.KZN_R506
2376696.+.KZN_605	2360311.-.KZN_R506
2376696.+.KZN_605	4062487.-.KZN_R506
2376696.+.KZN_605	2547727.-.KZN_R506
2376696.+.KZN_605	1976816.-.KZN_R506
2376696.+.KZN_605	931730.-.KZN_R506
2376696.+.KZN_605	3116329.-.KZN_R506
3078998.+.KZN_R506	3709850.-.KZN_605
3078998.+.KZN_R506	2376696.+.KZN_605
3078998.+.KZN_R506	2051009.+.KZN_605
3078998.+.KZN_R506	1862092.+.KZN_605
3078998.+.KZN_R506	1606101.-.KZN_605
3078998.+.KZN_R506	932094.-.KZN_605
3078998.+.KZN_R506	2435943.+.KZN_605
3078998.+.KZN_R506	3488592.-.KZN_605
3078998.+.KZN_R506	4064133.-.KZN_605
3078998.+.KZN_R506	1782545.+.KZN_605
3078998.+.KZN_R506	3480906.+.KZN_605
3078998.+.KZN_R506	2155551.-.KZN_605
3078998.+.KZN_R506	2049338.+.KZN_605
3078998.+.KZN_R506	1293277.+.KZN_605
3116329.-.KZN_R506	3709850.-.KZN_605
3116329.-.KZN_R506	2051009.+.KZN_605
3116329.-.KZN_R506	1862092.+.KZN_605
3116329.-.KZN_R506	1330608.-.KZN_605
3116329.-.KZN_R506	2435943.+.KZN_605
3116329.-.KZN_R506	2376696.+.KZN_605
3116329.-.KZN_R506	4064133.-.KZN_605
3116329.-.KZN_R506	3480906.+.KZN_605
3116329.-.KZN_R506	2155551.-.KZN_605
3116329.-.KZN_R506	932094.-.KZN_605
3116329.-.KZN_R506	1782545.+.KZN_605
3116329.-.KZN_R506	2049338.+.KZN_605
3116329.-.KZN_R506	3488592.-.KZN_605
3116329.-.KZN_R506	1606101.-.KZN_605
932094.-.KZN_605	3476953.+.KZN_R506
932094.-.KZN_605	2360311.-.KZN_R506
932094.-.KZN_605	2627283.-.KZN_R506
932094.-.KZN_605	2803669.+.KZN_R506
932094.-.KZN_605	3078998.+.KZN_R506
932094.-.KZN_605	2036054.-.KZN_R506
932094.-.KZN_605	1976816.-.KZN_R506
932094.-.KZN_605	2547727.-.KZN_R506
932094.-.KZN_605	3704481.-.KZN_R506
932094.-.KZN_605	4062487.-.KZN_R506
932094.-.KZN_605	931730.-.KZN_R506
932094.-.KZN_605	3116329.-.KZN_R506
1293277.+.KZN_605	3476953.+.KZN_R506
1293277.+.KZN_605	2360311.-.KZN_R506
1293277.+.KZN_605	2627283.-.KZN_R506
1293277.+.KZN_605	2803669.+.KZN_R506
1293277.+.KZN_605	3078998.+.KZN_R506
1293277.+.KZN_605	3704481.-.KZN_R506
1293277.+.KZN_605	931730.-.KZN_R506
1293277.+.KZN_605	2036054.-.KZN_R506
1293277.+.KZN_605	4062487.-.KZN_R506
1293277.+.KZN_605	1976816.-.KZN_R506
1293277.+.KZN_605	2547727.-.KZN_R506
931730.-.KZN_R506	3709850.-.KZN_605
931730.-.KZN_R506	2376696.+.KZN_605
931730.-.KZN_R506	2051009.+.KZN_605
931730.-.KZN_R506	1862092.+.KZN_605
931730.-.KZN_R506	1606101.-.KZN_605
931730.-.KZN_R506	4064133.-.KZN_605
931730.-.KZN_R506	2435943.+.KZN_605
931730.-.KZN_R506	932094.-.KZN_605
931730.-.KZN_R506	2155551.-.KZN_605
931730.-.KZN_R506	1330608.-.KZN_605
931730.-.KZN_R506	1782545.+.KZN_605
931730.-.KZN_R506	2049338.+.KZN_605
931730.-.KZN_R506	1293277.+.KZN_605
931730.-.KZN_R506	3480906.+.KZN_605
931730.-.KZN_R506	3488592.-.KZN_605
4062487.-.KZN_R506	2376696.+.KZN_605
4062487.-.KZN_R506	2051009.+.KZN_605
4062487.-.KZN_R506	1862092.+.KZN_605
4062487.-.KZN_R506	1330608.-.KZN_605
4062487.-.KZN_R506	1606101.-.KZN_605
4062487.-.KZN_R506	2435943.+.KZN_605
4062487.-.KZN_R506	1782545.+.KZN_605
4062487.-.KZN_R506	3709850.-.KZN_605
4062487.-.KZN_R506	932094.-.KZN_605
4062487.-.KZN_R506	2155551.-.KZN_605
4062487.-.KZN_R506	1293277.+.KZN_605
4062487.-.KZN_R506	2049338.+.KZN_605
4062487.-.KZN_R506	3480906.+.KZN_605
4062487.-.KZN_R506	3488592.-.KZN_605
3488592.-.KZN_605	3078998.+.KZN_R506
3488592.-.KZN_605	2360311.-.KZN_R506
3488592.-.KZN_605	2627283.-.KZN_R506
3488592.-.KZN_605	2803669.+.KZN_R506
3488592.-.KZN_605	1976816.-.KZN_R506
3488592.-.KZN_605	2036054.-.KZN_R506
3488592.-.KZN_605	931730.-.KZN_R506
3488592.-.KZN_605	3704481.-.KZN_R506
3488592.-.KZN_605	4062487.-.KZN_R506
3488592.-.KZN_605	3476953.+.KZN_R506
3488592.-.KZN_605	2547727.-.KZN_R506
3488592.-.KZN_605	3116329.-.KZN_R506
2051009.+.KZN_605	3078998.+.KZN_R506
2051009.+.KZN_605	2627283.-.KZN_R506
2051009.+.KZN_605	1976816.-.KZN_R506
2051009.+.KZN_605	3704481.-.KZN_R506
2051009.+.KZN_605	931730.-.KZN_R506
2051009.+.KZN_605	2547727.-.KZN_R506
2051009.+.KZN_605	2036054.-.KZN_R506
2051009.+.KZN_605	4062487.-.KZN_R506
2051009.+.KZN_605	3476953.+.KZN_R506
2051009.+.KZN_605	2803669.+.KZN_R506
2051009.+.KZN_605	3116329.-.KZN_R506
3476953.+.KZN_R506	3709850.-.KZN_605
3476953.+.KZN_R506	1330608.-.KZN_605
3476953.+.KZN_R506	2051009.+.KZN_605
3476953.+.KZN_R506	1862092.+.KZN_605
3476953.+.KZN_R506	1606101.-.KZN_605
3476953.+.KZN_R506	2435943.+.KZN_605
3476953.+.KZN_R506	932094.-.KZN_605
3476953.+.KZN_R506	1782545.+.KZN_605
3476953.+.KZN_R506	4064133.-.KZN_605
3476953.+.KZN_R506	2155551.-.KZN_605
3476953.+.KZN_R506	2376696.+.KZN_605
3476953.+.KZN_R506	1293277.+.KZN_605
3476953.+.KZN_R506	2049338.+.KZN_605
3476953.+.KZN_R506	3480906.+.KZN_605
3476953.+.KZN_R506	3488592.-.KZN_605
2435943.+.KZN_605	3078998.+.KZN_R506
2435943.+.KZN_605	2627283.-.KZN_R506
2435943.+.KZN_605	2803669.+.KZN_R506
2435943.+.KZN_605	2360311.-.KZN_R506
2435943.+.KZN_605	3704481.-.KZN_R506
2435943.+.KZN_605	3476953.+.KZN_R506
2435943.+.KZN_605	2036054.-.KZN_R506
2435943.+.KZN_605	2547727.-.KZN_R506
2435943.+.KZN_605	4062487.-.KZN_R506
2435943.+.KZN_605	931730.-.KZN_R506
2435943.+.KZN_605	3116329.-.KZN_R506
1976816.-.KZN_R506	3709850.-.KZN_605
1976816.-.KZN_R506	2376696.+.KZN_605
1976816.-.KZN_R506	2051009.+.KZN_605
1976816.-.KZN_R506	1862092.+.KZN_605
1976816.-.KZN_R506	1330608.-.KZN_605
1976816.-.KZN_R506	3488592.-.KZN_605
1976816.-.KZN_R506	932094.-.KZN_605
1976816.-.KZN_R506	4064133.-.KZN_605
1976816.-.KZN_R506	1782545.+.KZN_605
1976816.-.KZN_R506	2155551.-.KZN_605
1976816.-.KZN_R506	1293277.+.KZN_605
1976816.-.KZN_R506	2049338.+.KZN_605
1976816.-.KZN_R506	3480906.+.KZN_605
1976816.-.KZN_R506	1606101.-.KZN_605
2036054.-.KZN_R506	3709850.-.KZN_605
2036054.-.KZN_R506	2051009.+.KZN_605
2036054.-.KZN_R506	1862092.+.KZN_605
2036054.-.KZN_R506	1330608.-.KZN_605
2036054.-.KZN_R506	2435943.+.KZN_605
2036054.-.KZN_R506	4064133.-.KZN_605
2036054.-.KZN_R506	2155551.-.KZN_605
2036054.-.KZN_R506	1606101.-.KZN_605
2036054.-.KZN_R506	932094.-.KZN_605
2036054.-.KZN_R506	1782545.+.KZN_605
2036054.-.KZN_R506	1293277.+.KZN_605
2036054.-.KZN_R506	2049338.+.KZN_605
2036054.-.KZN_R506	3480906.+.KZN_605
2036054.-.KZN_R506	3488592.-.KZN_605
1606101.-.KZN_605	3476953.+.KZN_R506
1606101.-.KZN_605	2360311.-.KZN_R506
1606101.-.KZN_605	2627283.-.KZN_R506
1606101.-.KZN_605	2036054.-.KZN_R506
1606101.-.KZN_605	3078998.+.KZN_R506
1606101.-.KZN_605	3704481.-.KZN_R506
1606101.-.KZN_605	931730.-.KZN_R506
1606101.-.KZN_605	4062487.-.KZN_R506
1606101.-.KZN_605	1976816.-.KZN_R506
1606101.-.KZN_605	2547727.-.KZN_R506
1606101.-.KZN_605	3116329.-.KZN_R506
3704481.-.KZN_R506	1330608.-.KZN_605
3704481.-.KZN_R506	2051009.+.KZN_605
3704481.-.KZN_R506	1606101.-.KZN_605
3704481.-.KZN_R506	2376696.+.KZN_605
3704481.-.KZN_R506	2435943.+.KZN_605
3704481.-.KZN_R506	932094.-.KZN_605
3704481.-.KZN_R506	4064133.-.KZN_605
3704481.-.KZN_R506	1782545.+.KZN_605
3704481.-.KZN_R506	1862092.+.KZN_605
3704481.-.KZN_R506	2155551.-.KZN_605
3704481.-.KZN_R506	1293277.+.KZN_605
3704481.-.KZN_R506	2049338.+.KZN_605
3704481.-.KZN_R506	3480906.+.KZN_605
3704481.-.KZN_R506	3488592.-.KZN_605
1330608.-.KZN_605	3476953.+.KZN_R506
1330608.-.KZN_605	2360311.-.KZN_R506
1330608.-.KZN_605	2627283.-.KZN_R506
1330608.-.KZN_605	2803669.+.KZN_R506
1330608.-.KZN_605	2036054.-.KZN_R506
1330608.-.KZN_605	4062487.-.KZN_R506
1330608.-.KZN_605	931730.-.KZN_R506
1330608.-.KZN_605	2547727.-.KZN_R506
1330608.-.KZN_605	3704481.-.KZN_R506
1330608.-.KZN_605	1976816.-.KZN_R506
1330608.-.KZN_605	3116329.-.KZN_R506
2360311.-.KZN_R506	3709850.-.KZN_605
2360311.-.KZN_R506	1330608.-.KZN_605
2360311.-.KZN_R506	1862092.+.KZN_605
2360311.-.KZN_R506	1606101.-.KZN_605
2360311.-.KZN_R506	2435943.+.KZN_605
2360311.-.KZN_R506	932094.-.KZN_605
2360311.-.KZN_R506	1782545.+.KZN_605
2360311.-.KZN_R506	4064133.-.KZN_605
2360311.-.KZN_R506	2155551.-.KZN_605
2360311.-.KZN_R506	2376696.+.KZN_605
2360311.-.KZN_R506	1293277.+.KZN_605
2360311.-.KZN_R506	3480906.+.KZN_605
2360311.-.KZN_R506	3488592.-.KZN_605
2627283.-.KZN_R506	3709850.-.KZN_605
2627283.-.KZN_R506	2051009.+.KZN_605
2627283.-.KZN_R506	1862092.+.KZN_605
2627283.-.KZN_R506	1606101.-.KZN_605
2627283.-.KZN_R506	932094.-.KZN_605
2627283.-.KZN_R506	2435943.+.KZN_605
2627283.-.KZN_R506	3488592.-.KZN_605
2627283.-.KZN_R506	4064133.-.KZN_605
2627283.-.KZN_R506	1330608.-.KZN_605
2627283.-.KZN_R506	2376696.+.KZN_605
2627283.-.KZN_R506	2155551.-.KZN_605
2627283.-.KZN_R506	1293277.+.KZN_605
2627283.-.KZN_R506	2049338.+.KZN_605
2627283.-.KZN_R506	3480906.+.KZN_605
2547727.-.KZN_R506	3709850.-.KZN_605
2547727.-.KZN_R506	2376696.+.KZN_605
2547727.-.KZN_R506	1606101.-.KZN_605
2547727.-.KZN_R506	1330608.-.KZN_605
2547727.-.KZN_R506	2435943.+.KZN_605
2547727.-.KZN_R506	3488592.-.KZN_605
2547727.-.KZN_R506	932094.-.KZN_605
2547727.-.KZN_R506	2155551.-.KZN_605
2547727.-.KZN_R506	2051009.+.KZN_605
2547727.-.KZN_R506	1782545.+.KZN_605
2547727.-.KZN_R506	1293277.+.KZN_605
2547727.-.KZN_R506	2049338.+.KZN_605
2547727.-.KZN_R506	3480906.+.KZN_605
2547727.-.KZN_R506	4064133.-.KZN_605
973396.-.KZN_R506	719072.-.KZN_605
719072.-.KZN_605	973396.-.KZN_R506
3439187.+.KZN_605	719006.-.KZN_R506
719006.-.KZN_R506	3439187.+.KZN_605
2628218.-.KZN_R506	4065068.-.KZN_605
2628218.-.KZN_R506	1861157.+.KZN_605
2628218.-.KZN_R506	3710785.-.KZN_605
2628218.-.KZN_R506	1292342.+.KZN_605
2628218.-.KZN_R506	2050074.+.KZN_605
2628218.-.KZN_R506	2435008.+.KZN_605
2628218.-.KZN_R506	933029.-.KZN_605
2628218.-.KZN_R506	1607036.-.KZN_605
2628218.-.KZN_R506	2156486.-.KZN_605
2628218.-.KZN_R506	3479971.+.KZN_605
2628218.-.KZN_R506	2375761.+.KZN_605
2628218.-.KZN_R506	3489527.-.KZN_605
2628218.-.KZN_R506	2048403.+.KZN_605
2628218.-.KZN_R506	1331543.-.KZN_605
1607036.-.KZN_605	3078063.+.KZN_R506
1607036.-.KZN_605	1977751.-.KZN_R506
1607036.-.KZN_605	2628218.-.KZN_R506
1607036.-.KZN_605	3117264.-.KZN_R506
1607036.-.KZN_605	3476018.+.KZN_R506
1607036.-.KZN_605	2036989.-.KZN_R506
1607036.-.KZN_605	4063422.-.KZN_R506
1607036.-.KZN_605	2361246.-.KZN_R506
1607036.-.KZN_605	3705416.-.KZN_R506
1607036.-.KZN_605	2548662.-.KZN_R506
1607036.-.KZN_605	932665.-.KZN_R506
4065068.-.KZN_605	2802734.+.KZN_R506
4065068.-.KZN_605	3078063.+.KZN_R506
4065068.-.KZN_605	1977751.-.KZN_R506
4065068.-.KZN_605	2361246.-.KZN_R506
4065068.-.KZN_605	3117264.-.KZN_R506
4065068.-.KZN_605	3476018.+.KZN_R506
4065068.-.KZN_605	2036989.-.KZN_R506
4065068.-.KZN_605	932665.-.KZN_R506
4065068.-.KZN_605	2548662.-.KZN_R506
4065068.-.KZN_605	2628218.-.KZN_R506
4065068.-.KZN_605	3705416.-.KZN_R506
933029.-.KZN_605	2802734.+.KZN_R506
933029.-.KZN_605	1977751.-.KZN_R506
933029.-.KZN_605	3078063.+.KZN_R506
933029.-.KZN_605	3117264.-.KZN_R506
933029.-.KZN_605	3476018.+.KZN_R506
933029.-.KZN_605	2036989.-.KZN_R506
933029.-.KZN_605	2628218.-.KZN_R506
933029.-.KZN_605	2361246.-.KZN_R506
933029.-.KZN_605	3705416.-.KZN_R506
933029.-.KZN_605	2548662.-.KZN_R506
933029.-.KZN_605	4063422.-.KZN_R506
933029.-.KZN_605	932665.-.KZN_R506
1331543.-.KZN_605	1977751.-.KZN_R506
1331543.-.KZN_605	2802734.+.KZN_R506
1331543.-.KZN_605	3117264.-.KZN_R506
1331543.-.KZN_605	2036989.-.KZN_R506
1331543.-.KZN_605	3476018.+.KZN_R506
1331543.-.KZN_605	2361246.-.KZN_R506
1331543.-.KZN_605	3705416.-.KZN_R506
1331543.-.KZN_605	2548662.-.KZN_R506
1331543.-.KZN_605	4063422.-.KZN_R506
1331543.-.KZN_605	2628218.-.KZN_R506
1331543.-.KZN_605	932665.-.KZN_R506
1977751.-.KZN_R506	1781610.+.KZN_605
1977751.-.KZN_R506	2156486.-.KZN_605
1977751.-.KZN_R506	1861157.+.KZN_605
1977751.-.KZN_R506	2375761.+.KZN_605
1977751.-.KZN_R506	2050074.+.KZN_605
1977751.-.KZN_R506	933029.-.KZN_605
1977751.-.KZN_R506	1607036.-.KZN_605
1977751.-.KZN_R506	1292342.+.KZN_605
1977751.-.KZN_R506	2048403.+.KZN_605
1977751.-.KZN_R506	3479971.+.KZN_605
1977751.-.KZN_R506	3710785.-.KZN_605
1977751.-.KZN_R506	4065068.-.KZN_605
1977751.-.KZN_R506	3489527.-.KZN_605
1977751.-.KZN_R506	1331543.-.KZN_605
3117264.-.KZN_R506	2375761.+.KZN_605
3117264.-.KZN_R506	4065068.-.KZN_605
3117264.-.KZN_R506	3489527.-.KZN_605
3117264.-.KZN_R506	2050074.+.KZN_605
3117264.-.KZN_R506	2435008.+.KZN_605
3117264.-.KZN_R506	933029.-.KZN_605
3117264.-.KZN_R506	1607036.-.KZN_605
3117264.-.KZN_R506	1781610.+.KZN_605
3117264.-.KZN_R506	2156486.-.KZN_605
3117264.-.KZN_R506	3479971.+.KZN_605
3117264.-.KZN_R506	3710785.-.KZN_605
3117264.-.KZN_R506	1331543.-.KZN_605
3117264.-.KZN_R506	2048403.+.KZN_605
3117264.-.KZN_R506	1861157.+.KZN_605
1292342.+.KZN_605	2802734.+.KZN_R506
1292342.+.KZN_605	3078063.+.KZN_R506
1292342.+.KZN_605	1977751.-.KZN_R506
1292342.+.KZN_605	3476018.+.KZN_R506
1292342.+.KZN_605	2036989.-.KZN_R506
1292342.+.KZN_605	932665.-.KZN_R506
1292342.+.KZN_605	2361246.-.KZN_R506
1292342.+.KZN_605	3705416.-.KZN_R506
1292342.+.KZN_605	2548662.-.KZN_R506
1292342.+.KZN_605	4063422.-.KZN_R506
1292342.+.KZN_605	2628218.-.KZN_R506
2361246.-.KZN_R506	1781610.+.KZN_605
2361246.-.KZN_R506	2156486.-.KZN_605
2361246.-.KZN_R506	4065068.-.KZN_605
2361246.-.KZN_R506	1292342.+.KZN_605
2361246.-.KZN_R506	933029.-.KZN_605
2361246.-.KZN_R506	2435008.+.KZN_605
2361246.-.KZN_R506	3710785.-.KZN_605
2361246.-.KZN_R506	1607036.-.KZN_605
2361246.-.KZN_R506	3479971.+.KZN_605
2361246.-.KZN_R506	1331543.-.KZN_605
2361246.-.KZN_R506	3489527.-.KZN_605
2361246.-.KZN_R506	1861157.+.KZN_605
2361246.-.KZN_R506	2375761.+.KZN_605
2435008.+.KZN_605	3078063.+.KZN_R506
2435008.+.KZN_605	2802734.+.KZN_R506
2435008.+.KZN_605	3117264.-.KZN_R506
2435008.+.KZN_605	3476018.+.KZN_R506
2435008.+.KZN_605	2036989.-.KZN_R506
2435008.+.KZN_605	932665.-.KZN_R506
2435008.+.KZN_605	2361246.-.KZN_R506
2435008.+.KZN_605	3705416.-.KZN_R506
2435008.+.KZN_605	2548662.-.KZN_R506
2435008.+.KZN_605	4063422.-.KZN_R506
2435008.+.KZN_605	2628218.-.KZN_R506
2036989.-.KZN_R506	1781610.+.KZN_605
2036989.-.KZN_R506	1861157.+.KZN_605
2036989.-.KZN_R506	1292342.+.KZN_605
2036989.-.KZN_R506	933029.-.KZN_605
2036989.-.KZN_R506	2050074.+.KZN_605
2036989.-.KZN_R506	2435008.+.KZN_605
2036989.-.KZN_R506	3710785.-.KZN_605
2036989.-.KZN_R506	1607036.-.KZN_605
2036989.-.KZN_R506	1331543.-.KZN_605
2036989.-.KZN_R506	2156486.-.KZN_605
2036989.-.KZN_R506	3479971.+.KZN_605
2036989.-.KZN_R506	4065068.-.KZN_605
2036989.-.KZN_R506	3489527.-.KZN_605
2036989.-.KZN_R506	2048403.+.KZN_605
2802734.+.KZN_R506	1781610.+.KZN_605
2802734.+.KZN_R506	4065068.-.KZN_605
2802734.+.KZN_R506	1331543.-.KZN_605
2802734.+.KZN_R506	1292342.+.KZN_605
2802734.+.KZN_R506	933029.-.KZN_605
2802734.+.KZN_R506	2050074.+.KZN_605
2802734.+.KZN_R506	3710785.-.KZN_605
2802734.+.KZN_R506	2435008.+.KZN_605
2802734.+.KZN_R506	2156486.-.KZN_605
2802734.+.KZN_R506	3479971.+.KZN_605
2802734.+.KZN_R506	2375761.+.KZN_605
2802734.+.KZN_R506	3489527.-.KZN_605
2802734.+.KZN_R506	2048403.+.KZN_605
2802734.+.KZN_R506	1861157.+.KZN_605
932665.-.KZN_R506	2375761.+.KZN_605
932665.-.KZN_R506	2156486.-.KZN_605
932665.-.KZN_R506	3710785.-.KZN_605
932665.-.KZN_R506	1781610.+.KZN_605
932665.-.KZN_R506	2050074.+.KZN_605
932665.-.KZN_R506	2435008.+.KZN_605
932665.-.KZN_R506	1607036.-.KZN_605
932665.-.KZN_R506	1292342.+.KZN_605
932665.-.KZN_R506	2048403.+.KZN_605
932665.-.KZN_R506	3479971.+.KZN_605
932665.-.KZN_R506	4065068.-.KZN_605
932665.-.KZN_R506	3489527.-.KZN_605
932665.-.KZN_R506	1331543.-.KZN_605
932665.-.KZN_R506	933029.-.KZN_605
932665.-.KZN_R506	1861157.+.KZN_605
3489527.-.KZN_605	2802734.+.KZN_R506
3489527.-.KZN_605	3078063.+.KZN_R506
3489527.-.KZN_605	1977751.-.KZN_R506
3489527.-.KZN_605	2361246.-.KZN_R506
3489527.-.KZN_605	3476018.+.KZN_R506
3489527.-.KZN_605	2036989.-.KZN_R506
3489527.-.KZN_605	3117264.-.KZN_R506
3489527.-.KZN_605	932665.-.KZN_R506
3489527.-.KZN_605	2548662.-.KZN_R506
3489527.-.KZN_605	4063422.-.KZN_R506
3489527.-.KZN_605	2628218.-.KZN_R506
3489527.-.KZN_605	3705416.-.KZN_R506
2048403.+.KZN_605	2802734.+.KZN_R506
2048403.+.KZN_605	3078063.+.KZN_R506
2048403.+.KZN_605	1977751.-.KZN_R506
2048403.+.KZN_605	932665.-.KZN_R506
2048403.+.KZN_605	3117264.-.KZN_R506
2048403.+.KZN_605	3476018.+.KZN_R506
2048403.+.KZN_605	2036989.-.KZN_R506
2048403.+.KZN_605	3705416.-.KZN_R506
2048403.+.KZN_605	2548662.-.KZN_R506
2048403.+.KZN_605	4063422.-.KZN_R506
2048403.+.KZN_605	2628218.-.KZN_R506
4063422.-.KZN_R506	1781610.+.KZN_605
4063422.-.KZN_R506	1861157.+.KZN_605
4063422.-.KZN_R506	1292342.+.KZN_605
4063422.-.KZN_R506	933029.-.KZN_605
4063422.-.KZN_R506	2050074.+.KZN_605
4063422.-.KZN_R506	2435008.+.KZN_605
4063422.-.KZN_R506	3710785.-.KZN_605
4063422.-.KZN_R506	1607036.-.KZN_605
4063422.-.KZN_R506	2156486.-.KZN_605
4063422.-.KZN_R506	3479971.+.KZN_605
4063422.-.KZN_R506	2375761.+.KZN_605
4063422.-.KZN_R506	3489527.-.KZN_605
4063422.-.KZN_R506	1331543.-.KZN_605
4063422.-.KZN_R506	2048403.+.KZN_605
3479971.+.KZN_605	2802734.+.KZN_R506
3479971.+.KZN_605	3078063.+.KZN_R506
3479971.+.KZN_605	1977751.-.KZN_R506
3479971.+.KZN_605	2361246.-.KZN_R506
3479971.+.KZN_605	3117264.-.KZN_R506
3479971.+.KZN_605	3476018.+.KZN_R506
3479971.+.KZN_605	2036989.-.KZN_R506
3479971.+.KZN_605	2548662.-.KZN_R506
3479971.+.KZN_605	3705416.-.KZN_R506
3479971.+.KZN_605	4063422.-.KZN_R506
3479971.+.KZN_605	2628218.-.KZN_R506
3479971.+.KZN_605	932665.-.KZN_R506
1781610.+.KZN_605	2802734.+.KZN_R506
1781610.+.KZN_605	1977751.-.KZN_R506
1781610.+.KZN_605	3078063.+.KZN_R506
1781610.+.KZN_605	3117264.-.KZN_R506
1781610.+.KZN_605	3476018.+.KZN_R506
1781610.+.KZN_605	2036989.-.KZN_R506
1781610.+.KZN_605	2361246.-.KZN_R506
1781610.+.KZN_605	932665.-.KZN_R506
1781610.+.KZN_605	2548662.-.KZN_R506
1781610.+.KZN_605	4063422.-.KZN_R506
1781610.+.KZN_605	3705416.-.KZN_R506
3078063.+.KZN_R506	1781610.+.KZN_605
3078063.+.KZN_R506	4065068.-.KZN_605
3078063.+.KZN_R506	2156486.-.KZN_605
3078063.+.KZN_R506	2050074.+.KZN_605
3078063.+.KZN_R506	1292342.+.KZN_605
3078063.+.KZN_R506	2435008.+.KZN_605
3078063.+.KZN_R506	3710785.-.KZN_605
3078063.+.KZN_R506	1607036.-.KZN_605
3078063.+.KZN_R506	933029.-.KZN_605
3078063.+.KZN_R506	2048403.+.KZN_605
3078063.+.KZN_R506	3479971.+.KZN_605
3078063.+.KZN_R506	3489527.-.KZN_605
3078063.+.KZN_R506	1861157.+.KZN_605
3078063.+.KZN_R506	2375761.+.KZN_605
2375761.+.KZN_605	2802734.+.KZN_R506
2375761.+.KZN_605	3078063.+.KZN_R506
2375761.+.KZN_605	1977751.-.KZN_R506
2375761.+.KZN_605	3117264.-.KZN_R506
2375761.+.KZN_605	3476018.+.KZN_R506
2375761.+.KZN_605	2361246.-.KZN_R506
2375761.+.KZN_605	932665.-.KZN_R506
2375761.+.KZN_605	2548662.-.KZN_R506
2375761.+.KZN_605	4063422.-.KZN_R506
2375761.+.KZN_605	2628218.-.KZN_R506
2375761.+.KZN_605	3705416.-.KZN_R506
3705416.-.KZN_R506	1781610.+.KZN_605
3705416.-.KZN_R506	1861157.+.KZN_605
3705416.-.KZN_R506	1292342.+.KZN_605
3705416.-.KZN_R506	2435008.+.KZN_605
3705416.-.KZN_R506	2050074.+.KZN_605
3705416.-.KZN_R506	933029.-.KZN_605
3705416.-.KZN_R506	1607036.-.KZN_605
3705416.-.KZN_R506	1331543.-.KZN_605
3705416.-.KZN_R506	2156486.-.KZN_605
3705416.-.KZN_R506	3479971.+.KZN_605
3705416.-.KZN_R506	4065068.-.KZN_605
3705416.-.KZN_R506	3489527.-.KZN_605
3705416.-.KZN_R506	2048403.+.KZN_605
3705416.-.KZN_R506	2375761.+.KZN_605
1861157.+.KZN_605	2802734.+.KZN_R506
1861157.+.KZN_605	3078063.+.KZN_R506
1861157.+.KZN_605	1977751.-.KZN_R506
1861157.+.KZN_605	3117264.-.KZN_R506
1861157.+.KZN_605	3476018.+.KZN_R506
1861157.+.KZN_605	2036989.-.KZN_R506
1861157.+.KZN_605	932665.-.KZN_R506
1861157.+.KZN_605	2361246.-.KZN_R506
1861157.+.KZN_605	3705416.-.KZN_R506
1861157.+.KZN_605	4063422.-.KZN_R506
1861157.+.KZN_605	2628218.-.KZN_R506
2156486.-.KZN_605	2802734.+.KZN_R506
2156486.-.KZN_605	3078063.+.KZN_R506
2156486.-.KZN_605	1977751.-.KZN_R506
2156486.-.KZN_605	2036989.-.KZN_R506
2156486.-.KZN_605	3117264.-.KZN_R506
2156486.-.KZN_605	3476018.+.KZN_R506
2156486.-.KZN_605	2628218.-.KZN_R506
2156486.-.KZN_605	2361246.-.KZN_R506
2156486.-.KZN_605	3705416.-.KZN_R506
2156486.-.KZN_605	2548662.-.KZN_R506
2156486.-.KZN_605	4063422.-.KZN_R506
2156486.-.KZN_605	932665.-.KZN_R506
2050074.+.KZN_605	2802734.+.KZN_R506
2050074.+.KZN_605	1977751.-.KZN_R506
2050074.+.KZN_605	2548662.-.KZN_R506
2050074.+.KZN_605	3117264.-.KZN_R506
2050074.+.KZN_605	3476018.+.KZN_R506
2050074.+.KZN_605	2036989.-.KZN_R506
2050074.+.KZN_605	3078063.+.KZN_R506
2050074.+.KZN_605	932665.-.KZN_R506
2050074.+.KZN_605	4063422.-.KZN_R506
2050074.+.KZN_605	2628218.-.KZN_R506
2050074.+.KZN_605	3705416.-.KZN_R506
2548662.-.KZN_R506	1781610.+.KZN_605
2548662.-.KZN_R506	2050074.+.KZN_605
2548662.-.KZN_R506	1292342.+.KZN_605
2548662.-.KZN_R506	2435008.+.KZN_605
2548662.-.KZN_R506	3710785.-.KZN_605
2548662.-.KZN_R506	933029.-.KZN_605
2548662.-.KZN_R506	1607036.-.KZN_605
2548662.-.KZN_R506	3479971.+.KZN_605
2548662.-.KZN_R506	2156486.-.KZN_605
2548662.-.KZN_R506	4065068.-.KZN_605
2548662.-.KZN_R506	3489527.-.KZN_605
2548662.-.KZN_R506	1331543.-.KZN_605
2548662.-.KZN_R506	2048403.+.KZN_605
2548662.-.KZN_R506	2375761.+.KZN_605
3710785.-.KZN_605	2802734.+.KZN_R506
3710785.-.KZN_605	3078063.+.KZN_R506
3710785.-.KZN_605	1977751.-.KZN_R506
3710785.-.KZN_605	2628218.-.KZN_R506
3710785.-.KZN_605	3117264.-.KZN_R506
3710785.-.KZN_605	3476018.+.KZN_R506
3710785.-.KZN_605	2036989.-.KZN_R506
3710785.-.KZN_605	932665.-.KZN_R506
3710785.-.KZN_605	2361246.-.KZN_R506
3710785.-.KZN_605	2548662.-.KZN_R506
3710785.-.KZN_605	4063422.-.KZN_R506
3476018.+.KZN_R506	2375761.+.KZN_605
3476018.+.KZN_R506	2156486.-.KZN_605
3476018.+.KZN_R506	1292342.+.KZN_605
3476018.+.KZN_R506	933029.-.KZN_605
3476018.+.KZN_R506	2050074.+.KZN_605
3476018.+.KZN_R506	3710785.-.KZN_605
3476018.+.KZN_R506	2435008.+.KZN_605
3476018.+.KZN_R506	1607036.-.KZN_605
3476018.+.KZN_R506	1331543.-.KZN_605
3476018.+.KZN_R506	2048403.+.KZN_605
3476018.+.KZN_R506	3479971.+.KZN_605
3476018.+.KZN_R506	1781610.+.KZN_605
3476018.+.KZN_R506	4065068.-.KZN_605
3476018.+.KZN_R506	3489527.-.KZN_605
3476018.+.KZN_R506	1861157.+.KZN_605
1783784.+.KZN_605	2629486.-.KZN_R506
2626044.-.KZN_R506	1780342.+.KZN_605
2629486.-.KZN_R506	1783784.+.KZN_605
1780342.+.KZN_605	2626044.-.KZN_R506
3481736.+.KZN_R506	908028.-.KZN_605
3485689.+.KZN_605	907709.-.KZN_R506
908028.-.KZN_605	3481736.+.KZN_R506
907709.-.KZN_R506	3485689.+.KZN_605
3241051.-.KZN_605	3479323.+.KZN_R506
3241051.-.KZN_605	2824397.-.KZN_R506
3241051.-.KZN_605	3376640.-.KZN_R506
3241051.-.KZN_605	1342095.-.KZN_R506
1032407.+.KZN_605	3479323.+.KZN_R506
1032407.+.KZN_605	2824397.-.KZN_R506
1032407.+.KZN_605	1171467.+.KZN_R506
1032407.+.KZN_605	1342095.-.KZN_R506
1585371.+.KZN_605	1342095.-.KZN_R506
1585371.+.KZN_605	3479323.+.KZN_R506
1585371.+.KZN_605	1171467.+.KZN_R506
1585371.+.KZN_605	3376640.-.KZN_R506
2824397.-.KZN_R506	3241051.-.KZN_605
2824397.-.KZN_R506	3070707.+.KZN_605
2824397.-.KZN_R506	3483276.+.KZN_605
2824397.-.KZN_R506	1032407.+.KZN_605
3483276.+.KZN_605	1171467.+.KZN_R506
3483276.+.KZN_605	1342095.-.KZN_R506
3483276.+.KZN_605	2824397.-.KZN_R506
3483276.+.KZN_605	3376640.-.KZN_R506
3070707.+.KZN_605	3376640.-.KZN_R506
3070707.+.KZN_605	1171467.+.KZN_R506
3070707.+.KZN_605	2824397.-.KZN_R506
3070707.+.KZN_605	3479323.+.KZN_R506
3479323.+.KZN_R506	3241051.-.KZN_605
3479323.+.KZN_R506	1032407.+.KZN_605
3479323.+.KZN_R506	3070707.+.KZN_605
3479323.+.KZN_R506	1585371.+.KZN_605
1171467.+.KZN_R506	3483276.+.KZN_605
1171467.+.KZN_R506	1032407.+.KZN_605
1171467.+.KZN_R506	1585371.+.KZN_605
1171467.+.KZN_R506	3070707.+.KZN_605
3376640.-.KZN_R506	3070707.+.KZN_605
3376640.-.KZN_R506	3483276.+.KZN_605
3376640.-.KZN_R506	3241051.-.KZN_605
3376640.-.KZN_R506	1585371.+.KZN_605
1342095.-.KZN_R506	1585371.+.KZN_605
1342095.-.KZN_R506	3483276.+.KZN_605
1342095.-.KZN_R506	3241051.-.KZN_605
1342095.-.KZN_R506	1032407.+.KZN_605
843482.+.KZN_605	833188.+.KZN_R506
833308.+.KZN_605	843163.+.KZN_R506
843163.+.KZN_R506	833308.+.KZN_605
833188.+.KZN_R506	843482.+.KZN_605
1790819.+.KZN_605	1342027.+.KZN_R506
1790819.+.KZN_605	4044567.-.KZN_R506
1790819.+.KZN_605	1161339.-.KZN_R506
4046213.-.KZN_605	1161339.-.KZN_R506
4046213.-.KZN_605	2619009.-.KZN_R506
4046213.-.KZN_605	1342027.+.KZN_R506
3070775.-.KZN_605	4044567.-.KZN_R506
3070775.-.KZN_605	1161339.-.KZN_R506
3070775.-.KZN_605	2619009.-.KZN_R506
1342027.+.KZN_R506	4046213.-.KZN_605
1342027.+.KZN_R506	3251179.+.KZN_605
1342027.+.KZN_R506	1790819.+.KZN_605
4044567.-.KZN_R506	3251179.+.KZN_605
4044567.-.KZN_R506	3070775.-.KZN_605
4044567.-.KZN_R506	1790819.+.KZN_605
2619009.-.KZN_R506	3251179.+.KZN_605
2619009.-.KZN_R506	4046213.-.KZN_605
2619009.-.KZN_R506	3070775.-.KZN_605
3251179.+.KZN_605	4044567.-.KZN_R506
3251179.+.KZN_605	2619009.-.KZN_R506
3251179.+.KZN_605	1342027.+.KZN_R506
1161339.-.KZN_R506	4046213.-.KZN_605
1161339.-.KZN_R506	3070775.-.KZN_605
1161339.-.KZN_R506	1790819.+.KZN_605
3133704.-.KZN_605	1165887.-.KZN_R506
1165887.-.KZN_R506	3133704.-.KZN_605
1279036.+.KZN_R506	3246631.+.KZN_605
3246631.+.KZN_605	1279036.+.KZN_R506
2634154.+.KZN_605	103840.-.KZN_R506
2634154.+.KZN_605	3870421.+.KZN_R506
3875844.+.KZN_605	103840.-.KZN_R506
3875844.+.KZN_605	1778871.-.KZN_R506
3870421.+.KZN_R506	2634154.+.KZN_605
3870421.+.KZN_R506	103839.-.KZN_605
103839.-.KZN_605	1778871.-.KZN_R506
103839.-.KZN_605	3870421.+.KZN_R506
103840.-.KZN_R506	3875844.+.KZN_605
103840.-.KZN_R506	2634154.+.KZN_605
1778871.-.KZN_R506	103839.-.KZN_605
1778871.-.KZN_R506	3875844.+.KZN_605
3751230.+.KZN_605	4305205.+.KZN_R506
4305205.+.KZN_R506	3751230.+.KZN_605
4307081.+.KZN_605	3745861.+.KZN_R506
3745861.+.KZN_R506	4307081.+.KZN_605
3131455.-.KZN_R506	1281047.+.KZN_605
1281047.+.KZN_605	3131455.-.KZN_R506
1278151.+.KZN_605	3128559.-.KZN_R506
3128559.-.KZN_R506	1278151.+.KZN_605
2879674.+.KZN_605	1341261.+.KZN_R506
2879674.+.KZN_605	3879753.+.KZN_R506
1341261.+.KZN_R506	2879674.+.KZN_605
1341261.+.KZN_R506	3885176.+.KZN_605
3071541.-.KZN_605	3879753.+.KZN_R506
3071541.-.KZN_605	1533182.-.KZN_R506
1533182.-.KZN_R506	3885176.+.KZN_605
1533182.-.KZN_R506	3071541.-.KZN_605
3885176.+.KZN_605	1533182.-.KZN_R506
3885176.+.KZN_605	1341261.+.KZN_R506
3879753.+.KZN_R506	3071541.-.KZN_605
3879753.+.KZN_R506	2879674.+.KZN_605
608298.+.KZN_605	404464.+.KZN_R506
404464.+.KZN_R506	608298.+.KZN_605
3481432.+.KZN_R506	908332.-.KZN_605
908332.-.KZN_605	3481432.+.KZN_R506
908013.-.KZN_R506	3485385.+.KZN_605
3485385.+.KZN_605	908013.-.KZN_R506
3247151.+.KZN_605	1279556.+.KZN_R506
3133184.-.KZN_605	1165367.-.KZN_R506
1279556.+.KZN_R506	3247151.+.KZN_605
1165367.-.KZN_R506	3133184.-.KZN_605
2432451.-.KZN_R506	1693018.+.KZN_605
1693018.+.KZN_605	2432451.-.KZN_R506
2716752.-.KZN_R506	1977370.+.KZN_605
1977370.+.KZN_605	2716752.-.KZN_R506
4240266.+.KZN_R506	2943948.+.KZN_605
2943948.+.KZN_605	4240266.+.KZN_R506
4242142.+.KZN_605	1468909.-.KZN_R506
1468909.-.KZN_R506	4242142.+.KZN_605
1161650.-.KZN_R506	3071110.-.KZN_605
3250868.+.KZN_605	1341692.+.KZN_R506
1341692.+.KZN_R506	3250868.+.KZN_605
3071110.-.KZN_605	1161650.-.KZN_R506
474366.+.KZN_605	476369.+.KZN_R506
476369.+.KZN_R506	474366.+.KZN_605
474291.+.KZN_R506	476444.+.KZN_605
476444.+.KZN_605	474291.+.KZN_R506
1277035.-.KZN_R506	2225601.-.KZN_605
3135705.+.KZN_605	2187092.+.KZN_R506
2187092.+.KZN_R506	3135705.+.KZN_605
2225601.-.KZN_605	1277035.-.KZN_R506
332646.-.KZN_R506	842860.+.KZN_605
842860.+.KZN_605	332646.-.KZN_R506
332647.-.KZN_605	842541.+.KZN_R506
842541.+.KZN_R506	332647.-.KZN_605
