2251557.-.KZN_4207	1985900.-.KZN_R506
2251556.-.KZN_R506	1985901.-.KZN_4207
1985901.-.KZN_4207	2251556.-.KZN_R506
1985900.-.KZN_R506	2251557.-.KZN_4207
2803669.+.KZN_R506	2036055.-.KZN_4207
2803669.+.KZN_R506	3116329.-.KZN_4207
2803669.+.KZN_R506	3476953.+.KZN_4207
2803669.+.KZN_R506	2547727.-.KZN_4207
2803669.+.KZN_R506	2627283.-.KZN_4207
2803669.+.KZN_R506	1976817.-.KZN_4207
2803669.+.KZN_R506	931731.-.KZN_4207
2803669.+.KZN_R506	3078998.+.KZN_4207
2803669.+.KZN_R506	4062487.-.KZN_4207
2803669.+.KZN_R506	3704481.-.KZN_4207
2803669.+.KZN_R506	2360311.-.KZN_4207
3704481.-.KZN_4207	2627283.-.KZN_R506
3704481.-.KZN_4207	931730.-.KZN_R506
3704481.-.KZN_4207	1976816.-.KZN_R506
3704481.-.KZN_4207	2547727.-.KZN_R506
3704481.-.KZN_4207	2036054.-.KZN_R506
3704481.-.KZN_4207	2803669.+.KZN_R506
3704481.-.KZN_4207	3116329.-.KZN_R506
3704481.-.KZN_4207	4062487.-.KZN_R506
3704481.-.KZN_4207	3476953.+.KZN_R506
3704481.-.KZN_4207	3078998.+.KZN_R506
3704481.-.KZN_4207	2360311.-.KZN_R506
4062487.-.KZN_4207	931730.-.KZN_R506
4062487.-.KZN_4207	1976816.-.KZN_R506
4062487.-.KZN_4207	3704481.-.KZN_R506
4062487.-.KZN_4207	3116329.-.KZN_R506
4062487.-.KZN_4207	2627283.-.KZN_R506
4062487.-.KZN_4207	2547727.-.KZN_R506
4062487.-.KZN_4207	2036054.-.KZN_R506
4062487.-.KZN_4207	2803669.+.KZN_R506
4062487.-.KZN_4207	3476953.+.KZN_R506
4062487.-.KZN_4207	3078998.+.KZN_R506
4062487.-.KZN_4207	2360311.-.KZN_R506
2627283.-.KZN_4207	931730.-.KZN_R506
2627283.-.KZN_4207	2036054.-.KZN_R506
2627283.-.KZN_4207	3704481.-.KZN_R506
2627283.-.KZN_4207	3116329.-.KZN_R506
2627283.-.KZN_4207	1976816.-.KZN_R506
2627283.-.KZN_4207	2547727.-.KZN_R506
2627283.-.KZN_4207	2803669.+.KZN_R506
2627283.-.KZN_4207	4062487.-.KZN_R506
2627283.-.KZN_4207	3476953.+.KZN_R506
2627283.-.KZN_4207	3078998.+.KZN_R506
2627283.-.KZN_4207	2360311.-.KZN_R506
3078998.+.KZN_4207	931730.-.KZN_R506
3078998.+.KZN_4207	1976816.-.KZN_R506
3078998.+.KZN_4207	2036054.-.KZN_R506
3078998.+.KZN_4207	3704481.-.KZN_R506
3078998.+.KZN_4207	2547727.-.KZN_R506
3078998.+.KZN_4207	2627283.-.KZN_R506
3078998.+.KZN_4207	2803669.+.KZN_R506
3078998.+.KZN_4207	3116329.-.KZN_R506
3078998.+.KZN_4207	4062487.-.KZN_R506
3078998.+.KZN_4207	3476953.+.KZN_R506
3078998.+.KZN_4207	2360311.-.KZN_R506
2547727.-.KZN_R506	2627283.-.KZN_4207
2547727.-.KZN_R506	1976817.-.KZN_4207
2547727.-.KZN_R506	931731.-.KZN_4207
2547727.-.KZN_R506	2036055.-.KZN_4207
2547727.-.KZN_R506	3476953.+.KZN_4207
2547727.-.KZN_R506	3116329.-.KZN_4207
2547727.-.KZN_R506	3078998.+.KZN_4207
2547727.-.KZN_R506	3704481.-.KZN_4207
2547727.-.KZN_R506	4062487.-.KZN_4207
2547727.-.KZN_R506	2803669.+.KZN_4207
2547727.-.KZN_R506	2360311.-.KZN_4207
2036055.-.KZN_4207	931730.-.KZN_R506
2036055.-.KZN_4207	1976816.-.KZN_R506
2036055.-.KZN_4207	3116329.-.KZN_R506
2036055.-.KZN_4207	3704481.-.KZN_R506
2036055.-.KZN_4207	2627283.-.KZN_R506
2036055.-.KZN_4207	2547727.-.KZN_R506
2036055.-.KZN_4207	2803669.+.KZN_R506
2036055.-.KZN_4207	4062487.-.KZN_R506
2036055.-.KZN_4207	3476953.+.KZN_R506
2036055.-.KZN_4207	3078998.+.KZN_R506
2036055.-.KZN_4207	2360311.-.KZN_R506
3078998.+.KZN_R506	2627283.-.KZN_4207
3078998.+.KZN_R506	931731.-.KZN_4207
3078998.+.KZN_R506	2036055.-.KZN_4207
3078998.+.KZN_R506	2547727.-.KZN_4207
3078998.+.KZN_R506	1976817.-.KZN_4207
3078998.+.KZN_R506	3116329.-.KZN_4207
3078998.+.KZN_R506	3704481.-.KZN_4207
3078998.+.KZN_R506	3476953.+.KZN_4207
3078998.+.KZN_R506	4062487.-.KZN_4207
3078998.+.KZN_R506	2803669.+.KZN_4207
3078998.+.KZN_R506	2360311.-.KZN_4207
3116329.-.KZN_R506	2036055.-.KZN_4207
3116329.-.KZN_R506	931731.-.KZN_4207
3116329.-.KZN_R506	3704481.-.KZN_4207
3116329.-.KZN_R506	2627283.-.KZN_4207
3116329.-.KZN_R506	2547727.-.KZN_4207
3116329.-.KZN_R506	1976817.-.KZN_4207
3116329.-.KZN_R506	4062487.-.KZN_4207
3116329.-.KZN_R506	3078998.+.KZN_4207
3116329.-.KZN_R506	3476953.+.KZN_4207
3116329.-.KZN_R506	2803669.+.KZN_4207
3116329.-.KZN_R506	2360311.-.KZN_4207
2360311.-.KZN_4207	931730.-.KZN_R506
2360311.-.KZN_4207	2036054.-.KZN_R506
2360311.-.KZN_4207	3704481.-.KZN_R506
2360311.-.KZN_4207	2627283.-.KZN_R506
2360311.-.KZN_4207	2547727.-.KZN_R506
2360311.-.KZN_4207	2803669.+.KZN_R506
2360311.-.KZN_4207	1976816.-.KZN_R506
2360311.-.KZN_4207	3116329.-.KZN_R506
2360311.-.KZN_4207	4062487.-.KZN_R506
2360311.-.KZN_4207	3476953.+.KZN_R506
2360311.-.KZN_4207	3078998.+.KZN_R506
931730.-.KZN_R506	2036055.-.KZN_4207
931730.-.KZN_R506	1976817.-.KZN_4207
931730.-.KZN_R506	2803669.+.KZN_4207
931730.-.KZN_R506	2547727.-.KZN_4207
931730.-.KZN_R506	2627283.-.KZN_4207
931730.-.KZN_R506	3476953.+.KZN_4207
931730.-.KZN_R506	3116329.-.KZN_4207
931730.-.KZN_R506	3078998.+.KZN_4207
931730.-.KZN_R506	4062487.-.KZN_4207
931730.-.KZN_R506	3704481.-.KZN_4207
931730.-.KZN_R506	2360311.-.KZN_4207
4062487.-.KZN_R506	2036055.-.KZN_4207
4062487.-.KZN_R506	2803669.+.KZN_4207
4062487.-.KZN_R506	3116329.-.KZN_4207
4062487.-.KZN_R506	931731.-.KZN_4207
4062487.-.KZN_R506	2547727.-.KZN_4207
4062487.-.KZN_R506	2627283.-.KZN_4207
4062487.-.KZN_R506	3476953.+.KZN_4207
4062487.-.KZN_R506	1976817.-.KZN_4207
4062487.-.KZN_R506	3078998.+.KZN_4207
4062487.-.KZN_R506	3704481.-.KZN_4207
4062487.-.KZN_R506	2360311.-.KZN_4207
3116329.-.KZN_4207	2627283.-.KZN_R506
3116329.-.KZN_4207	2036054.-.KZN_R506
3116329.-.KZN_4207	3704481.-.KZN_R506
3116329.-.KZN_4207	931730.-.KZN_R506
3116329.-.KZN_4207	2547727.-.KZN_R506
3116329.-.KZN_4207	3078998.+.KZN_R506
3116329.-.KZN_4207	1976816.-.KZN_R506
3116329.-.KZN_4207	4062487.-.KZN_R506
3116329.-.KZN_4207	3476953.+.KZN_R506
3116329.-.KZN_4207	2803669.+.KZN_R506
3116329.-.KZN_4207	2360311.-.KZN_R506
3476953.+.KZN_R506	2036055.-.KZN_4207
3476953.+.KZN_R506	2627283.-.KZN_4207
3476953.+.KZN_R506	1976817.-.KZN_4207
3476953.+.KZN_R506	3116329.-.KZN_4207
3476953.+.KZN_R506	931731.-.KZN_4207
3476953.+.KZN_R506	3704481.-.KZN_4207
3476953.+.KZN_R506	2360311.-.KZN_4207
3476953.+.KZN_R506	2547727.-.KZN_4207
3476953.+.KZN_R506	3078998.+.KZN_4207
3476953.+.KZN_R506	4062487.-.KZN_4207
3476953.+.KZN_R506	2803669.+.KZN_4207
1976816.-.KZN_R506	2036055.-.KZN_4207
1976816.-.KZN_R506	3116329.-.KZN_4207
1976816.-.KZN_R506	3704481.-.KZN_4207
1976816.-.KZN_R506	931731.-.KZN_4207
1976816.-.KZN_R506	2547727.-.KZN_4207
1976816.-.KZN_R506	2627283.-.KZN_4207
1976816.-.KZN_R506	3476953.+.KZN_4207
1976816.-.KZN_R506	3078998.+.KZN_4207
1976816.-.KZN_R506	4062487.-.KZN_4207
1976816.-.KZN_R506	2803669.+.KZN_4207
1976816.-.KZN_R506	2360311.-.KZN_4207
2036054.-.KZN_R506	3116329.-.KZN_4207
2036054.-.KZN_R506	931731.-.KZN_4207
2036054.-.KZN_R506	4062487.-.KZN_4207
2036054.-.KZN_R506	2547727.-.KZN_4207
2036054.-.KZN_R506	2627283.-.KZN_4207
2036054.-.KZN_R506	1976817.-.KZN_4207
2036054.-.KZN_R506	3476953.+.KZN_4207
2036054.-.KZN_R506	3078998.+.KZN_4207
2036054.-.KZN_R506	2803669.+.KZN_4207
2036054.-.KZN_R506	3704481.-.KZN_4207
2036054.-.KZN_R506	2360311.-.KZN_4207
1976817.-.KZN_4207	2627283.-.KZN_R506
1976817.-.KZN_4207	2036054.-.KZN_R506
1976817.-.KZN_4207	3704481.-.KZN_R506
1976817.-.KZN_4207	2803669.+.KZN_R506
1976817.-.KZN_4207	2360311.-.KZN_R506
1976817.-.KZN_4207	2547727.-.KZN_R506
1976817.-.KZN_4207	4062487.-.KZN_R506
1976817.-.KZN_4207	931730.-.KZN_R506
1976817.-.KZN_4207	3116329.-.KZN_R506
1976817.-.KZN_4207	3476953.+.KZN_R506
1976817.-.KZN_4207	3078998.+.KZN_R506
931731.-.KZN_4207	2627283.-.KZN_R506
931731.-.KZN_4207	2036054.-.KZN_R506
931731.-.KZN_4207	2803669.+.KZN_R506
931731.-.KZN_4207	2547727.-.KZN_R506
931731.-.KZN_4207	3704481.-.KZN_R506
931731.-.KZN_4207	1976816.-.KZN_R506
931731.-.KZN_4207	3116329.-.KZN_R506
931731.-.KZN_4207	4062487.-.KZN_R506
931731.-.KZN_4207	3476953.+.KZN_R506
931731.-.KZN_4207	3078998.+.KZN_R506
931731.-.KZN_4207	2360311.-.KZN_R506
3704481.-.KZN_R506	2627283.-.KZN_4207
3704481.-.KZN_R506	1976817.-.KZN_4207
3704481.-.KZN_R506	3116329.-.KZN_4207
3704481.-.KZN_R506	2036055.-.KZN_4207
3704481.-.KZN_R506	2803669.+.KZN_4207
3704481.-.KZN_R506	2547727.-.KZN_4207
3704481.-.KZN_R506	3476953.+.KZN_4207
3704481.-.KZN_R506	931731.-.KZN_4207
3704481.-.KZN_R506	3078998.+.KZN_4207
3704481.-.KZN_R506	4062487.-.KZN_4207
3704481.-.KZN_R506	2360311.-.KZN_4207
2547727.-.KZN_4207	2627283.-.KZN_R506
2547727.-.KZN_4207	2036054.-.KZN_R506
2547727.-.KZN_4207	3704481.-.KZN_R506
2547727.-.KZN_4207	2803669.+.KZN_R506
2547727.-.KZN_4207	4062487.-.KZN_R506
2547727.-.KZN_4207	1976816.-.KZN_R506
2547727.-.KZN_4207	931730.-.KZN_R506
2547727.-.KZN_4207	3116329.-.KZN_R506
2547727.-.KZN_4207	3476953.+.KZN_R506
2547727.-.KZN_4207	3078998.+.KZN_R506
2547727.-.KZN_4207	2360311.-.KZN_R506
2360311.-.KZN_R506	2036055.-.KZN_4207
2360311.-.KZN_R506	3116329.-.KZN_4207
2360311.-.KZN_R506	931731.-.KZN_4207
2360311.-.KZN_R506	1976817.-.KZN_4207
2360311.-.KZN_R506	2547727.-.KZN_4207
2360311.-.KZN_R506	3476953.+.KZN_4207
2360311.-.KZN_R506	2627283.-.KZN_4207
2360311.-.KZN_R506	3078998.+.KZN_4207
2360311.-.KZN_R506	2803669.+.KZN_4207
2360311.-.KZN_R506	4062487.-.KZN_4207
2360311.-.KZN_R506	3704481.-.KZN_4207
2627283.-.KZN_R506	1976817.-.KZN_4207
2627283.-.KZN_R506	3116329.-.KZN_4207
2627283.-.KZN_R506	931731.-.KZN_4207
2627283.-.KZN_R506	2036055.-.KZN_4207
2627283.-.KZN_R506	2360311.-.KZN_4207
2627283.-.KZN_R506	2547727.-.KZN_4207
2627283.-.KZN_R506	3476953.+.KZN_4207
2627283.-.KZN_R506	3078998.+.KZN_4207
2627283.-.KZN_R506	2803669.+.KZN_4207
2627283.-.KZN_R506	4062487.-.KZN_4207
2627283.-.KZN_R506	3704481.-.KZN_4207
3476953.+.KZN_4207	931730.-.KZN_R506
3476953.+.KZN_4207	3704481.-.KZN_R506
3476953.+.KZN_4207	2803669.+.KZN_R506
3476953.+.KZN_4207	2627283.-.KZN_R506
3476953.+.KZN_4207	2547727.-.KZN_R506
3476953.+.KZN_4207	2036054.-.KZN_R506
3476953.+.KZN_4207	1976816.-.KZN_R506
3476953.+.KZN_4207	3116329.-.KZN_R506
3476953.+.KZN_4207	4062487.-.KZN_R506
3476953.+.KZN_4207	3078998.+.KZN_R506
3476953.+.KZN_4207	2360311.-.KZN_R506
2803669.+.KZN_4207	2036054.-.KZN_R506
2803669.+.KZN_4207	931730.-.KZN_R506
2803669.+.KZN_4207	2627283.-.KZN_R506
2803669.+.KZN_4207	2547727.-.KZN_R506
2803669.+.KZN_4207	3704481.-.KZN_R506
2803669.+.KZN_4207	1976816.-.KZN_R506
2803669.+.KZN_4207	3116329.-.KZN_R506
2803669.+.KZN_4207	4062487.-.KZN_R506
2803669.+.KZN_4207	3476953.+.KZN_R506
2803669.+.KZN_4207	3078998.+.KZN_R506
2803669.+.KZN_4207	2360311.-.KZN_R506
973396.-.KZN_R506	719007.-.KZN_4207
719007.-.KZN_4207	973396.-.KZN_R506
973397.-.KZN_4207	719006.-.KZN_R506
719006.-.KZN_R506	973397.-.KZN_4207
2628218.-.KZN_R506	4063422.-.KZN_4207
2628218.-.KZN_R506	932666.-.KZN_4207
2628218.-.KZN_R506	2036990.-.KZN_4207
2628218.-.KZN_R506	3705416.-.KZN_4207
2628218.-.KZN_R506	2802734.+.KZN_4207
2628218.-.KZN_R506	3476018.+.KZN_4207
2628218.-.KZN_R506	3078063.+.KZN_4207
2628218.-.KZN_R506	2548662.-.KZN_4207
2628218.-.KZN_R506	2361246.-.KZN_4207
2628218.-.KZN_R506	1977752.-.KZN_4207
2628218.-.KZN_R506	3117264.-.KZN_4207
4063422.-.KZN_4207	2802734.+.KZN_R506
4063422.-.KZN_4207	2036989.-.KZN_R506
4063422.-.KZN_4207	1977751.-.KZN_R506
4063422.-.KZN_4207	932665.-.KZN_R506
4063422.-.KZN_4207	3705416.-.KZN_R506
4063422.-.KZN_4207	3476018.+.KZN_R506
4063422.-.KZN_4207	2548662.-.KZN_R506
4063422.-.KZN_4207	3117264.-.KZN_R506
4063422.-.KZN_4207	2361246.-.KZN_R506
4063422.-.KZN_4207	2628218.-.KZN_R506
4063422.-.KZN_4207	3078063.+.KZN_R506
2036990.-.KZN_4207	2802734.+.KZN_R506
2036990.-.KZN_4207	3476018.+.KZN_R506
2036990.-.KZN_4207	3078063.+.KZN_R506
2036990.-.KZN_4207	1977751.-.KZN_R506
2036990.-.KZN_4207	932665.-.KZN_R506
2036990.-.KZN_4207	2548662.-.KZN_R506
2036990.-.KZN_4207	3117264.-.KZN_R506
2036990.-.KZN_4207	2361246.-.KZN_R506
2036990.-.KZN_4207	4063422.-.KZN_R506
2036990.-.KZN_4207	2628218.-.KZN_R506
2036990.-.KZN_4207	3705416.-.KZN_R506
3078063.+.KZN_4207	2802734.+.KZN_R506
3078063.+.KZN_4207	3117264.-.KZN_R506
3078063.+.KZN_4207	3476018.+.KZN_R506
3078063.+.KZN_4207	2036989.-.KZN_R506
3078063.+.KZN_4207	3705416.-.KZN_R506
3078063.+.KZN_4207	1977751.-.KZN_R506
3078063.+.KZN_4207	932665.-.KZN_R506
3078063.+.KZN_4207	2548662.-.KZN_R506
3078063.+.KZN_4207	2628218.-.KZN_R506
3078063.+.KZN_4207	2361246.-.KZN_R506
3078063.+.KZN_4207	4063422.-.KZN_R506
2361246.-.KZN_4207	2036989.-.KZN_R506
2361246.-.KZN_4207	2802734.+.KZN_R506
2361246.-.KZN_4207	3117264.-.KZN_R506
2361246.-.KZN_4207	1977751.-.KZN_R506
2361246.-.KZN_4207	2548662.-.KZN_R506
2361246.-.KZN_4207	3705416.-.KZN_R506
2361246.-.KZN_4207	3476018.+.KZN_R506
2361246.-.KZN_4207	932665.-.KZN_R506
2361246.-.KZN_4207	2628218.-.KZN_R506
2361246.-.KZN_4207	4063422.-.KZN_R506
2361246.-.KZN_4207	3078063.+.KZN_R506
2548662.-.KZN_R506	4063422.-.KZN_4207
2548662.-.KZN_R506	932666.-.KZN_4207
2548662.-.KZN_R506	2036990.-.KZN_4207
2548662.-.KZN_R506	2628218.-.KZN_4207
2548662.-.KZN_R506	2802734.+.KZN_4207
2548662.-.KZN_R506	3078063.+.KZN_4207
2548662.-.KZN_R506	3476018.+.KZN_4207
2548662.-.KZN_R506	2361246.-.KZN_4207
2548662.-.KZN_R506	3705416.-.KZN_4207
2548662.-.KZN_R506	1977752.-.KZN_4207
2548662.-.KZN_R506	3117264.-.KZN_4207
1977751.-.KZN_R506	4063422.-.KZN_4207
1977751.-.KZN_R506	932666.-.KZN_4207
1977751.-.KZN_R506	2628218.-.KZN_4207
1977751.-.KZN_R506	2548662.-.KZN_4207
1977751.-.KZN_R506	2802734.+.KZN_4207
1977751.-.KZN_R506	3078063.+.KZN_4207
1977751.-.KZN_R506	3476018.+.KZN_4207
1977751.-.KZN_R506	2036990.-.KZN_4207
1977751.-.KZN_R506	3705416.-.KZN_4207
1977751.-.KZN_R506	2361246.-.KZN_4207
1977751.-.KZN_R506	3117264.-.KZN_4207
3117264.-.KZN_4207	2802734.+.KZN_R506
3117264.-.KZN_4207	1977751.-.KZN_R506
3117264.-.KZN_4207	3705416.-.KZN_R506
3117264.-.KZN_4207	3476018.+.KZN_R506
3117264.-.KZN_4207	932665.-.KZN_R506
3117264.-.KZN_4207	2548662.-.KZN_R506
3117264.-.KZN_4207	2036989.-.KZN_R506
3117264.-.KZN_4207	2361246.-.KZN_R506
3117264.-.KZN_4207	4063422.-.KZN_R506
3117264.-.KZN_4207	2628218.-.KZN_R506
3117264.-.KZN_4207	3078063.+.KZN_R506
3117264.-.KZN_R506	932666.-.KZN_4207
3117264.-.KZN_R506	2036990.-.KZN_4207
3117264.-.KZN_R506	2628218.-.KZN_4207
3117264.-.KZN_R506	4063422.-.KZN_4207
3117264.-.KZN_R506	2802734.+.KZN_4207
3117264.-.KZN_R506	3078063.+.KZN_4207
3117264.-.KZN_R506	3476018.+.KZN_4207
3117264.-.KZN_R506	3705416.-.KZN_4207
3117264.-.KZN_R506	2548662.-.KZN_4207
3117264.-.KZN_R506	2361246.-.KZN_4207
3117264.-.KZN_R506	1977752.-.KZN_4207
2361246.-.KZN_R506	4063422.-.KZN_4207
2361246.-.KZN_R506	932666.-.KZN_4207
2361246.-.KZN_R506	2036990.-.KZN_4207
2361246.-.KZN_R506	2628218.-.KZN_4207
2361246.-.KZN_R506	2802734.+.KZN_4207
2361246.-.KZN_R506	3078063.+.KZN_4207
2361246.-.KZN_R506	3476018.+.KZN_4207
2361246.-.KZN_R506	2548662.-.KZN_4207
2361246.-.KZN_R506	3705416.-.KZN_4207
2361246.-.KZN_R506	1977752.-.KZN_4207
2361246.-.KZN_R506	3117264.-.KZN_4207
2036989.-.KZN_R506	4063422.-.KZN_4207
2036989.-.KZN_R506	932666.-.KZN_4207
2036989.-.KZN_R506	2628218.-.KZN_4207
2036989.-.KZN_R506	3078063.+.KZN_4207
2036989.-.KZN_R506	2802734.+.KZN_4207
2036989.-.KZN_R506	3476018.+.KZN_4207
2036989.-.KZN_R506	3705416.-.KZN_4207
2036989.-.KZN_R506	2548662.-.KZN_4207
2036989.-.KZN_R506	2361246.-.KZN_4207
2036989.-.KZN_R506	1977752.-.KZN_4207
2036989.-.KZN_R506	3117264.-.KZN_4207
2802734.+.KZN_R506	4063422.-.KZN_4207
2802734.+.KZN_R506	932666.-.KZN_4207
2802734.+.KZN_R506	2036990.-.KZN_4207
2802734.+.KZN_R506	2628218.-.KZN_4207
2802734.+.KZN_R506	3078063.+.KZN_4207
2802734.+.KZN_R506	3476018.+.KZN_4207
2802734.+.KZN_R506	2548662.-.KZN_4207
2802734.+.KZN_R506	3705416.-.KZN_4207
2802734.+.KZN_R506	2361246.-.KZN_4207
2802734.+.KZN_R506	1977752.-.KZN_4207
2802734.+.KZN_R506	3117264.-.KZN_4207
1977752.-.KZN_4207	2802734.+.KZN_R506
1977752.-.KZN_4207	3117264.-.KZN_R506
1977752.-.KZN_4207	3705416.-.KZN_R506
1977752.-.KZN_4207	2036989.-.KZN_R506
1977752.-.KZN_4207	3476018.+.KZN_R506
1977752.-.KZN_4207	932665.-.KZN_R506
1977752.-.KZN_4207	2548662.-.KZN_R506
1977752.-.KZN_4207	4063422.-.KZN_R506
1977752.-.KZN_4207	2361246.-.KZN_R506
1977752.-.KZN_4207	2628218.-.KZN_R506
1977752.-.KZN_4207	3078063.+.KZN_R506
2802734.+.KZN_4207	2036989.-.KZN_R506
2802734.+.KZN_4207	3117264.-.KZN_R506
2802734.+.KZN_4207	1977751.-.KZN_R506
2802734.+.KZN_4207	2628218.-.KZN_R506
2802734.+.KZN_4207	3705416.-.KZN_R506
2802734.+.KZN_4207	3476018.+.KZN_R506
2802734.+.KZN_4207	932665.-.KZN_R506
2802734.+.KZN_4207	2548662.-.KZN_R506
2802734.+.KZN_4207	2361246.-.KZN_R506
2802734.+.KZN_4207	4063422.-.KZN_R506
2802734.+.KZN_4207	3078063.+.KZN_R506
2548662.-.KZN_4207	2036989.-.KZN_R506
2548662.-.KZN_4207	2802734.+.KZN_R506
2548662.-.KZN_4207	3117264.-.KZN_R506
2548662.-.KZN_4207	3476018.+.KZN_R506
2548662.-.KZN_4207	3705416.-.KZN_R506
2548662.-.KZN_4207	932665.-.KZN_R506
2548662.-.KZN_4207	1977751.-.KZN_R506
2548662.-.KZN_4207	2361246.-.KZN_R506
2548662.-.KZN_4207	4063422.-.KZN_R506
2548662.-.KZN_4207	2628218.-.KZN_R506
2548662.-.KZN_4207	3078063.+.KZN_R506
3705416.-.KZN_4207	2802734.+.KZN_R506
3705416.-.KZN_4207	3117264.-.KZN_R506
3705416.-.KZN_4207	1977751.-.KZN_R506
3705416.-.KZN_4207	2628218.-.KZN_R506
3705416.-.KZN_4207	3476018.+.KZN_R506
3705416.-.KZN_4207	932665.-.KZN_R506
3705416.-.KZN_4207	2548662.-.KZN_R506
3705416.-.KZN_4207	2036989.-.KZN_R506
3705416.-.KZN_4207	2361246.-.KZN_R506
3705416.-.KZN_4207	4063422.-.KZN_R506
3705416.-.KZN_4207	3078063.+.KZN_R506
4063422.-.KZN_R506	3078063.+.KZN_4207
4063422.-.KZN_R506	2036990.-.KZN_4207
4063422.-.KZN_R506	2628218.-.KZN_4207
4063422.-.KZN_R506	3705416.-.KZN_4207
4063422.-.KZN_R506	2802734.+.KZN_4207
4063422.-.KZN_R506	3476018.+.KZN_4207
4063422.-.KZN_R506	2361246.-.KZN_4207
4063422.-.KZN_R506	932666.-.KZN_4207
4063422.-.KZN_R506	2548662.-.KZN_4207
4063422.-.KZN_R506	1977752.-.KZN_4207
4063422.-.KZN_R506	3117264.-.KZN_4207
3078063.+.KZN_R506	4063422.-.KZN_4207
3078063.+.KZN_R506	932666.-.KZN_4207
3078063.+.KZN_R506	2628218.-.KZN_4207
3078063.+.KZN_R506	2036990.-.KZN_4207
3078063.+.KZN_R506	2802734.+.KZN_4207
3078063.+.KZN_R506	3476018.+.KZN_4207
3078063.+.KZN_R506	3705416.-.KZN_4207
3078063.+.KZN_R506	2548662.-.KZN_4207
3078063.+.KZN_R506	2361246.-.KZN_4207
3078063.+.KZN_R506	1977752.-.KZN_4207
3078063.+.KZN_R506	3117264.-.KZN_4207
932665.-.KZN_R506	3078063.+.KZN_4207
932665.-.KZN_R506	2036990.-.KZN_4207
932665.-.KZN_R506	2628218.-.KZN_4207
932665.-.KZN_R506	4063422.-.KZN_4207
932665.-.KZN_R506	2802734.+.KZN_4207
932665.-.KZN_R506	3476018.+.KZN_4207
932665.-.KZN_R506	2548662.-.KZN_4207
932665.-.KZN_R506	3705416.-.KZN_4207
932665.-.KZN_R506	2361246.-.KZN_4207
932665.-.KZN_R506	1977752.-.KZN_4207
932665.-.KZN_R506	3117264.-.KZN_4207
2628218.-.KZN_4207	2802734.+.KZN_R506
2628218.-.KZN_4207	2036989.-.KZN_R506
2628218.-.KZN_4207	1977751.-.KZN_R506
2628218.-.KZN_4207	3476018.+.KZN_R506
2628218.-.KZN_4207	3117264.-.KZN_R506
2628218.-.KZN_4207	3705416.-.KZN_R506
2628218.-.KZN_4207	932665.-.KZN_R506
2628218.-.KZN_4207	2548662.-.KZN_R506
2628218.-.KZN_4207	2361246.-.KZN_R506
2628218.-.KZN_4207	4063422.-.KZN_R506
2628218.-.KZN_4207	3078063.+.KZN_R506
3705416.-.KZN_R506	932666.-.KZN_4207
3705416.-.KZN_R506	2036990.-.KZN_4207
3705416.-.KZN_R506	2628218.-.KZN_4207
3705416.-.KZN_R506	1977752.-.KZN_4207
3705416.-.KZN_R506	2802734.+.KZN_4207
3705416.-.KZN_R506	3078063.+.KZN_4207
3705416.-.KZN_R506	3476018.+.KZN_4207
3705416.-.KZN_R506	4063422.-.KZN_4207
3705416.-.KZN_R506	2548662.-.KZN_4207
3705416.-.KZN_R506	2361246.-.KZN_4207
3705416.-.KZN_R506	3117264.-.KZN_4207
932666.-.KZN_4207	2802734.+.KZN_R506
932666.-.KZN_4207	3117264.-.KZN_R506
932666.-.KZN_4207	3476018.+.KZN_R506
932666.-.KZN_4207	2036989.-.KZN_R506
932666.-.KZN_4207	3705416.-.KZN_R506
932666.-.KZN_4207	1977751.-.KZN_R506
932666.-.KZN_4207	2548662.-.KZN_R506
932666.-.KZN_4207	2361246.-.KZN_R506
932666.-.KZN_4207	4063422.-.KZN_R506
932666.-.KZN_4207	2628218.-.KZN_R506
932666.-.KZN_4207	3078063.+.KZN_R506
3476018.+.KZN_4207	2802734.+.KZN_R506
3476018.+.KZN_4207	3117264.-.KZN_R506
3476018.+.KZN_4207	2548662.-.KZN_R506
3476018.+.KZN_4207	3705416.-.KZN_R506
3476018.+.KZN_4207	1977751.-.KZN_R506
3476018.+.KZN_4207	932665.-.KZN_R506
3476018.+.KZN_4207	3078063.+.KZN_R506
3476018.+.KZN_4207	2361246.-.KZN_R506
3476018.+.KZN_4207	4063422.-.KZN_R506
3476018.+.KZN_4207	2036989.-.KZN_R506
3476018.+.KZN_4207	2628218.-.KZN_R506
3476018.+.KZN_R506	4063422.-.KZN_4207
3476018.+.KZN_R506	3078063.+.KZN_4207
3476018.+.KZN_R506	2036990.-.KZN_4207
3476018.+.KZN_R506	2628218.-.KZN_4207
3476018.+.KZN_R506	2802734.+.KZN_4207
3476018.+.KZN_R506	2548662.-.KZN_4207
3476018.+.KZN_R506	932666.-.KZN_4207
3476018.+.KZN_R506	3705416.-.KZN_4207
3476018.+.KZN_R506	2361246.-.KZN_4207
3476018.+.KZN_R506	1977752.-.KZN_4207
3476018.+.KZN_R506	3117264.-.KZN_4207
2626044.-.KZN_R506	2629486.-.KZN_4207
2629486.-.KZN_R506	2626044.-.KZN_4207
2626044.-.KZN_4207	2629486.-.KZN_R506
2629486.-.KZN_4207	2626044.-.KZN_R506
3481736.+.KZN_4207	907709.-.KZN_R506
3481736.+.KZN_R506	907710.-.KZN_4207
907709.-.KZN_R506	3481736.+.KZN_4207
907710.-.KZN_4207	3481736.+.KZN_R506
1342096.-.KZN_4207	2824397.-.KZN_R506
1342096.-.KZN_4207	3479323.+.KZN_R506
1342096.-.KZN_4207	3376640.-.KZN_R506
1342096.-.KZN_4207	1171467.+.KZN_R506
3376640.-.KZN_4207	3479323.+.KZN_R506
3376640.-.KZN_4207	2824397.-.KZN_R506
3376640.-.KZN_4207	1171467.+.KZN_R506
3376640.-.KZN_4207	1342095.-.KZN_R506
2824397.-.KZN_R506	1342096.-.KZN_4207
2824397.-.KZN_R506	3479323.+.KZN_4207
2824397.-.KZN_R506	1171468.+.KZN_4207
2824397.-.KZN_R506	3376640.-.KZN_4207
3479323.+.KZN_4207	2824397.-.KZN_R506
3479323.+.KZN_4207	1171467.+.KZN_R506
3479323.+.KZN_4207	3376640.-.KZN_R506
3479323.+.KZN_4207	1342095.-.KZN_R506
3479323.+.KZN_R506	3376640.-.KZN_4207
3479323.+.KZN_R506	1342096.-.KZN_4207
3479323.+.KZN_R506	2824397.-.KZN_4207
3479323.+.KZN_R506	1171468.+.KZN_4207
1171468.+.KZN_4207	3376640.-.KZN_R506
1171468.+.KZN_4207	2824397.-.KZN_R506
1171468.+.KZN_4207	3479323.+.KZN_R506
1171468.+.KZN_4207	1342095.-.KZN_R506
2824397.-.KZN_4207	1342095.-.KZN_R506
2824397.-.KZN_4207	3376640.-.KZN_R506
2824397.-.KZN_4207	1171467.+.KZN_R506
2824397.-.KZN_4207	3479323.+.KZN_R506
1171467.+.KZN_R506	3479323.+.KZN_4207
1171467.+.KZN_R506	2824397.-.KZN_4207
1171467.+.KZN_R506	3376640.-.KZN_4207
1171467.+.KZN_R506	1342096.-.KZN_4207
3376640.-.KZN_R506	3479323.+.KZN_4207
3376640.-.KZN_R506	2824397.-.KZN_4207
3376640.-.KZN_R506	1171468.+.KZN_4207
3376640.-.KZN_R506	1342096.-.KZN_4207
1342095.-.KZN_R506	2824397.-.KZN_4207
1342095.-.KZN_R506	1171468.+.KZN_4207
1342095.-.KZN_R506	3376640.-.KZN_4207
1342095.-.KZN_R506	3479323.+.KZN_4207
833189.+.KZN_4207	843163.+.KZN_R506
843163.+.KZN_R506	833189.+.KZN_4207
843164.+.KZN_4207	833188.+.KZN_R506
833188.+.KZN_R506	843164.+.KZN_4207
4044567.-.KZN_4207	1342027.+.KZN_R506
4044567.-.KZN_4207	1161339.-.KZN_R506
4044567.-.KZN_4207	2619009.-.KZN_R506
1342027.+.KZN_R506	4044567.-.KZN_4207
1342027.+.KZN_R506	2619009.-.KZN_4207
1342027.+.KZN_R506	1161340.-.KZN_4207
4044567.-.KZN_R506	2619009.-.KZN_4207
4044567.-.KZN_R506	1161340.-.KZN_4207
4044567.-.KZN_R506	1342028.+.KZN_4207
2619009.-.KZN_R506	4044567.-.KZN_4207
2619009.-.KZN_R506	1342028.+.KZN_4207
2619009.-.KZN_R506	1161340.-.KZN_4207
2619009.-.KZN_4207	4044567.-.KZN_R506
2619009.-.KZN_4207	1342027.+.KZN_R506
2619009.-.KZN_4207	1161339.-.KZN_R506
1161339.-.KZN_R506	1342028.+.KZN_4207
1161339.-.KZN_R506	4044567.-.KZN_4207
1161339.-.KZN_R506	2619009.-.KZN_4207
1342028.+.KZN_4207	1161339.-.KZN_R506
1342028.+.KZN_4207	2619009.-.KZN_R506
1342028.+.KZN_4207	4044567.-.KZN_R506
1161340.-.KZN_4207	4044567.-.KZN_R506
1161340.-.KZN_4207	1342027.+.KZN_R506
1161340.-.KZN_4207	2619009.-.KZN_R506
1165887.-.KZN_R506	1279037.+.KZN_4207
1279037.+.KZN_4207	1165887.-.KZN_R506
1279036.+.KZN_R506	1165888.-.KZN_4207
1165888.-.KZN_4207	1279036.+.KZN_R506
3870421.+.KZN_4207	1778871.-.KZN_R506
3870421.+.KZN_4207	103840.-.KZN_R506
1778872.-.KZN_4207	3870421.+.KZN_R506
1778872.-.KZN_4207	103840.-.KZN_R506
103840.-.KZN_4207	1778871.-.KZN_R506
103840.-.KZN_4207	3870421.+.KZN_R506
3870421.+.KZN_R506	1778872.-.KZN_4207
3870421.+.KZN_R506	103840.-.KZN_4207
103840.-.KZN_R506	1778872.-.KZN_4207
103840.-.KZN_R506	3870421.+.KZN_4207
1778871.-.KZN_R506	3870421.+.KZN_4207
1778871.-.KZN_R506	103840.-.KZN_4207
4305205.+.KZN_R506	3745861.+.KZN_4207
3745861.+.KZN_4207	4305205.+.KZN_R506
3745861.+.KZN_R506	4305205.+.KZN_4207
4305205.+.KZN_4207	3745861.+.KZN_R506
3131455.-.KZN_R506	3128559.-.KZN_4207
3131455.-.KZN_4207	3128559.-.KZN_R506
3128559.-.KZN_R506	3131455.-.KZN_4207
3128559.-.KZN_4207	3131455.-.KZN_R506
3879753.+.KZN_R506	1533183.-.KZN_4207
3879753.+.KZN_R506	1341262.+.KZN_4207
1341261.+.KZN_R506	1533183.-.KZN_4207
1341261.+.KZN_R506	3879753.+.KZN_4207
3879753.+.KZN_4207	1341261.+.KZN_R506
3879753.+.KZN_4207	1533182.-.KZN_R506
1533182.-.KZN_R506	1341262.+.KZN_4207
1533182.-.KZN_R506	3879753.+.KZN_4207
1533183.-.KZN_4207	3879753.+.KZN_R506
1533183.-.KZN_4207	1341261.+.KZN_R506
1341262.+.KZN_4207	1533182.-.KZN_R506
1341262.+.KZN_4207	3879753.+.KZN_R506
608223.+.KZN_R506	404465.+.KZN_4207
608224.+.KZN_4207	404464.+.KZN_R506
404465.+.KZN_4207	608223.+.KZN_R506
404464.+.KZN_R506	608224.+.KZN_4207
3481432.+.KZN_R506	908014.-.KZN_4207
908013.-.KZN_R506	3481432.+.KZN_4207
908014.-.KZN_4207	3481432.+.KZN_R506
3481432.+.KZN_4207	908013.-.KZN_R506
1277036.-.KZN_4207	2187092.+.KZN_R506
1277035.-.KZN_R506	2187093.+.KZN_4207
2187092.+.KZN_R506	1277036.-.KZN_4207
2187093.+.KZN_4207	1277035.-.KZN_R506
2716752.-.KZN_R506	2432451.-.KZN_4207
2716752.-.KZN_4207	2432451.-.KZN_R506
2432451.-.KZN_4207	2716752.-.KZN_R506
2432451.-.KZN_R506	2716752.-.KZN_4207
4240266.+.KZN_R506	1468910.-.KZN_4207
4240266.+.KZN_4207	1468909.-.KZN_R506
1468910.-.KZN_4207	4240266.+.KZN_R506
1468909.-.KZN_R506	4240266.+.KZN_4207
1161650.-.KZN_R506	1341693.+.KZN_4207
1341693.+.KZN_4207	1161650.-.KZN_R506
1341692.+.KZN_R506	1161651.-.KZN_4207
1161651.-.KZN_4207	1341692.+.KZN_R506
474291.+.KZN_R506	476370.+.KZN_4207
474292.+.KZN_4207	476369.+.KZN_R506
476369.+.KZN_R506	474292.+.KZN_4207
476370.+.KZN_4207	474291.+.KZN_R506
1165368.-.KZN_4207	1279556.+.KZN_R506
1279557.+.KZN_4207	1165367.-.KZN_R506
1279556.+.KZN_R506	1165368.-.KZN_4207
1165367.-.KZN_R506	1279557.+.KZN_4207
332646.-.KZN_R506	842542.+.KZN_4207
332647.-.KZN_4207	842541.+.KZN_R506
842542.+.KZN_4207	332646.-.KZN_R506
842541.+.KZN_R506	332647.-.KZN_4207
