2251556.-.KZN_R506	2002841.-.F11
2002841.-.F11	2251556.-.KZN_R506
2803669.+.KZN_R506	934704.-.F11
2803669.+.KZN_R506	1998675.+.F11
2803669.+.KZN_R506	3493451.+.F11
2803669.+.KZN_R506	2005497.+.F11
2803669.+.KZN_R506	1983134.-.F11
2803669.+.KZN_R506	2697370.-.F11
2803669.+.KZN_R506	3132521.-.F11
2803669.+.KZN_R506	1946034.-.F11
2803669.+.KZN_R506	2270484.-.F11
2803669.+.KZN_R506	3722337.-.F11
2803669.+.KZN_R506	2650157.+.F11
2803669.+.KZN_R506	2350601.+.F11
2803669.+.KZN_R506	3564305.-.F11
2803669.+.KZN_R506	2017907.-.F11
2803669.+.KZN_R506	2646289.+.F11
2803669.+.KZN_R506	1992399.-.F11
2803669.+.KZN_R506	1486611.+.F11
2350601.+.F11	4062487.-.KZN_R506
2350601.+.F11	3116329.-.KZN_R506
2350601.+.F11	3078998.+.KZN_R506
2350601.+.F11	3476953.+.KZN_R506
2350601.+.F11	2627283.-.KZN_R506
2350601.+.F11	931730.-.KZN_R506
2350601.+.F11	1976816.-.KZN_R506
2350601.+.F11	3704481.-.KZN_R506
2350601.+.F11	2036054.-.KZN_R506
2350601.+.F11	2547727.-.KZN_R506
2350601.+.F11	2360311.-.KZN_R506
2350601.+.F11	2803669.+.KZN_R506
3493451.+.F11	4062487.-.KZN_R506
3493451.+.F11	3116329.-.KZN_R506
3493451.+.F11	3078998.+.KZN_R506
3493451.+.F11	2360311.-.KZN_R506
3493451.+.F11	931730.-.KZN_R506
3493451.+.F11	3704481.-.KZN_R506
3493451.+.F11	2627283.-.KZN_R506
3493451.+.F11	2036054.-.KZN_R506
3493451.+.F11	2547727.-.KZN_R506
3493451.+.F11	1976816.-.KZN_R506
3493451.+.F11	2803669.+.KZN_R506
2547727.-.KZN_R506	2005497.+.F11
2547727.-.KZN_R506	1992399.-.F11
2547727.-.KZN_R506	2270484.-.F11
2547727.-.KZN_R506	1998675.+.F11
2547727.-.KZN_R506	2697370.-.F11
2547727.-.KZN_R506	3564305.-.F11
2547727.-.KZN_R506	3493451.+.F11
2547727.-.KZN_R506	3132521.-.F11
2547727.-.KZN_R506	1946034.-.F11
2547727.-.KZN_R506	934704.-.F11
2547727.-.KZN_R506	3722337.-.F11
2547727.-.KZN_R506	1983134.-.F11
2547727.-.KZN_R506	2650157.+.F11
2547727.-.KZN_R506	2350601.+.F11
2547727.-.KZN_R506	2017907.-.F11
2547727.-.KZN_R506	2646289.+.F11
2547727.-.KZN_R506	1486611.+.F11
1992399.-.F11	4062487.-.KZN_R506
1992399.-.F11	3078998.+.KZN_R506
1992399.-.F11	3476953.+.KZN_R506
1992399.-.F11	3116329.-.KZN_R506
1992399.-.F11	2360311.-.KZN_R506
1992399.-.F11	931730.-.KZN_R506
1992399.-.F11	3704481.-.KZN_R506
1992399.-.F11	2036054.-.KZN_R506
1992399.-.F11	2547727.-.KZN_R506
1992399.-.F11	2627283.-.KZN_R506
1992399.-.F11	2803669.+.KZN_R506
3078998.+.KZN_R506	2270484.-.F11
3078998.+.KZN_R506	1946034.-.F11
3078998.+.KZN_R506	3493451.+.F11
3078998.+.KZN_R506	934704.-.F11
3078998.+.KZN_R506	2697370.-.F11
3078998.+.KZN_R506	3564305.-.F11
3078998.+.KZN_R506	3132521.-.F11
3078998.+.KZN_R506	1983134.-.F11
3078998.+.KZN_R506	1998675.+.F11
3078998.+.KZN_R506	3722337.-.F11
3078998.+.KZN_R506	2650157.+.F11
3078998.+.KZN_R506	2005497.+.F11
3078998.+.KZN_R506	2350601.+.F11
3078998.+.KZN_R506	2017907.-.F11
3078998.+.KZN_R506	2646289.+.F11
3078998.+.KZN_R506	1992399.-.F11
3078998.+.KZN_R506	1486611.+.F11
3116329.-.KZN_R506	934704.-.F11
3116329.-.KZN_R506	1998675.+.F11
3116329.-.KZN_R506	3493451.+.F11
3116329.-.KZN_R506	1992399.-.F11
3116329.-.KZN_R506	3564305.-.F11
3116329.-.KZN_R506	2697370.-.F11
3116329.-.KZN_R506	1983134.-.F11
3116329.-.KZN_R506	1946034.-.F11
3116329.-.KZN_R506	2270484.-.F11
3116329.-.KZN_R506	3722337.-.F11
3116329.-.KZN_R506	2005497.+.F11
3116329.-.KZN_R506	2650157.+.F11
3116329.-.KZN_R506	2350601.+.F11
3116329.-.KZN_R506	2017907.-.F11
3116329.-.KZN_R506	2646289.+.F11
3116329.-.KZN_R506	1486611.+.F11
2697370.-.F11	3116329.-.KZN_R506
2697370.-.F11	3476953.+.KZN_R506
2697370.-.F11	2547727.-.KZN_R506
2697370.-.F11	3704481.-.KZN_R506
2697370.-.F11	2360311.-.KZN_R506
2697370.-.F11	931730.-.KZN_R506
2697370.-.F11	2627283.-.KZN_R506
2697370.-.F11	3078998.+.KZN_R506
2697370.-.F11	2036054.-.KZN_R506
2697370.-.F11	1976816.-.KZN_R506
2697370.-.F11	2803669.+.KZN_R506
2697370.-.F11	4062487.-.KZN_R506
1983134.-.F11	3116329.-.KZN_R506
1983134.-.F11	3476953.+.KZN_R506
1983134.-.F11	4062487.-.KZN_R506
1983134.-.F11	2360311.-.KZN_R506
1983134.-.F11	931730.-.KZN_R506
1983134.-.F11	3704481.-.KZN_R506
1983134.-.F11	3078998.+.KZN_R506
1983134.-.F11	2036054.-.KZN_R506
1983134.-.F11	2627283.-.KZN_R506
1983134.-.F11	2547727.-.KZN_R506
1983134.-.F11	2803669.+.KZN_R506
3564305.-.F11	4062487.-.KZN_R506
3564305.-.F11	3116329.-.KZN_R506
3564305.-.F11	3476953.+.KZN_R506
3564305.-.F11	2360311.-.KZN_R506
3564305.-.F11	3704481.-.KZN_R506
3564305.-.F11	2627283.-.KZN_R506
3564305.-.F11	931730.-.KZN_R506
3564305.-.F11	3078998.+.KZN_R506
3564305.-.F11	2036054.-.KZN_R506
3564305.-.F11	2547727.-.KZN_R506
3564305.-.F11	2803669.+.KZN_R506
3564305.-.F11	1976816.-.KZN_R506
931730.-.KZN_R506	1992399.-.F11
931730.-.KZN_R506	2005497.+.F11
931730.-.KZN_R506	3493451.+.F11
931730.-.KZN_R506	2017907.-.F11
931730.-.KZN_R506	2697370.-.F11
931730.-.KZN_R506	1486611.+.F11
931730.-.KZN_R506	3132521.-.F11
931730.-.KZN_R506	3564305.-.F11
931730.-.KZN_R506	2270484.-.F11
931730.-.KZN_R506	3722337.-.F11
931730.-.KZN_R506	1983134.-.F11
931730.-.KZN_R506	2650157.+.F11
931730.-.KZN_R506	2350601.+.F11
931730.-.KZN_R506	2646289.+.F11
931730.-.KZN_R506	1946034.-.F11
931730.-.KZN_R506	1998675.+.F11
4062487.-.KZN_R506	934704.-.F11
4062487.-.KZN_R506	1992399.-.F11
4062487.-.KZN_R506	2270484.-.F11
4062487.-.KZN_R506	1998675.+.F11
4062487.-.KZN_R506	1983134.-.F11
4062487.-.KZN_R506	2697370.-.F11
4062487.-.KZN_R506	3493451.+.F11
4062487.-.KZN_R506	3132521.-.F11
4062487.-.KZN_R506	3564305.-.F11
4062487.-.KZN_R506	2005497.+.F11
4062487.-.KZN_R506	3722337.-.F11
4062487.-.KZN_R506	2650157.+.F11
4062487.-.KZN_R506	1946034.-.F11
4062487.-.KZN_R506	2350601.+.F11
4062487.-.KZN_R506	2017907.-.F11
4062487.-.KZN_R506	2646289.+.F11
4062487.-.KZN_R506	1486611.+.F11
2017907.-.F11	4062487.-.KZN_R506
2017907.-.F11	3116329.-.KZN_R506
2017907.-.F11	3078998.+.KZN_R506
2017907.-.F11	3476953.+.KZN_R506
2017907.-.F11	931730.-.KZN_R506
2017907.-.F11	2627283.-.KZN_R506
2017907.-.F11	2036054.-.KZN_R506
2017907.-.F11	3704481.-.KZN_R506
2017907.-.F11	2547727.-.KZN_R506
2017907.-.F11	1976816.-.KZN_R506
2017907.-.F11	2360311.-.KZN_R506
2017907.-.F11	2803669.+.KZN_R506
1486611.+.F11	3116329.-.KZN_R506
1486611.+.F11	3078998.+.KZN_R506
1486611.+.F11	3476953.+.KZN_R506
1486611.+.F11	3704481.-.KZN_R506
1486611.+.F11	1976816.-.KZN_R506
1486611.+.F11	931730.-.KZN_R506
1486611.+.F11	2036054.-.KZN_R506
1486611.+.F11	4062487.-.KZN_R506
1486611.+.F11	2627283.-.KZN_R506
1486611.+.F11	2547727.-.KZN_R506
1486611.+.F11	2360311.-.KZN_R506
1486611.+.F11	2803669.+.KZN_R506
3476953.+.KZN_R506	2270484.-.F11
3476953.+.KZN_R506	1946034.-.F11
3476953.+.KZN_R506	934704.-.F11
3476953.+.KZN_R506	2350601.+.F11
3476953.+.KZN_R506	3132521.-.F11
3476953.+.KZN_R506	2650157.+.F11
3476953.+.KZN_R506	3564305.-.F11
3476953.+.KZN_R506	1998675.+.F11
3476953.+.KZN_R506	3722337.-.F11
3476953.+.KZN_R506	2005497.+.F11
3476953.+.KZN_R506	1983134.-.F11
3476953.+.KZN_R506	2017907.-.F11
3476953.+.KZN_R506	2646289.+.F11
3476953.+.KZN_R506	1992399.-.F11
3476953.+.KZN_R506	1486611.+.F11
3476953.+.KZN_R506	2697370.-.F11
3722337.-.F11	3116329.-.KZN_R506
3722337.-.F11	3078998.+.KZN_R506
3722337.-.F11	3476953.+.KZN_R506
3722337.-.F11	2627283.-.KZN_R506
3722337.-.F11	2360311.-.KZN_R506
3722337.-.F11	931730.-.KZN_R506
3722337.-.F11	2036054.-.KZN_R506
3722337.-.F11	4062487.-.KZN_R506
3722337.-.F11	2547727.-.KZN_R506
3722337.-.F11	2803669.+.KZN_R506
3722337.-.F11	1976816.-.KZN_R506
1976816.-.KZN_R506	2270484.-.F11
1976816.-.KZN_R506	1946034.-.F11
1976816.-.KZN_R506	1998675.+.F11
1976816.-.KZN_R506	2350601.+.F11
1976816.-.KZN_R506	3493451.+.F11
1976816.-.KZN_R506	1486611.+.F11
1976816.-.KZN_R506	3132521.-.F11
1976816.-.KZN_R506	3722337.-.F11
1976816.-.KZN_R506	3564305.-.F11
1976816.-.KZN_R506	2005497.+.F11
1976816.-.KZN_R506	2650157.+.F11
1976816.-.KZN_R506	2017907.-.F11
1976816.-.KZN_R506	2646289.+.F11
1976816.-.KZN_R506	934704.-.F11
1976816.-.KZN_R506	2697370.-.F11
2036054.-.KZN_R506	934704.-.F11
2036054.-.KZN_R506	1998675.+.F11
2036054.-.KZN_R506	3493451.+.F11
2036054.-.KZN_R506	2005497.+.F11
2036054.-.KZN_R506	3564305.-.F11
2036054.-.KZN_R506	3132521.-.F11
2036054.-.KZN_R506	3722337.-.F11
2036054.-.KZN_R506	1946034.-.F11
2036054.-.KZN_R506	2017907.-.F11
2036054.-.KZN_R506	2646289.+.F11
2036054.-.KZN_R506	1983134.-.F11
2036054.-.KZN_R506	2650157.+.F11
2036054.-.KZN_R506	2350601.+.F11
2036054.-.KZN_R506	2270484.-.F11
2036054.-.KZN_R506	1992399.-.F11
2036054.-.KZN_R506	1486611.+.F11
2036054.-.KZN_R506	2697370.-.F11
1998675.+.F11	3116329.-.KZN_R506
1998675.+.F11	3476953.+.KZN_R506
1998675.+.F11	3704481.-.KZN_R506
1998675.+.F11	2360311.-.KZN_R506
1998675.+.F11	931730.-.KZN_R506
1998675.+.F11	2036054.-.KZN_R506
1998675.+.F11	3078998.+.KZN_R506
1998675.+.F11	2627283.-.KZN_R506
1998675.+.F11	2547727.-.KZN_R506
1998675.+.F11	1976816.-.KZN_R506
1998675.+.F11	2803669.+.KZN_R506
1998675.+.F11	4062487.-.KZN_R506
2650157.+.F11	3116329.-.KZN_R506
2650157.+.F11	3476953.+.KZN_R506
2650157.+.F11	2803669.+.KZN_R506
2650157.+.F11	3704481.-.KZN_R506
2650157.+.F11	931730.-.KZN_R506
2650157.+.F11	3078998.+.KZN_R506
2650157.+.F11	4062487.-.KZN_R506
2650157.+.F11	2036054.-.KZN_R506
2650157.+.F11	2547727.-.KZN_R506
2650157.+.F11	2360311.-.KZN_R506
2650157.+.F11	1976816.-.KZN_R506
1946034.-.F11	4062487.-.KZN_R506
1946034.-.F11	3116329.-.KZN_R506
1946034.-.F11	3476953.+.KZN_R506
1946034.-.F11	1976816.-.KZN_R506
1946034.-.F11	2627283.-.KZN_R506
1946034.-.F11	931730.-.KZN_R506
1946034.-.F11	3704481.-.KZN_R506
1946034.-.F11	3078998.+.KZN_R506
1946034.-.F11	2036054.-.KZN_R506
1946034.-.F11	2547727.-.KZN_R506
1946034.-.F11	2360311.-.KZN_R506
1946034.-.F11	2803669.+.KZN_R506
3704481.-.KZN_R506	934704.-.F11
3704481.-.KZN_R506	1946034.-.F11
3704481.-.KZN_R506	2270484.-.F11
3704481.-.KZN_R506	1998675.+.F11
3704481.-.KZN_R506	1992399.-.F11
3704481.-.KZN_R506	3493451.+.F11
3704481.-.KZN_R506	3132521.-.F11
3704481.-.KZN_R506	2650157.+.F11
3704481.-.KZN_R506	3564305.-.F11
3704481.-.KZN_R506	1983134.-.F11
3704481.-.KZN_R506	2005497.+.F11
3704481.-.KZN_R506	2350601.+.F11
3704481.-.KZN_R506	2017907.-.F11
3704481.-.KZN_R506	2646289.+.F11
3704481.-.KZN_R506	1486611.+.F11
3704481.-.KZN_R506	2697370.-.F11
3132521.-.F11	3078998.+.KZN_R506
3132521.-.F11	3476953.+.KZN_R506
3132521.-.F11	2547727.-.KZN_R506
3132521.-.F11	3704481.-.KZN_R506
3132521.-.F11	2627283.-.KZN_R506
3132521.-.F11	931730.-.KZN_R506
3132521.-.F11	4062487.-.KZN_R506
3132521.-.F11	2036054.-.KZN_R506
3132521.-.F11	1976816.-.KZN_R506
3132521.-.F11	2360311.-.KZN_R506
3132521.-.F11	2803669.+.KZN_R506
2360311.-.KZN_R506	2270484.-.F11
2360311.-.KZN_R506	1998675.+.F11
2360311.-.KZN_R506	3564305.-.F11
2360311.-.KZN_R506	3493451.+.F11
2360311.-.KZN_R506	1486611.+.F11
2360311.-.KZN_R506	3132521.-.F11
2360311.-.KZN_R506	1983134.-.F11
2360311.-.KZN_R506	2697370.-.F11
2360311.-.KZN_R506	1992399.-.F11
2360311.-.KZN_R506	3722337.-.F11
2360311.-.KZN_R506	2005497.+.F11
2360311.-.KZN_R506	2650157.+.F11
2360311.-.KZN_R506	2350601.+.F11
2360311.-.KZN_R506	2017907.-.F11
2360311.-.KZN_R506	2646289.+.F11
2360311.-.KZN_R506	1946034.-.F11
2360311.-.KZN_R506	934704.-.F11
2646289.+.F11	3116329.-.KZN_R506
2646289.+.F11	3476953.+.KZN_R506
2646289.+.F11	4062487.-.KZN_R506
2646289.+.F11	3704481.-.KZN_R506
2646289.+.F11	931730.-.KZN_R506
2646289.+.F11	2803669.+.KZN_R506
2646289.+.F11	3078998.+.KZN_R506
2646289.+.F11	2036054.-.KZN_R506
2646289.+.F11	2547727.-.KZN_R506
2646289.+.F11	2360311.-.KZN_R506
2646289.+.F11	1976816.-.KZN_R506
2627283.-.KZN_R506	934704.-.F11
2627283.-.KZN_R506	1998675.+.F11
2627283.-.KZN_R506	2005497.+.F11
2627283.-.KZN_R506	3493451.+.F11
2627283.-.KZN_R506	2697370.-.F11
2627283.-.KZN_R506	3564305.-.F11
2627283.-.KZN_R506	1486611.+.F11
2627283.-.KZN_R506	3132521.-.F11
2627283.-.KZN_R506	3722337.-.F11
2627283.-.KZN_R506	1983134.-.F11
2627283.-.KZN_R506	2350601.+.F11
2627283.-.KZN_R506	2017907.-.F11
2627283.-.KZN_R506	1992399.-.F11
2627283.-.KZN_R506	1946034.-.F11
2627283.-.KZN_R506	2270484.-.F11
2005497.+.F11	3116329.-.KZN_R506
2005497.+.F11	3078998.+.KZN_R506
2005497.+.F11	3476953.+.KZN_R506
2005497.+.F11	2036054.-.KZN_R506
2005497.+.F11	1976816.-.KZN_R506
2005497.+.F11	931730.-.KZN_R506
2005497.+.F11	4062487.-.KZN_R506
2005497.+.F11	3704481.-.KZN_R506
2005497.+.F11	2627283.-.KZN_R506
2005497.+.F11	2547727.-.KZN_R506
2005497.+.F11	2360311.-.KZN_R506
2005497.+.F11	2803669.+.KZN_R506
2270484.-.F11	4062487.-.KZN_R506
2270484.-.F11	3116329.-.KZN_R506
2270484.-.F11	3476953.+.KZN_R506
2270484.-.F11	931730.-.KZN_R506
2270484.-.F11	3704481.-.KZN_R506
2270484.-.F11	2360311.-.KZN_R506
2270484.-.F11	2803669.+.KZN_R506
2270484.-.F11	3078998.+.KZN_R506
2270484.-.F11	2036054.-.KZN_R506
2270484.-.F11	2547727.-.KZN_R506
2270484.-.F11	2627283.-.KZN_R506
2270484.-.F11	1976816.-.KZN_R506
934704.-.F11	4062487.-.KZN_R506
934704.-.F11	3116329.-.KZN_R506
934704.-.F11	3078998.+.KZN_R506
934704.-.F11	3476953.+.KZN_R506
934704.-.F11	2547727.-.KZN_R506
934704.-.F11	2627283.-.KZN_R506
934704.-.F11	3704481.-.KZN_R506
934704.-.F11	2036054.-.KZN_R506
934704.-.F11	2360311.-.KZN_R506
934704.-.F11	2803669.+.KZN_R506
934704.-.F11	1976816.-.KZN_R506
973396.-.KZN_R506	721989.-.F11
976370.-.F11	719006.-.KZN_R506
721989.-.F11	973396.-.KZN_R506
719006.-.KZN_R506	976370.-.F11
1946969.-.F11	2628218.-.KZN_R506
1946969.-.F11	3705416.-.KZN_R506
1946969.-.F11	2802734.+.KZN_R506
1946969.-.F11	1977751.-.KZN_R506
1946969.-.F11	3078063.+.KZN_R506
1946969.-.F11	3117264.-.KZN_R506
1946969.-.F11	3476018.+.KZN_R506
1946969.-.F11	2036989.-.KZN_R506
1946969.-.F11	2361246.-.KZN_R506
1946969.-.F11	932665.-.KZN_R506
1946969.-.F11	4063422.-.KZN_R506
1946969.-.F11	2548662.-.KZN_R506
3565240.-.F11	2628218.-.KZN_R506
3565240.-.F11	2802734.+.KZN_R506
3565240.-.F11	2548662.-.KZN_R506
3565240.-.F11	1977751.-.KZN_R506
3565240.-.F11	3078063.+.KZN_R506
3565240.-.F11	3117264.-.KZN_R506
3565240.-.F11	932665.-.KZN_R506
3565240.-.F11	3476018.+.KZN_R506
3565240.-.F11	2036989.-.KZN_R506
3565240.-.F11	3705416.-.KZN_R506
3565240.-.F11	2361246.-.KZN_R506
3565240.-.F11	4063422.-.KZN_R506
2628218.-.KZN_R506	1997740.+.F11
2628218.-.KZN_R506	2349666.+.F11
2628218.-.KZN_R506	2698305.-.F11
2628218.-.KZN_R506	2271419.-.F11
2628218.-.KZN_R506	2018842.-.F11
2628218.-.KZN_R506	3492516.+.F11
2628218.-.KZN_R506	1984069.-.F11
2628218.-.KZN_R506	935639.-.F11
2628218.-.KZN_R506	3723272.-.F11
2628218.-.KZN_R506	1946969.-.F11
2628218.-.KZN_R506	3565240.-.F11
2628218.-.KZN_R506	1485676.+.F11
2628218.-.KZN_R506	2004562.+.F11
2628218.-.KZN_R506	1993334.-.F11
2628218.-.KZN_R506	3133456.-.F11
1993334.-.F11	2628218.-.KZN_R506
1993334.-.F11	3705416.-.KZN_R506
1993334.-.F11	3476018.+.KZN_R506
1993334.-.F11	3078063.+.KZN_R506
1993334.-.F11	2802734.+.KZN_R506
1993334.-.F11	3117264.-.KZN_R506
1993334.-.F11	2548662.-.KZN_R506
1993334.-.F11	2036989.-.KZN_R506
1993334.-.F11	2361246.-.KZN_R506
1993334.-.F11	932665.-.KZN_R506
1993334.-.F11	4063422.-.KZN_R506
1485676.+.F11	2802734.+.KZN_R506
1485676.+.F11	3705416.-.KZN_R506
1485676.+.F11	4063422.-.KZN_R506
1485676.+.F11	2628218.-.KZN_R506
1485676.+.F11	1977751.-.KZN_R506
1485676.+.F11	3078063.+.KZN_R506
1485676.+.F11	3117264.-.KZN_R506
1485676.+.F11	3476018.+.KZN_R506
1485676.+.F11	2036989.-.KZN_R506
1485676.+.F11	2361246.-.KZN_R506
1485676.+.F11	932665.-.KZN_R506
1485676.+.F11	2548662.-.KZN_R506
3492516.+.F11	2802734.+.KZN_R506
3492516.+.F11	2628218.-.KZN_R506
3492516.+.F11	1977751.-.KZN_R506
3492516.+.F11	3078063.+.KZN_R506
3492516.+.F11	3117264.-.KZN_R506
3492516.+.F11	2361246.-.KZN_R506
3492516.+.F11	2036989.-.KZN_R506
3492516.+.F11	3705416.-.KZN_R506
3492516.+.F11	932665.-.KZN_R506
3492516.+.F11	4063422.-.KZN_R506
3492516.+.F11	2548662.-.KZN_R506
2649222.+.F11	2802734.+.KZN_R506
2649222.+.F11	3705416.-.KZN_R506
2649222.+.F11	1977751.-.KZN_R506
2649222.+.F11	3078063.+.KZN_R506
2649222.+.F11	3117264.-.KZN_R506
2649222.+.F11	2036989.-.KZN_R506
2649222.+.F11	3476018.+.KZN_R506
2649222.+.F11	2361246.-.KZN_R506
2649222.+.F11	932665.-.KZN_R506
2649222.+.F11	4063422.-.KZN_R506
2649222.+.F11	2548662.-.KZN_R506
1977751.-.KZN_R506	1997740.+.F11
1977751.-.KZN_R506	2649222.+.F11
1977751.-.KZN_R506	2271419.-.F11
1977751.-.KZN_R506	2349666.+.F11
1977751.-.KZN_R506	1485676.+.F11
1977751.-.KZN_R506	2018842.-.F11
1977751.-.KZN_R506	3492516.+.F11
1977751.-.KZN_R506	2698305.-.F11
1977751.-.KZN_R506	935639.-.F11
1977751.-.KZN_R506	3723272.-.F11
1977751.-.KZN_R506	1946969.-.F11
1977751.-.KZN_R506	3565240.-.F11
1977751.-.KZN_R506	3133456.-.F11
1977751.-.KZN_R506	2645354.+.F11
1977751.-.KZN_R506	2004562.+.F11
1984069.-.F11	2628218.-.KZN_R506
1984069.-.F11	2802734.+.KZN_R506
1984069.-.F11	3078063.+.KZN_R506
1984069.-.F11	3117264.-.KZN_R506
1984069.-.F11	4063422.-.KZN_R506
1984069.-.F11	3476018.+.KZN_R506
1984069.-.F11	2036989.-.KZN_R506
1984069.-.F11	932665.-.KZN_R506
1984069.-.F11	3705416.-.KZN_R506
1984069.-.F11	2361246.-.KZN_R506
1984069.-.F11	2548662.-.KZN_R506
3117264.-.KZN_R506	2645354.+.F11
3117264.-.KZN_R506	1997740.+.F11
3117264.-.KZN_R506	2349666.+.F11
3117264.-.KZN_R506	935639.-.F11
3117264.-.KZN_R506	2018842.-.F11
3117264.-.KZN_R506	2649222.+.F11
3117264.-.KZN_R506	3492516.+.F11
3117264.-.KZN_R506	2271419.-.F11
3117264.-.KZN_R506	1984069.-.F11
3117264.-.KZN_R506	2698305.-.F11
3117264.-.KZN_R506	3723272.-.F11
3117264.-.KZN_R506	1946969.-.F11
3117264.-.KZN_R506	3565240.-.F11
3117264.-.KZN_R506	2004562.+.F11
3117264.-.KZN_R506	1485676.+.F11
3117264.-.KZN_R506	1993334.-.F11
2361246.-.KZN_R506	1997740.+.F11
2361246.-.KZN_R506	2004562.+.F11
2361246.-.KZN_R506	2698305.-.F11
2361246.-.KZN_R506	2349666.+.F11
2361246.-.KZN_R506	2271419.-.F11
2361246.-.KZN_R506	1485676.+.F11
2361246.-.KZN_R506	2018842.-.F11
2361246.-.KZN_R506	3492516.+.F11
2361246.-.KZN_R506	1984069.-.F11
2361246.-.KZN_R506	935639.-.F11
2361246.-.KZN_R506	2649222.+.F11
2361246.-.KZN_R506	3133456.-.F11
2361246.-.KZN_R506	1946969.-.F11
2361246.-.KZN_R506	3565240.-.F11
2361246.-.KZN_R506	3723272.-.F11
2361246.-.KZN_R506	2645354.+.F11
2361246.-.KZN_R506	1993334.-.F11
2036989.-.KZN_R506	2645354.+.F11
2036989.-.KZN_R506	1997740.+.F11
2036989.-.KZN_R506	1984069.-.F11
2036989.-.KZN_R506	2698305.-.F11
2036989.-.KZN_R506	3133456.-.F11
2036989.-.KZN_R506	1485676.+.F11
2036989.-.KZN_R506	2349666.+.F11
2036989.-.KZN_R506	2018842.-.F11
2036989.-.KZN_R506	2271419.-.F11
2036989.-.KZN_R506	935639.-.F11
2036989.-.KZN_R506	2649222.+.F11
2036989.-.KZN_R506	3723272.-.F11
2036989.-.KZN_R506	1946969.-.F11
2036989.-.KZN_R506	3565240.-.F11
2036989.-.KZN_R506	2004562.+.F11
2036989.-.KZN_R506	3492516.+.F11
2036989.-.KZN_R506	1993334.-.F11
2802734.+.KZN_R506	1997740.+.F11
2802734.+.KZN_R506	1984069.-.F11
2802734.+.KZN_R506	2698305.-.F11
2802734.+.KZN_R506	2018842.-.F11
2802734.+.KZN_R506	2271419.-.F11
2802734.+.KZN_R506	2349666.+.F11
2802734.+.KZN_R506	2645354.+.F11
2802734.+.KZN_R506	2649222.+.F11
2802734.+.KZN_R506	3492516.+.F11
2802734.+.KZN_R506	1946969.-.F11
2802734.+.KZN_R506	935639.-.F11
2802734.+.KZN_R506	3723272.-.F11
2802734.+.KZN_R506	3565240.-.F11
2802734.+.KZN_R506	2004562.+.F11
2802734.+.KZN_R506	1485676.+.F11
2802734.+.KZN_R506	1993334.-.F11
2802734.+.KZN_R506	3133456.-.F11
2698305.-.F11	2628218.-.KZN_R506
2698305.-.F11	2802734.+.KZN_R506
2698305.-.F11	4063422.-.KZN_R506
2698305.-.F11	1977751.-.KZN_R506
2698305.-.F11	3078063.+.KZN_R506
2698305.-.F11	3117264.-.KZN_R506
2698305.-.F11	2361246.-.KZN_R506
2698305.-.F11	3476018.+.KZN_R506
2698305.-.F11	2036989.-.KZN_R506
2698305.-.F11	3705416.-.KZN_R506
2698305.-.F11	932665.-.KZN_R506
2698305.-.F11	2548662.-.KZN_R506
3723272.-.F11	2628218.-.KZN_R506
3723272.-.F11	2802734.+.KZN_R506
3723272.-.F11	1977751.-.KZN_R506
3723272.-.F11	3078063.+.KZN_R506
3723272.-.F11	3117264.-.KZN_R506
3723272.-.F11	2036989.-.KZN_R506
3723272.-.F11	3476018.+.KZN_R506
3723272.-.F11	2361246.-.KZN_R506
3723272.-.F11	932665.-.KZN_R506
3723272.-.F11	4063422.-.KZN_R506
3723272.-.F11	2548662.-.KZN_R506
1997740.+.F11	2628218.-.KZN_R506
1997740.+.F11	2802734.+.KZN_R506
1997740.+.F11	3705416.-.KZN_R506
1997740.+.F11	4063422.-.KZN_R506
1997740.+.F11	1977751.-.KZN_R506
1997740.+.F11	3078063.+.KZN_R506
1997740.+.F11	3117264.-.KZN_R506
1997740.+.F11	2036989.-.KZN_R506
1997740.+.F11	3476018.+.KZN_R506
1997740.+.F11	2361246.-.KZN_R506
1997740.+.F11	932665.-.KZN_R506
1997740.+.F11	2548662.-.KZN_R506
4063422.-.KZN_R506	2018842.-.F11
4063422.-.KZN_R506	1984069.-.F11
4063422.-.KZN_R506	2698305.-.F11
4063422.-.KZN_R506	1997740.+.F11
4063422.-.KZN_R506	2271419.-.F11
4063422.-.KZN_R506	2349666.+.F11
4063422.-.KZN_R506	2649222.+.F11
4063422.-.KZN_R506	3492516.+.F11
4063422.-.KZN_R506	2645354.+.F11
4063422.-.KZN_R506	935639.-.F11
4063422.-.KZN_R506	3723272.-.F11
4063422.-.KZN_R506	1946969.-.F11
4063422.-.KZN_R506	3565240.-.F11
4063422.-.KZN_R506	2004562.+.F11
4063422.-.KZN_R506	1485676.+.F11
4063422.-.KZN_R506	1993334.-.F11
4063422.-.KZN_R506	3133456.-.F11
2645354.+.F11	2361246.-.KZN_R506
2645354.+.F11	2802734.+.KZN_R506
2645354.+.F11	3078063.+.KZN_R506
2645354.+.F11	1977751.-.KZN_R506
2645354.+.F11	3117264.-.KZN_R506
2645354.+.F11	4063422.-.KZN_R506
2645354.+.F11	3476018.+.KZN_R506
2645354.+.F11	2036989.-.KZN_R506
2645354.+.F11	3705416.-.KZN_R506
2645354.+.F11	932665.-.KZN_R506
2645354.+.F11	2548662.-.KZN_R506
2018842.-.F11	2628218.-.KZN_R506
2018842.-.F11	2802734.+.KZN_R506
2018842.-.F11	4063422.-.KZN_R506
2018842.-.F11	3705416.-.KZN_R506
2018842.-.F11	1977751.-.KZN_R506
2018842.-.F11	3078063.+.KZN_R506
2018842.-.F11	3117264.-.KZN_R506
2018842.-.F11	932665.-.KZN_R506
2018842.-.F11	3476018.+.KZN_R506
2018842.-.F11	2036989.-.KZN_R506
2018842.-.F11	2361246.-.KZN_R506
2018842.-.F11	2548662.-.KZN_R506
2271419.-.F11	2802734.+.KZN_R506
2271419.-.F11	3705416.-.KZN_R506
2271419.-.F11	4063422.-.KZN_R506
2271419.-.F11	2628218.-.KZN_R506
2271419.-.F11	1977751.-.KZN_R506
2271419.-.F11	3078063.+.KZN_R506
2271419.-.F11	3117264.-.KZN_R506
2271419.-.F11	2036989.-.KZN_R506
2271419.-.F11	3476018.+.KZN_R506
2271419.-.F11	2361246.-.KZN_R506
2271419.-.F11	932665.-.KZN_R506
2271419.-.F11	2548662.-.KZN_R506
3133456.-.F11	2628218.-.KZN_R506
3133456.-.F11	4063422.-.KZN_R506
3133456.-.F11	3705416.-.KZN_R506
3133456.-.F11	2036989.-.KZN_R506
3133456.-.F11	1977751.-.KZN_R506
3133456.-.F11	2802734.+.KZN_R506
3133456.-.F11	3078063.+.KZN_R506
3133456.-.F11	3476018.+.KZN_R506
3133456.-.F11	2361246.-.KZN_R506
3133456.-.F11	932665.-.KZN_R506
3133456.-.F11	2548662.-.KZN_R506
2004562.+.F11	2628218.-.KZN_R506
2004562.+.F11	2802734.+.KZN_R506
2004562.+.F11	932665.-.KZN_R506
2004562.+.F11	1977751.-.KZN_R506
2004562.+.F11	3117264.-.KZN_R506
2004562.+.F11	3078063.+.KZN_R506
2004562.+.F11	3476018.+.KZN_R506
2004562.+.F11	2036989.-.KZN_R506
2004562.+.F11	3705416.-.KZN_R506
2004562.+.F11	2361246.-.KZN_R506
2004562.+.F11	4063422.-.KZN_R506
2004562.+.F11	2548662.-.KZN_R506
3078063.+.KZN_R506	1997740.+.F11
3078063.+.KZN_R506	1984069.-.F11
3078063.+.KZN_R506	2698305.-.F11
3078063.+.KZN_R506	2645354.+.F11
3078063.+.KZN_R506	3492516.+.F11
3078063.+.KZN_R506	2271419.-.F11
3078063.+.KZN_R506	2349666.+.F11
3078063.+.KZN_R506	2018842.-.F11
3078063.+.KZN_R506	3133456.-.F11
3078063.+.KZN_R506	935639.-.F11
3078063.+.KZN_R506	2649222.+.F11
3078063.+.KZN_R506	3723272.-.F11
3078063.+.KZN_R506	1946969.-.F11
3078063.+.KZN_R506	3565240.-.F11
3078063.+.KZN_R506	2004562.+.F11
3078063.+.KZN_R506	1485676.+.F11
3078063.+.KZN_R506	1993334.-.F11
932665.-.KZN_R506	1997740.+.F11
932665.-.KZN_R506	2349666.+.F11
932665.-.KZN_R506	2698305.-.F11
932665.-.KZN_R506	3133456.-.F11
932665.-.KZN_R506	2271419.-.F11
932665.-.KZN_R506	1485676.+.F11
932665.-.KZN_R506	2018842.-.F11
932665.-.KZN_R506	2649222.+.F11
932665.-.KZN_R506	3492516.+.F11
932665.-.KZN_R506	2004562.+.F11
932665.-.KZN_R506	1984069.-.F11
932665.-.KZN_R506	3723272.-.F11
932665.-.KZN_R506	1946969.-.F11
932665.-.KZN_R506	3565240.-.F11
932665.-.KZN_R506	2645354.+.F11
932665.-.KZN_R506	1993334.-.F11
3705416.-.KZN_R506	1997740.+.F11
3705416.-.KZN_R506	2004562.+.F11
3705416.-.KZN_R506	2698305.-.F11
3705416.-.KZN_R506	2018842.-.F11
3705416.-.KZN_R506	2271419.-.F11
3705416.-.KZN_R506	1485676.+.F11
3705416.-.KZN_R506	2349666.+.F11
3705416.-.KZN_R506	3492516.+.F11
3705416.-.KZN_R506	1984069.-.F11
3705416.-.KZN_R506	935639.-.F11
3705416.-.KZN_R506	2649222.+.F11
3705416.-.KZN_R506	3133456.-.F11
3705416.-.KZN_R506	1946969.-.F11
3705416.-.KZN_R506	3565240.-.F11
3705416.-.KZN_R506	2645354.+.F11
3705416.-.KZN_R506	1993334.-.F11
935639.-.F11	2628218.-.KZN_R506
935639.-.F11	2802734.+.KZN_R506
935639.-.F11	3705416.-.KZN_R506
935639.-.F11	2036989.-.KZN_R506
935639.-.F11	1977751.-.KZN_R506
935639.-.F11	3078063.+.KZN_R506
935639.-.F11	3117264.-.KZN_R506
935639.-.F11	3476018.+.KZN_R506
935639.-.F11	2361246.-.KZN_R506
935639.-.F11	4063422.-.KZN_R506
935639.-.F11	2548662.-.KZN_R506
2349666.+.F11	2628218.-.KZN_R506
2349666.+.F11	2802734.+.KZN_R506
2349666.+.F11	2361246.-.KZN_R506
2349666.+.F11	1977751.-.KZN_R506
2349666.+.F11	3078063.+.KZN_R506
2349666.+.F11	3117264.-.KZN_R506
2349666.+.F11	2548662.-.KZN_R506
2349666.+.F11	3476018.+.KZN_R506
2349666.+.F11	2036989.-.KZN_R506
2349666.+.F11	3705416.-.KZN_R506
2349666.+.F11	932665.-.KZN_R506
2349666.+.F11	4063422.-.KZN_R506
2548662.-.KZN_R506	2645354.+.F11
2548662.-.KZN_R506	1997740.+.F11
2548662.-.KZN_R506	2349666.+.F11
2548662.-.KZN_R506	3565240.-.F11
2548662.-.KZN_R506	2271419.-.F11
2548662.-.KZN_R506	2018842.-.F11
2548662.-.KZN_R506	2649222.+.F11
2548662.-.KZN_R506	3492516.+.F11
2548662.-.KZN_R506	3133456.-.F11
2548662.-.KZN_R506	1984069.-.F11
2548662.-.KZN_R506	935639.-.F11
2548662.-.KZN_R506	2698305.-.F11
2548662.-.KZN_R506	3723272.-.F11
2548662.-.KZN_R506	1946969.-.F11
2548662.-.KZN_R506	2004562.+.F11
2548662.-.KZN_R506	1485676.+.F11
2548662.-.KZN_R506	1993334.-.F11
3476018.+.KZN_R506	1997740.+.F11
3476018.+.KZN_R506	1984069.-.F11
3476018.+.KZN_R506	2698305.-.F11
3476018.+.KZN_R506	2018842.-.F11
3476018.+.KZN_R506	2349666.+.F11
3476018.+.KZN_R506	2271419.-.F11
3476018.+.KZN_R506	2645354.+.F11
3476018.+.KZN_R506	3133456.-.F11
3476018.+.KZN_R506	935639.-.F11
3476018.+.KZN_R506	2649222.+.F11
3476018.+.KZN_R506	3723272.-.F11
3476018.+.KZN_R506	1946969.-.F11
3476018.+.KZN_R506	3565240.-.F11
3476018.+.KZN_R506	1485676.+.F11
3476018.+.KZN_R506	2004562.+.F11
3476018.+.KZN_R506	1993334.-.F11
910692.-.F11	3481736.+.KZN_R506
3481736.+.KZN_R506	910692.-.F11
907709.-.KZN_R506	3498234.+.F11
3498234.+.F11	907709.-.KZN_R506
2841874.-.F11	3376640.-.KZN_R506
2841874.-.F11	1171467.+.KZN_R506
2841874.-.F11	1342095.-.KZN_R506
2841874.-.F11	3479323.+.KZN_R506
2824397.-.KZN_R506	1174440.+.F11
2824397.-.KZN_R506	3393085.-.F11
2824397.-.KZN_R506	3495821.+.F11
2824397.-.KZN_R506	1345122.-.F11
3495821.+.F11	1342095.-.KZN_R506
3495821.+.F11	3376640.-.KZN_R506
3495821.+.F11	1171467.+.KZN_R506
3495821.+.F11	2824397.-.KZN_R506
3479323.+.KZN_R506	1174440.+.F11
3479323.+.KZN_R506	3393085.-.F11
3479323.+.KZN_R506	1345122.-.F11
3479323.+.KZN_R506	2841874.-.F11
3393085.-.F11	2824397.-.KZN_R506
3393085.-.F11	3479323.+.KZN_R506
3393085.-.F11	1342095.-.KZN_R506
3393085.-.F11	1171467.+.KZN_R506
1345122.-.F11	1171467.+.KZN_R506
1345122.-.F11	3376640.-.KZN_R506
1345122.-.F11	3479323.+.KZN_R506
1345122.-.F11	2824397.-.KZN_R506
1171467.+.KZN_R506	1345122.-.F11
1171467.+.KZN_R506	3495821.+.F11
1171467.+.KZN_R506	2841874.-.F11
1171467.+.KZN_R506	3393085.-.F11
3376640.-.KZN_R506	2841874.-.F11
3376640.-.KZN_R506	3495821.+.F11
3376640.-.KZN_R506	1174440.+.F11
3376640.-.KZN_R506	1345122.-.F11
1342095.-.KZN_R506	3495821.+.F11
1342095.-.KZN_R506	1174440.+.F11
1342095.-.KZN_R506	2841874.-.F11
1342095.-.KZN_R506	3393085.-.F11
1174440.+.F11	3479323.+.KZN_R506
1174440.+.F11	2824397.-.KZN_R506
1174440.+.F11	3376640.-.KZN_R506
1174440.+.F11	1342095.-.KZN_R506
836172.+.F11	843163.+.KZN_R506
843163.+.KZN_R506	836172.+.F11
833188.+.KZN_R506	846147.+.F11
846147.+.F11	833188.+.KZN_R506
4072987.-.F11	2619009.-.KZN_R506
4072987.-.F11	1161339.-.KZN_R506
4072987.-.F11	1342027.+.KZN_R506
1342027.+.KZN_R506	4072987.-.F11
1342027.+.KZN_R506	2636685.-.F11
1342027.+.KZN_R506	1164312.-.F11
4044567.-.KZN_R506	1164312.-.F11
4044567.-.KZN_R506	2636685.-.F11
4044567.-.KZN_R506	1345054.+.F11
2619009.-.KZN_R506	1345054.+.F11
2619009.-.KZN_R506	4072987.-.F11
2619009.-.KZN_R506	1164312.-.F11
1164312.-.F11	4044567.-.KZN_R506
1164312.-.F11	2619009.-.KZN_R506
1164312.-.F11	1342027.+.KZN_R506
1345054.+.F11	2619009.-.KZN_R506
1345054.+.F11	1161339.-.KZN_R506
1345054.+.F11	4044567.-.KZN_R506
1161339.-.KZN_R506	2636685.-.F11
1161339.-.KZN_R506	1345054.+.F11
1161339.-.KZN_R506	4072987.-.F11
2636685.-.F11	1161339.-.KZN_R506
2636685.-.F11	4044567.-.KZN_R506
2636685.-.F11	1342027.+.KZN_R506
1282064.+.F11	1165887.-.KZN_R506
1165887.-.KZN_R506	1282064.+.F11
1279036.+.KZN_R506	1168860.-.F11
1168860.-.F11	1279036.+.KZN_R506
3898628.+.F11	103840.-.KZN_R506
3898628.+.F11	1778871.-.KZN_R506
1783832.-.F11	103840.-.KZN_R506
1783832.-.F11	3870421.+.KZN_R506
103843.-.F11	3870421.+.KZN_R506
103843.-.F11	1778871.-.KZN_R506
3870421.+.KZN_R506	1783832.-.F11
3870421.+.KZN_R506	103843.-.F11
103840.-.KZN_R506	1783832.-.F11
103840.-.KZN_R506	3898628.+.F11
1778871.-.KZN_R506	3898628.+.F11
1778871.-.KZN_R506	103843.-.F11
4305205.+.KZN_R506	3766722.+.F11
4332267.+.F11	3745861.+.KZN_R506
3745861.+.KZN_R506	4332267.+.F11
3766722.+.F11	4305205.+.KZN_R506
3131455.-.KZN_R506	3144530.-.F11
3144530.-.F11	3131455.-.KZN_R506
3128559.-.KZN_R506	3147426.-.F11
3147426.-.F11	3128559.-.KZN_R506
1344289.+.F11	1533182.-.KZN_R506
1344289.+.F11	3879753.+.KZN_R506
1538142.-.F11	3879753.+.KZN_R506
1538142.-.F11	1341261.+.KZN_R506
1341261.+.KZN_R506	3907960.+.F11
1341261.+.KZN_R506	1538142.-.F11
1533182.-.KZN_R506	3907960.+.F11
1533182.-.KZN_R506	1344289.+.F11
3907960.+.F11	1533182.-.KZN_R506
3907960.+.F11	1341261.+.KZN_R506
3879753.+.KZN_R506	1538142.-.F11
3879753.+.KZN_R506	1344289.+.F11
608223.+.KZN_R506	404783.+.F11
404783.+.F11	608223.+.KZN_R506
3481432.+.KZN_R506	910996.-.F11
910996.-.F11	3481432.+.KZN_R506
908013.-.KZN_R506	3497930.+.F11
3497930.+.F11	908013.-.KZN_R506
1277035.-.KZN_R506	2205608.+.F11
2205608.+.F11	1277035.-.KZN_R506
1280064.-.F11	2187092.+.KZN_R506
2187092.+.KZN_R506	1280064.-.F11
2432451.-.KZN_R506	2735450.-.F11
2716752.-.KZN_R506	2451485.-.F11
2451485.-.F11	2716752.-.KZN_R506
2735450.-.F11	2432451.-.KZN_R506
4240266.+.KZN_R506	1471938.-.F11
1471938.-.F11	4240266.+.KZN_R506
4267328.+.F11	1468909.-.KZN_R506
1468909.-.KZN_R506	4267328.+.F11
1779598.-.KZN_R506	104567.-.F11
104567.-.F11	1779598.-.KZN_R506
1161650.-.KZN_R506	1344719.+.F11
1344719.+.F11	1161650.-.KZN_R506
1341692.+.KZN_R506	1164623.-.F11
1164623.-.F11	1341692.+.KZN_R506
890077.+.KZN_R506	3724237.+.F11
3724237.+.F11	890077.+.KZN_R506
477276.+.F11	476369.+.KZN_R506
474291.+.KZN_R506	479354.+.F11
479354.+.F11	474291.+.KZN_R506
476369.+.KZN_R506	477276.+.F11
1282584.+.F11	1165367.-.KZN_R506
1165367.-.KZN_R506	1282584.+.F11
1279556.+.KZN_R506	1168340.-.F11
1168340.-.F11	1279556.+.KZN_R506
333025.-.F11	842541.+.KZN_R506
845525.+.F11	332646.-.KZN_R506
842541.+.KZN_R506	333025.-.F11
332646.-.KZN_R506	845525.+.F11
