2251557.-.KZN_4207	2007350.-.H37Ra
2007350.-.H37Ra	2251557.-.KZN_4207
2271716.-.H37Ra	1985901.-.KZN_4207
1985901.-.KZN_4207	2271716.-.H37Ra
2796625.-.H37Ra	4062487.-.KZN_4207
2796625.-.H37Ra	2803669.+.KZN_4207
2796625.-.H37Ra	2360311.-.KZN_4207
2796625.-.H37Ra	3704481.-.KZN_4207
2796625.-.H37Ra	2036055.-.KZN_4207
2796625.-.H37Ra	931731.-.KZN_4207
2796625.-.H37Ra	2627283.-.KZN_4207
2796625.-.H37Ra	3116329.-.KZN_4207
2796625.-.H37Ra	2547727.-.KZN_4207
2796625.-.H37Ra	3476953.+.KZN_4207
2796625.-.H37Ra	3078998.+.KZN_4207
2796625.-.H37Ra	1976817.-.KZN_4207
3704481.-.KZN_4207	13665.-.H37Ra
3704481.-.KZN_4207	1543304.-.H37Ra
3704481.-.KZN_4207	2561230.+.H37Ra
3704481.-.KZN_4207	3132534.-.H37Ra
3704481.-.KZN_4207	2796625.-.H37Ra
3704481.-.KZN_4207	2648857.+.H37Ra
3704481.-.KZN_4207	2376628.+.H37Ra
3704481.-.KZN_4207	2440061.-.H37Ra
3704481.-.KZN_4207	3804223.-.H37Ra
3704481.-.KZN_4207	1989483.-.H37Ra
3704481.-.KZN_4207	3564823.+.H37Ra
3704481.-.KZN_4207	891639.+.H37Ra
3704481.-.KZN_4207	2985389.+.H37Ra
3704481.-.KZN_4207	1997429.-.H37Ra
3704481.-.KZN_4207	3900768.+.H37Ra
3704481.-.KZN_4207	2007098.+.H37Ra
4062487.-.KZN_4207	1997429.-.H37Ra
4062487.-.KZN_4207	13665.-.H37Ra
4062487.-.KZN_4207	3132534.-.H37Ra
4062487.-.KZN_4207	3804223.-.H37Ra
4062487.-.KZN_4207	1989483.-.H37Ra
4062487.-.KZN_4207	2007098.+.H37Ra
4062487.-.KZN_4207	2648857.+.H37Ra
4062487.-.KZN_4207	2376628.+.H37Ra
4062487.-.KZN_4207	2440061.-.H37Ra
4062487.-.KZN_4207	3722535.+.H37Ra
4062487.-.KZN_4207	1543304.-.H37Ra
4062487.-.KZN_4207	3564823.+.H37Ra
4062487.-.KZN_4207	2561230.+.H37Ra
4062487.-.KZN_4207	891639.+.H37Ra
4062487.-.KZN_4207	2985389.+.H37Ra
4062487.-.KZN_4207	2796625.-.H37Ra
4062487.-.KZN_4207	3900768.+.H37Ra
2627283.-.KZN_4207	1543304.-.H37Ra
2627283.-.KZN_4207	3132534.-.H37Ra
2627283.-.KZN_4207	2561230.+.H37Ra
2627283.-.KZN_4207	891639.+.H37Ra
2627283.-.KZN_4207	13665.-.H37Ra
2627283.-.KZN_4207	3722535.+.H37Ra
2627283.-.KZN_4207	2648857.+.H37Ra
2627283.-.KZN_4207	2796625.-.H37Ra
2627283.-.KZN_4207	2440061.-.H37Ra
2627283.-.KZN_4207	2376628.+.H37Ra
2627283.-.KZN_4207	3564823.+.H37Ra
2627283.-.KZN_4207	1989483.-.H37Ra
2627283.-.KZN_4207	3900768.+.H37Ra
2627283.-.KZN_4207	2985389.+.H37Ra
2627283.-.KZN_4207	1997429.-.H37Ra
2627283.-.KZN_4207	3804223.-.H37Ra
2627283.-.KZN_4207	2007098.+.H37Ra
2648857.+.H37Ra	4062487.-.KZN_4207
2648857.+.H37Ra	2803669.+.KZN_4207
2648857.+.H37Ra	2360311.-.KZN_4207
2648857.+.H37Ra	3704481.-.KZN_4207
2648857.+.H37Ra	1976817.-.KZN_4207
2648857.+.H37Ra	2036055.-.KZN_4207
2648857.+.H37Ra	3116329.-.KZN_4207
2648857.+.H37Ra	931731.-.KZN_4207
2648857.+.H37Ra	2627283.-.KZN_4207
2648857.+.H37Ra	2547727.-.KZN_4207
2648857.+.H37Ra	3476953.+.KZN_4207
2648857.+.H37Ra	3078998.+.KZN_4207
3078998.+.KZN_4207	1997429.-.H37Ra
3078998.+.KZN_4207	1543304.-.H37Ra
3078998.+.KZN_4207	2561230.+.H37Ra
3078998.+.KZN_4207	1989483.-.H37Ra
3078998.+.KZN_4207	3132534.-.H37Ra
3078998.+.KZN_4207	2648857.+.H37Ra
3078998.+.KZN_4207	2376628.+.H37Ra
3078998.+.KZN_4207	2440061.-.H37Ra
3078998.+.KZN_4207	3722535.+.H37Ra
3078998.+.KZN_4207	3564823.+.H37Ra
3078998.+.KZN_4207	3900768.+.H37Ra
3078998.+.KZN_4207	2796625.-.H37Ra
3078998.+.KZN_4207	891639.+.H37Ra
3078998.+.KZN_4207	2985389.+.H37Ra
3078998.+.KZN_4207	13665.-.H37Ra
3078998.+.KZN_4207	3804223.-.H37Ra
3078998.+.KZN_4207	2007098.+.H37Ra
3804223.-.H37Ra	4062487.-.KZN_4207
3804223.-.H37Ra	1976817.-.KZN_4207
3804223.-.H37Ra	2360311.-.KZN_4207
3804223.-.H37Ra	3704481.-.KZN_4207
3804223.-.H37Ra	2036055.-.KZN_4207
3804223.-.H37Ra	931731.-.KZN_4207
3804223.-.H37Ra	2627283.-.KZN_4207
3804223.-.H37Ra	3116329.-.KZN_4207
3804223.-.H37Ra	2547727.-.KZN_4207
3804223.-.H37Ra	3476953.+.KZN_4207
3804223.-.H37Ra	2803669.+.KZN_4207
3804223.-.H37Ra	3078998.+.KZN_4207
1989483.-.H37Ra	3704481.-.KZN_4207
1989483.-.H37Ra	2360311.-.KZN_4207
1989483.-.H37Ra	2803669.+.KZN_4207
1989483.-.H37Ra	2036055.-.KZN_4207
1989483.-.H37Ra	3116329.-.KZN_4207
1989483.-.H37Ra	931731.-.KZN_4207
1989483.-.H37Ra	2627283.-.KZN_4207
1989483.-.H37Ra	4062487.-.KZN_4207
1989483.-.H37Ra	2547727.-.KZN_4207
1989483.-.H37Ra	3476953.+.KZN_4207
1989483.-.H37Ra	3078998.+.KZN_4207
1997429.-.H37Ra	4062487.-.KZN_4207
1997429.-.H37Ra	2360311.-.KZN_4207
1997429.-.H37Ra	3704481.-.KZN_4207
1997429.-.H37Ra	931731.-.KZN_4207
1997429.-.H37Ra	3116329.-.KZN_4207
1997429.-.H37Ra	2627283.-.KZN_4207
1997429.-.H37Ra	2036055.-.KZN_4207
1997429.-.H37Ra	2547727.-.KZN_4207
1997429.-.H37Ra	3476953.+.KZN_4207
1997429.-.H37Ra	2803669.+.KZN_4207
1997429.-.H37Ra	3078998.+.KZN_4207
2036055.-.KZN_4207	13665.-.H37Ra
2036055.-.KZN_4207	3132534.-.H37Ra
2036055.-.KZN_4207	3804223.-.H37Ra
2036055.-.KZN_4207	1989483.-.H37Ra
2036055.-.KZN_4207	1997429.-.H37Ra
2036055.-.KZN_4207	2648857.+.H37Ra
2036055.-.KZN_4207	2376628.+.H37Ra
2036055.-.KZN_4207	3722535.+.H37Ra
2036055.-.KZN_4207	2007098.+.H37Ra
2036055.-.KZN_4207	2561230.+.H37Ra
2036055.-.KZN_4207	3564823.+.H37Ra
2036055.-.KZN_4207	891639.+.H37Ra
2036055.-.KZN_4207	2985389.+.H37Ra
2036055.-.KZN_4207	2796625.-.H37Ra
2036055.-.KZN_4207	2440061.-.H37Ra
2036055.-.KZN_4207	3900768.+.H37Ra
2036055.-.KZN_4207	1543304.-.H37Ra
3132534.-.H37Ra	4062487.-.KZN_4207
3132534.-.H37Ra	1976817.-.KZN_4207
3132534.-.H37Ra	2360311.-.KZN_4207
3132534.-.H37Ra	3704481.-.KZN_4207
3132534.-.H37Ra	3078998.+.KZN_4207
3132534.-.H37Ra	2036055.-.KZN_4207
3132534.-.H37Ra	931731.-.KZN_4207
3132534.-.H37Ra	2627283.-.KZN_4207
3132534.-.H37Ra	2547727.-.KZN_4207
3132534.-.H37Ra	3476953.+.KZN_4207
3132534.-.H37Ra	2803669.+.KZN_4207
13665.-.H37Ra	4062487.-.KZN_4207
13665.-.H37Ra	3704481.-.KZN_4207
13665.-.H37Ra	2360311.-.KZN_4207
13665.-.H37Ra	3476953.+.KZN_4207
13665.-.H37Ra	2036055.-.KZN_4207
13665.-.H37Ra	3116329.-.KZN_4207
13665.-.H37Ra	931731.-.KZN_4207
13665.-.H37Ra	2627283.-.KZN_4207
13665.-.H37Ra	2803669.+.KZN_4207
13665.-.H37Ra	2547727.-.KZN_4207
13665.-.H37Ra	3078998.+.KZN_4207
13665.-.H37Ra	1976817.-.KZN_4207
3900768.+.H37Ra	2803669.+.KZN_4207
3900768.+.H37Ra	3704481.-.KZN_4207
3900768.+.H37Ra	2360311.-.KZN_4207
3900768.+.H37Ra	2036055.-.KZN_4207
3900768.+.H37Ra	3116329.-.KZN_4207
3900768.+.H37Ra	931731.-.KZN_4207
3900768.+.H37Ra	2627283.-.KZN_4207
3900768.+.H37Ra	4062487.-.KZN_4207
3900768.+.H37Ra	2547727.-.KZN_4207
3900768.+.H37Ra	3476953.+.KZN_4207
3900768.+.H37Ra	3078998.+.KZN_4207
3900768.+.H37Ra	1976817.-.KZN_4207
2360311.-.KZN_4207	1997429.-.H37Ra
2360311.-.KZN_4207	1543304.-.H37Ra
2360311.-.KZN_4207	3132534.-.H37Ra
2360311.-.KZN_4207	3804223.-.H37Ra
2360311.-.KZN_4207	1989483.-.H37Ra
2360311.-.KZN_4207	2985389.+.H37Ra
2360311.-.KZN_4207	2648857.+.H37Ra
2360311.-.KZN_4207	3722535.+.H37Ra
2360311.-.KZN_4207	2007098.+.H37Ra
2360311.-.KZN_4207	2440061.-.H37Ra
2360311.-.KZN_4207	13665.-.H37Ra
2360311.-.KZN_4207	3564823.+.H37Ra
2360311.-.KZN_4207	2561230.+.H37Ra
2360311.-.KZN_4207	891639.+.H37Ra
2360311.-.KZN_4207	2796625.-.H37Ra
2360311.-.KZN_4207	3900768.+.H37Ra
3116329.-.KZN_4207	1543304.-.H37Ra
3116329.-.KZN_4207	2561230.+.H37Ra
3116329.-.KZN_4207	13665.-.H37Ra
3116329.-.KZN_4207	2796625.-.H37Ra
3116329.-.KZN_4207	2648857.+.H37Ra
3116329.-.KZN_4207	2376628.+.H37Ra
3116329.-.KZN_4207	2440061.-.H37Ra
3116329.-.KZN_4207	3722535.+.H37Ra
3116329.-.KZN_4207	3564823.+.H37Ra
3116329.-.KZN_4207	1989483.-.H37Ra
3116329.-.KZN_4207	3900768.+.H37Ra
3116329.-.KZN_4207	891639.+.H37Ra
3116329.-.KZN_4207	2985389.+.H37Ra
3116329.-.KZN_4207	1997429.-.H37Ra
3116329.-.KZN_4207	3804223.-.H37Ra
3116329.-.KZN_4207	2007098.+.H37Ra
3722535.+.H37Ra	4062487.-.KZN_4207
3722535.+.H37Ra	1976817.-.KZN_4207
3722535.+.H37Ra	2360311.-.KZN_4207
3722535.+.H37Ra	2627283.-.KZN_4207
3722535.+.H37Ra	2036055.-.KZN_4207
3722535.+.H37Ra	3116329.-.KZN_4207
3722535.+.H37Ra	931731.-.KZN_4207
3722535.+.H37Ra	3476953.+.KZN_4207
3722535.+.H37Ra	2547727.-.KZN_4207
3722535.+.H37Ra	2803669.+.KZN_4207
3722535.+.H37Ra	3078998.+.KZN_4207
2440061.-.H37Ra	4062487.-.KZN_4207
2440061.-.H37Ra	1976817.-.KZN_4207
2440061.-.H37Ra	2360311.-.KZN_4207
2440061.-.H37Ra	3476953.+.KZN_4207
2440061.-.H37Ra	2036055.-.KZN_4207
2440061.-.H37Ra	3116329.-.KZN_4207
2440061.-.H37Ra	931731.-.KZN_4207
2440061.-.H37Ra	2627283.-.KZN_4207
2440061.-.H37Ra	3704481.-.KZN_4207
2440061.-.H37Ra	2547727.-.KZN_4207
2440061.-.H37Ra	2803669.+.KZN_4207
2440061.-.H37Ra	3078998.+.KZN_4207
2803669.+.KZN_4207	1997429.-.H37Ra
2803669.+.KZN_4207	13665.-.H37Ra
2803669.+.KZN_4207	3804223.-.H37Ra
2803669.+.KZN_4207	3132534.-.H37Ra
2803669.+.KZN_4207	1989483.-.H37Ra
2803669.+.KZN_4207	2648857.+.H37Ra
2803669.+.KZN_4207	2376628.+.H37Ra
2803669.+.KZN_4207	3722535.+.H37Ra
2803669.+.KZN_4207	2007098.+.H37Ra
2803669.+.KZN_4207	1543304.-.H37Ra
2803669.+.KZN_4207	3564823.+.H37Ra
2803669.+.KZN_4207	2561230.+.H37Ra
2803669.+.KZN_4207	2440061.-.H37Ra
2803669.+.KZN_4207	891639.+.H37Ra
2803669.+.KZN_4207	2985389.+.H37Ra
2803669.+.KZN_4207	2796625.-.H37Ra
2803669.+.KZN_4207	3900768.+.H37Ra
891639.+.H37Ra	4062487.-.KZN_4207
891639.+.H37Ra	2803669.+.KZN_4207
891639.+.H37Ra	2360311.-.KZN_4207
891639.+.H37Ra	3704481.-.KZN_4207
891639.+.H37Ra	2627283.-.KZN_4207
891639.+.H37Ra	2036055.-.KZN_4207
891639.+.H37Ra	3116329.-.KZN_4207
891639.+.H37Ra	931731.-.KZN_4207
891639.+.H37Ra	1976817.-.KZN_4207
891639.+.H37Ra	2547727.-.KZN_4207
891639.+.H37Ra	3476953.+.KZN_4207
891639.+.H37Ra	3078998.+.KZN_4207
1976817.-.KZN_4207	13665.-.H37Ra
1976817.-.KZN_4207	1543304.-.H37Ra
1976817.-.KZN_4207	2561230.+.H37Ra
1976817.-.KZN_4207	891639.+.H37Ra
1976817.-.KZN_4207	2648857.+.H37Ra
1976817.-.KZN_4207	2376628.+.H37Ra
1976817.-.KZN_4207	2440061.-.H37Ra
1976817.-.KZN_4207	3722535.+.H37Ra
1976817.-.KZN_4207	3132534.-.H37Ra
1976817.-.KZN_4207	3900768.+.H37Ra
1976817.-.KZN_4207	3564823.+.H37Ra
1976817.-.KZN_4207	2796625.-.H37Ra
1976817.-.KZN_4207	2985389.+.H37Ra
1976817.-.KZN_4207	3804223.-.H37Ra
1976817.-.KZN_4207	2007098.+.H37Ra
931731.-.KZN_4207	1543304.-.H37Ra
931731.-.KZN_4207	3132534.-.H37Ra
931731.-.KZN_4207	2561230.+.H37Ra
931731.-.KZN_4207	1989483.-.H37Ra
931731.-.KZN_4207	1997429.-.H37Ra
931731.-.KZN_4207	2648857.+.H37Ra
931731.-.KZN_4207	2376628.+.H37Ra
931731.-.KZN_4207	3722535.+.H37Ra
931731.-.KZN_4207	2007098.+.H37Ra
931731.-.KZN_4207	3804223.-.H37Ra
931731.-.KZN_4207	13665.-.H37Ra
931731.-.KZN_4207	3564823.+.H37Ra
931731.-.KZN_4207	2440061.-.H37Ra
931731.-.KZN_4207	891639.+.H37Ra
931731.-.KZN_4207	2985389.+.H37Ra
931731.-.KZN_4207	2796625.-.H37Ra
931731.-.KZN_4207	3900768.+.H37Ra
2007098.+.H37Ra	2803669.+.KZN_4207
2007098.+.H37Ra	2360311.-.KZN_4207
2007098.+.H37Ra	3704481.-.KZN_4207
2007098.+.H37Ra	4062487.-.KZN_4207
2007098.+.H37Ra	2036055.-.KZN_4207
2007098.+.H37Ra	931731.-.KZN_4207
2007098.+.H37Ra	2627283.-.KZN_4207
2007098.+.H37Ra	3116329.-.KZN_4207
2007098.+.H37Ra	2547727.-.KZN_4207
2007098.+.H37Ra	3476953.+.KZN_4207
2007098.+.H37Ra	3078998.+.KZN_4207
2007098.+.H37Ra	1976817.-.KZN_4207
2547727.-.KZN_4207	1997429.-.H37Ra
2547727.-.KZN_4207	13665.-.H37Ra
2547727.-.KZN_4207	3132534.-.H37Ra
2547727.-.KZN_4207	2561230.+.H37Ra
2547727.-.KZN_4207	891639.+.H37Ra
2547727.-.KZN_4207	2007098.+.H37Ra
2547727.-.KZN_4207	2648857.+.H37Ra
2547727.-.KZN_4207	2376628.+.H37Ra
2547727.-.KZN_4207	3722535.+.H37Ra
2547727.-.KZN_4207	1989483.-.H37Ra
2547727.-.KZN_4207	3804223.-.H37Ra
2547727.-.KZN_4207	2440061.-.H37Ra
2547727.-.KZN_4207	3564823.+.H37Ra
2547727.-.KZN_4207	2985389.+.H37Ra
2547727.-.KZN_4207	2796625.-.H37Ra
2547727.-.KZN_4207	3900768.+.H37Ra
2547727.-.KZN_4207	1543304.-.H37Ra
1543304.-.H37Ra	1976817.-.KZN_4207
1543304.-.H37Ra	2360311.-.KZN_4207
1543304.-.H37Ra	3704481.-.KZN_4207
1543304.-.H37Ra	2803669.+.KZN_4207
1543304.-.H37Ra	2036055.-.KZN_4207
1543304.-.H37Ra	3116329.-.KZN_4207
1543304.-.H37Ra	931731.-.KZN_4207
1543304.-.H37Ra	2627283.-.KZN_4207
1543304.-.H37Ra	4062487.-.KZN_4207
1543304.-.H37Ra	2547727.-.KZN_4207
1543304.-.H37Ra	3476953.+.KZN_4207
1543304.-.H37Ra	3078998.+.KZN_4207
3564823.+.H37Ra	4062487.-.KZN_4207
3564823.+.H37Ra	3704481.-.KZN_4207
3564823.+.H37Ra	2360311.-.KZN_4207
3564823.+.H37Ra	2627283.-.KZN_4207
3564823.+.H37Ra	2036055.-.KZN_4207
3564823.+.H37Ra	931731.-.KZN_4207
3564823.+.H37Ra	3116329.-.KZN_4207
3564823.+.H37Ra	2547727.-.KZN_4207
3564823.+.H37Ra	3476953.+.KZN_4207
3564823.+.H37Ra	2803669.+.KZN_4207
3564823.+.H37Ra	3078998.+.KZN_4207
3564823.+.H37Ra	1976817.-.KZN_4207
2985389.+.H37Ra	4062487.-.KZN_4207
2985389.+.H37Ra	3704481.-.KZN_4207
2985389.+.H37Ra	2360311.-.KZN_4207
2985389.+.H37Ra	2036055.-.KZN_4207
2985389.+.H37Ra	3116329.-.KZN_4207
2985389.+.H37Ra	931731.-.KZN_4207
2985389.+.H37Ra	2627283.-.KZN_4207
2985389.+.H37Ra	2803669.+.KZN_4207
2985389.+.H37Ra	2547727.-.KZN_4207
2985389.+.H37Ra	3476953.+.KZN_4207
2985389.+.H37Ra	3078998.+.KZN_4207
2985389.+.H37Ra	1976817.-.KZN_4207
3476953.+.KZN_4207	1543304.-.H37Ra
3476953.+.KZN_4207	2561230.+.H37Ra
3476953.+.KZN_4207	3132534.-.H37Ra
3476953.+.KZN_4207	13665.-.H37Ra
3476953.+.KZN_4207	2648857.+.H37Ra
3476953.+.KZN_4207	2796625.-.H37Ra
3476953.+.KZN_4207	2376628.+.H37Ra
3476953.+.KZN_4207	2440061.-.H37Ra
3476953.+.KZN_4207	2007098.+.H37Ra
3476953.+.KZN_4207	3722535.+.H37Ra
3476953.+.KZN_4207	1989483.-.H37Ra
3476953.+.KZN_4207	3900768.+.H37Ra
3476953.+.KZN_4207	3564823.+.H37Ra
3476953.+.KZN_4207	891639.+.H37Ra
3476953.+.KZN_4207	2985389.+.H37Ra
3476953.+.KZN_4207	1997429.-.H37Ra
3476953.+.KZN_4207	3804223.-.H37Ra
2561230.+.H37Ra	4062487.-.KZN_4207
2561230.+.H37Ra	1976817.-.KZN_4207
2561230.+.H37Ra	2360311.-.KZN_4207
2561230.+.H37Ra	3704481.-.KZN_4207
2561230.+.H37Ra	2036055.-.KZN_4207
2561230.+.H37Ra	3116329.-.KZN_4207
2561230.+.H37Ra	931731.-.KZN_4207
2561230.+.H37Ra	2627283.-.KZN_4207
2561230.+.H37Ra	2547727.-.KZN_4207
2561230.+.H37Ra	3476953.+.KZN_4207
2561230.+.H37Ra	2803669.+.KZN_4207
2561230.+.H37Ra	3078998.+.KZN_4207
2376628.+.H37Ra	4062487.-.KZN_4207
2376628.+.H37Ra	3704481.-.KZN_4207
2376628.+.H37Ra	2627283.-.KZN_4207
2376628.+.H37Ra	2036055.-.KZN_4207
2376628.+.H37Ra	3116329.-.KZN_4207
2376628.+.H37Ra	931731.-.KZN_4207
2376628.+.H37Ra	1976817.-.KZN_4207
2376628.+.H37Ra	2547727.-.KZN_4207
2376628.+.H37Ra	3476953.+.KZN_4207
2376628.+.H37Ra	2803669.+.KZN_4207
2376628.+.H37Ra	3078998.+.KZN_4207
719007.-.KZN_4207	973852.-.H37Ra
973397.-.KZN_4207	720071.-.H37Ra
720071.-.H37Ra	973397.-.KZN_4207
973852.-.H37Ra	719007.-.KZN_4207
3899833.+.H37Ra	2361246.-.KZN_4207
3899833.+.H37Ra	1977752.-.KZN_4207
3899833.+.H37Ra	3117264.-.KZN_4207
3899833.+.H37Ra	2548662.-.KZN_4207
3899833.+.H37Ra	2802734.+.KZN_4207
3899833.+.H37Ra	3705416.-.KZN_4207
3899833.+.H37Ra	2628218.-.KZN_4207
3899833.+.H37Ra	3476018.+.KZN_4207
3899833.+.H37Ra	3078063.+.KZN_4207
3899833.+.H37Ra	2036990.-.KZN_4207
3899833.+.H37Ra	932666.-.KZN_4207
3899833.+.H37Ra	4063422.-.KZN_4207
4063422.-.KZN_4207	2797560.-.H37Ra
4063422.-.KZN_4207	3899833.+.H37Ra
4063422.-.KZN_4207	2647922.+.H37Ra
4063422.-.KZN_4207	2375693.+.H37Ra
4063422.-.KZN_4207	14600.-.H37Ra
4063422.-.KZN_4207	3721600.+.H37Ra
4063422.-.KZN_4207	2560295.+.H37Ra
4063422.-.KZN_4207	3133469.-.H37Ra
4063422.-.KZN_4207	2006163.+.H37Ra
4063422.-.KZN_4207	3563888.+.H37Ra
4063422.-.KZN_4207	1544239.-.H37Ra
4063422.-.KZN_4207	2440996.-.H37Ra
4063422.-.KZN_4207	1998364.-.H37Ra
4063422.-.KZN_4207	2984454.+.H37Ra
4063422.-.KZN_4207	890704.+.H37Ra
4063422.-.KZN_4207	1990418.-.H37Ra
4063422.-.KZN_4207	3805158.-.H37Ra
890704.+.H37Ra	2361246.-.KZN_4207
890704.+.H37Ra	1977752.-.KZN_4207
890704.+.H37Ra	3117264.-.KZN_4207
890704.+.H37Ra	3476018.+.KZN_4207
890704.+.H37Ra	2802734.+.KZN_4207
890704.+.H37Ra	932666.-.KZN_4207
890704.+.H37Ra	2036990.-.KZN_4207
890704.+.H37Ra	2548662.-.KZN_4207
890704.+.H37Ra	2628218.-.KZN_4207
890704.+.H37Ra	3078063.+.KZN_4207
890704.+.H37Ra	4063422.-.KZN_4207
890704.+.H37Ra	3705416.-.KZN_4207
2375693.+.H37Ra	1977752.-.KZN_4207
2375693.+.H37Ra	3117264.-.KZN_4207
2375693.+.H37Ra	4063422.-.KZN_4207
2375693.+.H37Ra	3476018.+.KZN_4207
2375693.+.H37Ra	3705416.-.KZN_4207
2375693.+.H37Ra	2548662.-.KZN_4207
2375693.+.H37Ra	2628218.-.KZN_4207
2375693.+.H37Ra	3078063.+.KZN_4207
2375693.+.H37Ra	2802734.+.KZN_4207
2375693.+.H37Ra	2036990.-.KZN_4207
2375693.+.H37Ra	932666.-.KZN_4207
2036990.-.KZN_4207	3899833.+.H37Ra
2036990.-.KZN_4207	2560295.+.H37Ra
2036990.-.KZN_4207	14600.-.H37Ra
2036990.-.KZN_4207	3805158.-.H37Ra
2036990.-.KZN_4207	2375693.+.H37Ra
2036990.-.KZN_4207	3133469.-.H37Ra
2036990.-.KZN_4207	2006163.+.H37Ra
2036990.-.KZN_4207	3563888.+.H37Ra
2036990.-.KZN_4207	1544239.-.H37Ra
2036990.-.KZN_4207	2797560.-.H37Ra
2036990.-.KZN_4207	3721600.+.H37Ra
2036990.-.KZN_4207	1998364.-.H37Ra
2036990.-.KZN_4207	2440996.-.H37Ra
2036990.-.KZN_4207	2984454.+.H37Ra
2036990.-.KZN_4207	890704.+.H37Ra
2036990.-.KZN_4207	1990418.-.H37Ra
2036990.-.KZN_4207	2647922.+.H37Ra
3563888.+.H37Ra	1977752.-.KZN_4207
3563888.+.H37Ra	3117264.-.KZN_4207
3563888.+.H37Ra	2802734.+.KZN_4207
3563888.+.H37Ra	932666.-.KZN_4207
3563888.+.H37Ra	3705416.-.KZN_4207
3563888.+.H37Ra	2548662.-.KZN_4207
3563888.+.H37Ra	2628218.-.KZN_4207
3563888.+.H37Ra	2361246.-.KZN_4207
3563888.+.H37Ra	3078063.+.KZN_4207
3563888.+.H37Ra	2036990.-.KZN_4207
3563888.+.H37Ra	3476018.+.KZN_4207
3563888.+.H37Ra	4063422.-.KZN_4207
2797560.-.H37Ra	2361246.-.KZN_4207
2797560.-.H37Ra	1977752.-.KZN_4207
2797560.-.H37Ra	3705416.-.KZN_4207
2797560.-.H37Ra	2802734.+.KZN_4207
2797560.-.H37Ra	932666.-.KZN_4207
2797560.-.H37Ra	2036990.-.KZN_4207
2797560.-.H37Ra	2548662.-.KZN_4207
2797560.-.H37Ra	2628218.-.KZN_4207
2797560.-.H37Ra	3117264.-.KZN_4207
2797560.-.H37Ra	3078063.+.KZN_4207
2797560.-.H37Ra	3476018.+.KZN_4207
2797560.-.H37Ra	4063422.-.KZN_4207
2361246.-.KZN_4207	2797560.-.H37Ra
2361246.-.KZN_4207	3899833.+.H37Ra
2361246.-.KZN_4207	2647922.+.H37Ra
2361246.-.KZN_4207	14600.-.H37Ra
2361246.-.KZN_4207	3563888.+.H37Ra
2361246.-.KZN_4207	3133469.-.H37Ra
2361246.-.KZN_4207	2006163.+.H37Ra
2361246.-.KZN_4207	1544239.-.H37Ra
2361246.-.KZN_4207	2560295.+.H37Ra
2361246.-.KZN_4207	3721600.+.H37Ra
2361246.-.KZN_4207	1998364.-.H37Ra
2361246.-.KZN_4207	2440996.-.H37Ra
2361246.-.KZN_4207	2984454.+.H37Ra
2361246.-.KZN_4207	890704.+.H37Ra
2361246.-.KZN_4207	1990418.-.H37Ra
2361246.-.KZN_4207	3805158.-.H37Ra
2440996.-.H37Ra	2361246.-.KZN_4207
2440996.-.H37Ra	1977752.-.KZN_4207
2440996.-.H37Ra	3117264.-.KZN_4207
2440996.-.H37Ra	4063422.-.KZN_4207
2440996.-.H37Ra	3078063.+.KZN_4207
2440996.-.H37Ra	932666.-.KZN_4207
2440996.-.H37Ra	3705416.-.KZN_4207
2440996.-.H37Ra	2628218.-.KZN_4207
2440996.-.H37Ra	2548662.-.KZN_4207
2440996.-.H37Ra	2802734.+.KZN_4207
2440996.-.H37Ra	3476018.+.KZN_4207
2440996.-.H37Ra	2036990.-.KZN_4207
1544239.-.H37Ra	1977752.-.KZN_4207
1544239.-.H37Ra	4063422.-.KZN_4207
1544239.-.H37Ra	3078063.+.KZN_4207
1544239.-.H37Ra	2361246.-.KZN_4207
1544239.-.H37Ra	932666.-.KZN_4207
1544239.-.H37Ra	3705416.-.KZN_4207
1544239.-.H37Ra	2548662.-.KZN_4207
1544239.-.H37Ra	2628218.-.KZN_4207
1544239.-.H37Ra	3117264.-.KZN_4207
1544239.-.H37Ra	2802734.+.KZN_4207
1544239.-.H37Ra	3476018.+.KZN_4207
1544239.-.H37Ra	2036990.-.KZN_4207
1998364.-.H37Ra	2361246.-.KZN_4207
1998364.-.H37Ra	3117264.-.KZN_4207
1998364.-.H37Ra	2802734.+.KZN_4207
1998364.-.H37Ra	932666.-.KZN_4207
1998364.-.H37Ra	3705416.-.KZN_4207
1998364.-.H37Ra	2628218.-.KZN_4207
1998364.-.H37Ra	2548662.-.KZN_4207
1998364.-.H37Ra	3078063.+.KZN_4207
1998364.-.H37Ra	4063422.-.KZN_4207
1998364.-.H37Ra	3476018.+.KZN_4207
1998364.-.H37Ra	2036990.-.KZN_4207
3133469.-.H37Ra	2361246.-.KZN_4207
3133469.-.H37Ra	1977752.-.KZN_4207
3133469.-.H37Ra	4063422.-.KZN_4207
3133469.-.H37Ra	2802734.+.KZN_4207
3133469.-.H37Ra	2036990.-.KZN_4207
3133469.-.H37Ra	2628218.-.KZN_4207
3133469.-.H37Ra	2548662.-.KZN_4207
3133469.-.H37Ra	3078063.+.KZN_4207
3133469.-.H37Ra	3476018.+.KZN_4207
3133469.-.H37Ra	932666.-.KZN_4207
3133469.-.H37Ra	3705416.-.KZN_4207
3721600.+.H37Ra	2361246.-.KZN_4207
3721600.+.H37Ra	1977752.-.KZN_4207
3721600.+.H37Ra	3117264.-.KZN_4207
3721600.+.H37Ra	4063422.-.KZN_4207
3721600.+.H37Ra	3078063.+.KZN_4207
3721600.+.H37Ra	932666.-.KZN_4207
3721600.+.H37Ra	2628218.-.KZN_4207
3721600.+.H37Ra	2548662.-.KZN_4207
3721600.+.H37Ra	2802734.+.KZN_4207
3721600.+.H37Ra	3476018.+.KZN_4207
3721600.+.H37Ra	2036990.-.KZN_4207
3117264.-.KZN_4207	14600.-.H37Ra
3117264.-.KZN_4207	3899833.+.H37Ra
3117264.-.KZN_4207	2560295.+.H37Ra
3117264.-.KZN_4207	2440996.-.H37Ra
3117264.-.KZN_4207	3805158.-.H37Ra
3117264.-.KZN_4207	2797560.-.H37Ra
3117264.-.KZN_4207	2375693.+.H37Ra
3117264.-.KZN_4207	2006163.+.H37Ra
3117264.-.KZN_4207	3563888.+.H37Ra
3117264.-.KZN_4207	1544239.-.H37Ra
3117264.-.KZN_4207	3721600.+.H37Ra
3117264.-.KZN_4207	1998364.-.H37Ra
3117264.-.KZN_4207	2984454.+.H37Ra
3117264.-.KZN_4207	890704.+.H37Ra
3117264.-.KZN_4207	1990418.-.H37Ra
3117264.-.KZN_4207	2647922.+.H37Ra
2984454.+.H37Ra	2361246.-.KZN_4207
2984454.+.H37Ra	1977752.-.KZN_4207
2984454.+.H37Ra	3117264.-.KZN_4207
2984454.+.H37Ra	4063422.-.KZN_4207
2984454.+.H37Ra	2548662.-.KZN_4207
2984454.+.H37Ra	2802734.+.KZN_4207
2984454.+.H37Ra	2036990.-.KZN_4207
2984454.+.H37Ra	2628218.-.KZN_4207
2984454.+.H37Ra	3705416.-.KZN_4207
2984454.+.H37Ra	3078063.+.KZN_4207
2984454.+.H37Ra	3476018.+.KZN_4207
2984454.+.H37Ra	932666.-.KZN_4207
2647922.+.H37Ra	2361246.-.KZN_4207
2647922.+.H37Ra	1977752.-.KZN_4207
2647922.+.H37Ra	3117264.-.KZN_4207
2647922.+.H37Ra	4063422.-.KZN_4207
2647922.+.H37Ra	932666.-.KZN_4207
2647922.+.H37Ra	3705416.-.KZN_4207
2647922.+.H37Ra	2548662.-.KZN_4207
2647922.+.H37Ra	2628218.-.KZN_4207
2647922.+.H37Ra	3078063.+.KZN_4207
2647922.+.H37Ra	2802734.+.KZN_4207
2647922.+.H37Ra	3476018.+.KZN_4207
2647922.+.H37Ra	2036990.-.KZN_4207
1977752.-.KZN_4207	2797560.-.H37Ra
1977752.-.KZN_4207	2560295.+.H37Ra
1977752.-.KZN_4207	3899833.+.H37Ra
1977752.-.KZN_4207	14600.-.H37Ra
1977752.-.KZN_4207	2375693.+.H37Ra
1977752.-.KZN_4207	3133469.-.H37Ra
1977752.-.KZN_4207	3805158.-.H37Ra
1977752.-.KZN_4207	3563888.+.H37Ra
1977752.-.KZN_4207	1544239.-.H37Ra
1977752.-.KZN_4207	890704.+.H37Ra
1977752.-.KZN_4207	3721600.+.H37Ra
1977752.-.KZN_4207	2440996.-.H37Ra
1977752.-.KZN_4207	2984454.+.H37Ra
1977752.-.KZN_4207	2006163.+.H37Ra
1977752.-.KZN_4207	2647922.+.H37Ra
14600.-.H37Ra	2361246.-.KZN_4207
14600.-.H37Ra	3117264.-.KZN_4207
14600.-.H37Ra	4063422.-.KZN_4207
14600.-.H37Ra	3078063.+.KZN_4207
14600.-.H37Ra	1977752.-.KZN_4207
14600.-.H37Ra	3705416.-.KZN_4207
14600.-.H37Ra	2548662.-.KZN_4207
14600.-.H37Ra	2628218.-.KZN_4207
14600.-.H37Ra	932666.-.KZN_4207
14600.-.H37Ra	2802734.+.KZN_4207
14600.-.H37Ra	3476018.+.KZN_4207
14600.-.H37Ra	2036990.-.KZN_4207
2802734.+.KZN_4207	2797560.-.H37Ra
2802734.+.KZN_4207	3805158.-.H37Ra
2802734.+.KZN_4207	2560295.+.H37Ra
2802734.+.KZN_4207	3899833.+.H37Ra
2802734.+.KZN_4207	14600.-.H37Ra
2802734.+.KZN_4207	3563888.+.H37Ra
2802734.+.KZN_4207	2375693.+.H37Ra
2802734.+.KZN_4207	3133469.-.H37Ra
2802734.+.KZN_4207	2006163.+.H37Ra
2802734.+.KZN_4207	1544239.-.H37Ra
2802734.+.KZN_4207	1998364.-.H37Ra
2802734.+.KZN_4207	3721600.+.H37Ra
2802734.+.KZN_4207	2440996.-.H37Ra
2802734.+.KZN_4207	2984454.+.H37Ra
2802734.+.KZN_4207	890704.+.H37Ra
2802734.+.KZN_4207	1990418.-.H37Ra
2802734.+.KZN_4207	2647922.+.H37Ra
2548662.-.KZN_4207	2797560.-.H37Ra
2548662.-.KZN_4207	2560295.+.H37Ra
2548662.-.KZN_4207	3899833.+.H37Ra
2548662.-.KZN_4207	14600.-.H37Ra
2548662.-.KZN_4207	1998364.-.H37Ra
2548662.-.KZN_4207	2375693.+.H37Ra
2548662.-.KZN_4207	3133469.-.H37Ra
2548662.-.KZN_4207	3805158.-.H37Ra
2548662.-.KZN_4207	1544239.-.H37Ra
2548662.-.KZN_4207	3563888.+.H37Ra
2548662.-.KZN_4207	3721600.+.H37Ra
2548662.-.KZN_4207	2440996.-.H37Ra
2548662.-.KZN_4207	2984454.+.H37Ra
2548662.-.KZN_4207	890704.+.H37Ra
2548662.-.KZN_4207	2006163.+.H37Ra
2548662.-.KZN_4207	1990418.-.H37Ra
2548662.-.KZN_4207	2647922.+.H37Ra
1990418.-.H37Ra	2361246.-.KZN_4207
1990418.-.H37Ra	3117264.-.KZN_4207
1990418.-.H37Ra	2628218.-.KZN_4207
1990418.-.H37Ra	2802734.+.KZN_4207
1990418.-.H37Ra	932666.-.KZN_4207
1990418.-.H37Ra	3705416.-.KZN_4207
1990418.-.H37Ra	2548662.-.KZN_4207
1990418.-.H37Ra	2036990.-.KZN_4207
1990418.-.H37Ra	3078063.+.KZN_4207
1990418.-.H37Ra	3476018.+.KZN_4207
1990418.-.H37Ra	4063422.-.KZN_4207
2006163.+.H37Ra	1977752.-.KZN_4207
2006163.+.H37Ra	3117264.-.KZN_4207
2006163.+.H37Ra	3078063.+.KZN_4207
2006163.+.H37Ra	2361246.-.KZN_4207
2006163.+.H37Ra	932666.-.KZN_4207
2006163.+.H37Ra	3705416.-.KZN_4207
2006163.+.H37Ra	2548662.-.KZN_4207
2006163.+.H37Ra	2036990.-.KZN_4207
2006163.+.H37Ra	2628218.-.KZN_4207
2006163.+.H37Ra	2802734.+.KZN_4207
2006163.+.H37Ra	3476018.+.KZN_4207
2006163.+.H37Ra	4063422.-.KZN_4207
3705416.-.KZN_4207	3899833.+.H37Ra
3705416.-.KZN_4207	2560295.+.H37Ra
3705416.-.KZN_4207	2440996.-.H37Ra
3705416.-.KZN_4207	14600.-.H37Ra
3705416.-.KZN_4207	2797560.-.H37Ra
3705416.-.KZN_4207	2375693.+.H37Ra
3705416.-.KZN_4207	3133469.-.H37Ra
3705416.-.KZN_4207	2006163.+.H37Ra
3705416.-.KZN_4207	3563888.+.H37Ra
3705416.-.KZN_4207	1544239.-.H37Ra
3705416.-.KZN_4207	3805158.-.H37Ra
3705416.-.KZN_4207	1998364.-.H37Ra
3705416.-.KZN_4207	2984454.+.H37Ra
3705416.-.KZN_4207	890704.+.H37Ra
3705416.-.KZN_4207	1990418.-.H37Ra
3705416.-.KZN_4207	2647922.+.H37Ra
3078063.+.KZN_4207	2560295.+.H37Ra
3078063.+.KZN_4207	3899833.+.H37Ra
3078063.+.KZN_4207	2647922.+.H37Ra
3078063.+.KZN_4207	2375693.+.H37Ra
3078063.+.KZN_4207	14600.-.H37Ra
3078063.+.KZN_4207	3721600.+.H37Ra
3078063.+.KZN_4207	3133469.-.H37Ra
3078063.+.KZN_4207	3805158.-.H37Ra
3078063.+.KZN_4207	3563888.+.H37Ra
3078063.+.KZN_4207	1544239.-.H37Ra
3078063.+.KZN_4207	2797560.-.H37Ra
3078063.+.KZN_4207	2440996.-.H37Ra
3078063.+.KZN_4207	1998364.-.H37Ra
3078063.+.KZN_4207	2984454.+.H37Ra
3078063.+.KZN_4207	890704.+.H37Ra
3078063.+.KZN_4207	2006163.+.H37Ra
3078063.+.KZN_4207	1990418.-.H37Ra
2560295.+.H37Ra	1977752.-.KZN_4207
2560295.+.H37Ra	3117264.-.KZN_4207
2560295.+.H37Ra	932666.-.KZN_4207
2560295.+.H37Ra	2802734.+.KZN_4207
2560295.+.H37Ra	3705416.-.KZN_4207
2560295.+.H37Ra	2548662.-.KZN_4207
2560295.+.H37Ra	2628218.-.KZN_4207
2560295.+.H37Ra	2361246.-.KZN_4207
2560295.+.H37Ra	3078063.+.KZN_4207
2560295.+.H37Ra	4063422.-.KZN_4207
2560295.+.H37Ra	3476018.+.KZN_4207
2560295.+.H37Ra	2036990.-.KZN_4207
2628218.-.KZN_4207	2797560.-.H37Ra
2628218.-.KZN_4207	3899833.+.H37Ra
2628218.-.KZN_4207	2647922.+.H37Ra
2628218.-.KZN_4207	14600.-.H37Ra
2628218.-.KZN_4207	3805158.-.H37Ra
2628218.-.KZN_4207	890704.+.H37Ra
2628218.-.KZN_4207	2375693.+.H37Ra
2628218.-.KZN_4207	3133469.-.H37Ra
2628218.-.KZN_4207	2006163.+.H37Ra
2628218.-.KZN_4207	3563888.+.H37Ra
2628218.-.KZN_4207	1544239.-.H37Ra
2628218.-.KZN_4207	1990418.-.H37Ra
2628218.-.KZN_4207	3721600.+.H37Ra
2628218.-.KZN_4207	1998364.-.H37Ra
2628218.-.KZN_4207	2440996.-.H37Ra
2628218.-.KZN_4207	2984454.+.H37Ra
2628218.-.KZN_4207	2560295.+.H37Ra
932666.-.KZN_4207	2797560.-.H37Ra
932666.-.KZN_4207	2647922.+.H37Ra
932666.-.KZN_4207	3899833.+.H37Ra
932666.-.KZN_4207	14600.-.H37Ra
932666.-.KZN_4207	2560295.+.H37Ra
932666.-.KZN_4207	2375693.+.H37Ra
932666.-.KZN_4207	3133469.-.H37Ra
932666.-.KZN_4207	2006163.+.H37Ra
932666.-.KZN_4207	3563888.+.H37Ra
932666.-.KZN_4207	1544239.-.H37Ra
932666.-.KZN_4207	3805158.-.H37Ra
932666.-.KZN_4207	3721600.+.H37Ra
932666.-.KZN_4207	1998364.-.H37Ra
932666.-.KZN_4207	2440996.-.H37Ra
932666.-.KZN_4207	2984454.+.H37Ra
932666.-.KZN_4207	890704.+.H37Ra
932666.-.KZN_4207	1990418.-.H37Ra
3805158.-.H37Ra	2361246.-.KZN_4207
3805158.-.H37Ra	1977752.-.KZN_4207
3805158.-.H37Ra	3117264.-.KZN_4207
3805158.-.H37Ra	2036990.-.KZN_4207
3805158.-.H37Ra	2802734.+.KZN_4207
3805158.-.H37Ra	2548662.-.KZN_4207
3805158.-.H37Ra	2628218.-.KZN_4207
3805158.-.H37Ra	3705416.-.KZN_4207
3805158.-.H37Ra	3078063.+.KZN_4207
3805158.-.H37Ra	4063422.-.KZN_4207
3805158.-.H37Ra	3476018.+.KZN_4207
3805158.-.H37Ra	932666.-.KZN_4207
3476018.+.KZN_4207	2797560.-.H37Ra
3476018.+.KZN_4207	2647922.+.H37Ra
3476018.+.KZN_4207	2375693.+.H37Ra
3476018.+.KZN_4207	14600.-.H37Ra
3476018.+.KZN_4207	890704.+.H37Ra
3476018.+.KZN_4207	3133469.-.H37Ra
3476018.+.KZN_4207	3805158.-.H37Ra
3476018.+.KZN_4207	3563888.+.H37Ra
3476018.+.KZN_4207	1544239.-.H37Ra
3476018.+.KZN_4207	3899833.+.H37Ra
3476018.+.KZN_4207	3721600.+.H37Ra
3476018.+.KZN_4207	1998364.-.H37Ra
3476018.+.KZN_4207	2440996.-.H37Ra
3476018.+.KZN_4207	2984454.+.H37Ra
3476018.+.KZN_4207	2560295.+.H37Ra
3476018.+.KZN_4207	2006163.+.H37Ra
3476018.+.KZN_4207	1990418.-.H37Ra
2642827.-.H37Ra	2629486.-.KZN_4207
2626044.-.KZN_4207	2644891.-.H37Ra
2644891.-.H37Ra	2626044.-.KZN_4207
2629486.-.KZN_4207	2642827.-.H37Ra
3481736.+.KZN_4207	909487.-.H37Ra
909487.-.H37Ra	3481736.+.KZN_4207
3497267.+.H37Ra	907710.-.KZN_4207
907710.-.KZN_4207	3497267.+.H37Ra
1342668.-.H37Ra	3376640.-.KZN_4207
1342668.-.H37Ra	2824397.-.KZN_4207
1342668.-.H37Ra	1171468.+.KZN_4207
1342668.-.H37Ra	3479323.+.KZN_4207
2840524.-.H37Ra	3479323.+.KZN_4207
2840524.-.H37Ra	1171468.+.KZN_4207
2840524.-.H37Ra	1342096.-.KZN_4207
2840524.-.H37Ra	3376640.-.KZN_4207
1342096.-.KZN_4207	1171979.+.H37Ra
1342096.-.KZN_4207	2840524.-.H37Ra
1342096.-.KZN_4207	3494854.+.H37Ra
1342096.-.KZN_4207	3393545.-.H37Ra
3376640.-.KZN_4207	1342668.-.H37Ra
3376640.-.KZN_4207	1171979.+.H37Ra
3376640.-.KZN_4207	3494854.+.H37Ra
3376640.-.KZN_4207	2840524.-.H37Ra
3393545.-.H37Ra	1171468.+.KZN_4207
3393545.-.H37Ra	2824397.-.KZN_4207
3393545.-.H37Ra	1342096.-.KZN_4207
3393545.-.H37Ra	3479323.+.KZN_4207
3479323.+.KZN_4207	2840524.-.H37Ra
3479323.+.KZN_4207	1342668.-.H37Ra
3479323.+.KZN_4207	1171979.+.H37Ra
3479323.+.KZN_4207	3393545.-.H37Ra
3494854.+.H37Ra	2824397.-.KZN_4207
3494854.+.H37Ra	1342096.-.KZN_4207
3494854.+.H37Ra	1171468.+.KZN_4207
3494854.+.H37Ra	3376640.-.KZN_4207
2824397.-.KZN_4207	3494854.+.H37Ra
2824397.-.KZN_4207	1171979.+.H37Ra
2824397.-.KZN_4207	1342668.-.H37Ra
2824397.-.KZN_4207	3393545.-.H37Ra
1171468.+.KZN_4207	3393545.-.H37Ra
1171468.+.KZN_4207	1342668.-.H37Ra
1171468.+.KZN_4207	3494854.+.H37Ra
1171468.+.KZN_4207	2840524.-.H37Ra
1171979.+.H37Ra	1342096.-.KZN_4207
1171979.+.H37Ra	2824397.-.KZN_4207
1171979.+.H37Ra	3376640.-.KZN_4207
1171979.+.H37Ra	3479323.+.KZN_4207
833189.+.KZN_4207	843584.+.H37Ra
843584.+.H37Ra	833189.+.KZN_4207
833609.+.H37Ra	843164.+.KZN_4207
843164.+.KZN_4207	833609.+.H37Ra
3763369.+.H37Ra	4305205.+.KZN_4207
4327712.+.H37Ra	3745861.+.KZN_4207
3745861.+.KZN_4207	4327712.+.H37Ra
4305205.+.KZN_4207	3763369.+.H37Ra
1166400.-.H37Ra	1279037.+.KZN_4207
1279610.+.H37Ra	1165888.-.KZN_4207
1279037.+.KZN_4207	1166400.-.H37Ra
1165888.-.KZN_4207	1279610.+.H37Ra
105068.-.H37Ra	3870421.+.KZN_4207
105068.-.H37Ra	1778872.-.KZN_4207
3870421.+.KZN_4207	105068.-.H37Ra
1778872.-.KZN_4207	3893594.+.H37Ra
1778872.-.KZN_4207	105068.-.H37Ra
3893594.+.H37Ra	103840.-.KZN_4207
3893594.+.H37Ra	1778872.-.KZN_4207
103840.-.KZN_4207	3893594.+.H37Ra
1161852.-.H37Ra	1342028.+.KZN_4207
1161852.-.H37Ra	2619009.-.KZN_4207
1161852.-.H37Ra	4044567.-.KZN_4207
4044567.-.KZN_4207	1342600.+.H37Ra
4044567.-.KZN_4207	1161852.-.H37Ra
4044567.-.KZN_4207	2635792.-.H37Ra
4068431.-.H37Ra	1161340.-.KZN_4207
4068431.-.H37Ra	1342028.+.KZN_4207
4068431.-.H37Ra	2619009.-.KZN_4207
1342600.+.H37Ra	2619009.-.KZN_4207
1342600.+.H37Ra	4044567.-.KZN_4207
1342600.+.H37Ra	1161340.-.KZN_4207
2619009.-.KZN_4207	1342600.+.H37Ra
2619009.-.KZN_4207	4068431.-.H37Ra
2619009.-.KZN_4207	1161852.-.H37Ra
1342028.+.KZN_4207	4068431.-.H37Ra
1342028.+.KZN_4207	2635792.-.H37Ra
1342028.+.KZN_4207	1161852.-.H37Ra
2635792.-.H37Ra	1342028.+.KZN_4207
2635792.-.H37Ra	1161340.-.KZN_4207
2635792.-.H37Ra	4044567.-.KZN_4207
1161340.-.KZN_4207	4068431.-.H37Ra
1161340.-.KZN_4207	1342600.+.H37Ra
1161340.-.KZN_4207	2635792.-.H37Ra
3131455.-.KZN_4207	3144883.-.H37Ra
3144883.-.H37Ra	3131455.-.KZN_4207
3147780.-.H37Ra	3128559.-.KZN_4207
3128559.-.KZN_4207	3147780.-.H37Ra
3904284.+.H37Ra	1341262.+.KZN_4207
3904284.+.H37Ra	1533183.-.KZN_4207
1533753.-.H37Ra	1341262.+.KZN_4207
1533753.-.H37Ra	3879753.+.KZN_4207
3879753.+.KZN_4207	1341679.+.H37Ra
3879753.+.KZN_4207	1533753.-.H37Ra
1341679.+.H37Ra	1533183.-.KZN_4207
1341679.+.H37Ra	3879753.+.KZN_4207
1533183.-.KZN_4207	3904284.+.H37Ra
1533183.-.KZN_4207	1341679.+.H37Ra
1341262.+.KZN_4207	1533753.-.H37Ra
1341262.+.KZN_4207	3904284.+.H37Ra
609372.+.H37Ra	404465.+.KZN_4207
403065.+.H37Ra	608224.+.KZN_4207
608224.+.KZN_4207	403065.+.H37Ra
404465.+.KZN_4207	609372.+.H37Ra
3496963.+.H37Ra	908014.-.KZN_4207
909791.-.H37Ra	3481432.+.KZN_4207
908014.-.KZN_4207	3496963.+.H37Ra
3481432.+.KZN_4207	909791.-.H37Ra
1165368.-.KZN_4207	1280130.+.H37Ra
1279557.+.KZN_4207	1165880.-.H37Ra
1165880.-.H37Ra	1279557.+.KZN_4207
1280130.+.H37Ra	1165368.-.KZN_4207
2449184.-.H37Ra	2716752.-.KZN_4207
2716752.-.KZN_4207	2449184.-.H37Ra
2432451.-.KZN_4207	2732744.-.H37Ra
2732744.-.H37Ra	2432451.-.KZN_4207
4240266.+.KZN_4207	1469481.-.H37Ra
1469481.-.H37Ra	4240266.+.KZN_4207
4262773.+.H37Ra	1468910.-.KZN_4207
1468910.-.KZN_4207	4262773.+.H37Ra
1341693.+.KZN_4207	1162163.-.H37Ra
1162163.-.H37Ra	1341693.+.KZN_4207
1342265.+.H37Ra	1161651.-.KZN_4207
1161651.-.KZN_4207	1342265.+.H37Ra
475416.+.H37Ra	476370.+.KZN_4207
476370.+.KZN_4207	475416.+.H37Ra
474292.+.KZN_4207	477494.+.H37Ra
477494.+.H37Ra	474292.+.KZN_4207
1783590.-.H37Ra	2969724.-.KZN_4207
2969724.-.KZN_4207	1783590.-.H37Ra
332647.-.KZN_4207	842962.+.H37Ra
842542.+.KZN_4207	334070.-.H37Ra
334070.-.H37Ra	842542.+.KZN_4207
842962.+.H37Ra	332647.-.KZN_4207
1277036.-.KZN_4207	2207252.+.H37Ra
2187093.+.KZN_4207	1277610.-.H37Ra
2207252.+.H37Ra	1277036.-.KZN_4207
1277610.-.H37Ra	2187093.+.KZN_4207
