1	839	1373
2	313	435
3	133	149
4	137	145
5	95	104
6	57	63
7	129	188
8	84	82
9	81	91
10	62	64
11	33	34
12	33	40
13	25	26
14	62	66
15	47	49
16	46	53
17	42	45
18	41	41
19	61	66
20	73	77
21	189	191
22	2155	2146
