SPNA45
SPN072838
SPN034156
GA47597
GA19101
SPN994039
SPN994038
SPN034183
SPN021198
SP3-BS71
OXC141
GA19690
GA07228
GA49194
GA41317
EU-NP03
GA13856
SP11-BS70
MLV-016
GA47760
GA47562
GA07914
AP200
2081685
2071247
gamPNI0373
GA47794
GA52612
GA47179
GA44194
G54
2080076
2070035
GA17971
SP9-BS68
GA44511
GA54644
GA47388
GA43257
GA19998
SP195
GA49542
GA56113
GA17570
GA17301
GA08780
2070531
2070425
GA05248
GA05578
GA04216
GA02506
GA41538
SP18-BS74
GA16531
NP112
GA17545
GA16242
2071004
SP6-BS73
SPAR27
R6M2-PG
R6
D39
ND6012
BR1064
GA13637
2070335
SP23-BS72
GA14688
NP070
GA44128
2070768
2070005
GA11304
670-6B
GA47439
CDC0288-04
2082239
2061617
GA60080
GA47461
GA17484
GA13224
GA58981
GA56348
2090008
2061376
2072047
GA13494
SP14-BS69
GA02254
CCRI_1974M2
CCRI_1974
1974M1-LZD
INV200
England14-9
CGSP14
BS455
SP9v-BS293
SP14-BS292
GA58581
GA13338
GA41688
BS458
BS457
BS397
GA14373
SPAR55
NorthCarolina6A-23
NP127
GA47751
GA47368
GA49447
GA44452
GA44386
GA43264
GA41437
GA19077
GA17328
GA02714
GA02270
CDC1873-00
GA18068
GA07643
TIGR4_WGS
TIGR4
SPAR48
GA47360
EU-NP01
2082170
2081074
GA47210
70585
GA41301
GA17227
GA05245
SPAR95
GA47976
NP141
GA40028
GA47283
CDC1087-00
2070109
2070108
SP19-BS75
GA47502
GA47373
GA40563
GA11184
GA41277
GA40183
6963-05
GA43380
Netherlands15B-37
GA43265
GA40410
GA04672
GA44500
GA62681
GA11426
GA47522
GA04175
GA17457
EU-NP05
GA06083
CDC3059-06
6901-05
6735-05
5787-06
4027-06
PT8114
GA60132
GA47901
GA62331
GA54354
SV36
SV35
NP170
GA44378
GA13430
GA11663
ATCC_700669
459-5
SPN7465
SPN1041
P1031
JJA
Hungary19A-6
2080913
GA41565
GA41410
GA13723
7533-05
SPN061370
SPN033038
SPN032672
INV104B
INV104
TCH843119A
GA58771
GA44288
GA19923
GA47778
GA47688
EU-NP02
7879-04
Canada_MDR_19A
7286-06
5652-06
5185-06
GA47281
GA14798
GA13499
Canada_MDR_19F
8190-05
GA16121
GA18523
Taiwan19F-14
ST556
GA49138
GA47628
GA19451
GA17719
GA17371
GA16833
GA13455
GA11856
GA08825
4075-00
GA04375
3063-00
GA60190
GA52306
GA47033
EU-NP04
07AR0125

