SATW20_p1010	1	651	+	merB
SATW20_p1020	846	1394	-	SATW20_p1020
SATW20_p1030	1480	2154	-	SATW20_p1030
SATW20_p1040	2964	3572	-	SATW20_p1040
SATW20_p1050	3651	4139	+	SATW20_p1050
SATW20_p1060	5236	5919	-	SATW20_p1060
SATW20_p1080	8207	8554	-	cadX
SATW20_p1090	8573	8878	-	SATW20_p1090
SATW20_p1100	8890	9189	-	SATW20_p1100
SATW20_p1110	10810	11799	-	rep
SATW20_p1120	12198	12968	+	SATW20_p1120
SATW20_p1130	13284	13844	-	SATW20_p1130
SATW20_p1140	14049	15593	-	qacA
SATW20_p1150	15771	16337	+	qacR
SATW20_p1160	16660	16998	-	SATW20_p1160
SATW20_p1170	17244	17852	-	SATW20_p1170
SATW20_p1180	18004	18819	-	SATW20_p1180
SATW20_p1190	18812	20254	-	SATW20_p1190
SATW20_p1200	20226	20819	-	tnpR
SATW20_p1210	21191	21559	+	cadC
SATW20_p1220	21552	23735	+	cadA
SATW20_p1230	23970	24644	-	SATW20_p1230
SATW20_p1250	25743	26150	+	merR
SATW20_p1260	26167	26652	+	SATW20_p1260
SATW20_p1270	26649	27329	+	SATW20_p1270
SATW20_p1280	27417	27803	+	merT
SATW20_p1290	27861	29504	+	merA
