SA0001	517	1878	+	dnaA
SA0002	2156	3289	+	dnaN
SA0003	3670	3915	+	SA0003
SA0004	3912	5024	+	recF
SA0005	5034	6968	+	gyrB
SA0006	7005	9674	+	gyrA
SA0007	9762	10592	-	SA0007
SA0008	10879	12414	+	hutH
SA0009	12793	14079	+	serS
SA0010	14730	15425	+	SA0010
SAS001	15422	15751	+	SAS001
SA0011	16093	17082	+	SA0011
SA0012	17318	18313	+	SA0012
SA0013	18328	20295	+	SA0013
SA0014	20292	20738	+	rplI
SA0015	20770	22170	+	dnaC
SA0016	22448	23731	+	purA
SA0017	24928	25635	+	vicR
SA0018	25648	27474	+	vicK
SA0019	27440	28801	+	SA0019
SA0020	28802	29590	+	SA0020
SA0021	29979	30779	+	SA0021
SA0022	31006	33324	+	SA0022
SA0023	33692	34171	+	orfX
SA0024	34454	35749	+	SA0024
SA0025	36164	36403	+	SA0025
SA0026	36435	37109	-	SA0026
SA0027	37200	37406	-	truncated(repB)
SA0028	37410	38204	-	truncated(repB)
SAS002	38229	38309	-	SAS002
SA0029	38428	39690	-	pre
SA0030	39799	39939	+	SA0030
SA0031	39987	40178	+	SA0031
SA0032	40197	40601	-	bleO
SA0033	40818	41588	-	aadD
SA0034	41781	42455	-	SA0034
SA0035	42539	42880	+	SA0035
SA0036	43717	44460	+	SA0036
SA0037	44557	44985	+	SA0037
SA0038	45031	47037	-	mecA
SA0039	47137	48894	+	mecR1
SA0040	48894	49265	+	mecI
SA0041	49752	50882	+	xylR
SA0042	50996	51388	-	SA0042
SA0043	51392	52330	-	SA0043
SA0044	52363	53427	-	SA0044
SA0045	53563	53823	+	SA0045
SA0046	53823	54467	+	SA0046
SA0047	54806	55474	-	SA0047
SA0048	56002	56733	+	ermA
SA0049	56859	57641	-	ant(9)
SA0050	57792	58169	-	tnpC
SA0051	58176	60068	-	tnpB
SA0052	60065	61150	-	tnpA
SA0053	61269	61586	-	truncated(radC)
SA0054	61607	62125	-	SA0054
SA0055	62131	62442	-	SA0055
SA0056	62529	62879	-	SA0056
SA0057	63397	65025	-	ccrB
SA0058	65047	66396	-	ccrA
SA0059	66630	68423	-	SA0059
SA0060	68423	68719	-	SA0060
SA0061	68912	69958	-	SA0061
SA0062	70209	70586	-	tnp
SA0063	70698	71051	-	tnp
SA0064	71036	71350	-	SA0064
SA0065	71861	72445	-	SA0065
SA0066	73509	74204	-	kdpE(SCCmec)
SA0067	74179	76812	-	kdpD(SCCmec)
SA0068	77116	78792	+	kdpA(SCCmec)
SA0070	78811	80832	+	kdpB(SCCmec)
SA0071	80880	81251	+	kdpC(SCCmec)
SA0072	81950	82819	-	SA0072
SA0073	82829	83731	-	SA0073
SAS003	83767	83892	+	SAS003
SA0074	83925	84404	-	SA0074
SA0075	84467	84799	-	SA0075
SA0076	84844	85470	-	SA0076
SA0077	85585	87093	+	SA0077
SA0078	87692	89425	+	SA0078
SA0079	89609	89947	-	SA0079
SA0080	90369	91124	-	SA0080
SA0081	91124	91384	-	SA0081
SA0082	91521	92585	+	SA0082
SA0083	92616	93950	+	SA0083
SA0084	93969	95162	+	SA0084
SA0085	95829	96815	-	SA0085
SA0086	97124	97327	+	SA0086
SA0087	97376	97672	+	SA0087
SA0088	97871	98482	+	SA0088
SA0089	98749	101901	+	SA0089
SA0090	101958	102440	+	SA0090
SA0091	102646	103632	+	plc
SA0092	103853	104623	+	SA0092
SA0093	104675	105445	+	SA0093
SA0094	105513	106280	+	SA0094
SA0095	106345	107115	+	SA0095
SA0096	107182	107949	+	SA0096
SA0097	108046	110283	+	SA0097
SA0098	110434	111612	+	SA0098
SA0099	111614	113002	+	SA0099
SA0100	113486	115153	-	SA0100
SA0101	115245	115415	-	SA0101
SA0102	115472	117247	-	SA0102
SA0103	117421	118293	-	SA0103
SA0104	118475	119803	+	SA0104
SA0105	119993	120466	+	SA0105
SA0106	120728	122320	+	lctP
SA0107	122649	124001	-	spa
SA0108	124422	125174	-	sarH1
SA0109	125543	126460	-	sirC
SA0110	126538	127533	-	sirB
SA0111	127549	128541	-	sirA
SA0112	128772	129752	+	sbnA
SA0113	129749	130759	+	sbnB
SA0114	130780	132534	+	sbnC
SA0115	132527	133783	+	sbnD
SA0116	133773	135509	+	sbnE
SA0117	135490	137268	+	sbnF
SA0118	137240	138019	+	sbnG
SA0119	138019	139221	+	sbnH
SA0120	139225	139989	+	sbnI
SA0121	140185	140811	+	SA0121
SA0122	141023	141799	+	butA
SAS004	141848	142000	-	SAS004
SA0123	142144	143115	+	SA0123
SA0124	143078	143770	+	SA0124
SA0125	143980	145146	+	SA0125
SA0126	145127	146365	+	SA0126
SA0127	146355	147785	+	SA0127
SA0128	148053	148652	+	sodM
SA0129	149019	149744	+	SA0129
SA0130	149935	150675	-	SA0130
SA0131	150926	151633	+	pnp
SA0132	151640	152992	+	SA0132
SA0133	153073	153735	+	dra
SA0134	153763	154941	+	drm
SA0135	155070	155885	-	SA0135
SA0136	155882	156682	-	SA0136
SA0137	156684	157457	-	SA0137
SA0138	157652	158608	-	SA0138
SA0139	158837	160381	+	SA0139
SA0140	160432	161967	+	SA0140
SA0141	162124	162891	+	SA0141
SA0142	162897	164072	+	SA0142
SA0143	164457	167066	+	adhE
SA0144	167409	168077	+	capA
SA0145	168093	168779	+	capB
SA0146	168782	169546	+	capC
SA0147	169566	171389	+	capD
SA0148	171379	172407	+	capE
SA0149	172420	173529	+	capF
SA0150	173533	174657	+	capG
SA0151	174660	175286	+	capH
SA0152	175291	176400	+	capI
SA0153	176414	177580	+	capJ
SA0154	177573	178778	+	capK
SA0155	178779	179984	+	capL
SA0156	179995	180552	+	capM
SA0157	180552	181439	+	capN
SA0158	181493	182755	+	capO
SA0159	182802	183977	+	capP
SA0160	184042	184368	-	SA0160
SA0161	184375	184758	-	SA0161
SA0162	185185	186672	+	aldA
SA0163	187319	188278	+	SA0163
SAS005	188388	188543	-	SAS005
SA0164	188573	188776	-	SA0164
SA0165	188955	189467	+	SA0165
SA0166	189809	190549	+	SA0166
SA0167	190563	191534	+	SA0167
SA0168	191531	192292	+	SA0168
SA0169	192305	193336	+	SA0169
SA0170	193562	193912	+	SA0170
SA0171	193987	195111	+	fdh
SA0172	195497	196747	+	SA0172
SA0173	197194	204369	+	SA0173
SA0174	204382	205026	+	SA0174
SA0175	205354	205848	-	SA0175
SA0176	206103	206867	-	SA0176
SA0177	206883	208124	-	argJ
SA0178	208136	209167	-	argC
SA0179	209206	210390	-	SA0179
SA0180	210649	211998	-	SA0180
SA0181	212277	212774	-	SA0181
SA0182	212901	214541	-	SA0182
SA0183	214814	216859	-	glcA
SA0184	217444	218499	+	SA0184
SA0185	218496	219395	+	SA0185
SA0186	219407	220861	+	SA0186
SA0187	220864	221739	+	SA0187
SA0188	221933	222214	-	SA0188
SA0189	222427	225216	+	hsdR
SA0190	225363	225962	-	SA0190
SA0191	226088	227200	+	SA0191
SA0192	227197	227877	+	SA0192
SA0193	227874	229052	+	SA0193
SA0194	229259	229480	+	SA0194
SA0195	229518	231236	+	SA0195
SA0196	231295	231738	+	SA0196
SA0197	231750	232472	+	SA0197
SAS006	232459	232635	+	SAS006
SA0198	233345	234937	-	oppF
SA0199	235035	236372	+	oppB(truncated)
SA0200	236378	237541	+	SA0200
SA0201	237558	239333	+	rlp
SA0202	239371	241377	+	SA0202
SA0203	241690	242463	-	SA0203
SA0204	242652	243278	-	SA0204
SA0205	243487	244065	+	SA0205
SA0206	244449	245546	+	msmX
SA0207	245559	246830	+	SA0207
SA0208	246833	248101	+	SA0208
SA0209	248103	248942	+	SA0209
SA0210	249013	250092	+	SA0210
SA0211	250117	251157	+	SA0211
SA0212	251212	252180	+	SA0212
SA0213	252541	253035	-	SA0213
SA0214	253268	254647	+	uhpT
SA0215	255006	255764	-	SA0215
SA0216	255757	257313	-	SA0216
SA0217	257310	258278	-	SA0217
SA0218	258866	261115	+	pflB
SA0219	261138	261893	+	pflA
SA0220	262215	263978	+	SA0220
SA0221	264142	264486	-	SA0221
SA0222	264676	266652	+	coa
SA0223	267239	268423	-	SA0223
SA0224	268453	270714	-	SA0224
SA0225	270900	272111	-	SA0225
SA0226	272223	273728	-	SA0226
SA0227	273754	275316	-	SA0227
SA0228	275772	276914	+	SA0228
SA0229	277228	278703	-	SA0229
SA0230	278901	279257	-	SA0230
SAS007	279414	279587	-	SAS007
SA0231	279613	280758	-	SA0231
SA0232	281331	282284	+	lctE
SA0233	282604	284133	-	SA0233
SA0234	284495	285430	+	SA0234
SA0235	285767	287863	+	SA0235
SA0236	287848	288315	+	SA0236
SA0237	288338	288616	+	SA0237
SA0238	288843	290102	+	gatC
SA0239	290120	291175	+	SA0239
SAS008	291177	291323	+	SAS008
SA0240	291347	292390	+	SA0240
SA0241	292918	293634	+	SA0241
SA0242	293627	294652	+	SA0242
SA0243	294674	296368	+	SA0243
SA0244	296796	297965	+	SA0244
SA0245	298241	298957	+	SA0245
SA0246	298950	299975	+	SA0246
SA0247	299997	301685	+	SA0247
SA0248	301718	303439	+	SA0248
SA0249	303583	304257	+	scdA
SA0250	304502	306256	+	lytS
SA0251	306259	306999	+	lytR
SA0252	307118	307555	+	lrgA
SA0253	307548	308249	+	lrgB
SA0254	308357	309061	-	SA0254
SA0255	309210	310001	+	SA0255
SA0256	310017	311453	+	bglA
SA0257	311940	312701	-	SA0257
SA0258	312952	313866	-	rbsK
SA0259	313894	314298	-	rbsD
SA0260	314313	315194	-	SA0260
SA0261	315426	316424	-	SA0261
SA0262	316804	317196	+	SA0262
SA0263	317324	318700	-	SA0263
SA0264	318934	319926	+	SA0264
SA0265	320252	321202	+	lytM
SA0266	321254	321913	-	SA0266
SA0267	321927	322847	-	SA0267
SA0268	322844	324010	-	SA0268
SA0269	324078	325601	-	SA0269
SA0270	325932	326825	-	SA0270
SA0271	327073	327366	+	SA0271
SA0272	327449	330478	+	SA0272
SA0273	330478	330936	+	SA0273
SA0274	330908	331150	+	SA0274
SA0275	331163	332497	+	SA0275
SA0276	332519	336958	+	SA0276
SA0277	336988	337380	+	SA0277
SA0278	337396	337710	+	SA0278
SA0279	337707	338384	+	SA0279
SA0280	338384	338701	+	SA0280
SA0281	338711	340555	+	SA0281
SA0282	340566	341057	+	SA0282
SA0283	341260	341943	+	SA0283
SA0284	342089	342700	+	SA0284
SA0285	342835	343053	+	SA0285
SA0286	343185	343685	+	SA0286
SA0287	343696	344196	+	SA0287
SA0288	344207	344668	+	SA0288
SA0289	344717	345217	+	SA0289
SA0290	345228	345713	+	SA0290
SA0291	346338	346712	+	SA0291
SA0292	346862	347260	+	SA0292
SA0293	347476	348300	-	SA0293
SA0294	348537	349844	-	SA0294
SA0295	350428	351318	+	SA0295
SA0296	351567	352616	+	SA0296
SA0297	352629	353306	+	SA0297
SA0298	353514	354545	+	SA0298
SA0299	354888	355649	+	SA0299
SA0300	355764	356006	+	SA0300
SA0301	355981	356904	+	SA0301
SA0302	356915	358135	+	SA0302
SA0303	358240	359772	-	SA0303
SA0304	359812	360693	-	nanA
SA0305	360851	361711	+	SA0305
SA0306	361988	362788	-	SA0306
SA0307	362928	363596	+	SA0307
SA0308	363727	365040	-	SA0308
SA0309	365458	367533	+	geh
SA0310	367775	368602	-	SA0310
SA0311	368675	369874	-	SA0311
SA0312	370176	371177	+	SA0312
SA0313	371211	371543	+	SA0313
SA0314	371544	372344	+	SA0314
SA0315	372331	373278	+	SA0315
SA0316	373256	374278	+	SA0316
SA0317	374594	375619	+	SA0317
SA0318	375713	377059	-	SA0318
SA0319	377074	377358	-	SA0319
SA0320	377360	377803	-	SA0320
SA0321	377808	379763	-	SA0321
SA0322	379975	380394	+	SA0322
SA0323	380501	381856	+	SA0323
SA0324	381960	382418	+	SA0324
SA0325	382482	383840	-	glpT
SA0326	384152	385078	+	SA0326
SA0327	385092	386153	+	SA0327
SA0328	386167	386733	+	SA0328
SA0329	386792	387787	-	SA0329
SA0330	388152	388697	+	SA0330
SA0331	388964	389818	+	SA0331
SA0332	389929	391044	+	SA0332
SA0333	391022	392737	+	SA0333
SA0334	392978	393640	-	SA0334
SA0335	393696	393911	-	SA0335
SA0336	394019	394408	-	SA0336
SA0337	394648	394851	+	SA0337
SA0338	394848	395561	+	SA0338
SA0339	395586	396428	+	SA0339
SA0340	396428	397057	+	SA0340
SA0341	397444	398577	-	SA0341
SA0342	399116	400297	+	SA0342
SA0343	400380	401132	-	SA0343
SA0344	401175	403403	-	metE
SA0345	403400	405241	-	SA0345
SA0346	405210	406370	-	SA0346
SA0347	406367	407470	-	SA0347
SA0348	408141	408977	+	SA0348
SA0349	409131	410012	+	SA0349
SA0350	410042	410245	+	SA0350
SA0351	410257	411354	+	SA0351
SAS009	411440	411631	-	SAS009
SA0352	411875	412171	+	rpsF
SA0353	412192	412695	+	ssb
SA0354	412747	412989	+	rpsR
SA0355	413266	414240	-	SA0355
SA0356	414292	414546	-	SA0356
SA0357	415162	415773	+	SA0357
SA0358	416142	416510	+	SA0358
SA0359	416691	417263	+	SA0359
SAS010	417400	417663	-	SAS010
SA0360	417963	418214	+	SA0360
SAS011	418253	418462	-	SAS011
SA0361	418616	419221	+	SA0361
SA0362	419287	419670	-	SA0362
SA0363	419940	420566	-	SA0363
SA0364	420639	420830	-	SA0364
SA0365	421010	422533	-	ahpF
SA0366	422549	423118	-	ahpC
SA0367	423610	424365	+	SA0367
SA0368	424445	425833	-	SA0368
SA0369	426680	427999	+	tnp
SA0370	428331	429287	-	SA0370
SA0371	429405	430067	-	SA0371
SA0372	430210	430617	-	SA0372
SA0373	431130	431708	+	xprT
SA0374	431708	432976	+	pbuX
SA0375	433014	434480	+	guaB
SA0376	434505	436046	+	guaA
SA0377	436159	436695	-	SA0377
SA0378	437087	437791	-	SA0378
SA0379	438190	438486	-	SA0379
SAS012	438723	438875	-	SAS012
SA0380	439407	439766	-	SA0380
SA0381	439785	440630	-	SA0381
SA0382	441102	441782	+	set6
SA0383	442068	442763	+	set7
SA0384	443054	444124	+	set8
SA0385	444488	445366	+	set9
SA0386	445730	446434	+	set10
SA0387	446880	447575	+	set11
SA0388	447914	448612	+	set12
SA0389	448989	449687	+	set13
SA0390	450053	450736	+	set14
SAS013	450789	450947	+	SAS013
SA0391	451000	452556	+	hsdM
SA0392	452549	453760	+	hsdS
SA0393	454143	454826	+	set15
SA0394	454848	456335	+	SA0394
SA0395	456444	456752	-	SA0395
SA0396	457089	457892	+	lpl1
SA0397	457923	458717	+	lpl2
SA0398	458762	459550	+	lpl3
SA0399	459874	460356	+	SA0399
SA0400	460417	461202	+	lpl4
SA0401	461221	462003	+	lpl5
SA0402	462060	462854	+	lpl6
SA0403	462906	463706	+	lpl7
SA0404	463725	464507	+	lpl8
SA0405	464686	465501	+	lpl9
SA0406	465491	466816	+	SA0406
SA0407	466813	467136	+	SA0407
SA0408	467155	467469	+	SA0408
SA0409	467758	467958	-	SA0409
SA0410	468137	469339	+	SA0410
SAS014	469753	469896	-	SAS014
SA0411	470927	472411	+	ndhF
SA0412	472424	475129	+	SA0412
SA0413	475291	475653	+	SA0413
SA0414	475882	476124	-	SA0414
SA0415	476336	477010	+	SA0415
SA0416	477047	477781	+	SA0416
SA0417	478150	479490	+	SA0417
SA0418	479707	480612	+	cysM
SA0419	480605	481747	+	metB
SA0420	482042	483067	+	SA0420
SA0421	483071	483730	+	SA0421
SA0422	483767	484609	+	SA0422
SA0423	484941	485945	+	SA0423
SA0424	486130	486408	-	SA0424
SA0425	486548	486943	+	SA0425
SA0426	486933	487418	+	SA0426
SA0427	487587	488369	-	SA0427
SA0428	488366	489478	-	SA0428
SA0429	489599	490483	-	gltC
SA0430	490664	495163	+	gltB
SA0431	495181	496644	+	gltD
SA0432	497474	498901	+	treP
SA0433	498965	500605	+	SA0433
SA0434	500630	501358	+	SA0434
SA0435	502001	502525	+	SA0435
SA0436	502594	504291	+	dnaX
SA0437	504381	504698	+	SA0437
SA0438	504705	505301	+	recR
SA0439	512201	513538	+	SA0439
SA0440	513540	514157	+	tmk
SA0441	514185	514514	+	SA0441
SA0442	514728	515654	+	holB
SA0443	515823	516458	+	SA0443
SA0444	516454	516822	+	SA0444
SA0445	517096	517821	+	SA0445
SA0446	517814	518062	+	SA0446
SA0447	518064	518903	+	SA0447
SA0448	519188	521161	+	metS
SA0449	521192	521965	+	SA0449
SA0450	522132	522668	+	SA0450
SA0451	522679	523572	+	ksgA
SA0452	523672	523935	+	veg
SA0453	524245	525093	+	SA0453
SA0454	525107	525931	+	purR
SA0455	525948	526328	+	SA0455
SA0456	526376	526702	+	spoVG
SA0457	527067	528419	+	gcaD
SA0458	528566	529531	+	prs
SA0459	529681	530334	+	rplY
SA0460	530645	531217	+	pth
SA0461	531217	534723	+	mfd
SA0462	534713	536239	+	SA0462
SA0463	536239	537432	+	SA0463
SA0464	537429	537692	+	SA0464
SA0465	537710	538102	+	SA0465
SA0466	538207	538608	+	SA0466
SA0467	538788	540083	+	SA0467
SA0468	540088	540627	+	SA0468
SA0469	540884	542977	+	ftsH
SA0470	543205	544086	+	SA0470
SA0471	544265	545197	+	cysK
SA0472	545413	546216	+	folP
SA0473	546194	546559	+	folB
SA0474	546556	547032	+	folK
SA0475	547571	549058	+	lysS
SA0476	556112	557494	-	SA0476
SA0477	557598	558485	+	SA0477
SA0478	558489	559049	+	SA0478
SA0479	559257	560471	-	nupC
SA0480	560629	561090	+	ctsR
SA0481	561109	561675	+	SA0481
SA0482	561665	562672	+	SA0482
SA0483	562686	565142	+	clpC
SA0484	565627	566991	+	radA
SA0485	567016	568089	+	SA0485
SA0486	568646	570100	+	gltX
SA0487	570529	571170	+	cysE
SA0488	571154	572554	+	cysS
SA0489	572547	572951	+	SA0489
SA0490	572959	573705	+	SA0490
SA0491	573705	574229	+	SA0491
SA0492	574310	574879	+	SA0492
SA0493	575193	575375	+	secE
SA0494	575388	575936	+	nusG
SAS015	576074	576124	+	SAS015
SA0495	576117	576539	+	rplK
SA0496	576747	577439	+	rplA
SA0497	577711	578211	+	rplJ
SA0498	578254	578622	+	rplL
SA0499	578797	579405	+	SA0499
SA0500	579620	583171	+	rpoB
SA0501	583308	586931	+	rpoC
SA0502	587068	587322	+	SA0502
SA0503	587420	587833	+	rpsL
SA0504	587899	588369	+	rpsG
SA0505	588492	590573	+	fus
SA0506	590790	591974	+	tufA
SA0507	592256	593431	-	SA0507
SA0508	593638	594789	+	SA0508
SA0509	595059	595937	+	SA0509
SA0510	596096	597733	+	araB
SA0511	597947	598912	+	SA0511
SA0512	599248	600324	+	ilvE
SA0513	600574	601257	+	SA0513
SA0514	601373	602035	-	SA0514
SA0515	602028	602645	-	SA0515
SA0516	602712	603182	+	SA0516
SA0517	603329	604198	+	SA0517
SA0518	604220	604786	+	SA0518
SA0519	605215	608076	+	sdrC
SA0520	608443	612600	+	sdrD
SA0521	612994	616419	+	sdrE
SA0522	616540	618012	+	SA0522
SA0523	618137	619627	-	SA0523
SA0524	619909	620787	-	SA0524
SA0525	620800	621465	-	SA0525
SA0526	621479	621838	-	SA0526
SA0527	622117	622875	+	nagB
SA0528	622952	623584	+	SA0528
SA0529	623586	624134	+	SA0529
SA0530	624247	624894	+	SA0530
SA0531	625396	626796	+	proP
SA0532	627131	627340	+	SA0532
SA0533	627340	628716	+	vraA
SA0534	628718	629857	+	vraB
SA0535	629832	630197	+	vraC
SA0536	630200	630469	+	SA0536
SAS016	630670	630837	-	SAS016
SA0537	631344	632174	-	SA0537
SA0538	632358	633014	+	ung
SA0539	633015	633395	+	SA0539
SA0540	633528	633896	+	SA0540
SA0541	634017	635501	+	SA0541
SA0542	635642	636094	-	SA0542
SA0543	636107	636757	-	SA0543
SA0544	637420	638172	-	SA0544
SA0545	638340	639326	+	pta
SA0546	639329	640165	+	SA0546
SA0547	640833	641672	+	mvaK1
SA0548	641677	642660	+	mvaD
SA0549	642673	643749	+	mvaK2
SA0550	643926	644267	+	SA0550
SA0551	644319	645767	-	SA0551
SA0552	645628	646068	-	SA0552
SA0553	646693	648087	+	SA0553
SA0554	648091	648723	+	SA0554
SA0555	648770	649390	+	SA0555
SA0556	649530	650162	+	SA0556
SA0557	650610	651548	+	SA0557
SA0558	651994	652530	+	SA0558
SA0559	652698	653174	+	SA0559
SA0560	653214	654509	+	SA0560
SA0561	654552	655058	+	SA0561
SA0562	655557	656567	+	adh1
SA0563	656831	657259	+	SA0563
SA0564	657256	658917	+	argS
SA0565	659187	659822	+	SA0565
SA0566	660074	660961	+	SA0566
SA0567	661110	662060	+	SA0567
SA0568	662115	662834	+	SA0568
SA0569	662818	663618	+	SA0569
SA0570	663754	664260	+	SA0570
SA0571	664422	665138	+	SA0571
SA0572	665307	666095	+	SA0572
SA0573	666347	666721	-	sarA
SA0574	667669	668598	-	SA0574
SA0575	668793	669017	-	SA0575
SA0576	669034	669237	-	SA0576
SA0577	669396	669956	+	SA0577
SA0578	669975	672377	+	SA0578
SA0579	672364	672789	+	SA0579
SA0580	672786	673130	+	SA0580
SA0581	673120	674616	+	SA0581
SA0582	674617	675099	+	SA0582
SA0583	675096	675398	+	SA0583
SA0584	675373	675810	+	SA0584
SA0585	676150	678192	+	SA0585
SA0586	678300	679619	-	SA0586
SA0587	680739	681668	-	SA0587
SA0588	681665	682501	-	SA0588
SA0589	682495	683238	-	SA0589
SA0590	683360	684004	+	SA0590
SA0591	684084	684836	-	SA0591
SA0592	685072	685836	+	tagA
SA0593	685897	686691	-	tagH
SA0594	687017	687850	+	tagG
SA0595	688582	689052	+	tagB
SA0596	689103	690110	+	tagX
SA0597	690173	690571	+	tagD
SA0598	690688	691983	-	pbp4
SA0599	692404	694131	+	SA0599
SAS017	694200	694280	+	SAS017
SA0600	694488	695717	+	SA0600
SA0601	696464	697075	+	SA0601
SA0602	697357	698154	+	fhuC
SA0603	698190	699194	+	fhuB
SA0604	699191	700207	+	fhuG
SA0605	700444	701409	+	SA0605
SA0606	701451	702035	+	SA0606
SA0607	702028	702390	+	SA0607
SA0608	702506	703003	+	SA0608
SA0609	703547	704527	+	SA0609
SA0610	704678	705721	+	SA0610
SA0611	706050	706478	+	SA0611
SA0612	706687	707193	-	SA0612
SA0613	707306	708229	+	SA0613
SA0614	708245	708919	+	SA0614
SA0615	708912	709952	+	SA0615
SA0616	710096	710857	+	vraF
SA0617	710835	712736	+	vraG
SA0618	713459	714076	+	SA0618
SA0619	714092	715099	+	SA0619
SA0620	715687	716484	-	SA0620
SA0621	716845	717489	+	SA0621
SA0622	718186	720336	+	SA0622
SA0623	720416	720841	+	SA0623
SA0624	721307	721747	+	SA0624
SA0625	722032	722220	+	SA0625
SA0626	722573	723217	+	SA0626
SA0627	723519	724199	+	SA0627
SA0628	724337	725551	+	SA0628
SA0629	725548	726036	+	SA0629
SA0630	726135	726824	-	SA0630
SA0631	726951	727394	+	SA0631
SA0632	727461	727856	+	SA0632
SA0633	727994	728293	+	SA0633
SA0634	728373	728915	+	SA0634
SA0635	729011	729577	-	SA0635
SA0636	729579	730037	-	SA0636
SA0637	730040	730723	-	SA0637
SA0638	730895	731770	-	bacA
SA0639	731989	733620	+	SA0639
SA0640	733617	735290	+	SA0640
SA0641	735417	735860	-	SA0641
SA0642	736087	737013	+	SA0642
SA0643	737116	738024	+	SA0643
SA0644	738059	738346	+	SA0644
SA0645	738629	740182	+	SA0645
SA0646	740268	741641	+	SA0646
SA0647	741796	742080	-	SA0647
SA0648	742077	742697	-	SA0648
SA0649	742880	743302	-	SA0649
SA0650	743511	744677	+	norA
SA0651	744970	745422	+	SA0651
SA0652	745596	746078	+	SA0652
SA0653	746331	747092	+	SA0653
SA0654	747089	748009	+	fruB
SA0655	748015	749973	+	fruA
SA0656	750281	751462	+	nagA
SA0657	751683	753032	+	SA0657
SA0658	753254	754093	+	SA0658
SA0659	754225	755208	+	SA0659
SA0660	755280	756335	-	saeS
SA0661	756335	757021	-	saeR
SA0662	756996	757178	-	SA0662
SA0663	757812	758252	-	SA0663
SA0664	758532	759116	-	SA0664
SA0665	759215	759928	-	SA0665
SA0666	759932	760351	-	SA0666
SA0667	760353	761021	-	SA0667
SA0668	761372	761965	+	SA0668
SA0669	761949	763100	+	SA0669
SA0670	763100	763708	+	SA0670
SA0671	763774	763980	+	SA0671
SA0672	764068	764778	+	SA0672
SA0673	764762	765766	+	SA0673
SA0674	766240	768180	+	SA0674
SA0675	768456	770333	+	SA0675
SA0676	770345	772126	+	recQ
SA0677	772348	773325	+	SA0677
SA0678	773318	774832	+	SA0678
SA0679	775072	776130	+	SA0679
SA0680	776469	777011	+	SA0680
SA0681	777890	778807	-	SA0681
SA0682	779077	780582	-	SA0682
SA0683	780923	781423	-	SA0683
SA0684	781443	782309	-	SA0684
SA0685	783110	783508	+	nrdI
SA0686	783420	785576	+	nrdE
SA0687	785694	786665	+	nrdF
SA0688	787040	788011	+	SA0688
SA0689	787998	788954	+	SA0689
SA0690	788951	789712	+	SA0690
SA0691	789831	790859	+	SA0691
SA0692	791176	791490	-	SA0692
SA0693	791508	792431	-	SA0693
SA0694	792558	793076	-	SA0694
SA0695	793196	794074	+	SA0695
SA0696	794228	794548	+	SA0696
SA0697	794972	796096	+	SA0697
SA0698	796283	797509	-	pepT
SA0699	797523	798017	-	SA0699
SA0700	798035	798796	-	SA0700
SA0701	798992	800062	-	SA0701
SA0702	800380	801435	+	llm
SA0703	801600	802241	-	SA0703
SA0704	802385	803251	+	SA0704
SA0705	803795	804697	+	SA0705
SA0706	804690	805364	+	SA0706
SA0707	805425	805997	+	SA0707
SA0708	806411	808942	+	secA
SA0709	809375	810367	+	prfB
SA0710	810776	811615	+	SA0710
SA0711	811789	812439	+	SA0711
SA0712	812436	812672	+	SA0712
SA0713	812935	814926	+	uvrB
SA0714	814934	817780	+	uvrA
SA0715	818444	819376	+	hprK
SA0716	819382	820221	+	lgt
SA0717	820229	820714	+	SA0717
SA0718	820722	822161	+	SA0718
SA0719	822228	823163	+	trxB
SA0720	824108	825019	+	SA0720
SA0721	825016	826011	+	SA0721
SA0722	826122	827066	+	SA0722
SA0723	827630	828217	+	clpP
SA0724	828460	829362	-	SA0724
SA0725	830065	830694	+	SA0725
SA0726	831619	832632	+	gapR
SA0727	832685	833695	+	gap
SA0728	833834	835024	+	pgk
SA0729	835146	835907	+	tpi
SA0730	835910	837427	+	pgm
SA0731	837557	838861	+	eno
SA0732	839200	839658	+	SA0732
SA0733	839725	839958	+	secG
SA0734	840074	840814	+	SA0734
SA0735	840848	843220	+	rnr
SA0736	843242	843706	+	ssrP
SA0737	844543	844761	+	SA0737
SA0738	845028	845330	-	SA0738
SA0739	845705	846433	-	SA0739
SA0740	847031	847552	+	SA0740
SA0741	847691	848221	+	SA0741
SA0742	848484	851453	+	clfA
SA0743	851674	853176	+	SA0743
SA0744	853529	854551	+	ssp
SA0745	854886	855407	+	SA0745
SA0746	855748	856434	+	SA0746
SA0747	856791	856991	+	cspC
SA0748	857483	857701	-	SA0748
SA0749	857763	858047	-	SA0749
SA0750	858135	858704	-	SA0750
SAS018	858892	859080	-	SAS018
SAS019	859109	859369	-	SAS019
SA0751	859710	859913	+	SA0751
SA0752	859910	860146	-	SA0752
SAS020	860371	860952	+	SAS020
SA0753	861025	861642	-	SA0753
SA0754	861797	862291	-	SA0754
SAS021	862499	862549	+	SAS021
SA0755	862690	863112	-	SA0755
SA0756	863260	863976	+	SA0756
SA0757	864059	864598	+	SA0757
SA0758	864749	865069	-	SA0758
SA0759	865213	865569	+	SA0759
SA0760	865727	866107	+	SA0760
SA0761	866286	866906	+	truncated-SA
SA0762	867008	868093	+	tnpA
SA0763	868090	869982	+	tnpB
SA0764	869989	870366	+	tnpC
SA0765	870517	871299	+	ant(9)
SA0766	871425	872156	-	ermA
SA0767	872690	873352	+	SA0767
SAS022	873613	873876	+	truncated-SA
SA0768	874673	875059	+	SA0768
SAS023	875052	875348	+	SAS023
SA0769	875598	876623	+	SA0769
SA0770	876616	877311	+	SA0770
SA0771	877329	878150	+	SA0771
SA0772	878504	878698	+	SA0772
SA0773	878932	879783	-	SA0773
SA0774	880111	880872	+	SA0774
SA0775	880970	882277	+	SA0775
SA0776	882392	883633	+	SA0776
SA0777	883623	884087	+	SA0777
SA0778	884238	885635	+	SA0778
SA0779	885967	886281	-	SA0779
SA0780	886646	887686	+	SA0780
SA0781	887700	888767	+	SA0781
SA0782	889152	890000	+	SA0782
SA0783	890013	890840	+	SA0783
SA0784	890867	892186	+	SA0784
SA0785	892270	893187	+	lipA
SA0786	893317	893700	+	SA0786
SA0787	893906	895225	+	SA0787
SA0788	895299	895565	-	SA0788
SA0789	895663	896097	+	SA0789
SA0790	896097	896876	+	SA0790
SA0791	896909	897868	+	SA0791
SA0792	898280	898432	+	SA0792
SA0793	898448	899905	+	dltA
SA0794	899902	901116	+	dltB
SA0795	901134	901370	+	dltC
SA0796	901367	902542	+	dltD
SA0797	902805	903047	-	SA0797
SA0798	903163	903471	+	SA0798
SA0799	903530	904594	-	SA0799
SA0800	904911	905147	+	SA0800
SA0801	905160	905519	+	SA0801
SA0802	905973	907181	+	SA0802
SA0803	907312	908787	+	ampA
SA0804	909198	910514	+	SA0804
SA0805	910533	910907	+	SA0805
SA0806	910963	912117	-	SA0806
SA0807	912366	912722	-	mnhG
SA0808	912700	912993	-	mnhF
SA0809	912993	913472	-	mnhE
SA0810	913474	914970	-	mnhD
SA0811	914963	915304	-	mnhC
SA0812	915304	915732	-	mnhB
SA0813	915725	918130	-	mnhA
SA0814	918261	918644	-	SA0814
SA0815	918708	919301	+	SA0815
SA0816	919833	920093	+	SA0816
SA0817	920455	921582	+	SA0817
SA0818	921890	923080	+	rocD
SA0819	923189	924433	+	gudB
SA0820	924770	925699	-	glpQ
SA0821	925941	927320	-	argH
SA0822	927310	928515	-	argG
SA0823	928866	930197	+	pgi
SA0824	930522	931097	+	SA0824
SA0825	931102	931626	+	spsA
SA0826	931642	932217	+	spsB
SA0827	932377	935850	+	SA0827
SA0828	935854	939507	+	SA0828
SA0829	939673	940575	+	SA0829
SA0830	940904	941293	+	SA0830
SA0831	941465	942781	-	cdr
SA0832	942833	943657	-	SA0832
SA0833	943771	944079	+	SA0833
SAS024	944076	944168	-	SAS024
SA0834	944627	946441	+	SA0834
SA0835	946644	949253	+	clpB
SA0836	949312	950181	-	SA0836
SA0837	950291	951436	+	SA0837
SA0838	951420	952061	+	SA0838
SA0839	952054	953175	+	SA0839
SA0840	953153	953668	+	SA0840
SA0841	953979	954413	+	SA0841
SAS025	954670	954855	-	SAS025
SA0842	955150	956091	+	FabH
SA0843	956103	957347	+	fab
SA0844	957402	957773	-	SA0844
SA0845	958016	958942	+	oppB
SA0846	958942	960012	+	SA0846
SA0847	960028	961110	+	oppD
SA0848	961100	962041	+	oppF
SA0849	962060	963715	+	SA0849
SA0850	963927	965642	+	SA0850
SA0851	965693	966679	+	SA0851
SA0852	966682	967662	+	appF
SA0853	967655	968617	+	oppB
SA0854	968629	969510	+	SA0854
SA0855	969552	970541	-	trpS
SA0856	970835	971230	+	SA0856
SA0857	971601	972320	+	SA0857
SA0858	972441	973427	+	SA0858
SA0859	973475	975283	+	SA0859
SA0860	975743	976528	-	SA0860
SA0861	976572	976937	-	SA0861
SA0862	977041	977634	-	SA0862
SA0863	977820	978167	+	SA0863
SA0864	978184	978819	+	SA0864
SA0865	978836	979645	+	SA0865
SA0866	979642	980496	+	SA0866
SA0867	980517	981902	+	SA0867
SA0868	981912	983756	+	SA0868
SA0869	984034	984804	+	fabI
SA0870	985001	986086	-	SA0870
SA0871	986491	987996	+	SA0871
SA0872	988141	988899	+	SA0872
SA0873	989093	989602	+	SA0873
SA0874	989715	990905	-	SA0874
SA0875	990883	992058	-	SA0875
SA0876	992491	993975	+	murE
SAS026	993965	994216	+	SAS026
SA0877	994216	995778	+	prfC
SA0878	996080	996883	+	SA0878
SA0879	997117	999426	+	htrA
SA0880	999443	1000801	+	SA0880
SA0881	1000937	1002451	+	SA0881
SA0882	1002938	1003507	-	SA0882
SA0883	1003717	1003935	+	SA0883
SA0884	1004016	1005002	-	SA0884
SAS027	1005201	1005377	+	SAS027
SA0885	1005392	1005994	+	SA0885
SAS028	1006203	1006364	+	SAS028
SAS029	1007021	1007293	+	SAS029
SA0886	1007337	1009301	+	SA0886
SA0887	1009304	1009624	+	SA0887
SA0888	1009621	1010262	+	SA0888
SA0889	1010350	1010595	-	SA0889
SA0890	1011007	1011363	-	SA0890
SA0891	1011851	1012810	+	SA0891
SA0892	1013051	1013266	-	SA0892
SA0893	1013431	1013982	+	SA0893
SA0894	1014034	1014972	-	SA0894
SA0895	1015154	1016515	+	SA0895
SA0896	1016502	1018175	+	menD
SA0897	1018162	1018965	+	SA0897
SA0898	1018958	1019779	+	menB
SA0899	1020017	1020346	-	sspC
SA0900	1020384	1021565	-	sspB
SA0901	1021647	1022675	-	sspA
SA0902	1023203	1024357	-	SA0902
SA0903	1024553	1025563	-	SA0903
SA0904	1025716	1026135	+	SA0904
SA0905	1026342	1030088	-	atl
SA0906	1030316	1030750	-	SA0906
SA0907	1030905	1031375	-	SA0907
SA0908	1031423	1032640	-	SA0908
SA0909	1033091	1034284	+	fmtA
SA0910	1034821	1035111	-	SA0910
SA0911	1035108	1035713	-	qoxC
SA0912	1035703	1037691	-	qoxB
SA0913	1037691	1038791	-	SA0913
SA0914	1039362	1039679	-	SA0914
SA0915	1040543	1041403	-	folD
SA0916	1041604	1042086	+	SA0916
SA0917	1042073	1043197	+	purK
SA0918	1043201	1043905	+	purC
SA0919	1043905	1044168	+	SA0919
SA0920	1044170	1044841	+	purQ
SA0921	1044834	1047023	+	purL
SA0922	1047002	1048486	+	purF
SA0923	1048479	1049507	+	purM
SA0924	1049510	1050076	+	purN
SA0925	1050088	1051569	+	purH
SA0926	1051699	1052838	+	purD
SA0927	1053106	1053912	-	SA0927
SA0928	1053905	1055305	-	SA0928
SA0929	1055320	1055895	-	SA0929
SA0930	1056358	1056567	+	SA0930
SAS030	1056731	1056865	-	SAS030
SA0931	1057017	1058312	+	SA0931
SA0932	1058737	1059909	+	SA0932
SA0933	1059963	1060505	+	SA0933
SA0934	1060659	1060925	+	ptsH
SA0935	1060928	1062646	+	ptsI
SA0936	1062883	1063116	-	SA0936
SA0937	1063314	1064675	+	SA0937
SA0938	1064672	1065691	+	SA0938
SA0939	1065824	1066486	+	SA0939
SA0940	1066732	1068429	-	SA0940
SA0941	1068429	1068599	-	SA0941
SA0942	1069129	1069680	-	pdf1
SA0943	1070045	1070671	+	SA0943
SA0943-1	1070842	1071954	+	pdhA
SA0944	1071958	1072935	+	pdhB
SA0945	1073026	1074318	+	pdhC
SA0946	1074322	1075728	+	pdhD
SA0947	1075896	1076171	+	SA0947
SA0949	1076315	1076854	+	SA0949
SA0950	1076867	1077961	+	potA
SA0951	1077954	1078751	+	potB
SA0952	1078757	1079566	+	potC
SA0953	1079566	1080639	+	potD
SA0954	1080713	1081732	+	SA0954
SA0955	1082015	1082434	+	SA0955
SA0956	1082513	1083865	-	SA0956
SA0957	1084049	1084663	-	SA0957
SA0958	1084820	1085647	+	SA0958
SAS031	1085801	1085992	-	SAS031
SA0959	1086094	1087941	+	SA0959
SAS032	1088081	1088248	-	SAS032
SA0960	1088250	1088732	-	SA0960
SA0961	1088873	1089148	+	SA0961
SA0962	1089567	1090688	+	SA0962
SA0963	1091242	1094694	+	pycA
SA0964	1094834	1095745	-	SA0964
SA0965	1096182	1097096	+	ctaB
SA0966	1097121	1097582	+	SA0966
SA0967	1097909	1098946	+	SA0967
SA0968	1098962	1099396	+	SA0968
SA0969	1099459	1100385	-	SA0969
SA0970	1100624	1100878	+	SA0970
SA0971	1100881	1101270	-	SA0971
SA0972	1101340	1101882	+	SA0972
SA0973	1101884	1102366	+	SA0973
SA0974	1102428	1103567	-	SA0974
SA0975	1103694	1104251	+	SA0975
SAS033	1104331	1104504	+	rpmF
SA0976	1104658	1106595	-	isdB
SA0977	1106798	1107850	-	isdA
SA0978	1108059	1108742	+	isdC
SA0979	1108742	1109818	+	isdD
SA0980	1109815	1110693	+	isdE
SA0981	1110850	1111671	+	isdF
SA0982	1111733	1112467	+	srtB
SA0983	1112495	1112809	+	isdG
SA0984	1113193	1113933	+	SA0984
SA0985	1114313	1115371	+	pheS
SA0986	1115371	1117773	+	pheT
SA0987	1118205	1119143	-	SA0987
SA0988	1119513	1119779	+	SA0988
SA0989	1119780	1120301	+	SA0989
SA0990	1120374	1122086	+	SA0990
SA0991	1122096	1124444	+	mutS2
SA0992	1124617	1124931	+	trxA
SA0993	1125255	1127036	+	uvrC
SA0994	1127360	1127974	+	sdhC
SA0995	1128026	1129792	+	sdhA
SA0996	1129792	1130607	+	sdhB
SA0997	1130843	1131643	+	murI
SA0998	1131655	1132242	+	SA0998
SA0999	1132235	1132738	+	SA0999
SAS034	1132896	1133033	+	SAS034
SA1000	1133227	1133556	+	SA1000
SA1001	1133925	1134326	-	SA1001
SA1002	1134996	1135502	+	SA1002
SA1003	1135762	1136259	+	SA1003
SA1004	1136409	1136759	+	SA1004
SAS035	1137525	1137710	-	SAS035
SA1005	1138332	1138565	-	SA1005
SA1006	1139084	1140403	+	SA1006
SA1007	1140562	1141521	-	SA1007
SA1008	1142324	1142521	+	SA1008
SAS036	1142748	1142879	-	SAS036
SA1009	1143011	1143727	-	SA1009
SA1010	1143835	1144560	-	SA1010
SA1011	1144655	1145380	-	SA1011
SA1012	1145818	1146819	+	argF
SA1013	1146842	1147774	+	SA1013
SA1014	1147946	1149502	+	SA1014
SA1015	1149809	1150036	+	SA1015
SA1016	1150342	1151289	-	SA1016
SA1017	1151538	1151726	+	SA1017
SA1018	1153089	1153775	+	SA1018
SA1019	1153884	1154324	-	SA1019
SA1020	1154519	1156132	+	SA1020
SA1021	1156276	1156707	+	SA1021
SA1022	1156723	1157658	+	SA1022
SA1023	1157672	1158073	+	ftsL
SA1024	1158054	1160288	+	pbpA
SA1025	1160580	1161545	+	mraY
SA1026	1161547	1162896	+	murD
SA1027	1162912	1164231	+	div1b
SA1028	1164337	1165749	+	ftsA
SA1029	1165782	1166954	+	ftsZ
SA1030	1167214	1168005	+	SA1030
SA1031	1168023	1168697	+	SA1031
SA1032	1168694	1169257	+	SA1032
SA1033	1169269	1169559	+	SA1033
SA1034	1169810	1170448	+	SA1034
SA1035	1170472	1171089	+	SA1035
SA1036	1171310	1174063	+	ileS
SA1037	1174354	1175151	+	SA1037
SA1038	1175212	1175424	-	truncated(tnp)
SA1039	1175975	1176466	+	lsp
SA1040	1176466	1177383	+	SA1040
SA1041	1177783	1178310	+	pyrR
SA1042	1178528	1179835	+	pyrP
SA1043	1179863	1180744	+	pyrB
SA1044	1180762	1182036	+	pyrC
SA1045	1182038	1183138	+	pyrAA
SA1046	1183131	1186304	+	pyrAB
SA1047	1186414	1187106	+	pyrF
SA1048	1187106	1187717	+	pyrE
SA1049	1187747	1187959	+	SA1049
SA1050	1188396	1188797	+	SA1050
SA1051	1189060	1190757	-	SA1051
SA1052	1191032	1191655	+	gmk
SA1053	1191655	1191873	+	SA1053
SA1054	1192089	1193288	+	SA1054
SA1055	1193288	1195696	+	priA
SA1056	1196202	1197155	+	SA1056
SA1057	1197318	1197521	-	SA1057
SA1058	1197820	1198308	+	SA1058
SA1059	1198301	1199236	+	SA1059
SA1060	1199155	1200540	+	SA1060
SA1061	1200543	1201637	+	SA1061
SA1062	1201644	1202387	+	SA1062
SA1063	1202384	1204378	+	SA1063
SA1064	1204606	1205481	+	SA1064
SA1065	1205482	1206126	+	cfxE
SA1066	1206133	1206774	+	SA1066
SA1067	1207155	1207343	-	rpmB
SA1068	1207786	1208160	+	SA1068
SA1069	1208175	1209821	+	SA1069
SA1070	1210011	1212071	+	recG
SA1071	1212289	1212846	+	SA1071
SA1072	1212851	1213837	+	plsX
SA1073	1213830	1214756	+	fabD
SA1074	1214743	1215483	+	fabG
SA1075	1215918	1216151	+	hmrB
SA1076	1216267	1216998	+	rnc
SA1077	1217145	1220711	+	smc
SA1078	1220711	1221961	+	SA1078
SA1079	1221948	1222280	+	SA1079
SA1080	1222306	1223673	+	ffh
SA1081	1224108	1224383	+	rpsP
SA1082	1224571	1225074	+	rimM
SA1083	1225074	1225811	+	trmD
SA1084	1225914	1226264	+	rplS
SA1085	1226508	1229114	-	SA1085
SA1086	1229515	1230399	+	SA1086
SA1087	1230383	1231150	+	rnhB
SA1088	1231259	1232425	+	sucC
SA1089	1232447	1233355	+	sucD
SA1090	1233582	1234700	+	lytN
SA1091	1234728	1235972	+	fmhC(eprh)
SA1092	1236145	1237017	+	SA1092
SA1093	1237197	1239266	+	SA1093
SA1094	1239422	1240729	+	gid
SA1095	1241147	1242043	+	xerC
SA1096	1242040	1242585	+	clpQ
SA1097	1242651	1244054	+	clpY
SA1098	1244079	1244852	+	codY
SA1099	1245199	1245966	+	rpsB
SA1100	1246148	1247029	+	SA1100
SA1101	1247166	1247888	+	smbA
SA1102	1247907	1248461	+	frr
SA1103	1248834	1249604	+	uppS
SA1104	1249611	1250393	+	cdsA
SA1105	1250605	1251891	+	SA1105
SA1106	1251911	1253614	+	proS
SA1107	1253872	1258188	+	polC
SA1108	1258478	1258945	+	SA1108
SA1109	1258966	1260141	+	nusA
SA1110	1260162	1260446	+	SA1110
SA1111	1260443	1260760	+	SA1111
SA1112	1260765	1262882	+	infB
SA1113	1263268	1263618	+	rbfA
SA1114	1263787	1264704	+	truB
SA1115	1264719	1265690	+	ribC
SA1116	1265805	1266074	+	rpsO
SA1117	1266443	1268539	+	pnpA
SA1118	1268775	1270448	+	SA1118
SA1119	1270705	1273071	+	spoIIIE
SA1120	1273076	1273789	+	SA1120
SA1121	1273820	1275085	+	SA1121
SA1122	1275085	1276371	+	SA1122
SA1123	1276371	1277075	+	SA1123
SA1124	1277180	1278007	+	SA1124
SA1125	1278026	1278418	+	SA1125
SA1126	1278452	1279030	+	pgsA
SA1127	1279254	1280405	+	cinA
SA1128	1280570	1281613	+	recA
SA1129	1281967	1283526	+	SA1129
SAS037	1283823	1283993	-	SAS037
SA1130	1284212	1285009	+	SA1130
SA1131	1285149	1286909	+	SA1131
SA1132	1286910	1287776	+	SA1132
SA1133	1287870	1288163	+	SA1133
SA1134	1288297	1289841	+	SA1134
SA1135	1289842	1290207	+	SA1135
SA1136	1290234	1290725	+	SA1136
SA1137	1291028	1293646	+	mutS
SA1138	1293659	1295668	+	mutL
SA1139	1295683	1296216	+	glpP
SAS038	1296253	1296342	-	SAS038
SA1140	1296691	1297509	+	glpF
SA1141	1297638	1299134	+	glpK
SA1142	1299244	1300965	+	glpD
SA1143	1301115	1302029	+	SA1143
SA1144	1302047	1302982	+	miaA
SA1145	1302997	1303230	+	SA1145
SA1146	1303452	1303928	-	bsaA
SA1147	1304040	1305278	+	SA1147
SA1148	1305297	1306535	+	SA1148
SA1149	1306778	1307146	+	glnR
SA1150	1307165	1308505	+	glnA
SA1151	1310400	1310606	+	SA1151
SA1152	1311840	1312025	+	SA1152
SA1153	1312768	1313019	+	SA1153
SAS039	1313742	1313936	+	SAS039
SA1154	1314480	1315505	-	SA1154
SAS040	1315775	1315972	+	SAS040
SA1155	1315993	1317510	+	SA1155
SA1156	1317694	1318593	+	SA1156
SA1157	1318562	1319293	+	SA1157
SA1158	1319297	1320388	+	SA1158
SA1159	1320385	1320987	+	SA1159
SAS041	1321100	1321288	-	SAS041
SA1160	1321427	1321960	+	nuc
SA1161	1322105	1322959	-	SA1161
SA1162	1323275	1323865	+	SA1162
SA1163	1323919	1325301	-	SA1163
SA1164	1325492	1326772	+	dhoM
SA1165	1326778	1327839	+	thrC
SA1166	1327841	1328755	+	thrB
SA1167	1328813	1329616	+	SA1167
SA1168	1329909	1330223	-	SA1168
SA1169	1330441	1331895	-	SA1169
SA1170	1332093	1333616	+	katA
SAS042	1333707	1333856	+	rpmG
SA1171	1334310	1334579	+	rpsN
SA1172	1334736	1335713	+	SA1172
SA1173	1335735	1336751	+	SA1173
SA1174	1337131	1337754	-	lexA
SA1175	1337897	1338130	+	SA1175
SA1176	1338267	1338506	+	SA1176
SA1177	1338627	1340615	+	tkt
SA1178	1340893	1341135	+	SA1178
SA1179	1341314	1341781	+	SA1179
SA1180	1341905	1343026	+	SA1180
SA1181	1343030	1346059	+	SA1181
SA1182	1346130	1346492	-	mscL
SA1183	1346696	1348342	+	opuD
SA1184	1349289	1351994	+	citB
SA1185	1352174	1352641	+	SA1185
SA1186	1352848	1353144	-	SA1186
SA1187	1353520	1354128	-	SA1187
SA1188	1354328	1356325	+	parE
SA1189	1356325	1358727	+	parC
SA1190	1358977	1360437	+	alsT
SA1191	1360937	1361788	+	glcT
SAS043	1361835	1361930	+	SAS043
SA1192	1361923	1363131	+	SA1192
SA1193	1363612	1366134	+	fmtC
SA1194	1366337	1366846	-	msrA
SA1195	1366983	1367966	+	msrR
SAS044	1368054	1368242	-	SAS044
SA1196	1368387	1369649	+	SA1196
SA1197	1369786	1370877	-	tyrA
SA1198	1371042	1372073	+	SA1198
SA1199	1372565	1373971	+	SA1199
SA1200	1373968	1374534	+	trpG
SA1201	1374540	1375538	+	trpD
SA1202	1375540	1376322	+	trpC
SA1203	1376322	1376954	+	trpF
SA1204	1376947	1378161	+	trpB
SA1205	1378154	1378882	+	trpA
SA1206	1379204	1380466	+	femA
SA1207	1380485	1381744	+	femB
SA1208	1382033	1382779	+	SA1208
SA1209	1383009	1383776	+	SA1209
SA1210	1383824	1384297	-	SA1210
SA1211	1384421	1385122	-	opp-2F
SA1212	1385115	1385888	-	opp-2D
SA1213	1385875	1386705	-	opp-2C
SA1214	1386698	1387684	-	opp-2B
SA1215	1387988	1388332	-	SA1215
SA1216	1388537	1390351	+	SA1216
SA1217	1390491	1391132	-	SA1217
SA1218	1391139	1391990	-	pstB
SA1219	1392037	1392954	-	SA1219
SA1220	1392956	1393882	-	SA1220
SA1221	1394073	1395056	-	SA1221
SA1222	1395599	1395895	+	truncated-SA
SA1223	1396031	1396933	-	SA1223
SA1224	1397080	1398681	+	SA1224
SA1225	1399743	1400948	+	lysC
SA1226	1401012	1402001	+	asd
SA1227	1402003	1402890	+	dapA
SA1228	1402887	1403609	+	dapB
SA1229	1403636	1404355	+	dapD
SA1230	1404498	1405649	+	SA1230
SA1231	1405654	1406739	+	SA1231
SA1232	1406729	1407994	+	lysA
SA1233	1408234	1408635	-	SA1233
SA1234	1408832	1409032	-	cspA
SA1235	1409203	1409511	-	SA1235
SA1236	1409674	1409943	+	SA1236
SA1237	1409968	1410591	+	SA1237
SA1238	1410623	1411759	+	SA1238
SA1239	1411832	1413175	-	braB
SA1240	1413401	1415287	-	SA1240
SA1241	1415301	1416092	-	SA1241
SA1242	1416273	1416476	-	SA1242
SA1243	1416505	1417314	-	SA1243
SA1244	1417894	1419162	-	odhB
SA1245	1419176	1421908	-	odhA
SA1246	1422192	1423547	-	arlS
SA1247	1423544	1423789	-	truncated-arlR
SA1248	1423786	1424187	-	truncated-arlR
SA1249	1424658	1424858	-	SA1249
SA1250	1424975	1425589	-	SA1250
SA1251	1425606	1426676	-	murG
SA1252	1426688	1427197	-	SA1252
SA1253	1427597	1429087	-	ctpA
SA1254	1429279	1429500	-	SA1254
SA1255	1429500	1430000	-	SA1255
SA1256	1430012	1430440	-	SA1256
SA1257	1430433	1430966	-	SA1257
SA1258	1431052	1431891	-	SA1258
SA1259	1431906	1432385	-	dfrA
SA1260	1432585	1433541	-	thyA
SA1261	1433965	1434402	-	SA1261
SA1262	1434418	1435542	-	SA1262
SA1263	1435580	1435831	-	SA1263
SA1264	1435843	1436028	-	SA1264
SA1265	1436282	1436986	+	SA1265
SA1266	1437468	1437869	+	SA1266
SA1267	1437928	1458069	-	ebhA
SA1268	1458130	1469802	-	ebhB
SA1269	1470200	1471591	-	SA1269
SA1270	1471747	1473069	-	SA1270
SA1271	1473100	1474140	-	SA1271
SA1272	1474235	1475353	-	SA1272
SA1273	1475829	1476707	-	SA1273
SA1274	1476727	1480167	-	SA1274
SA1275	1480471	1481811	+	SA1275
SA1276	1482017	1482349	-	SA1276
SA1277	1482433	1483578	-	SA1277
SA1278	1484012	1484128	-	SA1278
SA1279	1484229	1484573	-	SA1279
SA1280	1484587	1485150	-	SA1280
SA1281	1485143	1485493	-	SA1281
SA1282	1486033	1486659	+	recU
SA1283	1486656	1488839	+	pbp2
SA1284	1489405	1489746	-	SA1284
SA1285	1489751	1490410	-	nth
SA1286	1490400	1491086	-	SA1286
SA1287	1491414	1492706	-	asnS
SA1288	1493028	1495721	-	dinG
SA1289	1495745	1496716	-	SA1289
SA1290	1496703	1497905	-	SA1290
SA1291	1497910	1499052	-	SA1291
SA1292	1499296	1499613	-	SA1292
SA1293	1499949	1500647	-	SA1293
SA1294	1500701	1501288	-	SA1294
SA1295	1501278	1501853	-	SA1295
SA1296	1501867	1503111	-	SA1296
SA1297	1503118	1504416	-	aroA
SA1298	1504426	1505490	-	aroB
SA1299	1505516	1506682	-	aroC
SA1300	1507068	1507268	-	SA1300
SAS045	1507297	1507422	-	SAS045
SA1301	1507477	1507926	-	ndk
SA1302	1508018	1508977	-	gerCC
SA1303	1508979	1509704	-	gerCB
SA1304	1509707	1510279	-	SA1304
SA1305	1510710	1510982	-	hu
SA1306	1511153	1512151	-	gpsA
SA1307	1512168	1513478	-	SA1307
SA1308	1513700	1514875	-	SA1308
SAS046	1515404	1515481	-	SAS046
SA1309	1515587	1516246	-	cmk
SA1310	1516323	1517291	+	ansA
SA1311	1517406	1518392	-	SA1311
SA1312	1518794	1520254	-	ebpS
SA1313	1520407	1521786	-	SA1313
SA1314	1521776	1522729	-	SA1314
SA1315	1522837	1523085	+	fer
SA1316	1523191	1523736	-	SA1316
SA1317	1524138	1525094	-	SA1317
SA1318	1525565	1526461	-	SA1318
SA1319	1526519	1527424	-	SA1319
SA1320	1527514	1529676	-	SA1320
SA1321	1529669	1530535	-	SA1321
SA1322	1530839	1532605	-	srrB
SA1323	1532571	1533296	-	srrA
SA1324	1533429	1534166	-	rluB
SA1325	1534159	1534701	-	SA1325
SA1326	1534694	1535449	-	SA1326
SA1327	1535517	1536023	+	SA1327
SA1328	1536101	1536988	-	xerD
SA1329	1537037	1537486	-	SA1329
SA1330	1537591	1538133	-	SA1330
SA1331	1538215	1539123	+	SA1331
SA1332	1539339	1539587	-	SA1332
SA1333	1539603	1540358	-	SA1333
SA1334	1540500	1541315	+	SA1334
SA1335	1541418	1542338	-	SA1335
SA1336	1542651	1544135	+	SA1336
SA1337	1544365	1545231	+	SA1337
SA1338	1545313	1546962	-	malA
SA1339	1546978	1547997	-	malR
SA1340	1548191	1548562	-	SA1340
SA1341	1549029	1550246	-	SA1341
SA1342	1550562	1551968	-	gnd
SA1343	1552036	1553169	-	SA1343
SA1344	1553738	1554718	-	SA1344
SA1345	1554732	1555169	-	SA1345
SA1346	1555520	1556794	-	bmfBB
SA1347	1556807	1557790	-	bfmBAB
SA1348	1557790	1558782	-	bfmBAA
SA1349	1558798	1560219	-	SA1349
SA1350	1560370	1562049	-	recN
SA1351	1562065	1562517	-	ahrC
SA1352	1562949	1563830	-	ispA
SA1353	1563808	1564038	-	SA1353
SA1354	1564031	1565368	-	SA1354
SA1355	1565385	1565774	-	SA1355
SA1356	1565834	1566196	-	SA1356
SA1357	1566211	1567566	-	accC
SA1358	1567566	1568030	-	accB
SA1359	1568504	1569061	-	SA1359
SA1360	1569087	1570148	-	SA1360
SA1361	1570253	1570834	+	SA1361
SA1362	1570848	1571066	+	SA1362
SA1363	1571130	1571960	-	SA1363
SA1364	1572118	1572504	+	SA1364
SA1365	1572869	1574341	-	SA1365
SA1366	1574334	1575680	-	SA1366
SA1367	1575700	1576791	-	SA1367
SA1368	1576950	1577474	-	SA1368
SA1369	1577707	1578204	-	SA1369
SA1370	1578122	1578421	-	SA1370
SA1371	1578408	1578842	-	SA1371
SA1372	1578832	1579143	-	SA1372
SA1373	1579157	1580227	-	SA1373
SA1374	1580199	1581173	-	SA1374
SA1375	1581225	1581848	-	SA1375
SA1376	1581845	1582174	-	SA1376
SA1377	1582174	1583160	-	glcK
SA1378	1583157	1583360	-	SA1378
SA1379	1583341	1584804	-	SA1379
SA1380	1584816	1585355	-	SA1380
SAS047	1585564	1585713	-	rpmG
SA1381	1585826	1587901	-	pbp3
SA1382	1588022	1588621	-	sodA
SA1383	1588897	1589307	-	SA1383
SA1384	1589294	1590157	-	SA1384
SA1385	1590199	1590966	-	SA1385
SA1386	1591110	1592000	-	SA1386
SA1387	1592010	1593356	-	SA1387
SA1388	1593470	1594570	-	SA1388
SA1389	1594573	1595250	-	SA1389
SA1390	1595381	1596487	-	sigA
SA1391	1596711	1598528	-	dnaG
SA1392	1598589	1599407	-	SA1392
SA1393	1599418	1600041	-	SA1393
SA1394	1600376	1601767	+	glyS
SA1395	1601917	1602669	-	SA1395
SA1396	1602691	1603590	-	bex
SA1397	1603591	1603995	-	cdd
SA1398	1604006	1604350	-	SA1398
SA1399	1604353	1604820	-	SA1399
SA1400	1604821	1605768	-	phoH
SA1401	1606072	1606770	-	SA1401
SA1402	1606787	1607776	-	SA1402
SA1403	1607794	1608501	-	SA1403
SA1404	1608721	1608897	-	rpsU
SA1405	1609190	1610536	-	SA1405
SA1406	1610543	1611295	-	SA1406
SA1407	1611297	1612235	-	SA1407
SA1408	1612239	1613378	-	dnaJ
SA1409	1613514	1615346	-	dnaK
SA1410	1615415	1616041	-	grpE
SA1411	1616073	1617050	-	hrcA
SA1412	1617151	1618275	-	hemN
SAS048	1618552	1618710	+	SAS048
SA1413	1618841	1620664	-	lepA
SA1414	1621010	1621261	+	rpsT
SA1415	1621306	1622280	-	SA1415
SA1416	1622337	1624538	-	SA1416
SA1417	1624543	1625004	-	comEB
SA1418	1625096	1625773	-	SA1418
SA1419	1625822	1626538	-	SA1419
SA1420	1626541	1626894	-	SA1420
SA1421	1626895	1627479	-	SA1421
SA1422	1627469	1628038	-	SA1422
SA1423	1628041	1628331	-	SA1423
SA1424	1628335	1629141	-	aroE
SA1425	1629155	1630255	-	SA1425
SA1426	1630256	1630783	-	SA1426
SA1427	1630803	1631489	-	pfs
SA1428	1631803	1632072	+	SA1428
SA1429	1632274	1632462	-	SA1429
SA1430	1632611	1633084	-	SA1430
SA1431	1633791	1635011	-	SA1431
SA1432	1635300	1636529	-	SA1432
SA1433	1636542	1637294	-	SA1433
SA1434	1637294	1638655	-	SA1434
SA1435	1638669	1639118	-	SA1435
SA1436	1639120	1640130	-	SA1436
SA1437	1640120	1640854	-	SA1437
SA1438	1641180	1641656	-	greA
SA1439	1641684	1642307	-	udk
SA1440	1642307	1643575	-	SA1440
SA1441	1643587	1644510	-	SA1441
SA1442	1644513	1645151	-	SA1442
SA1443	1645436	1645744	-	SA1443
SA1444	1645759	1646130	-	SA1444
SA1445	1646191	1646451	-	SA1445
SA1446	1646514	1649144	-	alaS
SA1447	1649487	1651964	-	SA1447
SA1448	1651966	1652634	-	SA1448
SA1449	1653329	1654447	-	SA1449
SA1450	1654448	1655590	-	SA1450
SA1451	1655902	1656915	+	SA1451
SAS049	1657152	1657298	-	SAS049
SA1452	1657338	1657520	-	csbD
SA1453	1657620	1658042	-	SA1453
SA1454	1658127	1659401	+	SA1454
SA1455	1659562	1660335	-	SA1455
SAS050	1660549	1660650	-	SAS050
SA1456	1660796	1662562	-	aspS
SA1457	1662578	1663840	-	hisS
SA1458	1664301	1665176	-	lytH
SA1459	1665173	1665625	-	SA1459
SA1460	1665637	1667826	-	relA
SA1461	1668254	1668772	-	apt
SA1462	1668794	1671067	-	SA1462
SA1463	1671270	1673549	-	secF
SA1464	1673824	1674084	-	SA1464
SA1465	1674103	1675242	-	tgt
SA1466	1675265	1676290	-	queA
SA1467	1676292	1677296	-	ruvB
SA1468	1677328	1677930	-	ruvA
SA1469	1677944	1678402	-	SA1469
SA1470	1678412	1679704	-	obg
SA1471	1680058	1680342	-	rpmA
SA1472	1680354	1680674	-	SA1472
SA1473	1680680	1680988	-	rplU
SA1474	1681224	1681754	-	SA1474
SA1475	1681754	1682596	-	SA1475
SA1476	1682988	1683461	-	SA1476
SA1477	1683621	1683818	+	SA1477
SA1478	1683935	1684219	-	SA1478
SA1479	1684668	1685330	-	SA1479
SA1480	1685864	1686595	+	ermA
SA1481	1686721	1687503	-	ant(9)
SA1482	1687654	1688031	-	tnpC
SA1483	1688038	1689930	-	tnpB
SA1484	1689927	1691012	-	tnpA
SA1485	1691131	1691685	-	truncated(radC)
SA1486	1691682	1692389	-	SA1486
SA1487	1692659	1693930	-	folC
SA1488	1693943	1696573	-	valS
SA1489	1696976	1697536	+	tag
SA1490	1697759	1698832	-	SA1490
SAS051	1698866	1698955	-	SAS051
SA1491	1699028	1700314	-	hemL
SA1492	1700362	1701336	-	hemB
SA1493	1701339	1702007	-	hemD
SA1494	1702029	1702955	-	hemC
SA1495	1702997	1703812	-	hemX
SA1496	1703834	1705180	-	hemA
SA1497	1705397	1705987	-	SA1497
SA1498	1706141	1707403	-	clpX
SA1499	1707554	1708855	-	tig
SA1500	1709018	1709947	-	SA1500
SA1501	1709966	1710574	-	SA1501
SA1502	1710716	1711072	-	rplT
SA1503	1711119	1711319	-	rpmI
SA1504	1711348	1711866	-	infC
SA1505	1712104	1713597	-	lysP
SA1506	1714023	1715960	-	thrS
SA1507	1716373	1717293	-	dnaI
SA1508	1717293	1718693	-	dnaB
SA1509	1718694	1719164	-	SA1509
SA1510	1719375	1720400	-	gapB
SA1511	1720570	1721193	-	SA1511
SA1512	1721209	1722081	-	SA1512
SA1513	1722097	1724727	-	polA
SA1514	1725021	1726508	-	SA1514
SA1515	1727007	1728671	-	phoR
SA1516	1728668	1729372	-	phoP
SA1517	1729762	1731030	-	citC
SA1518	1731079	1732200	-	citZ
SA1519	1732548	1733909	+	aapA
SA1520	1734257	1736014	-	pykA
SA1521	1736036	1736959	-	pfk
SA1522	1737273	1738217	-	accA
SA1523	1738217	1739074	-	SA1523
SA1524	1739269	1740498	-	SA1524
SA1525	1740948	1744145	-	dnaE
SA1526	1744166	1745107	-	SA1526
SA1527	1745419	1746717	-	SA1527
SA1528	1746922	1747335	+	SA1528
SA1529	1747640	1748329	-	SA1529
SA1530	1748483	1749559	+	SA1530
SA1531	1749875	1750993	-	ald
SA1532	1751134	1751634	+	SA1532
SA1533	1751880	1753082	-	ackA
SA1534	1753170	1754117	-	SA1534
SA1535	1754240	1754734	-	SA1535
SA1536	1754832	1755602	-	SA1536
SA1537	1755646	1756869	-	SA1537
SA1538	1756869	1758008	-	SA1538
SA1539	1758381	1760075	-	SA1539
SA1540	1760212	1760676	+	SA1540
SAS052	1760920	1761522	+	rpsD
SA1541	1761714	1763033	+	tnp
SA1542	1763258	1764001	-	SA1542
SA1543	1764081	1764527	+	SA1543
SA1544	1764642	1765799	+	SA1544
SA1545	1765786	1767390	+	serA
SA1546	1767540	1768670	-	SA1546
SA1547	1768777	1770243	-	ptaA
SA1548	1770371	1770988	-	SA1548
SA1549	1771160	1772434	+	SA1549
SA1550	1772528	1773790	-	tyrS
SA1551	1774172	1775077	+	sgtA
SA1552	1775280	1777955	-	SA1552
SA1553	1778288	1779955	-	fhs
SA1554	1780395	1782101	-	acsA
SA1555	1782270	1782902	+	acuA
SA1556	1782927	1784096	+	acuC
SA1557	1784194	1785138	-	ccpA
SA1558	1785723	1786814	-	SA1558
SA1559	1787508	1788866	-	SA1559
SA1560	1788940	1789431	-	SA1560
SA1561	1789505	1790818	-	murC
SA1562	1790842	1794666	-	SA1562
SA1563	1794687	1795283	-	SA1563
SA1564	1795312	1796169	-	SA1564
SA1565	1796269	1796580	-	SA1565
SA1566	1796645	1797721	-	SA1566
SA1567	1797808	1798119	+	SA1567
SA1568	1798244	1799086	-	SA1568
SA1569	1799557	1800201	-	SA1569
SA1570	1800216	1801007	-	SA1570
SA1571	1801557	1802405	-	SA1571
SA1572	1802409	1803818	-	SA1572
SA1573	1804376	1804798	-	SA1573
SA1574	1804815	1805510	-	SA1574
SA1575	1805507	1807168	-	SA1575
SA1576	1807575	1808843	+	SA1576
SA1577	1808960	1815520	-	SA1577
SA1578	1815846	1816157	-	SA1578
SA1579	1816179	1818593	-	leuS
SA1580	1818884	1820065	-	SA1580
SA1581	1820175	1821128	+	SA1581
SA1582	1821125	1821688	+	SA1582
SA1583	1821811	1822272	-	rot
SA1584	1822783	1823610	-	SA1584
SA1585	1823844	1824845	+	SA1585
SA1586	1824967	1825431	-	ribH
SA1587	1825444	1826625	-	ribA
SA1588	1826636	1827268	-	ribB
SA1589	1827275	1828318	-	ribD
SA1590	1828799	1830301	-	SA1590
SA1591	1830824	1831138	+	SA1591
SA1592	1831138	1832430	+	SA1592
SA1593	1832517	1833371	-	SA1593
SA1594	1833647	1833871	-	SA1594
SA1595	1834070	1834540	+	SA1595
SA1596	1834653	1835096	+	SA1596
SA1597	1835083	1835526	-	SA1597
SA1598	1835822	1836457	+	SA1598
SA1599	1836897	1837610	-	SA1599
SA1600	1837870	1838172	+	SA1600
SA1601	1838350	1838793	+	SA1601
SA1602	1838790	1839143	+	SA1602
SA1603	1839605	1839955	+	truncated-SA
SA1604	1840131	1840379	+	truncated-SA
SA1605	1840298	1841077	+	truncated-SA
SA1606	1841140	1841973	-	SA1606
SA1607	1842185	1843096	-	SA1607
SA1608	1843215	1844411	-	metK
SA1609	1844783	1846375	+	pckA
SA1610	1846499	1846675	+	SA1610
SA1611	1846753	1847523	-	SA1611
SA1612	1847504	1847983	-	SA1612
SA1613	1848043	1848300	+	SA1613
SA1614	1848297	1849298	-	menC
SA1615	1849303	1850781	-	menE
SA1616	1850940	1851422	-	SA1616
SA1617	1851734	1852348	+	SA1617
SA1618	1852429	1853424	+	SA1618
SA1619	1853499	1854125	+	SA1619
SA1620	1854166	1854507	+	SA1620
SA1621	1854608	1855180	+	SA1621
SA1622	1855378	1855947	-	truncated-SA
SA1623	1855969	1856223	-	truncated-SA
SA1624	1856978	1857478	-	tnp
SA1625	1857930	1859159	-	SA1625
SA1626	1859152	1860708	-	SA1626
SA1627	1861069	1861788	-	splF
SA1628	1861946	1862665	-	splD
SA1629	1862786	1863505	-	splC
SA1630	1863563	1864285	-	splB
SA1631	1864410	1865117	-	splA
SA1632	1865553	1865771	-	SA1632
SA1633	1866080	1866661	+	SA1633
SA1634	1867134	1867412	-	truncated-SA
SA1635	1867608	1868081	+	SA1635
SA1636	1868086	1868877	+	SA1636
SA1637	1869247	1870230	-	lukD
SA1638	1870232	1871167	-	lukE
SA1639	1872531	1873319	+	SA1639
SA1640	1874153	1874647	+	SA1640
SA1641	1874982	1875758	+	SA1641
SA1642	1876310	1877086	-	seg
SA1643	1877369	1878145	-	sen
SA1644	1878163	1878573	-	yent2
SA1645	1878533	1878934	-	yent1
SA1646	1879088	1879816	-	sei
SA1647	1879851	1880570	-	sem
SA1648	1880851	1881633	-	seo
SA1649	1882993	1883547	-	SA1649
SA1650	1883870	1885270	-	hemY
SA1651	1885294	1886217	-	hemH
SA1652	1886275	1887312	-	hemE
SA1653	1887575	1888078	+	TRAP
SA1654	1888202	1889425	-	SA1654
SA1655	1889418	1890158	-	SA1655
SA1656	1890292	1890714	+	hit
SA1657	1890856	1891221	+	SA1657
SA1658	1891956	1892513	+	SA1658
SA1659	1892718	1893680	+	prsA
SA1660	1893801	1894742	-	cbf1
SA1661	1894739	1897675	-	SA1661
SA1662	1897665	1898861	-	SA1662
SA1663	1899789	1900133	-	SA1663
SA1664	1900202	1901326	-	SA1664
SA1665	1901505	1901969	-	SA1665
SA1666	1902325	1902948	-	SA1666
SA1667	1902970	1904082	-	SA1667
SA1668	1904245	1905066	+	SA1668
SA1669	1905519	1906904	-	citG
SA1670	1907100	1907495	-	SA1670
SAS053	1908043	1908195	-	SAS053
SA1671	1908220	1908819	-	SA1671
SA1672	1908978	1909448	-	SA1672
SA1673	1909453	1910580	-	SA1673
SA1674	1910731	1911459	-	SA1674
SA1675	1911446	1912771	-	SA1675
SA1676	1913161	1914222	-	SA1676
SA1677	1914806	1916125	+	tnp
SA1678	1924624	1925070	-	SA1678
SA1679	1925167	1926117	-	SA1679
SA1680	1926123	1926578	-	SA1680
SA1681	1926659	1927948	+	gsaB
SA1682	1928241	1929335	+	SA1682
SA1683	1929525	1931261	-	SA1683
SA1684	1931552	1932094	-	SA1684
SA1685	1932397	1933434	-	SA1685
SA1686	1933586	1934563	+	SA1686
SA1687	1934824	1935660	-	SA1687
SA1688	1935669	1937186	-	SA1688
SA1689	1937201	1937515	-	SA1689
SA1690	1937493	1938311	-	SA1690
SA1691	1938571	1939380	-	sgtB
SA1692	1939720	1940235	-	SA1692
SAS054	1940366	1940527	-	SAS054
SA1693	1940751	1941902	+	SA1693
SA1694	1942162	1942692	-	SA1694
SA1695	1942782	1944029	-	ampS
SA1696	1944041	1944247	-	SA1696
SA1697	1944388	1944852	+	SA1697
SA1698	1944859	1945134	+	SA1698
SA1699	1945412	1946629	+	SA1699
SA1700	1946742	1947371	-	vraR
SA1701	1947361	1948404	-	vraS
SA1702	1948401	1949102	-	SA1702
SA1703	1949117	1949503	-	SA1703
SA1704	1949720	1950478	-	map
SA1705	1951009	1951995	+	SA1705
SA1706	1952426	1952878	-	SA1706
SA1707	1953064	1953795	-	SA1707
SA1708	1953797	1955110	-	SA1708
SA1709	1955402	1955902	+	SA1709
SA1710	1956292	1956846	+	SA1710
SA1711	1956914	1957984	-	SA1711
SA1712	1958231	1958761	-	SA1712
SA1713	1958931	1960292	-	SA1713
SA1714	1960373	1961320	-	SA1714
SA1715	1962088	1963515	-	SA1715
SA1716	1963528	1964985	-	SA1716
SA1717	1964987	1965289	-	SA1717
SA1718	1965656	1967194	+	putP
SA1719	1967283	1968482	-	SA1719
SA1720	1968495	1970498	-	lig
SA1721	1970502	1972694	-	pcrA
SA1722	1972691	1973383	-	pcrB
SA1723	1973555	1973857	-	SA1723
SA1724	1973966	1975261	-	purB
SA1725	1976121	1977287	+	SA1725
SA1726	1977318	1977644	+	SA1726
SA1727	1978090	1978692	-	SA1727
SA1728	1978963	1979784	-	nadE
SA1729	1979777	1981246	-	SA1729
SA1730	1981430	1982506	+	SA1730
SA1731	1982526	1983320	+	SA1731
SA1732	1983510	1985072	-	SA1732
SA1733	1985277	1986374	-	SA1733
SA1734	1986743	1987303	+	SA1734
SA1735	1987356	1988285	+	SA1735
SA1736	1988703	1990082	+	aldH
SA1737	1990202	1991230	-	SA1737
SA1738	1991500	1991901	+	SA1738
SAS055	1991916	1992089	-	truncated-tnp
SAS056	1992474	1992647	-	SAS056
SA1739	1993098	1994138	+	SA1739
SA1740	1994195	1995037	-	SA1740
SA1741	1995034	1995591	-	SA1741
SA1742	1995651	1996175	-	SA1742
SA1743	1996296	1996859	+	SA1743
SA1744	1996925	1997665	-	SA1744
SA1745	1997665	1998537	-	SA1745
SA1746	1998534	1999214	-	SA1746
SA1747	1999215	2000111	-	SA1747
SA1748	2000108	2000488	-	SA1748
SAS057	2000746	2000922	-	SAS057
SA1749	2001463	2002749	+	SA1749
SA1750	2003028	2003348	-	truncated(mapW)
SA1751	2003333	2004763	-	truncated(mapW)
SA1752	2005149	2005349	+	truncated(hlb)
SAS058	2005721	2005900	+	SAS058
SA1753	2005924	2006211	+	SA1753
SA1754	2006528	2006878	-	SA1754
SA1755	2007561	2008010	+	SA1755
SA1756	2008105	2008311	-	truncated(lytA)
SA1757	2008308	2008571	-	truncated(lytA)
SA1758	2009086	2009577	-	sak
SA1759	2009768	2010523	-	SA1759
SA1760	2010535	2010789	-	SA1760
SAS059	2011001	2011135	-	SAS059
SA1761	2011380	2012162	-	sep
SAS060	2012271	2012447	-	SAS060
SA1762	2012574	2012948	-	SA1762
SA1763	2013004	2013333	-	SA1763
SAS061	2013337	2013489	-	SAS061
SA1764	2013482	2017264	-	SA1764
SA1765	2017280	2018764	-	SA1765
SA1766	2018761	2023290	-	SA1766
SA1767	2023535	2023885	-	SA1767
SA1768	2024201	2024845	-	SA1768
SA1769	2024846	2025253	-	SA1769
SA1770	2025250	2025654	-	SA1770
SA1771	2025651	2026013	-	SA1771
SA1772	2025997	2026281	-	SA1772
SA1773	2026271	2026555	-	SA1773
SA1774	2026575	2027720	-	SA1774
SA1775	2027744	2028481	-	SA1775
SA1776	2028465	2029652	-	SA1776
SA1777	2029668	2031329	-	SA1777
SA1778	2031326	2031670	-	SA1778
SA1779	2031802	2032101	-	SA1779
SA1780	2032333	2032749	-	SA1780
SA1781	2032777	2032980	-	SA1781
SAS062	2032977	2033126	-	SAS062
SA1782	2033123	2033329	-	SA1782
SA1783	2033326	2033562	-	SA1783
SA1784	2033608	2034144	-	SA1784
SA1785	2034141	2034389	-	SA1785
SA1786	2034401	2034649	-	SA1786
SA1787	2034646	2034903	-	SA1787
SA1788	2034903	2035274	-	SA1788
SA1789	2035287	2035691	-	SA1789
SA1790	2035700	2035918	-	SA1790
SA1791	2035925	2036818	-	SA1791
SA1792	2036848	2037318	-	SA1792
SA1793	2037319	2037804	-	SA1793
SA1794	2038017	2038937	-	SA1794
SA1795	2038939	2040882	-	SA1795
SA1796	2040891	2041154	-	SA1796
SA1797	2041163	2041423	-	SA1797
SA1798	2041428	2041730	-	SA1798
SAS063	2041825	2041986	-	SAS063
SA1799	2041983	2042306	-	SA1799
SA1800	2042361	2042741	+	SA1800
SAS064	2042728	2042925	-	SAS064
SA1801	2042941	2043693	-	SA1801
SA1802	2043744	2044073	+	SA1802
SA1803	2044062	2044277	-	SA1803
SA1804	2044293	2044556	-	SA1804
SA1805	2044690	2045403	+	SA1805
SA1806	2045419	2046351	+	SA1806
SA1807	2046902	2047084	+	SA1807
SA1808	2047184	2048167	+	SA1808
SA1809	2048178	2048420	+	SA1809
SA1810	2048483	2049520	+	int
SA1811	2049532	2050401	+	truncated(hlb)
SA1812	2050639	2051655	-	SA1812
SA1813	2051677	2052732	-	SA1813
SA1814	2053168	2054391	+	SA1814
SA1815	2054835	2056142	+	SA1815
SA1816	2057159	2057881	+	sel
SA1817	2058050	2058850	-	sec3
SA1818	2059637	2060197	+	SA1818
SA1819	2061076	2061780	+	tst
SA1820	2061935	2062504	-	SA1820
SA1821	2062501	2062842	-	SA1821
SA1822	2062845	2063372	-	SA1822
SA1823	2063423	2063641	-	SA1823
SA1824	2063659	2064237	-	SA1824
SA1825	2064249	2064590	-	SA1825
SA1826	2065040	2065681	-	SA1826
SA1827	2065678	2066058	-	SA1827
SA1828	2066368	2068077	-	SA1828
SA1829	2068091	2068960	-	SA1829
SA1830	2069025	2069351	-	SA1830
SA1831	2069354	2069563	-	SA1831
SA1832	2069699	2070016	-	SA1832
SA1833	2070021	2070239	-	SA1833
SA1834	2070412	2071086	+	SA1834
SA1835	2071100	2072272	+	int
SA1836	2072341	2073957	-	groEL
SA1837	2074033	2074317	-	groES
SA1838	2074492	2075235	+	SA1838
SA1839	2075260	2076507	-	SA1839
SA1840	2076704	2077330	+	SA1840
SA1841	2077691	2078476	+	SA1841
SAS065	2079076	2079210	-	hld
SA1842	2079446	2080009	+	agrB
SAS066	2080012	2080155	+	agrD
SA1843	2080353	2081468	+	agrC
SA1844	2081487	2082203	+	agrA
SA1845	2082572	2083531	-	SA1845
SA1846	2083528	2085012	-	scrB
SA1847	2085161	2086111	-	scrR
SA1848	2086294	2087544	-	nrgA
SA1849	2087752	2087976	-	SA1849
SA1850	2088036	2089115	-	SA1850
SA1851	2089419	2090054	-	SA1851
SA1852	2090307	2092235	+	vga
SA1853	2092597	2094207	+	SA1853
SA1854	2094522	2095547	-	SA1854
SA1855	2095540	2096004	-	SA1855
SA1856	2095977	2096666	-	SA1856
SA1857	2096620	2097081	-	SA1857
SA1858	2097592	2099280	+	ilvD
SA1859	2099308	2101077	+	ilvB
SA1860	2101077	2101331	+	SA1860
SA1861	2101468	2102472	+	ilvC
SA1862	2102502	2104031	+	leuA
SA1863	2104034	2105080	+	leuB
SA1864	2105094	2106464	+	leuC
SA1865	2106465	2107037	+	leuD
SA1866	2107052	2108320	+	ilvA
SA1867	2115118	2115573	-	SA1867
SA1868	2115566	2117716	-	SA1868
SA1869	2118150	2118920	-	sigB
SA1870	2118895	2119374	-	rsbW
SA1871	2119376	2119702	-	rsbV
SA1872	2119821	2120822	-	rsbU
SA1873	2121172	2121534	-	SA1873
SAS067	2121531	2121701	-	SAS067
SA1874	2121786	2122934	-	alr
SA1875	2123000	2123359	-	dpj
SA1876	2123363	2123854	-	SA1876
SA1877	2123841	2125424	-	SA1877
SA1878	2125417	2125896	-	SA1878
SA1879	2126104	2126664	-	kdpC
SA1880	2126684	2128711	-	kdpB
SA1881	2128730	2130406	-	kdpA
SA1882	2130678	2133335	+	kdpD
SA1883	2133335	2134030	+	kdpE
SA1884	2134414	2135733	-	tnp
SA1885	2135902	2137422	-	SA1885
SA1886	2137939	2139297	-	murF
SA1887	2139312	2140382	-	ddlA
SA1888	2140700	2141902	+	SA1888
SAS068	2142166	2142303	-	SAS068
SA1889	2142431	2142640	-	SA1889
SA1890	2142652	2142945	-	SA1890
SA1891	2143111	2144595	+	SA1891
SA1892	2144623	2145270	+	SA1892
SA1893	2146083	2146955	-	SA1893
SA1894	2147041	2147682	-	thiE
SA1895	2147684	2148475	-	thiM
SA1896	2148459	2149289	-	thiD
SA1897	2149282	2149971	-	SA1897
SA1898	2150358	2151053	-	SA1898
SA1899	2151442	2151837	-	SA1899
SA1900	2152031	2152471	+	SA1900
SA1901	2152530	2152970	-	SA1901
SA1902	2153004	2154269	-	murA
SA1903	2154380	2154613	-	SA1903
SA1904	2155175	2155579	-	atpC
SA1905	2155599	2157011	-	atpD
SA1906	2157033	2157899	-	atpG
SA1907	2157930	2159438	-	atpA
SA1908	2159460	2159999	-	atpH
SA1909	2159999	2160520	-	atpF
SA1910	2160718	2160930	-	atpE
SA1911	2160973	2161701	-	atpB
SA1912	2161722	2162075	-	SA1912
SA1913	2162242	2163372	-	mnaA
SA1914	2163393	2164022	-	upp
SA1915	2164050	2165288	-	glyA
SA1916	2165315	2165839	-	SA1916
SA1917	2165946	2166365	-	SA1917
SA1918	2166362	2167408	-	SA1918
SA1919	2167492	2168328	-	SA1919
SA1920	2168315	2169391	-	prfA
SA1921	2169392	2169991	-	tdk
SA1922	2170338	2170592	-	rpmE
SA1923	2170710	2172026	-	rho
SA1924	2172273	2173700	-	SA1924
SA1925	2173938	2174276	-	SA1925
SA1926	2174362	2175621	-	murZ
SA1927	2176087	2176947	-	fbaA
SA1928	2177165	2177686	+	SA1928
SA1929	2177795	2179405	-	ctrA
SA1930	2179741	2180271	-	rpoE
SA1931	2180383	2181243	-	SA1931
SA1932	2181668	2182471	+	SA1932
SA1933	2182602	2183273	-	SA1933
SA1934	2183672	2184865	-	SA1934
SA1935	2184865	2186049	-	hmrA
SA1936	2186360	2186830	+	luxS
SA1937	2186982	2187332	-	SA1937
SA1938	2187346	2188686	-	pdp
SA1939	2188926	2189588	-	SA1939
SA1940	2189902	2190612	+	deoD
SA1941	2190733	2191176	-	dps
SA1942	2191376	2191789	-	SA1942
SA1943	2192246	2193619	-	SA1943
SA1944	2194291	2194521	-	SA1944
SA1945	2194552	2195490	-	SA1945
SA1946	2195926	2196591	-	SA1946
SA1947	2196743	2197063	+	czrA
SA1948	2197065	2198042	+	czrB
SA1949	2198308	2198781	+	truncated-SA
SA1950	2198997	2199659	-	SA1950
SA1951	2200193	2200924	+	ermA
SA1952	2201050	2201832	-	ant(9)
SA1953	2201983	2202360	-	tnpC
SA1954	2202367	2204259	-	tnpB
SA1955	2204256	2205341	-	tnpA
SA1956	2205452	2206111	+	truncated-SA
SAS069	2206973	2207164	+	SAS069
SAS071	2207081	2207263	-	SAS071
SAS070	2207165	2207335	+	SAS070
SAS072	2207322	2207486	+	SAS072
SA1957	2208144	2209001	-	SA1957
SA1958	2209069	2209851	-	SA1958
SA1959	2210083	2211888	-	glmS
SAS073	2212356	2212511	+	SAS073
SA1960	2212569	2214107	+	mtlF
SA1961	2214142	2216274	+	SA1961
SA1962	2216286	2216720	+	mtlA
SA1963	2216720	2217826	+	mtlD
SA1964	2218145	2225590	-	fmtB(mrp)
SA1965	2225868	2227223	-	glmM(femD)
SA1966	2227250	2228182	-	SA1966
SA1967	2228184	2228993	-	SA1967
SA1968	2229182	2230090	-	arg
SA1969	2236331	2237395	-	SA1969
SA1970	2237543	2238985	-	SA1970
SA1971	2239308	2239781	-	SA1971
SA1972	2239880	2241223	-	SA1972
SA1973	2241400	2242086	-	SA1973
SA1974	2242102	2243289	-	SA1974
SA1975	2243333	2243848	-	SA1975
SAS074	2244025	2244285	+	SAS074
SA1976	2244354	2245724	-	SA1976
SA1977	2245960	2246928	-	SA1977
SA1978	2246925	2247956	-	SA1978
SA1979	2247968	2248951	-	SA1979
SA1980	2249343	2250413	-	SA1980
SA1981	2250420	2252177	-	SA1981
SA1982	2252164	2253357	-	SA1982
SA1983	2253459	2255435	+	SA1983
SA1984	2255596	2256105	-	asp23
SA1985	2256168	2256407	-	SA1985
SA1986	2256420	2256956	-	SA1986
SA1987	2257131	2258693	-	SA1987
SA1988	2259001	2260008	-	SA1988
SA1989	2260243	2261244	-	SA1989
SA1990	2261522	2262391	-	SA1990
SA1991	2262657	2264069	-	lacG
SA1992	2264087	2265799	-	lacE
SA1993	2265805	2266116	-	lacF
SA1994	2266138	2267118	-	lacD
SA1995	2267122	2268054	-	lacC
SA1996	2268067	2268582	-	lacB
SA1997	2268598	2269026	-	lacA
SA1998	2269393	2270148	-	lacR
SA1999	2270399	2271130	+	SA1999
SAS075	2271179	2271328	+	SAS075
SA2000	2271415	2271618	-	SA2000
SA2001	2271851	2272699	-	SA2001
SA2002	2272769	2273185	-	SA2002
SA2003	2273593	2276022	+	hysA
SA2004	2276082	2276936	-	SA2004
SA2005	2277147	2277962	-	SA2005
SA2006	2278257	2278682	+	SA2006
SA2007	2279066	2279770	-	SA2007
SA2008	2279807	2281471	-	alsS
SA2009	2281823	2281993	+	SA2009
SA2010	2282721	2283737	-	SA2010
SA2011	2283982	2284647	-	SA2011
SA2012	2284611	2285258	-	SA2012
SA2013	2286509	2286832	-	truncated-SA
SAS076	2287213	2287368	-	SAS076
SAS077	2287346	2287510	-	SAS077
SA2014	2287533	2287859	-	truncated-SA
SA2015	2288704	2289651	+	SA2015
SA2016	2289829	2290221	-	rpsI
SA2017	2290241	2290678	-	rplM
SA2018	2290918	2291721	-	truA
SA2019	2291726	2292532	-	SA2019
SA2020	2292522	2293382	-	SA2020
SA2021	2293379	2294188	-	SA2021
SA2022	2294726	2295094	-	rplQ
SA2023	2295111	2296055	-	rpoA
SA2024	2296130	2296519	-	rpsK
SA2025	2296543	2296908	-	rpsM
SAS078	2296931	2297044	-	rpmJ
SA2026	2297076	2297294	-	infA
SA2027	2297487	2298134	-	adk
SA2028	2298151	2299443	-	secY
SA2029	2299443	2299883	-	rplO
SA2030	2299900	2300079	-	rpmD
SA2031	2300096	2300596	-	rpsE
SA2032	2300617	2300976	-	rplR
SA2033	2301007	2301543	-	rplF
SA2034	2301568	2301966	-	rpsH
SAS079	2301998	2302183	-	rpsN
SA2035	2302206	2302745	-	rplE
SA2036	2302772	2303089	-	rplX
SA2037	2303125	2303493	-	rplN
SA2038	2303525	2303788	-	rpsQ
SA2039	2303812	2304021	-	rpmC
SA2040	2304011	2304445	-	rplP
SA2041	2304448	2305101	-	rpsC
SA2042	2305125	2305478	-	rplV
SA2043	2305507	2305785	-	rpsS
SA2044	2305852	2306685	-	rplB
SA2045	2306718	2306993	-	rplW
SA2046	2306993	2307616	-	rplD
SA2047	2307643	2308305	-	rplC
SA2048	2308333	2308641	-	rpsJ
SA2049	2308998	2309387	+	SA2049
SA2050	2309578	2310912	-	SA2050
SA2051	2311025	2313160	-	topB
SA2052	2313245	2314222	+	SA2052
SA2053	2314403	2315266	+	SA2053
SAS080	2315550	2315669	+	SAS080
SA2054	2315921	2316829	-	SA2054
SAS081	2316962	2317126	+	SAS081
SA2055	2317371	2317688	+	SA2055
SA2056	2317872	2321039	-	SA2056
SA2057	2321156	2322421	-	fmhB
SA2058	2322810	2323061	+	SA2058
SA2059	2323053	2323817	-	SA2059
SA2060	2323979	2324419	+	SA2060
SA2061	2324412	2325623	+	SA2061
SA2062	2325725	2326075	-	SA2062
SA2063	2326652	2327674	-	moaA
SA2064	2327694	2328293	-	mobA
SA2065	2328300	2328533	-	moaD
SA2066	2328539	2328985	-	moaE
SA2067	2328999	2329484	-	mobB
SA2068	2329481	2330740	-	moeA
SA2069	2330803	2331297	+	moaC
SA2070	2331299	2331805	-	moaB
SA2071	2331836	2332840	-	moeB
SA2072	2333010	2333615	-	modC
SA2073	2333616	2334287	-	modB
SA2074	2334301	2335083	-	modA
SA2075	2335372	2336169	+	narQ
SA2076	2336341	2337111	-	SA2076
SA2077	2337188	2337742	-	SA2077
SA2078	2337863	2338804	-	SA2078
SA2079	2339202	2340110	-	fhuD2
SA2080	2340324	2341478	-	SA2080
SAS082	2341525	2341617	-	SAS082
SA2081	2341695	2342600	-	SA2081
SA2082	2342860	2343162	+	ureA
SA2083	2343176	2343586	+	ureB
SA2084	2343583	2345298	+	ureC
SA2085	2345311	2345763	+	ureE
SA2086	2345756	2346445	+	ureF
SA2087	2346458	2347072	+	ureG
SA2088	2347264	2347908	+	ureD
SA2089	2348097	2348444	-	sarR
SA2090	2348872	2349198	-	SA2090
SA2091	2349262	2350005	-	SA2091
SA2092	2350031	2351986	-	SA2092
SA2093	2352596	2353399	+	ssaA
SAS083	2353417	2353545	-	SAS083
SA2094	2353833	2355233	-	SA2094
SA2095	2355328	2356410	-	SA2095
SA2096	2356658	2357080	+	SA2096
SA2097	2357317	2357817	+	SA2097
SA2098	2358178	2359131	+	SA2098
SA2099	2359223	2360347	-	SA2099
SA2100	2360658	2361434	-	SA2100
SA2101	2361917	2362390	-	SA2101
SA2102	2362390	2365344	-	SA2102
SA2103	2365947	2366894	-	SA2103
SA2104	2367027	2367824	-	SA2104
SA2105	2368209	2368901	+	SA2105
SA2106	2368926	2369663	-	SA2106
SA2107	2369712	2370041	+	SA2107
SA2108	2370486	2371358	+	SA2108
SA2109	2371745	2373124	-	SA2109
SA2110	2373404	2373760	+	SA2110
SAS084	2373757	2373942	+	SAS084
SAS085	2374038	2374229	-	SAS085
SA2111	2374240	2374875	-	SA2111
SA2112	2374950	2375867	-	SA2112
SA2113	2376135	2376665	+	SA2113
SA2114	2376731	2378335	-	glvC
SA2115	2378665	2379429	+	SA2115
SA2116	2379487	2379993	-	SA2116
SA2117	2380160	2381539	-	SA2117
SA2118	2381698	2382267	-	SA2118
SA2119	2382754	2383635	-	SA2119
SA2120	2383746	2384867	-	SA2120
SA2121	2385143	2386381	-	hutI
SA2122	2386381	2388042	-	hutU
SA2123	2388202	2389086	+	SA2123
SA2124	2389328	2389747	+	fosB
SA2125	2390003	2390938	-	SA2125
SA2126	2391228	2392487	+	SA2126
SA2127	2392553	2393239	-	SA2127
SA2128	2393413	2394066	+	SA2128
SA2129	2394302	2395321	-	SA2129
SA2130	2395351	2395677	-	SA2130
SA2131	2395895	2397127	-	SA2131
SA2132	2397120	2398019	-	SA2132
SA2133	2398250	2398870	-	SA2133
SAS086	2398862	2399053	+	SAS086
SA2134	2399269	2399877	+	SA2134
SA2135	2400210	2401418	+	SA2135
SA2136	2401466	2402515	-	fni
SA2137	2402546	2403493	-	SA2137
SA2138	2403596	2404081	+	SA2138
SA2139	2404078	2404497	+	SA2139
SA2140	2404605	2405525	-	SA2140
SA2141	2405733	2406371	+	SA2141
SA2142	2406617	2408548	-	SA2142
SA2143	2408561	2409208	-	SA2143
SA2144	2409329	2409883	+	SA2144
SA2145	2410110	2411318	-	tcaB
SA2146	2411587	2412969	-	tcaA
SA2147	2413209	2413664	-	tcaR
SA2148	2413859	2414827	+	SA2148
SA2149	2415058	2415723	-	SA2149
SA2150	2415723	2416778	-	SA2150
SA2151	2416914	2417588	+	SA2151
SA2152	2417581	2418954	+	SA2152
SA2153	2419117	2419560	+	SA2153
SA2154	2419557	2420012	+	SA2154
SA2155	2420078	2421613	-	SA2155
SA2156	2421937	2423535	-	SA2156
SA2157	2423852	2425525	+	SA2157
SA2158	2425679	2426293	-	SA2158
SA2159	2426607	2427122	-	SA2159
SA2160	2427313	2428317	+	SA2160
SA2161	2428363	2428764	-	SA2161
SA2162	2428800	2429795	-	SA2162
SA2163	2430067	2430498	-	SA2163
SA2164	2430705	2431982	-	SA2164
SA2165	2432143	2432766	+	SA2165
SA2166	2432812	2433756	+	SA2166
SA2167	2433841	2435283	-	scrA
SA2168	2435466	2435849	+	SA2168
SA2169	2437337	2439442	+	SA2169
SA2170	2439513	2439935	+	SA2170
SA2171	2440199	2440555	+	SA2171
SA2172	2440873	2442150	-	gltT
SA2173	2442332	2442697	-	SA2173
SA2174	2443094	2443540	+	SA2174
SA2175	2443762	2444184	+	SA2175
SA2176	2444291	2445460	-	narK
SA2177	2445829	2446743	+	SA2177
SA2178	2446722	2447462	+	SA2178
SA2179	2447720	2448373	-	SA2179
SA2180	2448396	2449430	-	SA2180
SA2181	2449454	2449906	-	SA2181
SA2182	2449926	2450603	-	narI
SA2183	2450596	2451171	-	SA2183
SA2184	2451164	2452723	-	narH
SA2185	2452713	2456402	-	narG
SA2186	2456711	2457688	-	nasF
SA2187	2457679	2457993	-	nasE
SA2188	2457997	2460402	-	nasD
SA2189	2460468	2461199	-	SA2189
SA2190	2461429	2461965	-	SA2190
SA2191	2462199	2463023	-	SA2191
SA2192	2463240	2463422	-	SA2192
SA2193	2463506	2463973	-	SA2193
SA2194	2464159	2465706	-	SA2194
SA2195	2466001	2466267	-	SA2195
SA2196	2466267	2466518	-	SA2196
SA2197	2466791	2467390	-	SA2197
SA2198	2467409	2467771	-	SA2198
SA2199	2468026	2469276	+	fmhA
SA2200	2469373	2470104	-	SA2200
SA2201	2470101	2470595	-	SA2201
SA2202	2470801	2471580	-	SA2202
SA2203	2471701	2473140	-	SA2203
SA2204	2473572	2474258	-	SA2204
SA2205	2474585	2475451	-	SA2205
SA2206	2476080	2477390	+	sbi
SA2207	2477926	2478855	+	hlgA
SA2208	2479422	2480369	+	hlgC
SA2209	2480371	2481348	+	hlgB
SA2210	2481400	2481867	-	SA2210
SA2211	2481878	2482570	-	SA2211
SA2212	2482581	2483696	-	SA2212
SA2213	2483674	2484681	-	bioB
SA2214	2484683	2486041	-	bioA
SA2215	2486019	2486705	-	bioD
SA2216	2487158	2488891	-	SA2216
SA2217	2488916	2490679	-	SA2217
SA2218	2491386	2491640	+	SA2218
SA2219	2491623	2492009	-	SA2219
SA2220	2492277	2493419	+	SA2220
SA2221	2493479	2494138	+	SA2221
SA2222	2494320	2495531	+	SA2222
SA2223	2495654	2496127	-	SA2223
SA2224	2496240	2496896	+	SA2224
SA2225	2496959	2497765	-	SA2225
SA2226	2498051	2499091	+	truncated-SA
SA2227	2499033	2499446	+	truncated-SA
SA2228	2499585	2501663	+	SA2228
SA2229	2501804	2503633	-	SA2229
SA2230	2503865	2505361	+	SA2230
SA2231	2505453	2506304	-	SA2231
SA2232	2506626	2507561	-	SA2232
SA2233	2507787	2509187	-	SA2233
SA2234	2509481	2510176	-	opuCD
SA2235	2510176	2511117	-	opuCC
SA2236	2511134	2511769	-	opuCB
SA2237	2511766	2512998	-	opuCA
SA2238	2513662	2514261	-	SA2238
SA2239	2514441	2516078	+	SA2239
SA2240	2516387	2517739	+	SA2240
SA2241	2517801	2518988	-	SA2241
SA2242	2519384	2520160	-	SA2242
SA2243	2520153	2520815	-	SA2243
SA2244	2521063	2522139	-	SA2244
SA2245	2522494	2522760	-	SA2245
SA2246	2522760	2523017	-	SA2246
SA2247	2523376	2523831	+	SA2247
SA2248	2523999	2525576	-	SA2248
SA2249	2525771	2526520	+	SA2249
SAS087	2526669	2526794	-	SAS087
SA2250	2526882	2528075	-	SA2250
SA2251	2528087	2528836	-	opp-1F
SA2252	2528829	2529644	-	opp-1D
SA2253	2529641	2530510	-	opp-1C
SA2254	2530507	2531442	-	opp-1B
SA2255	2531455	2533053	-	opp-1A
SA2256	2533196	2534497	-	SA2256
SA2257	2534490	2535308	-	SA2257
SA2258	2535319	2536140	-	SA2258
SA2259	2536830	2537597	-	SA2259
SA2260	2537697	2538515	-	SA2260
SA2261	2538750	2540288	+	SA2261
SA2262	2540401	2540823	-	SA2262
SA2263	2541275	2541694	-	SA2263
SA2264	2541721	2542131	-	SA2264
SA2265	2542398	2542910	-	SA2265
SA2266	2543070	2543765	-	SA2266
SA2267	2544054	2544335	+	SA2267
SA2268	2544595	2544786	-	SA2268
SA2269	2545347	2546141	-	SA2269
SA2270	2546677	2546964	-	SA2270
SA2271	2546967	2547293	-	SA2271
SA2272	2547293	2548618	-	SA2272
SA2273	2548605	2549399	-	SA2273
SA2274	2549643	2550416	-	SA2274
SA2275	2550528	2551304	-	SA2275
SA2276	2551608	2553098	-	SA2276
SA2277	2553138	2554469	-	SA2277
SA2278	2554471	2554863	-	SA2278
SA2279	2555052	2556803	+	SA2279
SA2280	2557087	2557353	+	SA2280
SA2281	2557497	2557805	+	SA2281
SA2282	2557913	2558146	-	SA2282
SA2283	2558243	2559319	-	SA2283
SA2285	2562483	2563817	-	SA2285
SA2286	2564122	2564481	-	sarT
SA2287	2564802	2565545	+	sarH2
SA2288	2565756	2566622	-	gtaB
SA2289	2566795	2568114	-	tnp
SA2290	2568323	2571208	-	fnbB
SA2291	2571889	2575005	-	fnb
SA2292	2575140	2575340	-	SA2292
SA2293	2575474	2576832	-	gntP
SA2294	2576949	2578502	-	gntK
SA2295	2578526	2579206	-	gntR
SA2296	2579359	2580123	-	SA2296
SA2297	2580288	2580980	-	SA2297
SA2298	2581211	2581699	-	SA2298
SA2299	2581766	2583589	-	SA2299
SA2300	2584066	2585343	-	SA2300
SA2301	2585890	2586501	+	SA2301
SA2302	2587019	2587714	+	SA2302
SA2303	2587716	2588486	+	SA2303
SA2304	2588859	2590823	+	fbp
SA2305	2591165	2592244	+	SA2305
SA2306	2592349	2592942	-	SA2306
SA2307	2592973	2593932	-	SA2307
SA2308	2594010	2594444	-	SA2308
SA2309	2594670	2594954	+	SA2309
SA2310	2595125	2595931	+	SA2310
SA2311	2596052	2596723	-	SA2311
SA2312	2596930	2597985	+	ddh
SA2313	2598232	2599032	-	SA2313
SA2314	2599352	2599987	+	SA2314
SA2315	2600002	2600724	+	SA2315
SA2316	2600886	2601506	-	srtA
SA2317	2601700	2602191	+	SA2317
SA2318	2602684	2603583	-	SA2318
SA2319	2603597	2604277	-	SA2319
SA2320	2604280	2605323	-	SA2320
SA2321	2605873	2606076	+	SA2321
SA2322	2606268	2607194	+	SA2322
SA2323	2607275	2608243	-	SA2323
SA2324	2608364	2608720	-	SA2324
SA2325	2608762	2609172	-	SA2325
SA2326	2609552	2611618	-	ptsG
SA2327	2611919	2613658	-	SA2327
SA2328	2613709	2614398	-	SA2328
SA2329	2614391	2614786	-	SA2329
SA2330	2614999	2615886	-	SA2330
SA2331	2616044	2616262	+	SA2331
SA2332	2616652	2617083	+	SA2332
SA2333	2617222	2618499	-	mvaA
SA2334	2618754	2619920	+	mvaS
SA2335	2620085	2620606	-	adaB
SA2336	2621015	2623120	+	clpL
SAS088	2623189	2623359	-	SAS088
SA2337	2623372	2625366	-	feoB
SA2338	2625378	2625605	-	SA2338
SA2339	2625821	2628310	-	SA2339
SA2340	2628455	2629003	+	SA2340
SA2341	2629359	2630903	-	rocA
SA2342	2631093	2631692	-	SA2342
SA2343	2631931	2632122	+	SA2343
SA2344	2632362	2634770	+	copA
SA2345	2635308	2635514	+	SA2345
SA2346	2635605	2636603	-	SA2346
SA2347	2636626	2637780	-	SA2347
SA2348	2638208	2639716	-	crtN
SA2349	2639728	2640591	-	crtM
SA2350	2640628	2641755	-	SA2350
SA2351	2641761	2643254	-	SA2351
SA2352	2643247	2643744	-	SA2352
SA2353	2643910	2644677	-	SA2353
SA2354	2645038	2646849	-	SA2354
SA2355	2647362	2647850	-	SA2355
SA2356	2648126	2648827	-	isaA
SA2357	2649435	2650490	-	SA2357
SA2358	2650900	2651469	+	SA2358
SA2359	2651847	2652167	+	SA2359
SA2360	2652387	2652617	+	SA2360
SAS089	2652690	2652848	-	SAS089
SA2361	2652919	2653296	-	SA2361
SA2362	2653313	2654134	-	SA2362
SA2363	2654154	2654453	-	SA2363
SA2364	2654584	2655141	+	SA2364
SA2365	2655134	2655838	+	SA2365
SA2366	2655936	2656946	+	SA2366
SA2367	2656966	2657796	+	SA2367
SA2368	2657943	2658833	-	SA2368
SA2369	2658930	2660270	-	SA2369
SA2370	2660264	2661370	-	SA2370
SA2371	2661703	2661999	-	SA2371
SA2372	2661987	2662355	-	SA2372
SA2373	2662370	2662645	-	SA2373
SA2374	2662989	2663855	-	SA2374
SA2375	2664073	2665137	+	SA2375
SA2376	2665292	2665567	+	SA2376
SA2377	2665753	2666475	-	SA2377
SA2378	2666829	2667278	+	SA2378
SA2379	2667359	2667946	-	SA2379
SA2380	2668089	2669771	+	SA2380
SA2381	2669869	2670504	-	SA2381
SA2382	2670520	2671086	-	SA2382
SA2383	2671339	2672001	-	SA2383
SA2384	2672535	2673266	+	ermA
SA2385	2673392	2674174	-	ant(9)
SA2386	2674325	2674702	-	tnpC
SA2387	2674709	2676601	-	tnpB
SA2388	2676598	2677683	-	tnpA
SA2389	2677802	2678308	-	truncated-SA
SA2390	2678651	2679022	-	panD
SA2391	2679036	2679887	-	panC
SA2392	2679880	2680698	-	panB
SA2393	2680771	2681631	+	SA2393
SA2394	2681717	2682421	-	SA2394
SA2395	2682699	2683658	-	SA2395
SA2396	2684344	2685792	+	SA2396
SA2397	2685873	2687246	-	SA2397
SA2398	2687468	2687884	+	SA2398
SA2399	2688007	2688897	+	SA2399
SA2400	2689091	2690587	-	mqo2
SA2401	2690964	2691212	+	SA2401
SA2402	2691272	2692891	-	SA2402
SA2403	2693064	2693507	-	SA2403
SA2404	2693787	2693999	-	SA2404
SA2405	2694277	2695986	-	betA
SA2406	2696247	2697737	-	gbsA
SA2407	2697987	2698553	+	SA2407
SA2408	2698724	2700346	-	cudT
SA2409	2700865	2701401	-	SA2409
SA2410	2701398	2703248	-	nrdD
SA2411	2703438	2704808	-	SA2411
SA2412	2705301	2705906	-	SA2412
SA2413	2705969	2707849	-	SA2413
SA2414	2708243	2708740	-	SA2414
SA2415	2710164	2712164	-	SA2415
SA2416	2712161	2712916	-	SA2416
SA2417	2713024	2713911	-	SA2417
SA2418	2713922	2714587	-	SA2418
SA2419	2714613	2714813	-	SA2419
SA2420	2715011	2716435	+	phoB
SA2421	2716718	2717191	-	SA2421
SA2422	2717418	2718179	-	SA2422
SA2423	2718295	2720928	-	clfB
SA2424	2721278	2721982	-	SA2424
SA2425	2722081	2723049	-	arcC
SA2426	2723039	2724469	-	arcD
SA2427	2724560	2725570	-	arcB
SA2428	2725603	2726838	-	arcA
SA2429	2727185	2727634	-	SA2429
SA2430	2728001	2729530	-	aur
SA2431	2729954	2730481	-	isaB
SA2432	2730739	2731197	+	SA2432
SA2433	2731437	2733311	+	SA2433
SA2434	2733387	2735339	+	SA2434
SA2435	2735353	2736291	+	pmi
SA2436	2736403	2739384	-	SA2436
SA2437	2739595	2741454	+	SA2437
SA2438	2741719	2742279	-	SA2438
SA2439	2742448	2744355	-	SA2439
SA2440	2744596	2745954	-	SA2440
SA2441	2745947	2747455	-	SA2441
SA2442	2747473	2749863	-	SA2442
SA2443	2749853	2750893	-	SA2443
SA2444	2750790	2752358	-	SA2444
SA2445	2752348	2753901	-	SA2445
SA2446	2753912	2755123	-	SA2446
SA2447	2755253	2762068	-	SA2447
SA2448	2762612	2763304	-	SA2448
SA2449	2763624	2763998	+	SA2449
SA2450	2763982	2764287	+	SA2450
SA2451	2764441	2764800	+	SA2451
SA2452	2764885	2765496	-	SA2452
SA2453	2765575	2766051	-	SA2453
SA2454	2766054	2766554	-	SA2454
SA2455	2766789	2767556	-	SA2455
SA2456	2767553	2768245	-	SA2456
SA2457	2768262	2768924	-	SA2457
SA2458	2769773	2770333	-	icaR
SA2459	2770497	2771735	+	icaA
SA2460	2771699	2772004	+	icaD
SA2461	2772001	2772873	+	icaB
SA2462	2772860	2773912	+	icaC
SAS090	2774055	2774165	+	SAS090
SA2463	2774247	2776292	-	lip
SA2464	2777382	2778014	-	hisI
SA2465	2778011	2778769	-	hisF
SA2466	2778766	2779470	-	SA2466
SA2467	2779463	2780041	-	hisH
SA2468	2780038	2780616	-	hisB
SA2469	2780585	2781598	-	SA2469
SA2470	2781614	2782864	-	SA2470
SA2471	2782857	2783471	-	hisG
SA2472	2783489	2784307	-	SA2472
SA2473	2784611	2785735	-	SA2473
SA2474	2785853	2786350	-	SA2474
SA2475	2786397	2787230	-	SA2475
SA2476	2787227	2788834	-	SA2476
SA2477	2788992	2789546	-	SA2477
SA2478	2789575	2790423	-	SA2478
SA2479	2790802	2791317	+	SA2479
SA2480	2791468	2792442	-	drp35
SA2481	2792683	2793639	+	SA2481
SA2482	2793791	2794429	+	pcp
SA2483	2794548	2795315	-	SA2483
SA2484	2795305	2795643	-	SA2484
SA2485	2795810	2796274	+	SA2485
SA2486	2796512	2797930	+	SA2486
SA2487	2798344	2799252	-	SA2487
SA2488	2799474	2800049	+	SA2488
SA2489	2800211	2801227	+	SA2489
SA2490	2801464	2802264	+	SA2490
SA2491	2802398	2802910	-	SA2491
SA2492	2803193	2803951	+	vraD
SA2493	2803941	2805821	+	vraE
SAS091	2805913	2806104	+	SAS091
SA2494	2806496	2806696	+	cspB
SA2495	2806814	2807383	-	SA2495
SA2496	2807643	2808038	-	SA2496
SA2497	2808106	2808459	-	SA2497
SAS092	2808647	2808796	+	SAS092
SA2498	2808910	2809749	-	SA2498
SA2499	2809792	2810511	-	gidB
SA2500	2810511	2812388	-	gidA
SA2501	2812455	2813834	-	thdF
SA2502	2813991	2814338	-	rnpA
SAS093	2814465	2814602	-	rpmH
