pSAS01	12	638	+	pSAS01
pSAS03	2179	2487	-	pSAS03
pSAS04	2527	3387	+	pSAS04
pSAS05	3474	3815	+	pSAS05
pSAS06	3834	4073	+	pSAS06
pSAS07	4274	4459	+	pSAS07
pSAS08	4678	5421	-	pSAS08
pSAS11	7998	8627	+	cadD
pSAS12	8646	8993	+	cadC
pSAS13	9466	10440	+	pSAS13
pSAS14	10560	11375	-	pSAS14
pSAS16	12783	13376	-	binL
pSAS17	13640	14020	-	penI
pSAS18	14010	15767	-	blaR1
pSAS19	15874	16719	+	blaZ
pSAS21	17861	18010	+	pSAS21
pSAS22	18035	18328	+	pSAS22
pSAS23	18403	20337	+	pSAS23
pSAS24	20341	20646	+	pSAS24
