pre/mob	69	1295	+	pre/mob
rep	1518	2879	+	rep
rep	3428	4609	+	rep
aadD	4769	5539	+	aadD
ORF1	5750	5812	+	ORF1
tet(L)	5846	7225	+	tet(L)
dfrK	7508	7999	+	dfrK
mob	9375	10604	+	mob
rep	11218	12033	+	rep
vga(C)	12570	14138	+	vga(C)
