SAS0001	517	1878	+	SAS0001
SAS0002	2156	3289	+	SAS0002
SAS0003	3670	3915	+	SAS0003
SAS0004	3912	5024	+	SAS0004
SAS0005	5037	6968	+	SAS0005
SAS0006	7005	9668	+	SAS0006
SAS0007	9755	10585	-	SAS0007
SAS0008	10893	12407	+	SAS0008
SAS0009	12786	14072	+	SAS0009
SAS0010	14724	15419	+	SAS0010
SAS0011	15416	15745	+	SAS0011
SAS0012	16108	17076	+	SAS0012
SAS0013	17321	18307	+	SAS0013
SAS0014	18322	20289	+	SAS0014
SAS0015	20286	20732	+	SAS0015
SAS0016	20764	22164	+	SAS0016
SAS0017	22443	23726	+	SAS0017
SAS0018	24924	25631	+	SAS0018
SAS0019	25644	27470	+	SAS0019
SAS0020	27463	28797	+	SAS0020
SAS0021	28798	29586	+	SAS0021
SAS0022	29975	30775	+	SAS0022
SAS0023	30961	33321	+	SAS0023
SAS0024	33689	34168	+	SAS0024
SAS0025	34546	37584	-	SAS0025
SAS0026	37588	38898	-	SAS0026
SAS0027	38891	40678	-	SAS0027
SAS0028	40866	41087	-	SAS0028
SAS0029	41101	41604	-	SAS0029
SAS0030	41620	41931	-	SAS0030
SAS0031	42024	42365	-	SAS0031
SAS0032	42831	44456	-	ccrB
SAS0033	44478	45827	-	ccrA1
SAS0034	46015	47784	-	SAS0034
SAS0035	47784	48080	-	SAS0035
SAS0036	48253	49740	-	SAS0036
SAS0037	49912	50616	+	SAS0037
SAS0038	50640	51482	+	SAS0038
SAS0040	51926	52234	+	SAS0040
SAS0043	52820	53458	+	SAS0043
SAS0044	54144	54773	+	SAS0044
SAS0046	55452	55880	-	SAS0046
SAS0047	55960	56889	+	SAS0047
SAS0048	57181	58476	+	SAS0048
SAS0051	60231	60956	+	seh
SAS0053	61852	62325	+	SAS0053
SAS0054	62876	63631	-	SAS0054
SAS0055	63631	63897	-	SAS0055
SAS0056	64028	65095	+	SAS0056
SAS0057	65126	66460	+	SAS0057
SAS0058	66479	67672	+	SAS0058
SAS0059	68339	69325	-	SAS0059
SAS0060	69634	69837	+	SAS0060
SAS0061	69886	70182	+	SAS0061
SAS0062	70254	71474	-	SAS0062
SAS0063	71467	72024	-	SAS0063
SAS0064	72131	72991	+	SAS0064
SAS0065	73346	73879	-	SAS0065
SAS0066	73979	74713	+	SAS0066
SAS0067	75138	75749	+	SAS0067
SAS0068	76016	79168	+	SAS0068
SAS0069	79225	79707	+	SAS0069
SAS0072	81118	81888	+	SAS0072
SAS0073	81940	82710	+	SAS0073
SAS0074	82989	83753	+	SAS0074
SAS0075	83756	85132	+	SAS0075
SAS0076	85132	85458	+	SAS0076
SAS0077	85462	85773	+	SAS0077
SAS0078	86025	88262	+	SAS0078
SAS0079	88413	89591	+	SAS0079
SAS0080	89593	90981	+	SAS0080
SAS0081	91468	93135	-	SAS0081
SAS0082	93453	95228	-	SAS0082
SAS0083	95579	96052	+	SAS0083
SAS0084	96314	97906	+	SAS0084
SAS0085	98235	99713	-	SAS0085
SAS0086	100134	100886	-	SAS0086
SAS0087	101255	102253	-	SAS0087
SAS0088	102250	103245	-	SAS0088
SAS0089	103261	104253	-	SAS0089
SAS0090	104484	105464	+	SAS0090
SAS0091	105461	106471	+	SAS0091
SAS0092	106492	108246	+	SAS0092
SAS0093	108239	109495	+	SAS0093
SAS0094	109485	111221	+	SAS0094
SAS0095	111202	112980	+	SAS0095
SAS0096	112955	113731	+	SAS0096
SAS0097	113731	114933	+	SAS0097
SAS0098	114937	115701	+	SAS0098
SAS0099	115897	116304	+	SAS0099
SAS0100	116354	116980	+	SAS0100
SAS0101	117192	117968	+	SAS0101
SAS0101a	118017	118166	-	SAS0101a
SAS0102	118313	119284	+	SAS0102
SAS0103	119247	119939	+	SAS0103
SAS0104	120149	121315	+	SAS0104
SAS0105	121296	122534	+	SAS0105
SAS0106	122524	123954	+	SAS0106
SAS0107	124222	124821	+	SAS0107
SAS0108	125189	125914	+	SAS0108
SAS0109	126105	126845	-	SAS0109
SAS0110	127096	127803	+	SAS0110
SAS0111	127810	129162	+	SAS0111
SAS0112	129243	129905	+	SAS0112
SAS0113	129933	131111	+	SAS0113
SAS0114	131242	132057	-	SAS0114
SAS0115	132054	132854	-	SAS0115
SAS0116	132856	133629	-	SAS0116
SAS0117	133843	134799	-	SAS0117
SAS0118	135028	136572	+	SAS0118
SAS0119	136623	138158	+	SAS0119
SAS0123	141371	143980	+	SAS0123
SAS0124	144318	144986	+	SAS0124
SAS0125	145002	145688	+	SAS0125
SAS0126	145691	146455	+	SAS0126
SAS0127	146475	148298	+	SAS0127
SAS0128	148288	149316	+	SAS0128
SAS0129	149329	150438	+	SAS0129
SAS0130	150442	151566	+	SAS0130
SAS0131	151569	152648	+	SAS0131
SAS0132	152641	154035	+	SAS0132
SAS0133	154032	154589	+	SAS0133
SAS0134	154598	155836	+	SAS0134
SAS0135	155870	157075	+	SAS0135
SAS0136	157086	157643	+	SAS0136
SAS0137	157643	158530	+	SAS0137
SAS0138	158584	159846	+	SAS0138
SAS0139	159893	161068	+	SAS0139
SAS0140	161133	161459	-	SAS0140
SAS0141	161466	161849	-	SAS0141
SAS0142	162276	163763	+	SAS0142
SAS0143	164409	165368	+	SAS0143
SAS0144	165436	165702	+	SAS0144
SAS0145	165662	165865	-	SAS0145
SAS0146	166043	166555	+	SAS0146
SAS0147	166897	167637	+	SAS0147
SAS0148	167651	168625	+	SAS0148
SAS0149	168622	169383	+	SAS0149
SAS0150	169396	170427	+	SAS0150
SAS0151	170644	171003	+	SAS0151
SAS0152	171078	172202	+	SAS0152
SAS0153	172588	173838	+	SAS0153
SAS0154	174285	181460	+	SAS0154
SAS0155	181473	182117	+	SAS0155
SAS0156	182445	182939	-	SAS0156
SAS0157	183194	183958	-	SAS0157
SAS0158	183974	185215	-	SAS0158
SAS0159	185227	186261	-	SAS0159
SAS0160	186297	187481	-	SAS0160
SAS0161	187734	189089	-	SAS0161
SAS0162	189365	189922	-	SAS0162
SAS0163	189989	191629	-	SAS0163
SAS0164	191902	193947	-	SAS0164
SAS0165	194532	195587	+	SAS0165
SAS0166	195584	196483	+	SAS0166
SAS0167	196495	197949	+	SAS0167
SAS0168	197949	198827	+	SAS0168
SAS0169	199021	199302	-	SAS0169
SAS0170	199515	202304	+	SAS0170
SAS0171	202451	203050	-	SAS0171
SAS0172	203176	203931	+	SAS0172
SAS0173	203928	204608	+	SAS0173
SAS0174	204605	205783	+	SAS0174
SAS0175	205990	206211	+	SAS0175
SAS0176	206249	207967	+	SAS0176
SAS0177	208026	208469	+	SAS0177
SAS0178	208481	209203	+	SAS0178
SAS0179	209190	209366	+	SAS0179
SAS0180	209413	209601	-	SAS0180
SAS0181	210076	211668	-	SAS0181
SAS0182	211796	213103	+	SAS0182
SAS0183	213109	214272	+	SAS0183
SAS0184	214289	216064	+	SAS0184
SAS0185	216102	218108	+	SAS0185
SAS0186	218421	219194	-	SAS0186
SAS0187	219384	220010	-	SAS0187
SAS0188	220219	220797	+	SAS0188
SAS0189	221180	222277	+	SAS0189
SAS0190	222290	223561	+	SAS0190
SAS0191	223564	224832	+	SAS0191
SAS0192	224834	225673	+	SAS0192
SAS0193	225744	226823	+	SAS0193
SAS0194	226848	227888	+	SAS0194
SAS0195	227943	228911	+	SAS0195
SAS0196	229272	229766	-	SAS0196
SAS0197	229999	231378	+	SAS0197
SAS0198	231737	232495	-	SAS0198
SAS0199	232488	234044	-	SAS0199
SAS0200	234041	235009	-	SAS0200
SAS0201	235597	237846	+	SAS0201
SAS0202	237869	238624	+	SAS0202
SAS0203	238614	238922	+	SAS0203
SAS0204	238960	240723	+	SAS0204
SAS0205	240887	241231	-	SAS0205
SAS0206	241421	243322	+	SAS0206
SAS0207	243925	245109	-	SAS0207
SAS0208	245139	247400	-	SAS0208
SAS0209	247587	248798	-	SAS0209
SAS0210	248910	250415	-	SAS0210
SAS0211	250441	252003	-	SAS0211
SAS0212	252459	253601	+	SAS0212
SAS0213	253915	255390	-	SAS0213
SAS0214	255588	255944	-	SAS0214
SAS0215	256101	256274	-	SAS0215
SAS0216	256300	257445	-	SAS0216
SAS0217	258018	258971	+	SAS0217
SAS0218	259291	260820	-	SAS0218
SAS0219	261182	262117	+	SAS0219
SAS0219a	262153	262323	+	SAS0219a
SAS0220	262433	264550	+	SAS0220
SAS0221	264535	265002	+	SAS0221
SAS0222	265025	265303	+	SAS0222
SAS0223	265530	266789	+	SAS0223
SAS0224	266807	267862	+	SAS0224
SAS0225	267864	268010	+	SAS0225
SAS0226	268034	269077	+	SAS0226
SAS0227	269605	270321	+	SAS0227
SAS0228	270314	271339	+	SAS0228
SAS0229	271361	273055	+	SAS0229
SAS0230	273367	273501	-	SAS0230
SAS0230a	273703	273828	+	SAS0230a
SAS0231	274081	275250	+	SAS0231
SAS0232	275526	276242	+	SAS0232
SAS0233	276235	277260	+	SAS0233
SAS0234	277282	278970	+	SAS0234
SAS0235	279003	280724	+	SAS0235
SAS0236	280868	281542	+	SAS0236
SAS0237	281786	283540	+	SAS0237
SAS0238	283543	284283	+	SAS0238
SAS0239	284396	284839	+	SAS0239
SAS0240	284832	285533	+	SAS0240
SAS0241	285641	286345	-	SAS0241
SAS0242	286494	287285	+	SAS0242
SAS0243	287301	288737	+	SAS0243
SAS0244	289230	289991	-	SAS0244
SAS0245	290242	291156	-	SAS0245
SAS0246	291184	291588	-	SAS0246
SAS0247	291603	292484	-	SAS0247
SAS0248	292716	293714	-	SAS0248
SAS0248a	293932	294045	+	SAS0248a
SAS0249	294095	294487	+	SAS0249
SAS0250	294615	295991	-	SAS0250
SAS0251	296225	297217	+	SAS0251
SAS0252	297543	298493	+	SAS0252
SAS0253	298545	299204	-	SAS0253
SAS0254	299218	300138	-	SAS0254
SAS0255	300135	301301	-	SAS0255
SAS0256	301369	302892	-	SAS0256
SAS0257	303223	304125	-	SAS0257
SAS0258	304364	304657	+	SAS0258
SAS0259	304740	307769	+	SAS0259
SAS0260	307769	308227	+	SAS0260
SAS0261	308199	308441	+	SAS0261
SAS0262	308454	309788	+	SAS0262
SAS0263	309810	314249	+	SAS0263
SAS0264	314279	314671	+	SAS0264
SAS0265	314687	315001	+	SAS0265
SAS0266	314998	315675	+	SAS0266
SAS0267	315675	315992	+	SAS0267
SAS0268	316002	317846	+	SAS0268
SAS0269	317857	318351	+	SAS0269
SAS0270	318562	319245	+	SAS0270
SAS0271	319392	320003	+	SAS0271
SAS0272	320202	320702	+	SAS0272
SAS0273	320713	321213	+	SAS0273
SAS0274	321224	321724	+	SAS0274
SAS0275	321735	322235	+	SAS0275
SAS0276	322246	322746	+	SAS0276
SAS0277	322757	323257	+	SAS0277
SAS0278	323268	323768	+	SAS0278
SAS0279	323779	324267	+	SAS0279
SAS0280	324892	325266	+	SAS0280
SAS0281	325416	325814	+	SAS0281
SAS0282	326064	326888	-	SAS0282
SAS0283	327127	328434	-	SAS0283
SAS0284	329018	329908	+	SAS0284
SAS0285	330158	331207	+	SAS0285
SAS0286	331220	331897	+	SAS0286
SAS0287	332105	333136	+	SAS0287
SAS0288	333479	334597	+	SAS0288
SAS0289	334572	335495	+	SAS0289
SAS0290	335506	336726	+	SAS0290
SAS0291	336832	338364	-	SAS0291
SAS0292	338404	339285	-	SAS0292
SAS0293	339443	340303	+	SAS0293
SAS0294	340580	341380	-	SAS0294
SAS0295	341521	342189	+	SAS0295
SAS0296	342320	343633	-	SAS0296
SAS0297	344051	346123	+	SAS0297
SAS0298	346365	347192	-	SAS0298
SAS0299	347265	348464	-	SAS0299
SAS0300	348766	349767	+	SAS0300
SAS0301	349801	350133	+	SAS0301
SAS0302	350134	350934	+	SAS0302
SAS0303	350921	351868	+	SAS0303
SAS0304	351846	352868	+	SAS0304
SAS0305	353181	354209	+	SAS0305
SAS0306	354302	355648	-	SAS0306
SAS0307	355663	355947	-	SAS0307
SAS0308	355949	356392	-	SAS0308
SAS0309	356397	358352	-	SAS0309
SAS0310	358564	358983	+	SAS0310
SAS0311	359090	360445	+	SAS0311
SAS0312	360552	360992	+	SAS0312
SAS0313	361075	362433	-	SAS0313
SAS0314	362745	363671	+	SAS0314
SAS0315	363685	364746	+	SAS0315
SAS0316	364760	365326	+	SAS0316
SAS0317	365386	366381	-	SAS0317
SAS0318	366686	367231	+	SAS0318
SAS0319	367498	368352	+	SAS0319
SAS0320	368349	369578	+	SAS0320
SAS0321	369556	371271	+	SAS0321
SAS0322	371363	372064	-	SAS0322
SAS0323	372081	372296	-	SAS0323
SAS0324	372404	372793	-	SAS0324
SAS0325	373033	373236	+	SAS0325
SAS0326	373233	373946	+	SAS0326
SAS0327	373971	374813	+	SAS0327
SAS0328	374813	375442	+	SAS0328
SAS0329	375832	376965	-	SAS0329
SAS0330	377504	378685	+	SAS0330
SAS0331	378768	379520	-	SAS0331
SAS0332	379563	381791	-	SAS0332
SAS0333	381788	383629	-	SAS0333
SAS0334	383598	384758	-	SAS0334
SAS0335	384755	385858	-	SAS0335
SAS0336	386522	387367	+	SAS0336
SAS0337	387524	388405	+	SAS0337
SAS0338	388435	388638	+	SAS0338
SAS0339	388650	389747	+	SAS0339
SAS0340	389833	390024	-	SAS0340
SAS0341	390268	390564	+	SAS0341
SAS0342	390585	391088	+	SAS0342
SAS0343	391140	391382	+	SAS0343
SAS0344	391648	392640	-	SAS0344
SAS0347	393545	394156	+	SAS0347
SAS0348	394525	394926	+	SAS0348
SAS0349	395074	395646	+	SAS0349
SAS0350	395784	396047	-	SAS0350
SAS0351	396341	396592	+	SAS0351
SAS0352	396631	396840	-	SAS0352
SAS0353	397018	397599	+	SAS0353
SAS0354	397665	398048	-	SAS0354
SAS0354a	398136	398234	+	SAS0354a
SAS0355	398303	398929	-	SAS0355
SAS0356	399002	400612	-	SAS0356
SAS0357	400727	402250	-	SAS0357
SAS0358	402266	402835	-	SAS0358
SAS0359	403327	404082	+	SAS0359
SAS0360	404163	405551	-	SAS0360
SAS0360a	405636	405734	+	SAS0360a
SAS0361	406725	407681	-	SAS0361
SAS0362	407799	408461	-	SAS0362
SAS0363	408604	409011	-	SAS0363
SAS0364	409524	410102	+	SAS0364
SAS0365	410102	411370	+	SAS0365
SAS0366	411408	412874	+	SAS0366
SAS0367	412899	414440	+	SAS0367
SAS0368	414952	416058	+	SAS0368
SAS0369	416502	416687	+	SAS0369
SAS0370	416684	417076	-	SAS0370
SAS0371	417098	417577	-	SAS0371
SAS0372	417703	417960	-	SAS0372
SAS0373	418503	418835	+	SAS0373
SAS0375	419940	421766	+	SAS0375
SAS0376	422304	422726	-	SAS0376
SAS0377	423051	423599	-	SAS0377
SAS0378	423580	423741	-	SAS0378
SAS0379	424095	424502	+	SAS0379
SAS0380	424549	425031	+	SAS0380
SAS0381	425231	425920	+	SAS0381
SAS0381a	426094	426201	-	SAS0381a
SAS0382	426195	426554	-	SAS0382
SAS0383	426573	427418	-	SAS0383
SAS0384	427890	428570	+	SAS0384
SAS0385	428856	429551	+	SAS0385
SAS0386	429842	430912	+	SAS0386
SAS0387	431277	432224	+	SAS0387
SAS0388	432588	433292	+	SAS0388
SAS0389	433738	434436	+	SAS0389
SAS0390	434858	435553	+	SAS0390
SAS0391	435886	436590	+	SAS0391
SAS0392	436969	437667	+	SAS0392
SAS0393	438026	438709	+	SAS0393
SAS0393a	438787	438918	+	SAS0393a
SAS0394	438971	440527	+	SAS0394
SAS0395	440520	441779	+	SAS0395
SAS0396	442185	442877	+	SAS0396
SAS0397	442899	444401	+	SAS0397
SAS0398	444508	444816	-	SAS0398
SAS0399	445152	445964	+	SAS0399
SAS0400	446012	446782	+	SAS0400
SAS0401	446814	447605	+	SAS0401
SAS0402	447657	448454	+	SAS0402
SAS0403	448633	449448	+	SAS0403
SAS0404	449438	450763	+	SAS0404
SAS0405	450760	451083	+	SAS0405
SAS0406	451102	451416	+	SAS0406
SAS0407	451700	451894	-	SAS0407
SAS0408	452092	453294	+	SAS0408
SAS0409	453563	453691	+	SAS0409
SAS0410	454880	456364	+	SAS0410
SAS0411	456377	459082	+	SAS0411
SAS0412	459244	459606	+	SAS0412
SAS0413	459835	460182	-	SAS0413
SAS0414	460289	460963	+	SAS0414
SAS0415	461000	461734	+	SAS0415
SAS0415a	461912	462025	+	SAS0415a
SAS0416	462187	463527	+	SAS0416
SAS0417	463744	464649	+	SAS0417
SAS0418	464642	465784	+	SAS0418
SAS0419	466081	467106	+	SAS0419
SAS0420	467110	467769	+	SAS0420
SAS0421	467806	468648	+	SAS0421
SAS0422	468980	469984	+	SAS0422
SAS0423	470169	470438	-	SAS0423
SAS0424	470578	470982	+	SAS0424
SAS0425	470972	471457	+	SAS0425
SAS0426	471626	472408	-	SAS0426
SAS0427	472405	473523	-	SAS0427
SAS0428	473638	474522	-	SAS0428
SAS0429	474704	479203	+	SAS0429
SAS0430	479221	480684	+	SAS0430
SAS0431	481515	482942	+	SAS0431
SAS0432	483006	484646	+	SAS0432
SAS0433	484671	485399	+	SAS0433
SAS0433a	485839	485904	+	SAS0433a
SAS0434	486042	486566	+	SAS0434
SAS0435	486635	488332	+	SAS0435
SAS0436	488422	488739	+	SAS0436
SAS0437	488746	489342	+	SAS0437
SAS0438	496066	497403	+	SAS0438
SAS0439	497405	498022	+	SAS0439
SAS0440	498050	498379	+	SAS0440
SAS0441	498593	499519	+	SAS0441
SAS0442	499520	500323	+	SAS0442
SAS0443	500340	500687	+	SAS0443
SAS0444	500961	501686	+	SAS0444
SAS0445	501679	501927	+	SAS0445
SAS0446	501929	502768	+	SAS0446
SAS0447	503053	505026	+	SAS0447
SAS0448	505057	505830	+	SAS0448
SAS0449	505997	506533	+	SAS0449
SAS0450	506544	507437	+	SAS0450
SAS0451	507537	507800	+	SAS0451
SAS0452	508110	508958	+	SAS0452
SAS0453	508972	509796	+	SAS0453
SAS0454	509813	510193	+	SAS0454
SAS0455	510265	510567	+	SAS0455
SAS0456	510911	512263	+	SAS0456
SAS0457	512410	513375	+	SAS0457
SAS0458	513525	514178	+	SAS0458
SAS0459	514458	515030	+	SAS0459
SAS0460	515030	518536	+	SAS0460
SAS0461	518526	520052	+	SAS0461
SAS0462	520052	521245	+	SAS0462
SAS0463	521242	521505	+	SAS0463
SAS0464	521523	521915	+	SAS0464
SAS0465	522020	522421	+	SAS0465
SAS0466	522601	523896	+	SAS0466
SAS0467	523901	524440	+	SAS0467
SAS0468	524697	526790	+	SAS0468
SAS0469	527019	527900	+	SAS0469
SAS0470	528079	529011	+	SAS0470
SAS0471	529227	530030	+	SAS0471
SAS0472	530008	530373	+	SAS0472
SAS0473	530370	530846	+	SAS0473
SAS0474	531385	532872	+	SAS0474
SAS0475	545308	546690	-	SAS0475
SAS0476	546794	547681	+	SAS0476
SAS0477	547685	548245	+	SAS0477
SAS0478	548451	549665	-	SAS0478
SAS0479	549823	550284	+	SAS0479
SAS0480	550303	550869	+	SAS0480
SAS0481	550859	551866	+	SAS0481
SAS0482	551880	554336	+	SAS0482
SAS0483	554820	556184	+	SAS0483
SAS0484	556209	557282	+	SAS0484
SAS0485	557839	559293	+	SAS0485
SAS0486	559716	560363	+	SAS0486
SAS0487	560347	561747	+	SAS0487
SAS0488	561740	562144	+	SAS0488
SAS0489	562152	562898	+	SAS0489
SAS0490	562898	563422	+	SAS0490
SAS0491	563503	564072	+	SAS0491
SAS0492	564187	564330	+	SAS0492
SAS0493	564386	564568	+	SAS0493
SAS0494	564581	565129	+	SAS0494
SAS0495	565310	565732	+	SAS0495
SAS0496	565940	566632	+	SAS0496
SAS0497	566904	567404	+	SAS0497
SAS0498	567447	567815	+	SAS0498
SAS0499	567990	568598	+	SAS0499
SAS0500	568813	572364	+	SAS0500
SAS0501	572501	576124	+	SAS0501
SAS0502	576204	576515	+	SAS0502
SAS0503	576613	577026	+	SAS0503
SAS0504	577092	577562	+	SAS0504
SAS0505	577685	579766	+	SAS0505
SAS0506	579983	581167	+	SAS0506
SAS0507	581449	582624	-	SAS0507
SAS0508	582795	583982	+	SAS0508
SAS0509	584249	585127	+	SAS0509
SAS0510	585286	586923	+	SAS0510
SAS0511	587137	588102	+	SAS0511
SAS0512	588437	589513	+	SAS0512
SAS0513	589764	590447	+	SAS0513
SAS0514	590563	591225	-	SAS0514
SAS0515	591218	591835	-	SAS0515
SAS0516	591902	592372	+	SAS0516
SAS0517	592519	593388	+	SAS0517
SAS0518	593409	593975	+	SAS0518
SAS0519	594406	597279	+	SAS0519
SAS0520	597646	601743	+	SAS0520
SAS0521	602137	605562	+	SAS0521
SAS0522	605681	607153	+	SAS0522
SAS0523	607277	608767	-	SAS0523
SAS0524	609049	609927	-	SAS0524
SAS0525	609940	610605	-	SAS0525
SAS0526	610619	610978	-	SAS0526
SAS0527	611257	612015	+	SAS0527
SAS0528	612092	612724	+	SAS0528
SAS0529	612726	613274	+	SAS0529
SAS0530	613387	614034	+	SAS0530
SAS0531	614536	615936	+	SAS0531
SAS0532	616187	616480	+	SAS0532
SAS0533	616480	617856	+	SAS0533
SAS0534	617858	618997	+	SAS0534
SAS0535	618972	619337	+	SAS0535
SAS0536	619340	619609	+	SAS0536
SAS0537	619810	619977	-	SAS0537
SAS0538	620484	621314	-	SAS0538
SAS0539	621498	622154	+	SAS0539
SAS0540	622155	622535	+	SAS0540
SAS0541	622668	623036	+	SAS0541
SAS0542	623157	624641	+	SAS0542
SAS0543	624782	625234	-	SAS0543
SAS0544	625247	626011	-	SAS0544
SAS0545	626322	626519	+	SAS0545
SAS0546	626560	627312	-	SAS0546
SAS0547	627480	628466	+	SAS0547
SAS0548	628469	629305	+	SAS0548
SAS0549	629892	630812	+	SAS0549
SAS0550	630817	631800	+	SAS0550
SAS0551	631813	632889	+	SAS0551
SAS0552	633066	633407	+	SAS0552
SAS0553	633459	634781	-	SAS0553
SAS0554	634768	635208	-	SAS0554
SAS0555	635833	637242	+	SAS0555
SAS0556	637246	637872	+	SAS0556
SAS0557	638008	638640	+	SAS0557
SAS0558	638728	639345	+	SAS0558
SAS0559	639420	640049	+	SAS0559
SAS0562	640997	641638	+	SAS0562
SAS0563	641685	642314	+	SAS0563
SAS0564	642767	643396	+	SAS0564
SAS0565	643511	644161	+	SAS0565
SAS0566	644198	644833	+	SAS0566
SAS0567	645068	645694	+	SAS0567
SAS0568	645964	646902	+	SAS0568
SAS0569	647113	647649	+	SAS0569
SAS0570	647818	648294	+	SAS0570
SAS0571	648334	649629	+	SAS0571
SAS0572	649672	650178	+	SAS0572
SAS0573	650677	651687	+	SAS0573
SAS0573a	651764	651871	+	SAS0573a
SAS0574	651952	652380	+	SAS0574
SAS0575	652377	654038	+	SAS0575
SAS0576	654429	655064	+	SAS0576
SAS0577	655315	656202	+	SAS0577
SAS0578	656351	657301	+	SAS0578
SAS0579	657356	658075	+	SAS0579
SAS0580	658059	658859	+	SAS0580
SAS0581	658995	659501	+	SAS0581
SAS0582	659663	660379	+	SAS0582
SAS0583	660548	661336	+	SAS0583
SAS0584	661586	661960	-	SAS0584
SAS0585	662908	663837	-	SAS0585
SAS0586	664032	664256	-	SAS0586
SAS0587	664273	664476	-	SAS0587
SAS0588	664635	665195	+	SAS0588
SAS0589	665214	667616	+	SAS0589
SAS0590	667603	668028	+	SAS0590
SAS0591	668025	668369	+	SAS0591
SAS0592	668359	669855	+	SAS0592
SAS0593	669856	670338	+	SAS0593
SAS0594	670335	670637	+	SAS0594
SAS0595	670612	671049	+	SAS0595
SAS0596	671389	673431	+	SAS0596
SAS0597	674592	675521	-	SAS0597
SAS0598	675518	676354	-	SAS0598
SAS0599	676348	677091	-	SAS0599
SAS0600	677213	677857	+	SAS0600
SAS0601	677937	678689	-	SAS0601
SAS0602	678925	679689	+	SAS0602
SAS0603	679750	680544	-	SAS0603
SAS0604	680870	681703	+	SAS0604
SAS0605	681802	682905	+	SAS0605
SAS0606	682902	683963	+	SAS0606
SAS0607	684026	684424	+	SAS0607
SAS0608	684541	685836	-	SAS0608
SAS0609	686257	687984	+	SAS0609
SAS0610a	688053	688133	+	SAS0610a
SAS0610	688341	689570	+	SAS0610
SAS0611	690095	690928	+	SAS0611
SAS0612	691210	692007	+	SAS0612
SAS0613	692043	693047	+	SAS0613
SAS0614	693044	694060	+	SAS0614
SAS0615	694294	695262	+	SAS0615
SAS0616	695304	695888	+	SAS0616
SAS0617	695881	696243	+	SAS0617
SAS0618	696359	696856	+	SAS0618
SAS0619	697313	698380	+	SAS0619
SAS0620	698531	699574	+	SAS0620
SAS0621	699903	700331	+	SAS0621
SAS0622	700540	701046	-	SAS0622
SAS0623	701159	702082	+	SAS0623
SAS0624	702098	702772	+	SAS0624
SAS0625	702765	703805	+	SAS0625
SAS0626	703949	704710	+	SAS0626
SAS0627	704700	706589	+	SAS0627
SAS0628	707314	707931	+	SAS0628
SAS0629	707947	708954	+	SAS0629
SAS0630	709542	710339	-	SAS0630
SAS0631	710700	711344	+	SAS0631
SAS0632	712041	714191	+	SAS0632
SAS0633	714271	714696	+	SAS0633
SAS0634	714886	715602	+	SAS0634
SAS0635	715602	716075	+	SAS0635
SAS0636	716428	717072	+	SAS0636
SAS0637	717188	718054	+	SAS0637
SAS0638	718393	719613	+	SAS0638
SAS0639	719610	720098	+	SAS0639
SAS0640	720197	720886	-	SAS0640
SAS0641	721013	721456	+	SAS0641
SAS0642	721523	721918	+	SAS0642
SAS0643	722056	722355	+	SAS0643
SAS0644	722435	722977	+	SAS0644
SAS0645	723073	723639	-	SAS0645
SAS0646	723641	724099	-	SAS0646
SAS0647	724102	724785	-	SAS0647
SAS0648	724957	725832	-	SAS0648
SAS0649	726051	727682	+	SAS0649
SAS0650	727679	729352	+	SAS0650
SAS0651	729479	729922	-	SAS0651
SAS0652	730149	731075	+	SAS0652
SAS0653	731178	732086	+	SAS0653
SAS0654	732121	732408	+	SAS0654
SAS0655	732691	734244	+	SAS0655
SAS0656	734330	735703	+	SAS0656
SAS0657	735858	736142	-	SAS0657
SAS0658	736139	736759	-	SAS0658
SAS0659	736942	737364	-	SAS0659
SAS0660	737573	738739	+	SAS0660
SAS0661	739020	739484	+	SAS0661
SAS0662	739657	740139	+	SAS0662
SAS0663	740392	741153	+	SAS0663
SAS0664	741150	742070	+	SAS0664
SAS0665	742076	744034	+	SAS0665
SAS0666	744342	745523	+	SAS0666
SAS0667	745744	747093	+	SAS0667
SAS0668	747315	748154	+	SAS0668
SAS0669	748286	749269	+	SAS0669
SAS0670	749341	750396	-	SAS0670
SAS0671	750396	751082	-	SAS0671
SAS0672	751057	751530	-	SAS0672
SAS0673	751873	752313	-	SAS0673
SAS0674	752593	753177	-	SAS0674
SAS0675	753276	753989	-	SAS0675
SAS0676	753993	754412	-	SAS0676
SAS0677	754414	755082	-	SAS0677
SAS0678	755433	756026	+	SAS0678
SAS0679	756010	757161	+	SAS0679
SAS0680	757161	757769	+	SAS0680
SAS0681	757835	758041	+	SAS0681
SAS0682	758129	758839	+	SAS0682
SAS0683	758823	759827	+	SAS0683
SAS0684	760301	762241	+	SAS0684
SAS0685	762518	764395	+	SAS0685
SAS0686	764407	766188	+	SAS0686
SAS0687	766410	767387	+	SAS0687
SAS0688	767380	768894	+	SAS0688
SAS0689	769134	770192	+	SAS0689
SAS0690	770487	771029	+	SAS0690
SAS0691	771710	772627	-	SAS0691
SAS0692	772896	774401	-	SAS0692
SAS0693	774742	775242	-	SAS0693
SAS0694	775262	776128	-	SAS0694
SAS0695	776929	777327	+	SAS0695
SAS0696	777290	779395	+	SAS0696
SAS0697	779513	780484	+	SAS0697
SAS0698	781192	782163	+	SAS0698
SAS0699	782150	783106	+	SAS0699
SAS0700	783103	783864	+	SAS0700
SAS0701	783983	785011	+	SAS0701
SAS0702	785328	785642	-	SAS0702
SAS0703	785660	786583	-	SAS0703
SAS0704	786710	787228	-	SAS0704
SAS0705	787348	788226	+	SAS0705
SAS0706	788380	788700	+	SAS0706
SAS0707	789125	790249	+	SAS0707
SAS0708	790431	791657	-	SAS0708
SAS0709	791671	792165	-	SAS0709
SAS0710	792183	792944	-	SAS0710
SAS0711	793140	794210	-	SAS0711
SAS0712	794528	795583	+	SAS0712
SAS0713	795755	796396	-	SAS0713
SAS0714	796540	797406	+	SAS0714
SAS0715	797770	798852	+	SAS0715
SAS0716	798845	799519	+	SAS0716
SAS0717	799580	800152	+	SAS0717
SAS0718	800566	803097	+	SAS0718
SAS0720	804931	805770	+	SAS0720
SAS0721	805944	806594	+	SAS0721
SAS0722	806591	806827	+	SAS0722
SAS0723	807090	809081	+	SAS0723
SAS0724	809089	811935	+	SAS0724
SAS0725	812542	813474	+	SAS0725
SAS0726	813480	814319	+	SAS0726
SAS0727	814327	814812	+	SAS0727
SAS0728	814820	816259	+	SAS0728
SAS0729	816326	817261	+	SAS0729
SAS0730	818026	818937	+	SAS0730
SAS0731	818934	819929	+	SAS0731
SAS0732	820040	820984	+	SAS0732
SAS0733	821557	822144	+	SAS0733
SAS0734	822387	823289	-	SAS0734
SAS0736	823992	824621	+	SAS0736
SAS0737	825318	826331	+	SAS0737
SAS0738	826384	827394	+	SAS0738
SAS0739	827533	828723	+	SAS0739
SAS0740	828845	829606	+	SAS0740
SAS0741	829609	831126	+	SAS0741
SAS0742	831256	832560	+	SAS0742
SAS0743	832899	833357	+	SAS0743
SAS0744	833424	833657	+	SAS0744
SAS0745	833773	834513	+	SAS0745
SAS0746	834547	836919	+	SAS0746
SAS0747	836941	837405	+	SAS0747
SAS0749	838270	838998	-	SAS0749
SAS0750	839596	840117	+	SAS0750
SAS0751	840256	840786	+	SAS0751
SAS0752	841049	843835	+	SAS0752
SAS0753	844056	845582	+	SAS0753
SAS0754	845933	846955	+	SAS0754
SAS0755	847290	847811	+	SAS0755
SAS0756	848152	848838	+	SAS0756
SAS0757	849195	849395	+	SAS0757
SAS0758	849891	850109	-	SAS0758
SAS0759	850171	850455	-	SAS0759
SAS0760	850543	851112	-	SAS0760
SAS0761	851300	851488	-	SAS0761
SAS0762	851517	851777	-	SAS0762
SAS0763	852117	852320	+	SAS0763
SAS0764	852317	852553	-	SAS0764
SAS0765	852777	853358	+	SAS0765
SAS0766	853407	854024	-	SAS0766
SAS0767	854179	854673	-	SAS0767
SAS0767a	854881	854931	+	SAS0767a
SAS0768	855072	855494	-	SAS0768
SAS0769	855642	856358	+	SAS0769
SAS0770	856441	856980	+	SAS0770
SAS0771	857130	857450	-	SAS0771
SAS0772	857594	857950	+	SAS0772
SAS0773	858108	858488	+	SAS0773
SAS0774	858667	859545	+	SAS0774
SAS0775	859569	859811	-	SAS0775
SAS0776	860286	860672	+	SAS0776
SAS0777	860665	860961	+	SAS0777
SAS0779	861211	862236	+	SAS0779
SAS0780	862229	862924	+	SAS0780
SAS0781	862942	863763	+	SAS0781
SAS0782	864117	864311	+	SAS0782
SAS0783	864544	865395	-	SAS0783
SAS0784	865723	866484	+	SAS0784
SAS0785	866582	867889	+	SAS0785
SAS0786	868004	869245	+	SAS0786
SAS0787	869235	869699	+	SAS0787
SAS0788	869850	871247	+	SAS0788
SAS0788a	871434	871571	+	SAS0788a
SAS0789	871577	871891	-	SAS0789
SAS0790	872256	873296	+	SAS0790
SAS0791	873310	874377	+	SAS0791
SAS0792	874553	875401	+	SAS0792
SAS0793	875414	876241	+	SAS0793
SAS0794	876268	877587	+	SAS0794
SAS0795	877671	878588	+	SAS0795
SAS0796	878718	879101	+	SAS0796
SAS0797	879180	879446	-	SAS0797
SAS0798	879544	879978	+	SAS0798
SAS0799	879978	880757	+	SAS0799
SAS0800	880790	881749	+	SAS0800
SAS0801	882161	882313	+	SAS0801
SAS0802	882329	883786	+	SAS0802
SAS0803	883783	884997	+	SAS0803
SAS0804	885015	885251	+	SAS0804
SAS0805	885248	886423	+	SAS0805
SAS0806	886686	886928	-	SAS0806
SAS0807	887029	887352	+	SAS0807
SAS0808	887411	888475	-	SAS0808
SAS0809	888792	889028	+	SAS0809
SAS0810	889041	889400	+	SAS0810
SAS0811	889854	891062	+	SAS0811
SAS0812	891193	892668	+	SAS0812
SAS0813	893079	894395	+	SAS0813
SAS0814	894414	894788	+	SAS0814
SAS0815	894844	895998	-	SAS0815
SAS0816	896247	896603	-	SAS0816
SAS0817	896581	896874	-	SAS0817
SAS0818	896874	897353	-	SAS0818
SAS0819	897355	898851	-	SAS0819
SAS0820	898844	899185	-	SAS0820
SAS0821	899185	899613	-	SAS0821
SAS0822	899606	902011	-	SAS0822
SAS0823	902142	902525	-	SAS0823
SAS0824	902589	903182	+	SAS0824
SAS0825	903597	903974	+	SAS0825
SAS0826	904336	905463	+	SAS0826
SAS0827	905771	906961	+	SAS0827
SAS0828	907070	908314	+	SAS0828
SAS0829	908704	909633	-	SAS0829
SAS0830	909875	911254	-	SAS0830
SAS0831	911244	912449	-	SAS0831
SAS0832	912800	914131	+	SAS0832
SAS0833	914456	915031	+	SAS0833
SAS0834	915036	915560	+	SAS0834
SAS0835	915576	916151	+	SAS0835
SAS0836	916311	919787	+	SAS0836
SAS0837	919788	923441	+	SAS0837
SAS0838	923607	924509	+	SAS0838
SAS0839	924838	925227	+	SAS0839
SAS0840	925399	926715	-	SAS0840
SAS0841	926767	927591	-	SAS0841
SAS0842	927705	928013	+	SAS0842
SAS0843	928010	928102	-	SAS0843
SAS0844	928561	930375	+	SAS0844
SAS0845	930578	933187	+	SAS0845
SAS0846	933246	934115	-	SAS0846
SAS0847	934225	935370	+	SAS0847
SAS0848	935354	935995	+	SAS0848
SAS0849	935988	937106	+	SAS0849
SAS0850	937090	937605	+	SAS0850
SAS0851	937916	938350	+	SAS0851
SAS0852	938607	938792	-	SAS0852
SAS0853	939087	940028	+	SAS0853
SAS0854	940040	941284	+	SAS0854
SAS0855	941339	941710	-	SAS0855
SAS0856	941953	942879	+	SAS0856
SAS0857	942879	943949	+	SAS0857
SAS0858	943965	945047	+	SAS0858
SAS0859	945037	945978	+	SAS0859
SAS0860	945997	947652	+	SAS0860
SAS0861	947864	949579	+	SAS0861
SAS0862	949630	950616	+	SAS0862
SAS0863	950619	951599	+	SAS0863
SAS0864	951592	952554	+	SAS0864
SAS0865	952566	953447	+	SAS0865
SAS0866	953489	954478	-	SAS0866
SAS0867	954773	955168	+	SAS0867
SAS0868	955539	956258	+	SAS0868
SAS0869	956379	957365	+	SAS0869
SAS0870	957413	959221	+	SAS0870
SAS0871	959681	960487	-	SAS0871
SAS0872	960510	960875	-	SAS0872
SAS0873	960979	961572	-	SAS0873
SAS0874	961758	962105	+	SAS0874
SAS0875	962122	962757	+	SAS0875
SAS0876	962774	963583	+	SAS0876
SAS0877	963580	964434	+	SAS0877
SAS0878	964455	965840	+	SAS0878
SAS0879	965850	967694	+	SAS0879
SAS0880	967972	968742	+	SAS0880
SAS0881	968937	970022	-	SAS0881
SAS0882	970364	971932	+	SAS0882
SAS0883	972077	972835	+	SAS0883
SAS0884	973029	973538	+	SAS0884
SAS0885	973651	974841	-	SAS0885
SAS0886	974819	975994	-	SAS0886
SAS0887	976427	977911	+	SAS0887
SAS0888	977901	978152	+	SAS0888
SAS0889	978152	979714	+	SAS0889
SAS0890	980016	980819	+	SAS0890
SAS0891	981108	982313	-	SAS0891
SAS0892	982440	983063	+	SAS0892
SAS0893	983050	983172	-	SAS0893
SAS0894	983262	983657	-	SAS0894
SAS0895	983686	984120	-	SAS0895
SAS0896	984138	984599	-	SAS0896
SAS0897	984612	984941	-	SAS0897
SAS0898	985093	985293	+	SAS0898
SAS0899	985377	985553	+	SAS0899
SAS0900	985550	985789	-	SAS0900
SAS0901	985836	986051	+	SAS0901
SAS0902	986076	986339	+	SAS0902
SAS0903	986351	986512	+	SAS0903
SAS0905	986905	987165	+	SAS0905
SAS0906	987179	987541	+	SAS0906
SAS0907	987538	988704	+	SAS0907
SAS0908	988730	989287	+	SAS0908
SAS0909	989347	991308	+	SAS0909
SAS0910	991321	991506	+	SAS0910
SAS0911	991506	991907	+	SAS0911
SAS0912	991907	992161	+	SAS0912
SAS0913	992167	992409	+	SAS0913
SAS0914	992423	992629	+	SAS0914
SAS0915	992632	993036	+	SAS0915
SAS0916	993033	993380	+	SAS0916
SAS0917	993377	993685	+	SAS0917
SAS0918	993678	993926	+	SAS0918
SAS0919	993919	994455	+	SAS0919
SAS0920	994492	994665	+	SAS0920
SAS0921	994682	994876	+	SAS0921
SAS0922	994876	995400	+	SAS0922
SAS0923	995448	995600	+	SAS0923
SAS0923a	995594	995665	+	SAS0923a
SAS0924	995668	995868	+	SAS0924
SAS0925	995895	996101	-	SAS0925
SAS0926	996156	998603	+	SAS0926
SAS0927	998944	999234	+	SAS0927
SAS0928	999224	1000591	+	SAS0928
SAS0929	1000604	1001041	+	SAS0929
SAS0930	1001202	1001522	+	SAS0930
SAS0931	1001648	1001953	+	SAS0931
SAS0932	1001934	1003634	+	SAS0932
SAS0933	1003639	1004877	+	SAS0933
SAS0934	1004861	1005634	+	SAS0934
SAS0935	1005646	1006809	+	SAS0935
SAS0936	1006878	1007156	+	SAS0936
SAS0937	1007168	1007500	+	SAS0937
SAS0938	1007527	1007898	+	SAS0938
SAS0939	1007899	1008294	+	SAS0939
SAS0940	1008329	1008970	+	SAS0940
SAS0941	1009062	1009517	+	SAS0941
SAS0942	1009575	1009925	+	SAS0942
SAS0943	1009967	1010125	+	SAS0943
SAS0944	1010139	1016339	+	SAS0944
SAS0945	1016339	1017163	+	SAS0945
SAS0946	1017172	1018755	+	SAS0946
SAS0947	1018755	1019045	+	SAS0947
SAS0948	1019061	1020971	+	SAS0948
SAS0949	1020971	1022437	+	SAS0949
SAS0950	1022437	1022826	+	SAS0950
SAS0951	1022819	1022983	+	SAS0951
SAS0952	1023029	1023328	+	SAS0952
SAS0953	1023464	1023766	+	SAS0953
SAS0954	1023777	1025231	+	SAS0954
SAS0955	1025807	1028116	+	SAS0955
SAS0956	1028133	1029491	+	SAS0956
SAS0957	1029627	1031141	+	SAS0957
SAS0958	1031628	1032197	-	SAS0958
SAS0959	1032398	1032625	+	SAS0959
SAS0960	1032706	1033692	-	SAS0960
SAS0961	1033891	1034067	+	SAS0961
SAS0962	1034082	1034684	+	SAS0962
SAS0963	1034895	1035002	+	SAS0963
SAS0964	1035643	1035924	+	SAS0964
SAS0967	1037934	1038254	+	SAS0967
SAS0968	1038251	1038892	+	SAS0968
SAS0969	1038980	1039270	-	SAS0969
SAS0970	1039611	1039898	+	SAS0970
SAS0971	1039904	1041385	+	SAS0971
SAS0972	1041474	1041830	-	SAS0972
SAS0973	1042318	1043277	+	SAS0973
SAS0974	1043323	1043439	-	SAS0974
SAS0975	1043518	1043733	-	SAS0975
SAS0976	1043898	1044449	+	SAS0976
SAS0977	1044500	1045438	-	SAS0977
SAS0978	1045611	1046981	+	SAS0978
SAS0979	1046968	1048641	+	SAS0979
SAS0980	1048628	1049431	+	SAS0980
SAS0981	1049424	1050245	+	SAS0981
SAS0982	1050483	1050812	-	SAS0982
SAS0983	1050850	1052031	-	SAS0983
SAS0984	1052113	1053114	-	SAS0984
SAS0985	1053642	1054796	-	SAS0985
SAS0986	1054992	1056002	-	SAS0986
SAS0987	1056155	1056574	+	SAS0987
SAS0988	1056781	1060533	-	SAS0988
SAS0989	1060761	1061195	-	SAS0989
SAS0990	1061350	1061820	-	SAS0990
SAS0991	1061868	1063085	-	SAS0991
SAS0992	1063536	1064729	+	SAS0992
SAS0993	1065266	1065556	-	SAS0993
SAS0994	1065553	1066158	-	SAS0994
SAS0995	1066148	1068136	-	SAS0995
SAS0996	1068136	1069236	-	SAS0996
SAS0997	1069808	1070125	-	SAS0997
SAS0999	1070908	1071768	-	SAS0999
SAS1000	1071969	1072451	+	SAS1000
SAS1001	1072438	1073562	+	SAS1001
SAS1002	1073566	1074270	+	SAS1002
SAS1003	1074270	1074533	+	SAS1003
SAS1004	1074535	1075206	+	SAS1004
SAS1005	1075199	1077388	+	SAS1005
SAS1006	1077367	1078851	+	SAS1006
SAS1007	1078844	1079872	+	SAS1007
SAS1008	1079875	1080441	+	SAS1008
SAS1009	1080456	1081934	+	SAS1009
SAS1010	1081956	1083203	+	SAS1010
SAS1011	1083468	1084289	-	SAS1011
SAS1012	1084267	1085667	-	SAS1012
SAS1013	1085682	1086257	-	SAS1013
SAS1014	1086841	1086975	-	SAS1014
SAS1015	1087127	1088422	+	SAS1015
SAS1016	1088847	1090019	+	SAS1016
SAS1017	1090073	1090615	+	SAS1017
SAS1018	1090769	1091035	+	SAS1018
SAS1019	1091038	1092756	+	SAS1019
SAS1020	1092993	1093226	-	SAS1020
SAS1021	1093424	1094785	+	SAS1021
SAS1022	1094782	1095801	+	SAS1022
SAS1023	1095934	1096596	+	SAS1023
SAS1024	1096945	1098642	-	SAS1024
SAS1025	1098642	1098860	-	SAS1025
SAS1026	1099342	1099893	-	SAS1026
SAS1027	1100258	1100884	+	SAS1027
SAS1028	1101055	1102167	+	SAS1028
SAS1029	1102171	1103148	+	SAS1029
SAS1030	1103239	1104531	+	SAS1030
SAS1031	1104535	1105941	+	SAS1031
SAS1032	1106109	1106384	+	SAS1032
SAS1033	1106528	1107067	+	SAS1033
SAS1034	1107080	1108174	+	SAS1034
SAS1035	1108167	1108964	+	SAS1035
SAS1036	1108970	1109779	+	SAS1036
SAS1037	1109779	1110852	+	SAS1037
SAS1038	1110926	1111945	+	SAS1038
SAS1039	1112228	1112647	+	SAS1039
SAS1040	1112729	1114081	-	SAS1040
SAS1041	1114265	1114879	-	SAS1041
SAS1042	1115036	1115863	+	SAS1042
SAS1043	1116017	1116208	-	SAS1043
SAS1044	1116310	1118157	+	SAS1044
SAS1045	1118297	1118464	-	SAS1045
SAS1046	1118466	1118948	-	SAS1046
SAS1047	1119089	1119364	+	SAS1047
SAS1048	1119678	1120904	+	SAS1048
SAS1049	1121458	1124910	+	SAS1049
SAS1050	1125050	1125961	-	SAS1050
SAS1051	1126401	1127312	+	SAS1051
SAS1052	1127337	1127798	+	SAS1052
SAS1053	1128125	1129162	+	SAS1053
SAS1054	1129178	1129612	+	SAS1054
SAS1055	1129675	1130601	-	SAS1055
SAS1056	1130840	1131094	+	SAS1056
SAS1057	1131097	1131486	-	SAS1057
SAS1058	1131556	1132098	+	SAS1058
SAS1059	1132100	1132582	+	SAS1059
SAS1060	1132644	1133783	-	SAS1060
SAS1061	1133910	1134467	+	SAS1061
SAS1062	1134547	1134720	+	SAS1062
SAS1063	1134874	1136811	-	SAS1063
SAS1064	1137014	1138066	-	SAS1064
SAS1065	1138275	1138958	+	SAS1065
SAS1066	1138958	1140034	+	SAS1066
SAS1067	1140031	1140909	+	SAS1067
SAS1068	1140919	1141887	+	SAS1068
SAS1069	1141949	1142683	+	SAS1069
SAS1070	1142702	1143025	+	SAS1070
SAS1070a	1143062	1143169	+	SAS1070a
SAS1071	1143409	1144149	+	SAS1071
SAS1072	1144530	1145588	+	SAS1072
SAS1073	1145588	1147990	+	SAS1073
SAS1074	1148225	1149163	-	SAS1074
SAS1075	1149533	1149799	+	SAS1075
SAS1076	1149800	1150321	+	SAS1076
SAS1077	1150394	1152106	+	SAS1077
SAS1078	1152116	1154464	+	SAS1078
SAS1079	1154637	1154951	+	SAS1079
SAS1080	1155275	1157056	+	SAS1080
SAS1081	1157380	1157994	+	SAS1081
SAS1082	1158046	1159812	+	SAS1082
SAS1083	1159812	1160627	+	SAS1083
SAS1084	1160863	1161663	+	SAS1084
SAS1085	1161675	1162262	+	SAS1085
SAS1086	1162255	1162758	+	SAS1086
SAS1087	1162886	1163053	+	SAS1087
SAS1088	1163247	1163564	+	SAS1088
SAS1089	1163934	1164332	-	SAS1089
SAS1090	1165003	1165509	+	SAS1090
SAS1091	1165768	1166265	+	SAS1091
SAS1092	1166419	1166769	+	SAS1092
SAS1093	1167086	1167409	+	SAS1093
SAS1094	1167534	1167719	-	SAS1094
SAS1095	1167926	1168174	-	SAS1095
SAS1096	1168338	1168571	-	SAS1096
SAS1097	1169048	1170007	-	SAS1097
SAS1097a	1170680	1170826	+	SAS1097a
SAS1098	1170810	1171007	+	SAS1098
SAS1099	1171451	1172167	-	SAS1099
SAS1100	1172275	1173000	-	SAS1100
SAS1101	1173095	1173820	-	SAS1101
SAS1102	1174258	1175259	+	SAS1102
SAS1103	1175282	1176214	+	SAS1103
SAS1104	1176386	1177942	+	SAS1104
SAS1105	1178249	1178476	+	SAS1105
SAS1106	1178782	1179729	-	SAS1106
SAS1107	1179978	1180166	+	SAS1107
SAS1107a	1181078	1181212	+	SAS1107a
SAS1108	1181269	1181403	+	SAS1108
SAS1109	1181536	1182222	+	SAS1109
SAS1110	1182331	1182771	-	SAS1110
SAS1111	1182966	1184579	+	SAS1111
SAS1112	1184723	1185154	+	SAS1112
SAS1113	1185170	1186105	+	SAS1113
SAS1114	1186119	1186520	+	SAS1114
SAS1115	1186501	1188735	+	SAS1115
SAS1116	1189027	1189992	+	SAS1116
SAS1117	1189994	1191343	+	SAS1117
SAS1118	1191356	1192678	+	SAS1118
SAS1119	1192784	1194196	+	SAS1119
SAS1120	1194229	1195401	+	SAS1120
SAS1121	1195661	1196452	+	SAS1121
SAS1122	1196470	1197144	+	SAS1122
SAS1123	1197141	1197704	+	SAS1123
SAS1124	1197716	1198006	+	SAS1124
SAS1125	1198089	1198895	+	SAS1125
SAS1126	1198919	1199536	+	SAS1126
SAS1127	1199757	1202510	+	SAS1127
SAS1128	1202800	1203597	+	SAS1128
SAS1130	1204450	1204941	+	SAS1130
SAS1131	1204941	1205858	+	SAS1131
SAS1132	1206258	1206785	+	SAS1132
SAS1133	1207003	1208310	+	SAS1133
SAS1134	1208338	1209219	+	SAS1134
SAS1135	1209237	1210511	+	SAS1135
SAS1136	1210513	1211613	+	SAS1136
SAS1137	1211606	1214779	+	SAS1137
SAS1138	1214886	1215581	+	SAS1138
SAS1139	1215581	1216192	+	SAS1139
SAS1140	1216222	1216434	+	SAS1140
SAS1141	1216871	1217272	+	SAS1141
SAS1142	1217535	1219232	-	SAS1142
SAS1143	1219507	1220130	+	SAS1143
SAS1144	1220130	1220348	+	SAS1144
SAS1145	1220564	1221763	+	SAS1145
SAS1146	1221763	1224171	+	SAS1146
SAS1147	1224674	1225627	+	SAS1147
SAS1148	1225790	1226068	-	SAS1148
SAS1149	1226292	1226780	+	SAS1149
SAS1150	1226773	1227708	+	SAS1150
SAS1151	1227705	1229012	+	SAS1151
SAS1152	1229015	1230109	+	SAS1152
SAS1153	1230116	1230859	+	SAS1153
SAS1154	1230856	1232850	+	SAS1154
SAS1155	1233078	1233953	+	SAS1155
SAS1156	1233954	1234598	+	SAS1156
SAS1157	1234605	1235246	+	SAS1157
SAS1158	1235627	1235815	-	SAS1158
SAS1159	1236258	1236632	+	SAS1159
SAS1160	1236647	1238293	+	SAS1160
SAS1161	1238483	1240543	+	SAS1161
SAS1162	1240761	1241318	+	SAS1162
SAS1163	1241323	1242309	+	SAS1163
SAS1164	1242302	1243228	+	SAS1164
SAS1165	1243215	1243955	+	SAS1165
SAS1166	1244325	1244558	+	SAS1166
SAS1167	1244674	1245405	+	SAS1167
SAS1168	1245552	1249118	+	SAS1168
SAS1169	1249118	1250368	+	SAS1169
SAS1170	1250355	1250687	+	SAS1170
SAS1171	1250713	1252080	+	SAS1171
SAS1172	1252515	1252790	+	SAS1172
SAS1173	1252978	1253481	+	SAS1173
SAS1174	1253481	1254218	+	SAS1174
SAS1175	1254321	1254671	+	SAS1175
SAS1176	1255140	1257746	-	SAS1176
SAS1177	1258147	1259031	+	SAS1177
SAS1178	1259015	1259782	+	SAS1178
SAS1179	1259891	1261057	+	SAS1179
SAS1180	1261079	1261987	+	SAS1180
SAS1181	1262214	1263332	+	SAS1181
SAS1182	1263360	1264604	+	SAS1182
SAS1183	1264777	1265649	+	SAS1183
SAS1184	1265829	1267898	+	SAS1184
SAS1185	1268054	1269361	+	SAS1185
SAS1186	1269778	1270674	+	SAS1186
SAS1187	1270671	1271216	+	SAS1187
SAS1188	1271282	1272685	+	SAS1188
SAS1189	1272710	1273483	+	SAS1189
SAS1190	1273825	1274592	+	SAS1190
SAS1191	1274774	1275655	+	SAS1191
SAS1192	1275792	1276514	+	SAS1192
SAS1193	1276533	1277087	+	SAS1193
SAS1194	1277460	1278230	+	SAS1194
SAS1195	1278237	1279019	+	SAS1195
SAS1196	1279231	1280517	+	SAS1196
SAS1197	1280537	1282240	+	SAS1197
SAS1198	1282498	1286814	+	SAS1198
SAS1199	1287104	1287571	+	SAS1199
SAS1200	1287592	1288767	+	SAS1200
SAS1201	1288788	1289072	+	SAS1201
SAS1202	1289069	1289386	+	SAS1202
SAS1203	1289391	1291508	+	SAS1203
SAS1204	1291894	1292244	+	SAS1204
SAS1205	1292414	1293331	+	SAS1205
SAS1206	1293346	1294317	+	SAS1206
SAS1207	1294432	1294701	+	SAS1207
SAS1208	1295069	1297165	+	SAS1208
SAS1209	1297401	1299074	+	SAS1209
SAS1210	1299331	1301700	+	SAS1210
SAS1211	1301705	1302418	+	SAS1211
SAS1212	1302449	1303714	+	SAS1212
SAS1213	1303714	1305000	+	SAS1213
SAS1214	1305000	1305704	+	SAS1214
SAS1215	1305809	1306636	+	SAS1215
SAS1216	1306655	1307047	+	SAS1216
SAS1217	1307081	1307659	+	SAS1217
SAS1218	1307886	1309037	+	SAS1218
SAS1219	1309202	1310245	+	SAS1219
SAS1220	1310599	1312158	+	SAS1220
SAS1221	1312455	1312670	-	SAS1221
SAS1222	1312844	1313641	+	SAS1222
SAS1223	1313781	1315541	+	SAS1223
SAS1224	1315542	1316408	+	SAS1224
SAS1225	1316502	1316795	+	SAS1225
SAS1226	1316929	1318473	+	SAS1226
SAS1227	1318474	1318839	+	SAS1227
SAS1228	1318866	1319357	+	SAS1228
SAS1229	1319660	1322278	+	SAS1229
SAS1230	1322291	1324300	+	SAS1230
SAS1231	1324315	1324848	+	SAS1231
SAS1231a	1324885	1324983	-	SAS1231a
SAS1232	1325323	1326141	+	SAS1232
SAS1233	1326270	1327766	+	SAS1233
SAS1234	1327876	1329597	+	SAS1234
SAS1235	1329747	1330661	+	SAS1235
SAS1236	1330679	1331614	+	SAS1236
SAS1237	1331629	1331862	+	SAS1237
SAS1238	1332084	1332560	-	SAS1238
SAS1239	1332672	1333910	+	SAS1239
SAS1240	1333929	1335167	+	SAS1240
SAS1241	1335411	1335779	+	SAS1241
SAS1242	1335798	1337138	+	SAS1242
SAS1243	1337641	1337838	+	SAS1243
SAS1244	1338539	1338745	+	SAS1244
SAS1245	1339042	1339248	+	SAS1245
SAS1246a	1341182	1341286	+	SAS1246a
SAS1247	1341415	1341666	+	SAS1247
SAS1249	1342141	1342575	+	SAS1249
SAS1250	1342863	1343075	+	SAS1250
SAS1251	1343195	1343464	+	SAS1251
SAS1252	1343477	1343599	+	SAS1252
SAS1254	1344328	1344522	+	SAS1254
SAS1255	1344808	1344918	+	SAS1255
SAS1256	1345083	1346108	-	SAS1256
SAS1257	1346378	1346575	+	SAS1257
SAS1258	1346632	1348113	+	SAS1258
SAS1259	1348288	1349196	+	SAS1259
SAS1260	1349165	1349896	+	SAS1260
SAS1261	1349900	1350991	+	SAS1261
SAS1262	1350988	1351590	+	SAS1262
SAS1263	1351703	1351891	-	SAS1263
SAS1264	1352030	1352563	+	SAS1264
SAS1265	1352706	1353560	-	SAS1265
SAS1266	1353876	1354466	+	SAS1266
SAS1267	1354520	1355914	-	SAS1267
SAS1268	1356093	1357373	+	SAS1268
SAS1269	1357379	1358440	+	SAS1269
SAS1270	1358442	1359356	+	SAS1270
SAS1271	1359414	1360217	+	SAS1271
SAS1272	1360510	1360824	-	SAS1272
SAS1273	1361042	1362496	-	SAS1273
SAS1274	1362700	1364217	+	SAS1274
SAS1275	1364308	1364457	+	SAS1275
SAS1276	1364911	1365180	+	SAS1276
SAS1277	1365337	1366314	+	SAS1277
SAS1278	1366489	1367352	+	SAS1278
SAS1279	1367732	1368355	-	SAS1279
SAS1280	1368495	1368731	+	SAS1280
SAS1281	1368867	1369106	+	SAS1281
SAS1282	1369227	1371215	+	SAS1282
SAS1283	1371493	1371735	+	SAS1283
SAS1284	1371914	1372381	+	SAS1284
SAS1285	1372505	1373626	+	SAS1285
SAS1286	1373630	1376659	+	SAS1286
SAS1287	1376730	1377092	-	SAS1287
SAS1288	1377296	1378942	+	SAS1288
SAS1289	1379834	1382539	+	SAS1289
SAS1290	1382719	1383186	+	SAS1290
SAS1292	1383393	1383689	-	SAS1292
SAS1293	1384064	1384672	-	SAS1293
SAS1294	1384872	1386869	+	SAS1294
SAS1295	1386869	1389271	+	SAS1295
SAS1296	1389521	1390981	+	SAS1296
SAS1297	1391481	1392332	+	SAS1297
SAS1298	1392379	1392474	+	SAS1298
SAS1299	1392467	1393675	+	SAS1299
SAS1300	1394156	1396678	+	SAS1300
SAS1301	1396881	1397390	-	SAS1301
SAS1302	1397527	1398510	+	SAS1302
SAS1303	1398598	1398786	-	SAS1303
SAS1304	1398931	1400193	+	SAS1304
SAS1305	1400329	1401420	-	SAS1305
SAS1306	1401585	1402616	+	SAS1306
SAS1307	1403108	1404514	+	SAS1307
SAS1308	1404511	1405077	+	SAS1308
SAS1309	1405083	1406081	+	SAS1309
SAS1310	1406083	1406865	+	SAS1310
SAS1311	1406865	1407497	+	SAS1311
SAS1312	1407490	1408704	+	SAS1312
SAS1313	1408697	1409425	+	SAS1313
SAS1314	1409747	1411009	+	SAS1314
SAS1315	1411028	1412287	+	SAS1315
SAS1316	1412576	1413232	+	SAS1316
SAS1319	1414319	1414792	-	SAS1319
SAS1320	1414916	1415617	-	SAS1320
SAS1321	1415610	1416383	-	SAS1321
SAS1322	1416370	1417200	-	SAS1322
SAS1323	1417193	1418179	-	SAS1323
SAS1324	1418483	1418827	-	SAS1324
SAS1325	1419032	1420846	+	SAS1325
SAS1326	1420985	1421626	-	SAS1326
SAS1327	1421633	1422484	-	SAS1327
SAS1328	1422531	1423448	-	SAS1328
SAS1329	1423450	1424376	-	SAS1329
SAS1330	1424567	1425550	-	SAS1330
SAS1332	1426526	1427428	-	SAS1332
SAS1333	1427575	1429176	+	SAS1333
SAS1334	1430043	1431248	+	SAS1334
SAS1335	1431312	1432301	+	SAS1335
SAS1336	1432303	1433190	+	SAS1336
SAS1337	1433187	1433909	+	SAS1337
SAS1338	1433936	1434655	+	SAS1338
SAS1339	1434798	1435949	+	SAS1339
SAS1340	1435954	1437039	+	SAS1340
SAS1341	1437029	1438294	+	SAS1341
SAS1342	1438534	1438935	-	SAS1342
SAS1343	1439132	1439332	-	SAS1343
SAS1344	1439503	1439811	-	SAS1344
SAS1345	1439974	1440243	+	SAS1345
SAS1346	1440268	1440891	+	SAS1346
SAS1347	1440923	1442059	+	SAS1347
SAS1350	1443072	1444415	-	SAS1350
SAS1351	1444640	1446526	-	SAS1351
SAS1352	1446540	1447331	-	SAS1352
SAS1353	1447512	1447715	-	SAS1353
SAS1354	1447744	1448553	-	SAS1354
SAS1355	1449133	1450401	-	SAS1355
SAS1356	1450415	1453213	-	SAS1356
SAS1357	1453497	1454852	-	SAS1357
SAS1358	1454849	1455508	-	SAS1358
SAS1358a	1455979	1456152	-	SAS1358a
SAS1359	1456295	1456909	-	SAS1359
SAS1360	1456926	1457996	-	SAS1360
SAS1361	1458008	1458517	-	SAS1361
SAS1363	1459705	1461195	-	SAS1363
SAS1364	1461387	1461608	-	SAS1364
SAS1365	1461608	1462108	-	SAS1365
SAS1366	1462120	1462548	-	SAS1366
SAS1367	1462541	1463074	-	SAS1367
SAS1368	1463160	1463999	-	SAS1368
SAS1369	1464014	1464493	-	SAS1369
SAS1370	1464693	1465649	-	SAS1370
SAS1371	1466073	1466510	-	SAS1371
SAS1372	1466526	1467650	-	SAS1372
SAS1373	1467689	1467940	-	SAS1373
SAS1374	1467952	1468146	-	SAS1374
SAS1375	1468391	1469095	+	SAS1375
SAS1375a	1469127	1469261	+	SAS1375a
SAS1376	1469635	1470036	+	SAS1376
SAS1379	1497358	1498749	-	SAS1379
SAS1380	1498906	1500228	-	SAS1380
SAS1381	1500259	1501299	-	SAS1381
SAS1382	1501394	1502512	-	SAS1382
SAS1383	1502988	1503866	-	SAS1383
SAS1384	1503886	1507326	-	SAS1384
SAS1385	1507629	1508969	+	SAS1385
SAS1386	1509540	1509872	-	SAS1386
SAS1387	1509956	1511101	-	SAS1387
SAS1388	1511752	1512096	-	SAS1388
SAS1389	1512110	1512673	-	SAS1389
SAS1390	1512666	1513016	-	SAS1390
SAS1391	1513070	1513249	-	SAS1391
SAS1392	1513555	1514181	+	SAS1392
SAS1393	1514178	1516361	+	SAS1393
SAS1394	1516925	1517266	-	SAS1394
SAS1395	1517271	1517930	-	SAS1395
SAS1396	1517920	1518606	-	SAS1396
SAS1397	1518934	1520226	-	SAS1397
SAS1398	1520548	1523241	-	SAS1398
SAS1399	1523265	1524236	-	SAS1399
SAS1400	1524223	1525425	-	SAS1400
SAS1401	1525430	1526572	-	SAS1401
SAS1402	1526814	1527131	-	SAS1402
SAS1403	1527467	1528165	-	SAS1403
SAS1404	1528219	1528806	-	SAS1404
SAS1405	1528796	1529371	-	SAS1405
SAS1406	1529385	1530629	-	SAS1406
SAS1407	1530636	1531934	-	SAS1407
SAS1408	1531944	1533008	-	SAS1408
SAS1409	1533034	1534200	-	SAS1409
SAS1409a	1534588	1534788	-	SAS1409a
SAS1410	1534998	1535447	-	SAS1410
SAS1411	1535539	1536498	-	SAS1411
SAS1412	1536500	1537225	-	SAS1412
SAS1413	1537228	1537800	-	SAS1413
SAS1414	1538231	1538503	-	SAS1414
SAS1415	1538674	1539672	-	SAS1415
SAS1416	1539689	1540999	-	SAS1416
SAS1417	1541221	1542396	-	SAS1417
SAS1418	1543094	1543753	-	SAS1418
SAS1419	1543830	1544798	+	SAS1419
SAS1420	1544913	1545899	-	SAS1420
SAS1421	1546301	1547761	-	SAS1421
SAS1422	1547914	1549293	-	SAS1422
SAS1423	1549283	1550236	-	SAS1423
SAS1424	1550344	1550592	+	SAS1424
SAS1425	1550698	1551243	-	SAS1425
SAS1426	1551653	1552567	-	SAS1426
SAS1427	1552624	1553541	-	SAS1427
SAS1428	1553599	1554504	-	SAS1428
SAS1429	1554595	1556757	-	SAS1429
SAS1430	1556769	1557677	-	SAS1430
SAS1431	1557922	1559688	-	SAS1431
SAS1432	1559654	1560397	-	SAS1432
SAS1433	1560512	1561249	-	SAS1433
SAS1434	1561242	1561784	-	SAS1434
SAS1435	1561777	1562532	-	SAS1435
SAS1436	1562600	1563106	+	SAS1436
SAS1437	1563184	1564071	-	SAS1437
SAS1438	1564120	1564569	-	SAS1438
SAS1439	1564674	1565216	-	SAS1439
SAS1440	1565298	1566206	+	SAS1440
SAS1441	1566422	1566670	-	SAS1441
SAS1442	1566686	1567444	-	SAS1442
SAS1443	1567583	1568398	+	SAS1443
SAS1444	1568501	1569421	-	SAS1444
SAS1445	1569734	1571218	+	SAS1445
SAS1446	1571448	1572314	+	SAS1446
SAS1447	1572396	1574045	-	SAS1447
SAS1448	1574061	1575080	-	SAS1448
SAS1449	1575274	1575645	-	SAS1449
SAS1450	1575864	1577270	-	SAS1450
SAS1451	1577338	1578471	-	SAS1451
SAS1452	1579040	1580020	-	SAS1452
SAS1453	1580034	1580471	-	SAS1453
SAS1454	1580822	1582096	-	SAS1454
SAS1455	1582109	1583092	-	SAS1455
SAS1456	1583092	1584084	-	SAS1456
SAS1457	1584100	1585521	-	SAS1457
SAS1458	1585672	1587351	-	SAS1458
SAS1459	1587367	1587819	-	SAS1459
SAS1460	1588251	1589132	-	SAS1460
SAS1461	1589110	1589340	-	SAS1461
SAS1462	1589333	1590670	-	SAS1462
SAS1463	1590687	1591076	-	SAS1463
SAS1464	1591136	1591498	-	SAS1464
SAS1465	1591513	1592868	-	SAS1465
SAS1466	1592868	1593332	-	SAS1466
SAS1467	1593806	1594363	-	SAS1467
SAS1468	1594389	1595450	-	SAS1468
SAS1469	1595555	1596136	+	SAS1469
SAS1470	1596150	1596368	+	SAS1470
SAS1471	1596432	1597262	-	SAS1471
SAS1472	1597420	1597806	+	SAS1472
SAS1473	1598171	1599643	-	SAS1473
SAS1474	1599636	1600991	-	SAS1474
SAS1475	1601002	1602093	-	SAS1475
SAS1476	1602252	1602776	-	SAS1476
SAS1477	1603009	1603506	-	SAS1477
SAS1478	1603424	1603723	-	SAS1478
SAS1479	1603710	1604144	-	SAS1479
SAS1480	1604134	1604445	-	SAS1480
SAS1481	1604459	1605529	-	SAS1481
SAS1482	1605501	1606475	-	SAS1482
SAS1483	1606527	1607150	-	SAS1483
SAS1484	1607147	1607476	-	SAS1484
SAS1485	1607476	1608462	-	SAS1485
SAS1486	1608459	1608662	-	SAS1486
SAS1487	1608643	1610106	-	SAS1487
SAS1488	1610118	1610657	-	SAS1488
SAS1489	1610866	1611015	-	SAS1489
SAS1490	1611128	1613203	-	SAS1490
SAS1491	1613324	1613923	-	SAS1491
SAS1492	1614199	1614609	-	SAS1492
SAS1493	1614596	1615459	-	SAS1493
SAS1494	1615501	1616286	-	SAS1494
SAS1495	1616412	1617302	-	SAS1495
SAS1496	1617312	1618658	-	SAS1496
SAS1497	1618772	1619872	-	SAS1497
SAS1498	1619875	1620552	-	SAS1498
SAS1499	1620683	1621789	-	SAS1499
SAS1500	1622013	1623830	-	SAS1500
SAS1501	1623891	1624709	-	SAS1501
SAS1503	1625678	1627069	+	SAS1503
SAS1504	1627220	1627972	-	SAS1504
SAS1505	1627994	1628893	-	SAS1505
SAS1506	1628894	1629298	-	SAS1506
SAS1507	1629309	1629653	-	SAS1507
SAS1508	1629656	1630123	-	SAS1508
SAS1509	1630124	1631071	-	SAS1509
SAS1510	1631375	1632073	-	SAS1510
SAS1511	1632090	1633079	-	SAS1511
SAS1512	1633097	1633804	-	SAS1512
SAS1513	1634024	1634200	-	SAS1513
SAS1514	1634493	1635839	-	SAS1514
SAS1515	1635846	1636598	-	SAS1515
SAS1516	1636600	1637538	-	SAS1516
SAS1517	1637542	1638681	-	SAS1517
SAS1518	1638817	1640649	-	SAS1518
SAS1519	1640718	1641344	-	SAS1519
SAS1520	1641376	1642353	-	SAS1520
SAS1521	1642454	1643578	-	SAS1521
SAS1522	1644144	1645967	-	SAS1522
SAS1523	1646313	1646564	+	SAS1523
SAS1524	1646609	1647583	-	SAS1524
SAS1525	1647640	1649841	-	SAS1525
SAS1526	1649846	1650307	-	SAS1526
SAS1527	1650399	1651076	-	SAS1527
SAS1528	1651125	1651841	-	SAS1528
SAS1529	1651844	1652197	-	SAS1529
SAS1530	1652198	1652782	-	SAS1530
SAS1531	1652772	1653341	-	SAS1531
SAS1532	1653344	1653634	-	SAS1532
SAS1533	1653638	1654444	-	SAS1533
SAS1534	1654458	1655558	-	SAS1534
SAS1535	1655559	1656086	-	SAS1535
SAS1536	1656106	1656792	-	SAS1536
SAS1537	1657106	1657375	+	SAS1537
SAS1538	1657577	1658266	-	SAS1538
SAS1539	1659036	1660256	-	SAS1539
SAS1540	1660543	1661772	-	SAS1540
SAS1541	1661784	1662536	-	SAS1541
SAS1542	1662536	1663897	-	SAS1542
SAS1543	1663911	1664360	-	SAS1543
SAS1544	1664362	1665372	-	SAS1544
SAS1545	1665362	1666096	-	SAS1545
SAS1546	1666422	1666898	-	SAS1546
SAS1547	1666926	1667549	-	SAS1547
SAS1548	1667549	1668817	-	SAS1548
SAS1549	1668829	1669752	-	SAS1549
SAS1550	1669755	1670393	-	SAS1550
SAS1551	1670678	1670986	-	SAS1551
SAS1552	1671001	1671429	-	SAS1552
SAS1553	1671433	1671693	-	SAS1553
SAS1554	1671756	1674386	-	SAS1554
SAS1555	1674729	1677206	-	SAS1555
SAS1556	1677208	1677876	-	SAS1556
SAS1557	1678457	1679575	-	SAS1557
SAS1558	1679576	1680718	-	SAS1558
SAS1559	1681030	1682043	+	SAS1559
SAS1560	1682280	1682426	-	SAS1560
SAS1561	1682466	1682648	-	SAS1561
SAS1562	1682748	1683170	-	SAS1562
SAS1563	1683255	1684529	+	SAS1563
SAS1564	1684690	1685463	-	SAS1564
SAS1565	1685677	1685778	-	SAS1565
SAS1566	1685924	1687690	-	SAS1566
SAS1567	1687706	1688968	-	SAS1567
SAS1568	1689429	1690304	-	SAS1568
SAS1569	1690301	1690753	-	SAS1569
SAS1570	1690765	1692975	-	SAS1570
SAS1571	1693382	1693900	-	SAS1571
SAS1572	1693922	1696195	-	SAS1572
SAS1573	1696398	1698677	-	SAS1573
SAS1574	1698952	1699212	-	SAS1574
SAS1575	1699231	1700370	-	SAS1575
SAS1576	1700393	1701418	-	SAS1576
SAS1577	1701420	1702424	-	SAS1577
SAS1578	1702456	1703058	-	SAS1578
SAS1579	1703072	1703530	-	SAS1579
SAS1580	1703540	1704832	-	SAS1580
SAS1581	1705317	1705601	-	SAS1581
SAS1582	1705613	1705933	-	SAS1582
SAS1583	1705939	1706247	-	SAS1583
SAS1584	1706609	1707139	-	SAS1584
SAS1585	1707139	1707981	-	SAS1585
SAS1585a	1708180	1708299	-	SAS1585a
SAS1586	1708373	1708846	-	SAS1586
SAS1587	1708988	1709203	+	SAS1587
SAS1588	1709320	1709604	-	SAS1588
SAS1589	1709672	1710358	-	SAS1589
SAS1590	1710355	1711062	-	SAS1590
SAS1591	1711332	1712603	-	SAS1591
SAS1592	1712616	1715246	-	SAS1592
SAS1593	1715649	1716209	+	SAS1593
SAS1594	1716432	1717505	-	SAS1594
SAS1595	1717539	1717628	-	SAS1595
SAS1596	1717701	1718987	-	SAS1596
SAS1597	1719035	1720009	-	SAS1597
SAS1598	1720012	1720680	-	SAS1598
SAS1599	1720702	1721628	-	SAS1599
SAS1600	1721670	1722485	-	SAS1600
SAS1601	1722507	1723853	-	SAS1601
SAS1602	1724070	1724660	-	SAS1602
SAS1603	1724814	1726076	-	SAS1603
SAS1604	1726227	1727528	-	SAS1604
SAS1605	1727691	1728620	-	SAS1605
SAS1606	1728639	1729247	-	SAS1606
SAS1607	1729389	1729745	-	SAS1607
SAS1608	1729792	1729992	-	SAS1608
SAS1609	1730021	1730548	-	SAS1609
SAS1610	1730777	1732270	-	SAS1610
SAS1611	1732696	1734633	-	SAS1611
SAS1612	1735045	1735965	-	SAS1612
SAS1613	1735965	1737365	-	SAS1613
SAS1614	1737366	1737836	-	SAS1614
SAS1615	1738047	1739072	-	SAS1615
SAS1616	1739242	1739865	-	SAS1616
SAS1617	1739881	1740753	-	SAS1617
SAS1618	1740769	1743399	-	SAS1618
SAS1619	1743693	1745180	-	SAS1619
SAS1620	1745679	1747343	-	SAS1620
SAS1621	1747340	1748044	-	SAS1621
SAS1622	1748434	1749702	-	SAS1622
SAS1623	1749751	1750872	-	SAS1623
SAS1624	1751220	1752581	+	SAS1624
SAS1625	1752929	1754686	-	SAS1625
SAS1626	1754708	1755676	-	SAS1626
SAS1627	1755945	1756889	-	SAS1627
SAS1628	1756889	1757746	-	SAS1628
SAS1629	1757941	1759170	-	SAS1629
SAS1630	1759620	1762817	-	SAS1630
SAS1631	1762838	1763779	-	SAS1631
SAS1632	1764233	1765531	-	SAS1632
SAS1633	1765736	1766149	+	SAS1633
SAS1634	1766454	1767143	-	SAS1634
SAS1635	1767318	1768373	+	SAS1635
SAS1636	1768689	1769807	-	SAS1636
SAS1637	1769948	1770448	+	SAS1637
SAS1638	1770694	1771896	-	SAS1638
SAS1639	1771984	1772931	-	SAS1639
SAS1640	1773054	1773548	-	SAS1640
SAS1641	1773646	1774416	-	SAS1641
SAS1642	1774460	1775683	-	SAS1642
SAS1643	1775683	1776822	-	SAS1643
SAS1644	1777194	1778888	-	SAS1644
SAS1645	1779025	1779489	+	SAS1645
SAS1646	1779733	1780335	+	SAS1646
SAS1647	1780551	1781294	-	SAS1647
SAS1648	1781374	1781820	+	SAS1648
SAS1649	1781934	1783094	+	SAS1649
SAS1650	1783081	1784685	+	SAS1650
SAS1651	1784835	1785965	-	SAS1651
SAS1652	1786072	1787538	-	SAS1652
SAS1653	1787666	1788283	-	SAS1653
SAS1654	1788455	1789729	+	SAS1654
SAS1655	1789823	1791085	-	SAS1655
SAS1656	1791467	1792372	+	SAS1656
SAS1657	1792575	1795262	-	SAS1657
SAS1657a	1795255	1795350	+	SAS1657a
SAS1658	1795596	1797263	-	SAS1658
SAS1659	1797703	1799409	-	SAS1659
SAS1660	1799578	1800210	+	SAS1660
SAS1661	1800235	1801404	+	SAS1661
SAS1662	1801502	1802491	-	SAS1662
SAS1663	1803031	1804122	-	SAS1663
SAS1664	1804822	1805868	-	SAS1664
SAS1665	1805942	1806433	-	SAS1665
SAS1666	1806507	1807820	-	SAS1666
SAS1667	1807844	1811668	-	SAS1667
SAS1668	1811689	1812285	-	SAS1668
SAS1669	1812314	1813171	-	SAS1669
SAS1670	1813271	1813582	-	SAS1670
SAS1671	1813647	1814723	-	SAS1671
SAS1672	1814810	1815121	+	SAS1672
SAS1673	1815246	1816088	-	SAS1673
SAS1674	1816558	1817202	-	SAS1674
SAS1675	1817217	1818008	-	SAS1675
SAS1676	1818559	1819407	-	SAS1676
SAS1677	1819411	1820820	-	SAS1677
SAS1678	1821513	1821935	-	SAS1678
SAS1679	1821952	1822647	-	SAS1679
SAS1680	1822644	1824305	-	SAS1680
SAS1681	1824712	1825980	+	SAS1681
SAS1682	1826097	1832657	-	SAS1682
SAS1683	1832983	1833294	-	SAS1683
SAS1684	1833316	1835736	-	SAS1684
SAS1685	1836027	1837208	-	SAS1685
SAS1686	1837318	1838271	+	SAS1686
SAS1687	1838268	1838831	+	SAS1687
SAS1688	1838951	1839451	-	SAS1688
SAS1689	1839926	1840753	-	SAS1689
SAS1690	1840987	1841988	+	SAS1690
SAS1691	1842110	1842574	-	SAS1691
SAS1692	1842587	1843768	-	SAS1692
SAS1693	1843779	1844411	-	SAS1693
SAS1694	1844418	1845461	-	SAS1694
SAS1695	1845942	1847444	-	SAS1695
SAS1696	1847967	1848281	+	SAS1696
SAS1697	1848281	1849573	+	SAS1697
SAS1698	1849660	1850514	-	SAS1698
SAS1699	1850790	1851014	-	SAS1699
SAS1700	1851213	1851683	+	SAS1700
SAS1701	1851796	1852239	+	SAS1701
SAS1702	1852226	1852669	-	SAS1702
SAS1704	1854039	1854752	-	SAS1704
SAS1705	1855012	1855314	+	SAS1705
SAS1706	1855492	1855935	+	SAS1706
SAS1707	1855932	1856285	+	SAS1707
SAS1708	1856477	1856656	+	SAS1708
SAS1709	1856668	1857501	-	SAS1709
SAS1710	1857713	1858624	-	SAS1710
SAS1711	1858746	1859939	-	SAS1711
SAS1712	1860311	1861903	+	SAS1712
SAS1712a	1862027	1862203	+	SAS1712a
SAS1713	1862281	1863051	-	SAS1713
SAS1714	1863032	1863511	-	SAS1714
SAS1715	1863571	1863828	+	SAS1715
SAS1716	1863825	1864826	-	SAS1716
SAS1717	1864831	1866309	-	SAS1717
SAS1718	1866468	1866950	-	SAS1718
SAS1719	1867262	1867876	+	SAS1719
SAS1720	1867957	1868952	+	SAS1720
SAS1721	1869026	1869652	+	SAS1721
SAS1722	1869693	1870034	+	SAS1722
SAS1723	1870135	1870707	+	SAS1723
SAS1724	1870995	1871462	-	SAS1724
SAS1725	1871836	1872012	-	SAS1725
SAS1726	1872023	1872406	-	SAS1726
SAS1731	1879882	1881081	-	SAS1731
SAS1732	1881074	1882630	-	SAS1732
SAS1733	1882993	1883712	-	SAS1733
SAS1734	1883833	1884552	-	SAS1734
SAS1735	1884610	1885332	-	SAS1735
SAS1736	1885457	1886164	-	SAS1736
SAS1737	1886600	1886818	-	SAS1737
SAS1738	1887128	1887694	+	SAS1738
SAS1739	1888168	1888878	-	SAS1739
SAS1740	1888863	1889624	-	SAS1740
SAS1741	1889621	1890313	-	SAS1741
SAS1742	1890336	1891709	-	SAS1742
SAS1743	1891719	1892252	-	SAS1743
SAS1744	1892253	1893497	-	SAS1744
SAS1745	1893490	1896483	-	SAS1745
SAS1746	1896548	1896691	-	SAS1746
SAS1747a	1897428	1897571	-	SAS1747a
SAS1748	1897813	1898796	-	hlgB
SAS1749	1898798	1899733	-	hlgA
SAS1750	1900630	1901085	+	SAS1750
SAS1751	1901098	1901886	+	SAS1751
SAS1752	1904343	1904897	-	SAS1752
SAS1753	1905219	1906619	-	SAS1753
SAS1754	1906643	1907566	-	SAS1754
SAS1755	1907624	1908661	-	SAS1755
SAS1756	1908924	1909427	+	SAS1756
SAS1757	1909551	1910774	-	SAS1757
SAS1758	1910767	1911507	-	SAS1758
SAS1759	1911641	1912063	+	SAS1759
SAS1760	1912205	1912570	+	SAS1760
SAS1760a	1912548	1912754	+	SAS1760a
SAS1761	1913303	1913860	+	SAS1761
SAS1762	1914065	1915027	+	SAS1762
SAS1763	1915148	1916089	-	SAS1763
SAS1764	1916086	1919022	-	SAS1764
SAS1765	1919012	1920208	-	SAS1765
SAS1766	1921090	1921434	-	SAS1766
SAS1767	1921503	1922627	-	SAS1767
SAS1768	1922806	1923270	-	SAS1768
SAS1769	1923626	1924249	-	SAS1769
SAS1770	1924271	1925383	-	SAS1770
SAS1771	1925546	1926367	+	SAS1771
SAS1772	1926828	1928213	-	SAS1772
SAS1773	1928409	1928804	-	SAS1773
SAS1774	1928923	1929075	+	SAS1774
SAS1775	1929082	1929345	+	SAS1775
SAS1776	1929410	1929562	-	SAS1776
SAS1777	1929587	1930186	-	SAS1777
SAS1778	1930345	1930815	-	SAS1778
SAS1779	1930820	1931947	-	SAS1779
SAS1780	1932098	1932826	-	SAS1780
SAS1781	1932813	1934270	-	SAS1781
SAS1782	1934528	1935589	-	SAS1782
SAS1783	1944450	1944896	-	SAS1783
SAS1784	1944993	1945943	-	SAS1784
SAS1785	1945949	1946401	-	SAS1785
SAS1786	1946485	1947774	+	SAS1786
SAS1787	1948067	1949161	+	SAS1787
SAS1788	1949353	1951089	-	SAS1788
SAS1789	1951380	1951922	-	SAS1789
SAS1790	1952224	1953261	-	SAS1790
SAS1791	1953413	1954390	+	SAS1791
SAS1792	1954651	1955487	-	SAS1792
SAS1793	1955496	1957013	-	SAS1793
SAS1794	1957028	1957342	-	SAS1794
SAS1795	1957320	1958138	-	SAS1795
SAS1796	1958399	1959208	-	SAS1796
SAS1797	1959547	1960062	-	SAS1797
SAS1798	1960193	1960354	-	SAS1798
SAS1799	1960578	1961729	+	SAS1799
SAS1800	1961989	1962519	-	SAS1800
SAS1801	1962608	1963855	-	SAS1801
SAS1802	1963867	1964082	-	SAS1802
SAS1803	1964214	1964678	+	SAS1803
SAS1804	1964685	1964960	+	SAS1804
SAS1805	1965238	1966449	+	SAS1805
SAS1806	1966561	1967190	-	SAS1806
SAS1807	1967180	1968223	-	SAS1807
SAS1808	1968220	1968921	-	SAS1808
SAS1809	1968936	1969322	-	SAS1809
SAS1810	1969539	1970297	-	SAS1810
SAS1811	1970828	1971814	+	SAS1811
SAS1811a	1972112	1972228	-	SAS1811a
SAS1812	1972304	1972717	-	SAS1812
SAS1813	1972943	1973674	-	SAS1813
SAS1814	1973676	1974989	-	SAS1814
SAS1815	1975281	1975781	+	SAS1815
SAS1816	1976171	1976725	+	SAS1816
SAS1817	1976792	1977862	-	SAS1817
SAS1818	1978109	1978639	-	SAS1818
SAS1819	1978809	1980170	-	SAS1819
SAS1820	1980251	1981198	-	SAS1820
SAS1822	1981852	1983279	-	SAS1822
SAS1823	1983292	1984749	-	SAS1823
SAS1824	1984751	1985053	-	SAS1824
SAS1825	1985420	1986958	+	SAS1825
SAS1826	1987047	1988246	-	SAS1826
SAS1827	1988259	1990262	-	SAS1827
SAS1828	1990266	1992458	-	SAS1828
SAS1829	1992455	1993147	-	SAS1829
SAS1830	1993319	1993621	-	SAS1830
SAS1831	1993730	1995025	-	SAS1831
SAS1832	1995886	1997052	+	SAS1832
SAS1833	1997083	1997409	+	SAS1833
SAS1834	1997701	1997874	-	SAS1834
SAS1835	1997855	1998457	-	SAS1835
SAS1836	1998728	1999549	-	SAS1836
SAS1837	1999542	2001011	-	SAS1837
SAS1838	2001195	2002271	+	SAS1838
SAS1839	2002291	2003085	+	SAS1839
SAS1840	2003275	2004837	-	SAS1840
SAS1841	2005042	2006139	-	SAS1841
SAS1842	2006511	2007071	+	SAS1842
SAS1843	2007118	2008053	+	SAS1843
SAS1844	2008473	2009852	+	SAS1844
SAS1845	2009972	2011000	-	SAS1845
SAS1846	2011270	2011671	+	SAS1846
SAS1848	2012244	2012417	-	SAS1848
SAS1849	2012868	2013908	+	SAS1849
SAS1850	2013965	2014807	-	SAS1850
SAS1851	2014804	2015361	-	SAS1851
SAS1852	2015421	2015945	-	SAS1852
SAS1853	2016066	2016629	+	SAS1853
SAS1854	2016695	2017435	-	SAS1854
SAS1855	2017435	2018307	-	SAS1855
SAS1856	2018304	2018984	-	SAS1856
SAS1857	2018985	2019881	-	SAS1857
SAS1858	2019878	2020333	-	SAS1858
SAS1859	2020517	2020693	-	SAS1859
SAS1859	2020936	2021034	-	SAS1859
SAS1860	2021234	2022520	+	SAS1860
SAS1863a	2025851	2026030	+	SAS1863a
SAS1864	2026054	2026362	+	SAS1864
SAS1865	2026410	2026601	+	SAS1865
SAS1866	2026654	2027004	-	SAS1866
SAS1868	2028502	2028993	-	SAS1868
SAS1869	2029184	2029939	-	SAS1869
SAS1870	2029951	2030205	-	SAS1870
SAS1871	2030417	2030602	-	SAS1871
SAS1872	2030702	2031475	-	SAS1872
SAS1873	2031848	2032222	-	SAS1873
SAS1874	2032278	2032565	-	SAS1874
SAS1875	2032611	2032763	-	SAS1875
SAS1876	2032756	2036538	-	SAS1876
SAS1877	2036554	2038044	-	SAS1877
SAS1878	2038044	2042693	-	SAS1878
SAS1879	2042749	2042871	-	SAS1879
SAS1880	2042931	2043377	-	SAS1880
SAS1881	2043442	2044395	-	SAS1881
SAS1882	2044396	2044776	-	SAS1882
SAS1883	2044773	2045150	-	SAS1883
SAS1884	2045150	2045482	-	SAS1884
SAS1885	2045472	2045804	-	SAS1885
SAS1886	2045813	2045971	-	SAS1886
SAS1887	2046007	2047254	-	SAS1887
SAS1888	2047342	2047938	-	SAS1888
SAS1889	2047919	2049169	-	SAS1889
SAS1890	2049175	2049375	-	SAS1890
SAS1891	2049389	2051083	-	SAS1891
SAS1892	2051086	2051553	-	SAS1892
SAS1893	2051682	2052035	-	SAS1893
SAS1894	2052042	2052494	-	SAS1894
SAS1895	2052609	2053079	-	SAS1895
SAS1896	2053102	2053305	-	SAS1896
SAS1897	2053302	2053952	-	SAS1897
SAS1898	2053959	2054111	-	SAS1898
SAS1899	2054111	2054260	-	SAS1899
SAS1901	2054601	2055005	-	SAS1901
SAS1902	2055014	2055232	-	SAS1902
SAS1903	2055239	2056132	-	SAS1903
SAS1904	2056162	2056632	-	SAS1904
SAS1905	2056633	2057118	-	SAS1905
SAS1906	2057331	2058251	-	SAS1906
SAS1907	2058253	2060202	-	SAS1907
SAS1908	2060205	2060483	-	SAS1908
SAS1909	2060477	2060737	-	SAS1909
SAS1910	2060830	2060991	-	SAS1910
SAS1911	2060988	2061308	-	SAS1911
SAS1912	2061364	2061999	+	SAS1912
SAS1912a	2062014	2062154	-	SAS1912a
SAS1913	2062185	2062382	-	SAS1913
SAS1916	2063200	2063739	+	SAS1916
SAS1917	2063763	2064044	-	SAS1917
SAS1918	2064041	2064265	-	SAS1918
SAS1919	2064424	2065194	+	SAS1919
SAS1920	2065390	2066118	+	SAS1920
SAS1921	2066142	2066870	+	SAS1921
SAS1922	2066954	2067991	+	SAS1922
SAS1924	2069110	2070126	-	SAS1924
SAS1925	2070148	2071200	-	SAS1925
SAS1926	2071636	2072859	+	SAS1926
SAS1927	2073231	2074076	-	SAS1927
SAS1928	2074138	2075049	-	SAS1928
SAS1929	2075210	2076517	+	SAS1929
SAS1930	2077371	2077796	-	SAS1930
SAS1931	2077920	2078438	-	SAS1931
SAS1932	2078674	2079264	-	SAS1932
SAS1933	2079261	2079476	-	SAS1933
SAS1935	2080175	2081791	-	SAS1935
SAS1936	2081867	2082151	-	SAS1936
SAS1937	2082326	2083069	+	SAS1937
SAS1938	2083094	2084236	-	SAS1938
SAS1939	2084433	2085059	+	SAS1939
SAS1940	2085420	2086205	+	SAS1940
SAS1940a	2086804	2086941	-	SAS1940a
SAS1941	2087174	2087737	+	SAS1941
SAS1942	2087741	2087881	+	SAS1942
SAS1943	2087906	2089198	+	SAS1943
SAS1944	2089217	2089933	+	SAS1944
SAS1945	2090302	2091261	-	SAS1945
SAS1946	2091258	2092742	-	SAS1946
SAS1947	2092891	2093841	-	SAS1947
SAS1948	2094024	2095274	-	SAS1948
SAS1949	2095482	2095706	-	SAS1949
SAS1950	2095766	2096845	-	SAS1950
SAS1951	2097149	2097784	-	SAS1951
SAS1952	2098037	2099965	+	SAS1952
SAS1953	2100327	2101937	+	SAS1953
SAS1954	2102039	2103064	-	SAS1954
SAS1955	2103057	2103521	-	SAS1955
SAS1956	2103494	2104156	-	SAS1956
SAS1957	2104137	2104631	-	SAS1957
SAS1958	2105109	2106797	+	SAS1958
SAS1959	2106825	2108594	+	SAS1959
SAS1961	2108985	2109989	+	SAS1961
SAS1962	2110019	2111548	+	SAS1962
SAS1963	2111551	2112597	+	SAS1963
SAS1964	2112611	2113981	+	SAS1964
SAS1965	2113982	2114554	+	SAS1965
SAS1966	2114569	2115837	+	SAS1966
SAS1967	2122456	2122911	-	SAS1967
SAS1968	2122904	2125054	-	SAS1968
SAS1969	2125487	2126257	-	SAS1969
SAS1970	2126232	2126711	-	SAS1970
SAS1971	2126713	2127039	-	SAS1971
SAS1972	2127158	2128159	-	SAS1972
SAS1973	2128508	2128870	-	SAS1973
SAS1974	2128867	2129037	-	SAS1974
SAS1975	2129122	2130270	-	SAS1975
SAS1976	2130336	2130695	-	SAS1976
SAS1977	2130699	2131190	-	SAS1977
SAS1978	2131177	2132760	-	SAS1978
SAS1979	2132753	2133232	-	SAS1979
SAS1980	2133441	2134001	-	SAS1980
SAS1981	2134021	2136048	-	SAS1981
SAS1982	2136067	2137743	-	SAS1982
SAS1983	2138015	2140672	+	SAS1983
SAS1984	2140672	2141367	+	SAS1984
SAS1985	2141736	2143256	-	SAS1985
SAS1986	2143773	2145131	-	SAS1986
SAS1987	2145146	2146216	-	SAS1987
SAS1988	2146513	2147715	+	SAS1988
SAS1989	2147978	2148115	-	SAS1989
SAS1990	2148243	2148452	-	SAS1990
SAS1991	2148464	2148757	-	SAS1991
SAS1992	2148923	2150407	+	SAS1992
SAS1993	2150435	2151082	+	SAS1993
SAS1994	2151696	2152568	-	SAS1994
SAS1995	2152654	2153295	-	SAS1995
SAS1996	2153288	2154088	-	SAS1996
SAS1997	2154072	2154902	-	SAS1997
SAS1998	2154895	2155584	-	SAS1998
SAS1998b	2155847	2156092	+	SAS1998b
SAS1999	2156108	2156803	-	SAS1999
SAS2000	2157192	2157587	-	SAS2000
SAS2001	2157781	2158221	+	SAS2001
SAS2002	2158279	2158719	-	SAS2002
SAS2003	2158753	2160018	-	SAS2003
SAS2004	2160129	2160362	-	SAS2004
SAS2005	2160924	2161328	-	SAS2005
SAS2006	2161348	2162760	-	SAS2006
SAS2007	2162782	2163648	-	SAS2007
SAS2008	2163679	2165187	-	SAS2008
SAS2009	2165209	2165748	-	SAS2009
SAS2010	2165748	2166269	-	SAS2010
SAS2011	2166466	2166678	-	SAS2011
SAS2012	2166721	2167449	-	SAS2012
SAS2013	2167470	2167823	-	SAS2013
SAS2014	2167990	2169120	-	SAS2014
SAS2015	2169141	2169770	-	SAS2015
SAS2016	2169798	2171036	-	SAS2016
SAS2017	2171063	2171587	-	SAS2017
SAS2018	2171694	2172113	-	SAS2018
SAS2019	2172110	2173156	-	SAS2019
SAS2020	2173240	2174076	-	SAS2020
SAS2021	2174063	2175139	-	SAS2021
SAS2022	2175140	2175739	-	SAS2022
SAS2023	2176086	2176340	-	SAS2023
SAS2024	2176458	2177774	-	SAS2024
SAS2025	2178021	2179448	-	SAS2025
SAS2026	2179686	2180024	-	SAS2026
SAS2027	2180110	2181369	-	SAS2027
SAS2028	2181835	2182695	-	SAS2028
SAS2029	2182913	2183434	+	SAS2029
SAS2030	2183543	2185153	-	SAS2030
SAS2031	2185489	2186019	-	SAS2031
SAS2032	2186131	2186991	-	SAS2032
SAS2033	2187415	2188218	+	SAS2033
SAS2034	2188348	2189019	-	SAS2034
SAS2035	2189418	2190611	-	SAS2035
SAS2036	2190611	2191795	-	SAS2036
SAS2037	2192106	2192576	+	SAS2037
SAS2038	2192728	2193078	-	SAS2038
SAS2039	2193092	2194393	-	SAS2039
SAS2040	2194674	2195336	-	SAS2040
SAS2041	2195651	2196361	+	SAS2041
SAS2042	2196482	2196925	-	SAS2042
SAS2043	2197125	2197538	-	SAS2043
SAS2044	2197996	2199369	-	SAS2044
SAS2045	2200041	2200271	-	SAS2045
SAS2046	2200302	2201240	-	SAS2046
SAS2047	2201676	2202341	-	SAS2047
SAS2048	2202493	2202813	+	SAS2048
SAS2049	2202815	2203795	+	SAS2049
SAS2050	2204061	2205152	+	SAS2050
SAS2051	2205585	2205665	-	SAS2051
SAS2052a	2206964	2207056	+	SAS2052a
SAS2053	2207186	2208043	-	SAS2053
SAS2054	2208111	2208893	-	SAS2054
SAS2055	2209125	2210930	-	SAS2055
SAS2056	2211398	2211553	+	SAS2056
SAS2057	2211611	2213149	+	SAS2057
SAS2058	2213184	2215316	+	SAS2058
SAS2059	2215328	2215762	+	SAS2059
SAS2060	2215762	2216868	+	SAS2060
SAS2063	2224979	2226334	-	SAS2063
SAS2064	2226361	2227293	-	SAS2064
SAS2065	2227295	2228104	-	SAS2065
SAS2066	2228293	2229201	-	SAS2066
SAS2067	2235396	2236460	-	SAS2067
SAS2068	2236608	2238050	-	SAS2068
SAS2069	2238373	2238840	-	SAS2069
SAS2070	2238945	2240288	-	SAS2070
SAS2071	2240465	2241148	-	SAS2071
SAS2072	2241167	2242354	-	SAS2072
SAS2073	2242398	2242913	-	SAS2073
SAS2074	2243090	2243350	+	SAS2074
SAS2075	2243482	2244852	-	SAS2075
SAS2076	2245088	2246056	-	SAS2076
SAS2077	2246053	2247084	-	SAS2077
SAS2078	2247096	2248079	-	SAS2078
SAS2079	2248471	2249541	-	SAS2079
SAS2080	2249548	2251305	-	SAS2080
SAS2081	2251292	2252485	-	SAS2081
SAS2082	2252587	2254563	+	SAS2082
SAS2083	2254723	2255232	-	SAS2083
SAS2084	2255295	2255534	-	SAS2084
SAS2085	2255547	2256083	-	SAS2085
SAS2086	2256258	2257820	-	SAS2086
SAS2087	2258128	2259135	-	SAS2087
SAS2088	2259369	2260373	-	SAS2088
SAS2089	2260653	2261522	-	SAS2089
SAS2090	2261788	2263200	-	SAS2090
SAS2091	2263218	2264930	-	SAS2091
SAS2092	2264936	2265247	-	SAS2092
SAS2093	2265269	2266249	-	SAS2093
SAS2094	2266253	2267185	-	SAS2094
SAS2095	2267198	2267713	-	SAS2095
SAS2096	2267729	2268157	-	SAS2096
SAS2097	2268525	2269280	-	SAS2097
SAS2098	2269531	2270262	+	SAS2098
SAS2099	2270311	2270460	+	SAS2099
SAS2100	2270553	2271161	-	SAS2100
SAS2100a	2271423	2271548	-	SAS2100a
SAS2101	2271767	2272615	-	SAS2101
SAS2102	2272685	2273101	-	SAS2102
SAS2103	2273510	2275957	+	SAS2103
SAS2104	2276146	2276571	+	SAS2104
SAS2105	2276958	2277662	-	SAS2105
SAS2106	2277699	2279363	-	SAS2106
SAS2107	2279611	2279736	+	SAS2107
SAS2107a	2279810	2279992	-	SAS2107a
SAS2107b	2280027	2280113	-	SAS2107b
SAS2108	2280339	2280731	-	SAS2108
SAS2109	2280751	2281188	-	SAS2109
SAS2110	2281428	2282231	-	SAS2110
SAS2111	2282236	2283042	-	SAS2111
SAS2112	2283032	2283892	-	SAS2112
SAS2113	2283889	2284698	-	SAS2113
SAS2114	2285236	2285604	-	SAS2114
SAS2115	2285621	2286565	-	SAS2115
SAS2116	2286640	2287029	-	SAS2116
SAS2117	2287053	2287418	-	SAS2117
SAS2118	2287441	2287554	-	SAS2118
SAS2119	2287586	2287804	-	SAS2119
SAS2120	2287997	2288644	-	SAS2120
SAS2121	2288661	2289953	-	SAS2121
SAS2122	2289953	2290393	-	SAS2122
SAS2123	2290410	2290589	-	SAS2123
SAS2124	2290606	2291106	-	SAS2124
SAS2125	2291127	2291486	-	SAS2125
SAS2126	2291517	2292053	-	SAS2126
SAS2127	2292078	2292476	-	SAS2127
SAS2128	2292508	2292693	-	SAS2128
SAS2129	2292716	2293255	-	SAS2129
SAS2130	2293282	2293599	-	SAS2130
SAS2131	2293635	2294003	-	SAS2131
SAS2132	2294035	2294298	-	SAS2132
SAS2133	2294322	2294531	-	SAS2133
SAS2134	2294521	2294955	-	SAS2134
SAS2135	2294958	2295611	-	SAS2135
SAS2136	2295635	2295988	-	SAS2136
SAS2137	2296017	2296295	-	SAS2137
SAS2138	2296362	2297195	-	SAS2138
SAS2139	2297228	2297503	-	SAS2139
SAS2140	2297503	2298126	-	SAS2140
SAS2141	2298153	2298815	-	SAS2141
SAS2142	2298843	2299151	-	SAS2142
SAS2143	2299502	2299897	+	SAS2143
SAS2144	2300088	2301422	-	SAS2144
SAS2145	2301535	2303670	-	SAS2145
SAS2146	2303857	2304744	+	SAS2146
SAS2147	2304925	2305788	+	SAS2147
SAS2148	2306207	2307115	-	SAS2148
SAS2149	2307248	2307412	+	SAS2149
SAS2150	2307657	2307974	+	SAS2150
SAS2151	2308158	2311325	-	SAS2151
SAS2152	2311442	2312707	-	SAS2152
SAS2153	2313096	2313347	+	SAS2153
SAS2154	2313339	2314103	-	SAS2154
SAS2155	2314265	2314705	+	SAS2155
SAS2156	2314698	2315909	+	SAS2156
SAS2157	2316011	2316361	-	SAS2157
SAS2158	2316939	2317961	-	SAS2158
SAS2159	2317981	2318580	-	SAS2159
SAS2160	2318587	2318820	-	SAS2160
SAS2161	2318826	2319272	-	SAS2161
SAS2162	2319286	2319771	-	SAS2162
SAS2163	2319768	2321027	-	SAS2163
SAS2164	2321090	2321584	+	SAS2164
SAS2165	2321586	2322092	-	SAS2165
SAS2166	2322123	2323127	-	SAS2166
SAS2167	2323297	2323902	-	SAS2167
SAS2168	2323903	2324574	-	SAS2168
SAS2169	2324588	2325370	-	SAS2169
SAS2170	2325660	2326457	+	SAS2170
SAS2171	2326629	2327399	-	SAS2171
SAS2172	2327476	2328030	-	SAS2172
SAS2173	2328151	2329092	-	SAS2173
SAS2174	2329490	2330398	-	SAS2174
SAS2175	2330612	2331766	-	SAS2175
SAS2176	2331813	2331905	-	SAS2176
SAS2177	2331983	2332888	-	SAS2177
SAS2178	2333148	2333450	+	SAS2178
SAS2179	2333464	2333874	+	SAS2179
SAS2180	2333871	2335586	+	SAS2180
SAS2181	2335599	2336051	+	SAS2181
SAS2182	2336044	2336733	+	SAS2182
SAS2183	2336746	2337360	+	SAS2183
SAS2184	2337360	2338196	+	SAS2184
SAS2185	2338385	2338732	-	SAS2185
SAS2186	2339160	2339486	-	SAS2186
SAS2187	2339550	2340293	-	SAS2187
SAS2188	2340320	2342275	-	SAS2188
SAS2189	2342885	2343694	+	SAS2189
SAS2190	2343711	2343932	-	SAS2190
SAS2191	2344127	2345527	-	SAS2191
SAS2192	2345622	2346704	-	SAS2192
SAS2193	2346952	2347374	+	SAS2193
SAS2194	2347611	2348111	+	SAS2194
SAS2195	2348207	2348416	+	SAS2195
SAS2196	2348473	2349426	+	SAS2196
SAS2197	2349507	2350631	-	SAS2197
SAS2198	2351356	2352132	-	SAS2198
SAS2199	2352154	2352405	-	SAS2199
SAS2200	2352615	2353088	-	SAS2200
SAS2201	2353088	2356042	-	SAS2201
SAS2202	2356644	2357591	-	SAS2202
SAS2203	2357724	2358521	-	SAS2203
SAS2204	2358906	2359598	+	SAS2204
SAS2206	2360245	2360982	-	SAS2206
SAS2207	2361031	2361360	+	SAS2207
SAS2208	2361805	2362677	+	SAS2208
SAS2209	2363064	2364443	-	SAS2209
SAS2210	2364723	2365079	+	SAS2210
SAS2211	2365076	2365261	+	SAS2211
SAS2212	2365357	2365548	-	SAS2212
SAS2213	2365559	2366194	-	SAS2213
SAS2214	2366269	2367186	-	SAS2214
SAS2215	2367454	2367984	+	SAS2215
SAS2216	2368050	2369654	-	SAS2216
SAS2217	2369984	2370748	+	SAS2217
SAS2218	2370806	2371312	-	SAS2218
SAS2219	2371479	2372858	-	SAS2219
SAS2220	2373017	2373586	-	SAS2220
SAS2221	2374073	2374954	-	SAS2221
SAS2222	2375065	2376186	-	SAS2222
SAS2223	2376462	2377700	-	SAS2223
SAS2224	2377700	2379361	-	SAS2224
SAS2225	2379521	2380405	+	SAS2225
SAS2226	2380898	2381833	-	SAS2226
SAS2227	2382123	2383382	+	SAS2227
SAS2228	2383448	2384134	-	SAS2228
SAS2229	2384308	2384961	+	SAS2229
SAS2230	2385197	2386216	-	SAS2230
SAS2231	2386246	2386572	-	SAS2231
SAS2232	2386790	2388022	-	SAS2232
SAS2233	2388015	2388914	-	SAS2233
SAS2234	2389145	2389765	-	SAS2234
SAS2234a	2389757	2389879	+	SAS2234a
SAS2234a	2389945	2390076	+	SAS2234a
SAS2235	2390164	2390772	+	SAS2235
SAS2236	2391109	2392317	+	SAS2236
SAS2237	2392365	2393414	-	SAS2237
SAS2238	2393445	2394392	-	SAS2238
SAS2239	2394489	2394980	+	SAS2239
SAS2240	2394977	2395396	+	SAS2240
SAS2241	2395504	2396424	-	SAS2241
SAS2242	2396632	2397270	+	SAS2242
SAS2243	2397516	2399447	-	SAS2243
SAS2244	2399460	2400107	-	SAS2244
SAS2245	2400228	2400779	+	SAS2245
SAS2246	2401009	2402217	-	SAS2246
SAS2247	2402486	2403868	-	SAS2247
SAS2248	2404108	2404563	-	SAS2248
SAS2249	2404758	2405726	+	SAS2249
SAS2250	2405957	2406622	-	SAS2250
SAS2251	2406622	2407677	-	SAS2251
SAS2252	2407813	2408487	+	SAS2252
SAS2253	2408480	2409853	+	SAS2253
SAS2254	2410016	2410459	+	SAS2254
SAS2255	2410456	2410911	+	SAS2255
SAS2256	2410977	2412512	-	SAS2256
SAS2257	2412836	2414434	-	SAS2257
SAS2258	2414751	2416424	+	SAS2258
SAS2259	2416578	2417192	-	SAS2259
SAS2260	2417506	2418021	-	SAS2260
SAS2261	2418212	2419216	+	SAS2261
SAS2262	2419459	2420706	+	SAS2262
SAS2263	2420982	2421383	-	SAS2263
SAS2264	2421419	2422453	-	SAS2264
SAS2265	2422685	2423116	-	SAS2265
SAS2266	2423323	2424600	-	SAS2266
SAS2267	2424761	2425384	+	SAS2267
SAS2268	2425430	2426374	+	SAS2268
SAS2269	2426459	2427901	-	SAS2269
SAS2270	2428084	2428467	+	SAS2270
SAS2271	2429955	2432060	+	SAS2271
SAS2272	2432131	2432553	+	SAS2272
SAS2273	2432818	2433174	+	SAS2273
SAS2274	2433445	2434722	-	SAS2274
SAS2275	2434904	2435269	-	SAS2275
SAS2276	2435667	2436113	+	SAS2276
SAS2277	2436335	2436757	+	SAS2277
SAS2278	2436864	2438033	-	SAS2278
SAS2278a	2438104	2438223	+	SAS2278a
SAS2281	2439296	2440036	+	SAS2281
SAS2282	2440294	2440947	-	SAS2282
SAS2283	2440970	2442004	-	SAS2283
SAS2284	2442028	2442480	-	SAS2284
SAS2285	2442500	2443177	-	SAS2285
SAS2286	2443170	2443745	-	SAS2286
SAS2287	2443738	2445297	-	SAS2287
SAS2288	2445287	2448976	-	SAS2288
SAS2289	2449284	2450261	-	SAS2289
SAS2290	2450252	2450566	-	SAS2290
SAS2291	2450570	2452975	-	SAS2291
SAS2292	2453041	2453772	-	SAS2292
SAS2293	2454001	2454528	-	SAS2293
SAS2294	2454772	2455596	-	SAS2294
SAS2295	2455813	2455995	-	SAS2295
SAS2296	2456079	2456546	-	SAS2296
SAS2297	2456732	2458282	-	SAS2297
SAS2298	2458576	2458842	-	SAS2298
SAS2299	2458842	2459093	-	SAS2299
SAS2300	2459366	2459965	-	SAS2300
SAS2301	2459984	2460346	-	SAS2301
SAS2302	2460601	2461851	+	SAS2302
SAS2303	2461948	2462679	-	SAS2303
SAS2304	2462676	2463395	-	SAS2304
SAS2305	2463376	2464155	-	SAS2305
SAS2306	2464276	2465715	-	SAS2306
SAS2307	2466147	2466833	-	SAS2307
SAS2308	2467160	2468026	-	SAS2308
SAS2309	2468724	2470037	+	SAS2309
SAS2310	2470573	2471502	+	SAS2310
SAS2311	2472070	2473017	+	SAS2311
SAS2312	2473019	2473996	+	SAS2312
SAS2313	2474048	2474515	-	SAS2313
SAS2314	2474526	2475218	-	SAS2314
SAS2315	2475229	2476344	-	SAS2315
SAS2316	2476322	2477329	-	SAS2316
SAS2317	2477331	2478689	-	SAS2317
SAS2318	2478667	2479353	-	SAS2318
SAS2319	2479806	2481539	-	SAS2319
SAS2320	2481564	2483348	-	SAS2320
SAS2320a	2483877	2483984	-	SAS2320a
SAS2322	2484015	2484269	+	SAS2322
SAS2323	2484252	2484638	-	SAS2323
SAS2324	2484896	2486038	+	SAS2324
SAS2325	2486098	2486757	+	SAS2325
SAS2326	2486939	2488150	+	SAS2326
SAS2327	2488273	2488746	-	SAS2327
SAS2328	2488859	2489515	+	SAS2328
SAS2329	2489578	2490384	-	SAS2329
SAS2330	2490670	2492079	+	SAS2330
SAS2331	2492217	2494295	+	SAS2331
SAS2332	2494435	2496264	-	SAS2332
SAS2333	2496496	2497992	+	SAS2333
SAS2334	2498084	2498935	-	SAS2334
SAS2335	2499257	2500192	-	SAS2335
SAS2336	2500418	2501818	-	SAS2336
SAS2337	2502112	2502807	-	SAS2337
SAS2338	2502807	2503748	-	SAS2338
SAS2339	2503765	2504400	-	SAS2339
SAS2340	2504397	2505623	-	SAS2340
SAS2341	2506293	2506892	-	SAS2341
SAS2342	2507072	2508709	+	SAS2342
SAS2343	2509016	2510368	+	SAS2343
SAS2344	2510430	2511617	-	SAS2344
SAS2345	2512013	2512789	-	SAS2345
SAS2346	2512782	2513444	-	SAS2346
SAS2347	2513692	2514768	-	SAS2347
SAS2348	2515124	2515390	-	SAS2348
SAS2349	2515390	2515647	-	SAS2349
SAS2350	2516006	2516461	+	SAS2350
SAS2351	2516629	2518206	-	SAS2351
SAS2352	2518402	2519151	+	SAS2352
SAS2352a	2519300	2519425	-	SAS2352a
SAS2353	2519513	2520706	-	SAS2353
SAS2354	2520718	2521467	-	SAS2354
SAS2355	2521460	2522275	-	SAS2355
SAS2356	2522272	2523141	-	SAS2356
SAS2357	2523138	2524073	-	SAS2357
SAS2358	2524086	2525684	-	SAS2358
SAS2359	2525824	2527128	-	SAS2359
SAS2360	2527121	2527939	-	SAS2360
SAS2361	2527950	2528771	-	SAS2361
SAS2362	2529646	2530008	-	SAS2362
SAS2363	2530271	2531089	-	SAS2363
SAS2364	2531324	2532862	+	SAS2364
SAS2365	2532974	2533396	-	SAS2365
SAS2366	2533848	2534267	-	SAS2366
SAS2367	2534285	2534704	-	SAS2367
SAS2368	2534731	2535141	-	SAS2368
SAS2369	2535409	2535831	-	SAS2369
SAS2370	2536082	2536777	-	SAS2370
SAS2371	2537066	2537347	+	SAS2371
SAS2372	2537607	2537798	-	SAS2372
SAS2373	2538338	2539153	-	SAS2373
SAS2374	2539267	2540085	-	SAS2374
SAS2375	2540200	2540961	-	SAS2375
SAS2376	2541264	2544125	-	SAS2376
SAS2377	2544127	2544519	-	SAS2377
SAS2378	2544801	2546459	+	SAS2378
SAS2379	2546743	2547009	+	SAS2379
SAS2380	2547153	2547461	+	SAS2380
SAS2381	2547569	2547802	-	SAS2381
SAS2382	2547783	2548976	-	SAS2382
SAS2383	2549359	2553474	-	SAS2383
SAS2384	2553779	2554138	-	SAS2384
SAS2385	2554459	2555202	+	SAS2385
SAS2386	2555414	2556280	-	SAS2386
SAS2387	2556460	2559333	-	fnbB
SAS2388	2560014	2563061	-	SAS2388
SAS2389	2563196	2563396	-	SAS2389
SAS2390	2563530	2564888	-	SAS2390
SAS2391	2565005	2566558	-	SAS2391
SAS2392	2566582	2567262	-	SAS2392
SAS2393	2567416	2568180	-	SAS2393
SAS2394	2568345	2569037	-	SAS2394
SAS2395	2569268	2569756	-	SAS2395
SAS2396	2569823	2571646	-	SAS2396
SAS2396a	2572158	2572361	-	SAS2396a
SAS2397	2572555	2573832	-	SAS2397
SAS2398	2574379	2574990	+	SAS2398
SAS2399	2575508	2576203	+	SAS2399
SAS2400	2576205	2576975	+	SAS2400
SAS2401	2577349	2579313	+	SAS2401
SAS2401a	2579459	2579536	+	SAS2401a
SAS2402	2579655	2580734	+	SAS2402
SAS2403	2580839	2581435	-	SAS2403
SAS2404	2581463	2582422	-	SAS2404
SAS2405	2582499	2582933	-	SAS2405
SAS2406	2583150	2583443	+	SAS2406
SAS2409	2584543	2585214	-	SAS2409
SAS2410	2585484	2586476	+	SAS2410
SAS2411	2586723	2587523	-	SAS2411
SAS2412	2587844	2588479	+	SAS2412
SAS2413	2588485	2589216	+	SAS2413
SAS2414	2589378	2589998	-	SAS2414
SAS2415	2590192	2590683	+	SAS2415
SAS2415a	2591249	2591419	-	SAS2415a
SAS2416	2591598	2592497	-	SAS2416
SAS2417	2592511	2593191	-	SAS2417
SAS2418	2593194	2594237	-	SAS2418
SAS2419	2594787	2594990	+	SAS2419
SAS2420	2595182	2596108	+	SAS2420
SAS2421	2596189	2597157	-	SAS2421
SAS2422	2597290	2597634	-	SAS2422
SAS2423	2597676	2598086	-	SAS2423
SAS2424	2598451	2600517	-	SAS2424
SAS2425	2600818	2602557	-	SAS2425
SAS2426	2602604	2603293	-	SAS2426
SAS2427	2603286	2603681	-	SAS2427
SAS2428	2603894	2604772	-	SAS2428
SAS2429	2604939	2605157	+	SAS2429
SAS2430	2605547	2605978	+	SAS2430
SAS2431	2606116	2607396	-	SAS2431
SAS2432	2607650	2608816	+	SAS2432
SAS2433	2608986	2609507	-	SAS2433
SAS2434	2609916	2612021	+	SAS2434
SAS2435	2612090	2612260	-	SAS2435
SAS2436	2612273	2614267	-	SAS2436
SAS2437	2614279	2614506	-	SAS2437
SAS2438	2614722	2617211	-	SAS2438
SAS2439	2617356	2617904	+	SAS2439
SAS2440	2618259	2619803	-	SAS2440
SAS2441	2619993	2620592	-	SAS2441
SAS2442	2620822	2621022	+	SAS2442
SAS2443	2621262	2623670	+	SAS2443
SAS2444	2624019	2624225	+	SAS2444
SAS2445	2624315	2625313	-	SAS2445
SAS2446	2625336	2626490	-	SAS2446
SAS2447	2626917	2628425	-	SAS2447
SAS2448	2628437	2629300	-	SAS2448
SAS2449	2629337	2630464	-	SAS2449
SAS2450	2630470	2631963	-	SAS2450
SAS2451	2631956	2632453	-	SAS2451
SAS2452	2632619	2633386	-	SAS2452
SAS2453	2633747	2635558	-	SAS2453
SAS2454	2636070	2636558	-	SAS2454
SAS2455	2636834	2637535	-	SAS2455
SAS2456	2638143	2639198	-	SAS2456
SAS2457	2639344	2639547	+	SAS2457
SAS2458	2639608	2640177	+	SAS2458
SAS2459	2640375	2640875	+	SAS2459
SAS2460	2641095	2641325	+	SAS2460
SAS2461	2641488	2641865	-	SAS2461
SAS2462	2641882	2642703	-	SAS2462
SAS2463	2642723	2643022	-	SAS2463
SAS2464	2643154	2643711	+	SAS2464
SAS2465	2643704	2644408	+	SAS2465
SAS2466	2644506	2645516	+	SAS2466
SAS2467	2645536	2646354	+	SAS2467
SAS2468	2646501	2647391	-	SAS2468
SAS2469	2647488	2648834	-	SAS2469
SAS2470	2648822	2649928	-	SAS2470
SAS2471	2650223	2650519	-	SAS2471
SAS2472	2650507	2650875	-	SAS2472
SAS2473	2650890	2651168	-	SAS2473
SAS2474	2651507	2652373	-	SAS2474
SAS2475	2652591	2653655	+	SAS2475
SAS2476	2653810	2654085	+	SAS2476
SAS2477	2654271	2654993	-	SAS2477
SAS2478	2655347	2655796	+	SAS2478
SAS2479	2655877	2656464	-	SAS2479
SAS2480	2656607	2658289	+	SAS2480
SAS2482	2659104	2659487	-	SAS2482
SAS2483	2659489	2660340	-	SAS2483
SAS2484	2660333	2661151	-	SAS2484
SAS2485	2661224	2662084	+	SAS2485
SAS2486	2662170	2662874	-	SAS2486
SAS2487	2663152	2664111	-	SAS2487
SAS2488	2664798	2666246	+	SAS2488
SAS2489	2666326	2667669	-	SAS2489
SAS2490	2667921	2668337	+	SAS2490
SAS2491	2668460	2669350	+	SAS2491
SAS2492	2669544	2671040	-	SAS2492
SAS2493	2671465	2671665	+	SAS2493
SAS2494	2671725	2673344	-	SAS2494
SAS2495	2673517	2673960	-	SAS2495
SAS2496	2674240	2674452	-	SAS2496
SAS2497	2674730	2676439	-	SAS2497
SAS2498	2676700	2678190	-	SAS2498
SAS2499	2678440	2679006	+	SAS2499
SAS2500	2679194	2679880	-	SAS2500
SAS2501	2680139	2681761	-	SAS2501
SAS2502	2682280	2682816	-	SAS2502
SAS2503	2682813	2684663	-	SAS2503
SAS2504	2684909	2686279	-	SAS2504
SAS2505	2686755	2687360	-	SAS2505
SAS2506	2687423	2689303	-	SAS2506
SAS2507	2689698	2690195	-	SAS2507
SAS2508	2691619	2693619	-	SAS2508
SAS2509	2693616	2694371	-	SAS2509
SAS2510	2694479	2695366	-	SAS2510
SAS2511	2695377	2696042	-	SAS2511
SAS2512	2696068	2696268	-	SAS2512
SAS2513	2696466	2697890	+	SAS2513
SAS2513a	2697950	2698051	-	SAS2513a
SAS2514	2698173	2698628	-	SAS2514
SAS2515	2698873	2699634	-	SAS2515
SAS2516	2699750	2702467	-	SAS2516
SAS2517	2702817	2703521	-	SAS2517
SAS2518	2703620	2704588	-	SAS2518
SAS2519	2704578	2706014	-	SAS2519
SAS2520	2706099	2707109	-	SAS2520
SAS2521	2707142	2708377	-	SAS2521
SAS2522	2708724	2709173	-	SAS2522
SAS2523	2709540	2711069	-	SAS2523
SAS2524	2711493	2712020	-	SAS2524
SAS2525	2712263	2712736	+	SAS2525
SAS2526	2712976	2714850	+	SAS2526
SAS2527	2714927	2716879	+	SAS2527
SAS2528	2716893	2717831	+	SAS2528
SAS2529	2717943	2720924	-	SAS2529
SAS2530	2721135	2722994	+	SAS2530
SAS2531	2723259	2723819	-	SAS2531
SAS2532	2723988	2725895	-	SAS2532
SAS2533	2726137	2727495	-	SAS2533
SAS2534	2727488	2728996	-	SAS2534
SAS2535	2729014	2731404	-	SAS2535
SAS2536	2731394	2732353	-	SAS2536
SAS2537	2732331	2733899	-	SAS2537
SAS2538	2733889	2735442	-	SAS2538
SAS2539	2735453	2736664	-	SAS2539
SAS2540	2736794	2743621	-	SAS2540
SAS2541	2744166	2744858	-	SAS2541
SAS2542	2745171	2746115	+	SAS2542
SAS2543	2746102	2746404	+	SAS2543
SAS2544	2746558	2746917	+	SAS2544
SAS2545	2747002	2747613	-	SAS2545
SAS2546	2747692	2748168	-	SAS2546
SAS2547	2748171	2748671	-	SAS2547
SAS2548	2748906	2749673	-	SAS2548
SAS2549	2749670	2750362	-	SAS2549
SAS2550	2750379	2751041	-	SAS2550
SAS2551	2751890	2752450	-	SAS2551
SAS2552	2752614	2753852	+	SAS2552
SAS2553	2753816	2754121	+	SAS2553
SAS2554	2754118	2754990	+	SAS2554
SAS2555	2754977	2756029	+	SAS2555
SAS2556	2756475	2758520	-	SAS2556
SAS2557	2759610	2760242	-	SAS2557
SAS2558	2760239	2760997	-	SAS2558
SAS2559	2760994	2761698	-	SAS2559
SAS2560	2761691	2762269	-	SAS2560
SAS2561	2762266	2762844	-	SAS2561
SAS2562	2762813	2763826	-	SAS2562
SAS2563	2763842	2765098	-	SAS2563
SAS2564	2765085	2765699	-	SAS2564
SAS2565	2765717	2766535	-	SAS2565
SAS2566	2766839	2767963	-	SAS2566
SAS2567	2768081	2768578	-	SAS2567
SAS2568	2768625	2769458	-	SAS2568
SAS2569	2769455	2771167	-	SAS2569
SAS2570	2771220	2771774	-	SAS2570
SAS2571	2771803	2772651	-	SAS2571
SAS2572	2773031	2773546	+	SAS2572
SAS2573	2773657	2773821	-	SAS2573
SAS2574	2774026	2775000	-	SAS2574
SAS2575	2775241	2776197	+	SAS2575
SAS2576	2776349	2776987	+	SAS2576
SAS2577	2777091	2777555	+	SAS2577
SAS2578	2777716	2781267	-	SAS2578
SAS2579	2781645	2783063	+	SAS2579
SAS2579a	2783191	2783274	-	SAS2579a
SAS2580	2783476	2784384	-	SAS2580
SAS2581	2784606	2785181	+	SAS2581
SAS2582	2785347	2786363	+	SAS2582
SAS2583	2786600	2787400	+	SAS2583
SAS2584	2787534	2788046	-	SAS2584
SAS2585	2788329	2789087	+	SAS2585
SAS2586	2789077	2790957	+	SAS2586
SAS2586a	2791050	2791241	+	SAS2586a
SAS2587	2791607	2791834	+	SAS2587
SAS2588	2791952	2792521	-	SAS2588
SAS2589	2792781	2793176	-	SAS2589
SAS2590	2793244	2793597	-	SAS2590
SAS2591	2793914	2794753	-	SAS2591
SAS2592	2794796	2795515	-	SAS2592
SAS2593	2795515	2797392	-	SAS2593
SAS2594	2797459	2798838	-	SAS2594
SAS2595	2798977	2799324	-	SAS2595
SAS2596	2799451	2799588	-	SAS2596
