SAVP001	315	1250	+	repA
SAVP002	1731	2000	-	SAVP002
SAVP003	2209	4131	+	traA
SAVP004	4405	4818	+	SAVP004
SAVP005	4895	5128	+	SAVP005
SAVP006	5177	5881	-	SAVP006
SAVP008	6032	6730	-	SAVP008
SAVP007	6564	6833	+	SAVP007
SAVP009	6894	6992	+	SAVP009
SAVP010	7169	8080	-	SAVP010
SAVP011	8314	8433	+	SAVP011
SAVP013	8499	8738	-	truncated-res
SAVP012	8546	8647	-	SAVP012
SAVP014	8808	9482	-	tnpE
SAVP015	9520	10194	-	SAVP015
SAVP016	10328	11107	-	SAVP016
SAVP017	11389	11946	-	res
SAVP018	12241	12657	+	SAVP018
SAVP019	12699	13535	-	SAVP019
SAVP020	13522	13824	-	SAVP020
SAVP021	13670	13987	-	SAVP021
SAVP022	14037	14651	-	SAVP022
SAVP023	14781	15455	-	tnpG
SAVP024	15986	16651	+	tnpF
SAVP025	16762	17094	+	truncated-tnp
aacA	17224	18663	-	aacA
SAVP027	18664	19068	-	SAVP027
SAVP028	19113	19397	-	truncated-tnp
SAVP029	19548	20222	-	tnpE
SAVP030	20260	20598	-	truncated-res
SAVP031	20849	21415	-	qacR
SAVP032	21593	23137	+	qacA
SAVP033	23342	23902	+	SAVP033
SAVP034	24221	24982	-	SAVP034
