SAA6159_p01	1	381	+	repA
SAA6159_p02	2286	2903	+	cadD
SAA6159_p03	2922	3269	+	cadX
SAA6159_p04	3742	4716	+	SAA6159_p04
SAA6159_p05	4836	5651	-	SAA6159_p05
SAA6159_p07	6419	7087	-	SAA6159_p07
SAA6159_p08	7059	7652	-	binL
SAA6159_p09	7916	8296	-	SAA6159_p09
SAA6159_p10	8286	10085	-	SAA6159_p10
SAA6159_p11	10150	10995	+	blaZ
SAA6159_p13	11349	11972	+	SAA6159_p13
SAA6159_p14	12386	12679	+	SAA6159_p14
SAA6159_p15	12754	14688	+	SAA6159_p15
SAA6159_p16	14692	15003	+	SAA6159_p16
SAA6159_p17	15015	15641	+	SAA6159_p17
SAA6159_p18	15879	16184	+	SAA6159_p18
SAA6159_p20	16602	17147	+	SAA6159_p20
SAA6159_p21	17189	17473	-	SAA6159_p21
SAA6159_p22	17531	18391	+	rep
SAA6159_p23	18478	18819	+	SAA6159_p23
SAA6159_p24	19278	19463	+	SAA6159_p24
SAA6159_p25	19682	20425	-	SAA6159_p25
