SAUSA300_pUSA010001	1	996	+	SAUSA300_pUSA010001
SAUSA300_pUSA010002	1348	1464	+	SAUSA300_pUSA010002
SAUSA300_pUSA010003	1546	1767	+	SAUSA300_pUSA010003
SAUSA300_pUSA010004	2093	2674	-	SAUSA300_pUSA010004
SAUSA300_pUSA010005	2749	2922	+	SAUSA300_pUSA010005
