SAV0001	517	1878	+	dnaA
SAV0002	2156	3289	+	dnaN
SAV0003	3670	3915	+	SAV0003
SAV0004	3912	5024	+	recF
SAV0005	5034	6968	+	gyrB
SAV0006	7005	9674	+	gyrA
SAV0007	9762	10592	-	SAV0007
SAV0008	10879	12414	+	hutH
SAV0009	12793	14079	+	serS
SAV0010	14730	15425	+	SAV0010
SAV0011	15422	15751	+	SAV0011
SAV0012	16094	17083	+	SAV0012
SAV0013	17319	18314	+	SAV0013
SAV0014	18329	20296	+	SAV0014
SAV0015	20293	20739	+	rplI
SAV0016	20771	22171	+	dnaC
SAV0017	22449	23732	+	purA
SAV0018	24929	25636	+	vicR
SAV0019	25649	27475	+	vicK
SAV0020	27441	28802	+	SAV0020
SAV0021	28803	29591	+	SAV0021
SAV0022	29980	30780	+	SAV0022
SAV0023	31007	33325	+	SAV0023
SAV0024	33693	34172	+	SAV0024
SAV0025	34455	35750	+	SAV0025
SAV0026	36165	36404	+	SAV0026
SAV0027	36436	37110	-	tnp
SAV0028	37201	37407	-	truncated-repB
SAV0029	37411	38205	-	truncated-repB
SAV0030	38230	38310	-	SAV0030
SAV0031	38429	39691	-	pre
SAV0032	39800	39940	+	SAV0032
SAV0033	39988	40179	+	SAV0033
SAV0034	40198	40602	-	bleO
SAV0035	40819	41589	-	aadD
SAV0036	41782	42456	-	tnp
SAV0038	42540	42881	+	SAV0038
SAV0039	43678	44421	+	SAV0039
SAV0040	44518	44946	+	SAV0040
SAV0041	44992	46998	-	mecA
SAV0042	47098	48855	+	mecR1
SAV0043	48855	49226	+	mecI
SAV0044	49713	50843	+	xylR
SAV0045	50957	51349	-	SAV0045
SAV0046	51353	52291	-	SAV0046
SAV0047	52324	53388	-	SAV0047
SAV0048	53524	53784	+	SAV0048
SAV0049	53784	54428	+	SAV0049
SAV0050	54767	55435	-	SAV0050
SAV0051	55788	55961	-	SAV0051
SAV0052	55963	56694	+	ermA
SAV0053	56820	57602	-	ant#9
SAV0054	57753	58130	-	tnpC
SAV0055	58137	60029	-	tnpB
SAV0056	60026	61111	-	tnpA
SAV0057	61230	61547	-	truncated-radC
SAV0058	61568	62086	-	SAV0058
SAV0059	62092	62403	-	SAV0059
SAV0060	62490	62840	-	SAV0060
SAV0061	63358	64986	-	ccrB
SAV0062	65008	66357	-	ccrA
SAV0063	66591	68384	-	SAV0063
SAV0064	68384	68680	-	SAV0064
SAV0065	68873	69919	-	SAV0065
SAV0066	70170	70547	-	tnp
SAV0067	70659	71012	-	tnp
SAV0068	70997	71311	-	SAV0068
SAV0069	71822	72406	-	SAV0069
SAV0070	73470	74165	-	kdpE
SAV0071	74140	76773	-	kdpD
SAV0072	77077	78753	+	truncated-kdpA
SAV0073	78772	80793	+	kdpB#SCCmec
SAV0074	80842	81366	+	kdpC#SCCmec
SAV0075	81911	82780	-	SAV0075
SAV0076	82790	83692	-	SAV0076
SAV0077	83728	83853	+	SAV0077
SAV0078	83886	84365	-	SAV0078
SAV0079	84428	84760	-	SAV0079
SAV0080	84805	85431	-	SAV0080
SAV0081	85546	87054	+	SAV0081
SAV0082	87653	89386	+	SAV0082
SAV0083	89570	89908	-	SAV0083
SAV0084	90330	91085	-	SAV0084
SAV0085	91085	91345	-	SAV0085
SAV0086	91482	92546	+	SAV0086
SAV0087	92577	93911	+	SAV0087
SAV0088	93930	95123	+	SAV0088
SAV0089	95790	96776	-	SAV0089
SAV0090	97085	97288	+	SAV0090
SAV0091	97337	97633	+	SAV0091
SAV0092	97832	98443	+	SAV0092
SAV0093	98710	101862	+	SAV0093
SAV0094	101919	102401	+	SAV0094
SAV0095	102607	103593	+	plc
SAV0096	103814	104584	+	SAV0096
SAV0097	104636	105406	+	SAV0097
SAV0098	105474	106241	+	SAV0098
SAV0099	106306	107076	+	SAV0099
SAV0100	107143	107910	+	SAV0100
SAV0101	108007	110244	+	SAV0101
SAV0102	110395	111573	+	SAV0102
SAV0103	111575	112963	+	SAV0103
SAV0104	113447	115114	-	SAV0104
SAV0105	115206	115376	-	SAV0105
SAV0106	115433	117208	-	SAV0106
SAV0107	117382	118254	-	SAV0107
SAV0108	118436	119764	+	SAV0108
SAV0109	119954	120427	+	SAV0109
SAV0110	120689	122281	+	lctP
SAV0111	122610	123962	-	spa
SAV0112	124383	125135	-	sarH1
SAV0113	125504	126421	-	sirC
SAV0114	126499	127494	-	sirB
SAV0115	127510	128502	-	sirA
SAV0116	128733	129713	+	SAV0116
SAV0117	129710	130720	+	SAV0117
SAV0118	130741	132495	+	SAV0118
SAV0119	132488	133744	+	SAV0119
SAV0120	133734	135470	+	SAV0120
SAV0121	135451	137229	+	SAV0121
SAV0122	137201	137980	+	SAV0122
SAV0123	137980	139182	+	SAV0123
SAV0124	139186	139950	+	SAV0124
SAV0125	140146	140772	+	SAV0125
SAV0126	140984	141760	+	butA
SAV0127	141809	141961	-	SAV0127
SAV0128	142105	143076	+	SAV0128
SAV0129	143039	143731	+	SAV0129
SAV0130	143941	145107	+	SAV0130
SAV0131	145088	146326	+	SAV0131
SAV0132	146316	147746	+	SAV0132
SAV0133	148014	148613	+	sodM
SAV0134	148980	149705	+	SAV0134
SAV0135	149896	150636	-	SAV0135
SAV0136	150887	151594	+	pnp
SAV0137	151601	152953	+	SAV0137
SAV0138	153034	153696	+	dra
SAV0139	153724	154902	+	drm
SAV0140	155031	155846	-	SAV0140
SAV0141	155843	156643	-	SAV0141
SAV0142	156645	157418	-	SAV0142
SAV0143	157613	158569	-	SAV0143
SAV0144	158798	160342	+	SAV0144
SAV0145	160393	161928	+	SAV0145
SAV0146	162085	162852	+	SAV0146
SAV0147	162858	164033	+	SAV0147
SAV0148	164418	167027	+	adhE
SAV0149	167370	168038	+	capA
SAV0150	168054	168740	+	capB
SAV0151	168743	169507	+	capC
SAV0152	169527	171350	+	capD
SAV0153	171340	172368	+	capE
SAV0154	172381	173490	+	capF
SAV0155	173494	174618	+	capG
SAV0156	174621	175247	+	capH
SAV0157	175252	176361	+	capI
SAV0158	176375	177541	+	capJ
SAV0159	177534	178739	+	capK
SAV0160	178740	179945	+	capL
SAV0161	179956	180513	+	capM
SAV0162	180513	181400	+	capN
SAV0163	181454	182716	+	capO
SAV0164	182763	183938	+	capP
SAV0165	184003	184329	-	SAV0165
SAV0166	184336	184719	-	SAV0166
SAV0167	185146	186633	+	aldA
SAV0168	187280	188239	+	SAV0168
SAV0169	188349	188504	-	SAV0169
SAV0170	188534	188737	-	SAV0170
SAV0171	188916	189428	+	SAV0171
SAV0172	189770	190510	+	SAV0172
SAV0173	190524	191495	+	SAV0173
SAV0174	191492	192253	+	SAV0174
SAV0175	192266	193297	+	SAV0175
SAV0176	193523	193873	+	SAV0176
SAV0177	193948	195072	+	fdh
SAV0178	195458	196708	+	SAV0178
SAV0179	197155	204330	+	SAV0179
SAV0180	204343	204987	+	SAV0180
SAV0181	205315	205809	-	SAV0181
SAV0182	206064	206828	-	SAV0182
SAV0183	206844	208085	-	argJ
SAV0184	208097	209128	-	argC
SAV0185	209167	210351	-	SAV0185
SAV0186	210610	211959	-	SAV0186
SAV0187	212238	212735	-	SAV0187
SAV0188	212862	214502	-	SAV0188
SAV0189	214774	216819	-	glcA
SAV0190	217404	218459	+	SAV0190
SAV0191	218456	219355	+	SAV0191
SAV0192	219367	220821	+	SAV0192
SAV0193	220824	221699	+	SAV0193
SAV0194	221893	222174	-	SAV0194
SAV0195	222387	225176	+	hsdR
SAV0196	225323	225922	-	SAV0196
SAV0197	226048	227160	+	SAV0197
SAV0198	227157	227837	+	SAV0198
SAV0199	227834	229012	+	SAV0199
SAV0200	229219	229440	+	SAV0200
SAV0201	229478	231196	+	SAV0201
SAV0202	231255	231698	+	SAV0202
SAV0203	231710	232432	+	SAV0203
SAV0204	232419	232595	+	SAV0204
SAV0205	233305	234897	-	oppF
SAV0206	234995	236332	+	truncated-dppB
SAV0207	236338	237501	+	SAV0207
SAV0208	237518	239293	+	rlp
SAV0209	239331	241337	+	SAV0209
SAV0210	241650	242423	-	SAV0210
SAV0211	242612	243238	-	SAV0211
SAV0212	243447	244025	+	SAV0212
SAV0213	244409	245506	+	msmX
SAV0214	245519	246790	+	SAV0214
SAV0215	246793	248061	+	SAV0215
SAV0216	248063	248902	+	SAV0216
SAV0217	248973	250052	+	SAV0217
SAV0218	250077	251117	+	SAV0218
SAV0219	251172	252140	+	SAV0219
SAV0220	252501	252995	-	SAV0220
SAV0221	253228	253947	+	uhpT
SAV0222	253951	254607	+	uhpT
SAV0223	254966	255724	-	SAV0223
SAV0224	255717	257273	-	SAV0224
SAV0225	257270	258238	-	SAV0225
SAV0226	258826	261075	+	pflB
SAV0227	261098	261853	+	pflA
SAV0228	262175	263938	+	SAV0228
SAV0229	264102	264446	-	SAV0229
SAV0230	264636	266612	+	coa
SAV0231	267199	268383	-	SAV0231
SAV0232	268413	270674	-	SAV0232
SAV0233	270860	272071	-	SAV0233
SAV0234	272183	273688	-	SAV0234
SAV0235	273714	275276	-	SAV0235
SAV0236	275732	276874	+	SAV0236
SAV0237	277188	278663	-	SAV0237
SAV0238	278861	279217	-	SAV0238
SAV0239	279374	279547	-	SAV0239
SAV0240	279573	280718	-	SAV0240
SAV0241	281291	282244	+	lctE
SAV0242	282564	284093	-	SAV0242
SAV0243	284455	285390	+	SAV0243
SAV0244	285727	287823	+	SAV0244
SAV0245	287808	288275	+	SAV0245
SAV0246	288298	288576	+	SAV0246
SAV0247	288803	290062	+	gatC
SAV0248	290080	291135	+	SAV0248
SAV0249	291137	291283	+	SAV0249
SAV0250	291307	292350	+	SAV0250
SAV0251	292878	293594	+	SAV0251
SAV0252	293587	294612	+	SAV0252
SAV0253	294634	296328	+	SAV0253
SAV0254	296756	297925	+	SAV0254
SAV0255	298201	298917	+	SAV0255
SAV0256	298910	299935	+	SAV0256
SAV0257	299957	301645	+	SAV0257
SAV0258	301678	303399	+	SAV0258
SAV0259	303543	304217	+	scdA
SAV0260	304462	306216	+	lytS
SAV0261	306219	306959	+	lytR
SAV0262	307078	307515	+	lrgA
SAV0263	307508	308209	+	lrgB
SAV0264	308317	309021	-	SAV0264
SAV0265	309170	309961	+	SAV0265
SAV0266	309977	311413	+	bglA
SAV0267	311900	312661	-	SAV0267
SAV0268	312912	313826	-	rbsK
SAV0269	313854	314258	-	rbsD
SAV0270	314273	315154	-	SAV0270
SAV0271	315386	316384	-	SAV0271
SAV0272	316523	316723	+	SAV0272
SAV0273	316761	317153	+	SAV0273
SAV0274	317281	318657	-	SAV0274
SAV0275	318891	319883	+	SAV0275
SAV0276	320209	321159	+	lytM
SAV0277	321211	321870	-	SAV0277
SAV0278	321884	322804	-	SAV0278
SAV0279	322801	323967	-	SAV0279
SAV0280	324035	325558	-	SAV0280
SAV0281	325889	326782	-	SAV0281
SAV0282	327030	327323	+	SAV0282
SAV0283	327406	330435	+	SAV0283
SAV0284	330435	330893	+	SAV0284
SAV0285	330865	331107	+	SAV0285
SAV0286	331120	332454	+	SAV0286
SAV0287	332476	336915	+	SAV0287
SAV0289	336945	337337	+	SAV0289
SAV0290	337353	337667	+	SAV0290
SAV0291	337664	338341	+	SAV0291
SAV0292	338341	338658	+	SAV0292
SAV0293	338668	340512	+	SAV0293
SAV0294	340523	341014	+	SAV0294
SAV0295	341217	341900	+	SAV0295
SAV0296	342046	342657	+	SAV0296
SAV0297	342792	343010	+	SAV0297
SAV0298	343142	343642	+	SAV0298
SAV0299	343653	344153	+	SAV0299
SAV0300	344164	344625	+	SAV0300
SAV0301	344674	345174	+	SAV0301
SAV0302	345185	345670	+	SAV0302
SAV0303	346295	346669	+	SAV0303
SAV0304	346819	347217	+	SAV0304
SAV0305	347433	348257	-	SAV0305
SAV0306	348494	349801	-	SAV0306
SAV0307	350385	351275	+	SAV0307
SAV0308	351524	352573	+	SAV0308
SAV0309	352586	353263	+	SAV0309
SAV0310	353471	354502	+	SAV0310
SAV0311	354845	355963	+	SAV0311
SAV0312	355938	356861	+	SAV0312
SAV0313	356872	358092	+	SAV0313
SAV0314	358197	359729	-	SAV0314
SAV0315	359769	360650	-	nanA
SAV0316	360808	361668	+	SAV0316
SAV0317	361945	362745	-	SAV0317
SAV0318	362885	363553	+	SAV0318
SAV0319	363684	364997	-	SAV0319
SAV0320	365415	367490	+	geh
SAV0321	367732	368559	-	SAV0321
SAV0322	368632	369831	-	SAV0322
SAV0323	370133	371134	+	SAV0323
SAV0324	371168	371500	+	SAV0324
SAV0325	371501	372301	+	SAV0325
SAV0326	372288	373235	+	SAV0326
SAV0327	373213	374235	+	SAV0327
SAV0328	374551	375576	+	SAV0328
SAV0329	375670	377016	-	SAV0329
SAV0330	377031	377315	-	SAV0330
SAV0331	377317	377760	-	SAV0331
SAV0332	377765	379720	-	SAV0332
SAV0333	379932	380351	+	SAV0333
SAV0334	380458	381813	+	SAV0334
SAV0335	381917	382375	+	SAV0335
SAV0336	382439	382681	-	glpT
SAV0337	382733	383797	-	glpT
SAV0338	384109	385035	+	SAV0338
SAV0339	385049	386110	+	SAV0339
SAV0340	386124	386690	+	SAV0340
SAV0341	386749	387744	-	SAV0341
SAV0342	388109	388654	+	SAV0342
SAV0343	388921	389775	+	SAV0343
SAV0344	389886	391001	+	SAV0344
SAV0345	390979	392694	+	SAV0345
SAV0346	392935	393597	-	SAV0346
SAV0347	393653	393868	-	SAV0347
SAV0348	393976	394365	-	SAV0348
SAV0349	394605	394808	+	SAV0349
SAV0350	394805	395518	+	SAV0350
SAV0351	395543	396385	+	SAV0351
SAV0352	396385	397014	+	SAV0352
SAV0353	397401	398534	-	SAV0353
SAV0354	399073	400254	+	SAV0354
SAV0355	400337	401089	-	SAV0355
SAV0356	401132	403360	-	metE
SAV0357	403357	405198	-	SAV0357
SAV0358	405167	406327	-	SAV0358
SAV0359	406324	407427	-	SAV0359
SAV0360	408098	408934	+	SAV0360
SAV0361	409088	409969	+	SAV0361
SAV0362	409999	410202	+	SAV0362
SAV0363	410214	411311	+	SAV0363
SAV0364	411397	411588	-	SAV0364
SAV0365	411832	412128	+	rpsF
SAV0366	412149	412652	+	ssb
SAV0367	412704	412946	+	rpsR
SAV0368	413223	414197	-	SAV0368
SAV0369	414249	414503	-	SAV0369
SAV0370	415119	415730	+	SAV0370
SAV0371	416099	416467	+	SAV0371
SAV0372	416648	417220	+	SAV0372
SAV0373	417357	417620	-	SAV0373
SAV0374	417920	418171	+	SAV0374
SAV0375	418210	418419	-	SAV0375
SAV0376	418573	419178	+	SAV0376
SAV0377	419244	419627	-	SAV0377
SAV0378	419897	420523	-	SAV0378
SAV0379	420596	420787	-	SAV0379
SAV0380	420967	422490	-	ahpF
SAV0381	422506	423075	-	ahpC
SAV0382	423567	424322	+	SAV0382
SAV0383	424402	425790	-	SAV0383
SAV0384	426637	427956	+	tnp
SAV0385	428288	429244	-	SAV0385
SAV0386	429362	430024	-	SAV0386
SAV0387	430167	430574	-	SAV0387
SAV0388	431087	431665	+	xprT
SAV0389	431665	432933	+	pbuX
SAV0390	432971	434437	+	guaB
SAV0391	434462	436003	+	guaA
SAV0392	436071	437264	-	int
SAV0393	437291	437491	-	SAV0393
SAV0394	437989	438219	-	SAV0394
SAV0395	438216	438698	-	SAV0395
SAV0396	438827	438937	-	SAV0396
SAV0397	439169	439522	+	SAV0397
SAV0398	439865	441784	-	tetM
SAV0399	442161	443123	-	SAV0399
SAV0400	443107	444129	-	SAV0400
SAV0401	444126	446153	-	SAV0401
SAV0402	446150	448603	-	SAV0402
SAV0403	448587	449024	-	SAV0403
SAV0404	449054	449692	-	SAV0404
SAV0405	449748	450248	-	SAV0405
SAV0406	450309	451088	-	SAV0406
SAV0407	451130	451351	-	SAV0407
SAV0408	451634	452818	-	SAV0408
SAV0409	453000	454403	-	SAV0409
SAV0410	454425	455198	-	SAV0410
SAV0411	455208	455585	-	SAV0411
SAV0412	455606	455920	-	SAV0412
SAV0413	456120	457913	-	SAV0413
SAV0414	457910	460099	-	SAV0414
SAV0415	460233	461423	-	tnp
SAV0416	461917	462453	-	SAV0416
SAV0417	462845	463549	-	SAV0417
SAV0418	463948	464244	-	SAV0418
SAV0419	464481	464633	-	SAV0419
SAV0420	465165	465524	-	SAV0420
SAV0421	465543	466388	-	SAV0421
SAV0422	466860	467540	+	set6
SAV0423	467826	468521	+	set7
SAV0424	468812	469882	+	set8
SAV0425	470246	470950	+	set10
SAV0426	471396	472091	+	set11
SAV0427	472430	473128	+	set12
SAV0428	473505	474203	+	set13
SAV0429	474569	475252	+	set14
SAV0430	475305	475463	+	SAV0430
SAV0431	475516	477072	+	hsdM
SAV0432	477065	478276	+	hsdS
SAV0433	478659	479342	+	set15
SAV0434	479364	480851	+	SAV0434
SAV0435	481061	481267	-	SAV0435
SAV0436	481604	482407	+	lpl1
SAV0437	482438	483232	+	lpl2
SAV0438	483277	484065	+	lpl3
SAV0439	484389	484871	+	SAV0439
SAV0440	484932	485717	+	SAV0440
SAV0441	485736	486518	+	lpl5
SAV0442	486575	487369	+	lpl6
SAV0443	487421	488221	+	lpl7
SAV0444	488240	489022	+	lpl8
SAV0445	489201	490016	+	lpl9
SAV0446	490006	491331	+	SAV0446
SAV0447	491328	491651	+	SAV0447
SAV0448	491670	491984	+	SAV0448
SAV0449	492273	492473	-	SAV0449
SAV0450	492652	493854	+	SAV0450
SAV0451	494268	494411	-	SAV0451
SAV0452	495442	496926	+	ndhF
SAV0453	496939	499644	+	SAV0453
SAV0454	499806	500168	+	SAV0454
SAV0455	500397	500639	-	SAV0455
SAV0456	500851	501525	+	SAV0456
SAV0457	501562	502296	+	SAV0457
SAV0458	502665	504005	+	SAV0458
SAV0459	504222	505127	+	cysM
SAV0460	505120	506262	+	yrhB
SAV0462	506557	507582	+	SAV0462
SAV0463	507586	508245	+	SAV0463
SAV0464	508282	509124	+	SAV0464
SAV0465	509456	510259	+	SAV0465
SAV0466	510444	510722	-	SAV0466
SAV0467	510862	511257	+	SAV0467
SAV0468	511247	511732	+	SAV0468
SAV0469	511901	512683	-	SAV0469
SAV0470	512680	513792	-	SAV0470
SAV0471	513913	514797	-	gltC
SAV0472	514978	519477	+	gltB
SAV0473	519495	520958	+	gltD
SAV0474	521788	523215	+	treP
SAV0475	523279	524919	+	SAV0475
SAV0476	524944	525672	+	SAV0476
SAV0477	526315	526839	+	SAV0477
SAV0478	526908	528605	+	dnaX
SAV0479	528695	529012	+	SAV0479
SAV0480	529019	529615	+	recR
SAV0481	536406	537743	+	SAV0481
SAV0482	537745	538362	+	tmk
SAV0483	538390	538719	+	SAV0483
SAV0484	538933	539859	+	holB
SAV0485	540028	540663	+	SAV0485
SAV0486	540659	541027	+	SAV0486
SAV0487	541301	542026	+	SAV0487
SAV0488	542019	542267	+	SAV0488
SAV0489	542269	543108	+	SAV0489
SAV0490	543393	545366	+	metS
SAV0491	545397	546170	+	SAV0491
SAV0492	546337	546873	+	SAV0492
SAV0493	546884	547777	+	ksgA
SAV0494	547877	548140	+	veg
SAV0495	548450	549298	+	SAV0495
SAV0496	549312	550136	+	purR
SAV0497	550153	550533	+	SAV0497
SAV0498	550605	550907	+	spoVG
SAV0499	551314	552666	+	gcaD
SAV0500	552813	553778	+	prs
SAV0501	553928	554581	+	rplY
SAV0502	554892	555464	+	pth
SAV0503	555464	558970	+	mfd
SAV0504	558960	560486	+	SAV0504
SAV0505	560486	561679	+	SAV0505
SAV0506	561676	561939	+	SAV0506
SAV0507	561957	562349	+	SAV0507
SAV0508	562454	562855	+	SAV0508
SAV0509	563035	564330	+	SAV0509
SAV0510	564335	564874	+	SAV0510
SAV0511	565131	567224	+	ftsH
SAV0512	567452	568333	+	SAV0512
SAV0513	568512	569444	+	cysK
SAV0514	569660	570463	+	folP
SAV0515	570441	570806	+	folB
SAV0516	570803	571279	+	folK
SAV0517	571818	573305	+	lysS
SAV0518	580358	581740	-	SAV0518
SAV0519	581844	582731	+	SAV0519
SAV0520	582735	583295	+	SAV0520
SAV0521	583503	584717	-	nupC
SAV0522	584875	585336	+	ctsR
SAV0523	585355	585921	+	SAV0523
SAV0524	585911	586918	+	SAV0524
SAV0525	586932	589388	+	clpC
SAV0526	589873	591237	+	radA
SAV0527	591262	592335	+	SAV0527
SAV0528	592892	594346	+	gltX
SAV0529	594775	595416	+	cysE
SAV0530	595400	596800	+	cysS
SAV0530.1	596793	597197	+	cysS
SAV0531	597205	597951	+	SAV0531
SAV0532	597951	598475	+	SAV0532
SAV0533	598556	599125	+	SAV0533
SAV0534	599439	599621	+	secE
SAV0535	599634	600182	+	nusG
SAV0536	600320	600370	+	SAV0536
SAV0537	600363	600785	+	rplK
SAV0538	600993	601685	+	rplA
SAV0539	601957	602457	+	rplJ
SAV0540	602500	602868	+	rplL
SAV0541	603043	603651	+	SAV0541
SAV0542	603866	607417	+	rpoB
SAV0543	607554	611177	+	rpoC
SAV0544	611314	611568	+	SAV0544
SAV0545	611666	612079	+	rpsL
SAV0546	612145	612615	+	rpsG
SAV0547	612738	614819	+	fus
SAV0548	615036	616220	+	tufA
SAV0549	616502	617677	-	SAV0549
SAV0550	617884	619035	+	SAV0550
SAV0551	619305	620183	+	SAV0551
SAV0552	620342	621979	+	araB
SAV0553	622193	623158	+	SAV0553
SAV0554	623494	624570	+	ilvE
SAV0555	624820	625503	+	SAV0555
SAV0556	625619	626281	-	SAV0556
SAV0557	626274	626891	-	SAV0557
SAV0558	626958	627428	+	SAV0558
SAV0559	627575	628444	+	SAV0559
SAV0560	628466	629032	+	SAV0560
SAV0561	629462	632323	+	sdrC
SAV0562	632690	636847	+	sdrD
SAV0563	637241	640666	+	sdrE
SAV0564	640787	642259	+	SAV0564
SAV0565	642384	643874	-	SAV0565
SAV0566	644156	645034	-	SAV0566
SAV0567	645047	645712	-	SAV0567
SAV0568	645726	646085	-	SAV0568
SAV0569	646364	647122	+	nagB
SAV0570	647199	647831	+	SAV0570
SAV0571	647833	648381	+	SAV0571
SAV0572	648494	649141	+	SAV0572
SAV0573	649643	651043	+	proP
SAV0574	651378	651587	+	SAV0574
SAV0575	651587	652963	+	vraA
SAV0576	652965	654104	+	vraB
SAV0577	654079	654444	+	vraC
SAV0578	654447	654716	+	SAV0578
SAV0579	654917	655084	-	SAV0579
SAV0580	655591	656421	-	SAV0580
SAV0581	656605	657261	+	ung
SAV0582	657262	657642	+	SAV0582
SAV0583	657775	658143	+	SAV0583
SAV0584	658264	659748	+	SAV0584
SAV0585	659889	660341	-	SAV0585
SAV0586	660354	661004	-	SAV0586
SAV0587	661667	662419	-	SAV0587
SAV0588	662587	663573	+	pta
SAV0589	663576	664412	+	SAV0589
SAV0590	665080	665919	+	mvaK1
SAV0591	665924	666907	+	mvaD
SAV0592	666920	667996	+	mvaK2
SAV0593	668173	668514	+	SAV0593
SAV0594	668566	670014	-	SAV0594
SAV0595	669875	670315	-	SAV0595
SAV0596	670940	672334	+	SAV0596
SAV0597	672338	672970	+	SAV0597
SAV0598	673017	673637	+	SAV0598
SAV0599	673777	674409	+	SAV0599
SAV0600	674857	675795	+	SAV0600
SAV0601	676241	676777	+	SAV0601
SAV0602	676945	677421	+	SAV0602
SAV0603	677461	678756	+	SAV0603
SAV0604	678799	679305	+	SAV0604
SAV0605	679804	680814	+	adh1
SAV0606	681078	681506	+	SAV0606
SAV0607	681503	683164	+	argS
SAV0608	683434	684069	+	SAV0608
SAV0609	684321	685208	+	SAV0609
SAV0610	685357	686307	+	SAV0610
SAV0611	686362	687081	+	SAV0611
SAV0612	687065	687865	+	SAV0612
SAV0613	688001	688507	+	SAV0613
SAV0614	688669	689385	+	SAV0614
SAV0615	689554	690342	+	SAV0615
SAV0616	690596	690970	-	sarA
SAV0617	691918	692847	-	SAV0617
SAV0618	693042	693266	-	SAV0618
SAV0619	693283	693486	-	SAV0619
SAV0620	693645	694205	+	SAV0620
SAV0621	694224	696626	+	SAV0621
SAV0623	696613	697038	+	SAV0623
SAV0624	697035	697379	+	SAV0624
SAV0625	697369	698865	+	SAV0625
SAV0626	698866	699348	+	SAV0626
SAV0627	699345	699647	+	SAV0627
SAV0628	699622	700059	+	SAV0628
SAV0629	700399	702441	+	SAV0629
SAV0630	702549	703868	-	tnp
SAV0631	704988	705917	-	SAV0631
SAV0632	705914	706750	-	SAV0632
SAV0633	706744	707487	-	SAV0633
SAV0634	707609	708253	+	SAV0634
SAV0635	708333	709085	-	SAV0635
SAV0636	709321	710085	+	tagA
SAV0637	710146	710940	-	tagH
SAV0638	711266	712099	+	tagG
SAV0639	712831	713301	+	tagB
SAV0640	713352	714359	+	tagX
SAV0641	714422	714820	+	tagD
SAV0642	714937	716232	-	pbp4
SAV0643	716653	718380	+	SAV0643
SAV0644	718449	718529	+	SAV0644
SAV0645	718737	719966	+	SAV0645
SAV0646	720713	721324	+	SAV0646
SAV0647	721606	722403	+	fhuA
SAV0648	722439	723443	+	fhuB
SAV0649	723440	724456	+	fhuG
SAV0650	724693	725658	+	SAV0650
SAV0651	725700	726284	+	SAV0651
SAV0652	726277	726639	+	SAV0652
SAV0653	726755	727252	+	SAV0653
SAV0654	727796	728776	+	SAV0654
SAV0655	728927	729970	+	SAV0655
SAV0656	730299	730727	+	SAV0656
SAV0657	730936	731442	-	SAV0657
SAV0658	731555	732478	+	SAV0658
SAV0659	732494	733168	+	SAV0659
SAV0660	733161	734201	+	SAV0660
SAV0661	734345	735106	+	vraF
SAV0662	735084	736985	+	vraG
SAV0663	737708	738325	+	SAV0663
SAV0664	738341	739348	+	SAV0664
SAV0665	739936	740733	-	SAV0665
SAV0666	741094	741738	+	SAV0666
SAV0667	742435	744585	+	SAV0667
SAV0668	744665	745090	+	SAV0668
SAV0669	745556	745996	+	SAV0669
SAV0670	746281	746469	+	SAV0670
SAV0671	746822	747466	+	SAV0671
SAV0672	747768	748448	+	SAV0672
SAV0673	748586	749800	+	SAV0673
SAV0674	749797	750285	+	SAV0674
SAV0675	750384	751073	-	SAV0675
SAV0676	751200	751643	+	SAV0676
SAV0677	751710	752105	+	SAV0677
SAV0678	752243	752542	+	SAV0678
SAV0679	752622	753164	+	SAV0679
SAV0680	753260	753826	-	SAV0680
SAV0681	753828	754286	-	SAV0681
SAV0682	754289	754972	-	SAV0682
SAV0683	755144	756019	-	bacA
SAV0684	756238	757869	+	SAV0684
SAV0685	757866	759539	+	SAV0685
SAV0686	759666	760109	-	SAV0686
SAV0687	760336	761262	+	SAV0687
SAV0688	761365	762273	+	SAV0688
SAV0689	762308	762595	+	SAV0689
SAV0690	762878	764431	+	SAV0690
SAV0691	764517	765890	+	SAV0691
SAV0692	766045	766329	-	SAV0692
SAV0693	766326	766946	-	SAV0693
SAV0694	767129	767551	-	SAV0694
SAV0695	767760	768926	+	norA
SAV0696	769219	769671	+	SAV0696
SAV0697	769845	770327	+	SAV0697
SAV0698	770580	771341	+	SAV0698
SAV0699	771338	772258	+	fruB
SAV0700	772264	774222	+	fruA
SAV0701	774530	775711	+	nagA
SAV0702	775932	777281	+	SAV0702
SAV0703	777503	778342	+	SAV0703
SAV0704	778474	779457	+	SAV0704
SAV0705	779529	780584	-	saeS
SAV0706	780584	781270	-	saeR
SAV0707	781245	781427	-	SAV0707
SAV0708	782061	782501	-	SAV0708
SAV0709	782781	783365	-	SAV0709
SAV0710	783464	784177	-	SAV0710
SAV0711	784181	784600	-	SAV0711
SAV0712	784602	785270	-	SAV0712
SAV0713	785621	786214	+	SAV0713
SAV0714	786198	787349	+	SAV0714
SAV0715	787349	787957	+	SAV0715
SAV0716	788023	788229	+	SAV0716
SAV0717	788317	789027	+	SAV0717
SAV0718	789011	790015	+	SAV0718
SAV0719	790489	792429	+	SAV0719
SAV0720	792705	794582	+	SAV0720
SAV0721	794594	796375	+	recQ
SAV0722	796597	797574	+	SAV0722
SAV0723	797567	799081	+	SAV0723
SAV0724	799321	800379	+	SAV0724
SAV0725	800718	801260	+	SAV0725
SAV0726	802083	803000	-	SAV0726
SAV0727	803270	804775	-	SAV0727
SAV0728	805116	805616	-	SAV0728
SAV0729	805636	806502	-	SAV0729
SAV0730	807303	807701	+	nrdI
SAV0731	807613	809769	+	nrdE
SAV0732	809887	810858	+	nrdF
SAV0733	811233	812204	+	SAV0733
SAV0734	812191	813147	+	SAV0734
SAV0735	813144	813905	+	SAV0735
SAV0736	814024	815052	+	SAV0736
SAV0737	815369	815683	-	SAV0737
SAV0738	815701	816624	-	SAV0738
SAV0739	816751	817269	-	SAV0739
SAV0740	817389	818267	+	SAV0740
SAV0741	818421	818741	+	SAV0741
SAV0742	819165	820289	+	SAV0742
SAV0743	820476	821702	-	pepT
SAV0744	821716	822210	-	SAV0744
SAV0745	822228	822989	-	SAV0745
SAV0746	823185	824255	-	SAV0746
SAV0747	824573	825628	+	llm
SAV0748	825793	826434	-	SAV0748
SAV0749	826578	827444	+	SAV0749
SAV0750	827988	828890	+	SAV0750
SAV0751	828883	829557	+	SAV0751
SAV0752	829618	830190	+	SAV0752
SAV0753	830604	833135	+	secA
SAV0754	833568	834560	+	prfB
SAV0755	834969	835808	+	SAV0755
SAV0756	835982	836632	+	SAV0756
SAV0757	836629	836865	+	SAV0757
SAV0758	837128	839119	+	uvrB
SAV0759	839127	841973	+	uvrA
SAV0760	842637	843569	+	hprK
SAV0761	843575	844414	+	lgt
SAV0762	844422	844907	+	SAV0762
SAV0763	844915	846354	+	SAV0763
SAV0764	846421	847356	+	trxB
SAV0765	848301	849212	+	SAV0765
SAV0766	849209	850204	+	SAV0766
SAV0767	850315	851259	+	SAV0767
SAV0768	851823	852410	+	clpP
SAV0769	852653	853555	-	SAV0769
SAV0770	854258	854887	+	SAV0770
SAV0771	855812	856825	+	gapR
SAV0772	856878	857888	+	gap
SAV0773	858027	859217	+	pgk
SAV0774	859339	860100	+	tpi
SAV0775	860103	861620	+	pgm
SAV0776	861750	863054	+	eno
SAV0777	863393	863851	+	SAV0777
SAV0778	863918	864151	+	secG
SAV0779	864267	865007	+	SAV0779
SAV0780	865041	867413	+	SAV0780
SAV0782	867435	867899	+	ssrP
SAV0783	868462	869568	-	SAV0783
SAV0784	869574	870158	-	SAV0784
SAV0785	870376	870585	+	SAV0785
SAV0786	870621	870848	+	SAV0786
SAV0787	870845	870991	+	SAV0787
SAV0788	870984	871193	+	SAV0788
SAV0789	871196	871513	+	SAV0789
SAV0790	871580	872449	+	SAV0790
SAV0791	872466	873935	+	SAV0791
SAV0792	874137	874583	+	SAV0792
SAV0793	874585	874869	+	SAV0793
SAV0794	874866	875507	+	SAV0794
SAV0795	875957	876298	+	SAV0795
SAV0796	876310	876888	+	SAV0796
SAV0797	876906	877124	+	SAV0797
SAV0798	877175	877702	+	SAV0798
SAV0799	877669	878046	+	SAV0799
SAV0800	878043	878612	+	SAV0800
SAV0801	878889	879857	+	SAV0801
SAV0802	880082	880276	+	SAV0802
SAV0803	880821	881735	+	SAV0803
SAV0804	881793	882641	+	SAV0804
SAV0805	883017	883157	+	SAV0805
SAV0806	883221	883439	+	SAV0806
SAV0807	883706	884008	-	SAV0807
SAV0808	884383	885111	-	SAV0808
SAV0809	885709	886230	+	SAV0809
SAV0810	886369	886899	+	SAV0810
SAV0811	887162	889969	+	fnb
SAV0812	890190	891692	+	SAV0812
SAV0813	892045	893067	+	ssp
SAV0814	893402	893923	+	SAV0814
SAV0815	894264	894950	+	nuc
SAV0816	895307	895507	+	cspC
SAV0817	895999	896217	-	SAV0817
SAV0818	896279	896563	-	SAV0818
SAV0819	896651	897220	-	SAV0819
SAV0820	897408	897596	-	SAV0820
SAV0821	897625	897885	-	SAV0821
SAV0822	898226	898429	+	SAV0822
SAV0823	898426	898662	-	SAV0823
SAV0824	898887	899468	+	SAV0824
SAV0825	899541	900158	-	SAV0825
SAV0826	900313	900807	-	SAV0826
SAV0827	901015	901065	+	SAV0827
SAV0828	901206	901628	-	SAV0828
SAV0829	901776	902492	+	SAV0829
SAV0830	902575	903114	+	SAV0830
SAV0831	903265	903585	-	SAV0831
SAV0832	903729	904085	+	SAV0832
SAV0833	904243	904623	+	SAV0833
SAV0834	904802	905680	+	SAV0834
SAV0835	906477	906863	+	SAV0835
SAV0836	906856	907152	+	SAV0836
SAV0837	907402	908427	+	SAV0837
SAV0838	908420	909115	+	SAV0838
SAV0839	909133	909954	+	SAV0839
SAV0840	910308	910502	+	SAV0840
SAV0841	910736	911587	-	SAV0841
SAV0842	911915	912676	+	SAV0842
SAV0843	912774	914081	+	SAV0843
SAV0844	914196	915437	+	SAV0844
SAV0845	915427	915891	+	SAV0845
SAV0846	916042	917439	+	SAV0846
SAV0847	917507	918556	-	int
SAV0848	918668	918847	+	int
SAV0849	918827	919759	-	SAV0849
SAV0850	919791	920255	-	SAV0850
SAV0851	920268	920597	-	SAV0851
SAV0852	920758	920949	+	SAV0852
SAV0854	921171	921380	-	SAV0854
SAV0855	921437	922216	+	SAV0855
SAV0856	922217	922441	+	SAV0856
SAV0857	922481	922624	+	SAV0857
SAV0858	922646	923293	-	SAV0858
SAV0859	923364	923585	+	SAV0859
SAV0860	923832	924134	+	SAV0860
SAV0861	924276	924410	-	SAV0861
SAV0862	924409	924630	+	SAV0862
SAV0863	924623	924745	+	SAV0863
SAV0864	925247	925672	+	SAV0864
SAV0865	925683	926234	+	SAV0865
SAV0866	926235	926909	+	SAV0866
SAV0867	927049	927330	-	SAV0867
SAV0868	927395	928126	+	SAV0868
SAV0869	928139	928924	+	SAV0869
SAV0870	928921	929079	+	SAV0870
SAV0871	929092	929313	+	SAV0871
SAV0872	929323	929727	+	SAV0872
SAV0873	929919	930290	+	SAV0873
SAV0874	930291	930539	+	SAV0874
SAV0875	930551	930802	+	SAV0875
SAV0876	930795	931331	+	SAV0876
SAV0877	931368	931574	+	SAV0877
SAV0878	931571	931765	+	SAV0878
SAV0879	931762	931965	+	SAV0879
SAV0880	931958	932194	+	SAV0880
SAV0881	932184	932570	+	SAV0881
SAV0882	932570	932743	+	SAV0882
SAV0883	932801	932890	+	SAV0883
SAV0884	932905	933324	+	SAV0884
SAV0885	933511	933951	+	SAV0885
SAV0886	933938	935215	+	SAV0886
SAV0887	935226	936761	+	SAV0887
SAV0888	936768	937763	+	SAV0888
SAV0889	937836	938006	+	SAV0889
SAV0890	938141	938755	+	SAV0890
SAV0891	938769	939077	+	SAV0891
SAV0892	939209	939742	+	SAV0892
SAV0893	939764	940051	+	SAV0893
SAV0894	940060	940392	+	SAV0894
SAV0895	940389	940691	+	SAV0895
SAV0896	940691	941038	+	SAV0896
SAV0897	941050	941433	+	SAV0897
SAV0898	941452	942033	+	SAV0898
SAV0899	942095	942460	+	SAV0899
SAV0900	942580	942834	+	SAV0900
SAV0901	942851	946315	+	SAV0901
SAV0902	946328	947275	+	SAV0902
SAV0903	947284	949185	+	SAV0903
SAV0904	949200	951110	+	SAV0904
SAV0905	951110	952933	+	SAV0905
SAV0906	952933	953310	+	SAV0906
SAV0907	953314	953487	+	SAV0907
SAV0908	953528	953827	+	SAV0908
SAV0909	953964	955862	+	SAV0909
SAV0910	955875	957113	+	SAV0910
SAV0911	957119	957514	+	SAV0911
SAV0912	957570	958007	+	SAV0912
SAV0913	957988	959433	+	SAV0913
SAV0914	959700	959828	+	SAV0914
SAV0915	959899	960009	+	SAV0915
SAV0916	960529	961161	+	SAV0916
SAV0917	961154	961585	+	SAV0917
SAV0918	962251	962565	-	SAV0918
SAV0919	962930	963970	+	SAV0919
SAV0920	963984	965051	+	SAV0920
SAV0921	965436	966284	+	SAV0921
SAV0922	966297	967124	+	SAV0922
SAV0923	967151	968470	+	SAV0923
SAV0924	968554	969471	+	lipA
SAV0925	969601	969984	+	SAV0925
SAV0926	970190	971509	+	tnp
SAV0927	971583	971849	-	SAV0927
SAV0928	971947	972381	+	SAV0928
SAV0929	972381	973160	+	SAV0929
SAV0930	973193	974152	+	SAV0930
SAV0931	974564	974716	+	SAV0931
SAV0932	974732	976189	+	dltA
SAV0933	976186	977400	+	dltB
SAV0934	977418	977654	+	dltC
SAV0935	977651	978826	+	dltD
SAV0936	979089	979331	-	SAV0936
SAV0937	979447	979755	+	SAV0937
SAV0938	979814	980878	-	SAV0938
SAV0939	981195	981431	+	SAV0939
SAV0940	981444	981803	+	SAV0940
SAV0941	982257	983465	+	SAV0941
SAV0942	983596	985071	+	ampA
SAV0943	985482	986798	+	SAV0943
SAV0944	986817	987191	+	SAV0944
SAV0945	987247	988401	-	SAV0945
SAV0946	988650	989006	-	mnhG
SAV0947	988984	989277	-	mnhF
SAV0948	989277	989756	-	mnhE
SAV0949	989758	991254	-	mnhD
SAV0950	991247	991588	-	mnhC
SAV0951	991588	992016	-	mnhB
SAV0952	992009	994414	-	mnhA
SAV0953	994545	994928	-	SAV0953
SAV0954	994992	995585	+	SAV0954
SAV0955	996117	996377	+	SAV0955
SAV0956	996739	997866	+	SAV0956
SAV0957	998174	999364	+	rocD
SAV0958	999473	1000717	+	gudB
SAV0959	1001054	1001983	-	glpQ
SAV0960	1002225	1003604	-	argH
SAV0961	1003594	1004799	-	argG
SAV0962	1005150	1006481	+	pgi
SAV0963	1006806	1007381	+	SAV0963
SAV0964	1007386	1007910	+	spsA
SAV0965	1007926	1008501	+	spsB
SAV0966	1008661	1012134	+	SAV0966
SAV0967	1012138	1015791	+	SAV0967
SAV0968	1015957	1016859	+	SAV0968
SAV0969	1017188	1017577	+	SAV0969
SAV0970	1017749	1019065	-	cdr
SAV0971	1019117	1019941	-	SAV0971
SAV0972	1020055	1020363	+	SAV0972
SAV0973	1020360	1020452	-	SAV0973
SAV0974	1020911	1022725	+	SAV0974
SAV0975	1022928	1025537	+	clpB
SAV0976	1025596	1026465	-	SAV0976
SAV0977	1026575	1027720	+	SAV0977
SAV0978	1027704	1028345	+	SAV0978
SAV0979	1028338	1029459	+	SAV0979
SAV0980	1029437	1029952	+	SAV0980
SAV0981	1030263	1030697	+	SAV0981
SAV0982	1030954	1031139	-	SAV0982
SAV0983	1031434	1032375	+	fabH
SAV0984	1032387	1033631	+	SAV0984
SAV0985	1033686	1034057	-	SAV0985
SAV0986	1034300	1035226	+	oppB
SAV0987	1035226	1036296	+	SAV0987
SAV0988	1036312	1037394	+	oppD
SAV0989	1037384	1038325	+	oppF
SAV0990	1038344	1039999	+	SAV0990
SAV0991	1040211	1041926	+	SAV0991
SAV0992	1041977	1042963	+	SAV0992
SAV0993	1042966	1043946	+	appF
SAV0994	1043939	1044901	+	oppB
SAV0995	1044913	1045794	+	SAV0995
SAV0996	1045836	1046825	-	trpS
SAV0997	1047119	1047514	+	SAV0997
SAV0998	1047885	1048604	+	SAV0998
SAV0999	1048725	1049711	+	SAV0999
SAV1000	1049759	1051567	+	SAV1000
SAV1001	1052027	1052812	-	yjbM
SAV1003	1052856	1053221	-	SAV1003
SAV1004	1053325	1053918	-	SAV1004
SAV1005	1054104	1054451	+	SAV1005
SAV1006	1054468	1055103	+	SAV1006
SAV1007	1055120	1055929	+	SAV1007
SAV1008	1055926	1056780	+	SAV1008
SAV1009	1056801	1058186	+	SAV1009
SAV1010	1058196	1060040	+	SAV1010
SAV1011	1060318	1061088	+	fabI
SAV1012	1061285	1062370	-	SAV1012
SAV1013	1062775	1064280	+	SAV1013
SAV1014	1064425	1065183	+	SAV1014
SAV1015	1065377	1065886	+	SAV1015
SAV1016	1065999	1067189	-	SAV1016
SAV1017	1067167	1068342	-	SAV1017
SAV1018	1068775	1070259	+	murE
SAV1019	1070249	1070500	+	SAV1019
SAV1020	1070500	1070718	+	SAV1020
SAV1021	1070905	1072107	+	SAV1021
SAV1022	1072409	1073212	+	SAV1022
SAV1023	1073446	1075755	+	htrA
SAV1024	1075772	1077130	+	SAV1024
SAV1025	1077266	1078780	+	SAV1025
SAV1026	1079266	1079835	-	SAV1026
SAV1027	1080045	1080263	+	SAV1027
SAV1028	1080344	1081330	-	SAV1028
SAV1029	1081529	1081705	+	SAV1029
SAV1030	1081720	1082322	+	SAV1030
SAV1031	1082531	1082692	+	SAV1031
SAV1032	1083349	1083621	+	SAV1032
SAV1033	1083665	1085629	+	SAV1033
SAV1034	1085632	1085952	+	SAV1034
SAV1035	1085949	1086590	+	SAV1035
SAV1036	1086678	1086923	-	SAV1036
SAV1037	1087335	1087691	-	SAV1037
SAV1038	1088179	1089138	+	SAV1038
SAV1039	1089379	1089594	-	SAV1039
SAV1040	1089759	1090310	+	SAV1040
SAV1041	1090362	1091300	-	SAV1041
SAV1042	1091482	1092843	+	SAV1042
SAV1043	1092830	1094503	+	menD
SAV1044	1094490	1095293	+	SAV1044
SAV1045	1095286	1096107	+	menB
SAV1046	1096345	1096674	-	sspC
SAV1047	1096712	1097893	-	sspB
SAV1048	1097975	1099003	-	sspA
SAV1049	1099531	1100685	-	SAV1049
SAV1050	1100881	1101891	-	SAV1050
SAV1051	1102044	1102463	+	SAV1051
SAV1052	1102670	1106416	-	truncated-atl
SAV1054	1106644	1107078	-	SAV1054
SAV1055	1107233	1107703	-	SAV1055
SAV1056	1107751	1108968	-	SAV1056
SAV1057	1109419	1110612	+	fmt
SAV1058	1111149	1111439	-	SAV1058
SAV1059	1111436	1112041	-	qoxC
SAV1060	1112031	1114019	-	qoxB
SAV1061	1114019	1115119	-	SAV1061
SAV1062	1115690	1116007	-	SAV1062
SAV1063	1116871	1117731	-	folD
SAV1064	1117932	1118414	+	SAV1064
SAV1065	1118401	1119525	+	purK
SAV1066	1119529	1120233	+	purC
SAV1067	1120233	1120496	+	SAV1067
SAV1068	1120498	1121169	+	purQ
SAV1069	1121162	1123351	+	purL
SAV1070	1123330	1124814	+	purF
SAV1071	1124807	1125835	+	purM
SAV1072	1125838	1126404	+	purN
SAV1073	1126416	1127897	+	purH
SAV1074	1128027	1129166	+	purD
SAV1075	1129434	1130240	-	SAV1075
SAV1076	1130233	1131633	-	SAV1076
SAV1077	1131648	1132223	-	SAV1077
SAV1078	1132604	1133053	-	SAV1078
SAV1079	1133059	1133193	-	SAV1079
SAV1080	1133345	1134640	+	SAV1080
SAV1081	1135065	1136237	+	SAV1081
SAV1082	1136291	1136833	+	SAV1082
SAV1083	1136987	1137253	+	ptsH
SAV1084	1137256	1138974	+	ptsI
SAV1085	1139211	1139444	-	SAV1085
SAV1086	1139642	1141003	+	SAV1086
SAV1087	1141000	1142019	+	SAV1087
SAV1088	1142152	1142814	+	SAV1088
SAV1089	1143060	1144757	-	SAV1089
SAV1090	1144757	1144927	-	SAV1090
SAV1091	1145457	1146008	-	pdf1
SAV1092	1146373	1146999	+	SAV1092
SAV1093	1147170	1148282	+	pdhA
SAV1094	1148286	1149263	+	phdB
SAV1095	1149354	1150646	+	pdhC
SAV1096	1150650	1152056	+	pdhD
SAV1097	1152224	1152499	+	SAV1097
SAV1098	1152643	1153182	+	SAV1098
SAV1099	1153195	1154289	+	potA
SAV1100	1154282	1155079	+	potB
SAV1101	1155085	1155894	+	potC
SAV1102	1155894	1156967	+	potD
SAV1103	1157041	1158060	+	SAV1103
SAV1104	1158343	1158762	+	SAV1104
SAV1105	1158841	1160193	-	SAV1105
SAV1106	1160377	1160991	-	SAV1106
SAV1107	1161148	1161975	+	SAV1107
SAV1108	1162129	1162320	-	SAV1108
SAV1109	1162422	1164269	+	SAV1109
SAV1110	1164409	1164576	-	SAV1110
SAV1111	1164578	1165060	-	SAV1111
SAV1112	1165201	1165476	+	SAV1112
SAV1113	1165895	1167016	+	SAV1113
SAV1114	1167570	1171022	+	pycA
SAV1115	1171162	1172073	-	SAV1115
SAV1116	1172510	1173424	+	ctaB
SAV1117	1173449	1173910	+	SAV1117
SAV1118	1174237	1175274	+	SAV1118
SAV1119	1175290	1175724	+	SAV1119
SAV1121	1175787	1176713	-	SAV1121
SAV1122	1176952	1177206	+	SAV1122
SAV1123	1177209	1177598	-	SAV1123
SAV1124	1177668	1178210	+	SAV1124
SAV1125	1178212	1178694	+	SAV1125
SAV1126	1178756	1179895	-	SAV1126
SAV1127	1180022	1180579	+	SAV1127
SAV1128	1180659	1180832	+	rpmF
SAV1129	1180986	1182923	-	SAV1129
SAV1130	1183126	1184178	-	SAV1130
SAV1131	1184387	1185070	+	SAV1131
SAV1132	1185070	1186146	+	SAV1132
SAV1133	1186143	1187021	+	SAV1133
SAV1134	1187178	1187999	+	SAV1134
SAV1135	1188061	1188795	+	SAV1135
SAV1136	1188823	1189137	+	SAV1136
SAV1137	1189521	1190261	+	SAV1137
SAV1138	1190641	1191699	+	pheS
SAV1139	1191699	1194101	+	pheT
SAV1140	1194533	1195471	-	SAV1140
SAV1141	1195841	1196107	+	SAV1141
SAV1142	1196108	1196629	+	SAV1142
SAV1143	1196702	1198414	+	SAV1143
SAV1144	1198424	1200772	+	mutS2
SAV1145	1200945	1201259	+	trxA
SAV1146	1201583	1203364	+	uvrC
SAV1147	1203688	1204302	+	sdhC
SAV1148	1204354	1206120	+	sdhA
SAV1149	1206120	1206935	+	sdhB
SAV1151	1207171	1207971	+	murI
SAV1152	1207983	1208570	+	SAV1152
SAV1153	1208563	1209066	+	SAV1153
SAV1154	1209224	1209361	+	SAV1154
SAV1155	1209555	1209884	+	SAV1155
SAV1156	1210253	1210654	-	SAV1156
SAV1157	1211324	1211830	+	SAV1157
SAV1158	1212090	1212587	+	SAV1158
SAV1159	1212737	1213087	+	SAV1159
SAV1160	1213853	1214038	-	SAV1160
SAV1161	1214660	1214893	-	SAV1161
SAV1162	1215412	1216731	+	tnp
SAV1163	1216890	1217849	-	SAV1163
SAV1164	1218652	1218849	+	SAV1164
SAV1165	1219076	1219207	-	SAV1165
SAV1166	1219339	1220055	-	SAV1166
SAV1167	1220163	1220888	-	SAV1167
SAV1168	1220983	1221708	-	SAV1168
SAV1169	1222146	1223147	+	argF
SAV1170	1223170	1224102	+	SAV1170
SAV1171	1224274	1225830	+	SAV1171
SAV1172	1226137	1226364	+	SAV1172
SAV1173	1226670	1227617	-	SAV1173
SAV1174	1227866	1228054	+	SAV1174
SAV1175	1229417	1230103	+	SAV1175
SAV1176	1230207	1230653	-	SAV1176
SAV1177	1230848	1232461	+	SAV1177
SAV1178	1232605	1233036	+	SAV1178
SAV1179	1233052	1233987	+	SAV1179
SAV1180	1234001	1234402	+	ftsL
SAV1181	1234383	1236617	+	pbpA
SAV1182	1236909	1237874	+	mraY
SAV1183	1237876	1239225	+	murD
SAV1184	1239241	1240560	+	div1b
SAV1185	1240666	1242078	+	ftsA
SAV1186	1242111	1243283	+	ftsZ
SAV1187	1243543	1244334	+	SAV1187
SAV1188	1244352	1245026	+	SAV1188
SAV1189	1245023	1245586	+	SAV1189
SAV1190	1245598	1245888	+	SAV1190
SAV1191	1246139	1246777	+	SAV1191
SAV1192	1246801	1247418	+	SAV1192
SAV1193	1247639	1250392	+	ileS
SAV1194	1250683	1251480	+	SAV1194
SAV1195	1251541	1251753	-	truncated-tnp
SAV1196	1252304	1252795	+	lsp
SAV1197	1252795	1253712	+	SAV1197
SAV1198	1254112	1254639	+	pyrR
SAV1199	1254857	1256164	+	pyrP
SAV1200	1256192	1257073	+	pyrB
SAV1201	1257091	1258365	+	pyrC
SAV1202	1258367	1259467	+	pyrAA
SAV1203	1259460	1262633	+	pyrAB
SAV1204	1262743	1263435	+	pyrF
SAV1205	1263435	1264046	+	pyrE
SAV1206	1264076	1264288	+	SAV1206
SAV1207	1264725	1265126	+	SAV1207
SAV1208	1265389	1267086	-	SAV1208
SAV1209	1267361	1267984	+	gmk
SAV1210	1267984	1268202	+	SAV1210
SAV1211	1268418	1269617	+	SAV1211
SAV1212	1269617	1272025	+	priA
SAV1213	1272531	1273484	+	SAV1213
SAV1214	1273647	1273850	-	SAV1214
SAV1215	1274149	1274637	+	SAV1215
SAV1216	1274630	1275565	+	SAV1216
SAV1217	1275484	1276869	+	SAV1217
SAV1218	1276872	1277966	+	SAV1218
SAV1219	1277973	1278716	+	SAV1219
SAV1220	1278713	1280707	+	SAV1220
SAV1221	1280935	1281810	+	SAV1221
SAV1222	1281811	1282455	+	cfxE
SAV1223	1282462	1283103	+	SAV1223
SAV1224	1283484	1283672	-	rpmB
SAV1225	1284115	1284489	+	SAV1225
SAV1226	1284504	1286150	+	SAV1226
SAV1227	1286340	1288400	+	recG
SAV1228	1288618	1289175	+	SAV1228
SAV1229	1289180	1290166	+	plsX
SAV1230	1290159	1291085	+	fabD
SAV1231	1291072	1291812	+	fabG
SAV1232	1292247	1292480	+	hmrB
SAV1233	1292596	1293327	+	rnc
SAV1234	1293474	1297040	+	smc
SAV1235	1297040	1298290	+	SAV1235
SAV1236	1298277	1298609	+	SAV1236
SAV1237	1298635	1300002	+	ffh
SAV1238	1300437	1300712	+	rpsP
SAV1239	1300900	1301403	+	rimM
SAV1240	1301403	1302140	+	trmD
SAV1241	1302243	1302593	+	rplS
SAV1242	1302837	1305443	-	SAV1242
SAV1243	1305844	1306728	+	SAV1243
SAV1244	1306712	1307479	+	rnhB
SAV1245	1307588	1308754	+	sucC
SAV1246	1308776	1309684	+	sucD
SAV1247	1309911	1311029	+	lytN
SAV1248	1311057	1312301	+	fmhC#eprh
SAV1249	1312474	1313346	+	SAV1249
SAV1250	1313526	1315595	+	SAV1250
SAV1251	1315751	1317058	+	gid
SAV1252	1317476	1318372	+	xerC
SAV1253	1318369	1318914	+	clpQ
SAV1254	1318980	1320383	+	clpY
SAV1255	1320408	1321181	+	codY
SAV1256	1321528	1322295	+	rpsB
SAV1257	1322477	1323358	+	SAV1257
SAV1258	1323495	1324217	+	smbA
SAV1259	1324236	1324790	+	frr
SAV1260	1325163	1325933	+	uppS
SAV1261	1325940	1326722	+	cdsA
SAV1262	1326934	1328220	+	SAV1262
SAV1263	1328240	1329943	+	proS
SAV1264	1330201	1334517	+	polC
SAV1265	1334807	1335274	+	SAV1265
SAV1266	1335295	1336470	+	nusA
SAV1267	1336491	1336775	+	SAV1267
SAV1268	1336772	1337089	+	SAV1268
SAV1269	1337094	1339211	+	infB
SAV1270	1339597	1339947	+	rbfA
SAV1271	1340116	1341033	+	truB
SAV1272	1341048	1342019	+	ribC
SAV1273	1342134	1342403	+	rpsO
SAV1274	1342772	1344868	+	pnpA
SAV1275	1345104	1346777	+	SAV1275
SAV1276	1347034	1349400	+	spoIIIE
SAV1277	1349405	1350118	+	SAV1277
SAV1278	1350149	1351414	+	SAV1278
SAV1279	1351414	1352700	+	SAV1279
SAV1280	1352700	1353404	+	SAV1280
SAV1281	1353509	1354336	+	SAV1281
SAV1282	1354355	1354747	+	SAV1282
SAV1283	1354781	1355359	+	pgsA
SAV1284	1355583	1356734	+	cinA
SAV1285	1356899	1357942	+	recA
SAV1286	1358296	1359855	+	SAV1286
SAV1287	1360152	1360322	-	SAV1287
SAV1288	1360541	1361338	+	SAV1288
SAV1289	1361478	1363238	+	SAV1289
SAV1290	1363239	1364105	+	SAV1290
SAV1291	1364199	1364492	+	SAV1291
SAV1292	1364626	1366170	+	SAV1292
SAV1293	1366171	1366536	+	SAV1293
SAV1294	1366563	1367054	+	SAV1294
SAV1295	1367357	1369975	+	mutS
SAV1297	1369988	1371997	+	mutL
SAV1298	1372012	1372545	+	glpP
SAV1299	1372582	1372671	-	SAV1299
SAV1300	1373020	1373838	+	glpF
SAV1301	1373967	1375463	+	glpK
SAV1302	1375573	1377294	+	glpD
SAV1303	1377444	1378358	+	SAV1303
SAV1304	1378376	1379311	+	miaA
SAV1305	1379326	1379559	+	SAV1305
SAV1306	1379780	1380256	-	bsaA
SAV1307	1380368	1381606	+	SAV1307
SAV1308	1381625	1382863	+	SAV1308
SAV1309	1383106	1383474	+	glnR
SAV1310	1383493	1384833	+	glnA
SAV1311	1386728	1386934	+	SAV1311
SAV1312	1388168	1388353	+	SAV1312
SAV1313	1389097	1389348	+	SAV1313
SAV1314	1390071	1390265	+	SAV1314
SAV1315	1390809	1391834	-	SAV1315
SAV1316	1392104	1392301	+	SAV1316
SAV1317	1392322	1393839	+	SAV1317
SAV1318	1394023	1394520	+	SAV1318
SAV1319	1394584	1394922	+	SAV1319
SAV1320	1394891	1395622	+	SAV1320
SAV1321	1395626	1396717	+	SAV1321
SAV1322	1396714	1397316	+	SAV1322
SAV1323	1397429	1397617	-	SAV1323
SAV1324	1397756	1398289	+	nuc
SAV1325	1398434	1399288	-	SAV1325
SAV1326	1399604	1400194	+	SAV1326
SAV1327	1400248	1401630	-	SAV1327
SAV1328	1401821	1403101	+	dhoM
SAV1329	1403107	1404168	+	thrC
SAV1330	1404170	1405084	+	thrB
SAV1331	1405142	1405945	+	SAV1331
SAV1332	1406238	1406552	-	SAV1332
SAV1333	1406770	1408224	-	SAV1333
SAV1334	1408422	1409945	+	katA
SAV1335	1410036	1410185	+	rpmG
SAV1336	1410639	1410908	+	rpsN
SAV1337	1411065	1412042	+	SAV1337
SAV1338	1412064	1413080	+	SAV1338
SAV1339	1413460	1414083	-	lexA
SAV1340	1414226	1414459	+	SAV1340
SAV1341	1414596	1414835	+	SAV1341
SAV1342	1414956	1416944	+	tkt
SAV1343	1417222	1417464	+	SAV1343
SAV1344	1417643	1418110	+	SAV1344
SAV1345	1418234	1419355	+	SAV1345
SAV1346	1419359	1422388	+	SAV1346
SAV1347	1422459	1422821	-	mscL
SAV1348	1423025	1424671	+	opuD
SAV1350	1425618	1428323	+	citB
SAV1351	1428503	1428970	+	SAV1351
SAV1352	1429177	1429473	-	SAV1352
SAV1353	1429849	1430457	-	SAV1353
SAV1354	1430657	1432654	+	parE
SAV1355	1432654	1435056	+	parC
SAV1356	1435306	1436766	+	alsT
SAV1357	1437266	1438117	+	glcT
SAV1358	1438164	1438259	+	SAV1358
SAV1359	1438252	1439460	+	SAV1359
SAV1360	1439941	1442463	+	fmtC
SAV1361	1442666	1443175	-	msrA
SAV1362	1443312	1444295	+	msrR
SAV1363	1444383	1444571	-	SAV1363
SAV1364	1444716	1445978	+	SAV1364
SAV1365	1446115	1447206	-	tyrA
SAV1366	1447371	1448402	+	SAV1366
SAV1367	1448894	1450300	+	SAV1367
SAV1368	1450297	1450863	+	trpG
SAV1369	1450869	1451867	+	trpD
SAV1370	1451869	1452651	+	trpC
SAV1371	1452651	1453283	+	trpF
SAV1372	1453276	1454490	+	trpB
SAV1373	1454483	1455211	+	trpA
SAV1374	1455533	1456795	+	femA
SAV1375	1456814	1458073	+	femB
SAV1376	1458362	1459108	+	SAV1376
SAV1377	1459338	1460105	+	SAV1377
SAV1378	1460153	1460626	-	SAV1378
SAV1379	1460750	1461451	-	SAV1379
SAV1380	1461444	1462217	-	SAV1380
SAV1381	1462204	1463034	-	SAV1381
SAV1382	1463027	1464013	-	SAV1382
SAV1383	1464317	1464661	-	SAV1383
SAV1384	1464866	1466680	+	SAV1384
SAV1385	1466820	1467461	-	SAV1385
SAV1386	1467468	1468319	-	pstB
SAV1387	1468366	1469283	-	SAV1387
SAV1388	1469285	1470211	-	SAV1388
SAV1389	1470402	1471385	-	SAV1389
SAV1390	1471928	1472224	+	SAV1390
SAV1391	1472360	1473262	-	SAV1391
SAV1392	1473409	1475010	+	SAV1392
SAV1393	1476072	1477277	+	lysC
SAV1394	1477341	1478330	+	asd
SAV1395	1478332	1479219	+	dapA
SAV1396	1479216	1479938	+	dapB
SAV1397	1479965	1480684	+	dapD
SAV1398	1480827	1481978	+	SAV1398
SAV1399	1481983	1483068	+	SAV1399
SAV1400	1483058	1484323	+	lysA
SAV1401	1484563	1484964	-	SAV1401
SAV1402	1485161	1485361	-	cspA
SAV1403	1485532	1485840	-	SAV1403
SAV1404	1486003	1486272	+	SAV1404
SAV1405	1486297	1486920	+	SAV1405
SAV1406	1486952	1488088	+	SAV1406
SAV1407	1488161	1489504	-	braB
SAV1408	1489730	1491616	-	SAV1408
SAV1409	1491630	1492421	-	SAV1409
SAV1410	1492602	1492805	-	SAV1410
SAV1411	1492834	1493643	-	SAV1411
SAV1412	1494223	1495491	-	odhB
SAV1413	1495505	1498303	-	odhA
SAV1414	1498587	1499942	-	arlS
SAV1415	1499939	1500598	-	truncated-arlR
SAV1416	1501069	1501269	-	SAV1416
SAV1417	1501386	1502000	-	SAV1417
SAV1418	1502017	1503087	-	murG
SAV1419	1503099	1503608	-	SAV1419
SAV1420	1504008	1505498	-	ctpA
SAV1421	1505690	1505911	-	SAV1421
SAV1422	1505911	1506411	-	SAV1422
SAV1423	1506423	1506851	-	SAV1423
SAV1424	1506844	1507377	-	SAV1424
SAV1425	1507463	1508302	-	SAV1425
SAV1426	1508317	1508796	-	dfrA
SAV1427	1508996	1509952	-	thyA
SAV1428	1510376	1510813	-	SAV1428
SAV1429	1510829	1511953	-	SAV1429
SAV1430	1511991	1512242	-	SAV1430
SAV1431	1512254	1512439	-	SAV1431
SAV1432	1512693	1513397	+	SAV1432
SAV1433	1513880	1514281	+	SAV1433
SAV1434	1514340	1534481	-	ebhA
SAV1435	1534542	1546214	-	ebhB
SAV1436	1546612	1548003	-	SAV1436
SAV1437	1548159	1549481	-	SAV1437
SAV1438	1549512	1550552	-	SAV1438
SAV1439	1550647	1551765	-	SAV1439
SAV1440	1552241	1553119	-	SAV1440
SAV1441	1553139	1556579	-	SAV1441
SAV1442	1556883	1558223	+	SAV1442
SAV1443	1558429	1558761	-	SAV1443
SAV1444	1558845	1559990	-	SAV1444
SAV1445	1560424	1560540	-	SAV1445
SAV1446	1560641	1560985	-	SAV1446
SAV1447	1560999	1561562	-	SAV1447
SAV1448	1561555	1561905	-	SAV1448
SAV1449	1562445	1563071	+	recU
SAV1450	1563068	1565251	+	pbp2
SAV1451	1565817	1566158	-	SAV1451
SAV1452	1566163	1566822	-	nth
SAV1453	1566812	1567498	-	SAV1453
SAV1454	1567826	1569118	-	asnS
SAV1455	1569440	1572133	-	dinG
SAV1456	1572157	1573128	-	SAV1456
SAV1457	1573115	1574317	-	SAV1457
SAV1458	1574322	1575464	-	SAV1458
SAV1459	1575708	1576025	-	SAV1459
SAV1460	1576361	1577059	-	SAV1460
SAV1461	1577113	1577700	-	SAV1461
SAV1462	1577690	1578265	-	SAV1462
SAV1463	1578279	1579523	-	SAV1463
SAV1464	1579530	1580828	-	aroA
SAV1465	1580838	1581902	-	aroB
SAV1466	1581928	1583094	-	aroC
SAV1467	1583480	1583680	-	SAV1467
SAV1468	1583709	1583834	-	SAV1468
SAV1469	1583889	1584338	-	ndk
SAV1470	1584430	1585389	-	gerCC
SAV1471	1585391	1586116	-	gerCB
SAV1472	1586119	1586691	-	SAV1472
SAV1473	1587122	1587394	-	hu
SAV1474	1587565	1588563	-	gpsA
SAV1475	1588580	1589890	-	SAV1475
SAV1476	1590112	1591287	-	SAV1476
SAV1477	1591816	1591893	-	SAV1477
SAV1478	1591999	1592658	-	cmk
SAV1479	1592735	1593703	+	ansA
SAV1480	1593818	1594804	-	SAV1480
SAV1481	1595206	1596666	-	ebpS
SAV1482	1596819	1598198	-	SAV1482
SAV1483	1598188	1599141	-	SAV1483
SAV1484	1599249	1599497	+	fer
SAV1485	1599603	1600148	-	SAV1485
SAV1486	1600550	1601506	-	SAV1486
SAV1487	1601977	1602873	-	SAV1487
SAV1488	1602931	1603836	-	SAV1488
SAV1489	1603926	1606088	-	SAV1489
SAV1490	1606081	1606947	-	SAV1490
SAV1491	1607251	1609017	-	srrB
SAV1492	1608983	1609708	-	srrA
SAV1493	1609841	1610578	-	rluB
SAV1494	1610571	1611113	-	SAV1494
SAV1495	1611106	1611861	-	SAV1495
SAV1496	1611929	1612435	+	SAV1496
SAV1497	1612513	1613400	-	xerD
SAV1498	1613449	1613898	-	SAV1498
SAV1499	1614003	1614545	-	SAV1499
SAV1500	1614627	1615535	+	SAV1500
SAV1501	1615751	1615999	-	SAV1501
SAV1502	1616015	1616770	-	SAV1502
SAV1503	1616912	1617727	+	SAV1503
SAV1504	1617830	1618750	-	SAV1504
SAV1505	1619063	1620547	+	SAV1505
SAV1506	1620777	1621643	+	SAV1506
SAV1507	1621725	1623374	-	malA
SAV1508	1623390	1624409	-	malR
SAV1509	1624603	1624974	-	SAV1509
SAV1510	1625441	1626658	-	SAV1510
SAV1511	1626974	1628380	-	gnd
SAV1512	1628448	1629581	-	SAV1512
SAV1513	1630150	1631130	-	SAV1513
SAV1514	1631144	1631581	-	SAV1514
SAV1515	1631932	1633206	-	bmfBB
SAV1516	1633219	1634202	-	bfmBAB
SAV1517	1634202	1635194	-	bfmBAA
SAV1518	1635210	1636631	-	SAV1518
SAV1519	1636782	1638461	-	recN
SAV1520	1638477	1638929	-	ahrC
SAV1521	1639361	1640242	-	ispA
SAV1522	1640220	1640450	-	SAV1522
SAV1523	1640443	1641780	-	SAV1523
SAV1524	1641797	1642186	-	SAV1524
SAV1525	1642246	1642608	-	SAV1525
SAV1526	1642623	1643978	-	accC
SAV1527	1643978	1644442	-	accB
SAV1528	1644916	1645473	-	SAV1528
SAV1529	1645499	1646560	-	SAV1529
SAV1531	1646665	1647246	+	SAV1531
SAV1532	1647260	1647478	+	SAV1532
SAV1533	1647542	1648372	-	SAV1533
SAV1534	1648530	1648916	+	SAV1534
SAV1535	1649281	1650753	-	SAV1535
SAV1536	1650746	1652092	-	SAV1536
SAV1537	1652112	1653203	-	SAV1537
SAV1538	1653362	1653886	-	SAV1538
SAV1539	1654119	1654616	-	SAV1539
SAV1540	1654534	1654833	-	SAV1540
SAV1541	1654820	1655254	-	SAV1541
SAV1542	1655244	1655555	-	SAV1542
SAV1543	1655569	1656639	-	SAV1543
SAV1544	1656611	1657585	-	SAV1544
SAV1545	1657637	1658260	-	SAV1545
SAV1546	1658257	1658586	-	SAV1546
SAV1547	1658586	1659572	-	glcK
SAV1548	1659569	1659772	-	SAV1548
SAV1549	1659753	1661216	-	SAV1549
SAV1550	1661228	1661767	-	SAV1550
SAV1551	1661976	1662125	-	rpmG
SAV1552	1662238	1664313	-	pbp3
SAV1553	1664434	1665033	-	sodA
SAV1554	1665309	1665719	-	SAV1554
SAV1555	1665706	1666569	-	SAV1555
SAV1556	1666611	1667378	-	SAV1556
SAV1557	1667522	1668412	-	SAV1557
SAV1558	1668422	1669768	-	SAV1558
SAV1559	1669882	1670982	-	SAV1559
SAV1560	1670985	1671662	-	SAV1560
SAV1561	1671793	1672899	-	sigA
SAV1562	1673123	1674940	-	dnaG
SAV1563	1675001	1675819	-	SAV1563
SAV1564	1675830	1676453	-	SAV1564
SAV1565	1676788	1678179	+	glyS
SAV1566	1678329	1679081	-	SAV1566
SAV1567	1679103	1680002	-	bex
SAV1568	1680003	1680407	-	cdd
SAV1569	1680418	1680762	-	SAV1569
SAV1570	1680765	1681232	-	SAV1570
SAV1571	1681233	1682180	-	phoH
SAV1572	1682484	1683182	-	SAV1572
SAV1573	1683199	1684188	-	SAV1573
SAV1574	1684206	1684913	-	SAV1574
SAV1575	1685133	1685309	-	rpsU
SAV1576	1685602	1686948	-	SAV1576
SAV1577	1686955	1687707	-	SAV1577
SAV1578	1687709	1688647	-	SAV1578
SAV1579	1688651	1689790	-	dnaJ
SAV1580	1689926	1691758	-	dnaK
SAV1581	1691827	1692453	-	grpE
SAV1582	1692485	1693462	-	hrcA
SAV1583	1693562	1694686	-	hemN
SAV1584	1694963	1695121	+	SAV1584
SAV1585	1695252	1697075	-	lepA
SAV1586	1697421	1697672	+	rpsT
SAV1587	1697717	1698691	-	SAV1587
SAV1588	1698748	1700949	-	SAV1588
SAV1589	1700954	1701415	-	comEB
SAV1590	1701507	1702184	-	SAV1590
SAV1591	1702233	1702949	-	SAV1591
SAV1592	1702952	1703305	-	SAV1592
SAV1593	1703306	1703890	-	SAV1593
SAV1594	1703880	1704449	-	SAV1594
SAV1595	1704452	1704742	-	SAV1595
SAV1596	1704746	1705552	-	aroE
SAV1597	1705566	1706666	-	SAV1597
SAV1598	1706667	1707194	-	SAV1598
SAV1599	1707214	1707900	-	pfs
SAV1600	1708214	1708483	+	SAV1600
SAV1601	1708685	1708873	-	SAV1601
SAV1602	1709022	1709495	-	SAV1602
SAV1603	1710202	1711422	-	SAV1603
SAV1604	1711711	1712940	-	SAV1604
SAV1605	1712953	1713705	-	SAV1605
SAV1606	1713705	1715066	-	SAV1606
SAV1607	1715080	1715529	-	SAV1607
SAV1608	1715531	1716541	-	SAV1608
SAV1609	1716531	1717265	-	SAV1609
SAV1610	1717591	1718067	-	greA
SAV1611	1718095	1718718	-	udk
SAV1612	1718718	1719986	-	SAV1612
SAV1613	1719998	1720921	-	SAV1613
SAV1614	1720924	1721562	-	SAV1614
SAV1615	1721847	1722155	-	SAV1615
SAV1616	1722170	1722541	-	SAV1616
SAV1617	1722602	1722862	-	SAV1617
SAV1618	1722925	1725555	-	alaS
SAV1619	1725898	1728375	-	SAV1619
SAV1620	1728377	1729045	-	SAV1620
SAV1621	1729740	1730858	-	SAV1621
SAV1622	1730859	1732001	-	SAV1622
SAV1623	1732313	1733332	+	SAV1623
SAV1624	1733564	1733710	-	SAV1624
SAV1625	1733750	1733932	-	csbD
SAV1626	1734032	1734454	-	SAV1626
SAV1627	1734539	1735813	+	SAV1627
SAV1628	1735974	1736747	-	SAV1628
SAV1629	1736961	1737062	-	SAV1629
SAV1630	1737208	1738974	-	aspS
SAV1631	1738990	1740252	-	hisS
SAV1632	1740714	1741589	-	lytH
SAV1633	1741586	1742038	-	SAV1633
SAV1634	1742050	1744239	-	relA
SAV1635	1744667	1745185	-	apt
SAV1636	1745207	1747480	-	SAV1636
SAV1637	1747683	1749962	-	secF
SAV1638	1750237	1750497	-	SAV1638
SAV1639	1750516	1751655	-	tgt
SAV1640	1751678	1752703	-	queA
SAV1641	1752705	1753709	-	ruvB
SAV1642	1753741	1754343	-	ruvA
SAV1643	1754357	1754815	-	SAV1643
SAV1644	1754825	1756117	-	obg
SAV1645	1756471	1756755	-	rpmA
SAV1646	1756767	1757087	-	SAV1646
SAV1647	1757093	1757401	-	rplU
SAV1648	1757637	1758167	-	SAV1648
SAV1649	1758167	1759009	-	SAV1649
SAV1650	1759401	1759874	-	SAV1650
SAV1651	1760034	1760231	+	SAV1651
SAV1652	1760348	1760632	-	SAV1652
SAV1653	1761061	1761723	-	SAV1653
SAV1654	1762082	1762255	-	SAV1654
SAV1655	1762257	1762988	+	ermA
SAV1656	1763114	1763896	-	ant#9
SAV1657	1764047	1764424	-	tnpC
SAV1658	1764431	1766323	-	tnpB
SAV1659	1766320	1767405	-	tnpA
SAV1660	1767524	1768078	-	truncated-radC
SAV1661	1768075	1768782	-	SAV1661
SAV1662	1769052	1770323	-	folC
SAV1663	1770336	1772966	-	valS
SAV1664	1773369	1773929	+	tag
SAV1665	1774152	1775225	-	SAV1665
SAV1666	1775259	1775348	-	SAV1666
SAV1667	1775421	1776707	-	hemL
SAV1668	1776755	1777729	-	hemB
SAV1669	1777732	1778400	-	hemD
SAV1670	1778422	1779348	-	hemC
SAV1671	1779390	1780205	-	hemX
SAV1672	1780227	1781573	-	hemA
SAV1673	1781790	1782380	-	SAV1673
SAV1674	1782534	1783796	-	clpX
SAV1675	1783947	1785248	-	tig
SAV1676	1785411	1786340	-	SAV1676
SAV1677	1786359	1786967	-	SAV1677
SAV1678	1787109	1787465	-	rplT
SAV1679	1787512	1787712	-	rpmI
SAV1680	1787741	1788259	-	infC
SAV1681	1788497	1789990	-	SAV1681
SAV1683	1790416	1792353	-	thrS
SAV1684	1792766	1793686	-	dnaI
SAV1685	1793686	1795086	-	dnaB
SAV1686	1795087	1795557	-	SAV1686
SAV1687	1795768	1796793	-	gapB
SAV1688	1796963	1797586	-	SAV1688
SAV1689	1797602	1798474	-	SAV1689
SAV1690	1798490	1801120	-	polA
SAV1691	1801414	1802901	-	SAV1691
SAV1692	1803400	1805064	-	phoR
SAV1693	1805061	1805765	-	phoP
SAV1694	1806155	1807423	-	citC
SAV1695	1807472	1808593	-	citZ
SAV1696	1808941	1810302	+	aapA
SAV1697	1810650	1812407	-	pykA
SAV1698	1812429	1813352	-	pfk
SAV1699	1813637	1814956	+	tnp
SAV1700	1815186	1816130	-	accA
SAV1701	1816130	1816987	-	SAV1701
SAV1702	1817182	1818411	-	SAV1702
SAV1703	1818861	1822058	-	dnaE
SAV1704	1822079	1823020	-	SAV1704
SAV1705	1823332	1824630	-	SAV1705
SAV1706	1824835	1825248	+	SAV1706
SAV1707	1825553	1826242	-	SAV1707
SAV1708	1826396	1827472	+	SAV1708
SAV1709	1827789	1828907	-	ald
SAV1710	1829048	1829548	+	SAV1710
SAV1711	1829794	1830996	-	ackA
SAV1712	1831084	1832031	-	SAV1712
SAV1713	1832154	1832648	-	SAV1713
SAV1714	1832746	1833516	-	SAV1714
SAV1715	1833560	1834783	-	SAV1715
SAV1716	1834783	1835922	-	SAV1716
SAV1717	1836295	1837989	-	SAV1717
SAV1718	1838126	1838590	+	SAV1718
SAV1719	1838834	1839436	+	rpsD
SAV1720	1839628	1840947	+	tnp
SAV1721	1841172	1841915	-	SAV1721
SAV1722	1841995	1842441	+	SAV1722
SAV1723	1842556	1843713	+	SAV1723
SAV1724	1843700	1845304	+	serA
SAV1725	1845454	1846584	-	SAV1725
SAV1726	1846691	1848157	-	ptaA
SAV1727	1848285	1848902	-	SAV1727
SAV1728	1849074	1850348	+	SAV1728
SAV1729	1850442	1851704	-	tyrS
SAV1730	1852086	1852991	+	sgtA
SAV1731	1853194	1855869	-	SAV1731
SAV1732	1856202	1857869	-	fhs
SAV1733	1858309	1860015	-	acsA
SAV1734	1860184	1860816	+	acuA
SAV1735	1860841	1862010	+	acuC
SAV1736	1862108	1863052	-	ccpA
SAV1737	1863637	1864728	-	SAV1737
SAV1738	1865422	1866780	-	SAV1738
SAV1739	1866854	1867345	-	SAV1739
SAV1740	1867419	1868732	-	murC
SAV1741	1868756	1872580	-	SAV1741
SAV1742	1872601	1873197	-	SAV1742
SAV1743	1873226	1874083	-	SAV1743
SAV1744	1874183	1874494	-	SAV1744
SAV1745	1874559	1875635	-	SAV1745
SAV1746	1875722	1876033	+	SAV1746
SAV1747	1876158	1877000	-	SAV1747
SAV1748	1877471	1878115	-	SAV1748
SAV1749	1878130	1878921	-	SAV1749
SAV1750	1879471	1880319	-	SAV1750
SAV1751	1880323	1881732	-	SAV1751
SAV1752	1882290	1882712	-	SAV1752
SAV1753	1882729	1883424	-	SAV1753
SAV1754	1883421	1885082	-	SAV1754
SAV1755	1885489	1886391	+	SAV1755
SAV1756	1886366	1886638	+	SAV1756
SAV1757	1886755	1887363	-	mrp
SAV1758	1887363	1893314	-	mrp
SAV1759	1893640	1893951	-	SAV1759
SAV1760	1893973	1896387	-	leuS
SAV1761	1896678	1897859	-	SAV1761
SAV1762	1897969	1898922	+	SAV1762
SAV1763	1898919	1899482	+	SAV1763
SAV1764	1899605	1900066	-	rot
SAV1765	1900576	1901403	-	SAV1765
SAV1766	1901637	1902638	+	SAV1766
SAV1767	1902760	1903224	-	SAV1767
SAV1769	1903237	1904418	-	ribA
SAV1770	1904429	1905061	-	ribB
SAV1771	1905068	1906111	-	ribD
SAV1772	1906592	1908094	-	SAV1772
SAV1773	1908617	1908931	+	SAV1773
SAV1774	1908931	1910223	+	SAV1774
SAV1775	1910310	1911164	-	SAV1775
SAV1776	1911440	1911664	-	SAV1776
SAV1777	1911863	1912333	+	SAV1777
SAV1778	1912446	1912889	+	SAV1778
SAV1779	1912876	1913319	-	SAV1779
SAV1780	1913615	1914250	+	SAV1780
SAV1781	1914690	1915403	-	SAV1781
SAV1782	1915663	1915965	+	SAV1782
SAV1783	1916143	1916586	+	SAV1783
SAV1784	1916583	1916936	+	SAV1784
SAV1785	1917398	1917748	+	SAV1785
SAV1786	1917924	1918172	+	SAV1786
SAV1787	1918091	1918870	+	SAV1787
SAV1788	1918933	1919766	-	SAV1788
SAV1789	1919978	1920889	-	SAV1789
SAV1790	1921008	1922204	-	metK
SAV1791	1922576	1924168	+	pckA
SAV1792	1924292	1924468	+	SAV1792
SAV1793	1924546	1925316	-	SAV1793
SAV1794	1925297	1925776	-	SAV1794
SAV1795	1925836	1926093	+	SAV1795
SAV1796	1926090	1927091	-	menC
SAV1797	1927096	1928574	-	menE
SAV1798	1928733	1929215	-	SAV1798
SAV1799	1929527	1930141	+	SAV1799
SAV1800	1930222	1931217	+	SAV1800
SAV1801	1931292	1931918	+	SAV1801
SAV1802	1931959	1932300	+	SAV1802
SAV1803	1932401	1932973	+	SAV1803
SAV1804	1933171	1933740	-	SAV1804
SAV1805	1933762	1934016	-	SAV1805
SAV1806	1934771	1935271	-	tnp
SAV1807	1935723	1936952	-	SAV1807
SAV1808	1936945	1938501	-	SAV1808
SAV1809	1938862	1939581	-	splF
SAV1810	1939739	1940458	-	splD
SAV1811	1940579	1941298	-	splC
SAV1812	1941356	1942078	-	splB
SAV1813	1942203	1942910	-	splA
SAV1814	1943346	1943564	-	SAV1814
SAV1815	1943873	1944454	+	SAV1815
SAV1816	1944927	1945205	-	SAV1816
SAV1817	1945401	1945874	+	SAV1817
SAV1818	1945879	1946670	+	SAV1818
SAV1819	1947040	1948023	-	lukD
SAV1820	1948025	1948960	-	lukE
SAV1821	1950324	1951112	+	SAV1821
SAV1822	1951946	1952440	+	SAV1822
SAV1823	1952775	1953551	+	SAV1823
SAV1824	1954103	1954879	-	seg
SAV1825	1955162	1955938	-	sen
SAV1826	1955956	1956366	-	yent2
SAV1827	1956326	1956727	-	yent1
SAV1828	1956881	1957609	-	sei
SAV1829	1957644	1958363	-	sem
SAV1830	1958644	1959426	-	seo
SAV1831	1960788	1961342	-	SAV1831
SAV1832	1961665	1963065	-	hemY
SAV1833	1963089	1964012	-	hemH
SAV1834	1964070	1965107	-	hemE
SAV1835	1965370	1965873	+	traP
SAV1836	1965997	1967220	-	SAV1836
SAV1837	1967213	1967953	-	SAV1837
SAV1838	1968087	1968509	+	hit
SAV1839	1968651	1969016	+	SAV1839
SAV1840	1969751	1970308	+	SAV1840
SAV1841	1970513	1971475	+	prsA
SAV1842	1971596	1972537	-	cbf1
SAV1843	1972534	1975470	-	SAV1843
SAV1844	1975460	1976656	-	SAV1844
SAV1845	1977584	1977928	-	SAV1845
SAV1846	1977997	1979121	-	SAV1846
SAV1847	1979300	1979764	-	SAV1847
SAV1848	1980120	1980743	-	SAV1848
SAV1849	1980765	1981877	-	SAV1849
SAV1850	1982040	1982861	+	SAV1850
SAV1851	1983314	1984699	-	citG
SAV1852	1984895	1985290	-	SAV1852
SAV1853	1985838	1985990	-	SAV1853
SAV1854	1986015	1986614	-	SAV1854
SAV1855	1986773	1987243	-	SAV1855
SAV1856	1987248	1988375	-	SAV1856
SAV1857	1988526	1989254	-	SAV1857
SAV1858	1989241	1990566	-	SAV1858
SAV1859	1990956	1992017	-	SAV1859
SAV1860	1992601	1993920	+	tnp
SAV1861	2002419	2002865	-	SAV1861
SAV1862	2002962	2003912	-	SAV1862
SAV1863	2003918	2004373	-	SAV1863
SAV1864	2004454	2005743	+	gsaB
SAV1865	2006036	2007130	+	SAV1865
SAV1866	2007320	2009056	-	SAV1866
SAV1867	2009347	2009889	-	SAV1867
SAV1868	2010192	2011229	-	SAV1868
SAV1869	2011381	2012358	+	SAV1869
SAV1870	2012619	2013455	-	SAV1870
SAV1871	2013464	2014981	-	SAV1871
SAV1872	2014996	2015310	-	SAV1872
SAV1873	2015288	2016106	-	SAV1873
SAV1874	2016366	2017175	-	SAV1874
SAV1875	2017515	2018030	-	SAV1875
SAV1876	2018161	2018322	-	SAV1876
SAV1877	2018546	2019697	+	SAV1877
SAV1878	2019957	2020487	-	SAV1878
SAV1879	2020577	2021824	-	ampS
SAV1880	2021836	2022042	-	SAV1880
SAV1881	2022183	2022647	+	SAV1881
SAV1882	2022654	2022929	+	SAV1882
SAV1883	2023207	2024424	+	SAV1883
SAV1884	2024537	2025166	-	vraR
SAV1885	2025156	2026199	-	vraS
SAV1886	2026196	2026897	-	SAV1886
SAV1887	2026912	2027298	-	SAV1887
SAV1888	2027515	2028273	-	map
SAV1889	2028804	2029790	+	SAV1889
SAV1890	2030221	2030673	-	SAV1890
SAV1891	2030859	2031590	-	SAV1891
SAV1892	2031592	2032905	-	SAV1892
SAV1893	2033197	2033697	+	SAV1893
SAV1894	2034087	2034641	+	SAV1894
SAV1895	2034709	2035779	-	SAV1895
SAV1896	2036026	2036556	-	SAV1896
SAV1897	2036726	2038087	-	SAV1897
SAV1898	2038168	2039115	-	SAV1898
SAV1899	2039883	2041310	-	SAV1899
SAV1900	2041323	2042780	-	SAV1900
SAV1901	2042782	2043084	-	SAV1901
SAV1902	2043451	2044989	+	putP
SAV1903	2045078	2046277	-	SAV1903
SAV1904	2046290	2048293	-	dnlJ
SAV1905	2048297	2050489	-	pcrA
SAV1906	2050486	2051178	-	pcrB
SAV1907	2051350	2051652	-	SAV1907
SAV1908	2051761	2053056	-	purB
SAV1909	2053916	2055082	+	SAV1909
SAV1910	2055113	2055439	+	SAV1910
SAV1911	2055885	2056487	-	SAV1911
SAV1912	2056758	2057579	-	nadE
SAV1913	2057572	2059041	-	SAV1913
SAV1914	2059225	2060301	+	SAV1914
SAV1915	2060321	2061115	+	SAV1915
SAV1916	2061305	2062867	-	SAV1916
SAV1917	2063072	2064169	-	SAV1917
SAV1918	2064538	2065098	+	SAV1918
SAV1919	2065151	2066080	+	SAV1919
SAV1920	2066498	2067877	+	aldH
SAV1921	2067997	2069025	-	SAV1921
SAV1922	2069295	2069696	+	SAV1922
SAV1923	2069711	2069884	-	SAV1923
SAV1924	2070269	2070442	-	SAV1924
SAV1925	2070893	2071933	+	SAV1925
SAV1926	2071990	2072832	-	SAV1926
SAV1927	2072829	2073386	-	SAV1927
SAV1928	2073446	2073970	-	SAV1928
SAV1929	2074091	2074654	+	SAV1929
SAV1930	2074720	2075460	-	SAV1930
SAV1931	2075460	2076332	-	SAV1931
SAV1932	2076329	2077009	-	SAV1932
SAV1933	2077010	2077906	-	SAV1933
SAV1934	2077903	2078283	-	SAV1934
SAV1935	2078541	2078717	-	SAV1935
SAV1936	2079258	2080544	+	SAV1936
SAV1937	2080823	2081143	-	SAV1937
SAV1938	2081128	2082558	-	SAV1938
SAV1939	2082904	2083143	+	truncated-hlb
SAV1940	2083515	2083694	+	SAV1940
SAV1941	2083718	2084026	+	SAV1941
SAV1942	2084317	2084667	-	SAV1942
SAV1943	2085178	2085474	-	truncated-lytA
SAV1943.1	2085562	2085717	+	truncated-lytA
SAV1944	2086164	2086655	-	sak
SAV1945	2086870	2087601	-	SAV1945
SAV1946	2087613	2087867	-	SAV1946
SAV1947	2088079	2088213	-	SAV1947
SAV1948	2088364	2089146	-	sep
SAV1949	2089230	2089469	+	SAV1949
SAV1950	2089510	2089884	-	SAV1950
SAV1951	2089940	2090269	-	SAV1951
SAV1952	2090273	2090425	-	SAV1952
SAV1953	2090418	2094200	-	SAV1953
SAV1954	2094216	2095700	-	SAV1954
SAV1955	2095697	2100226	-	SAV1955
SAV1956	2100471	2100821	-	SAV1956
SAV1957	2101137	2101781	-	SAV1957
SAV1958	2101782	2102189	-	SAV1958
SAV1959	2102186	2102590	-	SAV1959
SAV1960	2102587	2102949	-	SAV1960
SAV1961	2102933	2103217	-	SAV1961
SAV1962	2103207	2103491	-	SAV1962
SAV1963	2103511	2104656	-	SAV1963
SAV1964	2104680	2105417	-	SAV1964
SAV1965	2105401	2106588	-	SAV1965
SAV1966	2106604	2108265	-	SAV1966
SAV1967	2108262	2108606	-	SAV1967
SAV1968	2108736	2109035	-	SAV1968
SAV1969	2109267	2109683	-	SAV1969
SAV1970	2109711	2109914	-	SAV1970
SAV1971	2109919	2110071	-	SAV1971
SAV1972	2110059	2110265	-	SAV1972
SAV1973	2110282	2110455	-	SAV1973
SAV1974	2110492	2111061	-	SAV1974
SAV1975	2111018	2111260	-	SAV1975
SAV1976	2111250	2111486	-	SAV1976
SAV1977	2111479	2111844	-	SAV1977
SAV1978	2111859	2112101	-	SAV1978
SAV1979	2112105	2112473	-	SAV1979
SAV1980	2112486	2112902	-	SAV1980
SAV1981	2112899	2113117	-	SAV1981
SAV1982	2113124	2114017	-	SAV1982
SAV1983	2114047	2114517	-	SAV1983
SAV1984	2114518	2115003	-	SAV1984
SAV1985	2115216	2116136	-	SAV1985
SAV1986	2116138	2118081	-	SAV1986
SAV1987	2118090	2118353	-	SAV1987
SAV1988	2118362	2118622	-	SAV1988
SAV1989	2118627	2118929	-	SAV1989
SAV1990	2119019	2119180	-	SAV1990
SAV1991	2119177	2119497	-	SAV1991
SAV1992	2119549	2120184	+	SAV1992
SAV1993	2120370	2120567	-	SAV1993
SAV1994	2120583	2121338	-	SAV1994
SAV1995	2121395	2121934	+	SAV1995
SAV1996	2121958	2122218	-	SAV1996
SAV1997	2122232	2122474	-	SAV1997
SAV1998	2122626	2123354	+	SAV1998
SAV1999	2123366	2124223	+	SAV1999
SAV2000	2124268	2124450	+	SAV2000
SAV2001	2124550	2125014	+	SAV2001
SAV2002	2125073	2126110	+	int
SAV2003	2126122	2126991	+	truncated-hlb
SAV2004	2127229	2128245	-	SAV2004
SAV2005	2128267	2129322	-	SAV2005
SAV2006	2129758	2130960	+	SAV2006
SAV2007	2131268	2132575	+	SAV2007
SAV2008	2133592	2134314	+	sel
SAV2009	2134483	2135283	-	sec3
SAV2010	2136070	2136630	+	SAV2010
SAV2011	2137509	2138213	+	tst
SAV2012	2138368	2138937	-	SAV2012
SAV2013	2138934	2139146	-	SAV2013
SAV2015	2139277	2139804	-	SAV2015
SAV2016	2139855	2140073	-	SAV2016
SAV2017	2140091	2140669	-	SAV2017
SAV2018	2140681	2141022	-	SAV2018
SAV2019	2141470	2142111	-	SAV2019
SAV2020	2142108	2142488	-	SAV2020
SAV2021	2142798	2144507	-	SAV2021
SAV2022	2144521	2145390	-	SAV2022
SAV2023	2145455	2145781	-	SAV2023
SAV2024	2145784	2145993	-	SAV2024
SAV2025	2146129	2146446	-	SAV2025
SAV2026	2146451	2146669	-	SAV2026
SAV2027	2146842	2147516	+	SAV2027
SAV2028	2147530	2148702	+	int
SAV2029	2148771	2150387	-	groEL
SAV2030	2150463	2150747	-	groES
SAV2031	2150922	2151665	+	SAV2031
SAV2032	2151690	2152937	-	SAV2032
SAV2033	2153134	2153760	+	SAV2033
SAV2034	2154121	2154906	+	SAV2034
SAV2035	2155506	2155640	-	hld
SAV2036	2155876	2156439	+	agrB
SAV2037	2156442	2156585	+	agrD
SAV2038	2156783	2157898	+	agrC
SAV2039	2157917	2158633	+	agrA
SAV2040	2159005	2159964	-	SAV2040
SAV2041	2159961	2161445	-	scrB
SAV2042	2161594	2162544	-	scrR
SAV2043	2162727	2163977	-	nrgA
SAV2044	2164185	2164409	-	SAV2044
SAV2045	2164469	2165548	-	SAV2045
SAV2046	2165852	2166487	-	SAV2046
SAV2047	2166740	2168668	+	vga
SAV2048	2169030	2170640	+	SAV2048
SAV2049	2170955	2171980	-	SAV2049
SAV2050	2171973	2172437	-	SAV2050
SAV2051	2172410	2173099	-	SAV2051
SAV2052	2173053	2173514	-	SAV2052
SAV2053	2174025	2175713	+	ilvD
SAV2054	2175741	2177510	+	ilvB
SAV2055	2177510	2177764	+	SAV2055
SAV2056	2177901	2178905	+	ilvC
SAV2057	2178935	2180464	+	leuA
SAV2058	2180467	2181513	+	leuB
SAV2059	2181527	2182897	+	leuC
SAV2060	2182898	2183470	+	leuD
SAV2061	2183485	2184753	+	ilvA
SAV2062	2191551	2192006	-	SAV2062
SAV2063	2191999	2194149	-	SAV2063
SAV2064	2194583	2195353	-	sigB
SAV2065	2195328	2195807	-	rsbW
SAV2066	2195809	2196135	-	rsbV
SAV2067	2196254	2197255	-	rsbU
SAV2068	2197604	2197966	-	SAV2068
SAV2069	2197963	2198133	-	SAV2069
SAV2070	2198218	2199366	-	alr
SAV2071	2199432	2199791	-	dpj
SAV2072	2199795	2200286	-	SAV2072
SAV2073	2200273	2201856	-	SAV2073
SAV2074	2201849	2202328	-	SAV2074
SAV2075	2202536	2203096	-	kdpC
SAV2076	2203116	2205143	-	kdpB
SAV2077	2205162	2206838	-	kdpA
SAV2078	2207110	2209767	+	kdpD
SAV2079	2209767	2210462	+	kdpE
SAV2080	2210846	2212165	-	tnp
SAV2081	2212334	2213854	-	SAV2081
SAV2082	2214371	2215729	-	murF
SAV2083	2215744	2216814	-	ddlA
SAV2084	2217132	2218334	+	SAV2084
SAV2085	2218598	2218735	-	SAV2085
SAV2086	2218863	2219072	-	SAV2086
SAV2087	2219084	2219377	-	SAV2087
SAV2088	2219543	2221027	+	SAV2088
SAV2089	2221055	2221702	+	SAV2089
SAV2090	2222515	2223387	-	SAV2090
SAV2091	2223473	2224114	-	thiE
SAV2092	2224116	2224907	-	thiM
SAV2093	2224891	2225721	-	thiD
SAV2094	2225714	2226403	-	SAV2094
SAV2095	2226790	2227485	-	SAV2095
SAV2096	2227874	2228269	-	SAV2096
SAV2097	2228463	2228903	+	SAV2097
SAV2098	2228962	2229402	-	SAV2098
SAV2099	2229436	2230701	-	murA
SAV2101	2230812	2231045	-	SAV2101
SAV2102	2231607	2232011	-	atpC
SAV2103	2232031	2233443	-	atpD
SAV2104	2233465	2234331	-	atpG
SAV2105	2234362	2235870	-	atpA
SAV2106	2235892	2236431	-	atpH
SAV2107	2236431	2236952	-	atpF
SAV2108	2237150	2237362	-	atpE
SAV2109	2237405	2238133	-	atpB
SAV2110	2238154	2238507	-	SAV2110
SAV2111	2238674	2239804	-	mnaA
SAV2112	2239825	2240454	-	upp
SAV2113	2240482	2241720	-	glyA
SAV2114	2241747	2242271	-	SAV2114
SAV2115	2242378	2242797	-	SAV2115
SAV2116	2242794	2243840	-	SAV2116
SAV2117	2243924	2244760	-	SAV2117
SAV2118	2244747	2245823	-	prfA
SAV2119	2245824	2246423	-	tdk
SAV2120	2246770	2247024	-	rpmE
SAV2121	2247142	2248458	-	rho
SAV2122	2248705	2250132	-	SAV2122
SAV2123	2250370	2250708	-	SAV2123
SAV2124	2250794	2252053	-	murZ
SAV2125	2252519	2253379	-	fbaA
SAV2126	2253597	2254118	+	SAV2126
SAV2127	2254227	2255837	-	pyrG
SAV2128	2256173	2256703	-	rpoE
SAV2129	2256815	2257675	-	SAV2129
SAV2130	2258100	2258903	+	SAV2130
SAV2131	2259034	2259705	-	SAV2131
SAV2132	2260104	2261297	-	SAV2132
SAV2133	2261297	2262481	-	hmrA
SAV2134	2262792	2263262	+	luxS
SAV2135	2263414	2263764	-	SAV2135
SAV2136	2263778	2265118	-	pdp
SAV2137	2265358	2266020	-	SAV2137
SAV2138	2266334	2267044	+	deoD
SAV2139	2267165	2267608	-	dps
SAV2140	2267808	2268221	-	SAV2140
SAV2141	2268678	2270051	-	SAV2141
SAV2142	2270723	2270953	-	SAV2142
SAV2143	2270984	2271922	-	SAV2143
SAV2144	2272358	2273023	-	SAV2144
SAV2145	2273175	2273495	+	czrA
SAV2146	2273497	2274474	+	czrB
SAV2147	2274740	2275831	+	SAV2147
SAV2148	2276693	2276884	+	SAV2148
SAV2149	2276801	2276983	-	SAV2149
SAV2150	2276885	2277055	+	SAV2150
SAV2151	2277042	2277206	+	SAV2151
SAV2152	2277864	2278721	-	SAV2152
SAV2153	2278789	2279571	-	SAV2153
SAV2154	2279803	2281608	-	glmS
SAV2155	2282076	2282231	+	SAV2155
SAV2156	2282289	2283827	+	mtlF
SAV2157	2283862	2285994	+	SAV2157
SAV2158	2286006	2286440	+	mtlA
SAV2159	2286440	2287546	+	mtlD
SAV2160	2287865	2295310	-	fmtB#mrp
SAV2161	2295588	2296943	-	glmM#femD
SAV2162	2296970	2297902	-	SAV2162
SAV2163	2297904	2298713	-	SAV2163
SAV2164	2298902	2299810	-	arg
SAV2165	2306051	2307115	-	SAV2165
SAV2166	2307263	2308705	-	SAV2166
SAV2167	2309028	2309501	-	SAV2167
SAV2168	2309600	2310073	-	SAV2168
SAV2169	2310085	2310723	-	SAV2169
SAV2170	2310900	2311586	-	SAV2170
SAV2171	2311602	2312789	-	SAV2171
SAV2172	2312833	2313348	-	SAV2172
SAV2173	2313525	2313785	+	SAV2173
SAV2174	2313854	2315224	-	SAV2174
SAV2175	2315460	2316428	-	SAV2175
SAV2176	2316425	2317456	-	SAV2176
SAV2177	2317468	2318451	-	SAV2177
SAV2178	2318843	2319913	-	SAV2178
SAV2179	2319920	2321677	-	SAV2179
SAV2180	2321664	2322857	-	SAV2180
SAV2181	2322959	2324935	+	SAV2181
SAV2182	2325096	2325605	-	asp23
SAV2183	2325668	2325907	-	SAV2183
SAV2184	2325920	2326456	-	SAV2184
SAV2185	2326631	2328193	-	SAV2185
SAV2186	2328501	2329508	-	SAV2186
SAV2187	2329743	2330744	-	SAV2187
SAV2188	2331022	2331891	-	SAV2188
SAV2189	2332157	2333569	-	lacG
SAV2190	2333587	2335299	-	lacE
SAV2191	2335305	2335616	-	lacF
SAV2192	2335638	2336618	-	lacD
SAV2193	2336622	2337554	-	lacC
SAV2194	2337567	2338082	-	lacB
SAV2195	2338098	2338526	-	lacA
SAV2196	2338893	2339648	-	lacR
SAV2197	2339899	2340630	+	SAV2197
SAV2198	2340679	2340828	+	SAV2198
SAV2199	2340915	2341118	-	SAV2199
SAV2200	2341351	2342199	-	SAV2200
SAV2201	2342269	2342685	-	SAV2201
SAV2202	2343093	2345522	+	hysA
SAV2203	2345582	2346436	-	SAV2203
SAV2204	2346647	2347462	-	SAV2204
SAV2205	2347757	2348182	+	SAV2205
SAV2206	2348566	2349270	-	SAV2206
SAV2207	2349307	2350971	-	alsS
SAV2208	2351323	2351493	+	SAV2208
SAV2209	2352221	2353237	-	SAV2209
SAV2210	2353482	2354147	-	SAV2210
SAV2211	2354111	2354758	-	SAV2211
SAV2212	2356009	2356332	-	SAV2212
SAV2213	2356713	2356868	-	SAV2213
SAV2214	2356846	2357010	-	SAV2214
SAV2215	2357033	2357359	-	SAV2215
SAV2216	2358204	2359151	+	SAV2216
SAV2217	2359329	2359721	-	rpsI
SAV2218	2359741	2360178	-	rplM
SAV2219	2360418	2361221	-	truA
SAV2220	2361226	2362032	-	SAV2220
SAV2221	2362022	2362882	-	SAV2221
SAV2222	2362879	2363688	-	SAV2222
SAV2223	2364226	2364594	-	rplQ
SAV2224	2364611	2365555	-	rpoA
SAV2225	2365630	2366019	-	rpsK
SAV2226	2366043	2366408	-	rpsM
SAV2227	2366431	2366544	-	rpmJ
SAV2228	2366576	2366794	-	infA
SAV2229	2366987	2367634	-	adk
SAV2230	2367651	2368943	-	secY
SAV2231	2368943	2369383	-	rplO
SAV2232	2369400	2369579	-	rpmD
SAV2233	2369596	2370096	-	rpsE
SAV2234	2370117	2370476	-	rplR
SAV2235	2370507	2371043	-	rplF
SAV2236	2371068	2371466	-	rpsH
SAV2237	2371498	2371683	-	rpsN
SAV2238	2371706	2372245	-	rplE
SAV2239	2372272	2372589	-	rplX
SAV2240	2372625	2372993	-	rplN
SAV2241	2373025	2373288	-	rpsQ
SAV2242	2373312	2373521	-	rpmC
SAV2243	2373511	2373945	-	rplP
SAV2244	2373948	2374601	-	rpsC
SAV2245	2374625	2374978	-	rplV
SAV2246	2375007	2375285	-	rpsS
SAV2247	2375352	2376185	-	rplB
SAV2248	2376218	2376493	-	rplW
SAV2249	2376493	2377116	-	rplD
SAV2250	2377143	2377805	-	rplC
SAV2251	2377833	2378141	-	rpsJ
SAV2252	2378498	2378887	+	SAV2252
SAV2253	2379078	2380412	-	SAV2253
SAV2254	2380525	2382660	-	topB
SAV2255	2382745	2383722	+	SAV2255
SAV2256	2383903	2384766	+	SAV2256
SAV2257	2385050	2385169	+	SAV2257
SAV2258	2385421	2386329	-	SAV2258
SAV2259	2386462	2386626	+	SAV2259
SAV2260	2386871	2387188	+	SAV2260
SAV2261	2387372	2390539	-	SAV2261
SAV2262	2390656	2391921	-	fmhB
SAV2263	2392310	2392561	+	SAV2263
SAV2264	2392553	2393317	-	SAV2264
SAV2265	2393479	2393919	+	SAV2265
SAV2266	2393912	2395123	+	SAV2266
SAV2267	2395225	2395575	-	SAV2267
SAV2268	2396152	2397174	-	moaA
SAV2269	2397194	2397793	-	mobA
SAV2270	2397800	2398033	-	moaD
SAV2271	2398039	2398485	-	moaE
SAV2272	2398499	2398984	-	mobB
SAV2273	2398981	2400240	-	moeA
SAV2274	2400303	2400797	+	moaC
SAV2275	2400799	2401305	-	moaB
SAV2276	2401336	2402340	-	moeB
SAV2277	2402510	2403115	-	modC
SAV2278	2403116	2403787	-	modB
SAV2279	2403801	2404583	-	modA
SAV2280	2404872	2405669	+	narQ
SAV2281	2405841	2406611	-	SAV2281
SAV2282	2406688	2407242	-	SAV2282
SAV2283	2407363	2408304	-	SAV2283
SAV2284	2408702	2409610	-	SAV2284
SAV2285	2409824	2410978	-	SAV2285
SAV2286	2411025	2411117	-	SAV2286
SAV2287	2411195	2412100	-	SAV2287
SAV2288	2412360	2412662	+	ureA
SAV2289	2412676	2413086	+	ureB
SAV2290	2413083	2414798	+	ureC
SAV2291	2414811	2415263	+	ureE
SAV2292	2415256	2415945	+	ureF
SAV2293	2415958	2416572	+	ureG
SAV2294	2416764	2417408	+	ureD
SAV2295	2417597	2417944	-	sarR
SAV2296	2418372	2418698	-	SAV2296
SAV2297	2418762	2419505	-	SAV2297
SAV2298	2419531	2421486	-	SAV2298
SAV2299	2422096	2422899	+	ssaA
SAV2300	2422917	2423045	-	SAV2300
SAV2301	2423333	2424733	-	SAV2301
SAV2302	2424828	2425910	-	SAV2302
SAV2303	2426158	2426580	+	SAV2303
SAV2304	2426817	2427317	+	SAV2304
SAV2305	2427678	2428631	+	SAV2305
SAV2306	2428723	2429847	-	SAV2306
SAV2307	2430158	2430934	-	SAV2307
SAV2308	2431417	2431890	-	SAV2308
SAV2309	2431890	2434844	-	SAV2309
SAV2310	2435447	2436394	-	SAV2310
SAV2311	2436527	2437324	-	SAV2311
SAV2312	2437709	2438401	+	SAV2312
SAV2313	2438426	2439163	-	SAV2313
SAV2314	2439212	2439541	+	SAV2314
SAV2315	2439986	2440858	+	SAV2315
SAV2316	2441245	2442624	-	SAV2316
SAV2317	2442904	2443260	+	SAV2317
SAV2318	2443257	2443442	+	SAV2318
SAV2319	2443538	2443729	-	SAV2319
SAV2320	2443740	2444375	-	SAV2320
SAV2321	2444450	2445367	-	SAV2321
SAV2322	2445635	2446165	+	SAV2322
SAV2323	2446231	2447835	-	glvC
SAV2324	2448165	2448929	+	SAV2324
SAV2325	2448987	2449493	-	SAV2325
SAV2326	2449660	2451039	-	SAV2326
SAV2327	2451198	2451767	-	SAV2327
SAV2328	2452254	2453135	-	SAV2328
SAV2329	2453246	2454367	-	SAV2329
SAV2330	2454643	2455881	-	hutI
SAV2331	2455881	2457542	-	hutU
SAV2332	2457702	2458586	+	SAV2332
SAV2333	2458828	2459247	+	fosB
SAV2334	2459503	2460438	-	SAV2334
SAV2335	2460728	2461987	+	SAV2335
SAV2336	2462053	2462739	-	SAV2336
SAV2337	2462913	2463566	+	SAV2337
SAV2338	2463802	2464821	-	SAV2338
SAV2339	2464851	2465177	-	SAV2339
SAV2340	2465395	2466627	-	SAV2340
SAV2341	2466620	2467519	-	SAV2341
SAV2342	2467750	2468370	-	SAV2342
SAV2343	2468362	2468553	+	SAV2343
SAV2344	2468769	2469377	+	SAV2344
SAV2345	2469710	2470918	+	SAV2345
SAV2346	2470966	2472015	-	fni
SAV2347	2472046	2472993	-	SAV2347
SAV2348	2473096	2473581	+	SAV2348
SAV2349	2473578	2473997	+	SAV2349
SAV2350	2474105	2475025	-	SAV2350
SAV2351	2475233	2475871	+	SAV2351
SAV2352	2476117	2478048	-	SAV2352
SAV2353	2478061	2478708	-	SAV2353
SAV2354	2478829	2479383	+	SAV2354
SAV2355	2479610	2480818	-	tcaB
SAV2356	2481087	2482469	-	tcaA
SAV2357	2482709	2483164	-	tcaR
SAV2358	2483359	2484327	+	SAV2358
SAV2359	2484558	2485223	-	SAV2359
SAV2360	2485223	2486278	-	SAV2360
SAV2361	2486414	2487088	+	SAV2361
SAV2362	2487081	2488454	+	SAV2362
SAV2363	2488617	2489060	+	SAV2363
SAV2364	2489057	2489512	+	SAV2364
SAV2365	2489578	2491113	-	SAV2365
SAV2366	2491437	2493035	-	SAV2366
SAV2367	2493352	2495025	+	SAV2367
SAV2368	2495179	2495793	-	SAV2368
SAV2369	2496107	2496622	-	SAV2369
SAV2370	2496813	2497817	+	SAV2370
SAV2371	2497863	2498264	-	SAV2371
SAV2372	2498300	2499295	-	SAV2372
SAV2373	2499566	2499997	-	SAV2373
SAV2374	2500204	2501481	-	SAV2374
SAV2375	2501642	2502265	+	SAV2375
SAV2376	2502311	2503255	+	SAV2376
SAV2377	2503340	2504782	-	scrA
SAV2378	2504965	2505303	+	SAV2378
SAV2379	2505347	2506666	-	tnp
SAV2380	2506776	2506868	+	SAV2380
SAV2381	2508356	2510461	+	SAV2381
SAV2382	2510532	2510954	+	SAV2382
SAV2383	2511218	2511574	+	SAV2383
SAV2384	2511892	2513169	-	gltT
SAV2385	2513351	2513716	-	SAV2385
SAV2386	2514113	2514559	+	SAV2386
SAV2387	2514781	2515203	+	SAV2387
SAV2388	2515310	2516479	-	narK
SAV2389	2516848	2517762	+	SAV2389
SAV2390	2517741	2518481	+	SAV2390
SAV2391	2518739	2519392	-	SAV2391
SAV2392	2519415	2520449	-	SAV2392
SAV2393	2520473	2520925	-	SAV2393
SAV2394	2520945	2521622	-	narI
SAV2395	2521615	2522190	-	SAV2395
SAV2396	2522183	2523742	-	narH
SAV2397	2523732	2527421	-	narG
SAV2398	2527730	2528707	-	nasF
SAV2399	2528698	2529012	-	nasE
SAV2400	2529016	2531421	-	nasD
SAV2401	2531487	2532218	-	SAV2401
SAV2402	2532448	2532984	-	SAV2402
SAV2403	2533218	2534042	-	SAV2403
SAV2404	2534259	2534441	-	SAV2404
SAV2405	2534525	2534992	-	SAV2405
SAV2406	2535178	2536725	-	SAV2406
SAV2407	2537020	2537286	-	SAV2407
SAV2408	2537286	2537537	-	SAV2408
SAV2409	2537810	2538409	-	SAV2409
SAV2410	2538428	2538790	-	SAV2410
SAV2411	2539045	2540295	+	fmhA
SAV2412	2540392	2541123	-	SAV2412
SAV2413	2541120	2541614	-	SAV2413
SAV2414	2541820	2542599	-	SAV2414
SAV2415	2542720	2544159	-	SAV2415
SAV2416	2544591	2545277	-	SAV2416
SAV2417	2545604	2546470	-	SAV2417
SAV2418	2547290	2548570	+	sbi
SAV2419	2549106	2550035	+	hlgA
SAV2420	2550602	2551549	+	hlgC
SAV2421	2551551	2552528	+	hlgB
SAV2422	2552580	2553047	-	SAV2422
SAV2423	2553058	2553750	-	SAV2423
SAV2424	2553761	2554876	-	SAV2424
SAV2425	2554854	2555861	-	bioB
SAV2426	2555863	2557221	-	bioA
SAV2427	2557199	2557885	-	bioD
SAV2428	2558338	2560071	-	SAV2428
SAV2429	2560096	2561859	-	SAV2429
SAV2430	2562566	2562820	+	SAV2430
SAV2431	2562803	2563189	-	SAV2431
SAV2432	2563457	2564599	+	SAV2432
SAV2433	2564659	2565318	+	SAV2433
SAV2434	2565500	2566711	+	SAV2434
SAV2435	2566834	2567307	-	SAV2435
SAV2436	2567420	2568076	+	SAV2436
SAV2437	2568139	2568945	-	SAV2437
SAV2438	2569231	2570640	+	SAV2438
SAV2439	2570779	2572857	+	SAV2439
SAV2440	2572998	2574827	-	SAV2440
SAV2441	2575059	2576555	+	SAV2441
SAV2442	2576647	2577498	-	SAV2442
SAV2443	2577820	2578755	-	SAV2443
SAV2444	2578981	2580381	-	SAV2444
SAV2445	2580675	2581370	-	opuCD
SAV2446	2581370	2582311	-	opuCC
SAV2447	2582328	2582963	-	opuCB
SAV2448	2582960	2584192	-	opuCA
SAV2449	2584856	2585455	-	SAV2449
SAV2450	2585635	2587272	+	SAV2450
SAV2451	2587581	2588933	+	SAV2451
SAV2452	2588995	2590182	-	SAV2452
SAV2453	2590578	2591354	-	SAV2453
SAV2454	2591347	2592009	-	SAV2454
SAV2455	2592257	2593333	-	SAV2455
SAV2456	2593688	2593954	-	SAV2456
SAV2457	2593954	2594211	-	SAV2457
SAV2458	2594570	2595025	+	SAV2458
SAV2459	2595193	2596770	-	SAV2459
SAV2460	2596965	2597714	+	SAV2460
SAV2461	2597863	2597988	-	SAV2461
SAV2462	2598076	2599269	-	SAV2462
SAV2463	2599281	2600030	-	SAV2463
SAV2464	2600023	2600838	-	SAV2464
SAV2465	2600835	2601704	-	SAV2465
SAV2466	2601701	2602636	-	SAV2466
SAV2467	2602649	2604247	-	SAV2467
SAV2468	2604390	2605691	-	SAV2468
SAV2469	2605684	2606502	-	SAV2469
SAV2470	2606513	2607334	-	SAV2470
SAV2471	2608024	2608791	-	SAV2471
SAV2472	2608891	2609709	-	SAV2472
SAV2473	2609944	2611482	+	SAV2473
SAV2474	2611595	2612017	-	SAV2474
SAV2475	2612469	2612888	-	SAV2475
SAV2476	2612915	2613325	-	SAV2476
SAV2477	2613592	2614104	-	SAV2477
SAV2478	2614264	2614959	-	SAV2478
SAV2479	2615248	2615529	+	SAV2479
SAV2480	2615789	2615980	-	SAV2480
SAV2481	2616541	2617335	-	SAV2481
SAV2482	2617871	2618158	-	SAV2482
SAV2483	2618161	2618487	-	SAV2483
SAV2484	2618487	2619812	-	SAV2484
SAV2485	2619799	2620593	-	SAV2485
SAV2486	2620837	2621610	-	SAV2486
SAV2487	2621722	2622498	-	SAV2487
SAV2488	2622802	2624292	-	SAV2488
SAV2489	2624332	2625663	-	SAV2489
SAV2490	2625665	2626057	-	SAV2490
SAV2491	2626246	2627997	+	SAV2491
SAV2492	2628281	2628547	+	SAV2492
SAV2493	2628691	2628999	+	SAV2493
SAV2494	2629107	2629340	-	SAV2494
SAV2495	2629437	2630513	-	SAV2495
SAV2496	2630897	2631487	-	SAV2496
SAV2497	2632909	2634243	-	SAV2497
SAV2498	2634548	2634907	-	sarH3
SAV2499	2635228	2635971	+	sarH2
SAV2500	2636182	2637048	-	gtaB
SAV2501	2637221	2638540	-	tnp
SAV2502	2638749	2641634	-	fnbB
SAV2503	2642315	2645431	-	fnb
SAV2504	2645566	2645766	-	SAV2504
SAV2505	2645900	2647258	-	gntP
SAV2506	2647375	2648928	-	gntK
SAV2507	2648952	2649632	-	gntR
SAV2508	2649785	2650549	-	SAV2508
SAV2509	2650714	2651406	-	SAV2509
SAV2510	2651637	2652125	-	SAV2510
SAV2511	2652192	2654015	-	SAV2511
SAV2512	2654492	2655769	-	SAV2512
SAV2513	2656316	2656927	+	SAV2513
SAV2514	2657445	2658140	+	SAV2514
SAV2515	2658142	2658912	+	SAV2515
SAV2516	2659285	2661249	+	fbp
SAV2517	2661591	2662670	+	SAV2517
SAV2518	2662775	2663368	-	SAV2518
SAV2519	2663399	2664358	-	SAV2519
SAV2520	2664436	2664870	-	SAV2520
SAV2521	2665096	2665380	+	SAV2521
SAV2522	2665551	2666357	+	SAV2522
SAV2523	2666478	2667149	-	SAV2523
SAV2524	2667356	2668411	+	ddh
SAV2525	2668658	2669458	-	SAV2525
SAV2526	2669778	2670413	+	SAV2526
SAV2527	2670428	2671150	+	SAV2527
SAV2528	2671312	2671932	-	srtA
SAV2529	2672126	2672617	+	SAV2529
SAV2530	2673110	2674009	-	SAV2530
SAV2531	2674023	2674703	-	SAV2531
SAV2532	2674706	2675749	-	SAV2532
SAV2533	2676299	2676502	+	SAV2533
SAV2534	2676694	2677620	+	SAV2534
SAV2535	2677701	2678669	-	SAV2535
SAV2536	2678790	2679146	-	SAV2536
SAV2537	2679188	2679598	-	SAV2537
SAV2538	2679978	2682044	-	ptsG
SAV2539	2682345	2684084	-	SAV2539
SAV2540	2684135	2684824	-	SAV2540
SAV2541	2684817	2685212	-	SAV2541
SAV2542	2685425	2686312	-	SAV2542
SAV2543	2686470	2686688	+	SAV2543
SAV2544	2687078	2687509	+	SAV2544
SAV2545	2687648	2688925	-	mvaA
SAV2546	2689180	2690346	+	mvaS
SAV2547	2690511	2691032	-	adaB
SAV2548	2691441	2693546	+	clpL
SAV2549	2693615	2693785	-	SAV2549
SAV2550	2693798	2695792	-	feoB
SAV2551	2695804	2696031	-	SAV2551
SAV2552	2696247	2698736	-	SAV2552
SAV2553	2698881	2699429	+	SAV2553
SAV2554	2699785	2701329	-	rocA
SAV2555	2701519	2702118	-	SAV2555
SAV2556	2702357	2702548	+	SAV2556
SAV2557	2702788	2705196	+	copA
SAV2558	2705734	2705940	+	SAV2558
SAV2559	2706031	2707029	-	SAV2559
SAV2560	2707052	2708206	-	SAV2560
SAV2561	2708634	2710142	-	crtN
SAV2562	2710154	2711017	-	crtM
SAV2563	2711054	2712181	-	SAV2563
SAV2564	2712187	2713680	-	SAV2564
SAV2565	2713673	2714170	-	SAV2565
SAV2566	2714336	2715103	-	SAV2566
SAV2567	2715464	2717275	-	SAV2567
SAV2568	2717788	2718276	-	SAV2568
SAV2569	2718552	2719253	-	isaA
SAV2570	2719861	2720916	-	SAV2570
SAV2571	2721326	2721895	+	SAV2571
SAV2572	2722273	2722593	+	SAV2572
SAV2573	2722813	2723043	+	SAV2573
SAV2574	2723116	2723274	-	SAV2574
SAV2575	2723345	2723722	-	SAV2575
SAV2576	2723739	2724560	-	SAV2576
SAV2577	2724580	2724879	-	SAV2577
SAV2578	2725010	2725567	+	SAV2578
SAV2579	2725560	2726264	+	SAV2579
SAV2580	2726362	2727372	+	SAV2580
SAV2581	2727392	2728222	+	SAV2581
SAV2582	2728369	2729259	-	SAV2582
SAV2583	2729356	2730696	-	SAV2583
SAV2584	2730690	2731796	-	SAV2584
SAV2585	2732129	2732425	-	SAV2585
SAV2586	2732413	2732781	-	SAV2586
SAV2587	2732796	2733071	-	SAV2587
SAV2588	2733415	2734281	-	SAV2588
SAV2589	2734499	2735563	+	SAV2589
SAV2590	2735718	2735993	+	SAV2590
SAV2591	2736179	2736901	-	SAV2591
SAV2592	2737255	2737704	+	SAV2592
SAV2593	2737785	2738372	-	SAV2593
SAV2594	2738515	2740197	+	SAV2594
SAV2595	2740295	2740930	-	SAV2595
SAV2596	2740946	2742022	-	SAV2596
SAV2597	2742365	2742736	-	panD
SAV2598	2742750	2743601	-	panC
SAV2599	2743594	2744412	-	panB
SAV2600	2744485	2745345	+	SAV2600
SAV2601	2745431	2746135	-	SAV2601
SAV2602	2746413	2747372	-	SAV2602
SAV2603	2748058	2749506	+	SAV2603
SAV2604	2749587	2750960	-	SAV2604
SAV2605	2751182	2751598	+	SAV2605
SAV2606	2751721	2752611	+	SAV2606
SAV2607	2752805	2754301	-	mqo2
SAV2608	2754678	2754926	+	SAV2608
SAV2609	2754986	2756605	-	SAV2609
SAV2610	2756778	2757221	-	SAV2610
SAV2611	2757501	2757713	-	SAV2611
SAV2612	2757991	2759700	-	betA
SAV2613	2759961	2761451	-	gbsA
SAV2614	2761701	2762267	+	SAV2614
SAV2615	2762438	2764060	-	cudT
SAV2616	2764579	2765115	-	SAV2616
SAV2617	2765112	2766962	-	nrdD
SAV2618	2767152	2768522	-	SAV2618
SAV2619	2769015	2769620	-	SAV2619
SAV2620	2769683	2771563	-	SAV2620
SAV2621	2771957	2772454	-	SAV2621
SAV2622	2773878	2775878	-	SAV2622
SAV2623	2775875	2776630	-	SAV2623
SAV2624	2776738	2777625	-	SAV2624
SAV2625	2777636	2778301	-	SAV2625
SAV2626	2778327	2778527	-	SAV2626
SAV2627	2778725	2780149	+	phoB
SAV2628	2780432	2780905	-	SAV2628
SAV2629	2781132	2781893	-	SAV2629
SAV2630	2782009	2784642	-	clfB
SAV2631	2784992	2785696	-	SAV2631
SAV2632	2785795	2786763	-	arcC
SAV2633	2786753	2788183	-	arcD
SAV2634	2788274	2789284	-	arcB
SAV2635	2789317	2790552	-	arcA
SAV2636	2790899	2791348	-	SAV2636
SAV2637	2791715	2793244	-	aur
SAV2638	2793668	2794195	-	isaB
SAV2639	2794453	2794911	+	SAV2639
SAV2640	2795151	2797025	+	SAV2640
SAV2641	2797101	2799053	+	SAV2641
SAV2642	2799067	2800005	+	pmi
SAV2643	2800117	2803098	-	SAV2643
SAV2644	2803309	2805168	+	SAV2644
SAV2645	2805433	2805993	-	SAV2645
SAV2646	2806162	2808069	-	SAV2646
SAV2647	2808310	2809668	-	SAV2647
SAV2648	2809661	2811169	-	SAV2648
SAV2649	2811187	2813577	-	SAV2649
SAV2650	2813567	2814607	-	SAV2650
SAV2651	2814504	2816072	-	SAV2651
SAV2652	2816062	2817615	-	SAV2652
SAV2653	2817626	2818837	-	SAV2653
SAV2654	2818967	2825782	-	SAV2654
SAV2655	2826326	2827018	-	SAV2655
SAV2656	2827338	2827712	+	SAV2656
SAV2657	2827696	2828001	+	SAV2657
SAV2658	2828155	2828514	+	SAV2658
SAV2659	2828599	2829210	-	SAV2659
SAV2660	2829289	2829765	-	SAV2660
SAV2661	2829768	2830268	-	SAV2661
SAV2662	2830503	2831270	-	SAV2662
SAV2663	2831267	2831959	-	SAV2663
SAV2664	2831976	2832638	-	SAV2664
SAV2665	2833487	2834047	-	icaR
SAV2666	2834211	2835449	+	icaA
SAV2667	2835413	2835718	+	icaD
SAV2668	2835715	2836587	+	icaB
SAV2669	2836574	2837626	+	icaC
SAV2670	2837769	2837879	+	SAV2670
SAV2671	2837961	2840006	-	lip
SAV2672	2841096	2841728	-	hisI
SAV2673	2841725	2842483	-	hisF
SAV2674	2842480	2843184	-	SAV2674
SAV2675	2843177	2843755	-	hisH
SAV2676	2843752	2844330	-	hisB
SAV2677	2844299	2845312	-	SAV2677
SAV2678	2845328	2846578	-	SAV2678
SAV2679	2846571	2847185	-	hisG
SAV2680	2847203	2848021	-	SAV2680
SAV2681	2848325	2849449	-	SAV2681
SAV2682	2849567	2850064	-	SAV2682
SAV2683	2850111	2850944	-	SAV2683
SAV2684	2850941	2852548	-	SAV2684
SAV2685	2852706	2853260	-	SAV2685
SAV2686	2853289	2854137	-	SAV2686
SAV2687	2854516	2855031	+	SAV2687
SAV2688	2855182	2856156	-	drp35
SAV2689	2856397	2857353	+	SAV2689
SAV2690	2857505	2858143	+	pcp
SAV2691	2858262	2859029	-	SAV2691
SAV2692	2859019	2859357	-	SAV2692
SAV2693	2859524	2859988	+	SAV2693
SAV2694	2860226	2861044	+	SAV2694
SAV2695	2861041	2861643	+	SAV2695
SAV2696	2862057	2862965	-	SAV2696
SAV2697	2863187	2863762	+	SAV2697
SAV2698	2863924	2864940	+	SAV2698
SAV2699	2865177	2865977	+	SAV2699
SAV2700	2866111	2866623	-	SAV2700
SAV2701	2866906	2867664	+	vraD
SAV2702	2867654	2869534	+	vraE
SAV2703	2869626	2869817	+	SAV2703
SAV2704	2870209	2870409	+	cspB
SAV2705	2870527	2871096	-	SAV2705
SAV2706	2871356	2871751	-	SAV2706
SAV2707	2871819	2872172	-	SAV2707
SAV2708	2872360	2872509	+	SAV2708
SAV2709	2872623	2873462	-	SAV2709
SAV2710	2873505	2874224	-	gidB
SAV2711	2874224	2876101	-	gidA
SAV2712	2876168	2877547	-	thdF
SAV2713	2877704	2878051	-	rnpA
SAV2714	2878178	2878315	-	rpmH
