Rv0001	102	1625	+
Rv0002	2153	3361	+
Rv0004	4535	5098	+
Rv0005	5224	7368	+
Rv0006	7403	9919	+
Rv0007	10015	10929	+
Rv0008c	12412	11975	-
Rv0009	12569	13117	+
Rv0010c	13659	13234	-
Rv0011c	14096	13815	-
Rv0012	14190	14978	+
Rv0018c	23273	21738	-
Rv0020c	25545	23962	-
Rv0021c	26982	26014	-
Rv0022c	27543	27124	-
Rv0024	28463	29308	+
Rv0025	29346	29708	+
Rv0026	29823	31169	+
Rv0027	31290	31607	+
Rv0028	31615	31920	+
Rv0029	32158	33255	+
Rv0031	33683	33895	+
Rv0035	37361	39049	+
Rv0036c	39931	39158	-
Rv0037c	41304	39979	-
Rv0038	41406	42014	+
Rv0039c	42453	42106	-
Rv0040c	43467	42535	-
Rv0041	43664	46573	+
Rv0042c	47309	46683	-
Rv0043c	48202	47468	-
Rv0044c	49129	48335	-
Rv0045c	50041	49145	-
Rv0046c	51226	50123	-
Rv0047c	51829	51287	-
Rv0048c	52799	51930	-
Rv0049	52933	53346	+
Rv0051	55798	57480	+
Rv0052	57512	58075	+
Rv0053	58294	58584	+
Rv0054	58688	59182	+
Rv0055	59224	59478	+
Rv0056	59511	59969	+
Rv0058	60498	63122	+
Rv0059	63302	63994	+
Rv0060	64011	65069	+
Rv0061	65093	65518	+
Rv0062	65654	66796	+
Rv0063	67025	68464	+
Rv0064	68722	71661	+
Rv0065	71960	72361	+
Rv0066c	74650	72413	-
Rv0067c	75337	74768	-
Rv0068	75440	76351	+
Rv0070c	79035	77758	-
Rv0071	79625	80323	+
Rv0072	80754	81803	+
Rv0073	81806	82798	+
Rv0074	82878	84113	+
Rv0075	84126	85298	+
Rv0076c	85702	85313	-
Rv0077c	86596	85766	-
Rv0078	86658	87263	+
Rv0078A	87931	87338	-
Rv0080	89152	89610	+
Rv0081	89705	90049	+
Rv0083	90530	92452	+
Rv0084	92458	93408	+
Rv0087	95544	97022	+
Rv0088	97057	97731	+
Rv0089	97888	98481	+
Rv0090	98610	99380	+
Rv0091	99814	100581	+
Rv0093c	103793	102945	-
Rv0094c	103842	103840	-
Rv0096	105454	106845	+
Rv0098	107730	108281	+
Rv0099	108286	109908	+
Rv0101	110131	117669	+
Rv0102	117844	119829	+
Rv0103c	122303	120045	-
Rv0104	122447	123961	+
Rv0105c	124394	124110	-
Rv0106	124504	125700	+
Rv0108c	131235	131026	-
Rv0109	131514	133004	+
Rv0110	133152	133901	+
Rv0111	134082	136139	+
Rv0112	136421	137377	+
Rv0113	137451	138041	+
Rv0115	138645	139805	+
Rv0116c	141154	140399	-
Rv0118c	144008	142260	-
Rv0119	144181	145758	+
Rv0120c	147903	145759	-
Rv0121c	148474	148040	-
Rv0123	148988	149356	+
Rv0380c	457075	456524	-
Rv0667	760585	764103	+
Rv0668	764148	768098	+
Rv0680c	781257	780883	-
Rv0892	994704	996191	+
Rv1484	1673878	1674687	+
Rv2043c	2283981	2283421	-
Rv2588c	2912408	2912061	-
Rv3798	4237874	4237876	+
