x	18744	17467	-
x	23172	21637	-
x	26878	25913	-
x	26993	27301	+
x	31967	31824	-
x	34307	36610	+
x	41307	41912	+
x	52810	53244	+
x	53237	55699	+
x	53354	55699	+
x	57335	57973	+
x	65392	65012	-
x	68418	68579	+
x	69541	71559	+
x	71589	71828	+
x	86490	85636	-
x	88004	87798	-
x	95417	96892	+
x	104429	103710	-
x	104573	103710	-
x	104669	103710	-
x	105101	104805	-
x	110307	117539	+
x	131128	130895	-
x	131271	132872	+
x	132915	133769	+
x	139965	140144	+
x	141194	142144	+
x	143885	142128	-
x	143998	145626	+
x	144007	145626	+
x	149491	150996	+
x	151187	152215	+
x	171803	172168	+
x	172202	173143	+
x	180920	179319	-
x	183210	181987	-
x	183415	183561	+
x	186620	186495	-
x	186623	186495	-
x	200974	202479	+
x	204068	205237	+
x	207458	208420	+
x	218711	219367	+
x	223999	224664	+
x	230836	231534	+
x	232228	234519	+
x	238389	237892	-
x	243259	241976	-
x	248118	247384	-
x	255968	254637	-
x	258904	257783	-
x	274719	274306	-
x	274904	274710	-
x	278385	278588	+
x	309439	307877	-
x	310269	309937	-
x	316436	315783	-
x	330380	331003	+
x	333333	333160	-
x	339094	336560	-
x	349983	351476	+
x	361164	359758	-
x	361241	363109	+
x	373271	366150	-
x	383632	384486	+
x	400168	401703	+
x	409356	410801	+
x	415044	415460	+
x	435459	434830	-
x	444826	445254	+
x	447133	446531	-
x	453196	452294	-
x	456930	456268	-
x	456918	456268	-
x	462030	463307	+
x	473750	474106	+
x	475326	475742	+
x	476253	475783	-
x	476394	476642	+
x	503146	503298	+
x	508585	507758	-
x	510655	510377	-
x	515834	515373	-
x	515948	515373	-
x	518589	519041	+
x	521511	522167	+
x	530682	530296	-
x	532354	532911	+
x	534633	534445	-
x	537235	536504	-
x	542091	542852	+
x	543195	544730	+
x	545290	544736	-
x	545122	544736	-
x	545902	545375	-
x	549616	547586	-
x	551710	551988	+
x	551981	552550	+
x	559870	560748	+
x	563493	562723	-
x	563567	564934	+
x	565782	566396	+
x	569986	568964	-
x	577643	578269	+
x	578405	579175	+
x	580703	580497	-
x	586346	587380	+
x	591391	591576	+
x	594839	593871	-
x	601848	602786	+
x	602810	604516	+
x	606527	608062	+
x	614730	614326	-
x	627293	628288	+
x	631719	632375	+
x	642880	644493	+
x	656009	654924	-
x	658318	659340	+
x	660886	661269	+
x	660934	661269	+
x	661253	663373	+
x	665601	665434	-
x	669839	671152	+
x	675831	676310	+
x	676032	676310	+
x	677703	677125	-
x	677691	677125	-
x	678575	677727	-
x	699037	697904	-
x	700263	701189	+
x	702729	703199	+
x	703985	704212	+
x	704424	704759	+
x	709455	710348	+
x	709599	710348	+
x	710348	710587	+
x	710817	710584	-
x	710782	711009	+
x	712249	712719	+
x	714193	715266	+
x	715292	716317	+
x	730187	729327	-
x	732324	732821	+
x	737245	736298	-
x	737194	736298	-
x	738161	737268	-
x	739217	738297	-
x	739250	738297	-
x	739208	738297	-
x	740217	739327	-
x	750001	749234	-
x	759294	759524	+
x	759789	763325	+
x	767820	767317	-
x	767637	767317	-
x	767691	767317	-
x	769999	770550	+
x	778402	775586	-
x	780655	781311	+
x	799807	799160	-
x	800394	800104	-
x	805759	806166	+
x	805798	806166	+
x	817905	817531	-
x	828947	829159	+
x	830858	831661	+
x	831695	832303	+
x	832058	832303	+
x	832990	833508	+
x	835205	835059	-
x	842009	842278	+
x	846168	847913	+
x	850043	848103	-
x	854226	853825	-
x	863298	864143	+
x	864143	864574	+
x	873355	872672	-
x	876711	876319	-
x	876798	876319	-
x	876689	876829	+
x	878455	876818	-
x	878620	879324	+
x	881713	881075	-
x	881690	882418	+
x	889449	890333	+
x	889497	890333	+
x	890571	891482	+
x	906405	907292	+
x	919571	918912	-
x	932129	931578	-
x	933025	932279	-
x	938076	939404	+
x	944319	944735	+
x	952795	953229	+
x	952819	953229	+
x	955050	956288	+
x	967889	968305	+
x	975970	974291	-
x	978134	976872	-
x	986025	985513	-
x	986269	986535	+
x	986674	986823	+
x	987182	988705	+
x	987203	988705	+
x	995062	995340	+
x	1003954	1004484	+
x	1014397	1014555	+
x	1016212	1016685	+
x	1017215	1016820	-
x	1023865	1024122	+
x	1031366	1030578	-
x	1031867	1030578	-
x	1053741	1054241	+
x	1053759	1054241	+
x	1057070	1056786	-
x	1057530	1057300	-
x	1058299	1057646	-
x	1064986	1064114	-
x	1073327	1073548	+
x	1074080	1074421	+
x	1076259	1075297	-
x	1077892	1077233	-
x	1077925	1077233	-
x	1078677	1081055	+
x	1087351	1085756	-
x	1090343	1093144	+
x	1094535	1095059	+
x	1096496	1095078	-
x	1101836	1102549	+
x	1108525	1108172	-
x	1109249	1108578	-
x	1111570	1112223	+
x	1112285	1113460	+
x	1113861	1114112	+
x	1114382	1114173	-
x	1114706	1114386	-
x	1119996	1118428	-
x	1122187	1120889	-
x	1129134	1130105	+
x	1138300	1138908	+
x	1146537	1147028	+
x	1159412	1158918	-
x	1159409	1158918	-
x	1160418	1160095	-
x	1164472	1164164	-
x	1164436	1164164	-
x	1165009	1164572	-
x	1166812	1165781	-
x	1169423	1168704	-
x	1169360	1170670	+
x	1169375	1170670	+
x	1172878	1173786	+
x	1175621	1174995	-
x	1176566	1176904	+
x	1176886	1177242	+
x	1178750	1178604	-
x	1178816	1178604	-
x	1179345	1180577	+
x	1184856	1185740	+
x	1192166	1190757	-
x	1197792	1198082	+
x	1200376	1199426	-
x	1200584	1201660	+
x	1200593	1201660	+
x	1206445	1205984	-
x	1207299	1207649	+
x	1214495	1214947	+
x	1214826	1215131	+
x	1215225	1215407	+
x	1228648	1227596	-
x	1228713	1229384	+
x	1232064	1232462	+
x	1232416	1232826	+
x	1243064	1242864	-
x	1261376	1259067	-
x	1261451	1259067	-
x	1264182	1262272	-
x	1265034	1265438	+
x	1269018	1268203	-
x	1269957	1271144	+
x	1272191	1272036	-
x	1272249	1273334	+
x	1273265	1274767	+
x	1273268	1274767	+
x	1275642	1275974	+
x	1276860	1276300	-
x	1277664	1276300	-
x	1277799	1276300	-
x	1277957	1278820	+
x	1278383	1278820	+
x	1284129	1283056	-
x	1284099	1283056	-
x	1292738	1293403	+
x	1300142	1299822	-
x	1308951	1309331	+
x	1329062	1327689	-
x	1338967	1339302	+
x	1338973	1339302	+
x	1339352	1340524	+
x	1342668	1341358	-
x	1342653	1341358	-
x	1347688	1346936	-
x	1364246	1363503	-
x	1365149	1365808	+
x	1365227	1365808	+
x	1366373	1367461	+
x	1371529	1371702	+
x	1376835	1376230	-
x	1384266	1384538	+
x	1386749	1384989	-
x	1385542	1384997	-
x	1393001	1389357	-
x	1404591	1403386	-
x	1408231	1409358	+
x	1409957	1409484	-
x	1413326	1413940	+
x	1419787	1419014	-
x	1425944	1425438	-
x	1461003	1461290	+
x	1467249	1467680	+
x	1485768	1485313	-
x	1485950	1485768	-
x	1527479	1530091	+
x	1531209	1530973	-
x	1531197	1530973	-
x	1533630	1532443	-
x	1539180	1539440	+
x	1540717	1539512	-
x	1542830	1541994	-
x	1564374	1565027	+
x	1565444	1566697	+
x	1566816	1568036	+
x	1569584	1568109	-
x	1572450	1572127	-
x	1576747	1577532	+
x	1576819	1577532	+
x	1580546	1581073	+
x	1588491	1587772	-
x	1591671	1592153	+
x	1597900	1598883	+
x	1612983	1612342	-
x	1612941	1612342	-
x	1616601	1616365	-
x	1617657	1618070	+
x	1619672	1618209	-
x	1622768	1623007	+
x	1638348	1639646	+
x	1640681	1639674	-
x	1656736	1655609	-
x	1668383	1669144	+
x	1676925	1676017	-
x	1680727	1680990	+
x	1682133	1684004	+
x	1686887	1687888	+
x	1687944	1689230	+
x	1694436	1693996	-
x	1702597	1703016	+
x	1703050	1704096	+
x	1710995	1712068	+
x	1717708	1714172	-
x	1739856	1741247	+
x	1742178	1742852	+
x	1759438	1760178	+
x	1774677	1773928	-
x	1775432	1774860	-
x	1782605	1782072	-
x	1799556	1800899	+
x	1799565	1800899	+
x	1803297	1804031	+
x	1810210	1811058	+
x	1811091	1812359	+
x	1813168	1814577	+
x	1828171	1828797	+
x	1836952	1839171	+
x	1842269	1840572	-
x	1848170	1846989	-
x	1852041	1848517	-
x	1852324	1852878	+
x	1858700	1859758	+
x	1863507	1862347	-
x	1870824	1871354	+
x	1886488	1888020	+
x	1896472	1896867	+
x	1899972	1900247	+
x	1902391	1903299	+
x	1905247	1906242	+
x	1929832	1929131	-
x	1938841	1939602	+
x	1946417	1946524	+
x	1951048	1950632	-
x	1957311	1955692	-
x	1961884	1961291	-
x	1962129	1961887	-
x	1965480	1965941	+
x	1965609	1965941	+
x	1971160	1970975	-
x	1973636	1976227	+
x	1986490	1984979	-
x	1988581	1987745	-
x	1989005	1989478	+
x	1992685	1989833	-
x	1992739	1992972	+
x	1996577	1997413	+
x	1999731	2000006	+
x	2002635	2003870	+
x	2012587	2012081	-
x	2025181	2026398	+
x	2028011	2028313	+
x	2028386	2029477	+
x	2029886	2030203	+
x	2030362	2030523	+
x	2030524	2030643	+
x	2046875	2044923	-
x	2048386	2049597	+
x	2049918	2051150	+
x	2051276	2052688	+
x	2055350	2054157	-
x	2056479	2057423	+
x	2062734	2061178	-
x	2069696	2070625	+
x	2084559	2084759	+
x	2086963	2084756	-
x	2093695	2092259	-
x	2097330	2097650	+
x	2101004	2101648	+
x	2113062	2115476	+
x	2113068	2115476	+
x	2123666	2124370	+
x	2125048	2124830	-
x	2141942	2142373	+
x	2153183	2152953	-
x	2157320	2156706	-
x	2157999	2157382	-
x	2170690	2167649	-
x	2183251	2182460	-
x	2195905	2197353	+
x	2199977	2199075	-
x	2201743	2202096	+
x	2205549	2205277	-
x	2206950	2207207	+
x	2207473	2207021	-
x	2207688	2208497	+
x	2211614	2212858	+
x	2212885	2214126	+
x	2218109	2218717	+
x	2226101	2225841	-
x	2228676	2228906	+
x	2232399	2232671	+
x	2234891	2234643	-
x	2259817	2260065	+
x	2263390	2264001	+
x	2265271	2265999	+
x	2266055	2266405	+
x	2266103	2266405	+
x	2278983	2278498	-
x	2281147	2281617	+
x	2281210	2281617	+
x	2289632	2289282	-
x	2302723	2294531	-
x	2307655	2307293	-
x	2310920	2308131	-
x	2317094	2316681	-
x	2321057	2321467	+
x	2321141	2321467	+
x	2326566	2327501	+
x	2328995	2328222	-
x	2335295	2334852	-
x	2335022	2334852	-
x	2337790	2338188	+
x	2353393	2353046	-
x	2357901	2356729	-
x	2358206	2357907	-
x	2360732	2363281	+
x	2363274	2364107	+
x	2365093	2364797	-
x	2365054	2364797	-
x	2365842	2366726	+
x	2365890	2366726	+
x	2370813	2370598	-
x	2372542	2370905	-
x	2373816	2374457	+
x	2379760	2379245	-
x	2388269	2387202	-
x	2388235	2387969	-
x	2398403	2398684	+
x	2401728	2400376	-
x	2402722	2402507	-
x	2407625	2406840	-
x	2416403	2414934	-
x	2429425	2428235	-
x	2430995	2430159	-
x	2431043	2430159	-
x	2434554	2433631	-
x	2440063	2439881	-
x	2443265	2442327	-
x	2446949	2445807	-
x	2448151	2449962	+
x	2453296	2452115	-
x	2453709	2453458	-
x	2453736	2453458	-
x	2457637	2458395	+
x	2470532	2469387	-
x	2470673	2469387	-
x	2472496	2473242	+
x	2501638	2501336	-
x	2506085	2505714	-
x	2506155	2505736	-
x	2506383	2506207	-
x	2506395	2507153	+
x	2509393	2508434	-
x	2509441	2510256	+
x	2510587	2510351	-
x	2512452	2515244	+
x	2522288	2523175	+
x	2529094	2529312	+
x	2533327	2533965	+
x	2547087	2546839	-
x	2547219	2547752	+
x	2550442	2551326	+
x	2550490	2551326	+
x	2562542	2563114	+
x	2568986	2570053	+
x	2573048	2573707	+
x	2577820	2577194	-
x	2581145	2581477	+
x	2581208	2581477	+
x	2581750	2581424	-
x	2581747	2581424	-
x	2583277	2583429	+
x	2583438	2583779	+
x	2583812	2584408	+
x	2594138	2592723	-
x	2594705	2594154	-
x	2595388	2594699	-
x	2608973	2609728	+
x	2619004	2617667	-
x	2619582	2620016	+
x	2620236	2620529	+
x	2626956	2626654	-
x	2628722	2627172	-
x	2630346	2628781	-
x	2632099	2630537	-
x	2632565	2632792	+
x	2636005	2636889	+
x	2636053	2636889	+
x	2647085	2646747	-
x	2651651	2651938	+
x	2667262	2662067	-
x	2675834	2671593	-
x	2677666	2678649	+
x	2680458	2680667	+
x	2683187	2682015	-
x	2692736	2693884	+
x	2703236	2703838	+
x	2705758	2705486	-
x	2705732	2706736	+
x	2705762	2706736	+
x	2711319	2710351	-
x	2712885	2711332	-
x	2715350	2714124	-
x	2716305	2715472	-
x	2721441	2720776	-
x	2725578	2725847	+
x	2725861	2725595	-
x	2725828	2725595	-
x	2726060	2725866	-
x	2737008	2734792	-
x	2750255	2747595	-
x	2752228	2751662	-
x	2756719	2754743	-
x	2760764	2762380	+
x	2760809	2762380	+
x	2768231	2769037	+
x	2773160	2773564	+
x	2785541	2784657	-
x	2785493	2784657	-
x	2786262	2786519	+
x	2792500	2791019	-
x	2794000	2792723	-
x	2796062	2795301	-
x	2806529	2806323	-
x	2824602	2823256	-
x	2829851	2828556	-
x	2829866	2828556	-
x	2829954	2830139	+
x	2853256	2854266	+
x	2858257	2857853	-
x	2860446	2861144	+
x	2864409	2863207	-
x	2869627	2869253	-
x	2876977	2876576	-
x	2881288	2880965	-
x	2898043	2898783	+
x	2906829	2906089	-
x	2910207	2907826	-
x	2916431	2916222	-
x	2921521	2923182	+
x	2945030	2943600	-
x	2946383	2947111	+
x	2960101	2959847	-
x	2962471	2960105	-
x	2962405	2960105	-
x	2968410	2968832	+
x	2971563	2972027	+
x	2972537	2973421	+
x	2972585	2973421	+
x	2976419	2975928	-
x	2977002	2976586	-
x	2979691	2979326	-
x	2981430	2980963	-
x	2983008	2983874	+
x	2984688	2985254	+
x	2987691	2989268	+
x	3011872	3011399	-
x	3020323	3020511	+
x	3021835	3021548	-
x	3021865	3021548	-
x	3022395	3023432	+
x	3022431	3023432	+
x	3025337	3024270	-
x	3025432	3026847	+
x	3031788	3032498	+
x	3041458	3040766	-
x	3044995	3044375	-
x	3046623	3044986	-
x	3053589	3053855	+
x	3053794	3055491	+
x	3053812	3055491	+
x	3067133	3066222	-
x	3073615	3073130	-
x	3074480	3073680	-
x	3076893	3076603	-
x	3080517	3079309	-
x	3082813	3083370	+
x	3084465	3083374	-
x	3102186	3101581	-
x	3107658	3107311	-
x	3110731	3110507	-
x	3110737	3110507	-
x	3112429	3112794	+
x	3112840	3113271	+
x	3113661	3114812	+
x	3115034	3115303	+
x	3121402	3120566	-
x	3121450	3120566	-
x	3124992	3123967	-
x	3126243	3124996	-
x	3133632	3132892	-
x	3133614	3132892	-
x	3133437	3132892	-
x	3134599	3133709	-
x	3135498	3134596	-
x	3137055	3136330	-
x	3136599	3136330	-
x	3137024	3136620	-
x	3143619	3142309	-
x	3162124	3164115	+
x	3162271	3164115	+
x	3167868	3168200	+
x	3168212	3168427	+
x	3169356	3168583	-
x	3174801	3174995	+
x	3177310	3175454	-
x	3183059	3181770	-
x	3183848	3184567	+
x	3184663	3184854	+
x	3187021	3187611	+
x	3190170	3189583	-
x	3195545	3194166	-
x	3196216	3195545	-
x	3202008	3200794	-
x	3208367	3207942	-
x	3239515	3238601	-
x	3239706	3239515	-
x	3243568	3245448	+
x	3251075	3255688	+
x	3272193	3273209	+
x	3289967	3290506	+
x	3296365	3291503	-
x	3296640	3296350	-
x	3302455	3300596	-
x	3308554	3307580	-
x	3313729	3313316	-
x	3314591	3313773	-
x	3317467	3317985	+
x	3318101	3318286	+
x	3324494	3323709	-
x	3331854	3332048	+
x	3335930	3336505	+
x	3337872	3336796	-
x	3339091	3339762	+
x	3339857	3342082	+
x	3351119	3350274	-
x	3351071	3350274	-
x	3356933	3356733	-
x	3357587	3358567	+
x	3359538	3359320	-
x	3360598	3359585	-
x	3363309	3363686	+
x	3363339	3363686	+
x	3364646	3365830	+
x	3371749	3372471	+
x	3376855	3376490	-
x	3378613	3378329	-
x	3378532	3378329	-
x	3378671	3378495	-
x	3379344	3379036	-
x	3381092	3380679	-
x	3382670	3381375	-
x	3382685	3381375	-
x	3386919	3386074	-
x	3391546	3392778	+
x	3392812	3393201	+
x	3394873	3394019	-
x	3400204	3399419	-
x	3404967	3405218	+
x	3414262	3412085	-
x	3419406	3418726	-
x	3425064	3423262	-
x	3427237	3429519	+
x	3429568	3429750	+
x	3436313	3435798	-
x	3448429	3447404	-
x	3452922	3454343	+
x	3467606	3467926	+
x	3471889	3471413	-
x	3480431	3480742	+
x	3481388	3482698	+
x	3481403	3482698	+
x	3488584	3489063	+
x	3489482	3490375	+
x	3493518	3493168	-
x	3494181	3493600	-
x	3494193	3493600	-
x	3501175	3501732	+
x	3503277	3502945	-
x	3503259	3502945	-
x	3511305	3510088	-
x	3511577	3512068	+
x	3511592	3512068	+
x	3519273	3520514	+
x	3520486	3521142	+
x	3529322	3527391	-
x	3531147	3529990	-
x	3538487	3539851	+
x	3547037	3547330	+
x	3547543	3548907	+
x	3551658	3552542	+
x	3551706	3552542	+
x	3553141	3554025	+
x	3553189	3554025	+
x	3556855	3557064	+
x	3558495	3557311	-
x	3558369	3557311	-
x	3558853	3558629	-
x	3558980	3558798	-
x	3559560	3560024	+
x	3571298	3569109	-
x	3580277	3580495	+
x	3580286	3580495	+
x	3584787	3583801	-
x	3585964	3585677	-
x	3586485	3586156	-
x	3591571	3592257	+
x	3597790	3597551	-
x	3599668	3598901	-
x	3601022	3600795	-
x	3610383	3609781	-
x	3624922	3623159	-
x	3633639	3635063	+
x	3639317	3639844	+
x	3640243	3639872	-
x	3642914	3643027	+
x	3646902	3645979	-
x	3647888	3649381	+
x	3649369	3650109	+
x	3664856	3665821	+
x	3669577	3668951	-
x	3690968	3689457	-
x	3700526	3700356	-
x	3703952	3703464	-
x	3704006	3704440	+
x	3709070	3708438	-
x	3710248	3709715	-
x	3710810	3711694	+
x	3710858	3711694	+
x	3711932	3713461	+
x	3720759	3721238	+
x	3723802	3724548	+
x	3726096	3725884	-
x	3738000	3736984	-
x	3753148	3743711	-
x	3751129	3743711	-
x	3753713	3753222	-
x	3755237	3754293	-
x	3755564	3755328	-
x	3767315	3755952	-
x	3766976	3755952	-
x	3778466	3780334	+
x	3784740	3781501	-
x	3784797	3781501	-
x	3795936	3795100	-
x	3797443	3796448	-
x	3800017	3800796	+
x	3800723	3801463	+
x	3811022	3809442	-
x	3811635	3812345	+
x	3811704	3812345	+
x	3834485	3833694	-
x	3839068	3838586	-
x	3839706	3839059	-
x	3847002	3846682	-
x	3848999	3848844	-
x	3849188	3849024	-
x	3849233	3849024	-
x	3853703	3853215	-
x	3854877	3853939	-
x	3872508	3871084	-
x	3872532	3871084	-
x	3873437	3874132	+
x	3874759	3876090	+
x	3876822	3876052	-
x	3880782	3880432	-
x	3883958	3884917	+
x	3884054	3884917	+
x	3884198	3884917	+
x	3888817	3887144	-
x	3891207	3892091	+
x	3891255	3892091	+
x	3894429	3895607	+
x	3895637	3898885	+
x	3895790	3898885	+
x	3901203	3900493	-
x	3901239	3900493	-
x	3915883	3914531	-
x	3957428	3958432	+
x	3975360	3977060	+
x	3984162	3983125	-
x	3997740	3999638	+
x	4008719	4007331	-
x	4016196	4017083	+
x	4016352	4017083	+
x	4018303	4017089	-
x	4019208	4020128	+
x	4029786	4028968	-
x	4037296	4036598	-
x	4046181	4045207	-
x	4052855	4053556	+
x	4062449	4063249	+
x	4065912	4064851	-
x	4070526	4071239	+
x	4073635	4072667	-
x	4082724	4081516	-
x	4093638	4093393	-
x	4093799	4094527	+
x	4093982	4094527	+
x	4094968	4094660	-
x	4094983	4094660	-
x	4095543	4094923	-
x	4096220	4095540	-
x	4098099	4096936	-
x	4099169	4098096	-
x	4104538	4103675	-
x	4107170	4107526	+
x	4107460	4107669	+
x	4107475	4107669	+
x	4125373	4126479	+
x	4129089	4128751	-
x	4129200	4128751	-
x	4129116	4128751	-
x	4131691	4132392	+
x	4132389	4133519	+
x	4132440	4133519	+
x	4134684	4136048	+
x	4140463	4140239	-
x	4143935	4142748	-
x	4151136	4150030	-
x	4153740	4155674	+
x	4158215	4158922	+
x	4160895	4160512	-
x	4162318	4163718	+
x	4163715	4164998	+
x	4169546	4170169	+
x	4178249	4180615	+
x	4195395	4195802	+
x	4200242	4199721	-
x	4200355	4201326	+
x	4200382	4201326	+
x	4205487	4205840	+
x	4211102	4209582	-
x	4211940	4211080	-
x	4212203	4212982	+
x	4212227	4212982	+
x	4221020	4222648	+
x	4235311	4235739	+
x	4246562	4249810	+
x	4251109	4252866	+
x	4265495	4264563	-
x	4268896	4266953	-
x	4270373	4269840	-
x	4270340	4269840	-
x	4283999	4284331	+
x	4299536	4293225	-
x	4302786	4301563	-
x	4303391	4302786	-
x	4305023	4303398	-
x	4309038	4310396	+
x	4310413	4310814	+
x	4317897	4317685	-
x	4318756	4318247	-
x	4319825	4320040	+
x	4325053	4325478	+
x	4351066	4352181	+
x	4355103	4356542	+
x	4364787	4363417	-
x	4370236	4368518	-
x	4383991	4383653	-
x	4385241	4384147	-
x	4385466	4384147	-
x	4410789	4410412	-
