Rv0001	1	1524	+
Rv0002	2052	3260	+
Rv0003	3280	4437	+
Rv0004	4434	4997	+
Rv0005	5123	7267	+
Rv0006	7302	9818	+
Rv0007	9914	10828	+
Rv0008c	12311	11874	-
Rv0009	12468	13016	+
Rv0010c	13558	13133	-
Rv0011c	13995	13714	-
Rv0012	14089	14877	+
Rv0013	14914	15612	+
Rv0014c	17470	15590	-
Rv0015c	18762	17467	-
Rv0016c	20234	18759	-
Rv0017c	21640	20231	-
Rv0018c	23181	21637	-
Rv0019c	23737	23270	-
Rv0020c	25444	23861	-
Rv0021c	26881	25913	-
Rv0022c	27442	27023	-
Rv0023	27595	28365	+
Rv0024	28362	29207	+
Rv0025	29245	29607	+
Rv0026	29722	31068	+
Rv0027	31189	31506	+
Rv0028	31514	31819	+
Rv0029	32057	33154	+
Rv0030	33224	33553	+
Rv0031	33582	33794	+
Rv0032	34295	36610	+
Rv0033	36607	36870	+
Rv0034	36867	37262	+
Rv0035	37259	38947	+
Rv0036c	39829	39056	-
Rv0037c	41202	39877	-
Rv0038	41304	41912	+
Rv0039c	42351	42004	-
Rv0040c	43365	42433	-
Rv0041	43562	46471	+
Rv0042c	47207	46581	-
Rv0043c	48100	47366	-
Rv0044c	49027	48233	-
Rv0045c	49939	49043	-
Rv0046c	51124	50021	-
Rv0047c	51727	51185	-
Rv0048c	52697	51828	-
Rv0049	52831	53244	+
Rv0050	53663	55699	+
Rv0051	55696	57378	+
Rv0052	57410	57973	+
Rv0053	58192	58482	+
Rv0054	58586	59080	+
Rv0055	59122	59376	+
Rv0056	59409	59867	+
Rv0057	59896	60417	+
Rv0058	60396	63020	+
Rv0059	63200	63892	+
Rv0060	63909	64967	+
Rv0061	64991	65416	+
Rv0062	65552	66694	+
Rv0063	66923	68362	+
Rv0064	68620	71559	+
Rv0065	71821	72222	+
Rv0066c	74511	72274	-
Rv0067c	75198	74629	-
Rv0068	75301	76212	+
Rv0069c	77622	76237	-
Rv0070c	78896	77619	-
Rv0071	79486	80193	+
Rv0072	80624	81673	+
Rv0073	81676	82668	+
Rv0074	82748	83983	+
Rv0075	83996	85168	+
Rv0076c	85572	85183	-
Rv0077c	86466	85636	-
Rv0078	86528	87133	+
Rv0078A	87801	87208	-
Rv0079	88204	89025	+
Rv0080	89022	89480	+
Rv0081	89575	89919	+
Rv0082	89924	90403	+
Rv0083	90400	92322	+
Rv0084	92328	93278	+
Rv0085	93289	93951	+
Rv0086	93951	95417	+
Rv0087	95414	96892	+
Rv0088	96927	97601	+
Rv0089	97758	98351	+
Rv0090	98480	99250	+
Rv0091	99684	100451	+
Rv0092	100583	102868	+
Rv0093c	103663	102815	-
Rv0094c	104663	103710	-
Rv0095c	105215	104805	-
Rv0096	105324	106715	+
Rv0097	106734	107603	+
Rv0098	107600	108151	+
Rv0099	108156	109778	+
Rv0100	109783	110019	+
Rv0101	110001	117539	+
Rv0102	117714	119699	+
Rv0103c	122173	119915	-
Rv0104	122317	123831	+
Rv0105c	124264	123980	-
Rv0106	124374	125570	+
Rv0107c	130541	125643	-
Rv0108c	131104	130895	-
Rv0109	131382	132872	+
Rv0110	133020	133769	+
Rv0111	133950	136007	+
Rv0112	136289	137245	+
Rv0113	137319	137909	+
Rv0114	137941	138513	+
Rv0115	138513	139673	+
Rv0116c	141022	140267	-
Rv0117	141200	142144	+
Rv0118c	143876	142128	-
Rv0119	144049	145626	+
Rv0120c	147771	145627	-
Rv0121c	148342	147908	-
Rv0122	148491	148859	+
Rv0123	148856	149224	+
Rv0124	149533	150996	+
Rv0125	151148	152215	+
Rv0126	152324	154129	+
Rv0127	154232	155599	+
Rv0128	155667	156446	+
Rv0129c	157600	156578	-
Rv0130	157847	158302	+
Rv0131c	159658	158315	-
Rv0132c	160782	159700	-
Rv0133	160869	161474	+
Rv0134	161771	162673	+
Rv0135c	163249	162644	-
Rv0136	163366	164691	+
Rv0137c	165260	164712	-
Rv0138	165323	165826	+
Rv0139	165827	166849	+
Rv0140	166910	167290	+
Rv0141c	167681	167271	-
Rv0142	167711	168637	+
Rv0143c	170182	168704	-
Rv0144	170284	171126	+
Rv0145	171215	172168	+
Rv0146	172211	173143	+
Rv0147	173238	174758	+
Rv0148	174833	175693	+
Rv0149	175700	176668	+
Rv0150c	176952	176665	-
Rv0151c	179309	177543	-
Rv0152c	180896	179319	-
Rv0153c	181985	181155	-
Rv0154c	183198	181987	-
Rv0155	183622	184722	+
Rv0156	184723	185055	+
Rv0157	185052	186479	+
Rv0158	186785	187429	+
Rv0159c	188839	187433	-
Rv0160c	190439	188931	-
Rv0161	190607	191956	+
Rv0162c	193135	191984	-
Rv0163	193117	193572	+
Rv0164	193626	194111	+
Rv0165c	194938	194144	-
Rv0166	194993	196657	+
Rv0167	196861	197658	+
Rv0168	197660	198529	+
Rv0169	198534	199898	+
Rv0170	199895	200935	+
Rv0171	200932	202479	+
Rv0172	202476	204068	+
Rv0173	204065	205237	+
Rv0174	205231	206778	+
Rv0175	206814	207455	+
Rv0176	207452	208420	+
Rv0177	208417	208971	+
Rv0178	208938	209672	+
Rv0179c	210812	209703	-
Rv0180c	212250	210892	-
Rv0181c	213011	212277	-
Rv0182c	214140	213028	-
Rv0183	214088	214927	+
Rv0184	214969	215718	+
Rv0185	215715	216224	+
Rv0186	216269	218344	+
Rv0187	218705	219367	+
Rv0188	219486	219917	+
Rv0189c	221723	219996	-
Rv0190	221871	222161	+
Rv0191	222289	223530	+
Rv0192	223564	224664	+
Rv0192A	223607	223909	+
Rv0193c	226571	224724	-
Rv0194	226878	230462	+
Rv0195	230899	231534	+
Rv0196	231647	232231	+
Rv0197	232231	234519	+
Rv0198c	236507	234516	-
Rv0199	236550	237209	+
Rv0200	237206	237895	+
Rv0201c	238395	237892	-
Rv0202c	241292	238392	-
Rv0203	241514	241924	+
Rv0204c	243214	241976	-
Rv0205	243384	244487	+
Rv0206c	247318	244484	-
Rv0207c	248112	247384	-
Rv0208c	248906	248115	-
Rv0209	249038	250123	+
Rv0210	250120	251598	+
Rv0211	251782	253602	+
Rv0212c	254640	253669	-
Rv0213c	255950	254637	-
Rv0214	256064	257677	+
Rv0215c	258856	257783	-
Rv0216	258913	259926	+
Rv0217c	260831	259923	-
Rv0218	260924	262252	+
Rv0219	262254	262802	+
Rv0220	262812	264023	+
Rv0221	264067	265476	+
Rv0222	265507	266295	+
Rv0223c	267764	266301	-
Rv0224c	268627	267863	-
Rv0225	268663	269817	+
Rv0226c	271564	269834	-
Rv0227c	272839	271574	-
Rv0228	273055	274278	+
Rv0229c	274986	274306	-
Rv0230c	275963	274983	-
Rv0231	276058	277764	+
Rv0232	277899	278588	+
Rv0233	278585	279529	+
Rv0234c	281140	279605	-
Rv0235c	282614	281166	-
Rv0236c	286851	282649	-
Rv0236A	287071	286898	-
Rv0237	287186	288352	+
Rv0238	288428	289042	+
Rv0239	289104	289337	+
Rv0240	289345	289782	+
Rv0241c	290654	289812	-
Rv0242c	292029	290665	-
Rv0243	292171	293493	+
Rv0244c	295633	293798	-
Rv0245	296005	296493	+
Rv0246	296809	298119	+
Rv0247c	298862	298116	-
Rv0248c	300803	298863	-
Rv0249c	301655	300834	-
Rv0250c	302028	301735	-
Rv0251c	302652	302173	-
Rv0252	302866	305427	+
Rv0253	305453	305809	+
Rv0254c	306349	305825	-
Rv0255c	307858	306374	-
Rv0256c	309547	307877	-
Rv0257	309699	310073	+
Rv0258c	310749	310294	-
Rv0259c	311517	310774	-
Rv0260c	312659	311514	-
Rv0261c	314168	312759	-
Rv0262c	314854	314309	-
Rv0263c	315766	314864	-
Rv0264c	316415	315783	-
Rv0265c	317503	316511	-
Rv0266c	321154	317525	-
Rv0267	321331	322722	+
Rv0268c	323273	322764	-
Rv0269c	324531	323338	-
Rv0270	324567	326249	+
Rv0271c	328461	326266	-
Rv0272c	329708	328575	-
Rv0273c	330325	329705	-
Rv0274	330422	331003	+
Rv0275c	331658	330933	-
Rv0276	331748	332668	+
Rv0277c	333136	332708	-
Rv0278c	336310	333437	-
Rv0279c	339073	336560	-
Rv0280	339364	340974	+
Rv0281	340998	341906	+
Rv0282	342130	344025	+
Rv0283	344022	345638	+
Rv0284	345635	349627	+
Rv0285	349624	349932	+
Rv0286	349935	351476	+
Rv0287	351525	351818	+
Rv0288	351848	352138	+
Rv0289	352149	353036	+
Rv0290	353083	354501	+
Rv0291	354498	355883	+
Rv0292	355880	356875	+
Rv0293c	358064	356862	-
Rv0294	358171	358956	+
Rv0295c	359748	358945	-
Rv0296c	361155	359758	-
Rv0297	361334	363109	+
Rv0298	363252	363479	+
Rv0299	363476	363778	+
Rv0300	363826	364047	+
Rv0301	364044	364469	+
Rv0302	364605	365237	+
Rv0303	365234	366142	+
Rv0304c	372764	366150	-
Rv0305c	375711	372820	-
Rv0306	375914	376585	+
Rv0307c	377055	376573	-
Rv0308	377113	377829	+
Rv0309	377931	378587	+
Rv0310c	379148	378657	-
Rv0311	379172	380401	+
Rv0312	380556	382418	+
Rv0313	382490	382876	+
Rv0314c	383541	382879	-
Rv0315	383602	384486	+
Rv0316	384535	385149	+
Rv0317c	385943	385173	-
Rv0318c	387099	386305	-
Rv0319	387148	387816	+
Rv0320	387888	388550	+
Rv0321	388582	389154	+
Rv0322	389260	390591	+
Rv0323c	391251	390580	-
Rv0324	391352	392032	+
Rv0325	392039	392263	+
Rv0326	392273	392728	+
Rv0327c	394045	392696	-
Rv0328	394111	394713	+
Rv0329c	395320	394694	-
Rv0330c	396087	395347	-
Rv0331	396201	397367	+
Rv0332	397442	398227	+
Rv0333	398254	398628	+
Rv0334	398658	399524	+
Rv0335c	400050	399535	-
Rv0336	400192	401703	+
Rv0337c	403162	401873	-
Rv0338c	405841	403193	-
Rv0339c	408448	405950	-
Rv0340	408634	409173	+
Rv0341	409362	410801	+
Rv0342	410838	412760	+
Rv0343	412757	414238	+
Rv0344c	414941	414381	-
Rv0345	415050	415460	+
Rv0346c	416965	415502	-
Rv0347	417304	418290	+
Rv0348	418293	418946	+
Rv0349	418949	419608	+
Rv0350	419835	421712	+
Rv0351	421709	422416	+
Rv0352	422452	423639	+
Rv0353	423639	424019	+
Rv0354c	424694	424269	-
Rv0355c	434679	424777	-
Rv0356c	435474	434830	-
Rv0357c	436769	435471	-
Rv0358	436860	437507	+
Rv0359	437518	438297	+
Rv0360c	438739	438302	-
Rv0361	438822	439649	+
Rv0362	439871	441253	+
Rv0363c	442299	441265	-
Rv0364	442395	443078	+
Rv0365c	444197	443067	-
Rv0366c	444815	444222	-
Rv0367c	445233	444844	-
Rv0368c	446525	445314	-
Rv0369c	447046	446531	-
Rv0370c	448043	447147	-
Rv0371c	448633	448040	-
Rv0372c	449385	448630	-
Rv0373c	451803	449404	-
Rv0374c	452279	451800	-
Rv0375c	453154	452294	-
Rv0376c	454372	453230	-
Rv0377	454421	455386	+
Rv0378	455637	455858	+
Rv0379	455977	456192	+
Rv0380c	456819	456268	-
Rv0381c	457823	456915	-
Rv0382c	458380	457841	-
Rv0383c	459315	458461	-
Rv0384c	462002	459456	-
Rv0385	462135	463307	+
Rv0386	463411	466668	+
Rv0387c	467406	466672	-
Rv0388c	468001	467459	-
Rv0389	468335	469594	+
Rv0390	469591	470013	+
Rv0391	470010	471230	+
Rv0392c	472639	471227	-
Rv0393	472781	474106	+
Rv0394c	474841	474122	-
Rv0395	474940	475344	+
Rv0396	475350	475742	+
Rv0397	475816	476184	+
Rv0398c	477320	476679	-
Rv0399c	478556	477327	-
Rv0400c	479753	478566	-
Rv0401	479789	480160	+
Rv0402c	483231	480355	-
Rv0403c	483656	483228	-
Rv0404	483977	485734	+
Rv0405	485731	489939	+
Rv0406c	490705	489887	-
Rv0407	490783	491793	+
Rv0408	491786	493858	+
Rv0409	493851	495008	+
Rv0410c	497314	495062	-
Rv0411c	498300	497314	-
Rv0412c	499619	498300	-
Rv0413	499713	500366	+
Rv0414c	501018	500350	-
Rv0415	501148	502170	+
Rv0416	502167	502373	+
Rv0417	502366	503124	+
Rv0418	503496	504998	+
Rv0419	505086	506582	+
Rv0420c	506971	506561	-
Rv0421c	507761	507132	-
Rv0422c	508555	507758	-
Rv0423c	510225	508582	-
Rv0424c	510652	510377	-
Rv0425c	515321	510702	-
Rv0426c	515816	515373	-
Rv0427c	516892	516017	-
Rv0428c	517803	516895	-
Rv0429c	518396	517803	-
Rv0430	518733	519041	+
Rv0431	519073	519567	+
Rv0432	519600	520322	+
Rv0433	520324	521454	+
Rv0434	521514	522167	+
Rv0435c	524533	522347	-
Rv0436c	525390	524530	-
Rv0437c	526082	525387	-
Rv0438c	527360	526143	-
Rv0439c	528314	527379	-
Rv0440	528608	530230	+
Rv0441c	530724	530296	-
Rv0442c	532214	530751	-
Rv0443	532396	532911	+
Rv0444c	533789	533091	-
Rv0445c	534396	533833	-
Rv0446c	535215	534445	-
Rv0447c	536507	535224	-
Rv0448c	537169	536504	-
Rv0449c	538548	537229	-
Rv0450c	541491	538588	-
Rv0451c	541910	541488	-
Rv0452	542142	542852	+
Rv0453	543174	544730	+
Rv0454	544835	545185	+
Rv0455c	545821	545375	-
Rv0456c	546803	545889	-
Rv0456A	547357	547076	-
Rv0457c	549607	547586	-
Rv0458	549675	551198	+
Rv0459	551198	551689	+
Rv0460	551749	551988	+
Rv0461	552026	552550	+
Rv0462	552614	554008	+
Rv0463	554016	554309	+
Rv0464c	554885	554313	-
Rv0465c	556306	554882	-
Rv0466	556458	557252	+
Rv0467	557527	558813	+
Rv0468	558895	559755	+
Rv0469	559888	560748	+
Rv0470c	561711	560848	-
Rv0470A	562294	561854	-
Rv0471c	562713	562225	-
Rv0472c	563427	562723	-
Rv0473	563564	564934	+
Rv0474	565021	565443	+
Rv0475	565797	566396	+
Rv0476	566508	566771	+
Rv0477	566776	567222	+
Rv0478	567222	567896	+
Rv0479c	568967	567921	-
Rv0480c	569806	568964	-
Rv0481c	570512	569988	-
Rv0482	570539	571648	+
Rv0483	571710	573065	+
Rv0484c	573801	573046	-
Rv0485	573984	575300	+
Rv0486	575348	576790	+
Rv0487	576787	577338	+
Rv0488	577664	578269	+
Rv0489	578426	579175	+
Rv0490	579349	580581	+
Rv0491	580809	581492	+
Rv0492c	583378	581489	-
Rv0492A	583704	583375	-
Rv0493c	584690	583701	-
Rv0494	584695	585423	+
Rv0495c	586314	585424	-
Rv0496	586394	587380	+
Rv0497	587377	588309	+
Rv0498	588325	589167	+
Rv0499	589183	590058	+
Rv0500	590083	590970	+
Rv0500A	591111	591347	+
Rv0500B	591475	591576	+
Rv0501	591654	592784	+
Rv0502	592791	593867	+
Rv0503c	594779	593871	-
Rv0504c	595302	594802	-
Rv0505c	596585	595464	-
Rv0506	596759	597202	+
Rv0507	597199	600105	+
Rv0508	600098	600391	+
Rv0509	600441	601847	+
Rv0510	601857	602786	+
Rv0511	602819	604516	+
Rv0512	604602	605591	+
Rv0513	605604	606152	+
Rv0514	606149	606448	+
Rv0515	606551	608062	+
Rv0516c	608535	608059	-
Rv0517	608746	610056	+
Rv0518	610188	610883	+
Rv0519c	612074	611172	-
Rv0520	612255	612605	+
Rv0521	612598	612903	+
Rv0522	613038	614342	+
Rv0523c	614721	614326	-
Rv0524	614835	616223	+
Rv0525	616223	616831	+
Rv0526	616846	617496	+
Rv0527	617493	618272	+
Rv0528	618305	619894	+
Rv0529	619891	620865	+
Rv0530	620907	622124	+
Rv0531	622329	622646	+
Rv0532	622793	624577	+
Rv0533c	625480	624473	-
Rv0534c	626440	625562	-
Rv0535	626457	627251	+
Rv0536	627248	628288	+
Rv0537c	629731	628298	-
Rv0538	630040	631686	+
Rv0539	631743	632375	+
Rv0540	632372	633034	+
Rv0541c	634404	633055	-
Rv0542c	635504	634416	-
Rv0543c	635875	635573	-
Rv0544c	636213	635935	-
Rv0545c	637463	636210	-
Rv0546c	637969	637583	-
Rv0547c	638916	638032	-
Rv0548c	639956	639012	-
Rv0549c	640641	640228	-
Rv0550c	640904	640638	-
Rv0551c	642811	641096	-
Rv0552	642889	644493	+
Rv0553	644490	645470	+
Rv0554	645467	646255	+
Rv0555	646298	647962	+
Rv0556	647959	648474	+
Rv0557	648536	649672	+
Rv0558	649689	650393	+
Rv0559c	650745	650407	-
Rv0560c	651504	650779	-
Rv0561c	652755	651529	-
Rv0562	652771	653778	+
Rv0563	653879	654739	+
Rv0564c	655949	654924	-
Rv0565c	657470	656010	-
Rv0566c	658039	657548	-
Rv0567	658321	659340	+
Rv0568	659450	660868	+
Rv0569	661003	661269	+
Rv0570	661295	663373	+
Rv0571c	664818	663487	-
Rv0572c	665383	665042	-
Rv0573c	667242	665851	-
Rv0574c	668394	667252	-
Rv0575c	669745	668579	-
Rv0576	669848	671152	+
Rv0577	671166	671951	+
Rv0578c	675916	671996	-
Rv0579	676238	676996	+
Rv0580c	677616	677125	-
Rv0581	677710	677925	+
Rv0582	677922	678329	+
Rv0583c	679075	678389	-
Rv0584	679229	681862	+
Rv0585c	684272	681885	-
Rv0586	684410	685132	+
Rv0587	685129	685926	+
Rv0588	685928	686815	+
Rv0589	686821	688035	+
Rv0590	688032	688859	+
Rv0590A	688808	689062	+
Rv0591	689059	690504	+
Rv0592	690501	692027	+
Rv0593	692024	693232	+
Rv0594	693237	694787	+
Rv0595c	695231	694839	-
Rv0596c	695485	695228	-
Rv0597c	696903	695668	-
Rv0598c	697567	697154	-
Rv0599c	697800	697564	-
Rv0600c	698410	697904	-
Rv0601c	698994	698524	-
Rv0602c	699799	699038	-
Rv0603	699856	700167	+
Rv0604	700239	701189	+
Rv0605	701406	702014	+
Rv0606	702016	702759	+
Rv0607	702813	703199	+
Rv0608	703244	703489	+
Rv0609	703486	703887	+
Rv0609A	703830	704057	+
Rv0610c	705909	704752	-
Rv0611c	706344	705961	-
Rv0612	706324	706929	+
Rv0613c	709515	706948	-
Rv0614	709356	710348	+
Rv0615	710345	710587	+
Rv0616c	710850	710584	-
Rv0617	711006	711407	+
Rv0618	711536	712231	+
Rv0620	712716	713807	+
Rv0621	714202	715266	+
Rv0622	715370	716317	+
Rv0623	716410	716664	+
Rv0624	716664	717059	+
Rv0625c	717893	717153	-
Rv0626	718025	718285	+
Rv0627	718282	718689	+
Rv0628c	719912	718761	-
Rv0629c	721732	720005	-
Rv0630c	725013	721729	-
Rv0631c	728306	725013	-
Rv0632c	729278	728583	-
Rv0633c	730166	729327	-
Rv0634c	731033	730320	-
Rv0634A	731113	731364	+
Rv0634B	731712	731879	+
Rv0635	731930	732406	+
Rv0636	732393	732821	+
Rv0637	732825	733325	+
Rv0638	733737	734222	+
Rv0639	734254	734970	+
Rv0640	735022	735450	+
Rv0641	735517	736224	+
Rv0642c	737203	736298	-
Rv0643c	738149	737268	-
Rv0644c	739160	738297	-
Rv0645c	740187	739327	-
Rv0646c	741139	740234	-
Rv0647c	742617	741151	-
Rv0648	742719	746366	+
Rv0649	746363	747037	+
Rv0650	747037	747945	+
Rv0651	748276	748812	+
Rv0652	748849	749241	+
Rv0653c	749929	749234	-
Rv0654	750000	751505	+
Rv0655	751517	752596	+
Rv0656c	753367	752984	-
Rv0657c	753617	753462	-
Rv0658c	754409	753693	-
Rv0659c	754993	754685	-
Rv0660c	755225	754980	-
Rv0661c	755772	755335	-
Rv0662c	756137	755769	-
Rv0663	756137	758500	+
Rv0664	758532	758804	+
Rv0665	758801	759139	+
Rv0666	759136	759309	+
Rv0667	759807	763325	+
Rv0668	763370	767320	+
Rv0669c	769597	767684	-
Rv0670	769792	770550	+
Rv0671	770582	771424	+
Rv0672	771484	773112	+
Rv0673	773123	774061	+
Rv0674	774064	774786	+
Rv0675	774783	775574	+
Rv0676c	778480	775586	-
Rv0677c	778905	778477	-
Rv0678	778990	779487	+
Rv0679c	780040	779543	-
Rv0680c	780416	780042	-
Rv0681	780721	781311	+
Rv0682	781560	781934	+
Rv0683	781934	782404	+
Rv0684	782485	784590	+
Rv0685	784821	786011	+
Rv0686	786149	786946	+
Rv0687	787099	787926	+
Rv0688	787940	789160	+
Rv0689c	789411	789157	-
Rv0690c	791073	790024	-
Rv0691c	791666	791070	-
Rv0692	791831	792160	+
Rv0693	792157	793332	+
Rv0694	793335	794525	+
Rv0695	794715	795470	+
Rv0696	795519	796931	+
Rv0697	796933	798372	+
Rv0698	798833	799444	+
Rv0699	799629	799850	+
Rv0700	800487	800792	+
Rv0701	800809	801462	+
Rv0702	801462	802133	+
Rv0703	802133	802435	+
Rv0704	802528	803370	+
Rv0705	803411	803692	+
Rv0706	803689	804282	+
Rv0707	804282	805106	+
Rv0708	805110	805526	+
Rv0709	805526	805759	+
Rv0710	805756	806166	+
Rv0711	806335	808698	+
Rv0712	808746	809645	+
Rv0713	809946	810887	+
Rv0714	811373	811741	+
Rv0715	811742	812059	+
Rv0716	812059	812622	+
Rv0717	812627	812812	+
Rv0718	812976	813374	+
Rv0719	813398	813937	+
Rv0720	813940	814308	+
Rv0721	814328	814990	+
Rv0722	814993	815190	+
Rv0723	815190	815630	+
Rv0724	815663	817534	+
Rv0725c	818444	817539	-
Rv0726c	819640	818537	-
Rv0727c	820499	819843	-
Rv0728c	821476	820496	-
Rv0729	821507	822853	+
Rv0730	822866	823594	+
Rv0731c	824639	823683	-
Rv0732	824800	826125	+
Rv0733	826122	826667	+
Rv0734	826670	827470	+
Rv0735	827543	828076	+
Rv0736	828140	828892	+
Rv0737	829207	829704	+
Rv0738	830062	830610	+
Rv0739	830855	831661	+
Rv0740	831776	832303	+
Rv0741	832534	832848	+
Rv0743c	834443	833886	-
Rv0744c	834946	834440	-
Rv0745	835154	835681	+
Rv0746	835701	838052	+
Rv0747	838451	840856	+
Rv0748	840947	841204	+
Rv0749	841228	841656	+
Rv0749A	841874	841737	-
Rv0750	842033	842278	+
Rv0751c	843231	842347	-
Rv0752c	844414	843242	-
Rv0753c	845953	844421	-
Rv0754	846159	847913	+
Rv0755c	850040	848103	-
Rv0755A	850527	850342	-
Rv0756c	851466	850741	-
Rv0757	851608	852351	+
Rv0758	852396	853853	+
Rv0759c	854157	853825	-
Rv0760c	854686	854267	-
Rv0761c	855826	854699	-
Rv0762c	856470	855925	-
Rv0763c	856679	856473	-
Rv0764c	858037	856682	-
Rv0765c	858864	858037	-
Rv0766c	860072	858864	-
Rv0767c	860710	860069	-
Rv0768	860912	862381	+
Rv0769	862412	863158	+
Rv0770	863256	864143	+
Rv0771	864140	864574	+
Rv0772	864586	865854	+
Rv0773c	867389	865851	-
Rv0774c	868351	867440	-
Rv0775	868407	869030	+
Rv0776c	869763	868984	-
Rv0777	870008	871426	+
Rv0778	871431	872675	+
Rv0779c	873292	872672	-
Rv0780	873343	874236	+
Rv0781	874233	874943	+
Rv0782	874732	876390	+
Rv0783c	878440	876818	-
Rv0784	878638	879324	+
Rv0785	879340	881040	+
Rv0786c	881464	881075	-
Rv0787	881459	882418	+
Rv0787A	882524	882763	+
Rv0788	882760	883434	+
Rv0789c	884050	883451	-
Rv0790c	884800	884072	-
Rv0791c	885840	884797	-
Rv0792c	886646	885837	-
Rv0793	886719	887024	+
Rv0794c	888636	887137	-
Rv0795	889072	889398	+
Rv0797	890388	891482	+
Rv0798c	892269	891472	-
Rv0799c	893273	892266	-
Rv0800	893318	894619	+
Rv0801	894631	894978	+
Rv0802c	895628	894972	-
Rv0803	895820	898084	+
Rv0804	898081	898710	+
Rv0805	898831	899787	+
Rv0806c	901330	899732	-
Rv0807	901635	902024	+
Rv0808	902111	903694	+
Rv0809	903725	904819	+
Rv0810c	905087	904905	-
Rv0811c	906340	905234	-
Rv0812	906423	907292	+
Rv0813c	908018	907338	-
Rv0814c	908483	908181	-
Rv0815c	909318	908485	-
Rv0816c	910033	909611	-
Rv0817c	910842	910030	-
Rv0818	910972	911739	+
Rv0819	911736	912683	+
Rv0820	912726	913502	+
Rv0821c	914199	913558	-
Rv0822c	916311	914257	-
Rv0823c	917646	916477	-
Rv0824c	918750	917734	-
Rv0825c	919553	918912	-
Rv0826	919634	920689	+
Rv0827c	921133	920741	-
Rv0828c	921613	921191	-
Rv0829	921575	921865	+
Rv0830	921970	922875	+
Rv0831c	923709	922894	-
Rv0832	924951	925364	+
Rv0833	925361	927610	+
Rv0834c	930485	927837	-
Rv0835	930953	931597	+
Rv0836c	932932	932279	-
Rv0837c	934031	933003	-
Rv0838	934720	935490	+
Rv0839	935577	936389	+
Rv0840c	937317	936457	-
Rv0841	937593	937835	+
Rv0842	938112	939404	+
Rv0843	939388	940392	+
Rv0844c	941106	940456	-
Rv0845	941190	942467	+
Rv0846c	944194	942680	-
Rv0847	944343	944735	+
Rv0848	944938	946056	+
Rv0849	946056	947315	+
Rv0850	947312	947644	+
Rv0851c	948468	947641	-
Rv0852	948559	949395	+
Rv0853c	951118	949436	-
Rv0854	951183	951626	+
Rv0855	951632	952711	+
Rv0856	952825	953229	+
Rv0857	953257	953730	+
Rv0858c	954920	953727	-
Rv0859	955077	956288	+
Rv0860	956293	958455	+
Rv0861c	960151	958523	-
Rv0862c	962612	960342	-
Rv0863	962599	962880	+
Rv0864	962890	963393	+
Rv0865	963390	963872	+
Rv0866	963869	964294	+
Rv0867c	965535	964312	-
Rv0868c	966261	965983	-
Rv0869c	967347	966265	-
Rv0870c	967733	967344	-
Rv0871	967898	968305	+
Rv0872c	970244	968424	-
Rv0873	970505	972457	+
Rv0874c	973706	972546	-
Rv0875c	974294	973806	-
Rv0876c	975937	974291	-
Rv0877	976075	976863	+
Rv0878c	978203	976872	-
Rv0879c	978756	978481	-
Rv0880	978934	979365	+
Rv0881	979362	980228	+
Rv0882	980225	980509	+
Rv0883c	981267	980506	-
Rv0884c	982554	981424	-
Rv0885	982762	983784	+
Rv0886	983803	985530	+
Rv0887c	985971	985513	-
Rv0888	987233	988705	+
Rv0889c	989861	988740	-
Rv0890c	992596	989948	-
Rv0891c	993455	992598	-
Rv0892	993853	995340	+
Rv0893c	996295	995318	-
Rv0894	996524	997705	+
Rv0895	997782	999299	+
Rv0896	999472	1000767	+
Rv0897c	1002415	1000808	-
Rv0898c	1002704	1002441	-
Rv0899	1002812	1003792	+
Rv0900	1003805	1003957	+
Rv0901	1003957	1004484	+
Rv0902c	1005841	1004501	-
Rv0903c	1006562	1005852	-
Rv0904c	1008180	1006693	-
Rv0905	1008207	1008938	+
Rv0906	1008944	1010062	+
Rv0907	1010136	1011734	+
Rv0908	1011731	1014124	+
Rv0909	1014681	1014860	+
Rv0910	1014866	1015300	+
Rv0911	1015398	1016171	+
Rv0912	1016236	1016685	+
Rv0913c	1018725	1017217	-
Rv0914c	1019965	1018727	-
Rv0915c	1021329	1020058	-
Rv0916c	1021643	1021344	-
Rv0917	1022087	1023868	+
Rv0918	1024211	1024687	+
Rv0919	1024684	1025184	+
Rv0920c	1026816	1025497	-
Rv0921	1027104	1027685	+
Rv0922	1027685	1029337	+
Rv0923c	1030577	1029513	-
Rv0924c	1031864	1030578	-
Rv0925c	1032633	1031896	-
Rv0926c	1033786	1032710	-
Rv0927c	1034631	1033840	-
Rv0928	1034903	1036015	+
Rv0929	1036028	1037002	+
Rv0930	1036999	1037925	+
Rv0931c	1039914	1037920	-
Rv0932c	1041048	1039936	-
Rv0933	1041264	1042094	+
Rv0934	1042115	1043239	+
Rv0935	1043299	1044315	+
Rv0936	1044317	1045222	+
Rv0937c	1046020	1045199	-
Rv0938	1046136	1048415	+
Rv0939	1048412	1050346	+
Rv0940c	1051459	1050593	-
Rv0941c	1052317	1051544	-
Rv0942	1052360	1052638	+
Rv0943c	1053736	1052696	-
Rv0944	1053765	1054241	+
Rv0945	1054247	1055008	+
Rv0946c	1056685	1055024	-
Rv0948c	1057963	1057646	-
Rv0949	1058260	1060575	+
Rv0950c	1061654	1060656	-
Rv0951	1061964	1063127	+
Rv0952	1063140	1064051	+
Rv0953c	1064962	1064114	-
Rv0954	1065127	1066038	+
Rv0955	1066078	1067445	+
Rv0956	1067561	1068208	+
Rv0957	1068205	1069776	+
Rv0958	1069883	1071262	+
Rv0959	1071255	1073273	+
Rv0960	1073545	1073928	+
Rv0961	1074074	1074421	+
Rv0962c	1075114	1074440	-
Rv0963c	1076097	1075297	-
Rv0964c	1076678	1076196	-
Rv0965c	1077197	1076778	-
Rv0966c	1077835	1077233	-
Rv0967	1077975	1078334	+
Rv0968	1078391	1078687	+
Rv0969	1078743	1081055	+
Rv0970	1081052	1081684	+
Rv0971c	1082584	1081775	-
Rv0972c	1083750	1082584	-
Rv0973c	1085750	1083747	-
Rv0974c	1087345	1085756	-
Rv0975c	1088496	1087348	-
Rv0976c	1090175	1088493	-
Rv0977	1090373	1093144	+
Rv0978c	1094356	1093361	-
Rv0979c	1094864	1094670	-
Rv0979A	1094886	1095059	+
Rv0980c	1096451	1095078	-
Rv0981	1096816	1097508	+
Rv0982	1097508	1099022	+
Rv0983	1099066	1100460	+
Rv0984	1100460	1101005	+
Rv0985c	1101480	1101025	-
Rv0986	1101803	1102549	+
Rv0987	1102542	1105109	+
Rv0988	1105116	1106276	+
Rv0989c	1107382	1106405	-
Rv0990c	1108099	1107443	-
Rv0991c	1108504	1108172	-
Rv0992c	1109171	1108578	-
Rv0993	1109272	1110192	+
Rv0994	1110269	1111549	+
Rv0995	1111612	1112223	+
Rv0996	1112384	1113460	+
Rv0997	1114293	1114724	+
Rv0998	1114748	1115749	+
Rv0999	1115767	1116525	+
Rv1000c	1117148	1116531	-
Rv1001	1117185	1118393	+
Rv1002c	1119939	1118428	-
Rv1003	1120022	1120879	+
Rv1004c	1122148	1120889	-
Rv1005c	1123598	1122222	-
Rv1006	1123714	1125417	+
Rv1007c	1127003	1125444	-
Rv1008	1127089	1127883	+
Rv1009	1128091	1129179	+
Rv1010	1129152	1130105	+
Rv1011	1130191	1131111	+
Rv1012	1131128	1131421	+
Rv1013	1131625	1133259	+
Rv1014c	1133908	1133333	-
Rv1015c	1134568	1133921	-
Rv1016c	1135465	1134785	-
Rv1017c	1136481	1135501	-
Rv1018c	1138060	1136573	-
Rv1019	1138315	1138908	+
Rv1020	1138967	1142671	+
Rv1021	1142671	1143648	+
Rv1022	1143736	1144467	+
Rv1023	1144564	1145853	+
Rv1024	1145858	1146544	+
Rv1025	1146561	1147028	+
Rv1026	1147019	1147978	+
Rv1027c	1149107	1148427	-
Rv1028c	1151686	1149104	-
Rv1028A	1151920	1152012	+
Rv1029	1152012	1153727	+
Rv1030	1153724	1155853	+
Rv1031	1155853	1156422	+
Rv1032c	1157955	1156426	-
Rv1033c	1158736	1157963	-
Rv1034c	1159307	1158918	-
Rv1035c	1160061	1159375	-
Rv1036c	1160433	1160095	-
Rv1037c	1160828	1160544	-
Rv1038c	1161151	1160855	-
Rv1039c	1162472	1161297	-
Rv1040c	1163376	1162549	-
Rv1041c	1165435	1164572	-
Rv1042c	1165499	1165092	-
Rv1043c	1166806	1165781	-
Rv1044	1167053	1167676	+
Rv1045	1167673	1168554	+
Rv1046c	1169228	1168704	-
Rv1047	1169423	1170670	+
Rv1048c	1172153	1171038	-
Rv1049	1172386	1172832	+
Rv1050	1172881	1173786	+
Rv1051c	1174700	1173945	-
Rv1052	1175723	1176112	+
Rv1053c	1176286	1176011	-
Rv1054	1176928	1177242	+
Rv1055	1177239	1177373	+
Rv1056	1177628	1178392	+
Rv1057	1179396	1180577	+
Rv1058	1180684	1182315	+
Rv1059	1182391	1183455	+
Rv1060	1183508	1183981	+
Rv1061	1184015	1184878	+
Rv1062	1184883	1185740	+
Rv1063c	1186823	1185741	-
Rv1064c	1187323	1186904	-
Rv1065	1187435	1188001	+
Rv1066	1187998	1188393	+
Rv1067c	1190424	1188421	-
Rv1068c	1192148	1190757	-
Rv1069c	1194273	1192510	-
Rv1070c	1195043	1194270	-
Rv1071c	1196092	1195055	-
Rv1072	1196279	1197115	+
Rv1073	1197231	1198082	+
Rv1074c	1199373	1198156	-
Rv1075c	1200370	1199426	-
Rv1076	1200767	1201660	+
Rv1077	1201717	1203111	+
Rv1078	1203313	1204035	+
Rv1079	1204067	1205233	+
Rv1080c	1205798	1205304	-
Rv1081c	1206418	1205984	-
Rv1082	1206520	1207386	+
Rv1083	1207383	1207649	+
Rv1084	1207636	1209657	+
Rv1085c	1210484	1209756	-
Rv1086	1210595	1211383	+
Rv1087	1211560	1213863	+
Rv1087A	1214040	1214360	+
Rv1088	1214513	1214947	+
Rv1089A	1215517	1215621	+
Rv1090	1215599	1216054	+
Rv1091	1216469	1219030	+
Rv1092c	1220186	1219248	-
Rv1093	1220574	1221854	+
Rv1094	1221959	1222786	+
Rv1095	1222997	1224298	+
Rv1096	1224385	1225260	+
Rv1097c	1226144	1225263	-
Rv1098c	1227565	1226141	-
Rv1099c	1228582	1227596	-
Rv1100	1228683	1229384	+
Rv1101c	1230548	1229391	-
Rv1102c	1230971	1230660	-
Rv1103c	1231291	1230971	-
Rv1104	1231301	1231990	+
Rv1105	1232311	1232826	+
Rv1106c	1233956	1232844	-
Rv1107c	1234223	1233966	-
Rv1108c	1235460	1234213	-
Rv1109c	1236095	1235457	-
Rv1110	1236185	1237192	+
Rv1111c	1238192	1237209	-
Rv1112	1238255	1239328	+
Rv1113	1239416	1239613	+
Rv1114	1239610	1239984	+
Rv1115	1240187	1240885	+
Rv1116	1241003	1241188	+
Rv1116A	1241390	1241115	-
Rv1117	1241633	1241956	+
Rv1118c	1242831	1241971	-
Rv1119c	1243013	1242864	-
Rv1120c	1243504	1243010	-
Rv1121	1243707	1245107	+
Rv1122	1245129	1246151	+
Rv1123c	1247052	1246144	-
Rv1124	1247127	1248077	+
Rv1125	1248082	1249326	+
Rv1126c	1249935	1249330	-
Rv1127c	1251404	1249932	-
Rv1128c	1252972	1251617	-
Rv1129c	1254534	1253074	-
Rv1130	1254555	1256135	+
Rv1131	1256132	1257313	+
Rv1132	1257325	1259055	+
Rv1133c	1261346	1259067	-
Rv1134	1261922	1262158	+
Rv1135c	1264128	1262272	-
Rv1135A	1264314	1264556	+
Rv1136	1264606	1264947	+
Rv1137c	1265455	1265087	-
Rv1138c	1266488	1265472	-
Rv1139c	1266985	1266485	-
Rv1140	1267347	1268195	+
Rv1141c	1269009	1268203	-
Rv1142c	1269958	1269152	-
Rv1143	1270062	1271144	+
Rv1144	1271156	1271908	+
Rv1145	1272423	1273334	+
Rv1146	1273355	1274767	+
Rv1147	1274900	1275550	+
Rv1148c	1277748	1276300	-
Rv1149	1277893	1278300	+
Rv1151c	1279617	1278904	-
Rv1152	1279655	1280020	+
Rv1153c	1280846	1279998	-
Rv1154c	1281484	1280843	-
Rv1155	1281429	1281872	+
Rv1156	1282306	1282893	+
Rv1157c	1284171	1283056	-
Rv1158c	1284862	1284179	-
Rv1159	1284992	1286287	+
Rv1159A	1286568	1286284	-
Rv1160	1286595	1287020	+
Rv1161	1287328	1291026	+
Rv1162	1291065	1292741	+
Rv1163	1292798	1293403	+
Rv1164	1293406	1294146	+
Rv1165	1294168	1296054	+
Rv1166	1296152	1298059	+
Rv1167c	1298692	1298087	-
Rv1168c	1299804	1298764	-
Rv1169c	1300124	1299822	-
Rv1170	1300304	1301215	+
Rv1171	1301307	1301747	+
Rv1172c	1302681	1301755	-
Rv1173	1302931	1305501	+
Rv1174c	1306001	1305669	-
Rv1175c	1308226	1306202	-
Rv1176c	1308792	1308223	-
Rv1177	1309005	1309331	+
Rv1178	1309364	1310452	+
Rv1179c	1313299	1310480	-
Rv1180	1313725	1315191	+
Rv1181	1315234	1319982	+
Rv1182	1320035	1321453	+
Rv1183	1321520	1324528	+
Rv1184c	1325611	1324532	-
Rv1185c	1327512	1325776	-
Rv1186c	1329305	1327689	-
Rv1187	1329390	1331021	+
Rv1188	1331021	1332010	+
Rv1189	1332092	1332964	+
Rv1190	1332980	1333858	+
Rv1191	1333931	1334845	+
Rv1192	1334927	1335754	+
Rv1193	1335794	1337215	+
Rv1194c	1338513	1337248	-
Rv1195	1339003	1339302	+
Rv1196	1339349	1340524	+
Rv1197	1340659	1340955	+
Rv1198	1341006	1341290	+
Rv1199c	1342605	1341358	-
Rv1200	1342942	1344219	+
Rv1201c	1345169	1344216	-
Rv1202	1345260	1346324	+
Rv1203c	1346905	1346321	-
Rv1204c	1348624	1346936	-
Rv1205	1348719	1349282	+
Rv1206	1349332	1351125	+
Rv1207	1351191	1352147	+
Rv1208	1352144	1353118	+
Rv1209	1353157	1353525	+
Rv1210	1353522	1354136	+
Rv1211	1354243	1354470	+
Rv1212c	1355661	1354498	-
Rv1213	1355836	1357050	+
Rv1214c	1357625	1357293	-
Rv1215c	1359444	1357759	-
Rv1216c	1360146	1359472	-
Rv1217c	1361801	1360155	-
Rv1218c	1362733	1361798	-
Rv1219c	1363361	1362723	-
Rv1220c	1364150	1363503	-
Rv1221	1364413	1365186	+
Rv1222	1365344	1365808	+
Rv1223	1365875	1367461	+
Rv1224	1367463	1367858	+
Rv1225c	1368721	1367891	-
Rv1226c	1370295	1368832	-
Rv1227c	1370825	1370292	-
Rv1228	1370920	1371477	+
Rv1229c	1372949	1371777	-
Rv1230c	1374197	1372962	-
Rv1231c	1374864	1374322	-
Rv1232c	1376168	1374861	-
Rv1233c	1376826	1376230	-
Rv1234	1376976	1377503	+
Rv1235	1377524	1378930	+
Rv1236	1378927	1379850	+
Rv1237	1379855	1380679	+
Rv1238	1380684	1381865	+
Rv1239c	1383042	1381942	-
Rv1240	1383213	1384202	+
Rv1241	1384278	1384538	+
Rv1242	1384535	1384966	+
Rv1243c	1386677	1384989	-
Rv1244	1386857	1387717	+
Rv1245c	1388628	1387798	-
Rv1246c	1388978	1388685	-
Rv1247c	1389244	1388975	-
Rv1248c	1393052	1389357	-
Rv1249c	1393982	1393194	-
Rv1250	1394179	1395918	+
Rv1251c	1399240	1395821	-
Rv1252c	1399904	1399296	-
Rv1253	1399970	1401661	+
Rv1254	1401658	1402809	+
Rv1255c	1403386	1402778	-
Rv1256c	1404603	1403386	-
Rv1257c	1406084	1404717	-
Rv1258c	1407340	1406081	-
Rv1259	1407339	1408238	+
Rv1260	1408240	1409358	+
Rv1261c	1409933	1409484	-
Rv1262c	1410372	1409938	-
Rv1263	1410431	1411819	+
Rv1264	1411894	1413087	+
Rv1265	1413260	1413940	+
Rv1266c	1415840	1413960	-
Rv1267c	1417347	1416181	-
Rv1268c	1418356	1417658	-
Rv1269c	1418953	1418579	-
Rv1270c	1419748	1419014	-
Rv1271c	1420302	1419961	-
Rv1272c	1422305	1420410	-
Rv1273c	1424050	1422302	-
Rv1274	1424197	1424754	+
Rv1275	1424751	1425293	+
Rv1276c	1425914	1425438	-
Rv1277	1426164	1427417	+
Rv1278	1427414	1430041	+
Rv1279	1430062	1431648	+
Rv1280c	1433440	1431665	-
Rv1281c	1435271	1433433	-
Rv1282c	1436143	1435268	-
Rv1283c	1437117	1436140	-
Rv1284	1437324	1437815	+
Rv1285	1437909	1438907	+
Rv1286	1438907	1440751	+
Rv1287	1440805	1441290	+
Rv1288	1441348	1442718	+
Rv1289	1442767	1443399	+
Rv1290c	1445047	1443482	-
Rv1290A	1445058	1445372	+
Rv1291c	1445834	1445499	-
Rv1292	1446379	1448031	+
Rv1293	1448028	1449371	+
Rv1294	1449375	1450700	+
Rv1295	1450697	1451779	+
Rv1296	1451997	1452947	+
Rv1297	1453204	1455012	+
Rv1298	1455163	1455405	+
Rv1299	1455495	1456568	+
Rv1300	1456565	1457542	+
Rv1301	1457558	1458211	+
Rv1302	1458295	1459509	+
Rv1303	1459766	1460251	+
Rv1304	1460244	1460996	+
Rv1305	1461045	1461290	+
Rv1306	1461321	1461836	+
Rv1307	1461843	1463183	+
Rv1308	1463228	1464877	+
Rv1309	1464884	1465801	+
Rv1310	1465841	1467301	+
Rv1311	1467315	1467680	+
Rv1312	1467688	1468131	+
Rv1313c	1469505	1468171	-
Rv1314c	1470252	1469671	-
Rv1315	1470321	1471577	+
Rv1316c	1477631	1477134	-
Rv1317c	1479118	1477628	-
Rv1318c	1480824	1479199	-
Rv1319c	1482501	1480894	-
Rv1320c	1484217	1482514	-
Rv1321	1484279	1484959	+
Rv1322	1484982	1485278	+
Rv1322A	1485771	1485313	-
Rv1323	1485862	1487031	+
Rv1324	1487161	1488075	+
Rv1325c	1489965	1488154	-
Rv1326c	1492312	1490117	-
Rv1327c	1494425	1492320	-
Rv1328	1494564	1497155	+
Rv1329c	1499189	1497195	-
Rv1330c	1500559	1499213	-
Rv1331	1500661	1500966	+
Rv1332	1500926	1501582	+
Rv1333	1501599	1502633	+
Rv1334	1502641	1503081	+
Rv1335	1503103	1503384	+
Rv1336	1503394	1504365	+
Rv1337	1504356	1505078	+
Rv1338	1505075	1505890	+
Rv1339	1505917	1506738	+
Rv1340	1506755	1507534	+
Rv1341	1507573	1508187	+
Rv1342c	1508546	1508184	-
Rv1343c	1508923	1508543	-
Rv1344	1508968	1509288	+
Rv1345	1509281	1510846	+
Rv1346	1510846	1512006	+
Rv1347c	1512605	1511973	-
Rv1348	1513047	1515626	+
Rv1349	1515623	1517362	+
Rv1350	1517491	1518234	+
Rv1351	1518231	1518560	+
Rv1352	1518763	1519134	+
Rv1353c	1519985	1519200	-
Rv1354c	1521876	1520005	-
Rv1355c	1524032	1521885	-
Rv1356c	1524820	1524029	-
Rv1357c	1526216	1525293	-
Rv1358	1526612	1530091	+
Rv1359	1530173	1530925	+
Rv1360	1531348	1532370	+
Rv1361c	1533633	1532443	-
Rv1362c	1534610	1533948	-
Rv1363c	1535392	1534607	-
Rv1364c	1537644	1535683	-
Rv1365c	1538169	1537783	-
Rv1366	1538390	1539211	+
Rv1367c	1540645	1539512	-
Rv1368	1541020	1541805	+
Rv1369c	1542878	1541994	-
Rv1370c	1543255	1542929	-
Rv1371	1543359	1544828	+
Rv1372	1544825	1546006	+
Rv1373	1546012	1546992	+
Rv1374c	1547530	1547072	-
Rv1375	1547832	1549151	+
Rv1376	1549148	1550641	+
Rv1377c	1551217	1550579	-
Rv1378c	1552655	1551228	-
Rv1379	1552654	1553235	+
Rv1380	1553232	1554191	+
Rv1381	1554188	1555480	+
Rv1382	1555477	1555974	+
Rv1383	1555971	1557101	+
Rv1384	1557101	1560448	+
Rv1385	1560445	1561269	+
Rv1386	1561464	1561772	+
Rv1387	1561769	1563388	+
Rv1388	1563694	1564266	+
Rv1389	1564401	1565027	+
Rv1390	1565093	1565425	+
Rv1391	1565441	1566697	+
Rv1392	1566825	1568036	+
Rv1393c	1569587	1568109	-
Rv1394c	1570969	1569584	-
Rv1395	1571047	1572081	+
Rv1396c	1573857	1572127	-
Rv1397c	1574513	1574112	-
Rv1398c	1574767	1574510	-
Rv1399c	1575809	1574850	-
Rv1400c	1576796	1575834	-
Rv1401	1576930	1577532	+
Rv1402	1577613	1579580	+
Rv1403c	1580422	1579598	-
Rv1404	1580591	1581073	+
Rv1405c	1581969	1581145	-
Rv1406	1582166	1583104	+
Rv1407	1583101	1584474	+
Rv1408	1584499	1585197	+
Rv1409	1585194	1586213	+
Rv1410c	1587766	1586210	-
Rv1411c	1588482	1587772	-
Rv1412	1588567	1589172	+
Rv1413	1589386	1589901	+
Rv1414	1589891	1590292	+
Rv1415	1590397	1591674	+
Rv1416	1591689	1592153	+
Rv1417	1592150	1592614	+
Rv1418	1592639	1593325	+
Rv1419	1593505	1593978	+
Rv1420	1594042	1595982	+
Rv1421	1595979	1596884	+
Rv1422	1596881	1597909	+
Rv1423	1597906	1598883	+
Rv1424c	1599654	1598893	-
Rv1425	1599658	1601037	+
Rv1426c	1602321	1601059	-
Rv1427c	1603928	1602321	-
Rv1428c	1604759	1603932	-
Rv1429	1604878	1606146	+
Rv1430	1606386	1607972	+
Rv1431	1608083	1609852	+
Rv1432	1609849	1611270	+
Rv1433	1611434	1612249	+
Rv1434	1612256	1612393	+
Rv1435c	1612950	1612342	-
Rv1436	1613307	1614326	+
Rv1437	1614329	1615567	+
Rv1438	1615564	1616349	+
Rv1439c	1617386	1616961	-
Rv1440	1617837	1618070	+
Rv1441c	1619684	1618209	-
Rv1442	1619791	1622091	+
Rv1443c	1622692	1622207	-
Rv1444c	1623697	1623287	-
Rv1445c	1624457	1623714	-
Rv1446c	1625365	1624454	-
Rv1447c	1626962	1625418	-
Rv1448c	1628080	1626959	-
Rv1449c	1630199	1628097	-
Rv1450c	1634627	1630638	-
Rv1451	1635029	1635955	+
Rv1452c	1638229	1636004	-
Rv1453	1638381	1639646	+
Rv1454c	1640660	1639674	-
Rv1455	1640680	1641543	+
Rv1456c	1642425	1641493	-
Rv1457c	1643322	1642537	-
Rv1458c	1644260	1643319	-
Rv1459c	1646138	1644363	-
Rv1460	1646186	1646992	+
Rv1461	1646989	1649529	+
Rv1462	1649526	1650719	+
Rv1463	1650716	1651516	+
Rv1464	1651518	1652771	+
Rv1465	1652768	1653256	+
Rv1466	1653231	1653578	+
Rv1467c	1655502	1653673	-
Rv1468c	1656721	1655609	-
Rv1469	1656963	1658936	+
Rv1470	1658980	1659354	+
Rv1471	1659370	1659741	+
Rv1472	1659763	1660620	+
Rv1473	1660656	1662284	+
Rv1473A	1662381	1662572	+
Rv1474c	1663204	1662641	-
Rv1475c	1666046	1663215	-
Rv1476	1666204	1666764	+
Rv1477	1666990	1668408	+
Rv1478	1668419	1669144	+
Rv1479	1669283	1670416	+
Rv1480	1670413	1671366	+
Rv1481	1671377	1672384	+
Rv1482c	1673299	1672457	-
Rv1483	1673440	1674183	+
Rv1484	1674202	1675011	+
Rv1485	1675017	1676051	+
Rv1486c	1676883	1676017	-
Rv1487	1676941	1677375	+
Rv1488	1677397	1678542	+
Rv1489	1678552	1678908	+
Rv1489A	1678942	1679172	+
Rv1490	1679322	1680629	+
Rv1491c	1681966	1681208	-
Rv1492	1682157	1684004	+
Rv1493	1684005	1686257	+
Rv1494	1686271	1686573	+
Rv1495	1686570	1686887	+
Rv1496	1686884	1687888	+
Rv1497	1687941	1689230	+
Rv1498c	1689920	1689303	-
Rv1498A	1690346	1690134	-
Rv1499	1690407	1690805	+
Rv1500	1690850	1691878	+
Rv1501	1691890	1692711	+
Rv1502	1692924	1693823	+
Rv1504c	1695144	1694545	-
Rv1505c	1695946	1695281	-
Rv1506c	1696443	1695943	-
Rv1507c	1697422	1696727	-
Rv1507A	1697356	1697859	+
Rv1508c	1699894	1698095	-
Rv1508A	1699866	1700228	+
Rv1509	1700212	1701093	+
Rv1510	1701295	1702593	+
Rv1511	1703074	1704096	+
Rv1512	1704093	1705061	+
Rv1513	1705058	1705789	+
Rv1514c	1706595	1705807	-
Rv1515c	1707526	1706630	-
Rv1516c	1708539	1707529	-
Rv1517	1708871	1709635	+
Rv1518	1709644	1710603	+
Rv1519	1710733	1711002	+
Rv1520	1711028	1712068	+
Rv1521	1712302	1714053	+
Rv1522c	1717612	1714172	-
Rv1523	1717653	1718696	+
Rv1524	1718726	1719970	+
Rv1525	1720017	1720802	+
Rv1526c	1722060	1720780	-
Rv1527c	1728409	1722083	-
Rv1528c	1729450	1728953	-
Rv1529	1729502	1731256	+
Rv1530	1731373	1732476	+
Rv1531	1732473	1733039	+
Rv1532c	1733550	1733116	-
Rv1533	1733610	1734737	+
Rv1534	1734734	1735411	+
Rv1535	1735976	1736212	+
Rv1536	1736519	1739644	+
Rv1537	1739841	1741247	+
Rv1538c	1742192	1741212	-
Rv1539	1742244	1742852	+
Rv1540	1742845	1743771	+
Rv1541c	1744371	1743778	-
Rv1542c	1744836	1744426	-
Rv1543	1745064	1746089	+
Rv1544	1746094	1746897	+
Rv1545	1746919	1747146	+
Rv1546	1747195	1747626	+
Rv1547	1747694	1751248	+
Rv1548c	1753333	1751297	-
Rv1549	1753510	1754037	+
Rv1550	1753716	1755431	+
Rv1551	1755445	1757310	+
Rv1552	1757681	1759432	+
Rv1553	1759435	1760178	+
Rv1554	1760175	1760555	+
Rv1555	1760552	1760929	+
Rv1556	1760997	1761605	+
Rv1557	1761744	1762937	+
Rv1558	1762947	1763393	+
Rv1559	1763428	1764717	+
Rv1560	1764755	1764973	+
Rv1561	1764979	1765383	+
Rv1562c	1767142	1765400	-
Rv1563c	1769432	1767135	-
Rv1564c	1771601	1769436	-
Rv1565c	1773829	1771640	-
Rv1566c	1774620	1773928	-
Rv1567c	1775144	1774860	-
Rv1568	1775392	1776705	+
Rv1569	1776702	1777862	+
Rv1570	1777859	1778539	+
Rv1571	1778539	1779048	+
Rv1572c	1779298	1779194	-
Rv1573	1779314	1779724	+
Rv1574	1779930	1780241	+
Rv1575	1780199	1780699	+
Rv1576c	1782064	1780643	-
Rv1577c	1782584	1782072	-
Rv1578c	1783228	1782758	-
Rv1579c	1783623	1783309	-
Rv1580c	1783892	1783620	-
Rv1581c	1784301	1783906	-
Rv1582c	1785912	1784497	-
Rv1583c	1786310	1785912	-
Rv1584c	1786528	1786307	-
Rv1585c	1787099	1786584	-
Rv1586c	1788505	1787096	-
Rv1587c	1789163	1788162	-
Rv1588c	1789836	1789168	-
Rv1589	1790284	1791333	+
Rv1590	1791334	1791573	+
Rv1591	1791570	1792235	+
Rv1592c	1793740	1792400	-
Rv1593c	1794707	1793997	-
Rv1594	1794756	1795805	+
Rv1595	1795805	1797388	+
Rv1596	1797388	1798245	+
Rv1597	1798294	1799052	+
Rv1598c	1799483	1799073	-
Rv1599	1799583	1800899	+
Rv1600	1800896	1802038	+
Rv1601	1802035	1802667	+
Rv1602	1802664	1803284	+
Rv1603	1803294	1804031	+
Rv1604	1804039	1804851	+
Rv1605	1804853	1805656	+
Rv1606	1805653	1806000	+
Rv1607	1806181	1807263	+
Rv1608c	1807762	1807298	-
Rv1609	1807903	1809453	+
Rv1610	1809443	1810150	+
Rv1611	1810240	1811058	+
Rv1612	1811127	1812359	+
Rv1613	1812359	1813171	+
Rv1614	1813171	1814577	+
Rv1615	1815253	1815693	+
Rv1616	1815683	1816081	+
Rv1617	1816189	1817607	+
Rv1618	1817615	1818517	+
Rv1619	1818575	1820029	+
Rv1620c	1821693	1819963	-
Rv1621c	1823273	1821690	-
Rv1622c	1824400	1823360	-
Rv1623c	1825887	1824430	-
Rv1624c	1826585	1825998	-
Rv1625c	1827945	1826614	-
Rv1626	1828180	1828797	+
Rv1627c	1830073	1828865	-
Rv1628c	1830561	1830070	-
Rv1629	1830665	1833379	+
Rv1630	1833542	1834987	+
Rv1631	1835013	1836236	+
Rv1632c	1836830	1836387	-
Rv1633	1837075	1839171	+
Rv1634	1839168	1840583	+
Rv1635c	1842242	1840572	-
Rv1636	1842451	1842891	+
Rv1637c	1843692	1842898	-
Rv1638	1843741	1846659	+
Rv1638A	1846973	1846716	-
Rv1639c	1848458	1846989	-
Rv1640c	1852035	1848517	-
Rv1642	1852928	1853122	+
Rv1643	1853184	1853573	+
Rv1644	1853606	1854388	+
Rv1645c	1855454	1854399	-
Rv1646	1855764	1856696	+
Rv1647	1856774	1857724	+
Rv1648	1857731	1858537	+
Rv1649	1858733	1859758	+
Rv1650	1859758	1862253	+
Rv1651c	1865382	1862347	-
Rv1652	1865576	1866634	+
Rv1653	1866631	1867845	+
Rv1654	1867842	1868726	+
Rv1655	1868723	1869925	+
Rv1656	1869922	1870845	+
Rv1657	1870842	1871354	+
Rv1658	1871363	1872559	+
Rv1659	1872639	1874051	+
Rv1660	1874160	1875221	+
Rv1661	1875304	1881684	+
Rv1662	1881704	1886512	+
Rv1663	1886512	1888020	+
Rv1664	1888026	1891079	+
Rv1665	1891226	1892287	+
Rv1666c	1893562	1892270	-
Rv1667c	1894230	1893577	-
Rv1668c	1895342	1894224	-
Rv1669	1895725	1896087	+
Rv1670	1896120	1896467	+
Rv1671	1896475	1896867	+
Rv1672c	1898207	1896876	-
Rv1673c	1899232	1898300	-
Rv1674c	1899916	1899260	-
Rv1675c	1900975	1900241	-
Rv1676	1901047	1901751	+
Rv1677	1901748	1902296	+
Rv1678	1902397	1903299	+
Rv1679	1903299	1904420	+
Rv1680	1904429	1905253	+
Rv1681	1905250	1906242	+
Rv1682	1906403	1907320	+
Rv1683	1907594	1910593	+
Rv1684	1910586	1910810	+
Rv1685c	1911399	1910776	-
Rv1686c	1912081	1911401	-
Rv1687c	1912920	1912153	-
Rv1688	1912979	1913590	+
Rv1689	1913602	1914876	+
Rv1690	1915527	1915910	+
Rv1691	1915949	1916701	+
Rv1692	1916698	1917759	+
Rv1693	1917756	1917932	+
Rv1694	1917940	1918746	+
Rv1695	1918746	1919669	+
Rv1696	1919683	1921446	+
Rv1697	1921542	1922723	+
Rv1698	1922745	1923689	+
Rv1699	1923829	1925589	+
Rv1700	1925582	1926205	+
Rv1701	1926202	1927137	+
Rv1702c	1928575	1927211	-
Rv1703c	1929721	1929131	-
Rv1704c	1931456	1929786	-
Rv1705c	1932654	1931497	-
Rv1706c	1933878	1932694	-
Rv1706A	1934649	1934482	-
Rv1707	1934882	1936342	+
Rv1708	1936360	1937316	+
Rv1709	1937313	1938149	+
Rv1710	1938146	1938841	+
Rv1711	1938838	1939602	+
Rv1712	1939599	1940291	+
Rv1713	1940288	1941679	+
Rv1714	1941853	1942665	+
Rv1715	1942659	1943573	+
Rv1716	1943576	1944406	+
Rv1717	1944406	1944756	+
Rv1718	1944809	1945627	+
Rv1719	1945641	1946420	+
Rv1720c	1947419	1947030	-
Rv1721c	1947643	1947416	-
Rv1722	1947861	1949345	+
Rv1723	1949342	1950589	+
Rv1724c	1951051	1950632	-
Rv1725c	1951751	1951041	-
Rv1726	1951852	1953237	+
Rv1727	1953270	1953839	+
Rv1728c	1954634	1953864	-
Rv1729c	1955569	1954631	-
Rv1730c	1957245	1955692	-
Rv1731	1957677	1959233	+
Rv1732c	1959791	1959243	-
Rv1733c	1960487	1959855	-
Rv1734c	1961016	1960774	-
Rv1735c	1961788	1961291	-
Rv1736c	1964186	1962228	-
Rv1737c	1965370	1964183	-
Rv1738	1965657	1965941	+
Rv1739c	1967637	1965955	-
Rv1740	1967705	1967917	+
Rv1741	1967917	1968165	+
Rv1742	1968173	1968910	+
Rv1743	1969004	1970704	+
Rv1744c	1971390	1970989	-
Rv1745c	1971991	1971380	-
Rv1746	1972138	1973568	+
Rv1747	1973630	1976227	+
Rv1748	1976600	1977331	+
Rv1749c	1977885	1977328	-
Rv1750c	1979567	1977969	-
Rv1751	1979621	1981003	+
Rv1752	1981130	1981579	+
Rv1753c	1984775	1981614	-
Rv1754c	1986670	1984979	-
Rv1756c	1988629	1987745	-
Rv1757c	1989006	1988680	-
Rv1758	1989042	1989566	+
Rv1759c	1992577	1989833	-
Rv1760	1993153	1994661	+
Rv1761c	1995054	1994671	-
Rv1762c	1995842	1995054	-
Rv1763	1996152	1996478	+
Rv1764	1996529	1997413	+
Rv1765c	1998515	1997418	-
Rv1765A	1999357	1999142	-
Rv1766	1999737	2000006	+
Rv1767	2000074	2000433	+
Rv1768	2000614	2002470	+
Rv1769	2002626	2003870	+
Rv1770	2003878	2005164	+
Rv1771	2005161	2006447	+
Rv1772	2006636	2006947	+
Rv1773c	2007766	2007020	-
Rv1774	2007832	2009172	+
Rv1775	2009172	2009990	+
Rv1776c	2010555	2009995	-
Rv1777	2010656	2011960	+
Rv1778c	2012530	2012081	-
Rv1779c	2014479	2012686	-
Rv1780	2014699	2015262	+
Rv1781c	2017476	2015302	-
Rv1782	2017740	2019260	+
Rv1783	2019257	2020564	+
Rv1784	2020634	2023432	+
Rv1785c	2024628	2023447	-
Rv1786	2024828	2025031	+
Rv1787	2025301	2026398	+
Rv1788	2026477	2026776	+
Rv1789	2026790	2027971	+
Rv1790	2028425	2029477	+
Rv1791	2029904	2030203	+
Rv1793	2030694	2030978	+
Rv1794	2031066	2031968	+
Rv1795	2032240	2033751	+
Rv1796	2033729	2035486	+
Rv1797	2035483	2036703	+
Rv1798	2036700	2038532	+
Rv1799	2039159	2039350	+
Rv1800	2039453	2041420	+
Rv1801	2042001	2043272	+
Rv1802	2043384	2044775	+
Rv1803c	2046842	2044923	-
Rv1804c	2047349	2047023	-
Rv1805c	2048034	2047687	-
Rv1806	2048072	2048371	+
Rv1808	2049921	2051150	+
Rv1809	2051282	2052688	+
Rv1810	2052933	2053289	+
Rv1811	2053443	2054147	+
Rv1812c	2055359	2054157	-
Rv1813c	2056112	2055681	-
Rv1814	2056521	2057423	+
Rv1815	2057528	2058193	+
Rv1816	2058256	2058960	+
Rv1817	2059595	2061058	+
Rv1818c	2062674	2061178	-
Rv1819c	2064728	2062809	-
Rv1820	2064799	2066442	+
Rv1821	2066457	2068883	+
Rv1822	2069080	2069709	+
Rv1823	2069702	2070625	+
Rv1824	2070654	2071019	+
Rv1825	2071036	2071914	+
Rv1826	2071952	2072356	+
Rv1827	2072596	2073084	+
Rv1828	2073081	2073824	+
Rv1829	2073943	2074437	+
Rv1830	2074841	2075518	+
Rv1831	2075571	2075828	+
Rv1832	2075877	2078702	+
Rv1833c	2079789	2078929	-
Rv1834	2079830	2080696	+
Rv1835c	2082587	2080701	-
Rv1836c	2084636	2082603	-
Rv1837c	2086981	2084756	-
Rv1838c	2087652	2087257	-
Rv1839c	2087912	2087649	-
Rv1840c	2089518	2087971	-
Rv1841c	2090718	2089681	-
Rv1842c	2092085	2090718	-
Rv1843c	2093698	2092259	-
Rv1844c	2095188	2093731	-
Rv1845c	2096168	2095218	-
Rv1846c	2096599	2096183	-
Rv1847	2096877	2097299	+
Rv1848	2097348	2097650	+
Rv1849	2097647	2097961	+
Rv1850	2097961	2099694	+
Rv1851	2099694	2100329	+
Rv1852	2100340	2101014	+
Rv1853	2101022	2101648	+
Rv1854c	2103042	2101651	-
Rv1855c	2104107	2103184	-
Rv1856c	2104823	2104146	-
Rv1857	2104985	2105770	+
Rv1858	2105773	2106567	+
Rv1859	2106574	2107683	+
Rv1860	2107736	2108713	+
Rv1861	2109165	2109470	+
Rv1862	2109544	2110584	+
Rv1863c	2111361	2110591	-
Rv1864c	2112109	2111354	-
Rv1865c	2112966	2112106	-
Rv1866	2113140	2115476	+
Rv1867	2115764	2117248	+
Rv1868	2117347	2119446	+
Rv1869c	2120695	2119460	-
Rv1870c	2121430	2120795	-
Rv1871c	2121884	2121495	-
Rv1872c	2123151	2121907	-
Rv1873	2123174	2123611	+
Rv1874	2123684	2124370	+
Rv1875	2124381	2124824	+
Rv1876	2125340	2125819	+
Rv1877	2125904	2127967	+
Rv1878	2128022	2129374	+
Rv1879	2129377	2130513	+
Rv1880c	2131857	2130541	-
Rv1881c	2132329	2131907	-
Rv1882c	2133203	2132370	-
Rv1883c	2133692	2133231	-
Rv1884c	2134261	2133731	-
Rv1885c	2134872	2134273	-
Rv1886c	2135867	2134890	-
Rv1887	2136258	2137400	+
Rv1888c	2138079	2137519	-
Rv1888A	2138617	2138444	-
Rv1889c	2139017	2138661	-
Rv1890c	2139687	2139076	-
Rv1891	2139741	2140148	+
Rv1892	2140165	2140476	+
Rv1893	2140486	2140704	+
Rv1894c	2141869	2140739	-
Rv1895	2142521	2143675	+
Rv1896c	2144446	2143535	-
Rv1897c	2144882	2144451	-
Rv1898	2144940	2145248	+
Rv1899c	2146245	2145214	-
Rv1900c	2147633	2146245	-
Rv1901	2147662	2148954	+
Rv1902c	2150274	2149006	-
Rv1903	2150364	2150768	+
Rv1904	2150954	2151385	+
Rv1905c	2152395	2151433	-
Rv1906c	2152895	2152425	-
Rv1907c	2153882	2153235	-
Rv1908c	2156111	2153889	-
Rv1909c	2156601	2156149	-
Rv1910c	2157299	2156706	-
Rv1911c	2157987	2157382	-
Rv1912c	2159091	2158087	-
Rv1913	2159191	2159943	+
Rv1914c	2160328	2159921	-
Rv1915	2160463	2161566	+
Rv1916	2161566	2162762	+
Rv1917c	2167311	2162932	-
Rv1918c	2170612	2167649	-
Rv1919c	2171525	2171061	-
Rv1920	2171623	2172486	+
Rv1921c	2173795	2172524	-
Rv1922	2174067	2175182	+
Rv1923	2175173	2176513	+
Rv1924c	2176930	2176550	-
Rv1925	2177087	2178949	+
Rv1926c	2179436	2178957	-
Rv1927	2179673	2180446	+
Rv1928c	2181217	2180450	-
Rv1929c	2181906	2181262	-
Rv1930c	2182442	2181918	-
Rv1931c	2183239	2182460	-
Rv1932	2183372	2183869	+
Rv1933c	2184957	2183866	-
Rv1934c	2186188	2184959	-
Rv1935c	2187159	2186203	-
Rv1936	2187384	2188493	+
Rv1937	2188496	2191015	+
Rv1938	2191027	2192097	+
Rv1939	2192094	2192609	+
Rv1940	2192606	2193667	+
Rv1941	2193664	2194434	+
Rv1942c	2194973	2194644	-
Rv1943c	2195347	2194970	-
Rv1944c	2195934	2195344	-
Rv1945	2195989	2197353	+
Rv1946c	2197960	2197508	-
Rv1947	2198024	2198425	+
Rv1948c	2199064	2198714	-
Rv1950c	2200189	2199998	-
Rv1951c	2200486	2200190	-
Rv1952	2200726	2200941	+
Rv1953	2200938	2201249	+
Rv1954c	2201744	2201223	-
Rv1955	2201584	2202096	+
Rv1956	2202138	2202587	+
Rv1957	2202584	2203129	+
Rv1958c	2203632	2203018	-
Rv1959c	2203977	2203681	-
Rv1960c	2204225	2203974	-
Rv1961	2204212	2204706	+
Rv1962c	2205273	2204866	-
Rv1963c	2206802	2205582	-
Rv1964	2207700	2208497	+
Rv1965	2208507	2209322	+
Rv1966	2209327	2210604	+
Rv1967	2210601	2211629	+
Rv1968	2211626	2212858	+
Rv1969	2212855	2214126	+
Rv1970	2214123	2215256	+
Rv1971	2215257	2216570	+
Rv1972	2216592	2217167	+
Rv1973	2217164	2217646	+
Rv1974	2217659	2218036	+
Rv1975	2218052	2218717	+
Rv1976c	2219251	2218844	-
Rv1977	2219754	2220800	+
Rv1978	2220908	2221756	+
Rv1979c	2223164	2221719	-
Rv1980c	2224029	2223343	-
Rv1981c	2225188	2224220	-
Rv1982c	2225832	2225413	-
Rv1983	2226244	2227920	+
Rv1984c	2228561	2227908	-
Rv1985c	2229902	2228991	-
Rv1986	2230011	2230610	+
Rv1987	2231026	2231454	+
Rv1988	2231680	2232219	+
Rv1989c	2233299	2232739	-
Rv1990c	2233637	2233296	-
Rv1990A	2234216	2233881	-
Rv1991c	2234649	2234305	-
Rv1992c	2237306	2234991	-
Rv1993c	2237575	2237303	-
Rv1994c	2237984	2237628	-
Rv1995	2238141	2238908	+
Rv1996	2239004	2239957	+
Rv1997	2240159	2242876	+
Rv1998c	2243721	2242945	-
Rv1999c	2245138	2243816	-
Rv2000	2245209	2246822	+
Rv2001	2246832	2247584	+
Rv2002	2247660	2248442	+
Rv2003c	2249420	2248563	-
Rv2004c	2250974	2249478	-
Rv2005c	2251883	2250996	-
Rv2006	2252002	2255985	+
Rv2007c	2256428	2256084	-
Rv2008c	2257942	2256617	-
Rv2009	2258030	2258272	+
Rv2010	2258273	2258671	+
Rv2011c	2259285	2258854	-
Rv2012	2259326	2259820	+
Rv2013	2260665	2261144	+
Rv2014	2261098	2261688	+
Rv2015c	2263072	2261816	-
Rv2016	2263426	2264001	+
Rv2017	2263998	2265038	+
Rv2018	2265280	2265999	+
Rv2019	2265989	2266405	+
Rv2020c	2266720	2266421	-
Rv2021c	2267110	2266805	-
Rv2022c	2267724	2267119	-
Rv2023c	2268108	2267749	-
Rv2024c	2270240	2268693	-
Rv2025c	2271748	2270750	-
Rv2026c	2272747	2271863	-
Rv2027c	2274508	2272787	-
Rv2028c	2275408	2274569	-
Rv2029c	2276424	2275405	-
Rv2030c	2278486	2276441	-
Rv2031c	2278932	2278498	-
Rv2032	2279129	2280124	+
Rv2033c	2281082	2280240	-
Rv2034	2281294	2281617	+
Rv2035	2281614	2282102	+
Rv2036	2282099	2282740	+
Rv2037c	2283721	2282747	-
Rv2038c	2284796	2283723	-
Rv2039c	2285641	2284799	-
Rv2040c	2286530	2285628	-
Rv2041c	2287846	2286527	-
Rv2042c	2288681	2287884	-
Rv2043c	2289241	2288681	-
Rv2044c	2289599	2289282	-
Rv2045c	2291220	2289685	-
Rv2046	2291269	2291925	+
Rv2047c	2294526	2291962	-
Rv2048c	2306986	2294531	-
Rv2049c	2307517	2307293	-
Rv2050	2307821	2308156	+
Rv2051c	2310755	2308131	-
Rv2052c	2312517	2310913	-
Rv2053c	2313049	2312522	-
Rv2054	2313125	2313838	+
Rv2055c	2314353	2314087	-
Rv2056c	2314659	2314354	-
Rv2057c	2314825	2314661	-
Rv2058c	2315061	2314825	-
Rv2059	2315174	2316709	+
Rv2060	2316279	2316680	+
Rv2061c	2317085	2316681	-
Rv2062c	2320753	2317169	-
Rv2063	2320831	2321064	+
Rv2064	2321451	2322542	+
Rv2065	2322552	2323178	+
Rv2066	2323175	2324701	+
Rv2067c	2325870	2324647	-
Rv2068c	2326809	2325886	-
Rv2069	2326944	2327501	+
Rv2070c	2328225	2327491	-
Rv2071c	2328977	2328222	-
Rv2072c	2330146	2328974	-
Rv2073c	2330963	2330214	-
Rv2074	2330993	2331406	+
Rv2075c	2332879	2331416	-
Rv2076c	2333288	2333037	-
Rv2077c	2334294	2333323	-
Rv2077A	2334594	2334295	-
Rv2078	2335059	2335373	+
Rv2079	2335355	2337325	+
Rv2080	2337306	2337869	+
Rv2081c	2338505	2338065	-
Rv2082	2338709	2340874	+
Rv2083	2340871	2341815	+
Rv2084	2341808	2342944	+
Rv2085	2343027	2343332	+
Rv2086	2343311	2343916	+
Rv2087	2343994	2344224	+
Rv2088	2344411	2346180	+
Rv2089c	2347324	2346197	-
Rv2090	2347373	2348554	+
Rv2091c	2349292	2348558	-
Rv2092c	2352054	2349334	-
Rv2093c	2353029	2352103	-
Rv2094c	2353297	2353046	-
Rv2095c	2354315	2353365	-
Rv2096c	2355310	2354312	-
Rv2097c	2356677	2355319	-
Rv2100	2358389	2360041	+
Rv2101	2360240	2363281	+
Rv2102	2363391	2364107	+
Rv2103c	2364520	2364086	-
Rv2104c	2364781	2364527	-
Rv2105	2365465	2365791	+
Rv2107	2367359	2367655	+
Rv2108	2367711	2368442	+
Rv2109c	2369729	2368983	-
Rv2110c	2370601	2369726	-
Rv2111c	2370792	2370598	-
Rv2112c	2372569	2370905	-
Rv2113	2372630	2373823	+
Rv2114	2373834	2374457	+
Rv2115c	2376290	2374461	-
Rv2116	2376571	2377140	+
Rv2117	2377148	2377441	+
Rv2118c	2378312	2377470	-
Rv2119	2378386	2379222	+
Rv2120c	2379727	2379245	-
Rv2121c	2380660	2379806	-
Rv2122c	2380944	2380663	-
Rv2123	2381071	2382492	+
Rv2124c	2386067	2382489	-
Rv2125	2386293	2387171	+
Rv2126c	2387972	2387202	-
Rv2127	2388616	2390085	+
Rv2128	2390085	2390288	+
Rv2129c	2391189	2390308	-
Rv2130c	2392459	2391215	-
Rv2131c	2393320	2392517	-
Rv2132	2393411	2393641	+
Rv2133c	2394639	2393851	-
Rv2134c	2395237	2394650	-
Rv2135c	2396011	2395301	-
Rv2136c	2396838	2396008	-
Rv2137c	2397315	2396902	-
Rv2138	2397330	2398406	+
Rv2139	2398720	2399793	+
Rv2140c	2400328	2399798	-
Rv2141c	2401722	2400376	-
Rv2142c	2402510	2402193	-
Rv2143	2402977	2404035	+
Rv2144c	2404521	2404165	-
Rv2145c	2405398	2404616	-
Rv2146c	2405956	2405666	-
Rv2147c	2406843	2406118	-
Rv2148c	2407616	2406840	-
Rv2149c	2408374	2407622	-
Rv2150c	2409524	2408385	-
Rv2151c	2410641	2409697	-
Rv2152c	2412122	2410638	-
Rv2153c	2413351	2412119	-
Rv2154c	2414922	2413348	-
Rv2155c	2416394	2414934	-
Rv2156c	2417475	2416396	-
Rv2157c	2419004	2417472	-
Rv2158c	2420608	2419001	-
Rv2159c	2421665	2420631	-
Rv2160A	2422278	2421643	-
Rv2160c	2422003	2421662	-
Rv2161c	2423137	2422271	-
Rv2162c	2424838	2423240	-
Rv2163c	2427087	2425048	-
Rv2164c	2428238	2427084	-
Rv2165c	2429269	2428235	-
Rv2166c	2429858	2429427	-
Rv2168c	2431420	2431094	-
Rv2169c	2431969	2431565	-
Rv2170	2432235	2432855	+
Rv2171	2432951	2433634	+
Rv2172c	2434536	2433631	-
Rv2173	2434847	2435905	+
Rv2174	2435909	2437459	+
Rv2175c	2437886	2437446	-
Rv2176	2437941	2439140	+
Rv2177c	2439947	2439282	-
Rv2178c	2441720	2440332	-
Rv2179c	2442317	2441811	-
Rv2180c	2443214	2442327	-
Rv2181	2443302	2444585	+
Rv2182c	2445329	2444586	-
Rv2183c	2445810	2445415	-
Rv2184c	2446946	2445807	-
Rv2185c	2447500	2447066	-
Rv2186c	2447994	2447605	-
Rv2187	2448160	2449962	+
Rv2188c	2451150	2449993	-
Rv2189c	2452020	2451247	-
Rv2190c	2453272	2452115	-
Rv2191	2453819	2455756	+
Rv2192c	2456743	2455631	-
Rv2193	2456901	2457512	+
Rv2194	2457553	2458395	+
Rv2195	2458392	2459681	+
Rv2196	2459678	2461327	+
Rv2197c	2462148	2461504	-
Rv2198c	2463047	2462148	-
Rv2199c	2463652	2463233	-
Rv2200c	2464751	2463660	-
Rv2201	2464997	2466955	+
Rv2202c	2468027	2467053	-
Rv2203	2468231	2468923	+
Rv2204c	2469287	2468931	-
Rv2205c	2470463	2469387	-
Rv2206	2470622	2471332	+
Rv2207	2471411	2472496	+
Rv2208	2472493	2473242	+
Rv2209	2473400	2474938	+
Rv2210c	2475970	2474864	-
Rv2211c	2477181	2476042	-
Rv2212	2477190	2478326	+
Rv2213	2478338	2479885	+
Rv2214c	2481701	2479923	-
Rv2215	2481965	2483626	+
Rv2216	2483626	2484531	+
Rv2217	2484584	2485276	+
Rv2218	2485273	2486208	+
Rv2219	2486235	2486987	+
Rv2219A	2487416	2486994	-
Rv2220	2487615	2489051	+
Rv2221c	2492353	2489369	-
Rv2222c	2493742	2492402	-
Rv2223c	2495399	2493837	-
Rv2224c	2497023	2495461	-
Rv2225	2497742	2498587	+
Rv2226	2498832	2500373	+
Rv2227	2500931	2501632	+
Rv2228c	2502738	2501644	-
Rv2229c	2503472	2502735	-
Rv2230c	2504608	2503469	-
Rv2231c	2505699	2504605	-
Rv2232	2506278	2507153	+
Rv2234	2507146	2507637	+
Rv2235	2507637	2508452	+
Rv2236c	2509375	2508434	-
Rv2237	2509489	2510256	+
Rv2238c	2511176	2510715	-
Rv2239c	2511652	2511176	-
Rv2240c	2512487	2511690	-
Rv2241	2512539	2515244	+
Rv2242	2515304	2516548	+
Rv2243	2516787	2517695	+
Rv2244	2517771	2518118	+
Rv2245	2518115	2519365	+
Rv2246	2519396	2520712	+
Rv2247	2520743	2522164	+
Rv2248	2522360	2523175	+
Rv2249c	2524791	2523241	-
Rv2250c	2525354	2524785	-
Rv2250A	2525402	2525821	+
Rv2251	2525565	2526992	+
Rv2252	2526989	2527918	+
Rv2253	2527984	2528487	+
Rv2254c	2528975	2528520	-
Rv2255c	2529174	2528980	-
Rv2256c	2529874	2529341	-
Rv2257c	2530822	2530004	-
Rv2258c	2531897	2530836	-
Rv2259	2532245	2533330	+
Rv2260	2533330	2533965	+
Rv2261c	2534464	2534042	-
Rv2262c	2535552	2534470	-
Rv2263	2535641	2536594	+
Rv2264c	2538350	2536572	-
Rv2265	2538700	2539929	+
Rv2266	2540104	2541390	+
Rv2267c	2542810	2541644	-
Rv2268c	2544276	2542807	-
Rv2269c	2544621	2544289	-
Rv2270	2544698	2545225	+
Rv2271	2545332	2545631	+
Rv2272	2545737	2546105	+
Rv2273	2546102	2546431	+
Rv2274c	2546805	2546488	-
Rv2275	2546883	2547752	+
Rv2276	2547749	2548939	+
Rv2277c	2550029	2549124	-
Rv2278	2550065	2550391	+
Rv2280	2551560	2552939	+
Rv2281	2553173	2554831	+
Rv2282c	2555876	2554938	-
Rv2283	2555941	2556135	+
Rv2284	2556145	2557440	+
Rv2285	2557473	2558810	+
Rv2286c	2559569	2558877	-
Rv2287	2559703	2561331	+
Rv2288	2561328	2561705	+
Rv2289	2561675	2562457	+
Rv2290	2562599	2563114	+
Rv2291	2563174	2564028	+
Rv2292c	2564253	2564029	-
Rv2293c	2565032	2564292	-
Rv2294	2565327	2566550	+
Rv2295	2566772	2567410	+
Rv2296	2567504	2568406	+
Rv2297	2568438	2568890	+
Rv2298	2569082	2570053	+
Rv2299c	2572002	2570059	-
Rv2300c	2573008	2572076	-
Rv2301	2573015	2573707	+
Rv2302	2573813	2574055	+
Rv2303c	2575019	2574096	-
Rv2304c	2575225	2575016	-
Rv2305	2575809	2577098	+
Rv2306A	2577108	2577701	+
Rv2306B	2577488	2577922	+
Rv2307c	2578696	2577851	-
Rv2307A	2579419	2579228	-
Rv2307B	2579935	2579504	-
Rv2307D	2580210	2580028	-
Rv2308	2580419	2581135	+
Rv2309c	2582298	2581843	-
Rv2309A	2583045	2583332	+
Rv2310	2583435	2583779	+
Rv2311	2583884	2584408	+
Rv2312	2584486	2584755	+
Rv2313c	2585906	2585052	-
Rv2314c	2587290	2585917	-
Rv2315c	2588804	2587287	-
Rv2316	2588838	2589710	+
Rv2317	2589697	2590521	+
Rv2318	2590518	2591840	+
Rv2319c	2592726	2591848	-
Rv2320c	2594153	2592723	-
Rv2321c	2594699	2594154	-
Rv2322c	2595364	2594699	-
Rv2323c	2596269	2595361	-
Rv2324	2596334	2596780	+
Rv2325c	2597857	2597009	-
Rv2326c	2599947	2597854	-
Rv2327	2599988	2600479	+
Rv2328	2600731	2601879	+
Rv2329c	2603461	2601914	-
Rv2330c	2604222	2603695	-
Rv2331	2604297	2604683	+
Rv2331A	2604740	2605078	+
Rv2332	2605108	2606754	+
Rv2333c	2608321	2606708	-
Rv2334	2608796	2609728	+
Rv2335	2609732	2610421	+
Rv2336	2610837	2611805	+
Rv2337c	2612987	2611869	-
Rv2338c	2614063	2613107	-
Rv2339	2614693	2617581	+
Rv2340c	2618908	2617667	-
Rv2341	2619597	2620016	+
Rv2342	2620272	2620529	+
Rv2343c	2622452	2620533	-
Rv2344c	2623752	2622457	-
Rv2345	2623821	2625803	+
Rv2346c	2626172	2625888	-
Rv2347c	2626519	2626223	-
Rv2348c	2626980	2626654	-
Rv2349c	2628698	2627172	-
Rv2350c	2630319	2628781	-
Rv2351c	2632075	2630537	-
Rv2352c	2634098	2632923	-
Rv2353c	2635592	2634528	-
Rv2354	2635628	2635954	+
Rv2356c	2639535	2637688	-
Rv2357c	2641064	2639673	-
Rv2358	2641246	2641653	+
Rv2359	2641650	2642042	+
Rv2360c	2642578	2642150	-
Rv2361c	2643468	2642578	-
Rv2362c	2644258	2643461	-
Rv2363	2644320	2645774	+
Rv2364c	2646673	2645771	-
Rv2365c	2647088	2646747	-
Rv2366c	2648367	2647060	-
Rv2367c	2648912	2648364	-
Rv2368c	2649974	2648916	-
Rv2369c	2650248	2649946	-
Rv2370c	2651558	2650245	-
Rv2371	2651753	2651938	+
Rv2372c	2652825	2652037	-
Rv2373c	2653987	2652839	-
Rv2374c	2655093	2654062	-
Rv2375	2655265	2655582	+
Rv2376c	2656115	2655609	-
Rv2377c	2656430	2656215	-
Rv2378c	2657703	2656408	-
Rv2379c	2662085	2657700	-
Rv2380c	2667115	2662067	-
Rv2381c	2670269	2667255	-
Rv2382c	2671603	2670269	-
Rv2383c	2675837	2671593	-
Rv2384	2675936	2677633	+
Rv2385	2677729	2678649	+
Rv2386c	2680005	2678653	-
Rv2387	2680765	2682018	+
Rv2388c	2683142	2682015	-
Rv2389c	2683712	2683248	-
Rv2390c	2684266	2683709	-
Rv2391	2684679	2686370	+
Rv2392	2686367	2687131	+
Rv2393	2687128	2687973	+
Rv2394	2688010	2689941	+
Rv2395	2690072	2692075	+
Rv2396	2692799	2693884	+
Rv2397c	2694964	2693909	-
Rv2398c	2695799	2694981	-
Rv2399c	2696647	2695796	-
Rv2400c	2697714	2696644	-
Rv2401	2697728	2698057	+
Rv2401A	2698245	2698042	-
Rv2402	2698529	2700457	+
Rv2403c	2701290	2700535	-
Rv2404c	2703248	2701287	-
Rv2405	2703269	2703838	+
Rv2406c	2704437	2704009	-
Rv2407	2704697	2705518	+
Rv2408	2706017	2706736	+
Rv2409c	2707333	2706494	-
Rv2410c	2708310	2707333	-
Rv2411c	2709965	2708310	-
Rv2412	2710075	2710335	+
Rv2413c	2711301	2710351	-
Rv2414c	2712876	2711332	-
Rv2415c	2713784	2712891	-
Rv2416c	2715332	2714124	-
Rv2417c	2716314	2715472	-
Rv2418c	2717138	2716395	-
Rv2419c	2717799	2717128	-
Rv2420c	2718176	2717796	-
Rv2421c	2718808	2718173	-
Rv2422	2719083	2719355	+
Rv2423	2719597	2720643	+
Rv2424c	2721777	2720776	-
Rv2425c	2723308	2721866	-
Rv2426c	2724183	2723308	-
Rv2427c	2725477	2724230	-
Rv2428	2726193	2726780	+
Rv2429	2726806	2727339	+
Rv2430c	2727920	2727336	-
Rv2431c	2728266	2727967	-
Rv2432c	2728847	2728437	-
Rv2433c	2729134	2728844	-
Rv2434c	2730560	2729115	-
Rv2435c	2732749	2730557	-
Rv2436	2733230	2734144	+
Rv2437	2734376	2734795	+
Rv2438c	2736831	2734792	-
Rv2438A	2736709	2736987	+
Rv2439c	2738247	2737117	-
Rv2440c	2739686	2738247	-
Rv2441c	2740032	2739772	-
Rv2442c	2740361	2740047	-
Rv2443	2740709	2742184	+
Rv2444c	2744984	2742123	-
Rv2445c	2745724	2745314	-
Rv2446c	2746138	2745767	-
Rv2447c	2747598	2746135	-
Rv2448c	2750225	2747595	-
Rv2449c	2751572	2750313	-
Rv2450c	2752180	2751662	-
Rv2451	2752262	2752660	+
Rv2452c	2752994	2752848	-
Rv2453c	2753623	2753018	-
Rv2454c	2754746	2753625	-
Rv2455c	2756704	2754743	-
Rv2456c	2758192	2756936	-
Rv2457c	2759488	2758208	-
Rv2458	2759779	2760687	+
Rv2459	2760854	2762380	+
Rv2460c	2763175	2762531	-
Rv2461c	2763774	2763172	-
Rv2462c	2765291	2763891	-
Rv2463	2765655	2766839	+
Rv2464c	2767665	2766859	-
Rv2465c	2768159	2767671	-
Rv2466c	2768884	2768261	-
Rv2467	2768986	2771571	+
Rv2468c	2772147	2771644	-
Rv2469c	2773035	2772367	-
Rv2470	2773178	2773564	+
Rv2471	2773564	2775204	+
Rv2472	2775272	2775565	+
Rv2473	2775568	2776284	+
Rv2474c	2776969	2776316	-
Rv2475c	2777391	2776975	-
Rv2476c	2782262	2777388	-
Rv2477c	2784042	2782366	-
Rv2478c	2784608	2784123	-
Rv2480c	2785918	2785592	-
Rv2481c	2786898	2786575	-
Rv2482c	2789283	2786914	-
Rv2483c	2791022	2789280	-
Rv2484c	2792494	2791019	-
Rv2485c	2793988	2792723	-
Rv2486	2794350	2795120	+
Rv2487c	2797385	2795301	-
Rv2488c	2800880	2797467	-
Rv2489c	2801145	2800846	-
Rv2490c	2806236	2801254	-
Rv2491	2806665	2807288	+
Rv2492	2807278	2808030	+
Rv2493	2808083	2808304	+
Rv2494	2808310	2808735	+
Rv2495c	2809939	2808758	-
Rv2496c	2810982	2809936	-
Rv2497c	2812096	2810993	-
Rv2498c	2813176	2812355	-
Rv2499c	2813730	2813173	-
Rv2500c	2814911	2813727	-
Rv2501c	2816880	2814916	-
Rv2502c	2818474	2816885	-
Rv2503c	2819127	2818471	-
Rv2504c	2819870	2819124	-
Rv2505c	2821596	2819953	-
Rv2506	2821712	2822359	+
Rv2507	2822438	2823259	+
Rv2508c	2824593	2823256	-
Rv2509	2824678	2825484	+
Rv2510c	2827089	2825488	-
Rv2511	2827157	2827804	+
Rv2512c	2829803	2828556	-
Rv2513	2830161	2830583	+
Rv2514c	2831338	2830877	-
Rv2515c	2832591	2831344	-
Rv2516c	2833513	2832710	-
Rv2517c	2833761	2833510	-
Rv2518c	2835335	2834109	-
Rv2519	2835785	2837263	+
Rv2520c	2837615	2837388	-
Rv2521	2837684	2838157	+
Rv2522c	2839541	2838129	-
Rv2523c	2839930	2839538	-
Rv2524c	2849332	2840123	-
Rv2525c	2850574	2849852	-
Rv2526	2851091	2851318	+
Rv2527	2851315	2851716	+
Rv2528c	2852671	2851751	-
Rv2529	2852875	2854266	+
Rv2530c	2854686	2854267	-
Rv2530A	2854907	2854683	-
Rv2531c	2857781	2854938	-
Rv2532c	2858254	2857853	-
Rv2533c	2858724	2858254	-
Rv2534c	2859290	2858727	-
Rv2535c	2860418	2859300	-
Rv2536	2860452	2861144	+
Rv2537c	2861591	2861148	-
Rv2538c	2862676	2861588	-
Rv2539c	2863203	2862673	-
Rv2540c	2864412	2863207	-
Rv2541	2864427	2864834	+
Rv2542	2865130	2866341	+
Rv2543	2866468	2867127	+
Rv2544	2867124	2867786	+
Rv2545	2867783	2868061	+
Rv2546	2868154	2868567	+
Rv2547	2868606	2868863	+
Rv2548	2868860	2869237	+
Rv2549c	2870122	2869727	-
Rv2550c	2870364	2870119	-
Rv2551c	2871194	2870775	-
Rv2552c	2872015	2871206	-
Rv2553c	2873265	2872012	-
Rv2554c	2873770	2873258	-
Rv2555c	2876485	2873771	-
Rv2556c	2876965	2876576	-
Rv2557	2877072	2877746	+
Rv2558	2877831	2878541	+
Rv2559c	2879929	2878571	-
Rv2560	2880075	2881052	+
Rv2561	2881409	2881702	+
Rv2562	2881758	2882147	+
Rv2563	2882290	2883339	+
Rv2564	2883342	2884334	+
Rv2565	2884611	2886362	+
Rv2566	2886373	2889795	+
Rv2567	2889795	2892449	+
Rv2568c	2893471	2892446	-
Rv2569c	2894408	2893464	-
Rv2570	2894512	2894901	+
Rv2571c	2895960	2894893	-
Rv2572c	2897803	2896013	-
Rv2573	2897956	2898783	+
Rv2574	2898806	2899309	+
Rv2575	2899339	2900220	+
Rv2576c	2900690	2900226	-
Rv2577	2900918	2902507	+
Rv2578c	2903531	2902509	-
Rv2579	2903639	2904541	+
Rv2580c	2906092	2904821	-
Rv2581c	2906763	2906089	-
Rv2582	2906814	2907740	+
Rv2583c	2910198	2907826	-
Rv2584c	2910900	2910229	-
Rv2585c	2912677	2911004	-
Rv2586c	2914011	2912683	-
Rv2587c	2915736	2914015	-
Rv2588c	2916193	2915846	-
Rv2589	2916360	2917709	+
Rv2590	2917871	2921377	+
Rv2591	2921551	2923182	+
Rv2592c	2924233	2923199	-
Rv2593c	2924820	2924230	-
Rv2594c	2925383	2924817	-
Rv2595	2925492	2925737	+
Rv2596	2925734	2926138	+
Rv2597	2926355	2926975	+
Rv2598	2926986	2927480	+
Rv2599	2927477	2927908	+
Rv2600	2927990	2928391	+
Rv2601	2928388	2929959	+
Rv2601A	2930070	2930357	+
Rv2602	2930344	2930784	+
Rv2603c	2931560	2930805	-
Rv2604c	2932289	2931693	-
Rv2605c	2933142	2932297	-
Rv2606c	2934070	2933171	-
Rv2607	2934198	2934872	+
Rv2608	2935046	2936788	+
Rv2609c	2937865	2936810	-
Rv2610c	2939001	2937865	-
Rv2611c	2939962	2939012	-
Rv2612c	2940612	2939959	-
Rv2613c	2941196	2940609	-
Rv2614c	2943267	2941189	-
Rv2614A	2943376	2943603	+
Rv2615c	2944985	2943600	-
Rv2616	2945330	2945830	+
Rv2617c	2946287	2945847	-
Rv2618	2946434	2947111	+
Rv2619c	2947449	2947096	-
Rv2620c	2947887	2947462	-
Rv2621c	2948558	2947884	-
Rv2622	2948636	2949457	+
Rv2623	2949593	2950486	+
Rv2624c	2951307	2950489	-
Rv2625c	2952503	2951322	-
Rv2626c	2952993	2952562	-
Rv2627c	2954748	2953507	-
Rv2628	2955058	2955420	+
Rv2629	2955767	2956891	+
Rv2630	2956893	2957432	+
Rv2631	2957572	2958870	+
Rv2632c	2959190	2958909	-
Rv2633c	2959820	2959335	-
Rv2634c	2962441	2960105	-
Rv2635	2962470	2962712	+
Rv2636	2962713	2963390	+
Rv2637	2963586	2964242	+
Rv2638	2964405	2964851	+
Rv2639c	2965358	2965026	-
Rv2640c	2965837	2965478	-
Rv2641	2965939	2966397	+
Rv2642	2966533	2966913	+
Rv2643	2966910	2968406	+
Rv2644c	2968850	2968533	-
Rv2645	2970123	2970554	+
Rv2646	2970551	2971549	+
Rv2647	2971659	2972027	+
Rv2648	2972160	2972486	+
Rv2650c	2975234	2973795	-
Rv2651c	2975775	2975242	-
Rv2652c	2976554	2975928	-
Rv2653c	2976909	2976586	-
Rv2654c	2977234	2976989	-
Rv2655c	2978658	2977231	-
Rv2656c	2979052	2978660	-
Rv2657c	2979309	2979049	-
Rv2658c	2979688	2979326	-
Rv2659c	2980818	2979691	-
Rv2660c	2981190	2980963	-
Rv2661c	2981576	2981187	-
Rv2662	2981482	2981754	+
Rv2663	2981853	2982086	+
Rv2664	2982097	2982351	+
Rv2665	2982699	2982980	+
Rv2666	2983071	2983874	+
Rv2667	2983896	2984654	+
Rv2668	2984733	2985254	+
Rv2669	2985283	2985753	+
Rv2670c	2986840	2985731	-
Rv2671	2986839	2987615	+
Rv2672	2987682	2989268	+
Rv2673	2989291	2990592	+
Rv2674	2990706	2991116	+
Rv2675c	2991936	2991184	-
Rv2676c	2992628	2991933	-
Rv2677c	2993992	2992634	-
Rv2678c	2995062	2993989	-
Rv2679	2995115	2995945	+
Rv2680	2996105	2996737	+
Rv2681	2996739	2998055	+
Rv2682c	2999968	2998052	-
Rv2683	3000112	3000609	+
Rv2684	3000614	3001903	+
Rv2685	3001983	3003269	+
Rv2686c	3004038	3003280	-
Rv2687c	3004748	3004035	-
Rv2688c	3005650	3004745	-
Rv2689c	3007062	3005845	-
Rv2690c	3009209	3007236	-
Rv2691	3009344	3010027	+
Rv2692	3010024	3010686	+
Rv2693c	3011368	3010697	-
Rv2694c	3011767	3011399	-
Rv2695	3011916	3012623	+
Rv2696c	3013608	3012829	-
Rv2697c	3014147	3013683	-
Rv2698	3014173	3014658	+
Rv2699c	3014965	3014663	-
Rv2700	3015203	3015853	+
Rv2701c	3016735	3015863	-
Rv2702	3016858	3017655	+
Rv2703	3017835	3019421	+
Rv2704	3019458	3019886	+
Rv2705c	3020203	3019814	-
Rv2706c	3020457	3020200	-
Rv2707	3020573	3021547	+
Rv2708c	3021796	3021548	-
Rv2709	3021839	3022285	+
Rv2710	3022461	3023432	+
Rv2711	3023565	3024257	+
Rv2712c	3025328	3024270	-
Rv2713	3025441	3026847	+
Rv2714	3027065	3028039	+
Rv2715	3028098	3029123	+
Rv2716	3029172	3029858	+
Rv2717c	3030361	3029867	-
Rv2718c	3030877	3030413	-
Rv2719c	3031537	3031040	-
Rv2720	3031845	3032498	+
Rv2721c	3034619	3032520	-
Rv2722	3034635	3034883	+
Rv2723	3034909	3036102	+
Rv2724c	3037291	3036131	-
Rv2725c	3038914	3037427	-
Rv2726c	3039800	3038931	-
Rv2727c	3040769	3039825	-
Rv2728c	3041461	3040766	-
Rv2729c	3042475	3041570	-
Rv2730	3042542	3043018	+
Rv2731	3043026	3044378	+
Rv2732c	3044989	3044375	-
Rv2733c	3046524	3044986	-
Rv2734	3046821	3047675	+
Rv2735c	3048552	3047560	-
Rv2736c	3049086	3048562	-
Rv2737c	3051424	3049052	-
Rv2737A	3051619	3051792	+
Rv2738c	3052012	3051806	-
Rv2739c	3053189	3052023	-
Rv2740	3053233	3053682	+
Rv2741	3053914	3055491	+
Rv2742c	3056348	3055515	-
Rv2743c	3057232	3056420	-
Rv2744c	3058063	3057251	-
Rv2745c	3058531	3058193	-
Rv2746c	3059231	3058602	-
Rv2747	3059262	3059786	+
Rv2748c	3062506	3059855	-
Rv2749	3062505	3062819	+
Rv2750	3062816	3063634	+
Rv2751	3063638	3064528	+
Rv2752c	3066191	3064515	-
Rv2753c	3067124	3066222	-
Rv2754c	3067945	3067193	-
Rv2755c	3068464	3068189	-
Rv2756c	3070083	3068461	-
Rv2757c	3070586	3070170	-
Rv2758c	3070849	3070583	-
Rv2759c	3071270	3070875	-
Rv2760c	3071536	3071267	-
Rv2761c	3072640	3071546	-
Rv2762c	3073056	3072637	-
Rv2763c	3073609	3073130	-
Rv2764c	3074471	3073680	-
Rv2765	3074636	3075373	+
Rv2766c	3076370	3075588	-
Rv2767c	3076720	3076367	-
Rv2768c	3078078	3076894	-
Rv2769c	3078985	3078158	-
Rv2770c	3080457	3079309	-
Rv2771c	3081033	3080581	-
Rv2772c	3081592	3081119	-
Rv2773c	3082341	3081604	-
Rv2774c	3082756	3082352	-
Rv2775	3082909	3083370	+
Rv2776c	3084303	3083374	-
Rv2777c	3085555	3084485	-
Rv2778c	3086183	3085713	-
Rv2779c	3086754	3086215	-
Rv2780	3086820	3087935	+
Rv2781c	3088984	3087950	-
Rv2782c	3090361	3089045	-
Rv2783c	3092597	3090339	-
Rv2784c	3093466	3092951	-
Rv2785c	3093748	3093479	-
Rv2786c	3094900	3093905	-
Rv2787	3095111	3096874	+
Rv2788	3096959	3097645	+
Rv2789c	3098938	3097706	-
Rv2790c	3100169	3098964	-
Rv2791c	3101581	3100202	-
Rv2792c	3102162	3101581	-
Rv2793c	3103260	3102364	-
Rv2794c	3103940	3103257	-
Rv2795c	3104911	3103937	-
Rv2796c	3105619	3105056	-
Rv2797c	3107307	3105619	-
Rv2798c	3107637	3107311	-
Rv2799	3107768	3108397	+
Rv2800	3108416	3110065	+
Rv2801c	3110523	3110167	-
Rv2802c	3111823	3110780	-
Rv2803	3111822	3112289	+
Rv2804c	3113094	3112465	-
Rv2805	3112867	3113271	+
Rv2806	3113268	3113459	+
Rv2807	3113658	3114812	+
Rv2808	3115046	3115303	+
Rv2809	3115408	3115719	+
Rv2811	3116139	3116747	+
Rv2812	3116818	3118227	+
Rv2813	3118224	3119036	+
Rv2815c	3121827	3121501	-
Rv2816c	3123966	3123625	-
Rv2817c	3124983	3123967	-
Rv2818c	3126144	3124996	-
Rv2819c	3127367	3126240	-
Rv2820c	3128272	3127364	-
Rv2821c	3128963	3128253	-
Rv2822c	3129347	3128973	-
Rv2823c	3131773	3129344	-
Rv2824c	3132714	3131770	-
Rv2825c	3133539	3132892	-
Rv2826c	3134593	3133709	-
Rv2827c	3135483	3134596	-
Rv2828c	3136333	3135788	-
Rv2829c	3137012	3136620	-
Rv2830c	3137224	3137009	-
Rv2831	3137271	3138020	+
Rv2832c	3139181	3138099	-
Rv2833c	3140484	3139174	-
Rv2834c	3141314	3140487	-
Rv2835c	3142222	3141311	-
Rv2836c	3143628	3142309	-
Rv2837c	3144645	3143635	-
Rv2838c	3145171	3144620	-
Rv2839c	3147873	3145171	-
Rv2840c	3148258	3147959	-
Rv2841c	3149428	3148385	-
Rv2842c	3149976	3149425	-
Rv2843	3150171	3150716	+
Rv2844	3150713	3151201	+
Rv2845c	3152950	3151202	-
Rv2846c	3154631	3153039	-
Rv2847c	3155871	3154654	-
Rv2848c	3157521	3156148	-
Rv2849c	3158144	3157521	-
Rv2850c	3160054	3158165	-
Rv2851c	3160521	3160051	-
Rv2852c	3162061	3160580	-
Rv2853	3162268	3164115	+
Rv2854	3164152	3165192	+
Rv2855	3165205	3166584	+
Rv2856	3166684	3167802	+
Rv2857c	3169359	3168583	-
Rv2858c	3170723	3169356	-
Rv2859c	3171646	3170720	-
Rv2860c	3173000	3171627	-
Rv2861c	3174017	3173160	-
Rv2862c	3174643	3174059	-
Rv2863	3174992	3175372	+
Rv2864c	3177265	3175454	-
Rv2865	3177537	3177818	+
Rv2866	3177822	3178085	+
Rv2867c	3179312	3178458	-
Rv2868c	3180531	3179368	-
Rv2869c	3181762	3180548	-
Rv2870c	3183011	3181770	-
Rv2871	3183138	3183395	+
Rv2872	3183382	3183825	+
Rv2873	3183905	3184567	+
Rv2874	3184847	3186934	+
Rv2875	3187030	3187611	+
Rv2876	3187663	3187977	+
Rv2877c	3188871	3188008	-
Rv2878c	3189397	3188876	-
Rv2880c	3190678	3189851	-
Rv2881c	3191621	3190701	-
Rv2882c	3192201	3191644	-
Rv2883c	3193158	3192373	-
Rv2884	3193393	3194151	+
Rv2885c	3195548	3194166	-
Rv2886c	3196432	3195545	-
Rv2887	3196431	3196850	+
Rv2888c	3198285	3196864	-
Rv2889c	3199107	3198292	-
Rv2890c	3199982	3199119	-
Rv2891	3200266	3201015	+
Rv2892c	3202020	3200794	-
Rv2893	3202420	3203397	+
Rv2894c	3204290	3203394	-
Rv2895c	3205232	3204381	-
Rv2896c	3206434	3205265	-
Rv2897c	3207942	3206431	-
Rv2898c	3208328	3207942	-
Rv2899c	3209406	3208576	-
Rv2900c	3211745	3209406	-
Rv2901c	3212108	3211803	-
Rv2902c	3212956	3212162	-
Rv2903c	3213854	3212970	-
Rv2904c	3214253	3213912	-
Rv2905	3214628	3215572	+
Rv2906c	3216357	3215665	-
Rv2907c	3216891	3216361	-
Rv2908c	3217147	3216905	-
Rv2909c	3217643	3217155	-
Rv2910c	3218270	3217827	-
Rv2911	3218339	3219214	+
Rv2912c	3219861	3219274	-
Rv2913c	3221698	3219863	-
Rv2914c	3223524	3221767	-
Rv2915c	3224680	3223568	-
Rv2916c	3226285	3224708	-
Rv2917	3226363	3228243	+
Rv2918c	3230680	3228254	-
Rv2919c	3231076	3230738	-
Rv2920c	3232506	3231073	-
Rv2921c	3234139	3232871	-
Rv2922c	3237806	3234189	-
Rv2922A	3238099	3237818	-
Rv2923c	3238499	3238086	-
Rv2924c	3239470	3238601	-
Rv2925c	3240551	3239829	-
Rv2926c	3241171	3240548	-
Rv2927c	3241959	3241222	-
Rv2928	3242198	3242983	+
Rv2929	3242970	3243281	+
Rv2930	3243697	3245448	+
Rv2931	3245445	3251075	+
Rv2932	3251072	3255688	+
Rv2933	3255685	3262251	+
Rv2934	3262248	3267731	+
Rv2935	3267737	3272203	+
Rv2936	3272214	3273209	+
Rv2937	3273206	3274075	+
Rv2938	3274072	3274902	+
Rv2939	3274949	3276217	+
Rv2940c	3282715	3276380	-
Rv2941	3283335	3285077	+
Rv2942	3285070	3287832	+
Rv2943	3288464	3289705	+
Rv2943A	3289705	3290235	+
Rv2944	3289790	3290506	+
Rv2945c	3291325	3290624	-
Rv2946c	3296353	3291503	-
Rv2947c	3297840	3296350	-
Rv2948c	3299954	3297837	-
Rv2949c	3300570	3299971	-
Rv2950c	3302344	3300596	-
Rv2951c	3304248	3303103	-
Rv2952	3304441	3305253	+
Rv2953	3305279	3306535	+
Rv2954c	3307391	3306666	-
Rv2955c	3308545	3307580	-
Rv2956	3308668	3309399	+
Rv2957	3309470	3310297	+
Rv2958c	3312000	3310714	-
Rv2959c	3312838	3312101	-
Rv2960c	3313201	3312953	-
Rv2961	3313283	3313672	+
Rv2962c	3315122	3313773	-
Rv2963	3315236	3316456	+
Rv2964	3316529	3317461	+
Rv2965c	3318815	3318330	-
Rv2966c	3319467	3318901	-
Rv2967c	3323046	3319663	-
Rv2968c	3323703	3323071	-
Rv2969c	3324476	3323709	-
Rv2970c	3325703	3324573	-
Rv2970A	3325934	3326104	+
Rv2971	3326101	3326949	+
Rv2972c	3327736	3327023	-
Rv2973c	3329946	3327733	-
Rv2974c	3331361	3329949	-
Rv2975c	3331612	3331358	-
Rv2976c	3332754	3332071	-
Rv2977c	3333788	3332787	-
Rv2978c	3335164	3333785	-
Rv2979c	3335748	3335164	-
Rv2980	3335960	3336505	+
Rv2981c	3337917	3336796	-
Rv2982c	3338999	3337995	-
Rv2983	3339118	3339762	+
Rv2984	3339854	3342082	+
Rv2985	3342165	3343118	+
Rv2986c	3343820	3343176	-
Rv2987c	3344629	3344033	-
Rv2988c	3346075	3344654	-
Rv2989	3346147	3346848	+
Rv2990c	3347719	3346859	-
Rv2991	3347982	3348473	+
Rv2992c	3350277	3348805	-
Rv2993c	3350993	3350274	-
Rv2994	3351269	3352606	+
Rv2995c	3353468	3352458	-
Rv2996c	3355069	3353483	-
Rv2997	3355099	3356541	+
Rv2998	3356815	3357276	+
Rv2998A	3357428	3357225	-
Rv2999	3357602	3358567	+
Rv3000	3358612	3359271	+
Rv3001c	3360586	3359585	-
Rv3002c	3361130	3360624	-
Rv3003c	3362986	3361130	-
Rv3004	3363348	3363686	+
Rv3005c	3364532	3363693	-
Rv3006	3364709	3365830	+
Rv3007c	3366450	3365836	-
Rv3008	3366644	3367267	+
Rv3009c	3368793	3367264	-
Rv3010c	3369854	3368823	-
Rv3011c	3371434	3369950	-
Rv3012c	3371730	3371431	-
Rv3013	3371815	3372471	+
Rv3014c	3374620	3372545	-
Rv3015c	3375664	3374651	-
Rv3016	3375758	3376387	+
Rv3017c	3376852	3376490	-
Rv3018c	3378243	3376939	-
Rv3019c	3379001	3378711	-
Rv3020c	3379329	3379036	-
Rv3021c	3380452	3379376	-
Rv3022A	3380993	3380679	-
Rv3023c	3382622	3381375	-
Rv3024c	3383888	3382785	-
Rv3025c	3385066	3383885	-
Rv3026c	3386077	3385163	-
Rv3027c	3386814	3386074	-
Rv3028c	3388031	3387075	-
Rv3029c	3388870	3388070	-
Rv3030	3389101	3389925	+
Rv3031	3389922	3391502	+
Rv3032	3391534	3392778	+
Rv3033	3393380	3393928	+
Rv3034c	3394921	3394019	-
Rv3035	3395379	3396461	+
Rv3036c	3397141	3396458	-
Rv3037c	3398290	3397214	-
Rv3038c	3399408	3398425	-
Rv3039c	3400183	3399419	-
Rv3040c	3401058	3400192	-
Rv3041c	3401918	3401055	-
Rv3042c	3403162	3401933	-
Rv3043c	3404921	3403200	-
Rv3044	3405136	3406215	+
Rv3045	3406285	3407325	+
Rv3046c	3407688	3407314	-
Rv3047c	3408306	3408022	-
Rv3048c	3409378	3408404	-
Rv3049c	3411083	3409509	-
Rv3050c	3411957	3411217	-
Rv3051c	3414166	3412085	-
Rv3052c	3414684	3414232	-
Rv3053c	3414958	3414719	-
Rv3054c	3415989	3415435	-
Rv3055	3416081	3416695	+
Rv3056	3416705	3417745	+
Rv3057c	3418662	3417799	-
Rv3058c	3419376	3418726	-
Rv3059	3419492	3420970	+
Rv3060c	3423213	3421741	-
Rv3061c	3425427	3423262	-
Rv3062	3425584	3427107	+
Rv3063	3427243	3429519	+
Rv3064c	3430250	3429825	-
Rv3065	3430387	3430710	+
Rv3066	3430707	3431315	+
Rv3067	3431428	3431838	+
Rv3068c	3433622	3431979	-
Rv3069	3433692	3434090	+
Rv3070	3434087	3434467	+
Rv3071	3434464	3435573	+
Rv3072c	3436322	3435798	-
Rv3073c	3436685	3436329	-
Rv3074	3436779	3438053	+
Rv3075c	3438973	3438050	-
Rv3076	3439072	3439548	+
Rv3077	3439541	3441352	+
Rv3078	3441353	3441754	+
Rv3079c	3442597	3441770	-
Rv3080c	3445988	3442656	-
Rv3081	3446040	3447278	+
Rv3082c	3448426	3447404	-
Rv3083	3448504	3449991	+
Rv3084	3449997	3450923	+
Rv3085	3450920	3451750	+
Rv3086	3451781	3452887	+
Rv3087	3452925	3454343	+
Rv3088	3454340	3455764	+
Rv3089	3455761	3457272	+
Rv3090	3458211	3459098	+
Rv3091	3459116	3460807	+
Rv3092c	3461734	3460814	-
Rv3093c	3462764	3461760	-
Rv3094c	3463891	3462761	-
Rv3095	3463973	3464449	+
Rv3096	3464547	3465686	+
Rv3097c	3467091	3465778	-
Rv3098c	3467662	3467210	-
Rv3099c	3469264	3468413	-
Rv3100c	3469783	3469301	-
Rv3101c	3470679	3469786	-
Rv3102c	3471369	3470680	-
Rv3103c	3471850	3471413	-
Rv3104c	3472778	3471852	-
Rv3105c	3473904	3472768	-
Rv3106	3474007	3475377	+
Rv3107c	3476961	3475378	-
Rv3108	3477060	3477500	+
Rv3109	3477649	3478728	+
Rv3110	3478779	3479174	+
Rv3111	3479171	3479683	+
Rv3112	3479700	3479951	+
Rv3113	3480074	3480742	+
Rv3114	3480759	3481289	+
Rv3115	3481451	3482698	+
Rv3116	3482776	3483945	+
Rv3117	3483974	3484807	+
Rv3118	3484809	3485111	+
Rv3119	3485132	3485575	+
Rv3120	3485572	3486174	+
Rv3121	3486509	3487711	+
Rv3122	3488089	3488559	+
Rv3123	3488569	3489063	+
Rv3124	3489506	3490375	+
Rv3125c	3491651	3490476	-
Rv3126c	3492122	3491808	-
Rv3127	3492147	3493181	+
Rv3129	3494660	3494992	+
Rv3130c	3496366	3494975	-
Rv3131	3496551	3497549	+
Rv3132c	3499265	3497529	-
Rv3133c	3499915	3499262	-
Rv3134c	3500749	3499943	-
Rv3135	3501334	3501732	+
Rv3136	3501794	3502936	+
Rv3137	3503393	3504175	+
Rv3138	3504195	3505283	+
Rv3139	3505363	3506769	+
Rv3140	3506790	3507995	+
Rv3141	3508095	3509066	+
Rv3142c	3509546	3509118	-
Rv3143	3509654	3510055	+
Rv3144c	3511317	3510088	-
Rv3145	3511682	3512068	+
Rv3146	3512077	3512631	+
Rv3147	3512628	3513338	+
Rv3148	3513338	3514660	+
Rv3149	3514657	3515415	+
Rv3150	3515412	3516749	+
Rv3151	3516746	3519166	+
Rv3152	3519282	3520514	+
Rv3153	3520507	3521142	+
Rv3154	3521139	3521927	+
Rv3155	3521924	3522223	+
Rv3156	3522234	3524135	+
Rv3157	3524132	3525793	+
Rv3158	3525790	3527385	+
Rv3159c	3529163	3527391	-
Rv3160c	3529979	3529338	-
Rv3161c	3531138	3529990	-
Rv3162c	3531645	3531208	-
Rv3163c	3532913	3531642	-
Rv3164c	3533905	3532943	-
Rv3165c	3534395	3533913	-
Rv3166c	3535351	3534392	-
Rv3167c	3536057	3535431	-
Rv3168	3536102	3537238	+
Rv3169	3537238	3538362	+
Rv3170	3538505	3539851	+
Rv3171c	3540745	3539846	-
Rv3172c	3541364	3540882	-
Rv3173c	3542045	3541443	-
Rv3174	3542138	3542845	+
Rv3175	3542860	3544347	+
Rv3176c	3545300	3544344	-
Rv3177	3545447	3546307	+
Rv3178	3546438	3546797	+
Rv3179	3547618	3548907	+
Rv3180c	3549688	3549254	-
Rv3181c	3550143	3549691	-
Rv3182	3550374	3550718	+
Rv3183	3550715	3551044	+
Rv3184	3551281	3551607	+
Rv3186	3552764	3553090	+
Rv3188	3554298	3554645	+
Rv3189	3554642	3555262	+
Rv3190c	3556687	3555422	-
Rv3191c	3558345	3557311	-
Rv3192	3559563	3560024	+
Rv3193c	3563172	3560194	-
Rv3194c	3564286	3563264	-
Rv3195	3564364	3565782	+
Rv3196	3565788	3566687	+
Rv3196A	3566896	3566696	-
Rv3197	3567024	3568367	+
Rv3197A	3568679	3568401	-
Rv3198c	3571211	3569109	-
Rv3198A	3571335	3571589	+
Rv3199c	3572543	3571602	-
Rv3200c	3573669	3572602	-
Rv3201c	3577036	3573731	-
Rv3202c	3580200	3577033	-
Rv3203	3580638	3581312	+
Rv3204	3581315	3581620	+
Rv3205c	3582505	3581627	-
Rv3206c	3583710	3582532	-
Rv3207c	3584658	3583801	-
Rv3208	3585004	3585690	+
Rv3208A	3585949	3585677	-
Rv3209	3586274	3586834	+
Rv3210c	3587539	3586844	-
Rv3211	3587798	3589381	+
Rv3212	3589394	3590617	+
Rv3213c	3591492	3590692	-
Rv3214	3591646	3592257	+
Rv3215	3592254	3593372	+
Rv3216	3593520	3593852	+
Rv3217c	3594235	3593804	-
Rv3218	3594468	3595433	+
Rv3219	3595713	3595967	+
Rv3220c	3597534	3596029	-
Rv3221c	3597766	3597551	-
Rv3221A	3598356	3598051	-
Rv3222c	3598904	3598353	-
Rv3223c	3599551	3598901	-
Rv3224	3599851	3600699	+
Rv3224A	3600635	3600823	+
Rv3224B	3600801	3601019	+
Rv3225c	3602440	3601016	-
Rv3226c	3603322	3602564	-
Rv3227	3603377	3604729	+
Rv3228	3604726	3605718	+
Rv3229c	3607034	3605751	-
Rv3230c	3608254	3607112	-
Rv3231c	3608873	3608364	-
Rv3232c	3609757	3608870	-
Rv3233c	3610371	3609781	-
Rv3234c	3611189	3610374	-
Rv3235	3611300	3611941	+
Rv3236c	3613116	3611959	-
Rv3237c	3613603	3613121	-
Rv3238c	3614398	3613664	-
Rv3239c	3617603	3614457	-
Rv3240c	3620531	3617682	-
Rv3241c	3621254	3620610	-
Rv3242c	3622211	3621570	-
Rv3243c	3623091	3622249	-
Rv3244c	3624910	3623159	-
Rv3245c	3626613	3624910	-
Rv3246c	3627349	3626663	-
Rv3247c	3628063	3627419	-
Rv3248c	3629647	3628160	-
Rv3249c	3630387	3629752	-
Rv3250c	3630566	3630384	-
Rv3251c	3630738	3630571	-
Rv3252c	3631988	3630738	-
Rv3253c	3633584	3632097	-
Rv3254	3633675	3635063	+
Rv3255c	3636267	3635041	-
Rv3256c	3637315	3636275	-
Rv3257c	3638709	3637312	-
Rv3258c	3639302	3638811	-
Rv3259	3639425	3639844	+
Rv3260c	3640141	3639872	-
Rv3261	3640543	3641538	+
Rv3262	3641535	3642881	+
Rv3263	3643177	3644838	+
Rv3264c	3645977	3644898	-
Rv3265c	3646884	3645979	-
Rv3266c	3647809	3646895	-
Rv3267	3647885	3649381	+
Rv3268	3649420	3650109	+
Rv3269	3650234	3650515	+
Rv3270	3650526	3652682	+
Rv3271c	3653347	3652679	-
Rv3272	3653448	3654632	+
Rv3273	3654637	3656931	+
Rv3274c	3658089	3656920	-
Rv3275c	3658638	3658114	-
Rv3276c	3659924	3658635	-
Rv3277	3659878	3660696	+
Rv3278c	3661169	3660651	-
Rv3279c	3662012	3661212	-
Rv3280	3662062	3663708	+
Rv3281	3663689	3664222	+
Rv3282	3664219	3664887	+
Rv3283	3664928	3665821	+
Rv3284	3665818	3666249	+
Rv3285	3666357	3668159	+
Rv3286c	3668954	3668169	-
Rv3287c	3669388	3668951	-
Rv3288c	3669999	3669586	-
Rv3289c	3670411	3670034	-
Rv3290c	3671794	3670445	-
Rv3291c	3672297	3671845	-
Rv3292	3672328	3673575	+
Rv3293	3673602	3675086	+
Rv3294c	3675995	3675186	-
Rv3295	3676066	3676731	+
Rv3296	3676775	3681316	+
Rv3297	3681320	3682087	+
Rv3298c	3683024	3682110	-
Rv3299c	3685963	3683051	-
Rv3300c	3686900	3685983	-
Rv3301c	3687577	3686912	-
Rv3302c	3689442	3687685	-
Rv3303c	3690938	3689457	-
Rv3304	3691141	3691620	+
Rv3305c	3692808	3691639	-
Rv3306c	3693989	3692805	-
Rv3307	3694054	3694860	+
Rv3308	3694864	3696468	+
Rv3309c	3697093	3696470	-
Rv3310	3697198	3698097	+
Rv3311	3698121	3699383	+
Rv3312c	3700330	3699404	-
Rv3312A	3701016	3700705	-
Rv3313c	3702184	3701087	-
Rv3314c	3703467	3702184	-
Rv3315c	3703865	3703464	-
Rv3316	3704102	3704440	+
Rv3317	3704437	3704871	+
Rv3318	3705000	3706772	+
Rv3319	3706772	3707563	+
Rv3320c	3708070	3707642	-
Rv3321c	3708316	3708074	-
Rv3322c	3709052	3708438	-
Rv3323c	3709714	3709049	-
Rv3324c	3710269	3709715	-
Rv3325	3710433	3710759	+
Rv3327	3711749	3713461	+
Rv3328c	3714332	3713394	-
Rv3329	3714392	3715708	+
Rv3330	3715777	3716994	+
Rv3331	3717090	3718598	+
Rv3332	3718595	3719746	+
Rv3333c	3720782	3719937	-
Rv3334	3721257	3721697	+
Rv3335c	3722600	3721731	-
Rv3336c	3723631	3722621	-
Rv3337	3723656	3724042	+
Rv3338	3723904	3724548	+
Rv3339c	3725844	3724615	-
Rv3340	3726127	3727476	+
Rv3341	3727488	3728627	+
Rv3342	3728624	3729355	+
Rv3343c	3736935	3729364	-
Rv3345c	3742774	3738158	-
Rv3346c	3743455	3743198	-
Rv3347c	3753184	3743711	-
Rv3348	3753765	3754256	+
Rv3349c	3755033	3754293	-
Rv3350c	3767102	3755952	-
Rv3351c	3768140	3767346	-
Rv3352c	3768593	3768222	-
Rv3353c	3768996	3768736	-
Rv3354	3769111	3769500	+
Rv3355c	3769807	3769514	-
Rv3356c	3770649	3769804	-
Rv3357	3770773	3771048	+
Rv3358	3771045	3771302	+
Rv3359	3771344	3772534	+
Rv3360	3772651	3773019	+
Rv3361c	3773567	3773016	-
Rv3362c	3774155	3773574	-
Rv3363c	3774504	3774136	-
Rv3364c	3774874	3774482	-
Rv3365c	3777501	3774871	-
Rv3366	3777737	3778201	+
Rv3367	3778568	3780334	+
Rv3368c	3780979	3780335	-
Rv3369	3780978	3781412	+
Rv3370c	3784776	3781501	-
Rv3371	3784932	3786272	+
Rv3372	3786314	3787489	+
Rv3373	3787726	3788367	+
Rv3374	3788368	3788616	+
Rv3375	3788621	3790048	+
Rv3376	3790156	3790809	+
Rv3377c	3792353	3790848	-
Rv3378c	3793248	3792358	-
Rv3379c	3794867	3793257	-
Rv3380c	3795984	3795100	-
Rv3381c	3796361	3796035	-
Rv3382c	3797437	3796448	-
Rv3383c	3798489	3797437	-
Rv3384c	3799635	3799243	-
Rv3385c	3799943	3799635	-
Rv3386	3800092	3800796	+
Rv3387	3800786	3801463	+
Rv3388	3801653	3803848	+
Rv3389c	3804791	3803919	-
Rv3390	3804865	3805575	+
Rv3391	3805621	3807573	+
Rv3392c	3808437	3807574	-
Rv3393	3808461	3809387	+
Rv3394c	3811025	3809442	-
Rv3395c	3811636	3811022	-
Rv3395A	3811719	3812345	+
Rv3396c	3814078	3812501	-
Rv3397c	3814998	3814090	-
Rv3398c	3816106	3815027	-
Rv3399	3816129	3817175	+
Rv3400	3817239	3818027	+
Rv3401	3818042	3820402	+
Rv3402c	3821891	3820653	-
Rv3403c	3823863	3822262	-
Rv3404c	3824584	3823880	-
Rv3405c	3825268	3824702	-
Rv3406	3825330	3826217	+
Rv3407	3826252	3826551	+
Rv3408	3826548	3826958	+
Rv3409c	3828727	3826991	-
Rv3410c	3829910	3828783	-
Rv3411c	3831519	3829930	-
Rv3412	3831726	3832136	+
Rv3413c	3833045	3832146	-
Rv3414c	3833676	3833038	-
Rv3415c	3834521	3833694	-
Rv3416	3834892	3835200	+
Rv3417c	3836891	3835272	-
Rv3418c	3837288	3836986	-
Rv3419c	3838589	3837555	-
Rv3420c	3839062	3838586	-
Rv3421c	3839694	3839059	-
Rv3422c	3840197	3839691	-
Rv3423c	3841420	3840194	-
Rv3424c	3842076	3841714	-
Rv3425	3842239	3842769	+
Rv3426	3843036	3843734	+
Rv3427c	3844640	3843885	-
Rv3428c	3845970	3844738	-
Rv3429	3847165	3847701	+
Rv3430c	3848805	3847642	-
Rv3431c	3850139	3849294	-
Rv3432c	3851754	3850372	-
Rv3433c	3853213	3851792	-
Rv3434c	3853928	3853215	-
Rv3435c	3854793	3853939	-
Rv3436c	3856889	3855015	-
Rv3437	3856911	3857387	+
Rv3438	3857397	3858239	+
Rv3439c	3859662	3858259	-
Rv3440c	3859976	3859665	-
Rv3441c	3861370	3860024	-
Rv3442c	3861950	3861495	-
Rv3443c	3862390	3861947	-
Rv3444c	3862926	3862624	-
Rv3445c	3863324	3862947	-
Rv3446c	3864531	3863317	-
Rv3447c	3868238	3864528	-
Rv3448	3868352	3869755	+
Rv3449	3869752	3871119	+
Rv3450c	3872496	3871084	-
Rv3451	3872617	3873405	+
Rv3452	3873452	3874132	+
Rv3453	3874404	3874736	+
Rv3454	3874822	3876090	+
Rv3455c	3876945	3876052	-
Rv3456c	3877432	3876890	-
Rv3457c	3878507	3877464	-
Rv3458c	3879264	3878659	-
Rv3459c	3879692	3879273	-
Rv3460c	3880070	3879696	-
Rv3461c	3880399	3880286	-
Rv3462c	3880653	3880432	-
Rv3463	3880907	3881764	+
Rv3464	3881837	3882832	+
Rv3465	3882834	3883442	+
Rv3466	3883525	3884193	+
Rv3467	3883964	3884917	+
Rv3468c	3886069	3884975	-
Rv3469c	3887083	3886073	-
Rv3470c	3888802	3887144	-
Rv3471c	3889341	3888808	-
Rv3472	3889362	3889868	+
Rv3473c	3890733	3889948	-
Rv3474	3890830	3891156	+
Rv3476c	3893720	3892371	-
Rv3477	3894093	3894389	+
Rv3478	3894426	3895607	+
Rv3479	3895820	3898885	+
Rv3480c	3900402	3898909	-
Rv3481c	3901182	3900493	-
Rv3482c	3902106	3901324	-
Rv3483c	3902812	3902150	-
Rv3484	3903078	3904616	+
Rv3485c	3905566	3904622	-
Rv3486	3905772	3906221	+
Rv3487c	3907007	3906174	-
Rv3488	3907667	3907990	+
Rv3489	3908072	3908236	+
Rv3490	3908236	3909738	+
Rv3491	3909890	3910468	+
Rv3492c	3910947	3910465	-
Rv3493c	3911675	3910947	-
Rv3494c	3913369	3911675	-
Rv3495c	3914534	3913380	-
Rv3496c	3915886	3914531	-
Rv3497c	3916956	3915883	-
Rv3498c	3917998	3916946	-
Rv3499c	3919200	3917998	-
Rv3500c	3920062	3919220	-
Rv3501c	3920861	3920097	-
Rv3502c	3922040	3921087	-
Rv3503c	3922256	3922065	-
Rv3504	3922471	3923673	+
Rv3505	3923698	3924819	+
Rv3506	3924890	3926398	+
Rv3507	3926569	3930714	+
Rv3508	3931005	3936710	+
Rv3509c	3938424	3936877	-
Rv3510c	3939257	3938421	-
Rv3511	3939617	3941761	+
Rv3513c	3945748	3945092	-
Rv3514	3945794	3950263	+
Rv3515c	3952470	3950824	-
Rv3516	3952544	3953335	+
Rv3517	3953431	3954270	+
Rv3518c	3955521	3954325	-
Rv3519	3955550	3956260	+
Rv3520c	3957368	3956325	-
Rv3521	3957521	3958432	+
Rv3522	3958448	3959512	+
Rv3523	3959529	3960713	+
Rv3524	3960755	3961786	+
Rv3525c	3962324	3961800	-
Rv3526	3962439	3963599	+
Rv3527	3963605	3964054	+
Rv3528c	3965192	3964479	-
Rv3529c	3967038	3965884	-
Rv3530c	3967820	3967038	-
Rv3531c	3968944	3967817	-
Rv3532	3969343	3970563	+
Rv3533c	3972453	3970705	-
Rv3534c	3973592	3972552	-
Rv3535c	3974500	3973589	-
Rv3536c	3975296	3974511	-
Rv3537	3975369	3977060	+
Rv3538	3977062	3977922	+
Rv3539	3978059	3979498	+
Rv3540c	3980659	3979499	-
Rv3541c	3981048	3980659	-
Rv3542c	3981980	3981045	-
Rv3543c	3983140	3981977	-
Rv3544c	3984144	3983125	-
Rv3545c	3985445	3984144	-
Rv3546	3985557	3986732	+
Rv3547	3986844	3987299	+
Rv3548c	3988296	3987382	-
Rv3549c	3989098	3988319	-
Rv3550	3989153	3989896	+
Rv3551	3989896	3990774	+
Rv3552	3990771	3991523	+
Rv3553	3991621	3992688	+
Rv3554	3992685	3994742	+
Rv3555c	3995699	3994830	-
Rv3556c	3996964	3995804	-
Rv3557c	3997631	3997029	-
Rv3558	3997980	3999638	+
Rv3559c	4000435	3999647	-
Rv3560c	4001589	4000432	-
Rv3561	4001637	4003160	+
Rv3562	4003161	4004294	+
Rv3563	4004291	4005250	+
Rv3564	4005247	4006203	+
Rv3565	4006200	4007366	+
Rv3566c	4008182	4007331	-
Rv3566A	4008433	4008167	-
Rv3567c	4009282	4008719	-
Rv3568c	4010199	4009297	-
Rv3569c	4011071	4010196	-
Rv3570c	4012270	4011086	-
Rv3571	4012417	4013493	+
Rv3572	4013511	4014041	+
Rv3573c	4016212	4014077	-
Rv3574	4016484	4017083	+
Rv3575c	4018168	4017089	-
Rv3576	4018358	4019071	+
Rv3577	4019262	4020128	+
Rv3578	4020142	4021383	+
Rv3579c	4022393	4021425	-
Rv3580c	4023803	4022394	-
Rv3581c	4024347	4023868	-
Rv3582c	4025039	4024344	-
Rv3583c	4025544	4025056	-
Rv3584	4025830	4026378	+
Rv3585	4026444	4027886	+
Rv3586	4027891	4028967	+
Rv3587c	4029762	4028968	-
Rv3588c	4030494	4029871	-
Rv3589	4030493	4031407	+
Rv3590c	4033158	4031404	-
Rv3591c	4034042	4033269	-
Rv3592	4034057	4034374	+
Rv3593	4034352	4035710	+
Rv3594	4035857	4036684	+
Rv3595c	4038050	4036731	-
Rv3596c	4040704	4038158	-
Rv3597c	4041319	4040981	-
Rv3598c	4042940	4041423	-
Rv3599c	4043035	4042952	-
Rv3600c	4043859	4043041	-
Rv3601c	4044281	4043862	-
Rv3602c	4045210	4044281	-
Rv3603c	4046118	4045207	-
Rv3604c	4047496	4046303	-
Rv3605c	4048181	4047705	-
Rv3606c	4048747	4048181	-
Rv3607c	4049145	4048744	-
Rv3608c	4049980	4049138	-
Rv3609c	4050585	4049977	-
Rv3610c	4052883	4050601	-
Rv3611	4052950	4053603	+
Rv3612c	4053847	4053518	-
Rv3613c	4054042	4053881	-
Rv3614c	4054696	4054142	-
Rv3615c	4055123	4054812	-
Rv3616c	4056375	4055197	-
Rv3617	4057733	4058701	+
Rv3618	4058698	4059885	+
Rv3619c	4060268	4059984	-
Rv3620c	4060591	4060295	-
Rv3621c	4061889	4060648	-
Rv3622c	4062198	4061899	-
Rv3623	4062527	4063249	+
Rv3624c	4063904	4063254	-
Rv3625c	4064872	4063901	-
Rv3626c	4065903	4064851	-
Rv3627c	4067285	4065900	-
Rv3628	4067423	4067911	+
Rv3629c	4069054	4067957	-
Rv3630	4069175	4070470	+
Rv3631	4070514	4071239	+
Rv3632	4071236	4071580	+
Rv3633	4071791	4072666	+
Rv3634c	4073611	4072667	-
Rv3635	4073634	4075409	+
Rv3636	4075752	4076099	+
Rv3637	4076484	4076984	+
Rv3638	4076984	4077730	+
Rv3639c	4078450	4077884	-
Rv3640c	4079749	4078520	-
Rv3641c	4080560	4079925	-
Rv3642c	4080765	4080571	-
Rv3643	4081160	4081351	+
Rv3644c	4082721	4081516	-
Rv3645	4082807	4084456	+
Rv3646c	4087257	4084453	-
Rv3647c	4088188	4087610	-
Rv3648c	4088531	4088328	-
Rv3649	4088781	4091096	+
Rv3650	4091233	4091517	+
Rv3651	4091841	4092878	+
Rv3652	4093632	4093946	+
Rv3653	4093940	4094527	+
Rv3654c	4094914	4094660	-
Rv3655c	4095300	4094923	-
Rv3656c	4095530	4095324	-
Rv3657c	4096115	4095540	-
Rv3658c	4096939	4096139	-
Rv3659c	4097994	4096936	-
Rv3660c	4099148	4098096	-
Rv3661	4099647	4100510	+
Rv3662c	4102035	4101265	-
Rv3663c	4103678	4102032	-
Rv3664c	4104475	4103675	-
Rv3665c	4105457	4104531	-
Rv3666c	4107084	4105459	-
Rv3667	4107792	4109747	+
Rv3668c	4110481	4109783	-
Rv3669	4110827	4111345	+
Rv3670	4111346	4112329	+
Rv3671c	4113515	4112322	-
Rv3672c	4114342	4113521	-
Rv3673c	4115157	4114474	-
Rv3674c	4115894	4115157	-
Rv3675	4116002	4116379	+
Rv3676	4116478	4117152	+
Rv3677c	4118052	4117258	-
Rv3678c	4118514	4118059	-
Rv3678A	4118691	4118530	-
Rv3679	4118776	4119798	+
Rv3680	4119795	4120955	+
Rv3681c	4121554	4121198	-
Rv3682	4121916	4124348	+
Rv3683	4124417	4125376	+
Rv3684	4125439	4126479	+
Rv3685c	4128725	4127295	-
Rv3686c	4129083	4128751	-
Rv3687c	4129691	4129323	-
Rv3688c	4130357	4129893	-
Rv3689	4130357	4131712	+
Rv3690	4131739	4132392	+
Rv3691	4132518	4133519	+
Rv3692	4133516	4134592	+
Rv3693	4134726	4136048	+
Rv3694c	4137114	4136122	-
Rv3695	4137206	4138138	+
Rv3696c	4139755	4138202	-
Rv3697c	4140242	4139805	-
Rv3698	4140493	4142022	+
Rv3699	4142044	4142745	+
Rv3700c	4143920	4142748	-
Rv3701c	4144916	4143951	-
Rv3702c	4145614	4144913	-
Rv3703c	4146891	4145614	-
Rv3704c	4148186	4146888	-
Rv3705c	4148962	4148318	-
Rv3705A	4149480	4149091	-
Rv3706c	4149911	4149591	-
Rv3707c	4151040	4150030	-
Rv3708c	4152217	4151180	-
Rv3709c	4153483	4152218	-
Rv3710	4153860	4155674	+
Rv3711c	4156729	4155740	-
Rv3712	4156981	4158222	+
Rv3713	4158227	4158922	+
Rv3714c	4159821	4158931	-
Rv3715c	4160500	4159889	-
Rv3716c	4160913	4160512	-
Rv3717	4161048	4161773	+
Rv3718c	4162258	4161815	-
Rv3719	4162306	4163718	+
Rv3720	4163736	4164998	+
Rv3721c	4166731	4164995	-
Rv3722c	4168128	4166821	-
Rv3723	4168536	4169300	+
Rv3724A	4169467	4169709	+
Rv3724B	4169606	4170169	+
Rv3725	4170214	4171143	+
Rv3726	4171421	4172614	+
Rv3727	4172955	4174763	+
Rv3728	4174873	4178070	+
Rv3729	4178285	4180615	+
Rv3730c	4181720	4180680	-
Rv3731	4181758	4182834	+
Rv3732	4182934	4183992	+
Rv3733c	4184512	4184012	-
Rv3734c	4185890	4184526	-
Rv3735	4186089	4186577	+
Rv3736	4186634	4187695	+
Rv3737	4187699	4189288	+
Rv3738c	4190232	4189285	-
Rv3739c	4190517	4190284	-
Rv3740c	4192179	4190833	-
Rv3741c	4192853	4192179	-
Rv3742c	4193245	4192850	-
Rv3743c	4195373	4193391	-
Rv3744	4195440	4195802	+
Rv3745c	4196098	4195886	-
Rv3746c	4196506	4196171	-
Rv3747	4196724	4197107	+
Rv3748	4197236	4197595	+
Rv3749c	4198137	4197628	-
Rv3750c	4198597	4198205	-
Rv3751	4198874	4199089	+
Rv3752c	4199705	4199247	-
Rv3753c	4200221	4199721	-
Rv3754	4200421	4201326	+
Rv3755c	4201888	4201289	-
Rv3756c	4202613	4201894	-
Rv3757c	4203299	4202610	-
Rv3758c	4204417	4203287	-
Rv3759c	4205373	4204426	-
Rv3760	4205538	4205840	+
Rv3761c	4206917	4205862	-
Rv3762c	4208876	4206996	-
Rv3763	4209047	4209526	+
Rv3764c	4211009	4209582	-
Rv3765c	4211784	4211080	-
Rv3766	4212293	4212982	+
Rv3767c	4213940	4212996	-
Rv3768	4214070	4214429	+
Rv3769	4214615	4214887	+
Rv3770c	4215775	4215200	-
Rv3770A	4216063	4215881	-
Rv3770B	4216269	4216078	-
Rv3771c	4216730	4216404	-
Rv3772	4217134	4218195	+
Rv3773c	4218825	4218241	-
Rv3774	4218849	4219673	+
Rv3775	4219685	4220932	+
Rv3776	4221089	4222648	+
Rv3777	4222694	4223680	+
Rv3778c	4224895	4223699	-
Rv3779	4224985	4226985	+
Rv3780	4226989	4227525	+
Rv3781	4227529	4228350	+
Rv3782	4228347	4229261	+
Rv3783	4229258	4230100	+
Rv3784	4230256	4231236	+
Rv3785	4231320	4232393	+
Rv3786c	4233597	4232374	-
Rv3787c	4234536	4233610	-
Rv3788	4234780	4235265	+
Rv3789	4235374	4235739	+
Rv3790	4235779	4237164	+
Rv3791	4237165	4237929	+
Rv3792	4237932	4239863	+
Rv3793	4239863	4243147	+
Rv3794	4243233	4246517	+
Rv3795	4246514	4249810	+
Rv3796	4249878	4251005	+
Rv3797	4251085	4252866	+
Rv3798	4252993	4254327	+
Rv3799c	4255948	4254380	-
Rv3800c	4261146	4255945	-
Rv3801c	4263066	4261153	-
Rv3802c	4264365	4263355	-
Rv3803c	4265462	4264563	-
Rv3804c	4266658	4265642	-
Rv3805c	4268836	4266953	-
Rv3806c	4269833	4268925	-
Rv3807c	4270337	4269840	-
Rv3808c	4272279	4270366	-
Rv3809c	4273475	4272276	-
Rv3810	4273739	4274593	+
Rv3811	4274798	4276417	+
Rv3812	4276571	4278085	+
Rv3813c	4279215	4278394	-
Rv3814c	4280015	4279230	-
Rv3815c	4280788	4280033	-
Rv3816c	4281571	4280792	-
Rv3817	4281647	4282402	+
Rv3818	4282449	4283999	+
Rv3819	4283996	4284331	+
Rv3820c	4285825	4284419	-
Rv3821	4285973	4286686	+
Rv3822	4286721	4287935	+
Rv3823c	4291529	4288260	-
Rv3824c	4293174	4291639	-
Rv3825c	4299605	4293225	-
Rv3826	4299812	4301566	+
Rv3827c	4302789	4301563	-
Rv3828c	4303397	4302786	-
Rv3829c	4305008	4303398	-
Rv3830c	4305685	4305056	-
Rv3831	4305757	4306239	+
Rv3832c	4306811	4306236	-
Rv3833	4306867	4307658	+
Rv3834c	4308914	4307655	-
Rv3835	4309047	4310396	+
Rv3836	4310401	4310814	+
Rv3837c	4311707	4311009	-
Rv3838c	4312669	4311704	-
Rv3839	4312765	4313541	+
Rv3840	4313567	4313980	+
Rv3841	4314178	4314723	+
Rv3842c	4315562	4314738	-
Rv3843c	4316596	4315568	-
Rv3844	4318775	4319266	+
Rv3845	4319281	4319640	+
Rv3846	4320704	4321327	+
Rv3847	4321538	4322071	+
Rv3848	4322326	4323234	+
Rv3849	4323499	4323897	+
Rv3850	4324015	4324671	+
Rv3851	4324683	4324967	+
Rv3852	4325074	4325478	+
Rv3853	4325495	4325968	+
Rv3854c	4327473	4326004	-
Rv3855	4327549	4328199	+
Rv3856c	4329408	4328401	-
Rv3857c	4329614	4329417	-
Rv3858c	4331505	4330039	-
Rv3859c	4336081	4331498	-
Rv3860	4336777	4337949	+
Rv3861	4337946	4338272	+
Rv3862c	4338521	4338171	-
Rv3863	4338849	4340027	+
Rv3864	4340270	4341478	+
Rv3865	4341566	4341877	+
Rv3866	4341880	4342731	+
Rv3867	4342770	4343321	+
Rv3868	4343314	4345035	+
Rv3869	4345039	4346481	+
Rv3870	4346481	4348724	+
Rv3871	4348827	4350602	+
Rv3872	4350745	4351044	+
Rv3873	4351075	4352181	+
Rv3874	4352274	4352576	+
Rv3875	4352609	4352896	+
Rv3876	4353010	4355010	+
Rv3877	4355007	4356542	+
Rv3878	4356693	4357535	+
Rv3879c	4359782	4357593	-
Rv3880c	4360546	4360199	-
Rv3881c	4361925	4360543	-
Rv3882c	4363420	4362032	-
Rv3883c	4364757	4363417	-
Rv3884c	4366838	4364979	-
Rv3885c	4368521	4366908	-
Rv3886c	4370170	4368518	-
Rv3887c	4371684	4370155	-
Rv3888c	4372706	4371681	-
Rv3889c	4373630	4372800	-
Rv3890c	4374013	4373726	-
Rv3891c	4374372	4374049	-
Rv3892c	4375683	4374484	-
Rv3893c	4375995	4375762	-
Rv3894c	4380452	4376262	-
Rv3895c	4381940	4380453	-
Rv3896c	4382851	4381943	-
Rv3897c	4383640	4383008	-
Rv3898c	4383985	4383653	-
Rv3899c	4385379	4384147	-
Rv3900c	4386308	4385373	-
Rv3901c	4386814	4386365	-
Rv3902c	4387895	4387365	-
Rv3903c	4390432	4387892	-
Rv3904c	4390709	4390437	-
Rv3905c	4391031	4390720	-
Rv3906c	4391606	4391097	-
Rv3907c	4393073	4391631	-
Rv3908	4393449	4394195	+
Rv3909	4394192	4396600	+
Rv3910	4396597	4400151	+
Rv3911	4400186	4400854	+
Rv3912	4400870	4401634	+
Rv3913	4401728	4402735	+
Rv3914	4402732	4403082	+
Rv3915	4403192	4404412	+
Rv3916c	4405167	4404433	-
Rv3917c	4406491	4405457	-
Rv3918c	4407531	4406488	-
Rv3919c	4408202	4407528	-
Rv3920c	4408897	4408334	-
Rv3921c	4410069	4408969	-
Rv3922c	4410415	4410053	-
Rv3923c	4410762	4410412	-
Rv3924c	4410929	4410786	-
