thrL	190	255	+
thrA	337	2799	+
thrB	2801	3733	+
thrC	3734	5020	+
yaaX	5234	5530	+
yaaA	6459	5683	-
yaaJ	7959	6529	-
talB	8238	9191	+
mog	9306	9893	+
yaaH	10494	9928	-
yaaW	11356	10643	-
htgA	10830	11315	+
yaaI	11786	11382	-
dnaK	12163	14079	+
dnaJ	14168	15298	+
insL	15445	16557	+
hokC	16960	16751	-
hokC	16903	16751	-
nhaA	17489	18655	+
nhaR	18715	19620	+
insB	20314	19811	-
insA	20508	20233	-
rpsT	21078	20815	-
yaaY	21181	21399	+
ribF	21407	22348	+
ileS	22391	25207	+
lspA	25207	25701	+
fkpB	25826	26275	+
ispH	26277	27227	+
rihC	27293	28207	+
dapB	28374	29195	+
carA	29651	30799	+
carB	30817	34038	+
caiF	34300	34695	+
caiE	35371	34781	-
caiD	36270	35377	-
caiC	37839	36271	-
caiB	39115	37898	-
caiA	40386	39244	-
caiT	41931	40417	-
fixA	42403	43173	+
fixB	43188	44129	+
fixC	44180	45466	+
fixX	45463	45750	+
yaaU	45807	47138	+
kefF	47246	47776	+
kefC	47769	49631	+
folA	49823	50302	+
apaH	51222	50380	-
apaG	51606	51229	-
ksgA	52430	51609	-
pdxA	53416	52427	-
surA	54702	53416	-
imp	57109	54755	-
djlA	57364	58179	+
yabP	58474	59124	+
yabQ	59121	59279	+
rluA	60346	59687	-
hepA	63264	60358	-
polB	65780	63429	-
araD	66550	65855	-
araA	68337	66835	-
araB	70048	68348	-
araC	70387	71265	+
yabI	71351	72115	+
thiQ	72927	72229	-
thiP	74521	72911	-
tbpA	75480	74497	-
sgrR	77299	75644	-
setA	77621	78799	+
leuD	79453	78848	-
leuC	80864	79464	-
leuB	81958	80867	-
leuA	83529	81958	-
leuL	83708	83622	-
leuO	84368	85312	+
ilvI	85630	87354	+
ilvH	87357	87848	+
fruR	88028	89032	+
mraZ	89634	90092	+
mraW	90094	91035	+
ftsL	91032	91397	+
ftsI	91413	93179	+
murE	93166	94653	+
murF	94650	96008	+
mraY	96002	97084	+
murD	97087	98403	+
ftsW	98403	99647	+
murG	99644	100711	+
murC	100765	102240	+
ddlB	102233	103153	+
ftsQ	103155	103985	+
ftsA	103982	105244	+
ftsZ	105305	106456	+
lpxC	106557	107474	+
secM	107705	108217	+
secA	108279	110984	+
mutT	111044	111433	+
yacG	111846	111649	-
yacF	112599	111856	-
coaE	113219	112599	-
guaC	113444	114487	+
hofC	115724	114522	-
hofB	117099	115714	-
ppdD	117549	117109	-
nadC	118645	117752	-
ampD	118733	119284	+
ampE	119281	120135	+
aroP	121551	120178	-
pdhR	122092	122856	+
aceE	123017	125680	+
aceF	125695	127587	+
lpd	127912	129336	+
yacH	131260	129407	-
acnB	131615	134212	+
yacL	134388	134750	+
speD	135582	134788	-
speE	136464	135598	-
yacC	136917	136570	-
cueO	137083	138633	+
gcd	141225	138835	-
hpt	141431	141967	+
can	142670	142008	-
yadG	142779	143705	+
yadH	143702	144472	+
yadI	144577	145017	+
yadE	145081	146310	+
panD	146694	146314	-
yadD	146968	147870	+
panC	148795	147944	-
panB	149601	148807	-
yadC	150953	149715	-
yadK	151599	151003	-
yadL	152231	151626	-
yadM	152812	152243	-
htrE	155426	152829	-
ecpD	156201	155461	-
yadN	156883	156299	-
folK	157732	157253	-
yadB	160112	159186	-
dksA	160604	160149	-
sfsA	161486	160782	-
ligT	162031	161501	-
hrpB	162105	164534	+
mrcB	164730	167264	+
fhuA	167484	169727	+
fhuC	169778	170575	+
fhuD	170575	171465	+
fhuB	171462	173444	+
hemL	174882	173602	-
clcA	175107	176528	+
yadR	176610	176954	+
yadS	177624	177001	-
btuF	178462	177662	-
pfs	179153	178455	-
dgt	179237	180754	+
degP	180884	182308	+
cdaR	182463	183620	+
yaeH	184095	183709	-
yaeI	185069	184257	-
dapD	185947	185123	-
glnD	188650	185978	-
map	189506	188712	-
rpsB	189874	190599	+
tsf	190857	191708	+
pyrH	191855	192580	+
frr	192872	193429	+
dxr	193521	194717	+
ispU	194903	195664	+
cdsA	195677	196534	+
yaeL	196546	197898	+
yaeT	197928	200360	+
hlpA	200482	200967	+
lpxD	200971	201996	+
fabZ	202101	202556	+
lpxA	202560	203348	+
lpxB	203348	204496	+
rnhB	204493	205089	+
dnaE	205126	208608	+
accA	208621	209580	+
ldcC	209679	211820	+
yaeR	211877	212266	+
tilS	212331	213629	+
rof	213932	213678	-
yaeP	214125	213925	-
yaeQ	214291	214836	+
yaeJ	214833	215255	+
nlpE	215269	215979	+
yaeF	217003	216179	-
proS	218775	217057	-
yaeB	219594	218887	-
rcsF	219995	219591	-
metQ	220928	220113	-
metI	221621	220968	-
metN	222645	221614	-
gmhB	222833	223408	+
dkgB	229167	229970	+
yafC	230881	229967	-
yafD	231122	231922	+
yafE	231926	232549	+
mltD	233955	232597	-
gloB	234782	234027	-
yafS	234816	235538	+
rnhA	236002	235535	-
dnaQ	236067	236798	+
yafT	237335	238120	+
yafU	239084	238746	-
yafF	239190	239378	+
yafV	240189	239419	-
ivy	240343	240816	+
fadE	243303	240859	-
lpcA	243543	244121	+
yafJ	244327	245094	+
yafK	245805	245065	-
yafQ	246239	245961	-
dinJ	246502	246242	-
yafL	246712	247461	+
yafM	247637	248134	+
dinB	250898	251953	+
yafN	252005	252298	+
yafO	252301	252699	+
yafP	252709	253161	+
ykfJ	253467	253733	+
prfH	253702	254202	+
pepD	255716	254259	-
gpt	255977	256435	+
frsA	256527	257771	+
crl	257829	258230	+
phoE	259324	258269	-
proB	259612	260715	+
proA	260727	261980	+
ykfI	262893	262552	-
yafW	263231	262914	-
ykfH	263471	263250	-
ykfG	263956	263480	-
yafX	264430	263972	-
ykfF	264767	264528	-
ykfB	265311	264844	-
yafY	266191	265334	-
yafZ	267229	266408	-
ykfA	268184	267321	-
perR	269406	268513	-
insN	269466	269870	+
insI	269827	270978	+
insO	271054	271479	+
ykfC	272071	273216	+
insH	274341	273325	-
mmuP	274549	275952	+
mmuM	275939	276871	+
afuC	278026	276980	-
afuB	278400	278038	-
insB	278905	278402	-
insA	279099	278824	-
ykgN	279586	279248	-
yagB	279959	279609	-
yagA	281207	280053	-
yagE	281481	282410	+
yagF	282425	284392	+
yagG	284619	286001	+
yagH	286013	287623	+
yagI	288386	287628	-
argF	289529	288525	-
insB	290376	289873	-
insA	290570	290295	-
yagJ	290724	291455	+
yagK	292172	291546	-
yagL	293142	292444	-
yagM	294023	293169	-
yagN	294803	294363	-
intF	296320	294920	-
yagP	297015	296605	-
yagQ	297950	296994	-
yagR	300158	297960	-
yagS	301111	300155	-
yagT	301797	301108	-
yagU	302215	302829	+
ykgJ	303406	303077	-
yagV	304429	303719	-
yagW	306041	304398	-
yagX	308556	306031	-
yagY	309250	308582	-
yagZ	309895	309308	-
ykgK	310560	309970	-
ykgL	311336	311563	+
ykgM	311738	311598	-
ykgM	312001	311738	-
eaeH	313581	314468	+
insE	314506	314814	+
insF	314811	315677	+
ykgA	316360	315674	-
ykgB	317543	316950	-
ykgI	317791	317555	-
ykgC	319225	317900	-
ykgD	319451	320305	+
ykgE	320832	321551	+
ykgF	321562	322989	+
ykgG	322982	323677	+
ykgH	324588	323920	-
betA	326471	324801	-
betB	327957	326485	-
betI	328558	327971	-
betT	328687	330720	+
yahA	331595	332683	+
yahB	333657	332725	-
yahC	334246	333749	-
yahD	334504	335109	+
yahE	335149	336012	+
yahF	336002	337549	+
yahG	337549	338967	+
yahH	339017	339313	+
yahI	339389	340339	+
yahJ	340349	341731	+
yahK	342108	343157	+
yahL	343400	344215	+
yahM	344628	344873	+
yahN	345561	344890	-
yahO	345708	345983	+
prpR	347667	346081	-
prpB	347906	348796	+
prpC	349236	350405	+
prpD	350439	351890	+
prpE	351930	353816	+
codB	354146	355405	+
codA	355395	356678	+
cynR	357914	357015	-
cynT	358023	358682	+
cynS	358713	359183	+
cynX	359216	360370	+
lacA	361084	360473	-
lacY	362403	361150	-
lacZ	365529	362455	-
lacI	366734	365652	-
mhpR	367758	366811	-
mhpA	367835	369499	+
mhpB	369501	370445	+
mhpC	370448	371329	+
mhpD	371339	372148	+
mhpF	372145	373095	+
mhpE	373092	374105	+
mhpT	374683	375894	+
yaiL	375996	376535	+
frmB	377592	376759	-
frmA	378795	377686	-
frmR	379105	378830	-
yaiO	380066	379293	-
insC	380530	380940	+
insD	380898	381803	+
yaiF	382114	381728	-
yaiP	383159	381963	-
yaiS	383840	383283	-
tauA	384456	385418	+
tauB	385431	386198	+
tauC	386195	387022	+
tauD	387019	387870	+
hemB	388951	387977	-
ykiB	389339	389121	-
yaiT	389475	390935	+
insF	391829	390963	-
insE	392134	391826	-
yaiU	392239	393642	+
yaiV	393685	394353	+
ampH	395511	394354	-
sbmA	395863	397083	+
yaiW	397096	398190	+
yaiY	398557	398249	-
yaiZ	398817	399029	+
ddlA	400147	399053	-
yaiB	400610	400870	+
phoA	400971	402386	+
psiF	402505	402825	+
yaiC	402927	404042	+
proC	404868	404059	-
yaiI	404988	405446	+
aroL	405629	406153	+
yaiA	406203	406394	+
aroM	406652	407329	+
yaiE	407401	407685	+
ykiA	407893	408174	+
rdgC	409243	408332	-
mak	409368	410276	+
araJ	411705	410521	-
sbcC	414977	411831	-
sbcD	416176	414974	-
phoB	416366	417055	+
phoR	417113	418408	+
brnQ	418815	420134	+
proY	420210	421583	+
malZ	421739	423556	+
yajB	424142	423561	-
queA	424235	425305	+
tgt	425361	426488	+
yajC	426511	426843	+
secD	426871	428718	+
secF	428729	429700	+
yajD	429829	430176	+
tsx	431237	430353	-
yajI	432075	431536	-
ybaD	432226	432675	+
ribD	432679	433782	+
ribE	433871	434341	+
nusB	434361	434780	+
thiL	434858	435835	+
pgpA	435813	436331	+
yajO	437359	436385	-
dxs	439401	437539	-
ispA	440325	439426	-
xseB	440567	440325	-
thiI	440773	442221	+
yajL	442865	442275	-
panE	443739	442828	-
yajQ	443907	444398	+
yajR	445890	444526	-
cyoE	446929	446039	-
cyoD	447270	446941	-
cyoC	447884	447270	-
cyoB	449865	447874	-
cyoA	450834	449887	-
ampG	452769	451294	-
yajG	453391	452813	-
bolA	453696	454013	+
tig	454357	455655	+
clpP	455901	456524	+
clpX	456650	457924	+
lon	458112	460466	+
hupB	460675	460947	+
ppiD	461139	463010	+
ybaV	463161	463532	+
ybaW	463626	464024	+
ybaX	464771	464076	-
ybaE	466536	464836	-
cof	466636	467454	+
ybaO	467607	468065	+
mdlA	468095	469867	+
mdlB	469860	471641	+
glnK	471822	472160	+
amtB	472190	473476	+
tesB	474385	473525	-
ybaY	474603	475175	+
ybaZ	475595	475206	-
ybaA	475896	476249	+
ylaB	477841	476291	-
ylaC	478475	478005	-
maa	479142	478591	-
hha	479532	479314	-
ybaJ	479932	479558	-
acrB	483627	480478	-
acrA	484843	483650	-
acrR	484985	485632	+
kefA	485760	489122	+
ybaM	489495	489334	-
priC	490036	489509	-
ybaN	490106	490483	+
apt	490636	491187	+
dnaX	491316	493247	+
ybaB	493300	493629	+
recR	493629	494234	+
htpG	494344	496218	+
adk	496399	497043	+
hemH	497279	498241	+
aes	499197	498238	-
gsk	499349	500653	+
ybaL	502462	500786	-
fsr	503920	502700	-
ushA	504138	505790	+
ybaK	506306	505827	-
ybaP	507304	506510	-
ybaQ	507442	507783	+
copA	510603	508099	-
ybaS	510865	511797	+
ybaT	511800	513092	+
cueR	513217	513624	+
ybbJ	514080	513625	-
ybbK	514997	514080	-
ybbL	515143	515820	+
ybbM	515807	516586	+
ybbN	517503	516649	-
ybbO	518373	517564	-
tesA	518989	518363	-
ybbA	518957	519643	+
ybbP	519640	522054	+
rhsD	522485	526765	+
ybbC	526805	527173	+
ylbH	527173	527883	+
ybbD	527864	528124	+
ylbG	529240	528869	-
ybbB	530450	529356	-
ybbS	531445	530519	-
allA	531675	532157	+
allR	532235	533050	+
gcl	533140	534921	+
hyi	534934	535710	+
glxR	535810	536688	+
ybbV	536720	536998	+
ybbW	536857	538311	+
allB	538371	539732	+
ybbY	539789	541090	+
glxK	541112	542257	+
ylbA	543270	542485	-
allC	544516	543281	-
allD	545587	544538	-
fdrA	545904	547571	+
ylbF	548850	549665	+
ybcF	549662	550555	+
purK	551817	550750	-
purE	552323	551814	-
lpxH	553163	552441	-
ppiB	553660	553166	-
cysS	553834	555219	+
ybcI	555776	555255	-
ybcJ	556096	555884	-
folD	556964	556098	-
sfmA	557435	557977	+
sfmC	558197	558889	+
sfmD	558920	561523	+
sfmH	561565	562542	+
sfmF	562553	563068	+
fimZ	563703	563071	-
intD	565201	564038	-
ybcC	565584	565321	-
insE	566056	566364	+
insF	566361	567227	+
renD	567285	567470	+
emrE	567538	567870	+
ybcK	568125	569651	+
ybcL	570116	570667	+
ybcM	570677	571474	+
ybcN	571689	572144	+
ninE	572144	572314	+
ybcO	572307	572597	+
rusA	572594	572956	+
ylcG	572953	573093	+
ybcQ	573179	573562	+
insH	574976	573960	-
essD	576621	576836	+
ybcS	576836	577333	+
rzpD	577330	577791	+
rzoD	577550	577732	+
borD	578116	577823	-
ybcV	578817	578407	-
ybcW	579103	579309	+
nohB	580057	580602	+
ybcY	581959	581375	-
ylcE	582098	582283	+
appY	582904	583653	+
ompT	584856	583903	-
envY	586131	585370	-
ybcH	587204	586314	-
nfrA	590177	587205	-
nfrB	592401	590164	-
cusS	593993	592551	-
cusR	594666	593983	-
cusC	594823	596196	+
cusF	596354	596686	+
cusB	596702	597925	+
cusA	597937	601080	+
pheP	601182	602558	+
ybdG	603886	602639	-
nfnB	604647	603994	-
ybdF	605109	604741	-
ybdJ	605422	605174	-
ybdK	606606	605488	-
hokE	607059	607211	+
insL	607288	608400	+
entD	609311	608682	-
fepA	611717	609477	-
fes	612038	613162	+
ybdZ	613165	613383	+
entF	613380	617261	+
fepE	617477	618610	+
fepC	619422	618607	-
fepG	620411	619419	-
fepD	621412	620408	-
ybdA	621523	622773	+
fepB	623733	622777	-
entC	624108	625283	+
entE	625293	626903	+
entB	626917	627774	+
entA	627774	628520	+
ybdB	628523	628936	+
cstA	629117	631222	+
ybdD	631405	631602	+
ybdH	632700	631612	-
ybdL	632809	633969	+
ybdM	634599	633970	-
ybdN	635792	634572	-
ybdO	636841	635939	-
dsbG	637796	637050	-
ahpC	638168	638731	+
ahpF	638976	640541	+
uspG	641090	640662	-
ybdR	641311	642549	+
rnk	643190	642780	-
rna	644226	643420	-
citT	645803	644340	-
citG	646732	645854	-
citX	647258	646707	-
citF	648794	647262	-
citE	649713	648805	-
citD	650006	649710	-
citC	651079	650021	-
citA	651458	653116	+
citB	653085	653765	+
dcuC	654282	653806	-
insH	654281	655261	+
dcuC	656390	655299	-
crcA	656979	657539	+
cspE	657714	657923	+
crcB	658360	657977	-
ybeH	658453	658680	+
ybeM	658677	659240	+
tatE	659369	659572	+
lipA	660638	659673	-
ybeF	661800	660847	-
lipB	662700	662059	-
ybeD	663064	662801	-
dacA	664385	663174	-
rlpA	665612	664524	-
mrdB	666735	665623	-
mrdA	668639	666738	-
ybeA	669137	668670	-
ybeB	669458	669141	-
cobC	670329	669718	-
nadD	670994	670353	-
holA	672027	670996	-
rlpB	672608	672027	-
leuS	675205	672623	-
ybeL	675440	675922	+
ybeQ	676969	675992	-
ybeR	677133	677840	+
djlB	677837	679264	+
ybeT	679828	679274	-
ybeU	679930	680637	+
djlC	680634	682085	+
hscC	683815	682145	-
rihA	684834	683899	-
gltL	685677	684952	-
gltK	686351	685677	-
gltJ	687091	686351	-
gltI	688169	687261	-
insH	689435	688419	-
lnt	691303	689765	-
ybeX	692206	691328	-
ybeY	692763	692296	-
ybeZ	693839	692760	-
miaB	695377	693953	-
ubiF	695523	696698	+
asnB	699599	697935	-
nagD	700748	699996	-
nagC	702016	700796	-
nagA	703173	702025	-
nagB	704033	703233	-
nagE	704366	706312	+
glnS	706515	708179	+
ybfM	708756	710162	+
ybfN	710212	710538	+
fur	711068	710622	-
fldA	711887	711357	-
ybfE	712320	712027	-
ybfF	713224	712460	-
seqA	713409	713954	+
pgm	713980	715620	+
ybfP	715834	716328	+
ybfG	716779	716369	-
ybfH	717019	716810	-
potE	718687	717368	-
speF	720882	718684	-
kdpE	722155	721478	-
kdpD	724836	722152	-
kdpC	725401	724829	-
kdpB	727458	725410	-
kdpA	729154	727481	-
kdpF	729243	729154	-
ybfA	729556	729762	+
rhsC	730005	734198	+
ybfB	734198	734524	+
ybfO	734642	736075	+
ybfC	736072	736641	+
ybfQ	736867	737121	+
ybfD	738514	739275	+
ybgA	739423	739932	+
phr	739929	741347	+
ybgH	742978	741497	-
ybgI	743249	743992	+
ybgJ	744015	744671	+
ybgK	744665	745597	+
ybgL	745587	746321	+
nei	746357	747148	+
abrB	748191	747145	-
ybgO	749404	748343	-
ybgP	750129	749401	-
ybgQ	752591	750144	-
ybgD	753217	752651	-
gltA	754890	753607	-
sdhC	755599	755988	+
sdhD	755982	756329	+
sdhA	756329	758095	+
sdhB	758111	758827	+
sucA	759128	761929	+
sucB	761944	763161	+
sucC	763436	764602	+
sucD	764602	765471	+
mngR	766297	765575	-
mngA	766406	768382	+
mngB	768400	771033	+
cydA	771880	773448	+
cydB	773464	774603	+
ybgT	774618	774731	+
ybgE	774731	775024	+
ybgC	775174	775578	+
tolQ	775575	776267	+
tolR	776271	776699	+
tolA	776764	778029	+
tolB	778162	779454	+
pal	779489	780010	+
ybgF	780020	780811	+
nadA	782507	783550	+
pnuC	783588	784307	+
zitB	785245	784304	-
ybgS	785739	785359	-
aroG	786055	787107	+
gpmA	788017	787265	-
galM	789259	788219	-
galK	790401	789253	-
galT	791451	790405	-
galE	792477	791461	-
modF	794210	792738	-
modE	795066	794278	-
ybhT	795195	795344	+
modA	795511	796284	+
modB	796284	796973	+
modC	796976	798034	+
ybhA	798853	798035	-
ybhE	799008	800003	+
ybhD	801060	800044	-
ybhH	801181	802233	+
ybhI	802309	803742	+
ybhJ	803925	806186	+
ybhC	807703	806420	-
ybhB	808331	807855	-
bioA	809679	808390	-
bioB	809766	810806	+
bioF	810803	811957	+
bioC	811944	812699	+
bioD	812692	813369	+
uvrB	813948	815969	+
ybhK	817069	816161	-
moaA	817466	818455	+
moaB	818477	818989	+
moaC	818992	819477	+
moaD	819470	819715	+
moaE	819717	820169	+
ybhL	820306	821010	+
ybhM	821215	821928	+
ybhN	822920	821964	-
ybhO	824161	822920	-
ybhP	824919	824158	-
ybhQ	825052	825462	+
ybhR	826530	825424	-
ybhS	827674	826541	-
ybhF	829403	827667	-
ybhG	830394	829396	-
ybiH	831065	830394	-
rhlE	831294	832658	+
ybiA	833372	832890	-
dinG	833492	835642	+
ybiB	835670	836632	+
ybiC	836773	837858	+
ybiJ	838347	838087	-
ybiI	838878	838612	-
ybiX	839629	838952	-
fiu	841953	839671	-
ybiM	842478	842218	-
ybiN	842754	843680	+
ybiO	845902	843677	-
glnQ	846885	846163	-
glnP	847541	846882	-
glnH	848426	847680	-
dps	849333	848830	-
rhtA	850519	849632	-
ompX	850872	851387	+
ybiP	853019	851436	-
yliL	853093	853362	+
mntR	853605	854072	+
ybiR	854069	855187	+
ybiS	856166	855246	-
ybiT	856385	857977	+
ybiU	859483	858218	-
ybiV	860450	859635	-
ybiW	863028	860596	-
ybiY	863960	863034	-
fsaA	864064	864726	+
moeB	865551	864802	-
moeA	866786	865551	-
iaaA	866990	867955	+
yliA	867975	869813	+
yliB	869833	871371	+
yliC	871389	872309	+
yliD	872312	873223	+
yliE	873401	875749	+
yliF	875757	877085	+
yliG	878457	877132	-
yliH	878670	879053	+
yliI	879164	880279	+
yliJ	880902	880276	-
dacC	881149	882351	+
deoR	883156	882398	-
ybjG	883810	883214	-
cmr	884095	885327	+
ybjH	885652	885368	-
ybjI	886553	885738	-
ybjJ	887761	886553	-
ybjK	887845	888381	+
ybjL	890241	888556	-
ybjM	890511	890888	+
grxA	891175	890918	-
ybjC	891335	891622	+
nfsA	891606	892328	+
rimK	892389	893291	+
ybjN	893379	893855	+
potF	894206	895318	+
potG	895413	896546	+
potH	896556	897509	+
potI	897506	898351	+
ybjO	898411	898899	+
rumB	898940	900067	+
artJ	900997	900266	-
artM	901956	901288	-
artQ	902672	901956	-
artI	903410	902679	-
artP	904156	903428	-
ybjP	904889	904374	-
ybjQ	905015	905338	+
ybjR	905335	906165	+
ybjS	907175	906162	-
ybjT	908704	907274	-
ltaE	909716	908715	-
poxB	911471	909753	-
hcr	912572	911604	-
hcp	914236	912584	-
ybjE	915279	914380	-
aqpZ	916469	915774	-
ybjD	916895	918553	+
ybjX	919542	918550	-
macA	919657	920772	+
macB	920769	922715	+
cspD	923012	922788	-
clpS	923335	923655	+
clpA	923686	925962	+
infA	926865	926647	-
aat	927854	927150	-
cydC	929617	927896	-
cydD	931384	929618	-
trxB	932472	931507	-
lrp	933017	933511	+
ftsK	933646	937635	+
lolA	937791	938405	+
ycaJ	938416	939759	+
serS	939850	941142	+
dmsA	941381	943825	+
dmsB	943836	944453	+
dmsC	944455	945318	+
ycaC	945979	945353	-
ycaD	946293	947441	+
ycaM	947651	949081	+
ycaN	949990	949082	-
ycaK	950090	950680	+
pflA	951502	950762	-
pflB	953976	951694	-
focA	954888	954031	-
ycaO	957054	955294	-
ycaP	957184	957876	+
serC	958075	959163	+
aroA	959234	960517	+
ycaL	960686	961450	+
cmk	961623	962306	+
rpsA	962417	964090	+
ihfB	964250	964534	+
ycaI	964742	967006	+
msbA	967043	968791	+
lpxK	968788	969774	+
ycaQ	969811	971043	+
ycaR	971095	971277	+
kdsB	971274	972020	+
ycbJ	972174	973067	+
ycbC	973823	973044	-
smtA	973959	974744	+
mukF	974741	976063	+
mukE	976071	976748	+
mukB	976748	981208	+
ycbB	981469	983316	+
ycbK	983497	984045	+
ycbL	984072	984719	+
aspC	986131	984941	-
ompF	987404	986316	-
asnS	989407	988007	-
pncB	990778	989576	-
pepN	991044	993656	+
ssuB	994466	993699	-
ssuC	995254	994463	-
ssuD	996410	995265	-
ssuA	997366	996407	-
ssuE	997934	997359	-
ycbQ	998290	998829	+
ycbR	998912	999613	+
ycbS	999638	1002238	+
ycbT	1002229	1003299	+
ycbU	1003311	1003853	+
ycbV	1003861	1004376	+
ycbF	1004369	1005079	+
pyrD	1005190	1006200	+
ycbW	1006374	1006916	+
ycbX	1008022	1006913	-
ycbY	1008266	1010374	+
uup	1010386	1012293	+
pqiA	1012423	1013676	+
pqiB	1013681	1015321	+
ymbA	1015333	1015881	+
rmf	1016137	1016304	+
fabA	1016892	1016374	-
ycbZ	1018721	1016961	-
ycbG	1018907	1019359	+
ompA	1020475	1019435	-
sulA	1021341	1020832	-
yccR	1021560	1022189	+
yccS	1024305	1022152	-
yccF	1024770	1024324	-
helD	1024893	1026947	+
mgsA	1027437	1026979	-
yccT	1028195	1027533	-
yccU	1028368	1028781	+
yccV	1029143	1028826	-
yccW	1030304	1029201	-
yccX	1030486	1030764	+
yccK	1031090	1030761	-
yccA	1031840	1031181	-
hyaA	1032561	1033679	+
hyaB	1033676	1035469	+
hyaC	1035488	1036195	+
hyaD	1036192	1036779	+
hyaE	1036776	1037174	+
hyaF	1037171	1038028	+
appC	1038162	1039706	+
appB	1039718	1040854	+
appA	1041039	1042337	+
yccC	1044632	1042452	-
etp	1045098	1044652	-
yccZ	1046225	1045086	-
ymcA	1048367	1046271	-
ymcB	1049113	1048367	-
ymcC	1049754	1049110	-
ymcD	1050166	1049861	-
insA	1050255	1050530	+
insB	1050449	1050952	+
cspH	1051597	1051385	-
cspG	1051883	1052095	+
ymcE	1052269	1052499	+
gnsA	1052489	1052662	+
yccM	1053784	1052711	-
torS	1056600	1053856	-
torT	1056683	1057711	+
torR	1058376	1057684	-
torC	1058506	1059678	+
torA	1059678	1062224	+
torD	1062221	1062820	+
cbpM	1063277	1062972	-
cbpA	1064197	1063277	-
yccE	1064458	1065714	+
agp	1066007	1067248	+
yccJ	1067513	1067286	-
wrbA	1068130	1067534	-
ymdF	1068503	1068676	+
ycdG	1070261	1068933	-
ycdH	1070776	1070282	-
ycdI	1071377	1070787	-
rarA	1072187	1071387	-
ycdK	1072581	1072195	-
ycdL	1073285	1072593	-
ycdM	1074433	1073285	-
ycdC	1074664	1075302	+
putA	1079304	1075342	-
putP	1079727	1081235	+
ycdO	1082665	1083792	+
ycdB	1083798	1085069	+
phoH	1085414	1086478	+
ycdP	1086941	1086528	-
ycdQ	1088268	1086943	-
ycdR	1090279	1088261	-
ycdS	1092711	1090288	-
ycdT	1093298	1094656	+
insF	1095563	1094697	-
insE	1095868	1095560	-
ycdU	1096265	1097251	+
ycdW	1098127	1099065	+
ycdX	1099120	1099857	+
ycdY	1099881	1100435	+
ycdZ	1100537	1101028	+
csgG	1101925	1101092	-
csgF	1102368	1101952	-
csgE	1102782	1102393	-
csgD	1103437	1102787	-
csgB	1104192	1104647	+
csgA	1104688	1105143	+
csgC	1105202	1105534	+
insC	1106861	1106496	-
ymdA	1106991	1107302	+
ymdB	1107397	1107930	+
ymdC	1107932	1109353	+
mdoC	1110518	1109361	-
mdoG	1110912	1112447	+
mdoH	1112440	1114983	+
yceK	1115156	1115383	+
msyB	1115758	1115384	-
mdtG	1117067	1115841	-
lpxL	1118159	1117239	-
yceA	1118384	1119436	+
yceI	1120053	1119478	-
yceJ	1120623	1120057	-
yceO	1121024	1120884	-
solA	1122163	1121045	-
yceP	1122532	1122278	-
dinI	1123064	1122819	-
pyrC	1124184	1123138	-
yceB	1124850	1124290	-
grxB	1125631	1124984	-
mdtH	1126903	1125695	-
rimJ	1127139	1127723	+
yceH	1127734	1128381	+
mviM	1128383	1129306	+
mviN	1129416	1130951	+
flgN	1131407	1130991	-
flgM	1131705	1131412	-
flgA	1132440	1131781	-
flgB	1132595	1133011	+
flgC	1133015	1133419	+
flgD	1133431	1134126	+
flgE	1134151	1135359	+
flgF	1135379	1136134	+
flgG	1136306	1137088	+
flgH	1137141	1137839	+
flgI	1137851	1138948	+
flgJ	1138948	1139889	+
flgK	1139955	1141598	+
flgL	1141610	1142563	+
rne	1145944	1142759	-
yceQ	1146079	1146399	+
rluC	1146517	1147476	+
yceF	1148172	1147588	-
yceD	1148371	1148892	+
rpmF	1148944	1149117	+
plsX	1149198	1150268	+
fabH	1150336	1151289	+
fabD	1151305	1152234	+
fabG	1152247	1152981	+
acpP	1153192	1153428	+
fabF	1153516	1154757	+
pabC	1154877	1155686	+
yceG	1155689	1156711	+
tmk	1156701	1157342	+
holB	1157339	1158343	+
ycfH	1158354	1159151	+
ptsG	1159446	1160879	+
fhuE	1163128	1160939	-
hinT	1163462	1163821	+
ycfL	1163824	1164201	+
ycfM	1164215	1164856	+
ycfN	1164837	1165661	+
nagZ	1165672	1166697	+
ycfP	1166720	1167262	+
ndh	1167662	1168966	+
ycfJ	1169176	1169715	+
ycfQ	1170409	1169777	-
ycfR	1170650	1170907	+
ycfS	1171951	1170989	-
mfd	1175541	1172095	-
ycfT	1176742	1175669	-
lolC	1177004	1178203	+
lolD	1178196	1178897	+
lolE	1178897	1180141	+
ycfX	1180170	1181081	+
cobB	1181097	1181936	+
ycfZ	1182844	1182056	-
ymfA	1183302	1182841	-
potD	1184406	1183360	-
potC	1185197	1184403	-
potB	1186021	1185194	-
potA	1187171	1186035	-
pepT	1187421	1188647	+
ycfD	1189817	1188696	-
phoQ	1191353	1189893	-
phoP	1192024	1191353	-
purB	1193563	1192193	-
hflD	1194208	1193567	-
trmU	1195350	1194244	-
ymfB	1195865	1195404	-
ymfC	1196528	1195875	-
icd	1196700	1197950	+
ymfD	1199109	1198444	-
ymfE	1199814	1199110	-
lit	1200272	1201165	+
intE	1202383	1201256	-
ymfG	1202609	1202364	-
ymfH	1202957	1202646	-
ymfI	1203074	1203415	+
ymfJ	1203661	1203353	-
ymfK	1204510	1203836	-
ymfT	1204601	1204801	+
ymfL	1204833	1205402	+
ymfM	1205399	1205737	+
ymfN	1205747	1207114	+
ymfR	1207126	1207308	+
ymfO	1207308	1207781	+
ymfP	1207837	1208499	+
ymfQ	1208490	1209074	+
ycfK	1209078	1209707	+
ymfS	1209709	1210122	+
tfaE	1210696	1210094	-
pin	1211262	1211816	+
mcrA	1211923	1212756	+
elbA	1213580	1213257	-
ycgX	1214684	1214280	-
ycgE	1215636	1214905	-
ycgF	1217052	1215841	-
ycgZ	1217366	1217602	+
ymgA	1217645	1217917	+
ymgB	1217946	1218212	+
ymgC	1218325	1218573	+
ycgG	1218905	1220428	+
ymgF	1220560	1220778	+
ymgD	1224211	1223882	-
ymgG	1224496	1224221	-
ymgH	1225042	1225263	+
ycgI	1225272	1225484	+
minE	1226122	1225856	-
minD	1226938	1226126	-
minC	1227657	1226962	-
ycgJ	1228177	1228545	+
ycgK	1229049	1228648	-
ycgL	1229258	1229584	+
ycgM	1229656	1230315	+
ycgN	1230407	1230853	+
hlyE	1231971	1231060	-
umuD	1232344	1232763	+
umuC	1232763	1234031	+
dsbB	1234607	1234077	-
nhaB	1236294	1234753	-
fadR	1236515	1237234	+
ycgB	1238818	1237286	-
dadA	1239148	1240446	+
dadX	1240456	1241526	+
cvrA	1243648	1241912	-
ldcA	1244657	1243743	-
emtA	1244757	1245368	+
ycgR	1246104	1245370	-
ymgE	1246305	1246559	+
ycgY	1246737	1247177	+
treA	1248953	1247256	-
dhaH	1250691	1249273	-
dhaL	1251334	1250702	-
dhaK	1252415	1251345	-
dhaR	1252643	1254562	+
ycgV	1257529	1254662	-
ychF	1259389	1258298	-
pth	1260090	1259506	-
ychH	1260368	1260646	+
ychM	1262380	1260701	-
prsA	1263452	1262505	-
ispE	1264454	1263603	-
lolB	1265077	1264454	-
hemA	1265291	1266547	+
prfA	1266589	1267671	+
prmC	1267671	1268504	+
ychQ	1268501	1268893	+
ychA	1268897	1269706	+
kdsA	1269742	1270596	+
ldrA	1270852	1270745	-
ldrB	1271387	1271280	-
ldrC	1271922	1271815	-
chaA	1273426	1272326	-
chaB	1273696	1273926	+
chaC	1274063	1274779	+
ychN	1275176	1274823	-
ychP	1275502	1276755	+
narL	1277406	1276756	-
narX	1279195	1277399	-
narK	1279534	1280925	+
narG	1281441	1285184	+
narH	1285181	1286719	+
narJ	1286716	1287426	+
narI	1287426	1288103	+
ychS	1288286	1288561	+
tpr	1288765	1288664	-
purU	1290201	1289359	-
ychJ	1290709	1290251	-
rssA	1290783	1291727	+
rssB	1291819	1292832	+
galU	1293034	1293942	+
hns	1294499	1294086	-
tdk	1295104	1295721	+
adhE	1299698	1297023	-
ychE	1300175	1300822	+
insC	1301130	1301495	+
oppA	1302896	1304527	+
oppB	1304613	1305533	+
oppC	1305548	1306456	+
oppD	1306468	1307481	+
oppF	1307478	1308482	+
yciU	1308864	1308535	-
cls	1310359	1308899	-
kch	1311983	1310730	-
yciI	1312579	1312283	-
tonB	1312803	1313522	+
yciA	1313960	1313562	-
yciB	1314604	1314065	-
yciC	1315377	1314634	-
ompW	1315734	1316372	+
yciE	1316938	1316432	-
yciF	1317484	1316984	-
yciG	1317749	1317570	-
trpA	1318936	1318130	-
trpB	1320129	1318936	-
trpC	1321499	1320141	-
trpD	1323098	1321503	-
trpE	1324660	1323098	-
trpL	1324796	1324752	-
yciV	1324934	1325815	+
yciO	1325812	1326432	+
yciQ	1326460	1328355	+
rluB	1328566	1329441	+
btuR	1330071	1329481	-
yciK	1330826	1330068	-
sohB	1331046	1332095	+
yciN	1332382	1332131	-
topA	1332762	1335359	+
cysB	1335569	1336543	+
acnA	1337545	1340220	+
ribA	1340874	1340284	-
pgpB	1341044	1341808	+
yciS	1341957	1342265	+
yciM	1342272	1343441	+
pyrF	1343635	1344372	+
yciH	1344372	1344698	+
osmB	1345042	1344824	-
yciT	1346060	1345311	-
gmr	1348456	1346471	-
rnb	1350626	1348692	-
yciW	1351821	1350694	-
fabI	1352753	1351965	-
ycjD	1353474	1353121	-
sapF	1354348	1353542	-
sapD	1355342	1354350	-
sapC	1356232	1355342	-
sapB	1357184	1356219	-
sapA	1358824	1357181	-
ymjA	1359382	1359137	-
puuP	1360901	1359516	-
puuA	1362622	1361204	-
puuD	1362834	1363598	+
puuR	1363625	1364182	+
puuC	1364457	1365944	+
puuB	1365946	1367226	+
puuE	1367264	1368529	+
pspF	1369626	1368649	-
pspA	1369793	1370461	+
pspB	1370515	1370739	+
pspC	1370739	1371098	+
pspD	1371107	1371328	+
pspE	1371403	1371717	+
ycjM	1371930	1373609	+
ycjN	1373623	1374915	+
ycjO	1374936	1375817	+
ycjP	1375804	1376646	+
ycjQ	1376677	1377729	+
ycjR	1377748	1378536	+
ycjS	1378546	1379601	+
ycjT	1379598	1381865	+
ycjU	1381862	1382521	+
ycjV	1382535	1383503	+
ymjB	1383503	1383616	+
ompG	1383661	1384566	+
ycjW	1385675	1384677	-
ycjX	1385831	1387228	+
ycjF	1387225	1388286	+
tyrR	1388434	1389975	+
tpx	1390525	1390019	-
ycjG	1390644	1391609	+
mpaA	1392372	1391584	-
ymjC	1392576	1392394	-
ycjY	1393579	1392647	-
ycjZ	1393705	1394604	+
mppA	1394941	1396554	+
ynaI	1397636	1396605	-
insH	1397790	1398806	+
ynaJ	1399079	1399336	+
uspE	1400336	1399386	-
fnr	1401240	1400488	-
ogt	1401950	1401435	-
abgT	1403487	1401961	-
abgB	1404969	1403524	-
abgA	1406279	1404969	-
abgR	1406455	1407363	+
ydaL	1407693	1408256	+
ydaM	1409509	1408277	-
ydaN	1409764	1410747	+
dbpA	1411225	1412598	+
ydaO	1413662	1412727	-
intR	1414949	1413714	-
ydaQ	1415166	1414951	-
ydaC	1415454	1415245	-
lar	1415641	1415447	-
recT	1416507	1415698	-
recE	1419100	1416500	-
racC	1419477	1419202	-
ydaE	1419722	1419552	-
kil	1419943	1419722	-
sieB	1420385	1420873	+
ydaF	1421025	1420870	-
ydaG	1421170	1421036	-
racR	1421955	1421479	-
ydaS	1422079	1422375	+
ydaT	1422398	1422820	+
ydaU	1422833	1423690	+
ydaV	1423697	1424443	+
ydaW	1424466	1425026	+
rzpR	1425059	1425358	+
rzoR	1425114	1425299	+
trkG	1425496	1426953	+
ynaK	1427091	1427354	+
ydaY	1427335	1427694	+
ynaA	1428168	1429196	+
insH	1430440	1429460	-
stfR	1430763	1434125	+
tfaR	1434125	1434700	+
pinR	1435388	1434798	-
ynaE	1435971	1435705	-
uspF	1437333	1436899	-
ompN	1438607	1437474	-
ydbK	1442498	1438974	-
ydbJ	1442772	1443038	+
hslJ	1443457	1443035	-
ldhA	1444557	1443568	-
ydbH	1444765	1447404	+
ynbE	1447401	1447586	+
ydbL	1447594	1447920	+
feaR	1448997	1448092	-
feaB	1449233	1450732	+
tynA	1453063	1450790	-
maoC	1455356	1453311	-
paaA	1455641	1456570	+
paaB	1456582	1456869	+
paaC	1456878	1457624	+
paaD	1457639	1458136	+
paaE	1458144	1459214	+
paaF	1459211	1459978	+
paaG	1459978	1460766	+
paaH	1460768	1462195	+
paaI	1462185	1462607	+
paaJ	1462607	1463812	+
paaK	1463839	1465152	+
paaX	1465253	1466203	+
paaY	1466185	1466775	+
insD	1470540	1469635	-
insC	1470908	1470498	-
insI	1471072	1472223	+
ydbC	1475935	1476795	+
ydbD	1476858	1479164	+
ynbA	1479335	1479940	+
ynbB	1479940	1480836	+
ynbC	1480852	1482609	+
ynbD	1482623	1483915	+
azoR	1484574	1483969	-
hrpA	1484832	1488677	+
ydcF	1488949	1489749	+
aldA	1489946	1491385	+
cybB	1492616	1493146	+
ydcA	1493391	1493564	+
hokB	1493785	1493636	-
mokB	1493843	1493676	-
trg	1494184	1495824	+
ydcI	1496785	1495862	-
ydcJ	1497002	1498345	+
mdoD	1498600	1500225	+
ydcH	1500365	1500589	+
rimL	1500652	1501191	+
ydcK	1502163	1501183	-
tehA	1502287	1503279	+
tehB	1503276	1503869	+
ydcL	1504171	1504839	+
ydcM	1505371	1506579	+
ydcO	1507794	1506619	-
ydcN	1507886	1508422	+
ydcP	1508495	1510456	+
yncJ	1510778	1510548	-
yncN	1511000	1511176	+
ydcQ	1511201	1511638	+
ydcR	1511717	1513123	+
ydcS	1513368	1514513	+
ydcT	1514531	1515544	+
ydcU	1515545	1516486	+
ydcV	1516476	1517270	+
ydcW	1517292	1518716	+
ydcX	1519103	1519276	+
ydcY	1519362	1519595	+
ydcZ	1520045	1519596	-
yncA	1520560	1520042	-
yncB	1520741	1521778	+
yncC	1521976	1522641	+
yncD	1524779	1522677	-
yncE	1525021	1526082	+
ansP	1527694	1526195	-
yncG	1527961	1528578	+
yncH	1528654	1528866	+
rhsE	1529604	1531652	+
ydcD	1531636	1532118	+
yncI	1532300	1533046	+
yncM	1533090	1533290	+
ydcC	1533530	1534666	+
ydcE	1534766	1534999	+
yddH	1535565	1534996	-
nhoA	1535738	1536583	+
yddE	1537572	1536679	-
narV	1538331	1537651	-
narW	1539023	1538328	-
narY	1540567	1539023	-
narZ	1544304	1540564	-
narU	1545774	1544386	-
yddJ	1546433	1546098	-
yddK	1547428	1546472	-
yddL	1547742	1547452	-
yddG	1548826	1548002	-
fdnH	1552175	1553059	+
fdnI	1553052	1553705	+
yddM	1554474	1554112	-
adhP	1555552	1554542	-
sfcA	1557383	1555686	-
sra	1557677	1557540	-
bdm	1557994	1557779	-
osmC	1558339	1558770	+
ddpF	1559752	1558826	-
ddpD	1560731	1559745	-
ddpC	1561624	1560728	-
ddpB	1562643	1561621	-
ddpA	1564195	1562645	-
ddpX	1564790	1564209	-
dos	1567447	1565048	-
yddV	1568515	1567472	-
yddW	1570537	1569218	-
gadC	1572203	1570668	-
gadB	1573759	1572359	-
pqqL	1576916	1574121	-
yddB	1579333	1576961	-
yddA	1581056	1579371	-
ydeM	1582504	1581347	-
ydeN	1584238	1582556	-
ydeO	1585401	1584640	-
ydeP	1588200	1585921	-
ydeQ	1589448	1588534	-
ydeR	1590010	1589507	-
ydeS	1590553	1590023	-
ydeT	1591715	1590567	-
yneL	1592250	1592071	-
hipA	1593890	1592568	-
hipB	1594156	1593890	-
ydeK	1599800	1595823	-
ydeV	1601923	1600331	-
ydeW	1602955	1602002	-
ego	1603204	1604739	+
lsrC	1604733	1605761	+
lsrD	1605761	1606753	+
lsrB	1606765	1607787	+
lsrF	1607814	1608689	+
lsrG	1608713	1609003	+
tam	1609060	1609818	+
yneE	1610736	1609822	-
uxaB	1612394	1610943	-
yneF	1613568	1612621	-
yneG	1614039	1613680	-
yneH	1614965	1614039	-
yneI	1616417	1615029	-
yneJ	1616518	1617399	+
yneK	1617477	1618592	+
ydeA	1618742	1619932	+
marC	1620622	1619957	-
marR	1620834	1621268	+
marA	1621288	1621671	+
marB	1621703	1621921	+
eamA	1622851	1621952	-
ydeE	1623046	1624233	+
ydeH	1625564	1624674	-
ydeI	1626211	1625819	-
ydeJ	1626487	1627005	+
dcp	1629094	1627049	-
ydfG	1629231	1629977	+
ydfH	1630066	1630752	+
ydfZ	1630929	1631132	+
ydfI	1632627	1631167	-
ydfJ	1633999	1632716	-
ydfK	1634753	1635019	+
pinQ	1635336	1635926	+
tfaQ	1636599	1636024	-
stfQ	1637561	1636599	-
nohA	1638081	1637512	-
ynfO	1638470	1638703	+
ydfO	1638761	1639171	+
gnsB	1639496	1639323	-
ynfN	1639823	1639668	-
cspI	1640381	1640169	-
ydfP	1641241	1640744	-
ydfQ	1641771	1641238	-
ydfR	1642079	1641768	-
essQ	1642299	1642084	-
cspB	1643268	1643053	-
cspF	1643569	1643781	+
ydfT	1644955	1644203	-
ydfU	1646018	1644969	-
rem	1646616	1646365	-
hokD	1646988	1646833	-
relE	1647347	1647060	-
relB	1647586	1647347	-
ydfV	1647611	1647916	+
flxA	1648119	1648451	+
ydfW	1649037	1648888	-
ydfX	1649350	1649060	-
dicC	1649564	1649334	-
dicA	1649648	1650055	+
ydfA	1650222	1650377	+
ydfB	1650379	1650507	+
ydfC	1650537	1650755	+
dicB	1651323	1651511	+
ydfD	1651508	1651699	+
ydfE	1651792	1652712	+
insD	1652595	1653251	+
intQ	1653226	1654422	+
rspB	1655629	1654610	-
rspA	1656855	1655641	-
ynfA	1657387	1657061	-
ynfB	1657522	1657863	+
speG	1657898	1658458	+
ynfC	1659171	1658461	-
ynfD	1659279	1659584	+
ynfE	1659783	1662209	+
ynfF	1662270	1664693	+
ynfG	1664704	1665321	+
ynfH	1665323	1666177	+
dmsD	1666220	1666834	+
clcB	1667029	1668285	+
ynfK	1668933	1668238	-
dgsA	1670278	1669058	-
ynfL	1671306	1670413	-
ynfM	1671413	1672666	+
asr	1673090	1673398	+
ydgD	1673674	1674495	+
mdtI	1674863	1674534	-
mdtJ	1675215	1674850	-
ydgG	1675627	1676661	+
pntB	1678074	1676686	-
pntA	1679617	1678085	-
ydgH	1680141	1681085	+
ydgI	1681271	1682653	+
folM	1682690	1683412	+
ydgC	1683744	1683409	-
rstA	1683864	1684592	+
rstB	1684596	1685897	+
tus	1685973	1686902	+
fumC	1688302	1686899	-
fumA	1690091	1688445	-
manA	1690290	1691465	+
ydgA	1691566	1693074	+
uidC	1694565	1693300	-
uidB	1695977	1694604	-
uidA	1697785	1695974	-
uidR	1698766	1698176	-
hdhA	1699754	1698987	-
malI	1700894	1699866	-
malX	1701069	1702661	+
malY	1702671	1703843	+
add	1703947	1704948	+
ydgJ	1706022	1704982	-
blr	1706265	1706390	+
ydgT	1706663	1706878	+
ydgK	1706964	1707404	+
rsxA	1707481	1708062	+
rsxB	1708062	1708640	+
rsxC	1708633	1710855	+
rsxD	1710856	1711914	+
rsxG	1711918	1712538	+
rsxE	1712542	1713237	+
nth	1713237	1713872	+
ydgR	1714483	1715985	+
gst	1716091	1716696	+
pdxY	1717603	1716740	-
tyrS	1718936	1717662	-
pdxH	1719721	1719065	-
ydhA	1720109	1719780	-
ydhH	1721316	1720207	-
slyB	1721590	1722057	+
slyA	1722538	1722104	-
ydhI	1722739	1722975	+
ydhJ	1722978	1723835	+
ydhK	1723835	1725847	+
sodC	1726369	1725848	-
ydhF	1727346	1726450	-
ydhL	1727634	1727395	-
ydhM	1727821	1728336	+
nemA	1728373	1729470	+
gloA	1729551	1729958	+
rnt	1730061	1730708	+
lhr	1730801	1735417	+
ydhD	1735815	1735468	-
ydhO	1736149	1736964	+
sodB	1737092	1737673	+
ydhP	1739004	1737835	-
purR	1739558	1740583	+
ydhB	1741512	1740580	-
ydhC	1741625	1742836	+
cfa	1743127	1744275	+
ribC	1744956	1744315	-
mdtK	1745171	1746544	+
ydhQ	1747841	1746585	-
ydhR	1748414	1748719	+
ydhS	1748845	1750449	+
ydhT	1751273	1750461	-
ydhU	1752062	1751277	-
ydhX	1752727	1752059	-
ydhW	1753438	1752791	-
ydhV	1755544	1753442	-
ydhY	1756191	1755565	-
ydhZ	1756855	1756646	-
pykF	1757412	1758824	+
lpp	1759135	1759371	+
ynhG	1760439	1759435	-
sufE	1761004	1760588	-
sufS	1762237	1761017	-
sufD	1763505	1762234	-
sufC	1764226	1763480	-
sufB	1765723	1764236	-
sufA	1766100	1765732	-
ydiH	1766917	1766648	-
ydiI	1767346	1766936	-
ydiJ	1770399	1767343	-
ydiK	1770788	1771900	+
ydiL	1772329	1772685	+
ydiM	1772785	1773999	+
ydiN	1774226	1775491	+
ydiB	1775503	1776369	+
aroD	1776400	1777158	+
ydiF	1777301	1778896	+
ydiO	1778910	1780061	+
ydiP	1781015	1780104	-
ydiQ	1781331	1782095	+
ydiR	1782115	1783053	+
ydiS	1783109	1784398	+
ydiT	1784395	1784688	+
ydiD	1784691	1786391	+
pps	1788826	1786448	-
ydiA	1789159	1789992	+
aroH	1790149	1791195	+
ydiE	1791327	1791518	+
ydiU	1792958	1791522	-
ydiV	1793734	1793021	-
nlpC	1794445	1793981	-
btuD	1795272	1794523	-
btuE	1795823	1795272	-
btuC	1796866	1795886	-
ihfA	1797266	1796967	-
pheT	1799658	1797271	-
pheS	1800656	1799673	-
pheM	1800984	1800940	-
rplT	1801463	1801107	-
rpmI	1801713	1801516	-
thrS	1804284	1802356	-
yniD	1806864	1806986	+
ydiY	1807797	1807039	-
pfkB	1808084	1809013	+
ydiZ	1809114	1809404	+
yniA	1809510	1810370	+
yniB	1810947	1810411	-
yniC	1811094	1811762	+
ydjM	1811925	1812515	+
ydjN	1812648	1814039	+
ydjO	1814858	1814043	-
cedA	1815398	1815135	-
katE	1815581	1817842	+
chbG	1818849	1818100	-
chbF	1820214	1818862	-
chbR	1821161	1820319	-
chbA	1821519	1821169	-
chbC	1822928	1821570	-
chbB	1823333	1823013	-
osmE	1823970	1823632	-
nadE	1824172	1824999	+
ydjQ	1825229	1826116	+
ydjR	1826651	1826076	-
spy	1827339	1826854	-
astE	1828637	1827669	-
astB	1829973	1828630	-
astD	1831448	1829970	-
astA	1832479	1831445	-
astC	1833696	1832476	-
xthA	1834142	1834948	+
ydjX	1835115	1835825	+
ydjY	1835830	1836507	+
ydjZ	1836522	1837229	+
ynjA	1837229	1837777	+
ynjB	1837787	1838953	+
ynjC	1838971	1840461	+
ynjD	1840461	1841114	+
ynjE	1841181	1842488	+
ynjF	1843117	1842497	-
nudG	1843204	1843611	+
ynjH	1843849	1843577	-
gdhA	1844085	1845428	+
ynjI	1846585	1845545	-
topB	1848674	1846713	-
selD	1849722	1848679	-
ydjA	1850390	1849839	-
sppA	1850551	1852407	+
ansA	1852574	1853590	+
pncA	1853601	1854242	+
ydjE	1855693	1854335	-
ydjF	1856568	1855810	-
ydjG	1857685	1856705	-
ydjH	1858642	1857695	-
ydjI	1859483	1858647	-
ydjJ	1860547	1859504	-
ydjK	1861943	1860564	-
ydjL	1863046	1861970	-
yeaC	1863688	1863416	-
yeaA	1864143	1863730	-
gapA	1864485	1865480	+
yeaD	1865564	1866448	+
yeaE	1867350	1866496	-
mipA	1868186	1867440	-
yeaG	1868622	1870556	+
yeaH	1870669	1871952	+
yeaI	1872099	1873574	+
yeaJ	1873755	1875245	+
yeaK	1875288	1875791	+
yoaI	1875896	1875792	-
yeaL	1876066	1876512	+
yeaM	1877290	1876469	-
yeaN	1877387	1878568	+
yeaO	1878623	1878970	+
yoaF	1879246	1878992	-
yeaP	1879429	1880454	+
yeaQ	1880969	1880721	-
yoaG	1881299	1881117	-
yeaR	1881662	1881303	-
yeaS	1882473	1881835	-
yeaT	1883523	1882600	-
yeaU	1883626	1884711	+
yeaV	1884902	1886347	+
yeaW	1886379	1887503	+
yeaX	1887559	1888524	+
rnd	1889705	1888578	-
fadD	1891460	1889775	-
yeaY	1892246	1891665	-
yeaZ	1892981	1892286	-
yoaA	1894949	1893039	-
yoaB	1895081	1895425	+
yoaC	1895787	1896146	+
yoaH	1896445	1896266	-
pabB	1896519	1897880	+
yeaB	1897884	1898462	+
sdaA	1898646	1900010	+
yoaD	1900141	1901739	+
yoaE	1903299	1901743	-
manX	1903762	1904733	+
manY	1904796	1905596	+
manZ	1905600	1906460	+
yobD	1906515	1906973	+
yebN	1907402	1907968	+
rrmA	1908774	1907965	-
cspC	1909149	1908940	-
yobF	1909305	1909162	-
yebO	1910262	1909975	-
yobG	1910480	1910337	-
yobH	1910639	1910878	+
kdgR	1911813	1911022	-
yebQ	1911990	1913363	+
htpX	1914290	1913409	-
prc	1916530	1914482	-
proQ	1917248	1916550	-
yebR	1917896	1917345	-
yebS	1917972	1919255	+
yebT	1919224	1921857	+
yebU	1921937	1923376	+
yebV	1923494	1923730	+
yebW	1923835	1924026	+
pphA	1924683	1924027	-
yebY	1925420	1925079	-
yebZ	1926305	1925433	-
yobA	1926683	1926309	-
holE	1926822	1927052	+
yobB	1927154	1927810	+
exoX	1927834	1928496	+
ptrB	1930553	1928493	-
yebE	1931421	1930762	-
yebF	1932116	1931748	-
yebG	1932461	1932171	-
purT	1932595	1933773	+
eda	1934470	1933829	-
edd	1936318	1934507	-
zwf	1938028	1936553	-
yebK	1938366	1939235	+
pykA	1939363	1940805	+
lpxM	1941907	1940936	-
yebA	1943349	1942027	-
znuA	1944297	1943365	-
znuC	1944376	1945131	+
znuB	1945128	1945913	+
ruvB	1947070	1946060	-
ruvA	1947690	1947079	-
yebB	1947965	1948567	+
ruvC	1949090	1948569	-
yebC	1949865	1949125	-
nudB	1950346	1949894	-
aspS	1952236	1950464	-
yecD	1952546	1953112	+
yecE	1953109	1953927	+
yecN	1953980	1954375	+
yecO	1954416	1955159	+
yecP	1955156	1956127	+
torZ	1958721	1956292	-
torY	1959846	1958746	-
cutC	1960980	1960234	-
yecM	1961560	1960994	-
argS	1961776	1963509	+
yecT	1963686	1964174	+
flhE	1964686	1964294	-
flhA	1966764	1964686	-
flhB	1967905	1966757	-
cheZ	1968751	1968107	-
cheY	1969151	1968762	-
cheB	1970215	1969166	-
cheR	1971078	1970218	-
tap	1972698	1971097	-
tar	1974405	1972744	-
cheW	1975053	1974550	-
cheA	1977038	1975074	-
motB	1977969	1977043	-
motA	1978853	1977966	-
flhC	1979558	1978980	-
flhD	1979920	1979561	-
insH	1981371	1980355	-
yecG	1981890	1982318	+
otsA	1983749	1982325	-
otsB	1984524	1983724	-
araH	1985680	1984691	-
araG	1987206	1985692	-
araF	1988265	1987276	-
yecI	1989062	1989565	+
yecJ	1989895	1989644	-
yecR	1990359	1990682	+
ftn	1990853	1991350	+
yecH	1991627	1991388	-
tyrP	1991818	1993029	+
yecA	1993756	1993091	-
pgsA	1994954	1994406	-
uvrC	1996843	1995011	-
uvrY	1997496	1996840	-
yecF	1997955	1998179	+
sdiA	1998969	1998247	-
yecC	1999951	1999199	-
yecS	2000616	1999948	-
yedO	2001617	2000631	-
fliY	2002522	2001722	-
fliZ	2003161	2002610	-
fliA	2003926	2003207	-
fliC	2005743	2004247	-
fliD	2006009	2007415	+
fliS	2007440	2007850	+
fliT	2007850	2008215	+
amyA	2008293	2009780	+
yedD	2010227	2009814	-
yedE	2010414	2011619	+
yedF	2011616	2011849	+
yedK	2011958	2012626	+
yedL	2012737	2013216	+
yedM	2014488	2014138	-
fliE	2015151	2014837	-
fliF	2015366	2017024	+
fliG	2017017	2018012	+
fliH	2018005	2018691	+
fliI	2018691	2020064	+
fliJ	2020083	2020526	+
fliK	2020523	2021650	+
fliL	2021755	2022219	+
fliM	2022224	2023228	+
fliN	2023225	2023638	+
fliO	2023641	2024006	+
fliP	2024006	2024743	+
fliQ	2024753	2025022	+
fliR	2025030	2025815	+
rcsA	2026105	2026728	+
dsrB	2026960	2026772	-
yodD	2027123	2027350	+
yedP	2027648	2028463	+
yedQ	2030154	2028460	-
yodC	2030507	2030325	-
yedI	2031503	2030586	-
yedA	2031676	2032596	+
vsr	2033055	2032585	-
dcm	2034454	2033036	-
yedJ	2035216	2034521	-
yedR	2035621	2035256	-
hchA	2037972	2038823	+
yedV	2040289	2038931	-
yedW	2040960	2040289	-
yedX	2041093	2041506	+
yedY	2041615	2042619	+
yedZ	2042620	2043255	+
yodA	2043512	2044162	+
yodB	2044505	2045035	+
yeeI	2045788	2046585	+
yeeJ	2047048	2054151	+
shiA	2055780	2057096	+
amn	2057198	2058652	+
yeeN	2058995	2059711	+
yeeO	2061983	2060340	-
cbl	2063051	2062101	-
nac	2064070	2063153	-
erfK	2065460	2064528	-
cobT	2066604	2065525	-
cobS	2067359	2066616	-
cobU	2067901	2067356	-
insH	2069458	2068442	-
insD	2071994	2071089	-
insC	2072362	2071952	-
yoeE	2072381	2072641	+
flu	2073676	2076795	+
yeeR	2076916	2078448	+
yeeS	2078445	2078891	+
yeeT	2078954	2079175	+
yeeU	2079249	2079617	+
yeeV	2079706	2080080	+
yeeW	2080077	2080271	+
yoeF	2080712	2081068	+
yeeX	2081564	2081169	-
yeeA	2082728	2081670	-
sbmC	2083399	2082926	-
dacD	2084684	2083518	-
sbcB	2084893	2086320	+
yeeD	2086590	2086363	-
yeeE	2087662	2086604	-
yeeF	2089199	2087841	-
yeeY	2090395	2089466	-
yeeZ	2091265	2090441	-
yoeB	2091602	2091348	-
yefM	2091850	2091599	-
hisL	2092133	2092183	+
hisG	2092329	2093228	+
hisD	2093234	2094538	+
hisC	2094535	2095605	+
hisB	2095605	2096672	+
hisH	2096672	2097262	+
hisA	2097262	2097999	+
hisF	2097981	2098757	+
hisI	2098751	2099362	+
cld	2100438	2099458	-
ugd	2101750	2100584	-
gnd	2103405	2101999	-
insH	2105048	2104032	-
wbbK	2106646	2105528	-
wbbJ	2107221	2106631	-
wbbI	2108194	2107202	-
wbbH	2109363	2108197	-
glf	2110466	2109363	-
rfbX	2111721	2110474	-
rfbC	2112275	2111718	-
rfbA	2113156	2112275	-
rfbD	2114113	2113214	-
rfbB	2115198	2114113	-
galF	2116464	2115571	-
wcaM	2118033	2116639	-
wcaL	2119264	2118044	-
wcaK	2120541	2119261	-
wzxC	2122295	2120817	-
wcaJ	2123691	2122297	-
cpsG	2125116	2123746	-
cpsB	2126657	2125221	-
wcaI	2127883	2126660	-
nudD	2128359	2127880	-
fcl	2129327	2128362	-
gmd	2130451	2129330	-
wcaF	2131025	2130477	-
wcaE	2131787	2131041	-
wcaD	2133015	2131798	-
wcaC	2134207	2132990	-
wcaB	2134692	2134204	-
wcaA	2135534	2134695	-
wzc	2137789	2135627	-
wzb	2138235	2137792	-
wza	2139380	2138241	-
yegH	2140039	2141622	+
asmA	2143749	2141896	-
dcd	2144352	2143771	-
udk	2145085	2144444	-
yegE	2145403	2148720	+
alkA	2149677	2148829	-
yegD	2149811	2151163	+
yegI	2153122	2151176	-
yegJ	2153322	2153783	+
yegK	2154609	2153848	-
yegL	2155265	2154606	-
mdtA	2156153	2157400	+
mdtB	2157400	2160522	+
mdtC	2160523	2163600	+
mdtD	2163601	2165016	+
baeS	2165013	2166416	+
baeR	2166413	2167135	+
yegP	2167326	2167658	+
yegQ	2167805	2169166	+
ogrK	2169657	2169439	-
yegR	2170443	2170126	-
yegS	2170849	2171748	+
insE	2172364	2172672	+
insF	2172669	2173535	+
gatD	2175010	2173970	-
gatC	2176413	2175058	-
gatB	2176701	2176417	-
gatA	2177052	2176732	-
insH	2177051	2178031	+
gatA	2178383	2178069	-
gatZ	2179655	2178393	-
gatY	2180538	2179684	-
fbaB	2181898	2180846	-
yegT	2182155	2183432	+
yegU	2183429	2184433	+
yegV	2184430	2185395	+
yegW	2186115	2185369	-
yegX	2186985	2186167	-
thiD	2187850	2187050	-
thiM	2188635	2187847	-
yohL	2189130	2188858	-
yohM	2189251	2190075	+
yohN	2190294	2190632	+
yehA	2191748	2190714	-
yehB	2194244	2191764	-
yehC	2194979	2194260	-
yehD	2195556	2195014	-
yehE	2196130	2195849	-
mrp	2197502	2196393	-
metG	2197634	2199667	+
yehI	2203613	2207245	+
yehK	2207306	2207623	+
yehL	2207930	2209018	+
yehM	2209029	2211308	+
yehP	2211301	2212437	+
yehQ	2212434	2214278	+
yehR	2214559	2215020	+
yehS	2215530	2215060	-
yehT	2216296	2215577	-
yehU	2217978	2216293	-
mlrA	2218200	2218931	+
yohO	2218991	2219098	+
yehW	2219810	2219079	-
yehX	2220741	2219815	-
yehY	2221891	2220734	-
yehZ	2222815	2221898	-
bglX	2225323	2223026	-
dld	2225519	2227234	+
pbpG	2228204	2227272	-
yohC	2228965	2228378	-
yohD	2229135	2229713	+
yohF	2230604	2229843	-
yohG	2231745	2230657	-
yohH	2232020	2231883	-
dusC	2233719	2232772	-
yohJ	2233958	2234356	+
yohK	2234353	2235048	+
cdd	2235178	2236062	+
sanA	2236212	2236931	+
yeiS	2236934	2237173	+
yeiT	2237367	2238605	+
yeiA	2238599	2239834	+
mglC	2241087	2240077	-
mglA	2242623	2241103	-
mglB	2243682	2242684	-
galS	2245002	2243962	-
yeiB	2246301	2245144	-
folE	2246986	2246318	-
yeiG	2247244	2248080	+
cirA	2250103	2248112	-
lysP	2251866	2250397	-
yeiE	2252952	2252071	-
yeiH	2253051	2254100	+
nfo	2254174	2255031	+
yeiI	2255034	2256122	+
yeiJ	2257479	2256229	-
rihB	2258520	2257579	-
yeiL	2258689	2259348	+
yeiM	2260669	2259419	-
yeiN	2261701	2260763	-
yeiC	2262630	2261689	-
fruA	2264744	2263053	-
fruK	2265699	2264761	-
fruB	2266829	2265699	-
setB	2267197	2268378	+
yeiW	2268629	2268375	-
yeiP	2268784	2269356	+
yeiQ	2269579	2271045	+
yeiR	2271163	2272149	+
yeiU	2272188	2272901	+
spr	2273313	2273879	+
rtn	2274060	2275616	+
yejA	2275698	2277512	+
yejB	2277513	2278607	+
yejE	2278607	2279632	+
yejF	2279634	2281223	+
yejG	2281571	2281227	-
bcr	2283094	2281904	-
rsuA	2283817	2283122	-
yejH	2283966	2285726	+
rplY	2285851	2286135	+
yejK	2287281	2286274	-
yejL	2287463	2287690	+
yejM	2287710	2289470	+
yejO	2292234	2289724	-
insH	2293415	2292399	-
narP	2293834	2294481	+
ccmH	2295744	2294692	-
ccmG	2296298	2295741	-
ccmF	2298238	2296295	-
ccmE	2298714	2298235	-
ccmD	2298920	2298711	-
ccmC	2299654	2298917	-
ccmB	2300358	2299696	-
ccmA	2300978	2300355	-
napC	2301593	2300991	-
napB	2302052	2301603	-
napH	2302912	2302049	-
napG	2303594	2302899	-
napA	2306087	2303601	-
napD	2306347	2306084	-
napF	2306831	2306337	-
eco	2307239	2307727	+
mqo	2310088	2308442	-
yojI	2311949	2310306	-
alkB	2312675	2312025	-
ada	2313739	2312675	-
yojL	2314868	2313813	-
ompC	2316083	2314980	-
rcsD	2316822	2319494	+
rcsB	2319511	2320161	+
rcsC	2320735	2320361	-
insC	2322033	2321668	-
rcsC	2324498	2322075	-
atoS	2324713	2326539	+
atoC	2326536	2327921	+
atoD	2328117	2328779	+
atoA	2328779	2329429	+
atoE	2329426	2330748	+
atoB	2330779	2331963	+
yfaP	2332813	2332037	-
yfaQ	2334467	2332818	-
yfaT	2339629	2339006	-
yfaA	2341314	2339626	-
gyrA	2344090	2341463	-
ubiG	2344237	2344959	+
yfaL	2348839	2345087	-
nrdA	2349535	2351820	+
nrdB	2352054	2353184	+
yfaE	2353184	2353438	+
inaA	2354142	2353492	-
yfaH	2354357	2354563	+
glpQ	2355681	2354605	-
glpT	2357044	2355686	-
glpA	2357317	2358945	+
glpB	2358935	2360194	+
glpC	2360191	2361381	+
yfaD	2361574	2362473	+
yfaU	2363515	2362712	-
yfaV	2364822	2363533	-
yfaW	2366096	2364879	-
yfaX	2366881	2366099	-
yfaY	2368303	2367101	-
yfaZ	2368945	2368403	-
yfaO	2369224	2369649	+
ais	2370290	2369688	-
yfbE	2370580	2371737	+
yfbF	2371741	2372709	+
yfbG	2372709	2374691	+
yfbH	2374688	2375578	+
arnT	2375578	2377230	+
yfbW	2377227	2377562	+
yfbJ	2377562	2377948	+
pmrD	2378208	2377942	-
menE	2379673	2378318	-
menC	2380632	2379670	-
menB	2381489	2380632	-
yfbB	2382262	2381504	-
menD	2383929	2382259	-
menF	2385313	2384018	-
elaB	2385697	2385392	-
elaA	2386213	2385752	-
elaC	2386278	2387195	+
elaD	2387383	2388594	+
yfbK	2390392	2388665	-
yfbL	2390530	2391501	+
yfbM	2391604	2392107	+
yfbN	2393096	2392380	-
yfbO	2393251	2393727	+
yfbP	2393783	2394634	+
nuoN	2395995	2394718	-
nuoM	2397711	2396182	-
nuoL	2399716	2397875	-
nuoK	2400015	2399713	-
nuoJ	2400566	2400012	-
nuoI	2401120	2400578	-
nuoH	2402112	2401135	-
nuoG	2404841	2402109	-
nuoF	2406225	2404888	-
nuoE	2406722	2406222	-
nuoC	2408527	2406725	-
nuoB	2409283	2408621	-
nuoA	2409742	2409299	-
lrhA	2411311	2410373	-
insB	2411976	2411473	-
insA	2412170	2411895	-
yfbQ	2413007	2414224	+
yfbR	2414308	2414907	+
yfbS	2416798	2414966	-
yfbT	2417535	2416885	-
yfbU	2418040	2417546	-
yfbV	2418578	2418123	-
ackA	2418916	2420118	+
pta	2420193	2422337	+
yfcC	2422527	2424047	+
yfcD	2424622	2424080	-
yfcE	2425234	2424680	-
yfcF	2425931	2425287	-
yfcG	2426067	2426714	+
folX	2426771	2427133	+
yfcH	2427154	2428047	+
yfcI	2428985	2428095	-
hisP	2429955	2429182	-
hisM	2430679	2429963	-
hisQ	2431362	2430676	-
hisJ	2432234	2431452	-
argT	2433237	2432455	-
ubiX	2434072	2433503	-
purF	2435684	2434167	-
cvpA	2436209	2435721	-
dedD	2437130	2436468	-
folC	2438388	2437120	-
accD	2439372	2438458	-
dedA	2440187	2439528	-
truA	2441082	2440270	-
usg	2442095	2441082	-
pdxB	2443297	2442161	-
flk	2443396	2444391	+
yfcJ	2445566	2444388	-
fabB	2447051	2445831	-
trmC	2447210	2449216	+
yfcL	2449615	2449337	-
yfcM	2450197	2449649	-
yfcA	2451006	2450197	-
mepA	2451830	2451006	-
aroC	2452919	2451834	-
prmB	2453886	2452954	-
yfcN	2454052	2454603	+
yfcO	2455495	2454674	-
yfcP	2456036	2455497	-
yfcQ	2456521	2456033	-
yfcR	2457030	2456518	-
yfcS	2457782	2457030	-
yfcT	2458698	2457802	-
yfcU	2460447	2458711	-
yfcV	2461092	2460529	-
sixA	2462258	2461773	-
yfcX	2464605	2462461	-
yfcY	2465915	2464605	-
yfcZ	2466380	2466096	-
fadL	2466746	2468092	+
yfdF	2468458	2469516	+
vacJ	2470453	2469698	-
yfdC	2470747	2471679	+
intS	2471991	2473148	+
yfdG	2473301	2473663	+
yfdH	2473660	2474580	+
yfdI	2474577	2475908	+
yfdK	2476963	2476523	-
yfdL	2477508	2476990	-
yfdM	2477833	2477558	-
yfdN	2478327	2477833	-
yfdO	2478692	2478324	-
yfdP	2478966	2479412	+
yfdQ	2479478	2480302	+
yfdR	2480430	2480966	+
yfdS	2480957	2481319	+
yfdT	2481319	2481624	+
ypdJ	2481540	2481680	+
torI	2481756	2481956	+
dsdC	2483075	2482140	-
dsdX	2483293	2484630	+
dsdA	2484648	2485976	+
emrY	2487622	2486084	-
emrK	2488785	2487622	-
evgA	2489201	2489815	+
evgS	2489820	2493413	+
yfdE	2494614	2493469	-
yfdV	2495632	2494688	-
oxc	2497396	2495702	-
frc	2498700	2497450	-
yfdX	2499848	2499213	-
ypdI	2500144	2500419	+
yfdY	2500738	2500496	-
ddg	2501091	2502011	+
yfdZ	2503741	2502503	-
ypdA	2504117	2505814	+
ypdB	2505829	2506563	+
ypdC	2506576	2507433	+
ypdD	2509931	2507436	-
ypdE	2510993	2509956	-
ypdF	2512078	2510993	-
ypdG	2513340	2512093	-
ypdH	2513688	2513362	-
glk	2514872	2513907	-
yfeO	2515076	2516332	+
ypeC	2516447	2516773	+
mntH	2518152	2516914	-
nupC	2518488	2519690	+
insL	2519777	2520889	+
yfeA	2523278	2521089	-
yfeC	2523913	2524257	+
yfeD	2524259	2524651	+
gltX	2526118	2524703	-
xapR	2527923	2527039	-
xapB	2529431	2528175	-
xapA	2530324	2529491	-
yfeN	2530573	2531337	+
yfeR	2532302	2531376	-
yfeH	2532392	2533390	+
ypeB	2533605	2533387	-
ligA	2535622	2533607	-
zipA	2536679	2535693	-
cysZ	2536909	2537670	+
cysK	2537855	2538826	+
ptsH	2539210	2539467	+
ptsI	2539512	2541239	+
crr	2541280	2541789	+
pdxK	2542683	2541832	-
yfeK	2542788	2543162	+
yfeS	2543195	2543929	+
cysM	2545029	2544118	-
cysA	2546260	2545163	-
cysW	2547125	2546250	-
cysU	2547958	2547125	-
cysP	2548974	2547958	-
ucpA	2550069	2549278	-
yfeT	2551055	2550198	-
yfeU	2551219	2552115	+
murP	2552119	2553543	+
yfeW	2553548	2554852	+
yfeX	2555991	2555092	-
yfeY	2556662	2556087	-
yfeZ	2557172	2556723	-
ypeA	2557584	2557159	-
amiA	2557798	2558667	+
hemF	2558671	2559570	+
yfeG	2560628	2559576	-
yffI	2561174	2560674	-
eutL	2561846	2561187	-
eutC	2562743	2561856	-
eutB	2564125	2562764	-
eutA	2565540	2564137	-
eutH	2566763	2565537	-
eutG	2568167	2566980	-
eutJ	2568993	2568157	-
eutE	2570407	2569004	-
cchB	2570706	2570419	-
cchA	2571106	2570813	-
eutI	2572161	2571145	-
eutT	2572961	2572158	-
eutQ	2573659	2572958	-
eutP	2574113	2573634	-
ypfE	2574461	2574126	-
maeB	2577033	2574754	-
talA	2577322	2578272	+
tktB	2578292	2580295	+
ypfG	2581433	2580390	-
yffH	2582134	2581559	-
aegA	2584181	2582202	-
narQ	2584387	2586087	+
acrD	2586251	2589364	+
yffB	2589903	2590259	+
dapE	2590263	2591390	+
ypfN	2591418	2591618	+
ypfH	2592426	2591728	-
ypfI	2594515	2592500	-
ypfJ	2595393	2594530	-
purC	2596274	2595561	-
nlpB	2597521	2596487	-
dapA	2598416	2597538	-
gcvR	2598562	2599134	+
bcp	2599134	2599604	+
hyfA	2599857	2600474	+
hyfB	2600474	2602492	+
hyfC	2602503	2603450	+
hyfD	2603467	2604906	+
hyfE	2604918	2605568	+
hyfF	2605573	2607153	+
hyfG	2607143	2608810	+
hyfH	2608820	2609365	+
hyfI	2609362	2610120	+
hyfJ	2610113	2610526	+
hyfR	2610556	2612568	+
focB	2612590	2613438	+
yfgO	2614537	2613476	-
yfgC	2614750	2616213	+
yfgD	2616234	2616593	+
hda	2617477	2616731	-
uraA	2618816	2617527	-
upp	2619528	2618902	-
purM	2619853	2620890	+
purN	2620890	2621528	+
ppk	2621700	2623766	+
ppx	2623771	2625312	+
yfgF	2627594	2625351	-
yfgG	2627946	2628137	+
yfgH	2628448	2628966	+
yfgI	2628982	2629521	+
guaA	2631191	2629614	-
guaB	2632726	2631260	-
xseA	2632888	2634258	+
yfgJ	2634470	2634255	-
der	2636012	2634540	-
yfgL	2637308	2636130	-
yfgM	2637939	2637319	-
hisS	2639231	2637957	-
ispG	2640460	2639342	-
yfgA	2641500	2640487	-
yfgB	2642939	2641785	-
ndk	2643520	2643089	-
pbpC	2645981	2643669	-
yfhM	2650943	2645982	-
sseA	2651150	2651995	+
sseB	2653589	2652813	-
pepB	2655014	2653731	-
yfhJ	2655392	2655192	-
fdx	2655739	2655404	-
hscA	2657591	2655741	-
hscB	2658123	2657608	-
iscA	2658542	2658219	-
iscU	2658945	2658559	-
iscS	2660187	2658973	-
iscR	2660787	2660299	-
yfhQ	2661979	2661239	-
suhB	2662098	2662901	+
yfhR	2663019	2663900	+
csiE	2664091	2665371	+
hcaT	2666502	2665363	-
hcaR	2667552	2666662	-
hcaE	2667688	2669049	+
hcaF	2669046	2669564	+
hcaC	2669564	2669884	+
hcaB	2669881	2670693	+
hcaD	2670703	2671905	+
yphA	2671930	2672424	+
yphB	2673344	2672472	-
yphC	2674417	2673356	-
yphD	2675481	2674483	-
yphE	2677017	2675506	-
yphF	2678023	2677040	-
yphG	2681401	2678120	-
yphH	2681519	2682712	+
glyA	2684163	2682910	-
hmp	2684491	2685681	+
glnB	2686064	2685726	-
yfhA	2687459	2686125	-
yfhG	2688162	2687449	-
yfhK	2689754	2688327	-
purL	2694199	2690312	-
yfhD	2694595	2696013	+
tadA	2696546	2696010	-
yfhB	2697206	2696571	-
yfhH	2697415	2698263	+
yfhL	2698319	2698579	+
acpS	2699654	2699274	-
pdxJ	2700385	2699654	-
recO	2701125	2700397	-
era	2702042	2701137	-
rnc	2702719	2702039	-
lepB	2703965	2702991	-
lepA	2705780	2703981	-
rseC	2706457	2705978	-
rseB	2707410	2706454	-
rseA	2708060	2707410	-
rpoE	2708668	2708093	-
nadB	2709076	2710698	+
yfiC	2711420	2710683	-
srmB	2711552	2712886	+
yfiE	2713976	2713095	-
yfiK	2714079	2714666	+
yfiD	2715105	2714722	-
ung	2715410	2716099	+
yfiF	2717184	2716147	-
trxC	2717391	2717810	+
yfiP	2717879	2718577	+
yfiQ	2718609	2721269	+
pssA	2721383	2722738	+
yfiM	2722835	2723107	+
kgtP	2724402	2723104	-
clpB	2732829	2730256	-
yfiH	2733690	2732959	-
rluD	2734667	2733687	-
yfiO	2734802	2735539	+
yfiA	2735810	2736151	+
pheL	2736255	2736302	+
pheA	2736401	2737561	+
tyrA	2738725	2737604	-
aroF	2739806	2738736	-
yfiL	2740016	2740381	+
yfiR	2740531	2741049	+
yfiN	2741039	2742265	+
yfiB	2742281	2742763	+
rplS	2743186	2742839	-
trmD	2743995	2743228	-
rimM	2744574	2744026	-
rpsP	2744841	2744593	-
ffh	2746451	2745090	-
ypjD	2746543	2747409	+
yfjD	2747520	2748716	+
grpE	2749364	2748771	-
yfjB	2749487	2750365	+
recN	2750451	2752112	+
smpA	2752261	2752602	+
yfjF	2752954	2752664	-
yfjG	2753420	2752944	-
smpB	2753552	2754034	+
intA	2754815	2756056	+
yfjH	2757256	2756300	-
alpA	2757300	2757512	+
yfjI	2757641	2759050	+
yfjJ	2759203	2759829	+
yfjK	2762196	2760007	-
yfjL	2763809	2762193	-
yfjM	2764432	2764169	-
yfjN	2764574	2765647	+
yfjO	2765640	2766011	+
yfjP	2766366	2767229	+
yfjQ	2767321	2768142	+
yfjR	2768359	2769060	+
ypjK	2769101	2769337	+
yfjS	2769337	2769780	+
yfjT	2769804	2770271	+
yfjU	2770810	2770496	-
ypjL	2771341	2770823	-
yfjV	2771692	2771492	-
yfjW	2771974	2773677	+
yfjX	2774575	2775033	+
yfjY	2775042	2775524	+
ypjJ	2775533	2775733	+
yfjZ	2775771	2776088	+
ypjF	2776109	2776438	+
ypjA	2781382	2776802	-
ypjB	2783085	2782294	-
ypjC	2783667	2783185	-
ygaQ	2785053	2785385	+
ygaR	2785404	2786090	+
yqaD	2787033	2787305	+
ygaT	2787641	2788618	+
ygaF	2788638	2789906	+
gabD	2789929	2791377	+
gabT	2791391	2792671	+
gabP	2792909	2794309	+
csiR	2794330	2794992	+
ygaU	2795442	2794993	-
yqaE	2795684	2795526	-
ygaV	2795867	2796166	+
ygaP	2796176	2796700	+
stpA	2797151	2796747	-
ygaW	2797820	2798269	+
ygaC	2798650	2798306	-
ygaM	2798790	2799131	+
nrdH	2799379	2799624	+
nrdI	2799621	2800031	+
nrdE	2800004	2802148	+
nrdF	2802158	2803117	+
proV	2803471	2804673	+
proW	2804666	2805730	+
proX	2805788	2806780	+
ygaX	2806972	2807238	+
ygaZ	2808273	2809010	+
ygaH	2809000	2809335	+
mprA	2809426	2809956	+
emrA	2810083	2811255	+
emrB	2811272	2812810	+
luxS	2813389	2812874	-
gshA	2815095	2813539	-
yqaA	2815596	2815168	-
yqaB	2816159	2815593	-
csrA	2817802	2817617	-
alaS	2820667	2818037	-
recX	2821295	2820795	-
recA	2822425	2821364	-
ygaD	2823002	2822505	-
mltB	2824232	2823147	-
srlA	2824488	2825051	+
srlE	2825048	2826007	+
srlB	2826018	2826389	+
srlD	2826393	2827172	+
gutM	2827277	2827636	+
srlR	2827703	2828476	+
gutQ	2828469	2829434	+
norR	2830945	2829431	-
norV	2831132	2832571	+
norW	2832568	2833701	+
hypF	2836081	2833829	-
hydN	2836761	2836234	-
ascG	2837923	2836910	-
ascF	2838180	2839637	+
ascB	2839646	2841070	+
hycI	2841699	2841229	-
hycH	2842102	2841692	-
hycG	2842866	2842099	-
hycF	2843408	2842866	-
hycE	2845127	2843418	-
hycD	2846068	2845145	-
hycC	2847897	2846071	-
hycB	2848505	2847894	-
hycA	2849091	2848630	-
hypA	2849303	2849653	+
hypB	2849657	2850529	+
hypC	2850520	2850792	+
hypD	2850792	2851913	+
hypE	2851952	2852920	+
fhlA	2852994	2855072	+
ygbA	2855462	2855109	-
mutS	2855749	2858310	+
pphB	2858416	2859072	+
ygbI	2859920	2859123	-
ygbJ	2860086	2860994	+
ygbK	2860991	2862157	+
ygbL	2862249	2862887	+
ygbM	2862892	2863668	+
ygbN	2863757	2865121	+
rpoS	2866090	2865215	-
nlpD	2867409	2866270	-
pcm	2868175	2867549	-
surE	2868930	2868169	-
truD	2869960	2868911	-
ispF	2870436	2869957	-
ispD	2871146	2870436	-
ftsB	2871476	2871165	-
ygbE	2871993	2871670	-
cysC	2872648	2872043	-
cysN	2874075	2872648	-
cysD	2874985	2874077	-
iap	2875237	2876274	+
ygbF	2877509	2877225	-
ygbT	2878428	2877511	-
ygcH	2879043	2878444	-
ygcI	2879704	2879030	-
ygcJ	2880798	2879707	-
ygcK	2881293	2880811	-
ygcL	2882794	2881286	-
ygcB	2885875	2883209	-
cysH	2886968	2886234	-
cysI	2888755	2887043	-
cysJ	2890554	2888755	-
ygcM	2890870	2891235	+
ygcN	2891313	2892584	+
ygcO	2892575	2892835	+
ygcP	2892852	2893427	+
ygcQ	2894435	2893575	-
ygcR	2895211	2894432	-
ygcS	2896526	2895189	-
ygcU	2898074	2896620	-
ygcW	2898929	2898144	-
yqcE	2899248	2900525	+
ygcE	2900552	2902030	+
ygcF	2904074	2903403	-
ygcG	2904367	2905239	+
eno	2906597	2905299	-
pyrG	2908322	2906685	-
mazG	2909341	2908550	-
chpA	2909747	2909412	-
chpR	2909995	2909747	-
relA	2912307	2910073	-
rumA	2913656	2912355	-
barA	2913713	2916469	+
gudD	2918041	2916701	-
gudX	2919402	2918062	-
gudP	2920756	2919404	-
yqcA	2921640	2921191	-
yqcB	2922440	2921658	-
yqcC	2922769	2922440	-
syd	2923936	2923391	-
yqcD	2924004	2924852	+
ygdH	2924964	2926328	+
sdaC	2926885	2928174	+
sdaB	2928232	2929599	+
exo	2929621	2930466	+
fucO	2931672	2930521	-
fucA	2932344	2931697	-
fucP	2932891	2934207	+
fucI	2934240	2936015	+
fucK	2936094	2937542	+
fucU	2937544	2937966	+
fucR	2938024	2938755	+
ygdE	2939899	2938799	-
ygdD	2940287	2939892	-
gcvA	2941223	2940306	-
ygdI	2941801	2941574	-
csdA	2941993	2943198	+
ygdK	2943198	2943641	+
ygdL	2944498	2943692	-
mltA	2945834	2944737	-
amiC	2947666	2946413	-
argA	2947898	2949229	+
recD	2951117	2949291	-
recB	2954659	2951117	-
ptr	2957540	2954652	-
recC	2961084	2957716	-
ppdC	2961420	2961097	-
ygdB	2961812	2961405	-
ppdB	2962372	2961809	-
ppdA	2962833	2962363	-
thyA	2963811	2963017	-
lgt	2964693	2963818	-
ptsP	2967090	2964844	-
nudH	2967633	2967103	-
mutH	2968318	2969007	+
ygdQ	2969076	2969789	+
ygdR	2969927	2970145	+
tas	2970253	2971293	+
ygeD	2972518	2971325	-
aas	2974670	2972511	-
galR	2975255	2976286	+
lysA	2977555	2976293	-
lysR	2977677	2978612	+
ygeA	2979291	2978599	-
araE	2980838	2979420	-
kduD	2981914	2981153	-
kduI	2982780	2981944	-
yqeF	2984248	2983067	-
yqeG	2984503	2985732	+
yqeH	2986192	2986824	+
yqeI	2987158	2987967	+
yqeJ	2987960	2988442	+
yqeK	2989016	2988591	-
ygeF	2989210	2989656	+
ygeG	2989924	2990415	+
ygeH	2990750	2992126	+
ygeI	2992294	2992512	+
ygeK	2993559	2993116	-
ygeL	2993748	2993593	-
ygeM	2994401	2993970	-
ygeO	2995043	2994618	-
insD	2995933	2995028	-
insC	2996301	2995891	-
ygeP	2996644	2996345	-
ygeQ	2997484	2996690	-
ygeR	2998547	2997792	-
xdhA	2999001	3001259	+
xdhB	3001270	3002148	+
xdhC	3002145	3002624	+
ygeV	3004442	3002664	-
ygeW	3004918	3006108	+
ygeX	3006166	3007362	+
ygeY	3007420	3008631	+
hyuA	3008684	3010069	+
yqeA	3010117	3011049	+
yqeB	3012895	3011270	-
yqeC	3013713	3012943	-
ygfJ	3013816	3014394	+
ygfK	3014716	3017814	+
ssnA	3017817	3019145	+
ygfM	3019196	3019975	+
xdhD	3019972	3022842	+
ygfO	3023007	3024407	+
guaD	3024422	3025741	+
ygfQ	3025777	3027144	+
ygfS	3027668	3027180	-
ygfT	3029587	3027668	-
ygfU	3030023	3031471	+
idi	3031721	3032269	+
lysS	3033830	3032313	-
recJ	3036762	3035029	-
dsbC	3037478	3036768	-
xerD	3038399	3037503	-
fldB	3038511	3039032	+
ygfX	3039479	3039072	-
ygfY	3039726	3039460	-
ygfZ	3039969	3040949	+
yqfA	3041804	3041145	-
yqfB	3042279	3041968	-
bglA	3042318	3043757	+
ygfF	3044557	3043814	-
gcvP	3047697	3044824	-
gcvH	3048205	3047816	-
gcvT	3049323	3048229	-
visC	3050973	3049771	-
ubiH	3052174	3050996	-
pepP	3053496	3052171	-
ygfB	3054100	3053522	-
zapA	3054268	3054597	+
ygfA	3054897	3055445	+
serA	3057066	3055834	-
rpiA	3057981	3057322	-
yqfE	3058267	3058037	-
argP	3058409	3059302	+
yliK	3059506	3061650	+
argK	3061643	3062638	+
ygfG	3062649	3063434	+
ygfH	3063458	3064936	+
ygfI	3065829	3064933	-
yggE	3066736	3065996	-
argO	3067464	3066829	-
mscS	3068463	3067603	-
fbaA	3069900	3068821	-
pgk	3071278	3070115	-
epd	3072347	3071328	-
yggC	3073345	3072632	-
yggD	3073851	3073342	-
yggF	3074838	3073873	-
yggP	3076112	3074835	-
cmtA	3077515	3076127	-
cmtB	3077986	3077543	-
tktA	3080291	3078300	-
yggG	3080569	3081327	+
speB	3082453	3081533	-
speA	3084567	3082591	-
yqgB	3084722	3084576	-
yqgC	3084843	3085058	+
yqgD	3085306	3085055	-
metK	3085362	3086516	+
galP	3086940	3088334	+
sprT	3088411	3088908	+
endA	3089003	3089710	+
yggJ	3089790	3090521	+
gshB	3090534	3091484	+
yqgE	3091593	3092156	+
yqgF	3092156	3092572	+
yggR	3093736	3092756	-
yggS	3093754	3094458	+
yggT	3094476	3095042	+
yggU	3095039	3095329	+
yggV	3095337	3095930	+
yggW	3095923	3097059	+
yggM	3098221	3097214	-
ansB	3099384	3098338	-
yggN	3100279	3099560	-
yggL	3100789	3100463	-
yggH	3101508	3100789	-
mutY	3101669	3102721	+
yggX	3102749	3103024	+
mltC	3103089	3104168	+
nupG	3104370	3105626	+
speC	3107811	3105676	-
yqgA	3108209	3108916	+
yghD	3109782	3109246	-
yghF	3111576	3110710	-
yghG	3112133	3111723	-
pppA	3113008	3112199	-
yghJ	3117768	3113206	-
yghK	3119935	3118253	-
glcB	3122461	3120290	-
glcG	3122887	3122483	-
glcF	3124115	3122892	-
glcE	3125178	3124126	-
glcD	3126677	3125178	-
glcC	3126928	3127692	+
yghO	3128871	3127699	-
insH	3128834	3129850	+
yghQ	3131064	3129997	-
yghR	3131868	3131110	-
yghS	3132613	3131900	-
yghT	3132787	3133479	+
pitB	3135027	3133528	-
gss	3137178	3135319	-
yghU	3137383	3138249	+
hybG	3138620	3138372	-
hybF	3138974	3138633	-
hybE	3139455	3138967	-
hybD	3139942	3139448	-
hybC	3141645	3139942	-
hybB	3142820	3141642	-
hybA	3143796	3142810	-
hybO	3144917	3143799	-
yghW	3145393	3145106	-
yghZ	3146553	3147593	+
yqhA	3148127	3147633	-
yghA	3148318	3149202	+
exbD	3149899	3149474	-
exbB	3150640	3149906	-
metC	3150892	3152079	+
yghB	3152219	3152878	+
yqhC	3153874	3152918	-
yqhD	3154011	3155174	+
dkgA	3155279	3156106	+
yqhG	3156306	3157232	+
yqhH	3157283	3157540	+
ygiQ	3159802	3157583	-
sufI	3161325	3159913	-
plsC	3162137	3161400	-
parC	3164629	3162371	-
ygiS	3166374	3164767	-
ygiT	3166902	3166507	-
ygiU	3167200	3166904	-
ygiV	3167887	3167405	-
ygiW	3168332	3167940	-
qseB	3168484	3169143	+
qseC	3169140	3170489	+
ygiZ	3170867	3170535	-
mdaB	3171186	3171767	+
ygiN	3171798	3172112	+
parE	3174052	3172160	-
yqiA	3174662	3174081	-
cpdA	3175489	3174662	-
yqiB	3175936	3175514	-
nudF	3176566	3175937	-
tolC	3176771	3178252	+
ygiA	3178252	3178512	+
ygiB	3178496	3179071	+
ygiC	3179077	3180237	+
zupT	3181090	3180275	-
ygiE	3181206	3181979	+
ribB	3183122	3182469	-
yqiC	3183496	3183786	+
ygiL	3184070	3184621	+
insC	3184798	3185208	+
insD	3185166	3186071	+
yqiG	3186056	3188521	+
yqiH	3188537	3189286	+
yqiI	3189288	3190352	+
glgS	3190595	3190395	-
yqiJ	3190864	3191493	+
yqiK	3191520	3193181	+
rfaE	3195409	3193976	-
glnE	3198297	3195457	-
ygiF	3199621	3198320	-
htrG	3199863	3200483	+
cca	3200547	3201785	+
bacA	3202787	3201966	-
folB	3203245	3202877	-
ygiH	3203350	3203967	+
ygiP	3204912	3203980	-
ttdA	3205119	3206030	+
ttdB	3206027	3206632	+
ygjE	3206680	3208143	+
ygjD	3209199	3208186	-
rpsU	3209437	3209652	+
dnaG	3209763	3211508	+
rpoD	3211703	3213544	+
ygjF	3214129	3213623	-
yqjH	3215147	3214383	-
yqjI	3215435	3216058	+
aer	3217732	3216212	-
ygjG	3218123	3219529	+
ygjH	3219903	3219571	-
ebgR	3220122	3221105	+
ebgA	3221289	3224381	+
ebgC	3224378	3224827	+
ygjI	3224890	3226323	+
ygjJ	3226457	3227527	+
ygjK	3227544	3229895	+
fadH	3230321	3232339	+
ygjM	3232800	3232384	-
ygjN	3233111	3232797	-
ygjO	3234531	3233395	-
ygjP	3234616	3235119	+
ygjQ	3235196	3235888	+
ygjR	3235949	3236953	+
alx	3237236	3238201	+
sstT	3238600	3239844	+
ygjV	3240400	3239849	-
uxaA	3241970	3240483	-
uxaC	3243397	3241985	-
exuT	3243760	3245178	+
exuR	3245308	3246084	+
yqjA	3246429	3247091	+
yqjB	3247095	3247478	+
yqjC	3247625	3247993	+
yqjD	3248031	3248336	+
yqjE	3248339	3248743	+
yqjK	3248733	3249032	+
yqjF	3249218	3249610	+
yqjG	3249680	3250666	+
yhaH	3250960	3251325	+
yhaI	3251567	3251923	+
yhaJ	3252870	3251974	-
yhaK	3252975	3253676	+
yhaL	3253699	3253863	+
yhaM	3255307	3253997	-
yhaO	3256603	3255335	-
tdcG	3258305	3256941	-
tdcF	3258766	3258377	-
tdcE	3261074	3258780	-
insH	3261202	3262182	+
tdcD	3263515	3262220	-
tdcC	3264872	3263541	-
tdcB	3265883	3264894	-
tdcA	3266920	3265982	-
tdcR	3267235	3267453	+
yhaB	3267709	3268248	+
yhaC	3268270	3269457	+
garK	3271706	3270480	-
garR	3272612	3271722	-
garL	3273412	3272642	-
garP	3274762	3273428	-
garD	3275137	3276708	+
sohA	3276857	3277192	+
yhaV	3277192	3277656	+
agaR	3278520	3277711	-
kbaZ	3278769	3280049	+
agaV	3280072	3280545	+
agaA	3280977	3281480	+
agaS	3281831	3282985	+
kbaY	3282998	3283858	+
agaB	3284025	3284501	+
agaC	3284540	3285343	+
agaD	3285333	3286124	+
agaI	3286125	3286880	+
yraH	3287281	3287865	+
yraI	3287945	3288640	+
yraJ	3288669	3291185	+
yraK	3291196	3292287	+
yraL	3293190	3292330	-
yraM	3293255	3295291	+
yraN	3295249	3295644	+
yraO	3295664	3296254	+
yraP	3296264	3296839	+
yraQ	3297993	3296953	-
yraR	3298701	3298066	-
yhbO	3298829	3299347	+
yhbP	3299770	3299327	-
yhbQ	3299821	3300123	+
yhbS	3300613	3300110	-
yhbT	3301131	3300607	-
yhbU	3301340	3302335	+
yhbV	3302344	3303222	+
yhbW	3303303	3304310	+
mtr	3305672	3304428	-
deaD	3307715	3305826	-
nlpI	3308779	3307895	-
pnp	3311092	3308888	-
rpsO	3311539	3311270	-
truB	3312632	3311688	-
rbfA	3313033	3312632	-
infB	3315869	3313197	-
nusA	3317381	3315894	-
yhbC	3317861	3317409	-
argG	3318492	3319835	+
yhbX	3321468	3319843	-
secG	3322360	3322028	-
glmM	3323925	3322588	-
folP	3324766	3323918	-
ftsH	3326790	3324856	-
rrmJ	3327519	3326890	-
yhbY	3327645	3327938	+
greA	3328570	3328094	-
dacB	3328818	3330251	+
obgE	3331609	3330437	-
yhbE	3332590	3331625	-
rpmA	3332974	3332717	-
rplU	3333306	3332995	-
ispB	3333565	3334536	+
sfsB	3334764	3335042	+
murA	3336349	3335090	-
yrbA	3336658	3336404	-
yrbB	3337111	3336818	-
yrbC	3337746	3337111	-
yrbD	3338316	3337765	-
yrbE	3339103	3338321	-
yrbF	3339920	3339111	-
yrbG	3340130	3341107	+
kdsD	3341121	3342107	+
kdsC	3342128	3342694	+
yrbK	3342691	3343266	+
yhbN	3343235	3343792	+
yhbG	3343799	3344524	+
rpoN	3344572	3346005	+
yhbH	3346028	3346315	+
ptsN	3346433	3346924	+
yhbJ	3346970	3347824	+
npr	3347821	3348093	+
yrbL	3348307	3348939	+
mtgA	3349664	3348936	-
elbB	3350314	3349661	-
arcB	3352880	3350544	-
yhcC	3353905	3352976	-
gltB	3354487	3359040	+
gltD	3359053	3360471	+
gltF	3361031	3361795	+
yhcA	3361967	3362641	+
yhcD	3362662	3365043	+
insH	3366573	3365557	-
yhcF	3366781	3367497	+
yhcG	3367682	3368809	+
yhcH	3369333	3368869	-
nanK	3370205	3369330	-
nanE	3370891	3370202	-
nanT	3372429	3370939	-
nanA	3373431	3372538	-
nanR	3374344	3373553	-
dcuD	3374724	3376091	+
sspB	3376631	3376134	-
sspA	3377275	3376637	-
rpsI	3378062	3377670	-
rplM	3378506	3378078	-
yhcM	3379852	3378725	-
yhcB	3380046	3380444	+
degQ	3380598	3381965	+
degS	3382055	3383122	+
mdh	3384123	3383185	-
argR	3384558	3385028	+
yhcN	3385393	3385656	+
yhcO	3385984	3385712	-
aaeB	3388043	3386076	-
aaeA	3388981	3388049	-
aaeX	3389192	3388989	-
aaeR	3389375	3390304	+
tldD	3391883	3390438	-
yhdP	3396113	3392313	-
rng	3397650	3396181	-
yhdE	3398233	3397640	-
mreD	3398730	3398242	-
mreC	3399833	3398730	-
mreB	3400942	3399899	-
yhdA	3403187	3401247	-
yhdH	3403339	3404313	+
accB	3405291	3405761	+
accC	3405772	3407121	+
yhdT	3407230	3407472	+
panF	3407462	3408913	+
prmA	3408925	3409806	+
dusB	3410135	3411100	+
fis	3411126	3411422	+
yhdJ	3411508	3412392	+
yhdU	3412476	3412655	+
envR	3413320	3412658	-
acrE	3413719	3414876	+
acrF	3414888	3417992	+
yhdV	3418245	3418466	+
yhdW	3419004	3419921	+
yhdX	3419989	3421170	+
yhdY	3421180	3422283	+
yhdZ	3422291	3423049	+
purH	3429149	3430738	+
purD	3430750	3432039	+
zraR	3433361	3432036	-
zraS	3434755	3433358	-
zraP	3434993	3435418	+
yjaH	3436115	3435420	-
hupA	3436400	3436128	-
yjaG	3437177	3436587	-
nfi	3437891	3437220	-
hemE	3438965	3437901	-
nudC	3439778	3439005	-
rsd	3439873	3440349	+
thiC	3440582	3442477	+
thiE	3442477	3443112	+
thiF	3443105	3443860	+
thiS	3443844	3444044	+
thiG	3444046	3444816	+
thiH	3444813	3445946	+
htrC	3446895	3446356	-
rpoC	3451331	3447108	-
rpoB	3455436	3451408	-
rplL	3456121	3455756	-
rplJ	3456685	3456188	-
rplA	3457802	3457098	-
rplK	3458234	3457806	-
nusG	3458938	3458393	-
secE	3459323	3458940	-
tufB	3460737	3459553	-
coaA	3461655	3462605	+
birA	3463599	3462634	-
murB	3464624	3463596	-
murI	3471253	3470396	-
btuB	3473042	3471198	-
trmA	3473411	3474511	+
yijD	3474910	3474551	-
fabR	3475614	3474910	-
sthA	3475891	3477291	+
oxyR	3478191	3477274	-
argH	3479831	3478458	-
argB	3480665	3479892	-
argC	3481680	3480676	-
argE	3481834	3482985	+
ppc	3483583	3486234	+
yijP	3486416	3488149	+
yijO	3488364	3489215	+
frwD	3489543	3489202	-
pflC	3490423	3489545	-
pflD	3492686	3490389	-
frwB	3493057	3492737	-
frwC	3494151	3493072	-
ptsA	3494460	3496961	+
fsaB	3496973	3497635	+
gldA	3497646	3498749	+
yijF	3499024	3499641	+
yijE	3500573	3499668	-
katG	3502846	3500666	-
metF	3504065	3503175	-
metL	3506846	3504414	-
metB	3508009	3506849	-
metJ	3508286	3508603	+
yiiX	3508787	3509395	+
rpmE	3509668	3509456	-
priA	3509871	3512069	+
cytR	3512225	3513250	+
ftsN	3513342	3514301	+
hslV	3514394	3514924	+
hslU	3514934	3516265	+
menA	3516332	3517258	+
rraA	3517351	3517836	+
yiiU	3518166	3517921	-
glpF	3518591	3519436	+
glpK	3519459	3520967	+
glpX	3521102	3522112	+
fpr	3522209	3522955	+
yiiT	3523388	3522960	-
yiiS	3523714	3523415	-
yiiR	3524366	3523926	-
yiiQ	3524467	3525066	+
tpiA	3525174	3525941	+
cdh	3526751	3525996	-
sbp	3527847	3526858	-
pfkA	3529129	3528167	-
fieF	3530212	3529310	-
cpxP	3530861	3530361	-
cpxR	3531011	3531709	+
cpxA	3531706	3533079	+
yiiM	3533859	3533185	-
kdgT	3534991	3534008	-
sodA	3535871	3535251	-
rhaT	3536156	3537190	+
rhaR	3538125	3537187	-
rhaS	3538945	3538109	-
rhaB	3539233	3540702	+
rhaA	3540699	3541958	+
rhaD	3542409	3543233	+
yiiL	3543243	3543557	+
frvA	3543858	3544304	+
frvB	3544315	3545766	+
frvX	3545756	3546826	+
frvR	3546826	3548574	+
yiiG	3549679	3548624	-
fdhD	3550665	3549832	-
fdoH	3553922	3554824	+
fdoI	3554821	3555456	+
fdhE	3555453	3556382	+
yiiF	3556930	3556712	-
yiiE	3557390	3557172	-
yiiD	3559232	3558243	-
dtd	3559666	3559229	-
rbn	3560535	3559663	-
yihX	3561128	3560529	-
yihW	3562012	3561227	-
yihV	3562942	3562046	-
yihU	3563110	3564006	+
yihT	3564030	3564908	+
yihS	3564925	3566166	+
yihR	3566280	3567206	+
yihQ	3567405	3569441	+
yihP	3569466	3570872	+
yihO	3570915	3572318	+
ompL	3572386	3573078	+
yihN	3574434	3573169	-
yihM	3575516	3574536	-
yihL	3576234	3575524	-
bipA	3578274	3576451	-
glnA	3578647	3580056	+
glnL	3580342	3581391	+
glnG	3581403	3582812	+
hemN	3584636	3583263	-
yihI	3585334	3584825	-
yihA	3585952	3586548	+
polA	3589715	3586929	-
yihG	3590079	3591011	+
yihF	3592482	3591052	-
dsbA	3593263	3592637	-
yihE	3594266	3593280	-
yihD	3594612	3594343	-
mobA	3594682	3595266	+
mobB	3595263	3595775	+
hemG	3602073	3601528	-
trkH	3603536	3602085	-
yigZ	3604189	3603575	-
pepQ	3605520	3604189	-
fadB	3605710	3607899	+
fadA	3607909	3609072	+
fre	3610154	3609453	-
ubiD	3611693	3610200	-
rfaH	3611860	3612348	+
tatD	3613127	3612345	-
tatC	3613945	3613169	-
tatB	3614463	3613948	-
tatA	3614736	3614467	-
ubiB	3616455	3614815	-
yigP	3617057	3616452	-
ubiE	3617826	3617071	-
rmuC	3619348	3617921	-
udp	3620250	3619489	-
ysgA	3620512	3621327	+
metE	3623628	3621367	-
metR	3623865	3624818	+
yigM	3625605	3624706	-
yigL	3626481	3625681	-
pldB	3627511	3626489	-
rhtB	3627622	3628242	+
rhtC	3628924	3628304	-
recQ	3630817	3628988	-
pldA	3631819	3630950	-
yigI	3631984	3632451	+
rarD	3632503	3633393	+
yigG	3633488	3633868	+
yigF	3633882	3634262	+
corA	3635255	3634305	-
yigE	3635625	3636389	+
uvrD	3638698	3636536	-
yigB	3639498	3638782	-
xerC	3640394	3639498	-
yigA	3641098	3640391	-
dapF	3641919	3641095	-
yifL	3642159	3641956	-
yzcX	3642831	3642346	-
cyaY	3642622	3642942	+
cyaA	3645528	3642982	-
hemC	3645915	3646856	+
hemD	3646853	3647593	+
hemX	3647615	3648796	+
hemY	3648799	3649995	+
aslA	3650674	3652329	+
aslB	3653723	3652488	-
yifK	3655794	3654409	-
rffM	3656725	3655985	-
wzyE	3658080	3656728	-
rffT	3659156	3658077	-
wzxE	3660403	3659153	-
rffA	3661535	3660405	-
rffC	3662085	3661540	-
rffH	3663073	3662192	-
rffG	3664159	3663092	-
rffD	3665421	3664159	-
rffE	3666548	3665418	-
wzzE	3667650	3666604	-
rfe	3668765	3667662	-
rho	3670264	3669005	-
rhoL	3670450	3670349	-
trxA	3670920	3670591	-
rhlB	3671051	3672316	+
gpp	3672452	3673936	+
rep	3676004	3673983	-
yifO	3676394	3676669	+
ppiC	3676868	3677149	+
ilvC	3678711	3677236	-
ilvY	3678861	3679754	+
ilvA	3681350	3679806	-
ilvD	3683203	3681353	-
ilvE	3684197	3683268	-
ilvM	3684480	3684217	-
ilvL	3686359	3686261	-
yifB	3686682	3688232	+
yifE	3688595	3688257	-
hdfR	3688714	3689553	+
yieP	3695354	3696046	+
hsrA	3696069	3697496	+
rbsR	3698454	3697462	-
rbsK	3699387	3698458	-
rbsB	3700403	3699513	-
rbsC	3701393	3700428	-
rbsA	3702903	3701398	-
rbsD	3703330	3702911	-
trkD	3705365	3703497	-
yieN	3705588	3707084	+
yieM	3707078	3708529	+
asnA	3709526	3708534	-
asnC	3709678	3710136	+
mioC	3710226	3710669	+
gidA	3711048	3712937	+
gidB	3713001	3713624	+
atpI	3714241	3714621	+
atpB	3714630	3715445	+
atpE	3715492	3715731	+
atpF	3715793	3716263	+
atpH	3716278	3716811	+
atpA	3716824	3718365	+
atpG	3718416	3719279	+
atpD	3719306	3720688	+
atpC	3720709	3721128	+
glmU	3721481	3722851	+
glmS	3723013	3724842	+
pstS	3725156	3726196	+
pstC	3726283	3727242	+
pstA	3727242	3728132	+
pstB	3728315	3729088	+
phoU	3729103	3729828	+
bglG	3730114	3730950	+
bglF	3731084	3732961	+
bglB	3732980	3734392	+
bglH	3734461	3736077	+
yieL	3736077	3737273	+
yieK	3737288	3738010	+
cbrC	3738659	3738072	-
yieI	3739175	3738708	-
yieH	3739907	3739242	-
yieG	3740072	3741409	+
yieF	3742029	3741463	-
yieE	3742812	3742051	-
insC	3744172	3743807	-
yidZ	3745252	3744293	-
mdtL	3746402	3745227	-
tnaB	3746980	3746534	-
insH	3746979	3747959	+
tnaB	3748980	3747997	-
tnaA	3750486	3749071	-
insH	3750659	3751639	+
tnaC	3751980	3751906	-
trmE	3753587	3752223	-
yidC	3755339	3753693	-
yidD	3755599	3755342	-
rnpA	3755922	3755563	-
rpmH	3756079	3755939	-
dnaA	3756686	3758089	+
dnaN	3758094	3759194	+
recF	3759194	3760267	+
gyrB	3760296	3762710	+
yidB	3762950	3763348	+
yidA	3763463	3764275	+
yidX	3764977	3764321	-
dgoR	3765255	3765944	+
dgoK	3765941	3766819	+
dgoA	3766803	3767420	+
dgoD	3767417	3768565	+
dgoT	3768685	3769977	+
cbrA	3771038	3769974	-
yidR	3771139	3772353	+
yidQ	3772687	3772355	-
ibpA	3772993	3773406	+
ibpB	3773518	3773946	+
yidE	3774142	3775803	+
yidP	3776516	3775800	-
glvC	3776812	3777918	+
glvB	3777943	3778428	+
yidL	3780162	3779239	-
yidK	3780299	3782014	+
yidJ	3782011	3783504	+
yidI	3784000	3783551	-
yidH	3784108	3784455	+
yidG	3784445	3784807	+
yidF	3784804	3785301	+
emrD	3786493	3785309	-
ivbL	3787427	3787525	+
ilvB	3787631	3789319	+
ilvN	3789323	3789613	+
uhpA	3789689	3790279	+
uhpB	3790279	3791781	+
uhpC	3791791	3793110	+
uhpT	3793248	3794639	+
ade	3796451	3794685	-
yicO	3796626	3797960	+
yicN	3798013	3798465	+
yicM	3798511	3799866	+
yicS	3800200	3799907	-
nlpA	3800422	3801240	+
yicL	3802167	3801244	-
setC	3803462	3802278	-
yicJ	3804486	3805868	+
yicI	3805878	3808196	+
yicH	3809958	3808249	-
yicE	3811470	3810079	-
gltS	3811750	3812955	+
recG	3815205	3813124	-
trmH	3815900	3815211	-
spoT	3818015	3815907	-
rpoZ	3818309	3818034	-
gmk	3818987	3818364	-
ligB	3819245	3820927	+
yicG	3821541	3820924	-
dinD	3822655	3821831	-
yicC	3823739	3822876	-
pyrE	3824647	3825288	+
ttk	3825921	3825325	-
dut	3826483	3826028	-
dfp	3827684	3826464	-
yicR	3827856	3828524	+
rpmB	3828741	3828977	+
rpmG	3828998	3829165	+
mutM	3829263	3830072	+
coaD	3830590	3830111	-
kdtA	3831875	3830598	-
rfaQ	3832317	3833351	+
rfaG	3833348	3834472	+
rfaP	3834465	3835262	+
rfaS	3835299	3836234	+
rfaB	3836248	3837357	+
rfaI	3837357	3838376	+
rfaJ	3838416	3839432	+
rfaY	3839450	3840148	+
rfaZ	3840219	3841070	+
rfaK	3841103	3842176	+
rfaL	3843467	3842208	-
rfaC	3844436	3843477	-
rfaF	3845486	3844440	-
rfaD	3846428	3845496	-
htrL	3846732	3847589	+
kbl	3847864	3849060	+
tdh	3849070	3850095	+
yibD	3850334	3851368	+
yibQ	3852314	3851355	-
envC	3853577	3852318	-
gpmI	3855155	3853611	-
yibN	3855400	3855831	+
grxC	3855973	3856224	+
secB	3856287	3856754	+
gpsA	3856754	3857773	+
cysE	3857853	3858674	+
yibK	3859200	3858727	-
lldD	3860588	3859398	-
lldR	3861361	3860585	-
lldP	3863016	3861361	-
yibL	3863750	3863388	-
yibT	3864035	3864244	+
mtlR	3864843	3864256	-
mtlD	3865991	3864843	-
mtlA	3868134	3866221	-
yibI	3868671	3869033	+
yibH	3869036	3870172	+
yibG	3872238	3871777	-
yibJ	3873194	3872493	-
yibA	3874078	3873236	-
rhsA	3878232	3874099	-
yibF	3878460	3879068	+
selA	3879166	3880557	+
selB	3880554	3882398	+
yiaY	3882588	3883739	+
aldB	3883904	3885442	+
yiaW	3885987	3886310	+
yiaV	3886316	3887452	+
yiaU	3888423	3887449	-
yiaT	3888547	3889287	+
sgbE	3890329	3889634	-
sgbU	3891183	3890323	-
sgbH	3891838	3891176	-
lyxK	3893331	3891835	-
yiaO	3894321	3893335	-
yiaN	3895611	3894334	-
yiaM	3896087	3895614	-
yiaL	3896672	3896205	-
yiaK	3897682	3896684	-
yiaJ	3897883	3898731	+
yiaI	3898833	3899306	+
avtA	3900710	3899457	-
malS	3902918	3900888	-
bax	3903238	3904062	+
xylR	3905436	3904258	-
xylH	3906695	3905514	-
xylG	3908214	3906673	-
xylF	3909284	3908292	-
xylA	3909650	3910972	+
xylB	3911044	3912498	+
yiaB	3912667	3913008	+
yiaA	3913054	3913491	+
yiaH	3914528	3913533	-
ysaB	3914703	3915002	+
glyQ	3915097	3916008	+
glyS	3916018	3918087	+
insK	3919217	3918366	-
insJ	3919735	3919214	-
hokA	3919815	3919967	+
cspA	3920366	3920154	-
yiaG	3920937	3920647	-
yiaF	3921371	3922081	+
tiaE	3923105	3922131	-
yiaD	3923868	3923209	-
bisC	3924075	3926354	+
yiaC	3926763	3926323	-
tag	3927323	3926760	-
yhjY	3927481	3928179	+
yhjX	3928408	3929616	+
eptB	3929940	3931631	+
dppA	3932710	3934317	+
dppB	3934625	3935644	+
dppC	3935654	3936556	+
dppD	3936567	3937550	+
dppF	3937547	3938551	+
yhjV	3939852	3938581	-
ldrD	3940328	3940435	+
bcsG	3942201	3940522	-
bcsF	3942389	3942198	-
bcsE	3943957	3942386	-
yhjR	3944230	3944418	+
bcsA	3945179	3947797	+
bcsB	3947808	3950147	+
bcsZ	3950154	3951260	+
bcsC	3951242	3954715	+
yhjK	3954836	3956785	+
dctA	3956968	3958254	+
yhjJ	3958475	3959971	+
kdgK	3960996	3960067	-
yhjH	3961228	3961995	+
yhjG	3962050	3964125	+
yhjE	3965629	3964307	-
yhjD	3967053	3966040	-
yhjC	3968073	3967102	-
yhjB	3968521	3969123	+
treF	3970823	3969174	-
yhjA	3971227	3972624	+
gadA	3972835	3974235	+
gadX	3974605	3975429	+
gadW	3975797	3976525	+
mdtF	3980001	3976888	-
mdtE	3981183	3980026	-
gadE	3982049	3981522	-
hdeD	3983420	3982848	-
hdeA	3983675	3984007	+
hdeB	3984123	3984449	+
yhiD	3984513	3985160	+
yhiF	3985732	3985202	-
slp	3986454	3985888	-
insH	3987217	3988233	+
yhiS	3989124	3988342	-
arsC	3990178	3989753	-
arsB	3991480	3990191	-
arsR	3991887	3991534	-
gor	3994116	3992764	-
yhiR	3995030	3994188	-
prlC	3995233	3997275	+
yhiQ	3997283	3998035	+
yhiP	3999553	3998084	-
uspA	4000304	3999870	-
yhiO	4000695	4001030	+
pitA	4002773	4001274	-
yhiN	4003005	4004207	+
yhiM	4005574	4004522	-
yhiL	4005957	4007195	+
yhiJ	4007825	4009447	+
yhiI	4009813	4010880	+
rbbA	4010877	4013612	+
yhhJ	4013612	4014736	+
yhhI	4016037	4014901	-
yhhH	4017016	4016633	-
rhsB	4021223	4016988	-
nikR	4021827	4021426	-
nikE	4022639	4021833	-
nikD	4023400	4022636	-
nikC	4024233	4023400	-
nikB	4025174	4024230	-
nikA	4026748	4025174	-
acpT	4027446	4026859	-
yhhT	4028550	4027501	-
yhhS	4028682	4029899	+
dcrB	4030460	4029903	-
yhhQ	4031198	4030533	-
yhhP	4031419	4031664	+
zntA	4033964	4031766	-
yhhN	4034664	4034038	-
yhhM	4034805	4035164	+
yhhL	4035436	4035167	-
yhhF	4036022	4035426	-
ftsY	4036172	4037665	+
ftsE	4037668	4038336	+
ftsX	4038329	4039387	+
rpoH	4039632	4040486	+
livJ	4040757	4041860	+
yhhK	4042431	4042048	-
livK	4042855	4043964	+
livH	4044012	4044938	+
livM	4044935	4046212	+
livG	4046209	4046976	+
livF	4046978	4047691	+
ugpB	4048090	4049406	+
ugpA	4049504	4050391	+
ugpE	4050388	4051233	+
ugpC	4051235	4052305	+
ugpQ	4052302	4053045	+
yhhA	4053472	4053032	-
ggt	4053592	4055334	+
yrhB	4055656	4055372	-
insB	4056738	4056235	-
insA	4056932	4056657	-
yrhA	4057374	4056961	-
yhhZ	4058552	4057374	-
yhhY	4059277	4058789	-
yhhX	4059610	4060647	+
yhhW	4060770	4061465	+
gntR	4061689	4062684	+
gntK	4062823	4063350	+
gntU	4063354	4064694	+
yhgN	4065344	4064751	-
asd	4065537	4066640	+
glgB	4066913	4069099	+
glgX	4069096	4071069	+
glgC	4071087	4072382	+
glgA	4072382	4073815	+
glgP	4073834	4076281	+
yzgL	4076410	4076691	+
glpD	4078402	4076897	-
glpE	4078592	4078918	+
glpG	4078963	4079793	+
glpR	4079810	4080568	+
rtcR	4082148	4080550	-
rtcB	4082337	4083563	+
rtcA	4083567	4084583	+
malT	4087331	4084626	-
malP	4087943	4090336	+
malQ	4090346	4092430	+
gntT	4093857	4092541	-
gntY	4094792	4094217	-
gntX	4095534	4094851	-
bioH	4095572	4096342	+
yhgA	4097249	4096371	-
yhgG	4097688	4097452	-
feoB	4100009	4097688	-
feoA	4100253	4100026	-
yhgF	4103031	4100710	-
greB	4103604	4103128	-
ompR	4103832	4104551	+
envZ	4104548	4105900	+
pck	4107598	4105976	-
yhgE	4107977	4109701	+
hslO	4110642	4109764	-
hslR	4111068	4110667	-
yrfG	4111747	4111079	-
yrfF	4113947	4111812	-
nudE	4114267	4114827	+
mrcA	4117545	4114993	-
yrfD	4117665	4118444	+
yrfC	4118444	4118983	+
yrfB	4118967	4119407	+
yrfA	4119397	4119801	+
hofQ	4119713	4120951	+
aroK	4121352	4121873	+
aroB	4121930	4123018	+
damX	4123110	4124396	+
dam	4124503	4125339	+
rpe	4125357	4126034	+
gph	4126027	4126785	+
trpS	4126778	4127782	+
yhfZ	4128072	4128977	+
yhfY	4128994	4129356	+
yhfX	4129440	4130603	+
yhfW	4130603	4131829	+
php	4131826	4132704	+
yhfU	4132715	4133068	+
yhfT	4133080	4134384	+
yhfS	4134396	4135481	+
frlR	4136364	4135633	-
frlD	4137249	4136464	-
frlC	4138076	4137246	-
frlB	4139148	4138126	-
frlA	4140506	4139169	-
yhfL	4140968	4140801	-
cysG	4142588	4141215	-
nirC	4143413	4142607	-
nirD	4143865	4143539	-
nirB	4146405	4143862	-
tsgA	4147848	4146667	-
ppiA	4148119	4148691	+
yhfG	4148796	4148963	+
fic	4148953	4149555	+
pabA	4149587	4150150	+
argD	4150236	4151456	+
yhfK	4153625	4151523	-
crp	4154296	4153664	-
yhfA	4154598	4155002	+
prkB	4155926	4155057	-
yheU	4156198	4155980	-
yheT	4157214	4156192	-
yheS	4159127	4157214	-
kefG	4159255	4159809	+
kefB	4159809	4161614	+
yheV	4161624	4161824	+
slyD	4161919	4162509	+
slyX	4162776	4162558	-
fkpA	4162997	4163809	+
yheO	4163976	4164698	+
yheN	4164698	4165084	+
yheM	4165084	4165443	+
yheL	4165451	4165738	+
rpsL	4165864	4166238	+
rpsG	4166335	4166874	+
fusA	4166902	4169016	+
tufA	4169087	4170271	+
chiA	4170563	4173256	+
bfd	4173425	4173619	+
bfr	4173691	4174167	+
gspO	4174873	4174196	-
gspM	4175334	4174873	-
gspL	4176494	4175331	-
gspK	4177492	4176509	-
gspJ	4178072	4177485	-
gspI	4178442	4178065	-
gspH	4178948	4178439	-
gspG	4179393	4178956	-
gspF	4180599	4179403	-
gspE	4182077	4180596	-
gspD	4184039	4182087	-
gspC	4184838	4184023	-
gspA	4185018	4186487	+
pioO	4186489	4186908	+
rpsJ	4187146	4187457	+
rplC	4187490	4188119	+
rplD	4188130	4188735	+
rplW	4188732	4189034	+
rplB	4189052	4189873	+
rpsS	4189890	4190168	+
rplV	4190183	4190515	+
rpsC	4190533	4191234	+
rplP	4191247	4191657	+
rpmC	4191657	4191848	+
rpsQ	4191848	4192102	+
rplN	4192267	4192638	+
rplX	4192649	4192963	+
rplE	4192978	4193517	+
rpsN	4193532	4193837	+
rpsH	4193871	4194263	+
rplF	4194276	4194809	+
rplR	4194819	4195172	+
rpsE	4195187	4195690	+
rpmD	4195694	4195873	+
rplO	4195877	4196311	+
secY	4196319	4197650	+
rpmJ	4197682	4197798	+
rpsM	4197945	4198301	+
rpsK	4198318	4198707	+
rpsD	4198741	4199361	+
rpoA	4199387	4200376	+
rplQ	4200417	4200800	+
yhdN	4200907	4201275	+
zntR	4201286	4201711	+
yhdL	4201767	4201985	+
mscL	4202392	4201982	-
trkA	4203898	4202522	-
rsmB	4205209	4203920	-
fmt	4206202	4205255	-
def	4206726	4206217	-
smf	4206856	4207980	+
smg	4207952	4208425	+
yrdD	4208454	4208996	+
yrdC	4209001	4209573	+
aroE	4209578	4210396	+
yrdB	4210393	4210650	+
yrdA	4211180	4210626	-
yjaA	4216824	4217207	+
yjaB	4217713	4217270	-
metA	4217870	4218799	+
aceB	4219068	4220669	+
aceA	4220699	4222003	+
aceK	4222186	4223922	+
arpA	4226077	4223891	-
iclR	4227218	4226394	-
metH	4227418	4231101	+
yjbB	4231321	4232952	+
pepE	4233732	4233043	-
yjbC	4233944	4234816	+
yjbD	4235221	4234949	-
lysC	4236823	4235474	-
pgi	4237348	4238997	+
yjbE	4239496	4239738	+
yjbF	4239852	4240490	+
yjbG	4240487	4241224	+
yjbH	4241224	4243320	+
yjbA	4243915	4244325	+
xylE	4245844	4244369	-
malG	4247106	4246216	-
malF	4248665	4247121	-
malE	4250009	4248819	-
malK	4250374	4251489	+
lamB	4251561	4252901	+
malM	4253144	4254064	+
yjbI	4254545	4255873	+
ubiC	4256096	4256593	+
ubiA	4256606	4257478	+
plsB	4260056	4257633	-
dgkA	4260227	4260595	+
lexA	4260705	4261313	+
dinF	4261332	4262711	+
yjbJ	4262827	4263036	+
zur	4263593	4263078	-
yjbL	4263911	4264165	+
yjbM	4264189	4264896	+
yjbN	4265259	4266296	+
yjbO	4266430	4266672	+
qor	4267821	4266838	-
dnaB	4267904	4269319	+
alr	4269372	4270451	+
tyrB	4270704	4271897	+
aphA	4273004	4273717	+
yjbQ	4273828	4274244	+
yjbR	4274248	4274604	+
uvrA	4277461	4274639	-
ssb	4277715	4278251	+
yjcB	4278631	4278350	-
yjcC	4279061	4280647	+
soxS	4280973	4280650	-
soxR	4281059	4281523	+
yjcD	4282069	4283418	+
yjcE	4283570	4285219	+
yjcF	4286665	4285373	-
actP	4288492	4286843	-
yjcH	4288803	4288489	-
acs	4290961	4289003	-
nrfA	4291354	4292790	+
nrfB	4292835	4293401	+
nrfC	4293398	4294069	+
nrfD	4294066	4295022	+
nrfE	4295102	4296760	+
nrfF	4296753	4297136	+
nrfG	4297133	4297729	+
gltP	4298071	4299384	+
yjcO	4300604	4299915	-
yjcP	4304509	4303043	-
yjcQ	4306557	4304506	-
yjcR	4307588	4306557	-
yjcS	4310076	4308091	-
insH	4310431	4311411	+
alsK	4312477	4311449	-
alsE	4313156	4312461	-
alsC	4314147	4313167	-
alsA	4315658	4314126	-
alsB	4316720	4315785	-
rpiR	4317669	4316779	-
rpiB	4318028	4318477	+
yjdP	4318546	4318875	+
phnP	4319780	4319022	-
phnO	4320216	4319782	-
phnN	4320760	4320203	-
phnM	4321896	4320760	-
phnL	4322573	4321893	-
phnK	4323442	4322684	-
phnJ	4324284	4323439	-
phnI	4325341	4324277	-
phnH	4325925	4325341	-
phnG	4326374	4325922	-
phnF	4327100	4326375	-
phnD	4329030	4328014	-
phnC	4329843	4329055	-
phnB	4330419	4329976	-
phnA	4331412	4331077	-
yjdA	4331813	4334041	+
yjcZ	4334038	4334916	+
proP	4335180	4336682	+
basS	4337950	4336859	-
basR	4338628	4337960	-
eptA	4340268	4338625	-
adiC	4341709	4340372	-
adiY	4342607	4341846	-
adiA	4345202	4342932	-
melR	4346306	4345398	-
melA	4346589	4347944	+
melB	4348059	4349468	+
yjdF	4350236	4349607	-
fumB	4352004	4350358	-
dcuB	4353422	4352082	-
dcuR	4354712	4353993	-
dcuS	4356340	4354709	-
yjdI	4356521	4356751	+
yjdJ	4356763	4357035	+
yjdK	4357262	4357558	+
yjdO	4357586	4357759	+
lysU	4359395	4357878	-
yjdL	4361089	4359632	-
cadA	4363295	4361148	-
cadB	4364709	4363375	-
cadC	4366612	4365074	-
yjdC	4367986	4367411	-
dipZ	4369720	4368023	-
cutA	4370034	4369696	-
dcuA	4371265	4370150	-
aspA	4373007	4371571	-
fxsA	4373344	4373820	+
yjeH	4375092	4373836	-
groS	4375368	4375661	+
groL	4375705	4377351	+
yjeI	4377489	4377842	+
yjeJ	4378914	4378045	-
yjeK	4380337	4379309	-
efp	4380379	4380945	+
ecnA	4380997	4381122	+
ecnB	4381233	4381379	+
sugE	4381555	4381872	+
blc	4382402	4381869	-
ampC	4383624	4382491	-
frdD	4384046	4383687	-
frdC	4384452	4384057	-
frdB	4385197	4384463	-
frdA	4386998	4385190	-
poxA	4387323	4388300	+
yjeM	4388519	4390021	+
yjeN	4390073	4390387	+
yjeO	4390384	4390698	+
yjeP	4394050	4390727	-
psd	4395040	4394072	-
rsgA	4396189	4395137	-
orn	4396284	4396829	+
yjeS	4398747	4397608	-
yjeF	4398746	4400293	+
yjeE	4400265	4400726	+
amiB	4400745	4402082	+
mutL	4402092	4403939	+
miaA	4403932	4404882	+
hfq	4404968	4405276	+
hflX	4405352	4406632	+
hflK	4406718	4407977	+
hflC	4407980	4408984	+
yjeT	4409066	4409263	+
purA	4409367	4410665	+
yjeB	4410870	4411295	+
rnr	4411334	4413775	+
rlmB	4413955	4414686	+
yjfI	4414813	4415214	+
yjfJ	4415233	4415931	+
yjfK	4415982	4416641	+
yjfL	4416659	4417057	+
yjfM	4417067	4417705	+
yjfC	4417708	4418871	+
aidB	4418955	4420580	+
yjfN	4420972	4420697	-
yjfO	4421450	4421121	-
yjfP	4421632	4422381	+
ulaR	4423133	4422378	-
ulaG	4424305	4423241	-
ulaA	4424660	4426057	+
ulaB	4426073	4426378	+
ulaC	4426388	4426852	+
ulaD	4426866	4427516	+
ulaE	4427526	4428380	+
ulaF	4428380	4429066	+
yjfY	4429471	4429196	-
rpsF	4429798	4430193	+
priB	4430200	4430514	+
rpsR	4430519	4430746	+
rplI	4430788	4431237	+
yjfZ	4432102	4431308	-
ytfA	4432449	4432775	+
ytfB	4433397	4432759	-
fklB	4433615	4434235	+
cycA	4434544	4435956	+
ytfE	4436663	4436001	-
ytfF	4437745	4436771	-
ytfG	4438704	4437844	-
ytfH	4438793	4439173	+
cpdB	4441245	4439302	-
cysQ	4441435	4442175	+
ytfI	4442387	4443325	+
ytfJ	4443942	4443388	-
ytfK	4444267	4444473	+
ytfL	4445895	4444552	-
msrA	4446856	4446218	-
ytfM	4447062	4448795	+
ytfN	4448792	4452571	+
ytfP	4452574	4452915	+
yzfA	4452925	4452656	-
chpS	4453127	4453378	+
chpB	4453372	4453722	+
ppa	4454332	4453802	-
ytfQ	4454642	4455598	+
ytfR	4455738	4457240	+
ytfT	4457254	4458276	+
yjfF	4458263	4459258	+
fbp	4460289	4459291	-
mpl	4460465	4461838	+
yjgA	4462545	4461994	-
pmbA	4462639	4463991	+
nrdG	4465044	4464580	-
nrdD	4467340	4465202	-
treC	4469389	4467734	-
treB	4470860	4469439	-
treR	4471926	4470979	-
mgtA	4472305	4475001	+
yjgF	4475593	4475207	-
pyrI	4476127	4475666	-
pyrB	4477075	4476140	-
pyrL	4477213	4477079	-
yjgH	4477889	4477494	-
yjgI	4478733	4478020	-
yjgJ	4478804	4479397	+
yjgK	4479542	4479994	+
yjgL	4480117	4481931	+
argI	4482991	4481987	-
yjgD	4483153	4483569	+
yjgM	4484217	4483714	-
yjgN	4484410	4485606	+
valS	4488517	4485662	-
holC	4488960	4488517	-
pepA	4490631	4489120	-
yjgP	4490898	4491998	+
yjgQ	4491998	4493080	+
yjgR	4494743	4493241	-
idnR	4495819	4494821	-
idnT	4497205	4495886	-
idnO	4498031	4497267	-
idnD	4499086	4498055	-
idnK	4499303	4499866	+
yjgB	4500889	4499870	-
intB	4501430	4502620	+
insC	4502907	4503317	+
insD	4503275	4504180	+
yjgW	4504279	4504614	+
yjgZ	4505940	4506269	+
insG	4508111	4506783	-
yjhB	4508738	4509955	+
yjhC	4509967	4511085	+
insN	4511877	4512143	+
insI	4513297	4512146	-
yjhV	4514400	4514813	+
fecE	4516137	4515370	-
fecD	4517094	4516138	-
fecC	4518089	4517091	-
fecB	4518988	4518086	-
fecA	4521357	4519033	-
fecR	4522397	4521444	-
fecI	4522915	4522394	-
insA	4523207	4523482	+
yjhU	4525004	4524018	-
yjhF	4526700	4525351	-
yjhG	4528774	4526807	-
yjhH	4529690	4528785	-
yjhI	4530483	4529695	-
sgcR	4531568	4530786	-
sgcE	4532217	4531585	-
sgcA	4532660	4532229	-
sgcQ	4533597	4532791	-
sgcC	4534923	4533610	-
sgcB	4535213	4534935	-
sgcX	4536331	4535210	-
yjhP	4537863	4537117	-
yjhQ	4538464	4537919	-
yjhX	4538733	4538476	-
yjhR	4539695	4540711	+
yjhS	4542274	4541294	-
yjhT	4543445	4542339	-
yjhA	4544181	4543465	-
fimB	4545637	4546239	+
fimE	4546717	4547313	+
fimA	4547795	4548343	+
fimI	4548408	4548947	+
fimC	4548984	4549709	+
fimD	4549776	4552412	+
fimF	4552422	4552952	+
fimG	4552965	4553468	+
fimH	4553488	4554390	+
gntP	4555976	4554633	-
uxuA	4556316	4557500	+
uxuB	4557581	4559041	+
uxuR	4559256	4560029	+
yjiC	4561000	4560170	-
yjiD	4561673	4562065	+
yjiE	4562969	4562058	-
iadA	4564206	4563034	-
yjiG	4564680	4564219	-
yjiH	4565360	4564677	-
kptA	4565610	4566164	+
yjiJ	4567355	4566177	-
yjiK	4568391	4567423	-
yjiL	4569369	4568602	-
yjiM	4570530	4569379	-
yjiN	4571926	4570646	-
yjiO	4573199	4571967	-
yjiQ	4574038	4574598	+
yjiR	4576254	4574842	-
yjiS	4576431	4576595	+
yjiT	4577094	4578611	+
mcrC	4582638	4581592	-
mcrB	4584017	4582638	-
yjiW	4584577	4584179	-
hsdS	4586142	4584748	-
hsdM	4587728	4586139	-
hsdR	4591495	4587929	-
mrr	4591629	4592543	+
yjiA	4593545	4592589	-
yjiX	4593759	4593556	-
yjiY	4595959	4593809	-
tsr	4596337	4597992	+
yjiZ	4599402	4598041	-
yjjM	4600531	4599617	-
yjjN	4600670	4601692	+
mdoB	4604121	4601830	-
yjjA	4604869	4604375	-
dnaC	4605655	4604918	-
dnaT	4606197	4605658	-
yjjB	4606630	4606304	-
yjjP	4607538	4606768	-
yjjQ	4608157	4608882	+
bglJ	4608894	4609517	+
fhuF	4610343	4609555	-
yjjZ	4610484	4610720	+
rsmC	4612380	4611349	-
holD	4612483	4612896	+
rimI	4612865	4613311	+
yjjG	4613326	4614003	+
prfC	4614094	4615683	+
osmY	4616076	4616681	+
ytjA	4616790	4616969	+
yjjU	4617091	4618164	+
yjjV	4618161	4618940	+
yjjW	4620223	4619360	-
yjjI	4621745	4620195	-
deoC	4622003	4622782	+
deoA	4622909	4624231	+
deoB	4624283	4625506	+
deoD	4625563	4626282	+
yjjJ	4626449	4627780	+
lplA	4628797	4627781	-
ytjB	4629469	4628825	-
serB	4629575	4630543	+
radA	4630592	4631974	+
nadR	4631995	4633227	+
yjjK	4635202	4633535	-
slt	4635413	4637350	+
trpR	4637440	4637766	+
yjjX	4638425	4637913	-
ytjC	4638477	4639124	+
rob	4639990	4639121	-
creA	4640201	4640674	+
creB	4640687	4641376	+
creC	4641376	4642800	+
creD	4642858	4644210	+
arcA	4644986	4644270	-
yjjY	4645082	4645222	+
yjtD	4645622	4646308	+
