x	338	108	-
x	343	2799	+
x	5088	5237	+
x	5243	5530	+
x	5720	5310	-
x	8175	9191	+
x	9303	9893	+
x	10821	11315	+
x	11993	11856	-
x	12070	11921	-
x	14138	15298	+
x	15439	16557	+
x	15607	16557	+
x	16580	16720	+
x	16745	17032	+
x	16885	16751	-
x	18697	19620	+
x	18721	19620	+
x	20020	19811	-
x	20188	19811	-
x	20460	20233	-
x	20537	20325	-
x	20793	20665	-
x	21000	20815	-
x	26232	27227	+
x	27494	28207	+
x	29404	29237	-
x	29533	29438	-
x	29474	29611	+
x	29624	30799	+
x	34265	34086	-
x	34223	34086	-
x	34195	34695	+
x	35392	34781	-
x	36162	35377	-
x	36201	35377	-
x	37824	36271	-
x	41946	42047	+
x	42224	42334	+
x	42340	43173	+
x	42367	43173	+
x	47697	49631	+
x	49688	50302	+
x	49712	50302	+
x	51193	51546	+
x	53395	52427	-
x	57076	54755	-
x	58474	59124	+
x	59121	59279	+
x	63702	64196	+
x	64099	65139	+
x	64201	65139	+
x	65148	65501	+
x	67285	68757	+
x	67342	68757	+
x	72504	73751	+
x	73772	74815	+
x	81656	82321	+
x	81734	82321	+
x	85781	85668	-
x	85802	85668	-
x	85750	85947	+
x	88618	88511	-
x	91671	91859	+
x	92791	91856	-
x	95652	94282	-
x	96163	96960	+
x	97139	96957	-
x	102013	103440	+
x	105358	103511	-
x	105566	108316	+
x	105797	108316	+
x	108444	108854	+
x	109443	108892	-
x	110982	110674	-
x	111192	110674	-
x	111060	110674	-
x	111144	110674	-
x	111148	112737	+
x	112915	112778	-
x	115347	112939	-
x	115496	116071	+
x	115523	116071	+
x	115640	116071	+
x	117809	118576	+
x	120766	120960	+
x	120838	120960	+
x	121258	121974	+
x	122821	122048	-
x	126332	125730	-
x	126429	126322	-
x	126889	126347	-
x	126958	126347	-
x	133197	131833	-
x	133251	131833	-
x	134186	133290	-
x	134726	134253	-
x	136348	135605	-
x	136144	135605	-
x	136164	138638	+
x	141567	141433	-
x	144676	145569	+
x	150681	151058	+
x	151070	150810	-
x	156549	157724	+
x	156594	157724	+
x	159104	158361	-
x	162577	160082	-
x	163831	163610	-
x	163780	164703	+
x	165707	164655	-
x	164942	164655	-
x	167094	166864	-
x	167012	167533	+
x	169010	169768	+
x	169768	169920	+
x	169811	170638	+
x	169889	170638	+
x	170605	172002	+
x	174670	175071	+
x	176112	176660	+
x	176280	176660	+
x	183591	182656	-
x	185954	186370	+
x	187964	187782	-
x	188042	187782	-
x	188247	188029	-
x	190837	190283	-
x	191116	190283	-
x	192933	191161	-
x	194048	193695	-
x	198951	199316	+
x	198996	199316	+
x	200391	200086	-
x	201953	201726	-
x	205247	206026	+
x	207921	206701	-
x	207690	206701	-
x	208902	209642	+
x	208917	209642	+
x	209211	209083	-
x	210217	209639	-
x	210162	210902	+
x	211393	211244	-
x	212840	212361	-
x	213188	212850	-
x	213294	213482	+
x	214302	213523	-
x	214471	214920	+
x	214474	214920	+
x	217485	214963	-
x	217443	214963	-
x	218362	218168	-
x	218279	218371	+
x	218416	219198	+
x	220268	220065	-
x	220901	220734	-
x	220861	221565	+
x	220939	221565	+
x	222433	222233	-
x	222249	222401	+
x	222350	222481	+
x	224201	222462	-
x	224041	224931	+
x	224143	224931	+
x	224146	224931	+
x	224161	224931	+
x	224296	224931	+
x	226891	227265	+
x	227571	227837	+
x	227583	227837	+
x	227770	228306	+
x	227806	228306	+
x	230665	230213	-
x	233434	232373	-
x	236540	236436	-
x	240295	239438	-
x	243606	243974	+
x	244048	245082	+
x	244153	245082	+
x	246029	246151	+
x	246175	247320	+
x	246190	247320	+
x	248409	247429	-
x	248305	248490	+
x	248629	250056	+
x	252142	251084	-
x	252883	252506	-
x	252715	252506	-
x	253155	252928	-
x	253232	253020	-
x	253696	253352	-
x	255299	254157	-
x	255606	256514	+
x	262073	262594	+
x	262591	263442	+
x	265800	265423	-
x	265632	265423	-
x	266072	265845	-
x	266149	265937	-
x	268614	267994	-
x	269546	268719	-
x	271795	270470	-
x	277903	278379	+
x	278453	278632	+
x	278925	278812	-
x	278837	279010	+
x	280024	279269	-
x	279925	279269	-
x	281567	279948	-
x	286062	285520	-
x	286404	286309	-
x	287291	287148	-
x	287554	287288	-
x	287836	287675	-
x	287715	287807	+
x	288016	287915	-
x	287984	288097	+
x	289233	289123	-
x	290065	290364	+
x	290412	291227	+
x	290421	291227	+
x	291694	291224	-
x	291943	291224	-
x	293102	292500	-
x	293076	293345	+
x	293356	293105	-
x	294802	293450	-
x	296183	296013	-
x	298379	299227	+
x	299394	299182	-
x	299498	299301	-
x	299429	299301	-
x	299540	299677	+
x	302066	300351	-
x	301937	300351	-
x	303510	302035	-
x	303498	302035	-
x	304126	303521	-
x	304117	303521	-
x	304025	304240	+
x	306825	306640	-
x	307139	308233	+
x	308535	308275	-
x	309601	309299	-
x	309873	310106	+
x	310087	310659	+
x	313969	315225	+
x	315888	315995	+
x	315988	316191	+
x	318457	318161	-
x	318280	318161	-
x	318206	318508	+
x	319355	318624	-
x	319842	319399	-
x	319906	320271	+
x	320310	321134	+
x	320478	321134	+
x	320592	321134	+
x	321445	321059	-
x	323343	323450	+
x	323636	323421	-
x	323788	323609	-
x	323833	323609	-
x	323730	324749	+
x	325477	325163	-
x	328315	327308	-
x	328670	328452	-
x	328806	330266	+
x	331100	330294	-
x	331109	330294	-
x	331456	331157	-
x	331570	332973	+
x	333061	333684	+
x	334815	333685	-
x	334989	334888	-
x	335056	334934	-
x	334980	335174	+
x	335031	335174	+
x	335188	336414	+
x	337626	337522	-
x	337818	337952	+
x	338016	338360	+
x	339556	339759	+
x	339559	339759	+
x	339782	339895	+
x	340056	339790	-
x	339942	339790	-
x	339962	340201	+
x	340233	341717	+
x	341818	342156	+
x	344307	343390	-
x	344199	344777	+
x	345756	345953	+
x	345916	346062	+
x	347123	347007	-
x	347302	347183	-
x	347638	347333	-
x	348640	347663	-
x	348646	347663	-
x	348561	349607	+
x	348573	349607	+
x	348612	349607	+
x	349586	349828	+
x	349631	349828	+
x	351120	349852	-
x	351072	349852	-
x	355531	354305	-
x	355493	355624	+
x	357860	357750	-
x	358101	357952	-
x	359538	360914	+
x	361073	362887	+
x	365812	366174	+
x	366235	368049	+
x	368015	369031	+
x	369521	369643	+
x	370616	369684	-
x	371466	370867	-
x	372028	373113	+
x	373106	373672	+
x	374195	373662	-
x	375153	375662	+
x	375192	375662	+
x	379986	380078	+
x	380117	380004	-
x	382202	381606	-
x	382046	381606	-
x	382773	382159	-
x	383070	383729	+
x	383220	383729	+
x	385419	383857	-
x	385227	383857	-
x	386305	385370	-
x	386257	385370	-
x	386682	386272	-
x	386294	386551	+
x	387116	386601	-
x	392099	392698	+
x	392824	392144	-
x	392903	392772	-
x	392994	393344	+
x	393030	393344	+
x	393693	393271	-
x	393278	393541	+
x	393353	393541	+
x	393395	393541	+
x	394998	393697	-
x	397398	399797	+
x	405882	404167	-
x	405823	405942	+
x	405955	406785	+
x	406710	407396	+
x	406830	407396	+
x	406851	407396	+
x	409077	410972	+
x	411126	410986	-
x	411015	411491	+
x	411443	411210	-
x	413795	413917	+
x	413949	414506	+
x	414384	414506	+
x	414947	414537	-
x	414848	414537	-
x	414908	414537	-
x	414830	415168	+
x	415248	415580	+
x	417178	415622	-
x	417845	417336	-
x	419064	418645	-
x	419109	418645	-
x	423805	422981	-
x	424210	422981	-
x	424370	424963	+
x	425045	425209	+
x	425097	428453	+
x	428499	428648	+
x	429789	429899	+
x	429913	430518	+
x	429934	430518	+
x	432984	432607	-
x	432616	432960	+
x	435740	435615	-
x	435670	436374	+
x	435673	436374	+
x	443287	443472	+
x	445523	445158	-
x	446719	447114	+
x	447421	447155	-
x	447367	447155	-
x	447183	447335	+
x	447284	447424	+
x	447984	447430	-
x	452623	452955	+
x	453414	452956	-
x	455111	455917	+
x	456870	455980	-
x	457665	456895	-
x	458350	457694	-
x	458317	457694	-
x	458287	457694	-
x	458516	458974	+
x	461605	461483	-
x	462437	466096	+
x	466759	467214	+
x	467195	467455	+
x	467494	467685	+
x	467791	467639	-
x	468185	467970	-
x	468607	468200	-
x	469655	468687	-
x	471611	472381	+
x	472381	474252	+
x	478599	479063	+
x	479114	480421	+
x	480174	480082	-
x	480437	481588	+
x	481647	481787	+
x	483865	482612	-
x	487170	488171	+
x	488089	488997	+
x	488278	488997	+
x	491682	491146	-
x	492486	493172	+
x	495194	495451	+
x	495449	495216	-
x	496734	497309	+
x	497405	497539	+
x	500710	500871	+
x	500897	501874	+
x	501975	502400	+
x	502203	502400	+
x	503050	502403	-
x	503098	502403	-
x	503090	503245	+
x	505397	505696	+
x	505744	506559	+
x	505753	506559	+
x	506849	507202	+
x	509832	509710	-
x	510054	510806	+
x	510923	511024	+
x	512288	512425	+
x	512496	512894	+
x	512508	512894	+
x	514272	513292	-
x	514168	514344	+
x	515380	514313	-
x	515326	514313	-
x	515962	516168	+
x	516650	517123	+
x	516827	517123	+
x	518191	517739	-
x	518272	517739	-
x	519000	518806	-
x	518940	518806	-
x	518876	519028	+
x	519909	520652	+
x	520230	520652	+
x	520625	520762	+
x	521291	520707	-
x	521138	520707	-
x	521430	521615	+
x	524708	524592	-
x	529530	526537	-
x	531658	529496	-
x	533337	531883	-
x	534045	534200	+
x	540478	541890	+
x	543757	543326	-
x	544119	544027	-
x	544561	544073	-
x	544706	544506	-
x	545950	546099	+
x	546013	546099	+
x	546422	546213	-
x	546246	546479	+
x	546292	546543	+
x	546355	546543	+
x	546614	547732	+
x	546782	547732	+
x	547755	547895	+
x	548784	548014	-
x	548634	548014	-
x	548757	548014	-
x	551109	548809	-
x	551042	551173	+
x	551292	552494	+
x	552491	552715	+
x	552574	556593	+
x	556701	556582	-
x	556938	557942	+
x	560756	559740	-
x	563275	563069	-
x	563428	564615	+
x	567076	567852	+
x	570306	570554	+
x	570573	570725	+
x	573874	573302	-
x	573919	573302	-
x	574965	573904	-
x	577188	576382	-
x	577182	576382	-
x	577982	577467	-
x	578278	579873	+
x	580354	580524	+
x	582073	581885	-
x	582013	581885	-
x	581962	582423	+
x	582658	582497	-
x	583576	582752	-
x	585102	583672	-
x	586058	585186	-
x	586558	587952	+
x	588168	586594	-
x	588128	589174	+
x	589060	588137	-
x	590324	589353	-
x	590498	589353	-
x	590360	589353	-
x	590730	592448	+
x	592471	593097	+
x	594678	594568	-
x	594808	594662	-
x	594882	594989	+
x	595726	595559	-
x	596586	596813	+
x	596810	597373	+
x	598983	598870	-
x	599780	598980	-
x	599991	600140	+
x	600767	600192	-
x	602590	601307	-
x	602555	602680	+
x	607483	607274	-
x	607605	607895	+
x	607667	607837	+
x	608465	607851	-
x	613479	610756	-
x	614021	614158	+
x	614421	614125	-
x	614712	614125	-
x	615108	614125	-
x	615092	615232	+
x	619079	620218	+
x	620682	620278	-
x	623000	622032	-
x	626377	625394	-
x	627532	626552	-
x	627428	627604	+
x	628640	627573	-
x	628586	627573	-
x	629222	629428	+
x	629910	630383	+
x	630087	630383	+
x	631532	630999	-
x	631451	630999	-
x	632260	632066	-
x	632200	632066	-
x	632136	632288	+
x	633169	633912	+
x	633490	633912	+
x	633885	634022	+
x	634398	633967	-
x	634551	633967	-
x	634690	634875	+
x	637968	637852	-
x	642790	639797	-
x	644918	642756	-
x	646597	645143	-
x	647305	647460	+
x	653738	655150	+
x	657017	656586	-
x	657379	657287	-
x	657821	657333	-
x	657966	657766	-
x	659210	659359	+
x	659273	659359	+
x	659682	659473	-
x	659506	659739	+
x	659552	659803	+
x	659615	659803	+
x	659874	660992	+
x	660042	660992	+
x	661015	661155	+
x	662044	661274	-
x	661894	661274	-
x	662017	661274	-
x	664369	662069	-
x	664302	664433	+
x	664552	665754	+
x	665751	665975	+
x	665834	669853	+
x	669961	669842	-
x	670198	671202	+
x	674016	673000	-
x	676535	676329	-
x	676688	677875	+
x	680336	681112	+
x	683566	683814	+
x	683833	683985	+
x	687134	686562	-
x	687179	686562	-
x	688225	687164	-
x	690442	689642	-
x	690448	689642	-
x	691242	690727	-
x	691538	693133	+
x	693614	693784	+
x	695333	695145	-
x	695273	695145	-
x	695222	695683	+
x	695918	695757	-
x	696836	696012	-
x	698362	696932	-
x	699318	698446	-
x	699818	701212	+
x	701428	699854	-
x	701388	702434	+
x	702320	701397	-
x	703584	702613	-
x	703758	702613	-
x	703620	702613	-
x	703990	705708	+
x	705731	706357	+
x	707938	707828	-
x	708068	707922	-
x	708142	708249	+
x	708986	708819	-
x	709846	710073	+
x	710070	710633	+
x	712243	712130	-
x	713040	712240	-
x	713251	713400	+
x	714027	713452	-
x	715850	714567	-
x	715815	715940	+
x	720743	720534	-
x	720865	721155	+
x	720927	721097	+
x	721725	721111	-
x	726739	724016	-
x	727281	727418	+
x	728368	727385	-
x	727681	727385	-
x	727972	727385	-
x	728352	728492	+
x	732339	733478	+
x	733942	733538	-
x	736260	735292	-
x	739637	738654	-
x	740792	739812	-
x	740688	740864	+
x	740896	741012	+
x	741051	741173	+
x	745232	744153	-
x	745212	745355	+
x	745371	745252	-
x	748173	748508	+
x	748242	748508	+
x	748523	748660	+
x	748657	748776	+
x	748679	748915	+
x	748710	748799	+
x	748777	748929	+
x	749092	748910	-
x	750961	751125	+
x	751354	751193	-
x	751225	751422	+
x	755291	754626	-
x	755600	755475	-
x	755609	755475	-
x	755816	757705	+
x	757797	757675	-
x	759891	759781	-
x	759958	759848	-
x	760647	761555	+
x	762540	762454	-
x	762506	762760	+
x	763397	762750	-
x	763782	763420	-
x	764667	765347	+
x	765322	767013	+
x	767191	766988	-
x	767062	767211	+
x	767077	767211	+
x	768172	767762	-
x	768412	768203	-
x	768640	768536	-
x	772398	772655	+
x	772975	772871	-
x	776232	773545	-
x	776806	776222	-
x	776818	776222	-
x	780643	778874	-
x	780750	780547	-
x	781156	781311	+
x	782625	785591	+
x	784164	785591	+
x	784683	785591	+
x	784689	785591	+
x	785185	785406	+
x	786281	787468	+
x	787492	788034	+
x	788715	789776	+
x	788733	789776	+
x	788811	789776	+
x	788919	789776	+
x	789423	789776	+
x	789588	789776	+
x	789922	790668	+
x	789970	790668	+
x	790000	790668	+
x	790186	790668	+
x	792774	792893	+
x	797097	797714	+
x	799629	798538	-
x	800110	799736	-
x	801546	800794	-
x	803993	801537	-
x	804035	801537	-
x	806265	806456	+
x	806596	806489	-
x	806647	806489	-
x	806977	807381	+
x	807264	807034	-
x	807171	807034	-
x	807710	809488	+
x	810385	810254	-
x	810279	810539	+
x	817856	819775	+
x	817859	819775	+
x	822451	822678	+
x	822859	822755	-
x	823270	824841	+
x	826026	824746	-
x	826217	826417	+
x	826977	827660	+
x	829552	830847	+
x	831436	830816	-
x	831433	830816	-
x	830858	831403	+
x	832070	832204	+
x	833909	834943	+
x	834996	835700	+
x	836735	837166	+
x	839425	838658	-
x	839612	839484	-
x	842548	841643	-
x	842299	841643	-
x	842185	841643	-
x	842467	841643	-
x	842871	842506	-
x	842916	842506	-
x	845218	844190	-
x	845248	844190	-
x	846951	845467	-
x	847013	846867	-
x	847918	848073	+
x	848009	848218	+
x	851678	850764	-
x	851684	850764	-
x	853531	852773	-
x	853789	852773	-
x	853644	853793	+
x	853708	853824	+
x	853931	854962	+
x	856372	856542	+
x	856630	858915	+
x	856891	858915	+
x	862519	861119	-
x	862471	861119	-
x	862351	861119	-
x	864634	865428	+
x	866402	866265	-
x	868847	868761	-
x	869840	868890	-
x	869858	868890	-
x	870196	870041	-
x	870145	870041	-
x	870114	871184	+
x	870120	871184	+
x	870162	871184	+
x	871951	871460	-
x	872178	872444	+
x	876865	876984	+
x	882147	880396	-
x	883120	882125	-
x	883806	883123	-
x	885553	885392	-
x	885532	885392	-
x	885394	885489	+
x	886068	885619	-
x	886086	888371	+
x	889503	889399	-
x	891696	891319	-
x	892394	891681	-
x	894666	894770	+
x	895351	894947	-
x	895402	896409	+
x	898658	896406	-
x	898766	896406	-
x	898875	898693	-
x	901273	901082	-
x	902155	901559	-
x	902330	902232	-
x	903260	902361	-
x	903595	904116	+
x	904707	904165	-
x	905984	906091	+
x	906148	906020	-
x	908889	907975	-
x	915124	913325	-
x	914671	913325	-
x	916662	915763	-
x	916721	917455	+
x	920076	920684	+
x	920563	922542	+
x	920653	922542	+
x	920704	922542	+
x	922304	924100	+
x	922406	924100	+
x	922619	924100	+
x	922886	924100	+
x	923255	924100	+
x	926382	928478	+
x	927585	928478	+
x	928573	929814	+
x	928588	929814	+
x	931366	931782	+
x	933637	933005	-
x	933857	935080	+
x	933869	935080	+
x	936732	936839	+
x	938375	938097	-
x	939285	938467	-
x	939255	938467	-
x	940409	939282	-
x	940544	941110	+
x	943919	943647	-
x	946060	946584	+
x	946541	946663	+
x	946785	948047	+
x	946790	946951	+
x	948061	949275	+
x	948244	949275	+
x	950193	951080	+
x	951155	951628	+
x	952808	953020	+
x	952832	953020	+
x	953777	952995	-
x	954017	953889	-
x	956984	956157	-
x	956891	956157	-
x	957043	957162	+
x	957489	957103	-
x	959967	958891	-
x	959940	958891	-
x	961508	960003	-
x	965307	964333	-
x	966971	965313	-
x	969204	968503	-
x	969566	969411	-
x	972229	971279	-
x	972235	971279	-
x	972340	972474	+
x	972359	973501	+
x	975100	975444	+
x	975771	975517	-
x	975899	975615	-
x	975891	975965	+
x	976400	978691	+
x	976409	978691	+
x	976559	978691	+
x	982910	983002	+
x	985270	985383	+
x	985692	986240	+
x	985695	986240	+
x	990520	991134	+
x	994197	996554	+
x	997121	998047	+
x	998991	998878	-
x	999046	1000170	+
x	1000188	1001810	+
x	1001814	1001963	+
x	1004258	1003491	-
x	1009792	1008023	-
x	1009816	1008023	-
x	1013391	1014179	+
x	1013406	1014179	+
x	1014275	1014129	-
x	1017393	1019735	+
x	1018826	1018960	+
x	1024098	1023829	-
x	1026619	1026455	-
x	1026676	1027473	+
x	1028746	1029477	+
x	1028773	1029477	+
x	1034210	1036045	+
x	1036217	1036774	+
x	1037517	1037666	+
x	1038859	1039029	+
x	1039032	1038934	-
x	1040457	1040585	+
x	1042181	1040736	-
x	1043555	1042305	-
x	1042323	1042508	+
x	1043615	1043737	+
x	1050137	1049136	-
x	1051010	1051558	+
x	1051668	1052342	+
x	1053006	1054967	+
x	1054985	1056028	+
x	1055315	1056028	+
x	1055939	1056028	+
x	1056073	1056582	+
x	1056106	1056582	+
x	1056130	1056582	+
x	1056385	1056582	+
x	1056542	1057105	+
x	1056593	1057105	+
x	1057071	1057808	+
x	1057119	1057808	+
x	1057892	1058929	+
x	1059067	1059645	+
x	1066350	1068050	+
x	1066392	1068050	+
x	1068062	1068610	+
x	1068904	1068776	-
x	1068907	1068776	-
x	1068850	1069047	+
x	1069729	1069103	-
x	1069819	1069103	-
x	1071276	1069690	-
x	1073261	1072164	-
x	1073276	1072164	-
x	1073228	1072164	-
x	1073359	1073577	+
x	1073407	1073577	+
x	1074076	1073561	-
x	1077043	1074881	-
x	1077529	1079676	+
x	1080175	1079708	-
x	1081134	1080964	-
x	1081122	1080964	-
x	1081016	1081510	+
x	1081043	1081510	+
x	1081479	1081874	+
x	1081923	1081555	-
x	1083033	1081930	-
x	1083105	1081930	-
x	1083002	1083493	+
x	1083095	1083493	+
x	1083876	1083490	-
x	1084947	1084771	-
x	1085271	1085131	-
x	1085263	1086408	+
x	1089840	1090757	+
x	1090885	1092435	+
x	1093596	1093688	+
x	1093738	1095066	+
x	1097839	1097381	-
x	1098975	1097815	-
x	1102837	1102565	-
x	1102913	1102590	-
x	1102955	1103167	+
x	1103032	1103259	+
x	1103304	1103681	+
x	1103472	1103681	+
x	1104314	1104114	-
x	1104228	1104371	+
x	1104434	1104336	-
x	1104763	1105023	+
x	1104790	1105023	+
x	1104811	1105023	+
x	1104904	1105023	+
x	1104965	1105228	+
x	1105403	1105233	-
x	1105406	1105233	-
x	1106551	1106387	-
x	1108327	1106585	-
x	1109299	1106585	-
x	1109284	1106585	-
x	1109378	1109109	-
x	1111187	1112407	+
x	1114917	1115549	+
x	1115699	1115589	-
x	1117607	1118443	+
x	1118093	1118443	+
x	1118494	1118595	+
x	1120808	1120263	-
x	1121063	1121299	+
x	1121069	1121299	+
x	1121202	1121405	+
x	1121263	1121421	+
x	1121418	1121510	+
x	1121488	1121718	+
x	1122357	1121662	-
x	1122354	1121662	-
x	1123056	1121662	-
x	1123104	1121662	-
x	1123469	1123011	-
x	1123565	1123011	-
x	1123586	1123011	-
x	1124943	1124116	-
x	1126017	1125322	-
x	1126056	1125322	-
x	1127105	1126014	-
x	1127195	1126014	-
x	1127366	1128031	+
x	1132099	1128071	-
x	1132088	1132297	+
x	1132091	1132297	+
x	1132376	1132185	-
x	1132329	1132466	+
x	1134123	1134248	+
x	1137831	1137938	+
x	1138419	1139207	+
x	1140910	1139672	-
x	1146683	1147093	+
x	1146728	1147093	+
x	1147051	1147956	+
x	1147132	1147956	+
x	1147300	1147956	+
x	1147414	1147956	+
x	1149577	1148762	-
x	1149568	1148762	-
x	1149924	1149625	-
x	1149974	1150333	+
x	1150010	1150333	+
x	1150031	1150333	+
x	1152533	1152420	-
x	1152515	1153492	+
x	1152704	1153492	+
x	1155001	1154879	-
x	1154916	1155455	+
x	1154934	1155455	+
x	1157786	1157214	-
x	1157838	1157978	+
x	1157847	1157978	+
x	1158516	1158331	-
x	1158525	1158331	-
x	1158592	1159074	+
x	1160157	1160393	+
x	1160238	1160393	+
x	1160963	1162444	+
x	1161014	1162444	+
x	1163797	1163654	-
x	1163932	1163801	-
x	1163959	1163801	-
x	1163985	1165538	+
x	1164036	1165538	+
x	1165501	1168074	+
x	1165561	1168074	+
x	1168083	1168256	+
x	1168852	1168475	-
x	1168977	1168879	-
x	1169999	1168932	-
x	1169903	1168932	-
x	1170188	1170292	+
x	1171313	1170330	-
x	1171421	1172527	+
x	1173726	1173148	-
x	1173789	1173148	-
x	1173214	1173381	+
x	1173704	1173850	+
x	1174088	1173975	-
x	1175626	1175369	-
x	1176287	1175910	-
x	1176212	1175910	-
x	1177998	1177381	-
x	1180024	1178786	-
x	1182430	1182032	-
x	1182550	1182443	-
x	1190217	1190930	+
x	1190223	1190930	+
x	1190939	1192039	+
x	1192009	1192980	+
x	1199026	1195850	-
x	1199116	1199490	+
x	1201275	1200679	-
x	1201302	1200679	-
x	1201397	1201275	-
x	1201404	1201309	-
x	1202319	1203359	+
x	1206510	1206229	-
x	1208761	1208943	+
x	1211385	1212242	+
x	1216090	1214030	-
x	1216009	1214030	-
x	1216422	1216252	-
x	1216535	1216912	+
x	1216939	1217292	+
x	1217303	1217947	+
x	1217967	1218752	+
x	1218775	1219788	+
x	1219754	1220353	+
x	1220726	1222057	+
x	1220777	1222057	+
x	1220810	1222057	+
x	1222228	1222806	+
x	1222279	1222806	+
x	1223578	1222868	-
x	1225045	1224080	-
x	1225039	1224080	-
x	1228695	1225186	-
x	1228680	1225186	-
x	1229107	1228760	-
x	1231149	1231988	+
x	1231302	1231988	+
x	1231344	1231988	+
x	1231994	1233232	+
x	1234299	1235027	+
x	1235674	1235147	-
x	1236402	1235932	-
x	1239142	1238285	-
x	1240492	1240241	-
x	1240456	1240241	-
x	1240470	1241738	+
x	1240659	1241738	+
x	1241202	1241738	+
x	1242917	1241787	-
x	1244192	1242984	-
x	1244366	1242984	-
x	1247305	1246658	-
x	1248486	1247335	-
x	1249589	1248966	-
x	1249539	1249661	+
x	1249820	1249707	-
x	1250888	1249707	-
x	1250889	1251041	+
x	1252114	1252004	-
x	1253585	1253433	-
x	1255017	1253728	-
x	1255649	1255804	+
x	1256278	1256460	+
x	1256284	1256460	+
x	1256750	1258315	+
x	1256932	1256759	-
x	1256855	1258315	+
x	1257596	1258315	+
x	1257635	1258315	+
x	1258411	1258665	+
x	1258813	1258670	-
x	1258758	1258901	+
x	1258782	1258901	+
x	1259065	1260585	+
x	1260670	1261686	+
x	1260793	1261686	+
x	1262104	1261769	-
x	1262392	1262108	-
x	1262452	1262108	-
x	1262874	1262993	+
x	1262929	1263150	+
x	1263159	1263371	+
x	1263491	1263601	+
x	1265559	1264849	-
x	1265684	1265911	+
x	1266073	1266432	+
x	1266965	1267135	+
x	1267007	1267135	+
x	1267178	1267471	+
x	1268264	1268740	+
x	1268294	1268740	+
x	1268737	1268880	+
x	1269228	1268947	-
x	1270002	1268947	-
x	1269864	1268947	-
x	1270105	1269995	-
x	1272500	1271964	-
x	1274235	1272640	-
x	1277029	1278333	+
x	1279516	1279665	+
x	1281409	1279799	-
x	1282517	1282705	+
x	1282530	1283255	+
x	1282650	1283255	+
x	1284159	1284446	+
x	1284515	1284246	-
x	1284696	1285064	+
x	1286399	1285143	-
x	1286600	1285143	-
x	1286854	1287000	+
x	1288584	1287160	-
x	1288581	1287160	-
x	1289299	1288589	-
x	1289296	1288589	-
x	1290332	1289232	-
x	1290521	1292449	+
x	1295761	1295940	+
x	1297776	1297393	-
x	1300240	1298588	-
x	1300295	1300173	-
x	1301405	1300392	-
x	1302980	1304434	+
x	1308552	1307590	-
x	1308494	1308757	+
x	1308536	1308757	+
x	1308763	1308632	-
x	1308766	1308632	-
x	1308906	1308736	-
x	1309298	1309167	-
x	1309301	1309167	-
x	1309441	1309361	-
x	1309836	1309702	-
x	1309833	1309702	-
x	1309975	1309889	-
x	1311400	1310213	-
x	1311876	1311631	-
x	1311935	1312666	+
x	1311950	1312666	+
x	1313389	1314642	+
x	1315359	1314643	-
x	1317108	1317326	+
x	1317415	1318812	+
x	1326351	1326701	+
x	1326526	1327095	+
x	1326652	1326551	-
x	1328497	1328138	-
x	1328617	1328138	-
x	1328709	1329614	+
x	1329793	1330719	+
x	1334662	1334432	-
x	1334786	1334601	-
x	1338736	1338891	+
x	1339028	1338867	-
x	1339181	1338867	-
x	1339163	1338867	-
x	1339350	1339562	+
x	1339379	1339654	+
x	1339427	1339654	+
x	1339573	1340076	+
x	1339699	1340076	+
x	1339867	1340076	+
x	1340152	1341855	+
x	1340179	1341855	+
x	1342879	1343784	+
x	1346270	1345863	-
x	1347719	1348003	+
x	1347797	1348003	+
x	1347830	1348003	+
x	1347851	1348003	+
x	1349266	1348058	-
x	1349329	1348058	-
x	1353206	1352943	-
x	1372021	1373763	+
x	1378725	1379906	+
x	1378989	1379906	+
x	1380671	1380009	-
x	1380629	1380009	-
x	1380614	1380009	-
x	1386186	1385095	-
x	1387126	1386254	-
x	1387168	1386254	-
x	1387099	1386254	-
x	1387087	1386254	-
x	1389843	1390772	+
x	1389906	1390772	+
x	1398381	1397989	-
x	1398291	1397989	-
x	1398458	1399228	+
x	1398494	1399228	+
x	1398939	1398691	-
x	1401962	1402078	+
x	1401971	1402078	+
x	1402596	1402138	-
x	1402416	1402138	-
x	1403211	1402690	-
x	1403442	1403248	-
x	1403479	1403276	-
x	1403512	1403276	-
x	1407208	1405847	-
x	1408727	1408825	+
x	1409064	1408804	-
x	1410721	1410569	-
x	1410661	1411521	+
x	1411482	1412138	+
x	1416740	1416576	-
x	1417771	1417863	+
x	1418081	1418236	+
x	1418133	1418345	+
x	1418193	1418345	+
x	1418426	1421065	+
x	1422544	1422708	+
x	1422568	1422708	+
x	1422690	1422878	+
x	1422699	1422878	+
x	1423077	1422952	-
x	1423015	1423197	+
x	1426643	1425990	-
x	1429325	1429182	-
x	1429322	1429182	-
x	1429328	1429182	-
x	1429281	1430078	+
x	1430075	1430404	+
x	1430428	1430580	+
x	1431736	1431017	-
x	1432038	1431856	-
x	1432029	1431856	-
x	1434135	1432177	-
x	1434216	1434320	+
x	1434374	1434267	-
x	1437605	1436400	-
x	1438474	1438572	+
x	1444506	1442887	-
x	1444773	1444573	-
x	1444736	1444861	+
x	1445214	1445104	-
x	1446661	1445222	-
x	1448406	1446910	-
x	1448650	1448516	-
x	1448528	1449304	+
x	1448552	1449304	+
x	1455347	1454355	-
x	1457435	1457533	+
x	1457609	1459315	+
x	1458011	1459315	+
x	1458335	1459315	+
x	1459420	1459130	-
x	1459330	1459130	-
x	1460007	1460621	+
x	1460010	1460621	+
x	1463445	1464242	+
x	1464264	1465307	+
x	1467556	1467458	-
x	1468241	1469209	+
x	1468583	1469209	+
x	1469209	1469322	+
x	1474113	1475681	+
x	1476308	1477315	+
x	1478018	1477290	-
x	1479273	1478353	-
x	1479270	1478353	-
x	1479191	1479024	-
x	1480399	1480524	+
x	1480620	1480510	-
x	1480626	1482260	+
x	1483636	1483460	-
x	1483532	1484512	+
x	1486988	1486194	-
x	1487003	1486194	-
x	1488359	1487667	-
x	1489199	1487667	-
x	1488281	1487667	-
x	1489317	1489123	-
x	1491976	1490675	-
x	1492000	1490675	-
x	1491655	1490675	-
x	1492064	1491960	-
x	1492162	1492061	-
x	1495275	1493983	-
x	1496626	1496522	-
x	1496547	1496765	+
x	1496919	1496683	-
x	1496728	1496901	+
x	1499266	1498433	-
x	1499560	1499420	-
x	1500896	1500657	-
x	1501232	1500951	-
x	1501359	1501153	-
x	1502270	1501404	-
x	1505231	1504908	-
x	1505434	1505258	-
x	1505661	1505428	-
x	1505968	1506579	+
x	1506588	1506764	+
x	1506921	1506742	-
x	1508134	1508526	+
x	1508590	1509396	+
x	1510121	1510732	+
x	1511235	1512659	+
x	1513475	1513708	+
x	1516578	1516405	-
x	1517703	1516966	-
x	1517715	1516966	-
x	1517739	1517873	+
x	1519843	1520406	+
x	1519993	1520406	+
x	1521644	1521411	-
x	1521939	1521763	-
x	1521799	1522815	+
x	1521835	1522815	+
x	1523365	1523538	+
x	1524310	1523804	-
x	1529544	1529413	-
x	1529590	1529474	-
x	1529914	1529474	-
x	1529809	1529474	-
x	1529788	1529943	+
x	1529818	1529943	+
x	1530374	1529940	-
x	1534424	1534825	+
x	1534451	1534825	+
x	1534466	1534825	+
x	1534493	1534825	+
x	1534496	1534825	+
x	1539413	1537695	-
x	1544538	1545041	+
x	1552126	1552004	-
x	1553849	1553784	-
x	1554011	1556569	+
x	1557196	1556540	-
x	1557082	1556540	-
x	1557364	1556540	-
x	1557768	1557403	-
x	1558094	1559128	+
x	1558199	1559128	+
x	1559309	1562632	+
x	1563757	1566069	+
x	1566234	1566845	+
x	1567019	1567741	+
x	1567430	1567741	+
x	1567928	1569514	+
x	1569429	1570820	+
x	1569504	1570820	+
x	1569552	1570820	+
x	1569861	1570820	+
x	1570805	1571467	+
x	1571578	1571652	+
x	1571737	1575582	+
x	1575950	1576654	+
x	1579485	1580051	+
x	1580535	1580765	+
x	1581317	1582729	+
x	1582370	1582729	+
x	1583831	1582767	-
x	1584726	1585250	+
x	1585505	1587130	+
x	1585511	1587130	+
x	1587254	1587051	-
x	1587264	1587494	+
x	1587327	1587494	+
x	1587542	1588096	+
x	1589084	1590184	+
x	1589180	1590184	+
x	1590925	1591044	+
x	1591185	1591057	-
x	1591929	1591762	-
x	1591958	1591776	-
x	1592268	1591981	-
x	1592201	1592049	-
x	1592152	1592298	+
x	1592336	1593484	+
x	1593058	1592927	-
x	1594792	1593524	-
x	1593805	1593524	-
x	1594756	1593524	-
x	1594705	1593524	-
x	1594822	1593524	-
x	1595358	1597361	+
x	1597623	1597453	-
x	1597862	1597740	-
x	1598066	1597869	-
x	1598127	1598543	+
x	1598346	1598543	+
x	1605734	1605618	-
x	1605652	1605849	+
x	1605658	1605849	+
x	1605813	1605718	-
x	1606088	1605810	-
x	1605933	1606181	+
x	1605960	1606181	+
x	1606136	1606240	+
x	1607699	1606947	-
x	1607528	1606947	-
x	1607458	1607820	+
x	1607553	1608683	+
x	1607622	1608683	+
x	1608824	1609546	+
x	1611683	1611778	+
x	1614644	1613100	-
x	1614650	1613100	-
x	1614669	1614818	+
x	1615055	1615483	+
x	1615154	1615483	+
x	1615652	1615771	+
x	1616329	1616183	-
x	1616355	1616447	+
x	1616509	1618557	+
x	1618783	1618625	-
x	1618760	1619023	+
x	1618989	1619156	+
x	1619007	1619156	+
x	1619205	1619951	+
x	1619676	1619951	+
x	1619995	1620195	+
x	1620450	1621571	+
x	1620498	1621571	+
x	1620528	1621571	+
x	1620606	1621571	+
x	1620714	1621571	+
x	1621218	1621571	+
x	1621383	1621571	+
x	1621632	1621904	+
x	1622344	1621901	-
x	1623333	1623488	+
x	1632697	1631291	-
x	1634297	1633377	-
x	1635731	1634907	-
x	1636109	1635915	-
x	1636020	1636607	+
x	1637264	1636194	-
x	1636656	1639067	+
x	1639988	1639044	-
x	1639985	1639044	-
x	1639086	1639964	+
x	1639939	1640610	+
x	1639972	1640610	+
x	1640695	1640847	+
x	1640803	1640711	-
x	1640788	1640711	-
x	1640873	1641004	+
x	1640966	1640889	-
x	1640981	1640889	-
x	1640991	1641263	+
x	1641379	1641017	-
x	1642487	1641447	-
x	1644315	1642591	-
x	1644338	1644427	+
x	1644962	1644684	-
x	1645325	1645675	+
x	1649506	1648526	-
x	1649272	1648526	-
x	1654376	1651953	-
x	1653056	1651953	-
x	1655420	1654377	-
x	1657277	1656123	-
x	1657337	1656123	-
x	1660556	1659264	-
x	1660733	1659264	-
x	1660896	1660783	-
x	1663809	1661026	-
x	1661880	1661026	-
x	1662036	1661026	-
x	1667934	1666276	-
x	1667868	1666276	-
x	1667855	1667974	+
x	1669424	1668252	-
x	1669568	1669461	-
x	1671176	1669461	-
x	1671080	1669461	-
x	1672563	1672381	-
x	1672578	1672381	-
x	1676702	1676412	-
x	1678492	1678268	-
x	1679558	1678503	-
x	1679882	1678503	-
x	1679525	1678503	-
x	1679063	1678503	-
x	1679831	1678503	-
x	1680109	1679825	-
x	1680286	1680188	-
x	1685597	1681758	-
x	1692344	1692688	+
x	1696722	1695757	-
x	1696621	1696821	+
x	1698329	1696878	-
x	1699395	1698556	-
x	1699446	1698556	-
x	1702376	1700964	-
x	1704258	1704527	+
x	1704600	1704481	-
x	1704759	1704637	-
x	1706826	1707203	+
x	1707217	1707606	+
x	1708807	1707887	-
x	1708687	1707887	-
x	1710295	1710390	+
x	1711505	1710609	-
x	1711016	1710609	-
x	1715095	1712984	-
x	1715151	1715912	+
x	1717094	1716822	-
x	1718899	1718651	-
x	1720721	1720954	+
x	1722522	1721959	-
x	1722372	1721959	-
x	1723382	1722534	-
x	1724276	1724389	+
x	1724529	1724377	-
x	1724681	1725106	+
x	1725434	1725258	-
x	1725779	1725603	-
x	1726496	1726338	-
x	1727161	1726679	-
x	1726983	1726729	-
x	1727990	1727703	-
x	1728225	1728019	-
x	1728267	1728386	+
x	1728739	1728608	-
x	1729602	1729435	-
x	1729516	1729716	+
x	1730920	1730138	-
x	1730788	1730138	-
x	1731851	1730904	-
x	1731953	1730904	-
x	1732233	1731955	-
x	1732548	1732300	-
x	1732729	1732613	-
x	1733713	1733552	-
x	1733573	1733851	+
x	1734998	1734771	-
x	1736050	1735958	-
x	1736079	1736312	+
x	1736103	1736312	+
x	1736202	1736312	+
x	1736272	1736442	+
x	1736305	1736442	+
x	1737029	1736694	-
x	1736909	1736694	-
x	1736987	1736694	-
x	1736858	1736694	-
x	1737002	1736694	-
x	1737147	1736992	-
x	1737229	1737059	-
x	1737394	1737059	-
x	1737349	1737059	-
x	1737241	1737059	-
x	1737153	1737446	+
x	1737162	1737446	+
x	1737389	1737634	+
x	1737434	1737634	+
x	1737539	1737634	+
x	1738530	1739186	+
x	1738644	1739186	+
x	1740421	1739516	-
x	1740172	1739516	-
x	1740340	1739516	-
x	1740058	1739516	-
x	1740789	1740379	-
x	1740744	1740379	-
x	1741430	1741693	+
x	1741823	1741713	-
x	1742924	1741881	-
x	1744159	1742912	-
x	1746478	1745732	-
x	1746508	1746855	+
x	1746547	1746855	+
x	1749538	1751964	+
x	1749568	1751964	+
x	1750432	1751964	+
x	1752354	1753448	+
x	1753482	1754105	+
x	1754126	1754233	+
x	1754240	1755556	+
x	1754264	1755556	+
x	1756216	1755509	-
x	1760105	1759986	-
x	1760334	1760669	+
x	1760355	1760669	+
x	1760383	1760760	+
x	1760397	1760669	+
x	1760762	1760845	+
x	1762763	1762593	-
x	1763048	1763932	+
x	1766942	1765356	-
x	1767312	1767422	+
x	1771084	1771863	+
x	1771108	1771863	+
x	1771144	1771863	+
x	1771993	1773168	+
x	1773232	1774173	+
x	1780415	1780510	+
x	1780521	1780435	-
x	1780792	1780571	-
x	1781818	1780571	-
x	1784357	1783245	-
x	1784351	1783245	-
x	1786025	1785447	-
x	1786034	1785447	-
x	1788136	1789932	+
x	1793332	1792253	-
x	1793360	1793623	+
x	1793821	1794285	+
x	1800417	1799707	-
x	1800881	1801081	+
x	1801416	1801306	-
x	1804481	1803621	-
x	1805829	1804543	-
x	1806909	1806661	-
x	1806984	1806661	-
x	1809425	1808985	-
x	1809563	1809444	-
x	1809620	1809856	+
x	1809629	1809856	+
x	1809817	1810716	+
x	1809850	1810716	+
x	1809946	1810716	+
x	1810737	1812728	+
x	1813301	1812729	-
x	1813265	1812729	-
x	1814686	1814276	-
x	1814653	1814276	-
x	1814284	1814406	+
x	1814287	1814406	+
x	1814618	1815217	+
x	1817730	1817620	-
x	1817721	1822298	+
x	1822930	1822778	-
x	1826140	1826051	-
x	1826170	1826051	-
x	1826227	1826451	+
x	1826439	1827464	+
x	1835019	1834924	-
x	1835143	1835514	+
x	1835161	1835514	+
x	1836977	1837330	+
x	1838106	1837342	-
x	1837543	1838289	+
x	1839659	1838940	-
x	1840310	1839672	-
x	1842509	1840323	-
x	1843100	1843222	+
x	1843697	1843527	-
x	1844077	1845705	+
x	1852643	1851117	-
x	1852975	1852613	-
x	1853717	1853529	-
x	1858176	1858781	+
x	1859147	1858971	-
x	1859183	1859566	+
x	1859699	1860880	+
x	1859726	1860880	+
x	1861101	1862372	+
x	1864182	1865777	+
x	1865737	1866942	+
x	1865788	1866942	+
x	1868175	1867999	-
x	1868113	1868976	+
x	1868191	1868976	+
x	1871626	1873272	+
x	1875928	1875761	-
x	1878181	1878399	+
x	1878930	1879031	+
x	1882141	1881404	-
x	1883772	1883644	-
x	1887549	1886554	-
x	1887617	1887925	+
x	1887746	1887651	-
x	1887861	1887727	-
x	1888466	1889077	+
x	1889125	1888691	-
x	1891105	1889237	-
x	1891450	1891521	+
x	1891689	1892162	+
x	1891852	1892073	+
x	1892034	1892162	+
x	1892827	1893588	+
x	1893689	1893597	-
x	1893649	1893867	+
x	1893655	1893867	+
x	1893760	1893867	+
x	1894819	1894926	+
x	1894962	1895894	+
x	1896300	1895926	-
x	1898794	1899396	+
x	1899456	1899328	-
x	1901727	1900924	-
x	1901361	1900924	-
x	1902270	1902016	-
x	1902258	1902016	-
x	1902603	1902445	-
x	1904765	1904929	+
x	1908039	1907200	-
x	1908397	1908050	-
x	1913595	1912957	-
x	1913723	1914211	+
x	1914355	1914456	+
x	1918038	1916851	-
x	1919357	1918326	-
x	1920840	1921010	+
x	1921011	1921829	+
x	1921948	1922706	+
x	1922549	1923388	+
x	1923406	1924110	+
x	1924665	1925834	+
x	1925783	1927342	+
x	1925807	1927342	+
x	1925840	1927342	+
x	1927255	1927995	+
x	1927309	1927995	+
x	1928047	1929369	+
x	1928296	1929369	+
x	1930004	1929378	-
x	1930928	1930815	-
x	1933310	1932426	-
x	1935612	1933594	-
x	1936609	1935560	-
x	1936694	1936545	-
x	1937325	1937489	+
x	1937420	1939288	+
x	1939503	1940471	+
x	1940464	1941123	+
x	1942466	1941216	-
x	1945343	1944576	-
x	1945544	1944576	-
x	1946364	1945528	-
x	1947362	1946385	-
x	1947389	1946385	-
x	1948861	1948709	-
x	1950614	1950297	-
x	1950976	1950611	-
x	1951054	1950611	-
x	1951357	1952361	+
x	1952424	1953329	+
x	1955187	1955288	+
x	1955629	1957437	+
x	1959112	1960455	+
x	1959121	1960455	+
x	1960456	1962126	+
x	1962825	1962673	-
x	1962766	1962954	+
x	1964159	1963350	-
x	1964168	1963350	-
x	1964323	1964183	-
x	1964328	1965449	+
x	1965483	1965851	+
x	1966111	1965854	-
x	1966181	1967335	+
x	1967353	1967466	+
x	1967368	1967466	+
x	1967427	1967543	+
x	1967469	1967543	+
x	1967981	1967862	-
x	1967984	1967862	-
x	1968016	1968507	+
x	1968408	1968184	-
x	1968514	1968648	+
x	1970425	1969481	-
x	1970510	1971592	+
x	1971798	1973228	+
x	1976574	1975459	-
x	1978407	1976656	-
x	1978374	1976656	-
x	1982249	1981863	-
x	1982225	1981863	-
x	1981914	1982306	+
x	1981959	1982306	+
x	1982477	1982340	-
x	1982471	1982340	-
x	1982572	1982456	-
x	1982704	1983027	+
x	1982728	1983027	+
x	1983144	1983308	+
x	1983400	1984761	+
x	1986919	1987047	+
x	1986992	1988620	+
x	1987013	1988620	+
x	1990377	1990168	-
x	1990422	1990168	-
x	1992534	1991773	-
x	1992490	1993341	+
x	1994041	1994286	+
x	1994229	1994849	+
x	1995488	1996072	+
x	1995785	1996072	+
x	1996148	1996354	+
x	1997109	1996801	-
x	1997212	1997400	+
x	1998760	2000244	+
x	2001168	2000290	-
x	2001406	2001266	-
x	2003405	2001363	-
x	2003550	2003431	-
x	2004723	2004226	-
x	2004672	2004226	-
x	2004898	2006136	+
x	2006063	2008738	+
x	2006099	2008738	+
x	2008812	2010257	+
x	2010360	2010611	+
x	2010632	2010907	+
x	2011567	2010908	-
x	2012298	2011960	-
x	2013616	2013933	+
x	2014266	2014691	+
x	2014661	2015377	+
x	2017520	2018122	+
x	2018362	2018472	+
x	2018985	2018629	-
x	2023162	2023320	+
x	2025194	2025075	-
x	2025224	2025075	-
x	2026103	2027686	+
x	2030167	2028908	-
x	2031232	2030246	-
x	2031304	2030246	-
x	2034775	2034710	-
x	2034747	2035448	+
x	2035974	2035450	-
x	2037284	2036775	-
x	2039402	2039307	-
x	2039394	2039993	+
x	2040083	2040808	+
x	2040831	2041256	+
x	2040903	2041256	+
x	2043036	2043182	+
x	2045620	2043173	-
x	2047555	2047115	-
x	2048447	2047875	-
x	2048623	2048510	-
x	2050546	2051055	+
x	2051543	2051175	-
x	2051411	2051175	-
x	2053720	2051567	-
x	2054819	2054953	+
x	2055662	2054988	-
x	2061307	2059625	-
x	2063958	2061955	-
x	2063919	2061955	-
x	2063913	2061955	-
x	2063973	2061955	-
x	2066098	2065928	-
x	2066453	2065938	-
x	2066806	2066456	-
x	2066922	2066806	-
x	2066935	2066837	-
x	2068230	2067250	-
x	2068266	2067250	-
x	2068126	2068302	+
x	2070653	2069220	-
x	2071476	2070619	-
x	2072257	2071586	-
x	2072293	2071586	-
x	2072572	2071586	-
x	2074146	2072587	-
x	2075211	2074171	-
x	2076476	2076814	+
x	2076542	2076814	+
x	2076902	2077048	+
x	2077051	2076905	-
x	2076991	2076905	-
x	2077125	2077012	-
x	2077281	2077138	-
x	2077323	2077577	+
x	2077723	2077583	-
x	2077699	2077583	-
x	2077733	2078245	+
x	2078759	2078661	-
x	2079190	2079924	+
x	2083672	2081906	-
x	2084244	2083735	-
x	2084355	2083735	-
x	2084758	2084630	-
x	2084687	2084863	+
x	2085876	2085142	-
x	2087885	2087526	-
x	2088608	2087526	-
x	2089474	2088617	-
x	2090092	2089505	-
x	2090791	2090102	-
x	2090895	2090981	+
x	2091093	2090923	-
x	2091100	2090993	-
x	2091005	2091073	+
x	2092638	2091142	-
x	2097125	2096709	-
x	2099378	2099521	+
x	2100201	2100085	-
x	2101534	2101812	+
x	2101561	2101812	+
x	2102076	2101732	-
x	2102240	2102091	-
x	2104994	2104065	-
x	2104879	2105586	+
x	2109074	2110123	+
x	2110618	2110496	-
x	2110533	2110901	+
x	2110596	2110901	+
x	2111948	2112286	+
x	2111991	2112710	+
x	2113700	2113975	+
x	2114251	2113952	-
x	2114302	2113952	-
x	2114215	2113952	-
x	2114003	2114245	+
x	2114015	2114245	+
x	2114291	2114401	+
x	2117031	2115355	-
x	2117064	2115355	-
x	2117158	2116970	-
x	2118392	2117481	-
x	2122453	2122151	-
x	2122534	2122151	-
x	2122518	2122625	+
x	2122699	2122827	+
x	2123053	2123568	+
x	2123083	2123568	+
x	2124443	2124276	-
x	2124356	2124466	+
x	2124687	2124484	-
x	2124720	2124484	-
x	2124606	2124484	-
x	2124703	2124846	+
x	2127966	2127184	-
x	2127903	2127184	-
x	2128510	2129514	+
x	2128879	2129514	+
x	2131167	2131316	+
x	2131370	2131930	+
x	2131953	2132195	+
x	2132644	2133480	+
x	2133780	2133929	+
x	2133895	2141046	+
x	2133970	2141046	+
x	2142237	2141656	-
x	2141928	2141656	-
x	2142360	2141656	-
x	2142389	2142547	+
x	2143937	2145547	+
x	2144045	2145547	+
x	2146860	2146651	-
x	2146830	2146651	-
x	2146947	2146651	-
x	2146816	2146697	-
x	2146845	2146991	+
x	2147558	2147235	-
x	2148875	2147235	-
x	2147840	2147235	-
x	2148722	2147235	-
x	2148092	2147235	-
x	2148689	2147235	-
x	2147459	2147235	-
x	2150995	2150048	-
x	2152358	2151423	-
x	2154290	2153511	-
x	2155070	2154948	-
x	2156317	2155337	-
x	2156213	2156389	+
x	2156624	2156460	-
x	2156770	2156663	-
x	2157106	2157017	-
x	2157667	2158059	+
x	2158808	2157984	-
x	2158640	2157984	-
x	2158526	2157984	-
x	2159212	2158847	-
x	2159276	2159536	+
x	2159533	2160243	+
x	2160118	2160243	+
x	2165732	2165277	-
x	2165774	2165277	-
x	2166219	2166512	+
x	2166246	2166512	+
x	2166264	2166512	+
x	2166351	2166512	+
x	2166369	2166512	+
x	2166975	2167166	+
x	2167176	2167292	+
x	2167844	2167963	+
x	2168393	2168064	-
x	2168478	2168600	+
x	2168484	2168600	+
x	2168987	2168565	-
x	2171585	2170413	-
x	2171378	2170413	-
x	2171456	2170413	-
x	2171506	2171664	+
x	2171740	2173215	+
x	2174503	2173499	-
x	2174548	2173499	-
x	2174705	2174592	-
x	2176100	2174736	-
x	2175191	2174736	-
x	2177311	2176361	-
x	2178772	2178494	-
x	2179185	2180123	+
x	2180120	2181433	+
x	2180192	2181433	+
x	2182497	2183567	+
x	2184154	2184894	+
x	2187336	2186353	-
x	2187369	2186353	-
x	2191907	2190927	-
x	2191803	2191979	+
x	2203371	2202466	-
x	2207496	2207726	+
x	2207592	2207726	+
x	2212059	2210641	-
x	2213947	2213555	-
x	2215257	2214775	-
x	2219934	2218693	-
x	2219982	2218693	-
x	2224720	2222522	-
x	2226239	2225136	-
x	2226182	2225136	-
x	2225639	2225136	-
x	2226868	2228517	+
x	2226895	2228517	+
x	2232034	2231339	-
x	2232043	2231339	-
x	2232808	2235615	+
x	2233240	2235615	+
x	2236693	2236586	-
x	2236643	2238058	+
x	2239978	2238071	-
x	2239846	2238071	-
x	2240173	2240063	-
x	2241423	2240743	-
x	2241665	2241501	-
x	2242732	2242878	+
x	2242750	2242878	+
x	2242901	2244295	+
x	2242928	2244295	+
x	2243087	2244295	+
x	2254182	2254553	+
x	2256138	2256001	-
x	2256588	2256334	-
x	2257033	2256767	-
x	2257296	2257021	-
x	2257353	2257021	-
x	2257398	2257021	-
x	2259171	2258725	-
x	2259268	2259567	+
x	2259615	2260430	+
x	2259624	2260430	+
x	2266240	2265380	-
x	2266216	2266371	+
x	2267666	2266542	-
x	2267653	2267754	+
x	2272690	2271863	-
x	2275810	2276328	+
x	2277444	2276410	-
x	2276963	2277127	+
x	2279955	2277460	-
x	2280630	2279956	-
x	2280323	2280433	+
x	2281207	2280710	-
x	2283228	2282089	-
x	2283321	2285363	+
x	2289588	2292941	+
x	2291565	2292941	+
x	2293024	2293188	+
x	2293078	2293188	+
x	2293560	2294714	+
x	2294650	2297004	+
x	2296273	2297004	+
x	2296934	2298133	+
x	2298106	2299974	+
x	2300243	2300716	+
x	2301283	2300756	-
x	2302007	2301273	-
x	2303689	2301989	-
x	2303763	2303891	+
x	2303980	2304627	+
x	2311091	2308722	-
x	2311020	2311178	+
x	2311182	2312930	+
x	2311224	2312930	+
x	2313909	2312968	-
x	2314101	2313979	-
x	2314685	2314074	-
x	2314795	2315409	+
x	2315513	2315400	-
x	2315925	2315539	-
x	2317549	2316353	-
x	2318012	2318095	+
x	2319481	2318468	-
x	2319618	2320052	+
x	2320052	2320744	+
x	2321731	2321603	-
x	2323288	2324301	+
x	2324289	2325530	+
x	2325552	2325695	+
x	2325576	2325695	+
x	2330685	2329639	-
x	2330669	2330872	+
x	2332760	2332647	-
x	2332817	2332993	+
x	2335714	2333789	-
x	2335977	2335873	-
x	2335922	2336056	+
x	2337775	2337527	-
x	2337835	2337527	-
x	2337761	2337651	-
x	2338554	2337748	-
x	2343147	2341906	-
x	2343286	2343170	-
x	2344327	2345025	+
x	2347264	2346440	-
x	2349735	2350445	+
x	2352679	2352536	-
x	2352671	2352802	+
x	2354437	2354051	-
x	2354239	2354051	-
x	2354357	2354196	-
x	2354205	2355032	+
x	2354217	2355032	+
x	2354490	2355032	+
x	2355246	2356721	+
x	2357828	2358577	+
x	2358020	2358577	+
x	2359799	2361292	+
x	2361368	2363188	+
x	2368713	2367580	-
x	2371431	2371811	+
x	2371925	2371512	-
x	2371943	2371512	-
x	2373118	2373002	-
x	2373121	2373002	-
x	2375436	2375251	-
x	2375612	2375400	-
x	2377794	2377904	+
x	2379055	2378075	-
x	2378951	2379127	+
x	2379478	2379221	-
x	2379306	2379401	+
x	2379480	2380157	+
x	2381252	2380368	-
x	2384557	2384387	-
x	2385354	2384593	-
x	2386031	2385372	-
x	2386648	2386031	-
x	2386706	2387299	+
x	2387749	2387279	-
x	2387348	2387890	+
x	2392607	2392780	+
x	2392616	2392780	+
x	2392828	2392736	-
x	2392894	2393403	+
x	2395746	2394118	-
x	2399149	2399367	+
x	2400596	2401666	+
x	2401591	2400656	-
x	2402276	2402151	-
x	2405142	2405837	+
x	2405151	2405837	+
x	2405935	2405834	-
x	2405866	2405961	+
x	2406411	2406037	-
x	2408838	2406037	-
x	2408956	2409189	+
x	2409041	2410879	+
x	2413759	2413920	+
x	2415449	2416303	+
x	2417859	2417158	-
x	2417940	2417158	-
x	2423427	2419309	-
x	2423337	2419309	-
x	2423244	2419309	-
x	2423412	2419309	-
x	2423322	2419309	-
x	2423996	2423346	-
x	2425564	2423966	-
x	2425702	2423966	-
x	2425531	2423966	-
x	2425222	2423966	-
x	2425767	2425687	-
x	2428529	2429299	+
x	2433131	2429427	-
x	2432931	2433029	+
x	2433747	2433604	-
x	2433651	2433794	+
x	2436262	2437524	+
x	2436343	2437524	+
x	2436355	2437524	+
x	2439952	2438945	-
x	2441501	2441632	+
x	2443203	2444534	+
x	2444456	2445721	+
x	2445746	2445871	+
x	2446826	2447011	+
x	2447804	2447052	-
x	2449201	2447873	-
x	2448631	2447873	-
x	2448625	2447873	-
x	2450424	2449219	-
x	2451331	2451236	-
x	2453300	2452743	-
x	2453306	2452743	-
x	2453507	2453406	-
x	2453627	2453989	+
x	2454657	2454028	-
x	2454905	2456077	+
x	2454920	2456077	+
x	2461620	2462288	+
x	2461911	2462288	+
x	2462578	2462282	-
x	2465161	2465994	+
x	2468458	2466599	-
x	2469428	2468358	-
x	2470600	2471547	+
x	2470618	2471547	+
x	2471552	2471764	+
x	2471581	2471856	+
x	2471629	2471856	+
x	2471775	2472278	+
x	2471901	2472278	+
x	2472069	2472278	+
x	2472475	2472302	-
x	2472503	2473711	+
x	2475509	2473782	-
x	2475641	2476618	+
x	2475800	2476618	+
x	2476286	2476618	+
x	2476376	2476618	+
x	2478422	2478844	+
x	2478903	2479751	+
x	2481292	2479835	-
x	2484827	2482992	-
x	2489952	2487226	-
x	2493632	2491842	-
x	2494831	2494962	+
x	2495122	2495286	+
x	2496668	2496922	+
x	2501139	2499307	-
x	2502399	2501887	-
x	2503119	2502988	-
x	2503087	2503248	+
x	2506732	2504462	-
x	2506847	2508388	+
x	2506910	2508388	+
x	2509572	2509021	-
x	2512969	2512436	-
x	2517866	2517699	-
x	2521489	2520809	-
x	2521444	2520809	-
x	2523797	2522799	-
x	2526417	2526530	+
x	2531491	2533557	+
x	2533657	2533544	-
x	2537263	2536175	-
x	2538560	2537295	-
x	2542096	2541371	-
x	2544777	2545313	+
x	2546576	2546728	+
x	2550745	2550437	-
x	2551057	2550806	-
x	2551093	2552433	+
x	2554933	2554820	-
x	2554990	2554820	-
x	2556296	2557489	+
x	2560548	2560892	+
x	2561933	2561331	-
x	2562662	2562174	-
x	2563177	2563344	+
x	2563365	2563183	-
x	2563373	2563753	+
x	2563391	2563753	+
x	2564257	2564643	+
x	2564744	2565307	+
x	2567422	2566481	-
x	2568753	2568971	+
x	2569004	2570317	+
x	2569091	2570317	+
x	2571650	2571988	+
x	2573018	2571963	-
x	2573003	2571963	-
x	2574161	2577754	+
x	2574371	2577754	+
x	2577628	2577530	-
x	2578736	2577810	-
x	2578994	2577810	-
x	2578949	2579053	+
x	2584021	2583554	-
x	2584249	2584410	+
x	2584543	2584418	-
x	2584533	2584760	+
x	2584882	2584745	-
x	2585387	2585313	-
x	2585366	2586352	+
x	2586663	2586779	+
x	2586708	2586779	+
x	2588406	2588269	-
x	2588476	2590155	+
x	2590152	2590904	+
x	2590245	2590904	+
x	2598080	2597703	-
x	2600788	2600690	-
x	2600837	2601196	+
x	2600852	2601196	+
x	2600963	2601196	+
x	2601068	2601196	+
x	2602430	2601255	-
x	2602790	2604031	+
x	2603015	2604031	+
x	2604112	2605230	+
x	2604280	2605230	+
x	2605253	2605393	+
x	2607658	2605430	-
x	2607679	2605430	-
x	2608239	2608598	+
x	2608621	2608992	+
x	2610463	2610594	+
x	2612279	2611380	-
x	2612463	2612305	-
x	2616067	2615717	-
x	2616064	2615717	-
x	2618039	2617728	-
x	2621017	2620034	-
x	2621071	2620034	-
x	2621008	2620034	-
x	2620501	2620794	+
x	2622039	2622203	+
x	2623414	2623286	-
x	2623778	2623485	-
x	2624084	2625580	+
x	2627165	2627503	+
x	2627222	2627503	+
x	2628307	2628462	+
x	2628436	2628365	-
x	2629316	2628459	-
x	2631040	2630591	-
x	2634476	2633619	-
x	2637802	2639193	+
x	2637901	2639193	+
x	2639418	2640344	+
x	2640359	2639433	-
x	2640985	2640428	-
x	2640888	2641028	+
x	2641411	2641064	-
x	2641519	2641064	-
x	2642036	2641500	-
x	2645521	2645015	-
x	2648645	2649853	+
x	2651412	2651780	+
x	2653379	2653756	+
x	2654310	2655119	+
x	2658110	2657910	-
x	2659325	2658111	-
x	2662279	2661944	-
x	2665664	2665257	-
x	2665521	2665628	+
x	2669360	2671426	+
x	2672510	2671521	-
x	2672589	2672458	-
x	2673292	2672690	-
x	2675243	2673333	-
x	2675202	2675336	+
x	2675503	2677218	+
x	2676043	2677218	+
x	2677562	2680495	+
x	2680568	2680795	+
x	2680582	2680761	+
x	2681013	2680912	-
x	2683581	2682859	-
x	2686455	2685661	-
x	2687414	2686692	-
x	2687518	2687411	-
x	2687477	2687707	+
x	2688655	2687618	-
x	2689565	2688669	-
x	2689627	2690265	+
x	2689720	2690265	+
x	2690949	2691605	+
x	2693613	2694581	+
x	2695051	2696037	+
x	2696719	2698284	+
x	2701181	2701657	+
x	2701693	2703699	+
x	2701708	2703699	+
x	2701753	2703699	+
x	2705699	2705875	+
x	2707849	2707739	-
x	2709989	2708658	-
x	2710686	2710033	-
x	2710636	2710770	+
x	2710969	2712021	+
x	2712825	2714897	+
x	2719059	2718907	-
x	2719208	2718942	-
x	2719232	2718942	-
x	2719095	2719268	+
x	2719330	2719476	+
x	2719582	2720097	+
x	2723902	2722391	-
x	2723926	2722391	-
x	2727182	2725671	-
x	2734187	2734714	+
x	2734196	2734714	+
x	2736983	2734800	-
x	2742122	2743126	+
x	2743776	2743913	+
x	2744729	2743944	-
x	2746232	2744862	-
x	2748776	2746872	-
x	2749378	2749262	-
x	2749679	2749350	-
x	2751342	2750104	-
x	2752265	2752059	-
x	2752101	2752202	+
x	2752356	2752174	-
x	2752192	2752293	+
x	2754177	2755031	+
x	2755201	2756502	+
x	2758686	2757793	-
x	2763088	2763555	+
x	2763127	2763555	+
x	2763133	2763555	+
x	2765275	2764487	-
x	2765581	2764487	-
x	2765320	2764487	-
x	2767986	2766637	-
x	2769142	2768171	-
x	2769115	2768171	-
x	2772625	2769251	-
x	2772644	2773843	+
x	2774016	2773888	-
x	2773902	2774021	+
x	2775300	2774041	-
x	2775398	2775574	+
x	2775446	2775574	+
x	2778629	2777256	-
x	2778605	2777256	-
x	2779215	2778580	-
x	2779299	2778580	-
x	2779227	2779391	+
x	2779236	2779391	+
x	2780948	2779458	-
x	2780840	2779458	-
x	2785327	2781443	-
x	2785485	2785345	-
x	2785588	2787144	+
x	2787677	2787141	-
x	2788274	2787702	-
x	2788316	2787702	-
x	2788435	2788298	-
x	2788474	2789394	+
x	2789426	2789710	+
x	2789984	2789904	-
x	2790002	2789904	-
x	2790145	2789981	-
x	2790133	2789981	-
x	2790785	2790405	-
x	2791531	2790785	-
x	2793908	2794072	+
x	2797045	2797179	+
x	2799832	2799224	-
x	2799951	2799796	-
x	2800237	2801829	+
x	2802671	2801814	-
x	2804023	2804175	+
x	2805152	2804226	-
x	2806254	2805853	-
x	2805970	2806347	+
x	2808390	2807278	-
x	2807851	2808453	+
x	2808508	2808305	-
x	2808959	2809708	+
x	2808986	2809708	+
x	2811354	2812400	+
x	2812511	2813869	+
x	2813894	2814238	+
x	2813915	2814238	+
x	2814738	2814235	-
x	2816881	2817108	+
x	2818443	2818748	+
x	2819823	2819503	-
x	2819868	2819503	-
x	2821004	2821129	+
x	2821089	2821178	+
x	2821211	2821345	+
x	2823972	2821387	-
x	2826700	2826906	+
x	2827396	2826860	-
x	2831006	2829867	-
x	2831108	2831512	+
x	2831129	2831512	+
x	2831150	2831512	+
x	2832173	2833396	+
x	2834691	2834359	-
x	2835714	2835157	-
x	2835708	2835157	-
x	2836032	2835724	-
x	2837674	2838540	+
x	2837749	2838540	+
x	2838585	2839847	+
x	2838606	2839847	+
x	2838651	2839847	+
x	2839164	2839847	+
x	2839869	2840621	+
x	2840743	2840492	-
x	2840629	2840492	-
x	2843581	2843733	+
x	2844103	2843795	-
x	2844512	2844075	-
x	2845946	2847187	+
x	2866176	2866655	+
x	2872642	2867933	-
x	2868637	2867933	-
x	2868643	2867933	-
x	2872513	2867933	-
x	2868145	2867933	-
x	2872697	2872578	-
x	2872826	2873194	+
x	2872995	2872852	-
x	2874216	2873425	-
x	2874798	2874316	-
x	2875457	2875305	-
x	2875642	2875313	-
x	2876184	2876516	+
x	2876535	2877221	+
x	2877393	2878025	+
x	2878164	2878436	+
x	2878667	2879749	+
x	2879703	2881037	+
x	2881060	2882508	+
x	2882516	2883802	+
x	2883977	2885440	+
x	2885443	2886123	+
x	2886645	2886830	+
x	2888697	2888825	+
x	2889921	2890262	+
x	2889933	2890262	+
x	2890740	2890486	-
x	2891174	2893279	+
x	2894602	2895624	+
x	2895624	2895836	+
x	2895653	2895928	+
x	2895701	2895928	+
x	2895847	2896350	+
x	2895973	2896350	+
x	2896141	2896350	+
x	2897654	2898688	+
x	2898799	2898692	-
x	2898741	2898887	+
x	2898880	2899146	+
x	2899176	2900057	+
x	2900226	2900918	+
x	2901334	2901864	+
x	2902026	2901892	-
x	2901979	2903163	+
x	2903171	2904718	+
x	2906769	2905447	-
x	2907411	2907076	-
x	2907360	2907076	-
x	2908222	2908097	-
x	2909820	2909936	+
x	2912261	2912662	+
x	2912480	2912662	+
x	2912513	2912662	+
x	2912525	2912662	+
x	2914348	2913272	-
x	2914333	2913272	-
x	2914913	2914413	-
x	2916245	2915055	-
x	2916188	2915055	-
x	2916409	2916311	-
x	2916825	2916959	+
x	2917265	2917915	+
x	2920416	2921342	+
x	2922928	2921339	-
x	2928061	2925737	-
x	2928037	2925737	-
x	2928684	2928142	-
x	2928814	2928647	-
x	2929837	2928818	-
x	2929828	2928818	-
x	2929870	2928818	-
x	2931548	2932978	+
x	2937041	2935326	-
x	2937056	2935326	-
x	2941170	2941087	-
x	2941199	2941561	+
x	2943818	2944828	+
x	2944866	2946980	+
x	2947581	2947447	-
x	2950672	2950980	+
x	2951798	2951031	-
x	2954157	2954795	+
x	2956283	2957029	+
x	2958151	2957123	-
x	2957998	2957123	-
x	2957641	2957123	-
x	2959609	2959457	-
x	2960844	2960077	-
x	2960883	2960077	-
x	2963491	2963372	-
x	2971618	2970938	-
x	2974818	2974699	-
x	2980663	2978951	-
x	2982788	2982675	-
x	2982694	2983143	+
x	2982781	2983143	+
x	2983191	2984492	+
x	2984447	2984743	+
x	2985758	2985483	-
x	2986376	2985483	-
x	2987125	2986340	-
x	2988506	2987097	-
x	2987372	2987097	-
x	2989322	2988528	-
x	2990732	2990052	-
x	2990912	2990052	-
x	2995944	2996012	+
x	2996121	2996261	+
x	2996443	2997147	+
x	2996957	2997223	+
x	2997162	2998391	+
x	3001631	3001320	-
x	3001572	3001934	+
x	3003987	3001981	-
x	3004514	3003972	-
x	3004628	3003972	-
x	3004796	3003972	-
x	3004877	3003972	-
x	3005200	3004835	-
x	3005245	3004835	-
x	3009960	3009844	-
x	3011072	3009945	-
x	3012403	3011306	-
x	3014220	3014095	-
x	3014214	3014342	+
x	3016400	3016260	-
x	3016385	3016260	-
x	3016916	3016635	-
x	3018127	3018035	-
x	3018238	3019572	+
x	3019656	3019787	+
x	3021529	3020102	-
x	3022955	3023710	+
x	3023066	3023710	+
x	3024913	3023765	-
x	3029368	3030786	+
x	3031259	3031999	+
x	3031504	3031391	-
x	3033041	3032043	-
x	3033438	3033136	-
x	3034777	3035070	+
x	3035040	3034810	-
x	3035193	3036434	+
x	3037728	3036928	-
x	3037879	3037769	-
x	3037786	3037854	+
x	3037793	3037888	+
x	3037899	3037813	-
x	3039040	3037973	-
x	3039271	3037973	-
x	3040992	3039649	-
x	3041068	3042465	+
x	3041224	3042465	+
x	3047904	3044353	-
x	3047865	3044353	-
x	3054680	3054333	-
x	3054608	3054333	-
x	3055006	3054641	-
x	3055848	3055045	-
x	3055572	3055045	-
x	3055632	3055045	-
x	3056058	3056252	+
x	3056079	3056252	+
x	3060803	3060339	-
x	3061181	3061375	+
x	3061368	3061222	-
x	3061314	3061475	+
x	3063384	3063097	-
x	3065724	3064561	-
x	3070958	3071848	+
x	3071652	3071554	-
x	3074203	3072656	-
x	3074270	3074184	-
x	3075908	3075180	-
x	3077487	3076303	-
x	3079368	3080060	+
x	3079491	3080060	+
x	3079542	3080060	+
x	3080273	3080142	-
x	3081286	3081678	+
x	3081364	3081678	+
x	3081836	3081711	-
x	3081791	3081711	-
x	3081851	3081711	-
x	3082264	3081827	-
x	3083188	3083066	-
x	3085831	3086307	+
x	3085933	3086307	+
x	3086056	3086307	+
x	3086798	3086352	-
x	3087150	3087284	+
x	3087834	3087640	-
x	3087912	3087640	-
x	3088009	3087854	-
x	3088806	3088264	-
x	3089088	3088264	-
x	3088920	3088264	-
x	3089492	3089127	-
x	3089880	3089581	-
x	3090762	3089926	-
x	3090720	3089926	-
x	3091744	3091028	-
x	3091741	3091028	-
x	3091807	3091028	-
x	3091992	3091780	-
x	3092198	3094495	+
x	3098157	3099344	+
x	3101908	3103305	+
x	3104463	3104326	-
x	3104448	3104326	-
x	3104354	3104485	+
x	3106781	3106179	-
x	3106886	3106179	-
x	3106730	3106179	-
x	3107100	3107630	+
x	3107115	3107630	+
x	3107503	3107273	-
x	3110987	3112381	+
x	3116186	3117643	+
x	3117538	3118977	+
x	3117661	3118977	+
x	3120811	3120416	-
x	3120748	3120416	-
x	3120907	3120416	-
x	3120904	3120416	-
x	3122829	3120904	-
x	3122838	3120904	-
x	3123130	3124707	+
x	3123190	3124707	+
x	3124691	3124834	+
x	3124697	3124834	+
x	3124709	3124834	+
x	3125666	3127081	+
x	3127957	3127076	-
x	3127958	3128113	+
x	3129857	3128265	-
x	3131533	3130739	-
x	3132694	3132308	-
x	3132622	3132308	-
x	3132937	3133128	+
x	3132946	3133128	+
x	3132955	3133128	+
x	3135536	3136993	+
x	3135560	3136993	+
x	3137712	3137050	-
x	3141444	3141052	-
x	3142559	3141465	-
x	3142719	3142567	-
x	3142722	3142567	-
x	3142863	3142735	-
x	3142820	3142933	+
x	3147342	3146758	-
x	3147367	3147555	+
x	3148109	3147783	-
x	3147935	3148681	+
x	3148079	3148681	+
x	3150332	3150454	+
x	3151289	3150558	-
x	3151253	3150558	-
x	3151579	3152538	+
x	3152742	3154886	+
x	3155843	3156670	+
x	3156694	3158172	+
x	3158978	3158169	-
x	3158480	3158169	-
x	3159924	3159232	-
x	3159939	3159232	-
x	3160658	3160065	-
x	3163220	3162057	-
x	3163211	3162057	-
x	3164577	3163351	-
x	3165667	3164564	-
x	3165638	3165537	-
x	3167225	3167109	-
x	3169060	3168071	-
x	3170586	3169363	-
x	3170791	3170615	-
x	3170651	3171667	+
x	3170687	3171667	+
x	3172421	3171978	-
x	3172601	3172431	-
x	3172553	3172431	-
x	3172682	3172431	-
x	3174756	3172735	-
x	3174785	3175762	+
x	3174878	3175762	+
x	3179014	3177026	-
x	3178924	3177026	-
x	3179142	3179011	-
x	3179477	3179602	+
x	3179756	3179490	-
x	3179785	3180951	+
x	3181001	3181216	+
x	3181363	3182769	+
x	3181375	3182769	+
x	3181414	3182769	+
x	3182888	3183343	+
x	3183435	3184145	+
x	3183438	3184145	+
x	3184198	3184956	+
x	3185956	3186591	+
x	3187142	3187014	-
x	3188246	3187191	-
x	3188216	3187191	-
x	3189462	3189764	+
x	3191509	3191592	+
x	3192620	3191649	-
x	3194711	3193995	-
x	3194875	3194735	-
x	3195254	3194898	-
x	3196074	3197156	+
x	3197426	3197133	-
x	3197521	3198603	+
x	3198743	3198609	-
x	3199576	3200784	+
x	3199657	3200784	+
x	3205248	3206243	+
x	3205389	3206243	+
x	3206309	3207169	+
x	3206327	3207169	+
x	3208645	3208037	-
x	3208831	3208980	+
x	3208859	3209062	+
x	3209082	3211277	+
x	3212036	3213244	+
x	3212117	3213244	+
x	3215030	3215212	+
x	3215349	3215227	-
x	3217296	3217424	+
x	3220016	3219594	-
x	3223779	3222289	-
x	3223979	3224803	+
x	3225946	3224810	-
x	3226085	3225909	-
x	3225981	3226961	+
x	3228037	3227108	-
x	3229709	3229011	-
x	3232198	3232338	+
x	3234292	3232430	-
x	3234446	3235360	+
x	3234776	3235360	+
x	3236139	3235744	-
x	3242012	3242140	+
x	3242220	3242035	-
x	3243033	3242623	-
x	3245184	3244744	-
x	3245268	3244744	-
x	3246577	3246386	-
x	3246489	3246734	+
x	3247736	3247017	-
x	3247899	3247744	-
x	3247868	3249190	+
x	3247925	3249190	+
x	3250928	3250029	-
x	3251156	3250029	-
x	3251096	3250029	-
x	3251071	3250925	-
x	3252507	3253217	+
x	3253219	3253332	+
x	3253453	3253361	-
x	3253690	3254343	+
x	3259451	3259296	-
x	3263548	3261878	-
x	3265500	3265051	-
x	3266770	3267600	+
x	3272468	3271773	-
x	3273843	3275363	+
x	3273876	3275363	+
x	3275478	3276182	+
x	3275511	3276182	+
x	3278201	3277386	-
x	3278275	3279090	+
x	3279342	3279148	-
x	3279318	3279148	-
x	3280434	3280360	-
x	3280547	3280897	+
x	3280571	3280897	+
x	3281954	3282319	+
x	3282358	3283182	+
x	3282526	3283182	+
x	3282640	3283182	+
x	3285639	3286397	+
x	3285702	3286397	+
x	3286432	3287463	+
x	3287712	3287506	-
x	3295519	3292568	-
x	3294739	3292568	-
x	3295480	3292568	-
x	3296934	3296749	-
x	3296955	3296749	-
x	3298916	3298999	+
x	3299059	3298940	-
x	3299889	3299077	-
x	3299901	3299077	-
x	3300359	3299988	-
x	3301540	3301091	-
x	3302042	3302176	+
x	3302054	3302176	+
x	3306606	3306319	-
x	3308770	3308621	-
x	3308633	3308755	+
x	3315147	3315034	-
x	3315119	3315325	+
x	3315150	3316640	+
x	3315261	3316640	+
x	3315351	3316640	+
x	3316624	3317034	+
x	3317121	3317303	+
x	3318364	3321492	+
x	3321929	3321789	-
x	3327203	3326907	-
x	3331672	3330506	-
x	3331691	3332230	+
x	3333078	3334064	+
x	3334117	3334254	+
x	3340571	3339096	-
x	3340991	3342289	+
x	3342404	3343195	+
x	3343220	3343351	+
x	3344221	3344589	+
x	3344669	3344574	-
x	3344721	3345104	+
x	3345381	3345854	+
x	3346239	3346721	+
x	3346317	3346721	+
x	3346770	3347777	+
x	3348050	3348436	+
x	3348529	3348621	+
x	3350673	3350548	-
x	3350804	3350974	+
x	3350807	3350974	+
x	3353777	3352446	-
x	3355422	3354052	-
x	3355350	3354052	-
x	3355940	3355488	-
x	3355925	3355488	-
x	3358371	3358219	-
x	3359427	3358219	-
x	3363009	3363365	+
x	3363021	3363365	+
x	3363584	3363447	-
x	3363600	3364160	+
x	3365430	3365594	+
x	3365601	3365449	-
x	3365487	3365594	+
x	3365759	3365866	+
x	3365872	3365979	+
x	3366026	3365922	-
x	3365985	3366464	+
x	3366015	3366464	+
x	3367537	3366392	-
x	3367555	3366392	-
x	3368518	3367634	-
x	3368533	3367634	-
x	3370638	3369340	-
x	3370661	3370774	+
x	3370695	3370820	+
x	3370883	3371002	+
x	3372120	3372620	+
x	3372964	3373104	+
x	3373889	3373623	-
x	3374365	3374667	+
x	3375948	3376457	+
x	3376468	3376869	+
x	3377510	3377644	+
x	3380680	3381255	+
x	3381164	3382036	+
x	3381176	3382036	+
x	3382091	3382792	+
x	3382283	3382792	+
x	3383878	3384552	+
x	3384506	3387097	+
x	3386910	3388199	+
x	3387240	3388199	+
x	3387849	3388199	+
x	3391287	3391556	+
x	3391550	3391425	-
x	3394658	3393978	-
x	3394699	3395259	+
x	3397067	3396519	-
x	3397146	3397033	-
x	3397225	3398247	+
x	3398238	3399134	+
x	3401500	3400340	-
x	3401600	3401737	+
x	3403693	3401738	-
x	3403678	3401738	-
x	3403700	3403620	-
x	3403764	3403922	+
x	3403767	3403922	+
x	3406935	3404800	-
x	3407022	3404800	-
x	3408963	3408544	-
x	3411638	3413107	+
x	3413785	3413321	-
x	3413779	3413321	-
x	3413743	3413321	-
x	3413956	3414318	+
x	3414196	3414318	+
x	3417398	3415755	-
x	3416486	3415755	-
x	3417272	3415755	-
x	3417413	3415755	-
x	3417776	3417552	-
x	3418320	3417940	-
x	3420723	3419830	-
x	3420744	3419830	-
x	3422711	3420768	-
x	3422671	3422805	+
x	3423275	3422802	-
x	3423789	3423487	-
x	3424467	3424006	-
x	3426212	3426352	+
x	3426232	3426327	+
x	3428716	3428841	+
x	3428856	3429425	+
x	3428880	3429425	+
x	3432261	3431002	-
x	3432585	3432316	-
x	3432382	3432723	+
x	3433002	3432730	-
x	3433119	3432730	-
x	3433011	3433646	+
x	3434243	3433677	-
x	3436804	3437019	+
x	3437012	3438019	+
x	3439126	3439704	+
x	3439183	3439704	+
x	3442321	3442836	+
x	3446235	3445573	-
x	3449754	3448888	-
x	3449850	3448888	-
x	3449967	3449863	-
x	3450384	3454952	+
x	3450492	3454952	+
x	3450744	3454952	+
x	3460952	3461431	+
x	3462449	3461469	-
x	3462345	3462521	+
x	3462475	3462696	+
x	3463594	3464721	+
x	3466156	3465242	-
x	3466150	3465242	-
x	3466845	3466114	-
x	3468371	3466851	-
x	3470247	3469465	-
x	3471978	3472112	+
x	3473129	3473338	+
x	3474493	3473990	-
x	3475952	3476356	+
x	3476004	3476417	+
x	3476007	3476417	+
x	3476468	3477877	+
x	3480101	3479097	-
x	3480313	3480486	+
x	3480322	3480486	+
x	3481254	3481568	+
x	3483955	3481988	-
x	3485173	3484901	-
x	3485305	3486216	+
x	3487848	3488078	+
x	3488013	3487879	-
x	3488104	3487922	-
x	3492016	3488225	-
x	3493580	3492093	-
x	3493550	3492093	-
x	3494757	3494626	-
x	3495745	3494642	-
x	3496929	3495811	-
x	3496914	3495811	-
x	3496962	3497150	+
x	3500262	3500426	+
x	3500384	3500283	-
x	3500511	3500630	+
x	3500562	3500630	+
x	3500634	3500798	+
x	3501061	3500900	-
x	3501042	3501230	+
x	3501645	3503033	+
x	3503368	3504825	+
x	3505827	3505699	-
x	3505783	3505875	+
x	3506152	3507012	+
x	3506167	3507012	+
x	3507414	3508304	+
x	3508361	3508567	+
x	3508454	3508567	+
x	3509642	3509409	-
x	3512672	3513904	+
x	3513137	3513904	+
x	3514051	3513761	-
x	3514604	3514780	+
x	3515883	3517082	+
x	3517089	3518195	+
x	3519270	3519593	+
x	3520460	3520687	+
x	3522022	3522327	+
x	3523408	3523088	-
x	3523453	3523088	-
x	3524787	3525557	+
x	3524974	3524810	-
x	3525706	3525533	-
x	3527227	3526610	-
x	3527492	3527187	-
x	3527705	3527187	-
x	3532285	3533661	+
x	3537512	3537892	+
x	3540463	3541014	+
x	3541065	3541688	+
x	3541773	3542330	+
x	3543416	3543970	+
x	3544517	3544933	+
x	3545650	3544949	-
x	3545650	3546057	+
x	3546277	3547203	+
x	3547131	3547712	+
x	3547412	3548047	+
x	3547983	3548684	+
x	3552132	3554096	+
x	3554604	3555587	+
x	3555785	3556780	+
x	3557702	3558118	+
x	3557759	3558118	+
x	3559123	3559674	+
x	3559686	3560852	+
x	3560825	3561310	+
x	3561286	3561047	-
x	3562924	3562808	-
x	3565863	3565705	-
x	3567141	3565912	-
x	3569861	3570322	+
x	3570319	3569945	-
x	3570379	3569945	-
x	3572219	3571485	-
x	3576925	3576374	-
x	3581665	3581880	+
x	3582570	3584660	+
x	3584597	3584716	+
x	3587611	3587492	-
x	3588354	3588208	-
x	3589825	3589649	-
x	3593022	3593576	+
x	3595626	3597014	+
x	3597014	3598057	+
x	3599285	3599719	+
x	3599753	3600550	+
x	3601322	3600702	-
x	3603507	3603115	-
x	3607231	3606827	-
x	3608054	3607206	-
x	3608382	3608137	-
x	3608261	3608371	+
x	3615032	3614310	-
x	3614987	3614310	-
x	3616440	3615232	-
x	3616365	3615232	-
x	3616392	3615232	-
x	3616822	3616382	-
x	3616825	3616382	-
x	3616922	3616776	-
x	3618545	3617739	-
x	3618614	3621190	+
x	3621344	3621156	-
x	3622117	3622239	+
x	3622120	3622239	+
x	3622248	3624371	+
x	3624391	3625104	+
x	3625535	3626419	+
x	3628331	3628212	-
x	3628340	3628212	-
x	3628413	3628282	-
x	3628516	3630207	+
x	3632626	3632441	-
x	3632543	3633055	+
x	3633155	3635473	+
x	3633251	3635473	+
x	3636162	3638495	+
x	3638486	3638731	+
x	3638934	3639812	+
x	3639219	3639812	+
x	3639240	3639812	+
x	3640495	3640644	+
x	3640586	3641332	+
x	3640601	3641332	+
x	3642218	3642310	+
x	3648601	3648500	-
x	3648720	3648601	-
x	3652619	3651600	-
x	3652164	3653285	+
x	3657214	3656390	-
x	3657615	3657265	-
x	3657766	3659286	+
x	3659462	3659307	-
x	3659442	3659314	-
x	3659682	3659801	+
x	3665132	3663801	-
x	3665117	3663801	-
x	3672556	3671489	-
x	3672754	3671489	-
x	3673321	3672833	-
x	3673324	3672833	-
x	3673381	3672833	-
x	3672887	3673519	+
x	3674464	3673499	-
x	3674572	3674721	+
x	3676418	3676672	+
x	3676484	3676672	+
x	3676520	3676672	+
x	3676883	3676596	-
x	3676791	3676630	-
x	3677221	3677394	+
x	3678806	3679222	+
x	3678845	3679222	+
x	3679222	3679434	+
x	3679299	3679526	+
x	3679571	3679948	+
x	3679739	3679948	+
x	3680163	3680327	+
x	3680172	3680327	+
x	3682618	3680849	-
x	3680962	3680849	-
x	3684987	3683878	-
x	3688425	3688309	-
x	3688432	3688328	-
x	3688337	3688405	+
x	3688372	3688503	+
x	3689217	3688492	-
x	3689193	3688492	-
x	3693382	3692219	-
x	3693355	3693501	+
x	3693617	3693480	-
x	3694145	3694267	+
x	3694163	3694267	+
x	3695483	3694323	-
x	3697881	3696796	-
x	3700624	3701016	+
x	3700744	3701016	+
x	3704480	3704782	+
x	3705669	3706280	+
x	3705681	3706280	+
x	3707534	3706284	-
x	3707543	3706284	-
x	3707552	3708682	+
x	3707588	3708682	+
x	3709410	3709234	-
x	3711934	3712053	+
x	3713480	3712716	-
x	3716187	3719195	+
x	3717171	3719195	+
x	3717726	3719195	+
x	3717972	3719195	+
x	3719182	3719550	+
x	3719655	3719900	+
x	3720161	3721282	+
x	3720209	3721282	+
x	3720239	3721282	+
x	3720317	3721282	+
x	3720425	3721282	+
x	3720929	3721282	+
x	3721094	3721282	+
x	3722655	3721447	-
x	3722574	3721447	-
x	3725255	3722571	-
x	3726370	3725303	-
x	3726494	3726363	-
x	3726546	3726433	-
x	3730226	3728988	-
x	3730410	3730213	-
x	3730510	3731661	+
x	3730637	3730539	-
x	3730567	3731661	+
x	3731741	3731409	-
x	3731853	3731755	-
x	3735076	3734933	-
x	3734962	3735090	+
x	3735434	3735153	-
x	3736675	3736496	-
x	3738963	3738148	-
x	3739005	3738148	-
x	3738942	3738148	-
x	3740989	3738908	-
x	3741102	3741995	+
x	3743601	3743473	-
x	3743622	3743473	-
x	3743589	3743473	-
x	3743578	3743757	+
x	3743584	3743757	+
x	3744031	3743870	-
x	3744193	3744101	-
x	3746485	3746649	+
x	3746542	3746649	+
x	3746854	3746961	+
x	3748930	3747950	-
x	3748826	3749002	+
x	3749299	3749481	+
x	3749696	3750295	+
x	3750336	3750512	+
x	3751682	3751023	-
x	3751598	3751023	-
x	3752072	3751734	-
x	3752790	3753335	+
x	3754056	3754661	+
x	3754940	3754662	-
x	3754705	3754998	+
x	3754711	3754998	+
x	3755070	3754978	-
x	3755094	3754978	-
x	3760566	3760459	-
x	3761230	3761382	+
x	3761833	3761663	-
x	3763411	3761948	-
x	3763240	3761948	-
x	3763855	3763559	-
x	3765137	3765256	+
x	3768182	3769081	+
x	3774118	3772058	-
x	3774802	3774188	-
x	3774958	3774188	-
x	3774823	3774188	-
x	3774839	3776116	+
x	3774909	3775103	+
x	3774924	3775103	+
x	3774968	3776116	+
x	3775150	3775028	-
x	3779215	3777929	-
x	3779141	3779317	+
x	3779219	3779317	+
x	3781353	3779398	-
x	3781386	3779398	-
x	3782337	3781468	-
x	3784890	3781468	-
x	3784476	3781468	-
x	3786020	3784923	-
x	3786035	3784923	-
x	3788339	3786036	-
x	3788345	3786036	-
x	3788312	3786036	-
x	3788462	3786036	-
x	3791052	3788386	-
x	3791537	3791001	-
x	3791729	3791001	-
x	3792226	3793797	+
x	3792238	3793797	+
x	3792292	3793797	+
x	3793797	3793985	+
x	3795990	3795748	-
x	3796023	3795748	-
x	3795915	3795748	-
x	3795945	3795748	-
x	3795930	3796115	+
x	3796130	3796020	-
x	3796181	3796020	-
x	3796268	3797602	+
x	3801521	3801865	+
x	3801576	3801803	+
x	3801645	3801803	+
x	3801716	3801865	+
x	3801830	3801744	-
x	3803662	3803817	+
x	3804333	3803977	-
x	3804306	3803977	-
x	3806108	3804384	-
x	3807652	3806399	-
x	3808540	3807836	-
x	3807943	3807836	-
x	3808527	3809255	+
x	3811994	3809661	-
x	3811880	3809661	-
x	3812822	3812947	+
x	3812898	3813884	+
x	3814764	3813934	-
x	3814913	3814761	-
x	3814799	3814948	+
x	3820918	3820007	-
x	3821285	3821013	-
x	3821538	3822482	+
x	3822964	3822524	-
x	3823360	3823007	-
x	3823390	3823007	-
x	3826377	3825043	-
x	3826585	3826448	-
x	3826653	3827723	+
x	3827184	3827723	+
x	3829344	3830501	+
x	3830413	3830589	+
x	3831041	3831757	+
x	3832525	3831953	-
x	3832927	3833100	+
x	3835200	3836558	+
x	3836656	3836555	-
x	3836562	3836690	+
x	3837188	3836709	-
x	3836733	3837077	+
x	3838096	3837284	-
x	3838426	3839331	+
x	3839382	3839810	+
x	3844799	3845692	+
x	3847222	3846728	-
x	3850071	3850190	+
x	3850142	3850354	+
x	3850190	3850354	+
x	3852201	3850573	-
x	3856849	3855458	-
x	3857554	3857697	+
x	3857783	3861916	+
x	3859010	3861916	+
x	3859994	3861916	+
x	3860549	3861916	+
x	3860795	3861916	+
x	3861068	3861916	+
x	3861074	3861916	+
x	3862827	3863522	+
x	3864420	3864578	+
x	3864459	3864578	+
x	3864945	3865280	+
x	3867370	3867462	+
x	3869834	3869968	+
x	3870009	3871172	+
x	3872558	3872184	-
x	3872978	3874654	+
x	3874639	3875430	+
x	3879240	3879725	+
x	3879857	3880069	+
x	3880298	3880140	-
x	3880627	3880184	-
x	3880639	3880836	+
x	3880716	3882404	+
x	3880833	3882404	+
x	3882414	3883697	+
x	3883827	3884660	+
x	3889298	3888426	-
x	3899737	3898658	-
x	3903734	3902664	-
x	3906766	3907041	+
x	3907364	3907486	+
x	3908135	3907491	-
x	3908165	3907491	-
x	3908259	3909551	+
x	3909529	3909987	+
x	3910052	3910690	+
x	3911383	3910727	-
x	3912150	3911434	-
x	3912174	3911434	-
x	3913297	3913187	-
x	3913349	3914185	+
x	3914421	3915092	+
x	3916777	3915089	-
x	3916606	3915089	-
x	3916774	3915089	-
x	3916895	3916632	-
x	3916972	3917652	+
x	3917116	3917652	+
x	3920784	3922898	+
x	3924543	3925943	+
x	3926040	3927773	+
x	3930112	3930252	+
x	3931593	3930154	-
x	3931581	3930154	-
x	3932029	3932178	+
x	3932032	3932178	+
x	3932463	3932597	+
x	3933792	3933607	-
x	3933801	3933607	-
x	3933813	3933607	-
x	3935698	3935817	+
x	3937346	3936156	-
x	3937394	3936156	-
x	3938036	3937557	-
x	3938391	3938062	-
x	3939474	3938062	-
x	3939408	3938062	-
x	3938487	3938062	-
x	3944234	3942912	-
x	3945746	3944241	-
x	3945734	3944241	-
x	3945756	3945643	-
x	3946507	3946409	-
x	3948375	3948872	+
x	3948390	3948872	+
x	3948582	3948872	+
x	3948869	3949027	+
x	3949050	3949163	+
x	3949372	3949124	-
x	3949160	3949249	+
x	3949329	3949502	+
x	3949523	3950713	+
x	3949562	3950713	+
x	3952925	3952518	-
x	3955890	3956783	+
x	3956956	3956780	-
x	3957594	3956956	-
x	3958079	3957594	-
x	3959210	3958104	-
x	3959471	3958104	-
x	3961904	3960219	-
x	3961910	3962029	+
x	3961922	3962029	+
x	3962510	3962076	-
x	3962477	3962076	-
x	3963035	3962616	-
x	3963320	3963228	-
x	3963260	3963667	+
x	3963447	3963289	-
x	3963407	3963667	+
x	3964919	3963669	-
x	3964916	3963669	-
x	3964851	3964979	+
x	3964963	3966048	+
x	3964966	3966048	+
x	3964984	3966048	+
x	3967364	3966045	-
x	3967382	3966045	-
x	3970940	3971701	+
x	3973081	3972674	-
x	3973205	3973306	+
x	3975729	3973312	-
x	3975726	3973312	-
x	3979348	3977933	-
x	3979267	3977933	-
x	3979336	3977933	-
x	3979830	3979630	-
x	3979990	3979850	-
x	3980133	3980459	+
x	3980482	3980147	-
x	3980555	3980680	+
x	3984322	3985752	+
x	3985888	3987090	+
x	3988363	3989331	+
x	3988429	3989331	+
x	3989488	3990237	+
x	3996217	3995015	-
x	3996109	3995015	-
x	3996184	3995015	-
x	4001279	3999327	-
x	4000429	4000569	+
x	4000438	4000569	+
x	4002168	4001338	-
x	4002198	4001338	-
x	4002240	4002362	+
x	4003203	4002460	-
x	4003233	4004012	+
x	4005040	4004156	-
x	4009275	4007446	-
x	4010948	4010862	-
x	4011573	4011160	-
x	4013932	4015611	+
x	4014028	4015611	+
x	4015651	4016388	+
x	4015717	4016388	+
x	4018059	4017667	-
x	4017885	4017667	-
x	4025186	4023759	-
x	4026724	4025204	-
x	4026700	4025204	-
x	4028946	4029377	+
x	4031879	4032775	+
x	4031891	4032775	+
x	4032874	4033830	+
x	4032886	4033830	+
x	4033834	4034772	+
x	4033843	4034772	+
x	4034143	4034772	+
x	4035511	4034606	-
x	4035148	4034606	-
x	4035262	4034606	-
x	4035430	4034606	-
x	4035834	4035469	-
x	4035879	4035469	-
x	4037531	4036128	-
x	4038126	4037578	-
x	4038606	4038493	-
x	4038691	4038566	-
x	4039827	4040192	+
x	4039872	4040192	+
x	4041175	4040870	-
x	4042737	4042510	-
x	4044667	4044071	-
x	4046477	4045392	-
x	4046912	4045392	-
x	4047118	4046933	-
x	4049147	4049407	+
x	4050421	4052271	+
x	4054847	4053870	-
x	4057230	4056955	-
x	4057403	4057185	-
x	4057605	4059641	+
x	4061181	4059688	-
x	4062599	4063033	+
x	4062650	4063033	+
x	4063090	4062698	-
x	4063288	4064619	+
x	4064629	4064847	+
x	4064653	4064847	+
x	4064874	4065962	+
x	4065971	4067020	+
x	4066037	4067020	+
x	4067034	4068206	+
x	4071479	4072084	+
x	4071539	4072084	+
x	4074512	4074420	-
x	4077808	4077710	-
x	4079871	4081136	+
x	4082847	4083002	+
x	4083230	4083093	-
x	4086009	4084828	-
x	4087730	4086768	-
x	4087724	4086768	-
x	4088191	4087862	-
x	4088096	4090642	+
x	4088147	4090642	+
x	4088153	4090642	+
x	4091117	4091278	+
x	4091702	4092529	+
x	4094872	4097088	+
x	4097991	4098125	+
x	4098012	4098125	+
x	4098354	4099319	+
x	4099200	4099319	+
x	4099962	4099756	-
x	4100172	4099756	-
x	4101658	4101173	-
x	4102686	4102847	+
x	4102801	4104636	+
x	4104706	4105320	+
x	4104952	4105320	+
x	4105798	4105382	-
x	4106001	4106186	+
x	4107026	4107943	+
x	4107080	4107943	+
x	4108019	4108918	+
x	4108780	4108025	-
x	4113178	4112297	-
x	4113360	4113244	-
x	4113368	4114135	+
x	4113485	4114135	+
x	4114223	4114381	+
x	4114291	4115703	+
x	4116522	4117172	+
x	4116537	4117172	+
x	4118846	4119157	+
x	4119239	4119676	+
x	4120485	4121279	+
x	4123437	4124171	+
x	4124441	4124226	-
x	4124263	4124361	+
x	4124270	4124368	+
x	4124361	4124459	+
x	4124368	4124466	+
x	4128040	4125725	-
x	4129432	4130049	+
x	4132329	4132216	-
x	4132414	4132289	-
x	4133550	4133915	+
x	4133595	4133915	+
x	4134990	4134685	-
x	4136553	4136311	-
x	4137747	4137421	-
x	4138376	4137849	-
x	4138933	4138358	-
x	4138982	4139281	+
x	4139092	4138991	-
x	4141012	4141152	+
x	4141100	4142572	+
x	4143518	4142613	-
x	4143569	4142613	-
x	4143457	4143609	+
x	4143784	4143665	-
x	4143850	4143665	-
x	4143907	4143665	-
x	4147062	4146913	-
x	4147056	4146913	-
x	4147708	4147076	-
x	4147675	4147076	-
x	4147867	4147727	-
x	4147980	4147744	-
x	4147926	4147744	-
x	4148005	4148082	+
x	4148321	4148175	-
x	4148989	4148873	-
x	4148982	4150361	+
x	4150501	4150358	-
x	4150700	4150590	-
x	4152281	4150812	-
x	4152230	4150812	-
x	4155189	4154956	-
x	4155077	4154967	-
x	4155257	4155105	-
x	4158210	4159088	+
x	4162715	4161306	-
x	4164137	4162752	-
x	4164170	4162752	-
x	4166357	4166569	+
x	4166386	4166661	+
x	4166434	4166661	+
x	4166580	4167083	+
x	4166706	4167083	+
x	4166874	4167083	+
x	4168106	4167195	-
x	4168097	4167195	-
x	4171453	4172355	+
x	4172365	4173174	+
x	4173252	4173872	+
x	4173959	4174738	+
x	4175217	4176158	+
x	4176569	4176676	+
x	4176833	4176729	-
x	4176984	4177229	+
x	4177017	4177229	+
x	4177447	4177689	+
x	4177689	4177871	+
x	4177854	4177705	-
x	4177839	4177705	-
x	4177725	4177871	+
x	4177745	4177900	+
x	4182906	4180492	-
x	4183542	4182955	-
x	4183546	4183800	+
x	4183769	4184569	+
x	4185445	4185777	+
x	4190092	4188635	-
x	4190543	4190097	-
x	4190720	4190568	-
x	4190843	4190733	-
x	4192082	4192174	+
x	4192174	4192266	+
x	4192266	4192358	+
x	4193708	4192443	-
x	4195247	4195396	+
x	4195316	4195396	+
x	4196255	4197214	+
x	4196366	4197214	+
x	4198002	4197211	-
x	4198524	4199150	+
x	4199307	4199191	-
x	4199325	4199432	+
x	4199401	4200393	+
x	4199404	4200393	+
x	4200512	4201216	+
x	4200527	4201216	+
x	4203537	4204040	+
x	4205141	4205037	-
x	4205176	4206234	+
x	4205212	4206234	+
x	4206383	4206231	-
x	4206403	4206260	-
x	4206274	4206471	+
x	4207277	4207543	+
x	4207458	4208405	+
x	4207461	4208405	+
x	4207680	4208405	+
x	4213428	4212289	-
x	4215047	4213434	-
x	4214963	4213434	-
x	4214879	4213434	-
x	4215651	4214965	-
x	4216047	4216148	+
x	4216217	4216480	+
x	4216241	4216480	+
x	4216622	4217128	+
x	4218081	4217143	-
x	4220954	4220100	-
x	4222182	4221151	-
x	4222143	4221151	-
x	4222142	4222258	+
x	4224602	4222332	-
x	4224855	4224715	-
x	4225627	4225743	+
x	4225657	4225743	+
x	4225763	4225668	-
x	4226253	4225798	-
x	4226019	4225798	-
x	4226278	4227552	+
x	4226338	4227552	+
x	4230260	4230126	-
x	4231516	4233735	+
x	4235608	4235489	-
x	4236794	4235652	-
x	4239575	4237440	-
x	4239550	4240041	+
x	4239577	4240041	+
x	4241009	4241329	+
x	4241703	4241467	-
x	4243909	4244856	+
x	4244017	4244856	+
x	4244795	4245199	+
x	4252606	4251416	-
x	4253700	4254509	+
x	4253733	4254509	+
x	4258444	4257110	-
x	4258787	4259491	+
x	4261314	4263203	+
x	4261317	4263203	+
x	4263136	4264005	+
x	4263217	4264005	+
x	4264234	4264121	-
x	4264319	4264194	-
x	4265455	4265820	+
x	4265500	4265820	+
x	4266889	4266584	-
x	4268451	4268224	-
x	4269644	4269318	-
x	4272902	4271796	-
x	4272722	4271796	-
x	4272767	4271796	-
x	4272729	4272923	+
x	4272964	4272803	-
x	4277113	4276112	-
x	4278770	4278264	-
x	4278704	4278264	-
x	4278931	4282992	+
x	4290399	4289584	-
x	4290429	4289584	-
x	4290612	4289584	-
x	4290369	4289584	-
x	4291310	4290540	-
x	4291388	4290540	-
x	4291277	4290540	-
x	4291926	4291288	-
x	4295419	4295318	-
x	4298279	4298980	+
x	4298345	4298980	+
x	4299548	4298982	-
x	4299538	4299410	-
x	4305354	4305205	-
x	4305369	4305491	+
x	4306942	4307307	+
x	4306987	4307307	+
x	4308290	4307985	-
x	4309852	4309625	-
x	4310917	4311336	+
x	4313179	4314798	+
x	4314813	4316132	+
x	4316281	4316129	-
x	4316201	4316302	+
x	4321386	4320523	-
x	4321298	4321402	+
x	4321532	4325230	+
x	4325525	4327081	+
x	4331471	4333126	+
x	4333854	4333606	-
x	4333609	4333818	+
x	4333951	4334619	+
x	4334691	4335353	+
x	4337453	4337614	+
x	4337462	4337614	+
x	4337774	4337496	-
x	4337775	4337918	+
x	4342809	4341250	-
x	4342784	4342906	+
x	4344326	4344231	-
x	4344413	4345618	+
x	4345693	4347030	+
x	4347159	4347058	-
x	4347264	4348193	+
x	4348320	4348168	-
x	4348422	4348616	+
x	4348707	4350002	+
x	4350114	4350722	+
x	4350120	4350722	+
x	4354245	4351762	-
x	4354393	4353995	-
x	4355515	4356840	+
x	4356950	4357165	+
x	4357782	4357207	-
x	4358285	4359025	+
x	4358702	4359025	+
x	4359081	4359206	+
x	4359382	4360425	+
x	4359406	4360425	+
x	4359433	4360425	+
x	4360349	4360801	+
x	4360382	4360801	+
x	4360577	4360801	+
x	4362058	4360967	-
x	4364791	4366026	+
x	4366731	4366528	-
x	4371590	4368768	-
x	4371781	4372380	+
x	4371787	4372380	+
x	4372420	4372515	+
x	4372859	4372479	-
x	4372829	4372479	-
x	4372847	4372981	+
x	4373181	4374776	+
x	4373190	4374776	+
x	4374444	4374776	+
x	4375639	4375905	+
x	4375968	4375855	-
x	4376161	4375943	-
x	4377525	4377656	+
x	4382935	4382618	-
x	4383060	4382932	-
x	4387202	4387414	+
x	4387231	4387506	+
x	4387279	4387506	+
x	4387425	4387928	+
x	4387551	4387928	+
x	4387719	4387928	+
x	4389984	4391666	+
x	4389987	4391666	+
x	4390044	4391666	+
x	4390059	4391666	+
x	4391973	4392635	+
x	4392897	4392769	-
x	4392900	4392769	-
x	4397283	4395604	-
x	4397329	4397715	+
x	4397751	4397332	-
x	4397813	4397926	+
x	4401322	4399412	-
x	4402788	4402513	-
x	4402836	4402513	-
x	4403024	4402905	-
x	4404994	4402997	-
x	4406869	4406168	-
x	4407581	4406874	-
x	4408450	4407833	-
x	4411409	4410486	-
x	4411379	4410486	-
x	4412603	4412277	-
x	4413818	4413489	-
x	4416379	4415600	-
x	4417179	4416391	-
x	4418075	4417146	-
x	4417248	4417919	+
x	4419054	4417984	-
x	4420816	4420082	-
x	4421678	4421046	-
x	4421615	4421046	-
x	4421669	4421046	-
x	4421666	4421046	-
x	4421654	4421046	-
x	4421610	4421759	+
x	4423488	4423598	+
x	4423500	4423598	+
x	4424417	4424217	-
x	4424241	4424351	+
x	4424517	4424317	-
x	4424341	4424451	+
x	4424617	4424417	-
x	4424441	4424551	+
x	4424717	4424517	-
x	4424541	4424651	+
x	4424724	4424617	-
x	4425266	4424784	-
x	4425197	4424784	-
x	4425091	4425303	+
x	4427778	4428623	+
x	4428854	4430389	+
x	4431666	4430566	-
x	4434005	4432332	-
x	4434020	4432332	-
x	4436314	4435553	-
x	4436408	4436271	-
x	4436550	4436446	-
x	4438906	4436639	-
x	4438909	4436639	-
x	4440012	4440206	+
x	4441730	4443175	+
x	4441754	4443175	+
x	4442006	4443175	+
x	4448419	4447700	-
x	4450039	4450173	+
x	4451059	4451265	+
x	4451476	4451619	+
x	4453129	4451585	-
x	4457041	4454855	-
x	4457008	4454855	-
x	4460606	4460824	+
x	4461109	4461228	+
x	4461717	4461118	-
x	4463199	4461730	-
x	4463508	4461730	-
x	4463747	4463403	-
x	4465065	4463857	-
x	4464972	4463857	-
x	4466757	4465276	-
x	4466864	4466748	-
x	4467148	4467525	+
x	4468857	4467541	-
x	4469263	4468940	-
x	4469387	4469070	-
x	4471161	4471547	+
x	4471580	4471684	+
x	4472983	4472846	-
x	4474042	4473014	-
x	4474686	4474132	-
x	4474794	4474696	-
x	4474705	4474827	+
x	4475174	4474992	-
x	4475110	4475577	+
x	4475197	4475577	+
x	4477458	4476196	-
x	4477362	4476196	-
x	4477781	4477392	-
x	4478902	4478168	-
x	4478893	4478168	-
x	4480998	4482005	+
x	4482182	4483726	+
x	4482269	4483726	+
x	4484101	4484403	+
x	4487675	4488700	+
x	4487819	4488700	+
x	4489927	4488842	-
x	4489855	4488842	-
x	4489845	4490534	+
x	4489872	4490534	+
x	4489920	4490534	+
x	4489935	4490534	+
x	4490569	4490700	+
x	4491136	4490756	-
x	4492299	4491313	-
x	4492560	4491313	-
x	4492497	4491313	-
x	4492430	4493998	+
x	4492466	4493998	+
x	4493973	4494431	+
x	4494210	4494431	+
x	4494435	4495787	+
x	4495544	4495443	-
x	4495794	4497644	+
x	4499126	4500337	+
x	4503045	4502941	-
x	4503291	4504370	+
x	4504997	4507480	+
x	4507523	4507660	+
x	4510283	4510762	+
x	4510788	4510681	-
x	4510895	4511410	+
x	4511656	4512576	+
x	4512642	4514285	+
x	4512645	4514285	+
x	4514689	4514402	-
x	4514704	4514402	-
x	4515254	4514826	-
x	4518016	4516946	-
x	4518308	4519762	+
x	4520094	4519759	-
x	4519772	4520083	+
x	4520431	4520099	-
x	4520418	4521221	+
x	4520532	4521221	+
x	4521245	4520577	-
x	4521342	4522085	+
x	4522037	4522771	+
x	4523260	4523379	+
x	4523784	4523401	-
x	4523905	4524219	+
x	4524954	4524466	-
x	4527138	4526464	-
x	4527033	4526464	-
x	4527161	4527940	+
x	4529679	4530314	+
x	4531441	4530476	-
x	4532387	4532878	+
x	4532408	4532878	+
x	4534959	4533007	-
x	4533243	4533007	-
x	4535140	4535880	+
x	4537906	4538178	+
x	4537933	4538178	+
x	4540627	4539923	-
x	4540588	4539923	-
x	4540669	4540797	+
x	4546543	4546361	-
x	4546826	4547083	+
x	4547113	4547427	+
x	4548036	4548176	+
x	4548174	4548049	-
x	4548195	4548049	-
x	4551136	4551657	+
x	4551654	4552505	+
x	4553429	4554409	+
x	4553438	4554409	+
x	4555503	4555634	+
x	4557802	4559142	+
x	4559565	4559191	-
x	4559384	4559686	+
x	4560293	4560195	-
x	4560324	4560241	-
x	4560244	4560339	+
x	4562531	4562653	+
x	4562913	4562737	-
x	4566008	4564590	-
x	4567082	4567315	+
x	4567127	4567315	+
x	4570316	4570233	-
x	4570816	4570358	-
x	4570783	4570358	-
x	4570451	4570915	+
x	4572379	4572230	-
x	4572421	4572230	-
x	4572391	4572230	-
x	4572540	4572403	-
x	4572572	4572468	-
x	4572494	4572676	+
x	4572998	4573156	+
x	4574058	4574222	+
x	4574294	4574548	+
x	4574548	4574676	+
x	4574684	4575145	+
x	4579158	4578865	-
x	4579534	4580757	+
x	4586135	4586007	-
x	4586070	4587149	+
x	4587146	4588231	+
x	4591000	4589972	-
x	4596082	4595021	-
x	4596318	4596115	-
x	4596342	4596115	-
x	4596321	4596115	-
x	4598103	4598468	+
x	4598507	4599331	+
x	4598675	4599331	+
x	4598789	4599331	+
x	4600730	4600263	-
x	4600865	4601059	+
x	4601113	4601334	+
x	4601763	4601906	+
x	4602293	4601934	-
x	4603280	4601934	-
x	4606279	4606404	+
x	4606852	4606457	-
x	4606807	4606457	-
x	4606687	4606457	-
x	4606692	4606940	+
x	4606992	4607294	+
x	4608226	4607297	-
x	4608331	4607297	-
x	4608773	4608405	-
x	4609382	4609624	+
x	4609707	4609964	+
x	4611092	4611256	+
x	4612275	4611289	-
x	4612755	4611289	-
x	4614145	4613237	-
x	4618329	4618541	+
x	4618406	4618633	+
x	4618552	4618845	+
x	4618660	4618845	+
x	4618678	4618845	+
x	4618846	4619055	+
x	4620446	4620255	-
x	4634506	4634375	-
x	4634846	4635862	+
x	4635401	4635862	+
x	4638704	4637490	-
x	4639341	4638616	-
x	4639164	4638616	-
x	4639571	4639699	+
x	4639701	4639850	+
x	4640135	4639998	-
x	4640527	4640261	-
x	4640398	4640261	-
x	4641810	4640602	-
x	4641729	4640602	-
x	4643926	4641914	-
x	4643887	4641914	-
x	4644671	4644180	-
x	4644677	4644180	-
x	4646576	4646109	-
x	4646597	4646109	-
x	4646582	4646109	-
x	4647397	4646573	-
x	4647406	4646573	-
x	4648037	4648687	+
x	4648645	4649322	+
x	4648795	4649322	+
x	4650178	4650525	+
x	4650250	4650525	+
x	4655125	4653635	-
x	4653823	4653975	+
x	4653872	4655488	+
x	4655803	4656486	+
x	4656540	4655848	-
x	4655887	4656486	+
x	4656583	4656774	+
x	4656613	4656774	+
x	4656860	4657969	+
x	4658788	4658997	+
x	4658795	4658896	+
x	4658972	4658823	-
x	4658889	4658990	+
x	4658896	4658997	+
x	4659073	4658924	-
x	4658997	4659098	+
x	4661526	4661651	+
x	4661602	4661703	+
x	4661784	4662587	+
x	4662843	4664036	+
x	4665311	4666087	+
x	4669242	4670348	+
x	4670349	4671779	+
x	4671779	4673032	+
x	4673066	4673233	+
x	4673084	4673233	+
x	4674981	4675109	+
x	4675191	4677155	+
x	4675251	4677155	+
x	4677275	4677571	+
x	4678239	4677718	-
