x	333	133	-
x	190	255	+
x	294	2798	+
x	342	2798	+
x	5087	5236	+
x	5233	5529	+
x	5242	5529	+
x	5938	5309	-
x	6590	6036	-
x	6497	6036	-
x	6521	6769	+
x	6539	6769	+
x	6581	6769	+
x	6784	6882	+
x	9453	10469	+
x	10581	11171	+
x	12099	12623	+
x	12108	12623	+
x	13271	13134	-
x	15435	13399	-
x	15416	16576	+
x	16674	16961	+
x	16814	16680	-
x	16832	16680	-
x	16889	16680	-
x	18626	19549	+
x	18644	19549	+
x	20367	19588	-
x	20115	19588	-
x	20013	19588	-
x	20211	19588	-
x	21567	20560	-
x	20871	20560	-
x	23259	22138	-
x	22701	22138	-
x	24215	24030	-
x	29427	30422	+
x	30689	31402	+
x	32599	32432	-
x	32669	32806	+
x	32819	33994	+
x	37417	37241	-
x	37389	37889	+
x	38586	37975	-
x	39356	38571	-
x	39395	38571	-
x	41018	39465	-
x	45536	46369	+
x	45563	46369	+
x	50894	52828	+
x	52885	53499	+
x	52909	53499	+
x	54390	54743	+
x	56592	55624	-
x	60273	57952	-
x	65022	62164	-
x	64923	62164	-
x	72026	72955	+
x	72068	72955	+
x	74638	73919	-
x	76145	74601	-
x	77182	76187	-
x	79010	77334	-
x	78910	79209	+
x	78958	79209	+
x	79078	79209	+
x	80589	80774	+
x	83651	82557	-
x	85398	85312	-
x	85859	85981	+
x	85974	87002	+
x	86040	87002	+
x	87160	87038	-
x	87236	89044	+
x	87278	89044	+
x	87344	89044	+
x	89017	89538	+
x	89541	89636	+
x	89550	89636	+
x	91288	91782	+
x	91685	92725	+
x	91787	92725	+
x	92734	93087	+
x	94871	96343	+
x	94928	96343	+
x	100090	101337	+
x	101358	102401	+
x	109242	109907	+
x	109395	109907	+
x	113272	113138	-
x	113220	113417	+
x	116088	115981	-
x	120261	119326	-
x	123125	121752	-
x	123633	124430	+
x	124609	124427	-
x	129483	130910	+
x	132828	130981	-
x	133036	135786	+
x	133267	135786	+
x	135913	136323	+
x	136912	136361	-
x	138613	138143	-
x	138661	138143	-
x	138451	138143	-
x	138529	138143	-
x	138656	140206	+
x	142661	140253	-
x	142810	143385	+
x	142837	143385	+
x	142954	143385	+
x	145123	145890	+
x	148152	148274	+
x	148572	149288	+
x	150135	149362	-
x	152478	151132	-
x	154310	153699	-
x	154268	153699	-
x	158373	157765	-
x	160613	159195	-
x	161548	160652	-
x	162088	161615	-
x	163506	162967	-
x	163710	162967	-
x	163526	166000	+
x	172038	172931	+
x	177920	178297	+
x	178309	178049	-
x	183788	184963	+
x	183806	184963	+
x	189103	186608	-
x	190357	190136	-
x	190306	191229	+
x	191468	191181	-
x	192233	191181	-
x	193620	193390	-
x	193538	194059	+
x	195533	196294	+
x	196294	196446	+
x	196337	197164	+
x	196415	197164	+
x	197131	198528	+
x	201196	201597	+
x	202638	203186	+
x	202806	203186	+
x	210117	209182	-
x	212480	212896	+
x	214490	214308	-
x	214562	214308	-
x	214773	214555	-
x	217008	216616	-
x	216646	216795	+
x	217567	217106	-
x	217660	217106	-
x	217591	217839	+
x	217609	217839	+
x	217651	217839	+
x	217854	217952	+
x	218353	218042	-
x	218874	218284	-
x	218865	218284	-
x	220691	218919	-
x	221806	221453	-
x	226708	227073	+
x	226753	227073	+
x	228148	227843	-
x	229710	229483	-
x	230840	231190	+
x	233142	233921	+
x	235806	234817	-
x	236037	234817	-
x	237018	237758	+
x	237033	237758	+
x	238333	237755	-
x	238278	239018	+
x	239234	238920	-
x	240958	240479	-
x	241897	240968	-
x	241306	240968	-
x	243874	242432	-
x	247259	243795	-
x	246902	243795	-
x	248132	247338	-
x	248816	247338	-
x	249447	248755	-
x	252368	249495	-
x	256185	254884	-
x	255894	254884	-
x	257277	256189	-
x	267063	269684	+
x	269910	269752	-
x	269887	270150	+
x	270116	270283	+
x	270134	270283	+
x	270331	271077	+
x	270802	271077	+
x	271121	271321	+
x	271635	272696	+
x	271653	272696	+
x	271731	272696	+
x	271839	272696	+
x	272343	272696	+
x	272508	272696	+
x	273517	272738	-
x	273686	274135	+
x	273689	274135	+
x	276658	274178	-
x	276700	274178	-
x	276700	277440	+
x	277577	277383	-
x	277631	278413	+
x	279483	279280	-
x	280007	280780	+
x	280031	280780	+
x	280154	280780	+
x	281464	281186	-
x	281485	281186	-
x	283148	284038	+
x	283250	284038	+
x	283253	284038	+
x	283403	284038	+
x	285239	285613	+
x	285859	286998	+
x	286911	287609	+
x	287001	287609	+
x	287109	287609	+
x	289968	289603	-
x	292737	291676	-
x	321312	320902	-
x	326256	326465	+
x	326650	327126	+
x	327200	327343	+
x	327698	327369	-
x	327667	327554	-
x	327579	327719	+
x	328766	328011	-
x	328667	328011	-
x	330309	328690	-
x	334804	334262	-
x	335627	335854	+
x	336032	335889	-
x	336292	336029	-
x	336577	336416	-
x	337872	342125	+
x	342887	342246	-
x	343136	342246	-
x	343337	344221	+
x	343445	344221	+
x	344983	344381	-
x	345237	344986	-
x	346683	345331	-
x	350260	351108	+
x	351275	351063	-
x	351310	351182	-
x	351421	351558	+
x	353818	352232	-
x	353947	352232	-
x	355391	353916	-
x	355379	353916	-
x	356007	355402	-
x	355998	355402	-
x	355906	356076	+
x	356098	356310	+
x	356175	356402	+
x	356447	356824	+
x	359021	358872	-
x	359434	363483	+
x	363616	364713	+
x	365015	364755	-
x	366081	365779	-
x	366567	367139	+
x	368269	369579	+
x	369906	370997	+
x	372100	373482	+
x	373781	374191	+
x	374267	374344	+
x	374467	374351	-
x	374442	375428	+
x	375462	376961	+
x	375783	376961	+
x	375849	376961	+
x	377892	378878	+
x	378965	378810	-
x	378812	378949	+
x	381097	381261	+
x	381495	381331	-
x	381454	381729	+
x	381484	381729	+
x	381553	381729	+
x	381589	381729	+
x	382378	381746	-
x	382866	382985	+
x	384058	382937	-
x	385753	386865	+
x	391747	393045	+
x	391876	393045	+
x	395260	396441	+
x	395524	396441	+
x	402104	401022	-
x	403026	402181	-
x	403014	402181	-
x	403053	402181	-
x	405770	406699	+
x	405833	406699	+
x	406703	407518	+
x	409606	410862	+
x	411625	411759	+
x	414095	413799	-
x	413918	413799	-
x	413844	414146	+
x	414991	414260	-
x	415745	415035	-
x	415727	415035	-
x	417936	417721	-
x	418088	417909	-
x	418030	419049	+
x	419062	419793	+
x	422665	421658	-
x	423071	422802	-
x	423020	422802	-
x	424162	423338	-
x	423880	423338	-
x	423994	423338	-
x	424611	424201	-
x	425995	427398	+
x	427441	428109	+
x	429240	428110	-
x	429481	429359	-
x	429456	429599	+
x	429613	430839	+
x	432243	432377	+
x	432573	432785	+
x	433981	434184	+
x	434367	434215	-
x	434481	434215	-
x	434387	434626	+
x	434658	436142	+
x	436243	436581	+
x	438732	437815	-
x	438624	439202	+
x	440181	440378	+
x	440341	440487	+
x	441548	441432	-
x	441727	441608	-
x	442063	441755	-
x	443071	442088	-
x	443065	442088	-
x	442986	444032	+
x	442998	444032	+
x	443037	444032	+
x	445359	444175	-
x	445395	444175	-
x	449851	448625	-
x	453858	455234	+
x	455393	457207	+
x	460132	460494	+
x	460555	462369	+
x	462335	463351	+
x	464936	464004	-
x	465786	465187	-
x	466348	467433	+
x	467426	467992	+
x	468515	467982	-
x	469473	469982	+
x	469512	469982	+
x	474437	474324	-
x	476522	475926	-
x	476366	475926	-
x	477093	476479	-
x	477390	478049	+
x	477540	478049	+
x	479547	478177	-
x	479949	480884	+
x	479979	480884	+
x	481777	481466	-
x	481843	481466	-
x	482897	481962	-
x	482849	481962	-
x	483274	482864	-
x	482886	483143	+
x	483708	483193	-
x	488692	489291	+
x	489417	488737	-
x	489587	489937	+
x	489623	489937	+
x	490286	489864	-
x	489871	490134	+
x	489988	490134	+
x	491591	490290	-
x	493991	496390	+
x	502475	500760	-
x	502416	502535	+
x	502548	503378	+
x	503303	503989	+
x	503423	503989	+
x	503444	503989	+
x	505670	507565	+
x	507719	507579	-
x	507608	508084	+
x	508036	507803	-
x	510392	509448	-
x	510541	511098	+
x	510976	511098	+
x	511440	511129	-
x	511500	511129	-
x	511539	511129	-
x	511422	511760	+
x	511840	512172	+
x	513764	512214	-
x	514398	513928	-
x	515455	515237	-
x	515467	515237	-
x	515656	515237	-
x	515701	515237	-
x	520397	519573	-
x	520802	519573	-
x	520962	521555	+
x	521689	525045	+
x	526505	527110	+
x	526526	527110	+
x	529208	529552	+
x	532332	532207	-
x	532262	532966	+
x	532265	532966	+
x	539879	540064	+
x	542115	541750	-
x	543365	543706	+
x	544374	543820	-
x	549013	549345	+
x	549801	549346	-
x	550861	551541	+
x	551501	552307	+
x	553260	552370	-
x	554055	553285	-
x	554677	554084	-
x	554707	554084	-
x	554710	554084	-
x	554906	555364	+
x	557995	557873	-
x	558826	562494	+
x	561259	562494	+
x	563157	563612	+
x	563593	563865	+
x	563894	564085	+
x	564191	564039	-
x	564585	564370	-
x	565007	564600	-
x	564971	564600	-
x	566055	565087	-
x	568011	568781	+
x	568781	570652	+
x	572451	572729	+
x	574999	575463	+
x	575514	576821	+
x	576837	577988	+
x	580265	579012	-
x	583570	584571	+
x	584489	585397	+
x	584678	585397	+
x	586287	586415	+
x	588024	587488	-
x	588828	589514	+
x	591536	591793	+
x	591791	591558	-
x	593086	593661	+
x	594604	597066	+
x	597249	598232	+
x	597255	598232	+
x	598243	598758	+
x	598333	598758	+
x	598561	598758	+
x	599408	598761	-
x	599456	598761	-
x	599448	599603	+
x	599764	599642	-
x	604586	601593	-
x	607079	606870	-
x	607410	607057	-
x	607245	607057	-
x	608130	607057	-
x	608022	607057	-
x	608100	607057	-
x	608178	607057	-
x	607914	607057	-
x	608974	608723	-
x	608944	608723	-
x	608932	608723	-
x	613833	608971	-
x	611172	608971	-
x	611898	608971	-
x	610305	608971	-
x	610770	608971	-
x	618440	616980	-
x	619148	619303	+
x	625456	626868	+
x	629526	629038	-
x	629671	629471	-
x	630962	631063	+
x	631387	631118	-
x	631256	631444	+
x	631320	631508	+
x	631356	631508	+
x	631542	631676	+
x	631890	631681	-
x	631714	631947	+
x	631760	632011	+
x	631823	632011	+
x	631859	632011	+
x	632753	632133	-
x	632903	632784	-
x	635228	632928	-
x	635212	635436	+
x	635411	636613	+
x	636610	636834	+
x	636693	640712	+
x	641057	642061	+
x	644875	643859	-
x	647394	647188	-
x	647547	648734	+
x	651195	651971	+
x	654425	654673	+
x	654691	654843	+
x	657992	657420	-
x	658049	657420	-
x	659083	658022	-
x	661306	660500	-
x	661300	660500	-
x	662100	661585	-
x	662426	663991	+
x	666191	666003	-
x	666080	666541	+
x	666776	666615	-
x	667694	666870	-
x	669220	667790	-
x	670176	669304	-
x	672286	670712	-
x	672246	673019	+
x	673178	672255	-
x	674442	673504	-
x	674848	676566	+
x	676589	677215	+
x	678926	678780	-
x	679844	679677	-
x	679881	680174	+
x	680698	681492	+
x	680929	681492	+
x	683899	683099	-
x	684111	684260	+
x	684887	684312	-
x	686658	686801	+
x	686676	686801	+
x	691604	691395	-
x	691726	692016	+
x	691788	691958	+
x	692586	691972	-
x	697600	694877	-
x	698142	698279	+
x	698833	698246	-
x	698542	698246	-
x	699230	699051	-
x	703201	704340	+
x	704306	704443	+
x	707122	706154	-
x	710499	709516	-
x	710540	710701	+
x	716908	715829	-
x	717047	716928	-
x	720088	720225	+
x	720222	720341	+
x	720244	720465	+
x	720275	720364	+
x	720342	720479	+
x	720656	720474	-
x	722526	722690	+
x	726716	726051	-
x	727025	726900	-
x	727034	726900	-
x	727241	729130	+
x	731158	731000	-
x	731941	732849	+
x	733835	733749	-
x	733801	734055	+
x	734575	734045	-
x	735077	734715	-
x	735962	736642	+
x	736617	738308	+
x	741878	739680	-
x	742045	741923	-
x	742293	742189	-
x	742406	742272	-
x	742672	742568	-
x	745929	743242	-
x	746503	745919	-
x	746515	745919	-
x	750340	748571	-
x	750333	750244	-
x	750852	751007	+
x	752321	755287	+
x	753860	755287	+
x	754106	755287	+
x	754379	755287	+
x	754385	755287	+
x	754881	755102	+
x	755287	755613	+
x	757188	757730	+
x	758411	759097	+
x	758429	759097	+
x	758615	759097	+
x	765418	766035	+
x	768430	768056	-
x	769869	769114	-
x	769851	769114	-
x	772319	769860	-
x	772310	769860	-
x	774592	774783	+
x	774923	774816	-
x	774974	774816	-
x	775319	775708	+
x	775498	775361	-
x	775591	775361	-
x	776037	777815	+
x	785845	787821	+
x	785902	787821	+
x	790497	790724	+
x	791316	792887	+
x	794072	792792	-
x	794263	794463	+
x	795023	795706	+
x	797631	798926	+
x	799512	798895	-
x	799515	798895	-
x	798937	799482	+
x	800427	800128	-
x	800149	800283	+
x	801558	802592	+
x	802630	803349	+
x	804384	804815	+
x	807075	806308	-
x	807262	807134	-
x	811562	810504	-
x	811532	810504	-
x	813265	811781	-
x	813327	813181	-
x	814232	814387	+
x	814323	814508	+
x	817997	817077	-
x	817991	817077	-
x	820102	819086	-
x	819844	819086	-
x	819957	820106	+
x	820021	820137	+
x	820244	821275	+
x	822685	822855	+
x	822967	825228	+
x	823204	825228	+
x	827650	826880	-
x	828146	827928	-
x	828015	828368	+
x	828353	828186	-
x	828198	828368	+
x	828574	828777	+
x	828596	829198	+
x	828655	828777	+
x	828668	829198	+
x	829049	829198	+
x	830040	829729	-
x	829944	829729	-
x	830024	829941	-
x	829957	830142	+
x	830212	830021	-
x	830134	830021	-
x	830164	830490	+
x	830367	830185	-
x	830373	830185	-
x	830753	830364	-
x	830627	830364	-
x	830373	830684	+
x	831775	831041	-
x	831688	831041	-
x	832494	832204	-
x	833697	833008	-
x	833622	833008	-
x	833802	834032	+
x	834150	834641	+
x	834638	835657	+
x	834653	835657	+
x	834728	835657	+
x	835283	835657	+
x	835918	836355	+
x	836469	836654	+
x	836701	837054	+
x	838833	839009	+
x	839766	839146	-
x	840537	839146	-
x	839664	839146	-
x	840264	839146	-
x	839659	839853	+
x	840826	840734	-
x	841027	840734	-
x	841239	841078	-
x	841458	841078	-
x	841479	841078	-
x	842773	842874	+
x	843326	843496	+
x	844135	844275	+
x	844346	844744	+
x	844358	844744	+
x	845961	844933	-
x	846559	846819	+
x	846613	846819	+
x	847301	847750	+
x	847512	847697	+
x	848780	848616	-
x	849236	848826	-
x	849251	848826	-
x	849288	849437	+
x	849526	849293	-
x	850615	852024	+
x	852887	853459	+
x	853037	853459	+
x	854761	854955	+
x	855220	855393	+
x	855307	855393	+
x	857377	856145	-
x	857545	856145	-
x	857497	856145	-
x	859660	860454	+
x	861428	861291	-
x	863873	863787	-
x	864884	863916	-
x	864866	863916	-
x	865171	865067	-
x	865222	865067	-
x	865140	866210	+
x	865146	866210	+
x	865188	866210	+
x	866977	866486	-
x	867204	867470	+
x	867980	868765	+
x	868828	868697	-
x	878149	877151	-
x	878832	878149	-
x	880558	880418	-
x	881094	880645	-
x	881112	883397	+
x	886722	886345	-
x	887420	886707	-
x	889810	889727	-
x	890233	889973	-
x	890509	891435	+
x	893684	891432	-
x	893656	893757	+
x	896155	895964	-
x	897037	896441	-
x	898142	897243	-
x	898477	898998	+
x	899589	899047	-
x	900704	900973	+
x	900866	900973	+
x	903771	902857	-
x	906016	905600	-
x	905639	905803	+
x	905654	905803	+
x	906575	906114	-
x	906668	906114	-
x	906599	906847	+
x	906617	906847	+
x	906659	906847	+
x	906862	906969	+
x	911285	909486	-
x	910832	909486	-
x	912850	911924	-
x	912882	913616	+
x	916340	916948	+
x	916827	918806	+
x	916917	918806	+
x	916968	918806	+
x	918568	920364	+
x	918670	920364	+
x	918883	920364	+
x	919150	920364	+
x	919519	920364	+
x	922646	924742	+
x	923849	924742	+
x	924837	926078	+
x	924852	926078	+
x	927663	928046	+
x	929901	929269	-
x	930121	931344	+
x	930133	931344	+
x	934644	934360	-
x	935548	934730	-
x	935518	934730	-
x	936672	935545	-
x	936807	937373	+
x	940182	939910	-
x	942371	942847	+
x	942804	942926	+
x	943048	944310	+
x	943053	943214	+
x	944324	945538	+
x	944507	945538	+
x	946456	947343	+
x	947418	947891	+
x	949095	949259	+
x	950016	949234	-
x	953130	952396	-
x	953282	953401	+
x	953728	953342	-
x	956206	955130	-
x	956143	955130	-
x	957747	956242	-
x	961546	960572	-
x	963210	961552	-
x	965405	964704	-
x	965767	965612	-
x	968436	967480	-
x	968430	967480	-
x	968541	968675	+
x	968560	969702	+
x	971300	971644	+
x	971971	971717	-
x	972099	971815	-
x	972091	972165	+
x	972600	974891	+
x	972609	974891	+
x	972759	974891	+
x	975268	974948	-
x	981951	982499	+
x	981954	982499	+
x	986892	987506	+
x	990569	992926	+
x	993493	994419	+
x	995313	995450	+
x	995420	996544	+
x	996754	998184	+
x	1002558	1002728	+
x	1002734	1003225	+
x	1003289	1003513	+
x	1003510	1003815	+
x	1004259	1006577	+
x	1004292	1006577	+
x	1006993	1006880	-
x	1010221	1010340	+
x	1012661	1013458	+
x	1016612	1016866	+
x	1022555	1020786	-
x	1022579	1020786	-
x	1026154	1026942	+
x	1026169	1026942	+
x	1027038	1026892	-
x	1030059	1029751	-
x	1030155	1032497	+
x	1031588	1031722	+
x	1039438	1040235	+
x	1041508	1042239	+
x	1041562	1042239	+
x	1046972	1048807	+
x	1048979	1049536	+
x	1050279	1050428	+
x	1051621	1051791	+
x	1053219	1053374	+
x	1054942	1053497	-
x	1056316	1055066	-
x	1055084	1055269	+
x	1056376	1056498	+
x	1062997	1062302	-
x	1063136	1062948	-
x	1063812	1063231	-
x	1072142	1071486	-
x	1075591	1074683	-
x	1076506	1077057	+
x	1077167	1077841	+
x	1078505	1080466	+
x	1080484	1081527	+
x	1080814	1081527	+
x	1081438	1081527	+
x	1081572	1082081	+
x	1081605	1082081	+
x	1081629	1082081	+
x	1081884	1082081	+
x	1082041	1082604	+
x	1082092	1082604	+
x	1082597	1083307	+
x	1082618	1083307	+
x	1083391	1084428	+
x	1084602	1085144	+
x	1091849	1093549	+
x	1091891	1093549	+
x	1093561	1094109	+
x	1094406	1094275	-
x	1094403	1094275	-
x	1094349	1094546	+
x	1094365	1094532	+
x	1095228	1094602	-
x	1095318	1094602	-
x	1096775	1095189	-
x	1098786	1097662	-
x	1098738	1097662	-
x	1098771	1097662	-
x	1098917	1099087	+
x	1099586	1099071	-
x	1102544	1100391	-
x	1103039	1105186	+
x	1105685	1105218	-
x	1106644	1106474	-
x	1106632	1106474	-
x	1106526	1107020	+
x	1106553	1107020	+
x	1106989	1107384	+
x	1107433	1107065	-
x	1108543	1107440	-
x	1108615	1107440	-
x	1108512	1109003	+
x	1108605	1109003	+
x	1108725	1109003	+
x	1109386	1109000	-
x	1110457	1110281	-
x	1115350	1116267	+
x	1116395	1117945	+
x	1119248	1120576	+
x	1123349	1122891	-
x	1124464	1123325	-
x	1128347	1128075	-
x	1128405	1128100	-
x	1129047	1128847	-
x	1128961	1129104	+
x	1129167	1129069	-
x	1129496	1129756	+
x	1129523	1129756	+
x	1129544	1129756	+
x	1129637	1129756	+
x	1129698	1129961	+
x	1130136	1129966	-
x	1134031	1131317	-
x	1133059	1131317	-
x	1134016	1131317	-
x	1134110	1133841	-
x	1135919	1137139	+
x	1139649	1140281	+
x	1142279	1143118	+
x	1142765	1143118	+
x	1145481	1144936	-
x	1145736	1145972	+
x	1145742	1145972	+
x	1145875	1146078	+
x	1145936	1146094	+
x	1146856	1146161	-
x	1147603	1146161	-
x	1146853	1146161	-
x	1147555	1146161	-
x	1148085	1147510	-
x	1147968	1147510	-
x	1148064	1147510	-
x	1149442	1148615	-
x	1150555	1149821	-
x	1150513	1149821	-
x	1151661	1150513	-
x	1151604	1150513	-
x	1151864	1152529	+
x	1156597	1152569	-
x	1156589	1156795	+
x	1156874	1156683	-
x	1156827	1156964	+
x	1158621	1158746	+
x	1158995	1159834	+
x	1162482	1162363	-
x	1162780	1163703	+
x	1162915	1163703	+
x	1165406	1164168	-
x	1170523	1171881	+
x	1172728	1171922	-
x	1172737	1171922	-
x	1173093	1172785	-
x	1173170	1173499	+
x	1173191	1173499	+
x	1177798	1177676	-
x	1177713	1178252	+
x	1177731	1178252	+
x	1180583	1180011	-
x	1180635	1180775	+
x	1180644	1180775	+
x	1181312	1181073	-
x	1181415	1181870	+
x	1183034	1183189	+
x	1183759	1185240	+
x	1183819	1185240	+
x	1186755	1186597	-
x	1186728	1186597	-
x	1186781	1188334	+
x	1186832	1188334	+
x	1188297	1190870	+
x	1188357	1190870	+
x	1190879	1191052	+
x	1191648	1191271	-
x	1191773	1191675	-
x	1192795	1191728	-
x	1192699	1191728	-
x	1194109	1193126	-
x	1194217	1195323	+
x	1196522	1195944	-
x	1196585	1195944	-
x	1196010	1196177	+
x	1196911	1196771	-
x	1198419	1198165	-
x	1199011	1198709	-
x	1199086	1198709	-
x	1200797	1200180	-
x	1202823	1201585	-
x	1205229	1204831	-
x	1205349	1205242	-
x	1212979	1213692	+
x	1212985	1213692	+
x	1213701	1214801	+
x	1214771	1215742	+
x	1221789	1218613	-
x	1221879	1222253	+
x	1221933	1222253	+
x	1224026	1223442	-
x	1224038	1223442	-
x	1224160	1224038	-
x	1224167	1224072	-
x	1224798	1224971	+
x	1225082	1226122	+
x	1229273	1228992	-
x	1231524	1231706	+
x	1234148	1235005	+
x	1238853	1236793	-
x	1238772	1236793	-
x	1239298	1239675	+
x	1239702	1240055	+
x	1240066	1240710	+
x	1240730	1241515	+
x	1241538	1242551	+
x	1243497	1244828	+
x	1243548	1244828	+
x	1243581	1244828	+
x	1244929	1244825	-
x	1245016	1245594	+
x	1245067	1245594	+
x	1246288	1245656	-
x	1247834	1246869	-
x	1247828	1246869	-
x	1251484	1247975	-
x	1251469	1247975	-
x	1251896	1251549	-
x	1253938	1254777	+
x	1254091	1254777	+
x	1254133	1254777	+
x	1254783	1256021	+
x	1256977	1257798	+
x	1257088	1257798	+
x	1258659	1257937	-
x	1258464	1257937	-
x	1259192	1258722	-
x	1259225	1258722	-
x	1263477	1263199	-
x	1266201	1266001	-
x	1266246	1266001	-
x	1266096	1266001	-
x	1266473	1266189	-
x	1266377	1266189	-
x	1266241	1266516	+
x	1266286	1266516	+
x	1266394	1266516	+
x	1266406	1266516	+
x	1266488	1266643	+
x	1266606	1266995	+
x	1266633	1266995	+
x	1266648	1266995	+
x	1267801	1267151	-
x	1267908	1267801	-
x	1267953	1267801	-
x	1268146	1268039	-
x	1268523	1268245	-
x	1268752	1268525	-
x	1268955	1268737	-
x	1269171	1268737	-
x	1269108	1268737	-
x	1269207	1269509	+
x	1269533	1269931	+
x	1270006	1270902	+
x	1270030	1270902	+
x	1271830	1272438	+
x	1272137	1272373	+
x	1272439	1272876	+
x	1272873	1273223	+
x	1272903	1273223	+
x	1273814	1273897	+
x	1274051	1274263	+
x	1274108	1274263	+
x	1274431	1274709	+
x	1274628	1274515	-
x	1274813	1275766	+
x	1276888	1277727	+
x	1278651	1278884	+
x	1278687	1278884	+
x	1279995	1280084	+
x	1281892	1282146	+
x	1281991	1282146	+
x	1283052	1283210	+
x	1283331	1283846	+
x	1284217	1284044	-
x	1285342	1284605	-
x	1285378	1285512	+
x	1287533	1288105	+
x	1287683	1288105	+
x	1288078	1288215	+
x	1288825	1288160	-
x	1288591	1288160	-
x	1288744	1288160	-
x	1288828	1288160	-
x	1290217	1289384	-
x	1291561	1291346	-
x	1291597	1291346	-
x	1291575	1292846	+
x	1291764	1292846	+
x	1292307	1292846	+
x	1294122	1292992	-
x	1295571	1294189	-
x	1295397	1294189	-
x	1298509	1297862	-
x	1299690	1298539	-
x	1300793	1300170	-
x	1300743	1300865	+
x	1301024	1300911	-
x	1302093	1302245	+
x	1302671	1302348	-
x	1303314	1303204	-
x	1306217	1304928	-
x	1306453	1306689	+
x	1306849	1307004	+
x	1307478	1307660	+
x	1307484	1307660	+
x	1308132	1307959	-
x	1307992	1309515	+
x	1308055	1309515	+
x	1308796	1309515	+
x	1308835	1309515	+
x	1309611	1309865	+
x	1309982	1310101	+
x	1310591	1312912	+
x	1313304	1312969	-
x	1313592	1313308	-
x	1313583	1313308	-
x	1313928	1314113	+
x	1314129	1314572	+
x	1314246	1314572	+
x	1314360	1314572	+
x	1314692	1314802	+
x	1316760	1316050	-
x	1316885	1317112	+
x	1317274	1317633	+
x	1318183	1318287	+
x	1318363	1318689	+
x	1319482	1319958	+
x	1319512	1319958	+
x	1319955	1320098	+
x	1320446	1320165	-
x	1321075	1320566	-
x	1323717	1323181	-
x	1325452	1323857	-
x	1328247	1329551	+
x	1330734	1330883	+
x	1332627	1331017	-
x	1333735	1333923	+
x	1333862	1334473	+
x	1333868	1334473	+
x	1335377	1335664	+
x	1335914	1336282	+
x	1337617	1336361	-
x	1337818	1336361	-
x	1338072	1338218	+
x	1339802	1338378	-
x	1339799	1338378	-
x	1340514	1339807	-
x	1340517	1339807	-
x	1341550	1340450	-
x	1341739	1343667	+
x	1346994	1347200	+
x	1349084	1348701	-
x	1351575	1349896	-
x	1352713	1351700	-
x	1354288	1355742	+
x	1359860	1358898	-
x	1359802	1360065	+
x	1359844	1360065	+
x	1360071	1359940	-
x	1360047	1359940	-
x	1360214	1360044	-
x	1360606	1360475	-
x	1360582	1360475	-
x	1360642	1360475	-
x	1360750	1360670	-
x	1362175	1360988	-
x	1362651	1362406	-
x	1362710	1363441	+
x	1362746	1363441	+
x	1364164	1365417	+
x	1366134	1365418	-
x	1368190	1369581	+
x	1376947	1377222	+
x	1377125	1377400	+
x	1377303	1377590	+
x	1379215	1378736	-
x	1379095	1378736	-
x	1379268	1380212	+
x	1380391	1381317	+
x	1385260	1385030	-
x	1385384	1385199	-
x	1389333	1389488	+
x	1389760	1389464	-
x	1389778	1389464	-
x	1389625	1389464	-
x	1389972	1391675	+
x	1389999	1391675	+
x	1392699	1393604	+
x	1396090	1395683	-
x	1396018	1395683	-
x	1397539	1397823	+
x	1397617	1397823	+
x	1397650	1397823	+
x	1397671	1397823	+
x	1399086	1397878	-
x	1399149	1397878	-
x	1399822	1399430	-
x	1399732	1399430	-
x	1400477	1401025	+
x	1409605	1410006	+
x	1409626	1410006	+
x	1409845	1410006	+
x	1410057	1410350	+
x	1410258	1410350	+
x	1410547	1411938	+
x	1410820	1411938	+
x	1411425	1411231	-
x	1411318	1411938	+
x	1411420	1411938	+
x	1414718	1414470	-
x	1419259	1419011	-
x	1419668	1419324	-
x	1420091	1419324	-
x	1420706	1419324	-
x	1422263	1422075	-
x	1424773	1424564	-
x	1424719	1424564	-
x	1424674	1424564	-
x	1425044	1424910	-
x	1425317	1424910	-
x	1425083	1425289	+
x	1425395	1425622	+
x	1425666	1426157	+
x	1426054	1427169	+
x	1427030	1427623	+
x	1427162	1427623	+
x	1427201	1427623	+
x	1428045	1428341	+
x	1428075	1428341	+
x	1430826	1431038	+
x	1430883	1431038	+
x	1431255	1431506	+
x	1431573	1431851	+
x	1431770	1431657	-
x	1431955	1432902	+
x	1434105	1434869	+
x	1435793	1436026	+
x	1435829	1436026	+
x	1448316	1448423	+
x	1448941	1448483	-
x	1448761	1448483	-
x	1449556	1449035	-
x	1449824	1449621	-
x	1449857	1449621	-
x	1453553	1452192	-
x	1455409	1455149	-
x	1457066	1456914	-
x	1456985	1457866	+
x	1457827	1458483	+
x	1458557	1459456	+
x	1461049	1460885	-
x	1462442	1462654	+
x	1462502	1462654	+
x	1462735	1465374	+
x	1466853	1467017	+
x	1466889	1467017	+
x	1466999	1467187	+
x	1467020	1467187	+
x	1467386	1467261	-
x	1467324	1467506	+
x	1470952	1470299	-
x	1473630	1473490	-
x	1473636	1473490	-
x	1473589	1474386	+
x	1474383	1474712	+
x	1474736	1474888	+
x	1476044	1475325	-
x	1476337	1476164	-
x	1476379	1476164	-
x	1478442	1476484	-
x	1481833	1480706	-
x	1483487	1483134	-
x	1488813	1487194	-
x	1489080	1488880	-
x	1490968	1489529	-
x	1492713	1491217	-
x	1492835	1493611	+
x	1492859	1493611	+
x	1499529	1498537	-
x	1501617	1501715	+
x	1501791	1503497	+
x	1502193	1503497	+
x	1502517	1503497	+
x	1503512	1503312	-
x	1503602	1503312	-
x	1504189	1504803	+
x	1504192	1504803	+
x	1507627	1508424	+
x	1508446	1509489	+
x	1512765	1513505	+
x	1513392	1513505	+
x	1518295	1519863	+
x	1520490	1521497	+
x	1522260	1521472	-
x	1523160	1522510	-
x	1523444	1523166	-
x	1525015	1524098	-
x	1525030	1524098	-
x	1524936	1524769	-
x	1526144	1526269	+
x	1526371	1528005	+
x	1529331	1529588	+
x	1531549	1530740	-
x	1531534	1530740	-
x	1533741	1532209	-
x	1532901	1532209	-
x	1533549	1532209	-
x	1532823	1532209	-
x	1533859	1533665	-
x	1536518	1535217	-
x	1536542	1535217	-
x	1536197	1535217	-
x	1539757	1538525	-
x	1541168	1541064	-
x	1541089	1541307	+
x	1541461	1541225	-
x	1541270	1541443	+
x	1543808	1542975	-
x	1544592	1544086	-
x	1549872	1549756	-
x	1550091	1549756	-
x	1550196	1549756	-
x	1550070	1550225	+
x	1550100	1550225	+
x	1550656	1550222	-
x	1554706	1555107	+
x	1554733	1555107	+
x	1554748	1555107	+
x	1554778	1555107	+
x	1559695	1557977	-
x	1564820	1565323	+
x	1575035	1575148	+
x	1577589	1578200	+
x	1578374	1579096	+
x	1578785	1579096	+
x	1579283	1580869	+
x	1580784	1582175	+
x	1580859	1582175	+
x	1580907	1582175	+
x	1581216	1582175	+
x	1582930	1583004	+
x	1583089	1586934	+
x	1587302	1588006	+
x	1590874	1591404	+
x	1591888	1592118	+
x	1592043	1591894	-
x	1592101	1591934	-
x	1592670	1594082	+
x	1593723	1594082	+
x	1595184	1594120	-
x	1596079	1596603	+
x	1596858	1598483	+
x	1596864	1598483	+
x	1598607	1598404	-
x	1598617	1598847	+
x	1598680	1598847	+
x	1598895	1599446	+
x	1600437	1601537	+
x	1600533	1601537	+
x	1602540	1602412	-
x	1603284	1603117	-
x	1603313	1603131	-
x	1603623	1603336	-
x	1603556	1603404	-
x	1603507	1603653	+
x	1603691	1604839	+
x	1604413	1604282	-
x	1606177	1604879	-
x	1606111	1604879	-
x	1606060	1604879	-
x	1606054	1604879	-
x	1606755	1608716	+
x	1608978	1608808	-
x	1609421	1609224	-
x	1609260	1609436	+
x	1609482	1609898	+
x	1609701	1609898	+
x	1617007	1617204	+
x	1617013	1617204	+
x	1617168	1617073	-
x	1617443	1617165	-
x	1617315	1617536	+
x	1617363	1617536	+
x	1619054	1618302	-
x	1618820	1618302	-
x	1618813	1619175	+
x	1618908	1620038	+
x	1618977	1620038	+
x	1620179	1620901	+
x	1626001	1624457	-
x	1626007	1624457	-
x	1626026	1626175	+
x	1626222	1626761	+
x	1626411	1626761	+
x	1626510	1626761	+
x	1626915	1627127	+
x	1626927	1627127	+
x	1627008	1627127	+
x	1627711	1627803	+
x	1627911	1630055	+
x	1630744	1634340	+
x	1634813	1634962	+
x	1635254	1635433	+
x	1635533	1636390	+
x	1636037	1636390	+
x	1636202	1636390	+
x	1636450	1636716	+
x	1637163	1636720	-
x	1638152	1638307	+
x	1647515	1646109	-
x	1648156	1647821	-
x	1649116	1647821	-
x	1650549	1649725	-
x	1650927	1650733	-
x	1650838	1651425	+
x	1652082	1651012	-
x	1654803	1653862	-
x	1654806	1653862	-
x	1653904	1654782	+
x	1654775	1655428	+
x	1654790	1655428	+
x	1655841	1655479	-
x	1656950	1655910	-
x	1658778	1657054	-
x	1658801	1658890	+
x	1659425	1659147	-
x	1659529	1659711	+
x	1659789	1660139	+
x	1670731	1669751	-
x	1670497	1669751	-
x	1674265	1673162	-
x	1675561	1673162	-
x	1676629	1675586	-
x	1678554	1677340	-
x	1678494	1677340	-
x	1681773	1680481	-
x	1681950	1680481	-
x	1685038	1682243	-
x	1683253	1682243	-
x	1683097	1682243	-
x	1689151	1687493	-
x	1689072	1689191	+
x	1690641	1689469	-
x	1690785	1690678	-
x	1693780	1693598	-
x	1693831	1693598	-
x	1693795	1693598	-
x	1697919	1697629	-
x	1700424	1698715	-
x	1699106	1698918	-
x	1710068	1709802	-
x	1711677	1710277	-
x	1714122	1710277	-
x	1722989	1722075	-
x	1725821	1724874	-
x	1725764	1724874	-
x	1725713	1724874	-
x	1729192	1727780	-
x	1731072	1731341	+
x	1731573	1731451	-
x	1733640	1734017	+
x	1734031	1734420	+
x	1736172	1734727	-
x	1738234	1737920	-
x	1739620	1738259	-
x	1739581	1738259	-
x	1740434	1740904	+
x	1741869	1740949	-
x	1741749	1740949	-
x	1744078	1743671	-
x	1744567	1743671	-
x	1748158	1746047	-
x	1748214	1748975	+
x	1750158	1749886	-
x	1751964	1751716	-
x	1753786	1754019	+
x	1755587	1755024	-
x	1755437	1755024	-
x	1756756	1756610	-
x	1756990	1756610	-
x	1757524	1756610	-
x	1758288	1758467	+
x	1759655	1759035	-
x	1760426	1759035	-
x	1760153	1759035	-
x	1759553	1759035	-
x	1759548	1759742	+
x	1760916	1760623	-
x	1760715	1760623	-
x	1761128	1760967	-
x	1761347	1760967	-
x	1761368	1760967	-
x	1761628	1761395	-
x	1761670	1761759	+
x	1762917	1763072	+
x	1763932	1763282	-
x	1764995	1764048	-
x	1765377	1765099	-
x	1765695	1765444	-
x	1766124	1765912	-
x	1766067	1765912	-
x	1766169	1766276	+
x	1766368	1766279	-
x	1769139	1769447	+
x	1769444	1770220	+
x	1769495	1770220	+
x	1769504	1770220	+
x	1771485	1770571	-
x	1771590	1770571	-
x	1771930	1771517	-
x	1771978	1771517	-
x	1772336	1772743	+
x	1772856	1773065	+
x	1772955	1773065	+
x	1773025	1773642	+
x	1773067	1773642	+
x	1773900	1773727	-
x	1773858	1773727	-
x	1773873	1773727	-
x	1774112	1773990	-
x	1774220	1773990	-
x	1774100	1773990	-
x	1774265	1773990	-
x	1774033	1774317	+
x	1774129	1774317	+
x	1774260	1774505	+
x	1774305	1774505	+
x	1774410	1774505	+
x	1776309	1777076	+
x	1776732	1777076	+
x	1777164	1777400	+
x	1777263	1777400	+
x	1777420	1778715	+
x	1778452	1778715	+
x	1778845	1778735	-
x	1779946	1778903	-
x	1781181	1779934	-
x	1781689	1781354	-
x	1783464	1782754	-
x	1783530	1783877	+
x	1783569	1783877	+
x	1786560	1788986	+
x	1786590	1788986	+
x	1787454	1788986	+
x	1789376	1790470	+
x	1790504	1791127	+
x	1791263	1792579	+
x	1791287	1792579	+
x	1793239	1792532	-
x	1797128	1797009	-
x	1797378	1797692	+
x	1797384	1797692	+
x	1797406	1797783	+
x	1797420	1797692	+
x	1797785	1797868	+
x	1799786	1799616	-
x	1800071	1800955	+
x	1803965	1802379	-
x	1808107	1808886	+
x	1808131	1808886	+
x	1808158	1808886	+
x	1809016	1810191	+
x	1810255	1811196	+
x	1817633	1817412	-
x	1818659	1817412	-
x	1821198	1820086	-
x	1821192	1820086	-
x	1822873	1822286	-
x	1822864	1822286	-
x	1824983	1826779	+
x	1830141	1829101	-
x	1830309	1830509	+
x	1830354	1830509	+
x	1830372	1830509	+
x	1830384	1830509	+
x	1830598	1830861	+
x	1831059	1831523	+
x	1838119	1838319	+
x	1841723	1840860	-
x	1843068	1841782	-
x	1844229	1843900	-
x	1844148	1843900	-
x	1846664	1846224	-
x	1846868	1847095	+
x	1847056	1847955	+
x	1847089	1847955	+
x	1847185	1847955	+
x	1847976	1849967	+
x	1850504	1849968	-
x	1850540	1849968	-
x	1851892	1851515	-
x	1851925	1851515	-
x	1851754	1851515	-
x	1851523	1851645	+
x	1851941	1852456	+
x	1854960	1859537	+
x	1863363	1863274	-
x	1863450	1863674	+
x	1872366	1872794	+
x	1872384	1872794	+
x	1874200	1874553	+
x	1875329	1874565	-
x	1874766	1875512	+
x	1876831	1876163	-
x	1877533	1876895	-
x	1879732	1877546	-
x	1880921	1880751	-
x	1881301	1882929	+
x	1889867	1888341	-
x	1890199	1889837	-
x	1890942	1890754	-
x	1895401	1896006	+
x	1896372	1896196	-
x	1896435	1896791	+
x	1896924	1898105	+
x	1896951	1898105	+
x	1898332	1899597	+
x	1902963	1904168	+
x	1903014	1904168	+
x	1905339	1906202	+
x	1905417	1906202	+
x	1908798	1910498	+
x	1915407	1915625	+
x	1919367	1918630	-
x	1920998	1920870	-
x	1924775	1923780	-
x	1924843	1925151	+
x	1925087	1924953	-
x	1925820	1925623	-
x	1925692	1926303	+
x	1928331	1926463	-
x	1928676	1928747	+
x	1928915	1930030	+
x	1929078	1929299	+
x	1930052	1930813	+
x	1930878	1931096	+
x	1930974	1931096	+
x	1930989	1931096	+
x	1932191	1933123	+
x	1933529	1933152	-
x	1936023	1936625	+
x	1938590	1938153	-
x	1939508	1939245	-
x	1939499	1939245	-
x	1939832	1939674	-
x	1945069	1944227	-
x	1945424	1945077	-
x	1950622	1949984	-
x	1950750	1951238	+
x	1955065	1953878	-
x	1956384	1955353	-
x	1958038	1958856	+
x	1958975	1959733	+
x	1959738	1960415	+
x	1960433	1961137	+
x	1961692	1962861	+
x	1962810	1964369	+
x	1962867	1964369	+
x	1962879	1964369	+
x	1964282	1965022	+
x	1964336	1965022	+
x	1965074	1966396	+
x	1965323	1966396	+
x	1967031	1966405	-
x	1970337	1969453	-
x	1972639	1970621	-
x	1973636	1972587	-
x	1973721	1973572	-
x	1974447	1976315	+
x	1976530	1977498	+
x	1977491	1978150	+
x	1979493	1978243	-
x	1982571	1981603	-
x	1982370	1981603	-
x	1984416	1983412	-
x	1984389	1983412	-
x	1985888	1985736	-
x	1987641	1987324	-
x	1988003	1987638	-
x	1988081	1987638	-
x	1988384	1989388	+
x	1989472	1990356	+
x	1992217	1992318	+
x	1992659	1994467	+
x	1996142	1997485	+
x	1996151	1997485	+
x	1997486	1999156	+
x	1999807	1999703	-
x	1999796	1999984	+
x	2001353	2001213	-
x	2001358	2002479	+
x	2002513	2002881	+
x	2003340	2004365	+
x	2004398	2004496	+
x	2004457	2004573	+
x	2004499	2004573	+
x	2005014	2004892	-
x	2005077	2004892	-
x	2005011	2004892	-
x	2006255	2005107	-
x	2005533	2005664	+
x	2006439	2006293	-
x	2006390	2006542	+
x	2006633	2006815	+
x	2006958	2006770	-
x	2007321	2006962	-
x	2007186	2006962	-
x	2007292	2007426	+
x	2009203	2008259	-
x	2009288	2010370	+
x	2010786	2012231	+
x	2010801	2012231	+
x	2015577	2014462	-
x	2017410	2015659	-
x	2017377	2015659	-
x	2021228	2020866	-
x	2020917	2021309	+
x	2020962	2021309	+
x	2021474	2021343	-
x	2021575	2021459	-
x	2021707	2022030	+
x	2021731	2022030	+
x	2022147	2022311	+
x	2025922	2026050	+
x	2029424	2029170	-
x	2029379	2029170	-
x	2031536	2030775	-
x	2031483	2032343	+
x	2033167	2033289	+
x	2033232	2033852	+
x	2034491	2035075	+
x	2034788	2035075	+
x	2035151	2035357	+
x	2036112	2035804	-
x	2036215	2036403	+
x	2037762	2039246	+
x	2040170	2039292	-
x	2040408	2040268	-
x	2042407	2040365	-
x	2042552	2042433	-
x	2043725	2043228	-
x	2043674	2043228	-
x	2043900	2045138	+
x	2045065	2047740	+
x	2045107	2047740	+
x	2047820	2049259	+
x	2049362	2049613	+
x	2049718	2049909	+
x	2050569	2049910	-
x	2051300	2050962	-
x	2052618	2052935	+
x	2053268	2053693	+
x	2053663	2054379	+
x	2056522	2057124	+
x	2057999	2057631	-
x	2062164	2062322	+
x	2065105	2066688	+
x	2069169	2067910	-
x	2070306	2069248	-
x	2070234	2069248	-
x	2070195	2069248	-
x	2073777	2073712	-
x	2073749	2074450	+
x	2073848	2074450	+
x	2074976	2074452	-
x	2076286	2075777	-
x	2078396	2078995	+
x	2079085	2079810	+
x	2079833	2080258	+
x	2079905	2080258	+
x	2084604	2082175	-
x	2086557	2086117	-
x	2087443	2086877	-
x	2087625	2087512	-
x	2089548	2090057	+
x	2090413	2090177	-
x	2090545	2090177	-
x	2092722	2090569	-
x	2094664	2093990	-
x	2100309	2098627	-
x	2102915	2100957	-
x	2102960	2100957	-
x	2102975	2100957	-
x	2105086	2104940	-
x	2105803	2105444	-
x	2105910	2105794	-
x	2106109	2106080	-
x	2108442	2107009	-
x	2109265	2108408	-
x	2110082	2109375	-
x	2110046	2109375	-
x	2110364	2109375	-
x	2111935	2110376	-
x	2113000	2111960	-
x	2114579	2114328	-
x	2114331	2114603	+
x	2114840	2114694	-
x	2114780	2114694	-
x	2114914	2114801	-
x	2115070	2114927	-
x	2115246	2115070	-
x	2115112	2115366	+
x	2115488	2115372	-
x	2115522	2116034	+
x	2116548	2116450	-
x	2116979	2117713	+
x	2121461	2119695	-
x	2122033	2121524	-
x	2122144	2121524	-
x	2122476	2122652	+
x	2123664	2122930	-
x	2126395	2125271	-
x	2125672	2125271	-
x	2127261	2126404	-
x	2127879	2127328	-
x	2128578	2127889	-
x	2128682	2128801	+
x	2128886	2128779	-
x	2128791	2128859	+
x	2135151	2134738	-
x	2137407	2137553	+
x	2138641	2137538	-
x	2137919	2138050	+
x	2138825	2138679	-
x	2138709	2138996	+
x	2138776	2138928	+
x	2139019	2139201	+
x	2139890	2139717	-
x	2139875	2139717	-
x	2140842	2140090	-
x	2141448	2140897	-
x	2141064	2141186	+
x	2142114	2141617	-
x	2141949	2141617	-
x	2141970	2141617	-
x	2142129	2141617	-
x	2142627	2142283	-
x	2142791	2142642	-
x	2145545	2144616	-
x	2145430	2146137	+
x	2149625	2150674	+
x	2151169	2151047	-
x	2151084	2151452	+
x	2151147	2151452	+
x	2152500	2152898	+
x	2152543	2153262	+
x	2154252	2154527	+
x	2154767	2154504	-
x	2154803	2154504	-
x	2154854	2154504	-
x	2154555	2154797	+
x	2154567	2154797	+
x	2154843	2154953	+
x	2157601	2155907	-
x	2157616	2155907	-
x	2157710	2157522	-
x	2158944	2158033	-
x	2163068	2162703	-
x	2163005	2162703	-
x	2163251	2163379	+
x	2163606	2164709	+
x	2164878	2164777	-
x	2165154	2164777	-
x	2164791	2165048	+
x	2165137	2165280	+
x	2168337	2167618	-
x	2168289	2167618	-
x	2169313	2169948	+
x	2170820	2171491	+
x	2171601	2171750	+
x	2171804	2172364	+
x	2172387	2172629	+
x	2175402	2174359	-
x	2175618	2175406	-
x	2176284	2175856	-
x	2183061	2182141	-
x	2185501	2184821	-
x	2190885	2190088	-
x	2193023	2192790	-
x	2195438	2194872	-
x	2197427	2197236	-
x	2198607	2198098	-
x	2200408	2200229	-
x	2202969	2203631	+
x	2211315	2211094	-
x	2216002	2216331	+
x	2221438	2222274	+
x	2222573	2222722	+
x	2231031	2230102	-
x	2230722	2230102	-
x	2231183	2231341	+
x	2232839	2234341	+
x	2235611	2235474	-
x	2235625	2235491	-
x	2235742	2235491	-
x	2235655	2235491	-
x	2235640	2235786	+
x	2236254	2236030	-
x	2236887	2236030	-
x	2237484	2236030	-
x	2237517	2236030	-
x	2236635	2236030	-
x	2236353	2236030	-
x	2239790	2238843	-
x	2241153	2240218	-
x	2243085	2242306	-
x	2244231	2243725	-
x	2244222	2243725	-
x	2244379	2244555	+
x	2246609	2245761	-
x	2247363	2248175	+
x	2252901	2253251	+
x	2260791	2261165	+
x	2261341	2261613	+
x	2261494	2261613	+
x	2262109	2261714	-
x	2262128	2262250	+
x	2262134	2262250	+
x	2262637	2262215	-
x	2265236	2264064	-
x	2265107	2264064	-
x	2265029	2264064	-
x	2265157	2265315	+
x	2265371	2266846	+
x	2268134	2267130	-
x	2268188	2267130	-
x	2268336	2268223	-
x	2269731	2268367	-
x	2268822	2268367	-
x	2270942	2269992	-
x	2272403	2272125	-
x	2272816	2273754	+
x	2273751	2275064	+
x	2273823	2275064	+
x	2276128	2277198	+
x	2277785	2278525	+
x	2280962	2279985	-
x	2280965	2279985	-
x	2296057	2296320	+
x	2297262	2296357	-
x	2301598	2301335	-
x	2301387	2301617	+
x	2301483	2301617	+
x	2305950	2304532	-
x	2305991	2306086	+
x	2307926	2307534	-
x	2309236	2308754	-
x	2313922	2312681	-
x	2313970	2312681	-
x	2318793	2316595	-
x	2320312	2319209	-
x	2319712	2319209	-
x	2320255	2319209	-
x	2320941	2322590	+
x	2320968	2322590	+
x	2326116	2325412	-
x	2326107	2325412	-
x	2326881	2329688	+
x	2327313	2329688	+
x	2330705	2330631	-
x	2333857	2332082	-
x	2334031	2332082	-
x	2334699	2334019	-
x	2334941	2334777	-
x	2336008	2336154	+
x	2336026	2336154	+
x	2336336	2336482	+
x	2336354	2336482	+
x	2336505	2337899	+
x	2336532	2337899	+
x	2336691	2337899	+
x	2347594	2347785	+
x	2347786	2348157	+
x	2348411	2348662	+
x	2348682	2348960	+
x	2350501	2350364	-
x	2350766	2350617	-
x	2351071	2350754	-
x	2351029	2350754	-
x	2351086	2350754	-
x	2352904	2352458	-
x	2353237	2352458	-
x	2358712	2357852	-
x	2358688	2358810	+
x	2360138	2359014	-
x	2360125	2360226	+
x	2365162	2364335	-
x	2368462	2368800	+
x	2372425	2369930	-
x	2373678	2373181	-
x	2374297	2374016	-
x	2375699	2374560	-
x	2375792	2377834	+
x	2380453	2381769	+
x	2381779	2384124	+
x	2385472	2385792	+
x	2385494	2385658	+
x	2385548	2385658	+
x	2385934	2385845	-
x	2386542	2386453	-
x	2386909	2388063	+
x	2387999	2390353	+
x	2389622	2390353	+
x	2390136	2391482	+
x	2390283	2391482	+
x	2391455	2393479	+
x	2393243	2393479	+
x	2393592	2394065	+
x	2394633	2394106	-
x	2395357	2394623	-
x	2397039	2395339	-
x	2397113	2397241	+
x	2397330	2397977	+
x	2404482	2402113	-
x	2404573	2406321	+
x	2404615	2406321	+
x	2407291	2406359	-
x	2407492	2407370	-
x	2408076	2407465	-
x	2408186	2408800	+
x	2408904	2408791	-
x	2409316	2408930	-
x	2411108	2409744	-
x	2410940	2409744	-
x	2411270	2409744	-
x	2411261	2409744	-
x	2410832	2409744	-
x	2411404	2411487	+
x	2414723	2414076	-
x	2417971	2418879	+
x	2418974	2419408	+
x	2419408	2420100	+
x	2421087	2420965	-
x	2422769	2423782	+
x	2423770	2425011	+
x	2427583	2426108	-
x	2430013	2428967	-
x	2432088	2431975	-
x	2432145	2432321	+
x	2435042	2433117	-
x	2435249	2435383	+
x	2437102	2436854	-
x	2437162	2436854	-
x	2437088	2436978	-
x	2437881	2437075	-
x	2442424	2441183	-
x	2443604	2444302	+
x	2446541	2445717	-
x	2449013	2449723	+
x	2451958	2451815	-
x	2453584	2453330	-
x	2453716	2453330	-
x	2453518	2453330	-
x	2453636	2453475	-
x	2453496	2454311	+
x	2453739	2454311	+
x	2453769	2454311	+
x	2454525	2456000	+
x	2457107	2457856	+
x	2457299	2457856	+
x	2459078	2460571	+
x	2460647	2462467	+
x	2467992	2466859	-
x	2470710	2471090	+
x	2471222	2470791	-
x	2471204	2470791	-
x	2472397	2472281	-
x	2474716	2474555	-
x	2474892	2474680	-
x	2477220	2474905	-
x	2477190	2474905	-
x	2477074	2477184	+
x	2477559	2477302	-
x	2477561	2478238	+
x	2479157	2478273	-
x	2482462	2482292	-
x	2483259	2482498	-
x	2483936	2483277	-
x	2484559	2483936	-
x	2484611	2485204	+
x	2485654	2485184	-
x	2485253	2485795	+
x	2490512	2490685	+
x	2490521	2490685	+
x	2490733	2490641	-
x	2490799	2491308	+
x	2493085	2491457	-
x	2496488	2496706	+
x	2497935	2498993	+
x	2498918	2497995	-
x	2499603	2499478	-
x	2502469	2503164	+
x	2502478	2503164	+
x	2506165	2503364	-
x	2503738	2503364	-
x	2507970	2507269	-
x	2508051	2507269	-
x	2513523	2508919	-
x	2513355	2508919	-
x	2513448	2508919	-
x	2513538	2508919	-
x	2514080	2513457	-
x	2515333	2514077	-
x	2515675	2514077	-
x	2515813	2514077	-
x	2515642	2514077	-
x	2515878	2515798	-
x	2518640	2519410	+
x	2523181	2519471	-
x	2523701	2523844	+
x	2529857	2528850	-
x	2531406	2531537	+
x	2534361	2535626	+
x	2536549	2536722	+
x	2539153	2538590	-
x	2539147	2538590	-
x	2539354	2539253	-
x	2539474	2539836	+
x	2540504	2539875	-
x	2540752	2541924	+
x	2540767	2541924	+
x	2547467	2548135	+
x	2548425	2548129	-
x	2551008	2551841	+
x	2554305	2552446	-
x	2555275	2554205	-
x	2556447	2557382	+
x	2557570	2558790	+
x	2559240	2559100	-
x	2559485	2559817	+
x	2559575	2559817	+
x	2561767	2560490	-
x	2565482	2563647	-
x	2570613	2567881	-
x	2574287	2572497	-
x	2575486	2575617	+
x	2575777	2575941	+
x	2577323	2577577	+
x	2583054	2582542	-
x	2583742	2583903	+
x	2587387	2585117	-
x	2587523	2589043	+
x	2587565	2589043	+
x	2590230	2589676	-
x	2593624	2593091	-
x	2598521	2598354	-
x	2602099	2601464	-
x	2602144	2601464	-
x	2604452	2603454	-
x	2612123	2614189	+
x	2617830	2616742	-
x	2619251	2617986	-
x	2622856	2622104	-
x	2623772	2622876	-
x	2625464	2622876	-
x	2627312	2627464	+
x	2631480	2631172	-
x	2631792	2631541	-
x	2631822	2633168	+
x	2635669	2635556	-
x	2639796	2641229	+
x	2642430	2641237	-
x	2642190	2641237	-
x	2642295	2641237	-
x	2642726	2644039	+
x	2642813	2644039	+
x	2645372	2645710	+
x	2646725	2645685	-
x	2646740	2645685	-
x	2648093	2651476	+
x	2652458	2651532	-
x	2652716	2651532	-
x	2657743	2657276	-
x	2657968	2658129	+
x	2658262	2658137	-
x	2658204	2658479	+
x	2658252	2658479	+
x	2659106	2659032	-
x	2659085	2660071	+
x	2660426	2660497	+
x	2662125	2661964	-
x	2662177	2663874	+
x	2663871	2664623	+
x	2663964	2664623	+
x	2671799	2671422	-
x	2674571	2674915	+
x	2674682	2674915	+
x	2674787	2674915	+
x	2676149	2674974	-
x	2676509	2677750	+
x	2676734	2677750	+
x	2680049	2677800	-
x	2680608	2680967	+
x	2680990	2681361	+
x	2682832	2682963	+
x	2684284	2683937	-
x	2684287	2683937	-
x	2686265	2685948	-
x	2689237	2688254	-
x	2689291	2688254	-
x	2689228	2688254	-
x	2688721	2689014	+
x	2690259	2690423	+
x	2691634	2691506	-
x	2691998	2691705	-
x	2692304	2693800	+
x	2695384	2695716	+
x	2695441	2695716	+
x	2696576	2695719	-
x	2698300	2697851	-
x	2701590	2700733	-
x	2704916	2706307	+
x	2705015	2706307	+
x	2706350	2707276	+
x	2707291	2706365	-
x	2707917	2707360	-
x	2707820	2707960	+
x	2708343	2707996	-
x	2708451	2707996	-
x	2708968	2708432	-
x	2712453	2711947	-
x	2719367	2718153	-
x	2722321	2721986	-
x	2725634	2725299	-
x	2729402	2731468	+
x	2732553	2731564	-
x	2732632	2732501	-
x	2733335	2732733	-
x	2735286	2733376	-
x	2735245	2735379	+
x	2735546	2737261	+
x	2736086	2737261	+
x	2737605	2740538	+
x	2740611	2740838	+
x	2740625	2740804	+
x	2741056	2740955	-
x	2743595	2742873	-
x	2746469	2745675	-
x	2747083	2746685	-
x	2748186	2747464	-
x	2748249	2748479	+
x	2749427	2748390	-
x	2750337	2749441	-
x	2750465	2751037	+
x	2750492	2751037	+
x	2751721	2752377	+
x	2754384	2755349	+
x	2755366	2755476	+
x	2761793	2762269	+
x	2762305	2764311	+
x	2762320	2764311	+
x	2762365	2764311	+
x	2766311	2766487	+
x	2770600	2769269	-
x	2771297	2770644	-
x	2771247	2771381	+
x	2771580	2772632	+
x	2773435	2775507	+
x	2779818	2779552	-
x	2779842	2779552	-
x	2779705	2779878	+
x	2779940	2780086	+
x	2780189	2780707	+
x	2784514	2783003	-
x	2784538	2783003	-
x	2787793	2786282	-
x	2794798	2795325	+
x	2794807	2795325	+
x	2797594	2795411	-
x	2802733	2803737	+
x	2804061	2804198	+
x	2805015	2804230	-
x	2806518	2805148	-
x	2809062	2807158	-
x	2809959	2809636	-
x	2809895	2810377	+
x	2811628	2810390	-
x	2812317	2812451	+
x	2814282	2815163	+
x	2815333	2816634	+
x	2818818	2817925	-
x	2823193	2823687	+
x	2823220	2823687	+
x	2823259	2823687	+
x	2825452	2824619	-
x	2825680	2824619	-
x	2825407	2824619	-
x	2828118	2826769	-
x	2829286	2828303	-
x	2829274	2828303	-
x	2832664	2829383	-
x	2832776	2833975	+
x	2835298	2834039	-
x	2835396	2835572	+
x	2835444	2835572	+
x	2838627	2837254	-
x	2838603	2837254	-
x	2839291	2838578	-
x	2839213	2838578	-
x	2839225	2839389	+
x	2839234	2839389	+
x	2840946	2839456	-
x	2840883	2839456	-
x	2845343	2841459	-
x	2845501	2845361	-
x	2845604	2847160	+
x	2847660	2847157	-
x	2848332	2847718	-
x	2848290	2847718	-
x	2848451	2848314	-
x	2848490	2849410	+
x	2849442	2849726	+
x	2850000	2849920	-
x	2850149	2849997	-
x	2850161	2849997	-
x	2851546	2850800	-
x	2853923	2854087	+
x	2857060	2857194	+
x	2859847	2859239	-
x	2859966	2859811	-
x	2860252	2861844	+
x	2862686	2861829	-
x	2864991	2864065	-
x	2866092	2865691	-
x	2865808	2866185	+
x	2868228	2867116	-
x	2867689	2868291	+
x	2868346	2868143	-
x	2868797	2869546	+
x	2868824	2869546	+
x	2871192	2872238	+
x	2872349	2873707	+
x	2873732	2874076	+
x	2873804	2874076	+
x	2875452	2874073	-
x	2874576	2874073	-
x	2876721	2876948	+
x	2878284	2878589	+
x	2879709	2879344	-
x	2879664	2879344	-
x	2880845	2880970	+
x	2883812	2881227	-
x	2886540	2886746	+
x	2887236	2886700	-
x	2890846	2889707	-
x	2890948	2891352	+
x	2890969	2891352	+
x	2890990	2891352	+
x	2892010	2893236	+
x	2894532	2894200	-
x	2895555	2894998	-
x	2895549	2894998	-
x	2895873	2895565	-
x	2897590	2898381	+
x	2898447	2899688	+
x	2898492	2899688	+
x	2899005	2899688	+
x	2901289	2901038	-
x	2901175	2901038	-
x	2904127	2904279	+
x	2904649	2904341	-
x	2905097	2904621	-
x	2906455	2907684	+
x	2927633	2928430	+
x	2937867	2937655	-
x	2940338	2940739	+
x	2940359	2940739	+
x	2940578	2940739	+
x	2940790	2941083	+
x	2940991	2941083	+
x	2941133	2941855	+
x	2942159	2941965	-
x	2942052	2942672	+
x	2942154	2942672	+
x	2943374	2942706	-
x	2943429	2943310	-
x	2943772	2943515	-
x	2943558	2944031	+
x	2945530	2944916	-
x	2946194	2946042	-
x	2946379	2946050	-
x	2948130	2948762	+
x	2949404	2950486	+
x	2954713	2956176	+
x	2955525	2955734	+
x	2956179	2956859	+
x	2957381	2957566	+
x	2960656	2960997	+
x	2961475	2961221	-
x	2961245	2961490	+
x	2961909	2964014	+
x	2967613	2968647	+
x	2968799	2968945	+
x	2969241	2970122	+
x	2970291	2970983	+
x	2972091	2971957	-
x	2972044	2973228	+
x	2973236	2974783	+
x	2976834	2975512	-
x	2977476	2977141	-
x	2977425	2977141	-
x	2978287	2978162	-
x	2979750	2979866	+
x	2982191	2982592	+
x	2982410	2982592	+
x	2982443	2982592	+
x	2984452	2983376	-
x	2985017	2984517	-
x	2986292	2985159	-
x	2986349	2985159	-
x	2986513	2986415	-
x	2986929	2987063	+
x	2987369	2988019	+
x	2990521	2991447	+
x	2993033	2991444	-
x	2998142	2995842	-
x	2998789	2998247	-
x	2999942	2998923	-
x	2999975	2998923	-
x	2999999	2998923	-
x	2999933	2998923	-
x	3001653	3003083	+
x	3003439	3003251	-
x	3003499	3003251	-
x	3003481	3003251	-
x	3003430	3003984	+
x	3003523	3003984	+
x	3004082	3004498	+
x	3004444	3004295	-
x	3004961	3004476	-
x	3005739	3004966	-
x	3009668	3007953	-
x	3009683	3007953	-
x	3013797	3013714	-
x	3013826	3014188	+
x	3016487	3017455	+
x	3017493	3019607	+
x	3020208	3020074	-
x	3026465	3026773	+
x	3026821	3027636	+
x	3026830	3027636	+
x	3035989	3036297	+
x	3037145	3036348	-
x	3041601	3042347	+
x	3045847	3045329	-
x	3046204	3045329	-
x	3046357	3045329	-
x	3047381	3047548	+
x	3047815	3047663	-
x	3049089	3048283	-
x	3049050	3048283	-
x	3051697	3051578	-
x	3059326	3058538	-
x	3063095	3061527	-
x	3063158	3061527	-
x	3065886	3063187	-
x	3066232	3066080	-
x	3071142	3071029	-
x	3071048	3071497	+
x	3071135	3071497	+
x	3071545	3072846	+
x	3072801	3073097	+
x	3074112	3073837	-
x	3074730	3073837	-
x	3075479	3074694	-
x	3076860	3075451	-
x	3075726	3075451	-
x	3077676	3076882	-
x	3079086	3078406	-
x	3079266	3078406	-
x	3085457	3085525	+
x	3085956	3086660	+
x	3086470	3086736	+
x	3086675	3087904	+
x	3091144	3090833	-
x	3091085	3091447	+
x	3098137	3098021	-
x	3099249	3098122	-
x	3100580	3099483	-
x	3100505	3099483	-
x	3102397	3102272	-
x	3102391	3102519	+
x	3104577	3104437	-
x	3104562	3104437	-
x	3105093	3104812	-
x	3106415	3107749	+
x	3107833	3107964	+
x	3109706	3108279	-
x	3111132	3111887	+
x	3111243	3111887	+
x	3113093	3111942	-
x	3117515	3118963	+
x	3119436	3120176	+
x	3121218	3120220	-
x	3121615	3121313	-
x	3122962	3123255	+
x	3123225	3122995	-
x	3123378	3124619	+
x	3125913	3125113	-
x	3127063	3125996	-
x	3128209	3128730	+
x	3128783	3130327	+
x	3132396	3134009	+
x	3134648	3134046	-
x	3140115	3140537	+
x	3140641	3141090	+
x	3142815	3142663	-
x	3145791	3144448	-
x	3145867	3147264	+
x	3146023	3147264	+
x	3152664	3149152	-
x	3152703	3149152	-
x	3159479	3159132	-
x	3159805	3159440	-
x	3160371	3159844	-
x	3160431	3159844	-
x	3160647	3159844	-
x	3160857	3161060	+
x	3160878	3161060	+
x	3165603	3165139	-
x	3165981	3166175	+
x	3166168	3166022	-
x	3166114	3166275	+
x	3168184	3167897	-
x	3170554	3169361	-
x	3172935	3173099	+
x	3175759	3176649	+
x	3179004	3177457	-
x	3179071	3178985	-
x	3180709	3179981	-
x	3182288	3181104	-
x	3184229	3184861	+
x	3184292	3184861	+
x	3184343	3184861	+
x	3185074	3184943	-
x	3185997	3186479	+
x	3186165	3186479	+
x	3186637	3186512	-
x	3186592	3186512	-
x	3187065	3186628	-
x	3187053	3186628	-
x	3187247	3187684	+
x	3187990	3187868	-
x	3190332	3190550	+
x	3191596	3191153	-
x	3191785	3191630	-
x	3191950	3192084	+
x	3193235	3192654	-
x	3192809	3192654	-
x	3194241	3194026	-
x	3195776	3194586	-
x	3195320	3194586	-
x	3195395	3194586	-
x	3196025	3196525	+
x	3196527	3196820	+
x	3198245	3198009	-
x	3202404	3200782	-
x	3202392	3200782	-
x	3201810	3200782	-
x	3201552	3200782	-
x	3203494	3202778	-
x	3203557	3202778	-
x	3203491	3202778	-
x	3203742	3203530	-
x	3203987	3206245	+
x	3209907	3211094	+
x	3213658	3215055	+
x	3218519	3217749	-
x	3218300	3217749	-
x	3218351	3217749	-
x	3218670	3219200	+
x	3218685	3219200	+
x	3222557	3223951	+
x	3227756	3229213	+
x	3229108	3230547	+
x	3229228	3230547	+
x	3232477	3231986	-
x	3232381	3231986	-
x	3232318	3231986	-
x	3234408	3232474	-
x	3234399	3232474	-
x	3234700	3236277	+
x	3234760	3236277	+
x	3236267	3236404	+
x	3236279	3236404	+
x	3237235	3238650	+
x	3239526	3238645	-
x	3239527	3239682	+
x	3243102	3242308	-
x	3244263	3243877	-
x	3244191	3243877	-
x	3244515	3244697	+
x	3244524	3244697	+
x	3246986	3248443	+
x	3247010	3248443	+
x	3249162	3248500	-
x	3252893	3252501	-
x	3258790	3258206	-
x	3258815	3259003	+
x	3259557	3259231	-
x	3259527	3260129	+
x	3259581	3260129	+
x	3260531	3260370	-
x	3260492	3260572	+
x	3262172	3262294	+
x	3263129	3262398	-
x	3263093	3262398	-
x	3263374	3264333	+
x	3267638	3268465	+
x	3270774	3269965	-
x	3270276	3269965	-
x	3271720	3271028	-
x	3271735	3271028	-
x	3272454	3271861	-
x	3275007	3273853	-
x	3275016	3273853	-
x	3276373	3275147	-
x	3277463	3276360	-
x	3277754	3278182	+
x	3278106	3278783	+
x	3279473	3280156	+
x	3279620	3280156	+
x	3280150	3280827	+
x	3281422	3280799	-
x	3282156	3282040	-
x	3283991	3283002	-
x	3285517	3284294	-
x	3286333	3286163	-
x	3286285	3286163	-
x	3288488	3286467	-
x	3288517	3289494	+
x	3288610	3289494	+
x	3290302	3289550	-
x	3296908	3294068	-
x	3301046	3299058	-
x	3300956	3299058	-
x	3301174	3301043	-
x	3301310	3301525	+
x	3301788	3301522	-
x	3301773	3301522	-
x	3301817	3302983	+
x	3303407	3304813	+
x	3303458	3304813	+
x	3304932	3305387	+
x	3305479	3306189	+
x	3306242	3307000	+
x	3308000	3308635	+
x	3310269	3309244	-
x	3310299	3309244	-
x	3311527	3311817	+
x	3313562	3313645	+
x	3314673	3313702	-
x	3316767	3316048	-
x	3317307	3316951	-
x	3318157	3319209	+
x	3319574	3320656	+
x	3320796	3320662	-
x	3320810	3322114	+
x	3324359	3322164	-
x	3324582	3324379	-
x	3324610	3324461	-
x	3324796	3325404	+
x	3325858	3327045	+
x	3327429	3327641	+
x	3327506	3327733	+
x	3327778	3328155	+
x	3327946	3328155	+
x	3328296	3328559	+
x	3329815	3329546	-
x	3330011	3332878	+
x	3332880	3333884	+
x	3337922	3340792	+
x	3340881	3341174	+
x	3341422	3341180	-
x	3343272	3341749	-
x	3343418	3343296	-
x	3344292	3343864	-
x	3344657	3344319	-
x	3350030	3349641	-
x	3350094	3350315	+
x	3350994	3350395	-
x	3351327	3351226	-
x	3353620	3353826	+
x	3353905	3354522	+
x	3353920	3354522	+
x	3354169	3354522	+
x	3354622	3354425	-
x	3355443	3355288	-
x	3355730	3355545	-
x	3355552	3355764	+
x	3356488	3356333	-
x	3357161	3357814	+
x	3358959	3358162	-
x	3360429	3360722	+
x	3362573	3361455	-
x	3362075	3361455	-
x	3362846	3361455	-
x	3361973	3361455	-
x	3361968	3362162	+
x	3363336	3363043	-
x	3363135	3363043	-
x	3363767	3363387	-
x	3363548	3363387	-
x	3363788	3363387	-
x	3364129	3365064	+
x	3364939	3365064	+
x	3365312	3365425	+
x	3365361	3368282	+
x	3366432	3368282	+
x	3370482	3369574	-
x	3369966	3369574	-
x	3370110	3369574	-
x	3370003	3370494	+
x	3370048	3370494	+
x	3370957	3371250	+
x	3371002	3371250	+
x	3371089	3371250	+
x	3371107	3371250	+
x	3371199	3371717	+
x	3372251	3373063	+
x	3372833	3373063	+
x	3388175	3388822	+
x	3388337	3388822	+
x	3389082	3388903	-
x	3389846	3390760	+
x	3390380	3390760	+
x	3390614	3390760	+
x	3391756	3390926	-
x	3402248	3403525	+
x	3405978	3406544	+
x	3407739	3406621	-
x	3407241	3406621	-
x	3407139	3406621	-
x	3408012	3406621	-
x	3407134	3407328	+
x	3408301	3408209	-
x	3408502	3408209	-
x	3408933	3408553	-
x	3408714	3408553	-
x	3408954	3408553	-
x	3410357	3410530	+
x	3410527	3410733	+
x	3411375	3410890	-
x	3411238	3411420	+
x	3411666	3411520	-
x	3411657	3411520	-
x	3413315	3413148	-
x	3413247	3413369	+
x	3414019	3413447	-
x	3415421	3415155	-
x	3415216	3415464	+
x	3415312	3415464	+
x	3418956	3419069	+
x	3419926	3420603	+
x	3420693	3420842	+
x	3422291	3421896	-
x	3422807	3421896	-
x	3422435	3421896	-
x	3422328	3422819	+
x	3422373	3422819	+
x	3423282	3423575	+
x	3423309	3423575	+
x	3423327	3423575	+
x	3423414	3423575	+
x	3423432	3423575	+
x	3424093	3424527	+
x	3424539	3424736	+
x	3424851	3425666	+
x	3425735	3426130	+
x	3428823	3427963	-
x	3428805	3427963	-
x	3429551	3429138	-
x	3430076	3429138	-
x	3430073	3429138	-
x	3430681	3430118	-
x	3430675	3430118	-
x	3431612	3431082	-
x	3432131	3431649	-
x	3436816	3434837	-
x	3437745	3436927	-
x	3437757	3436927	-
x	3443902	3439337	-
x	3443770	3439337	-
x	3443920	3439337	-
x	3444374	3444252	-
x	3449042	3448620	-
x	3452814	3451315	-
x	3453005	3453829	+
x	3455322	3457070	+
x	3455349	3457070	+
x	3455382	3457070	+
x	3455448	3457070	+
x	3456857	3457981	+
x	3458034	3458261	+
x	3458645	3459433	+
x	3460629	3459469	-
x	3462209	3461646	-
x	3463039	3462218	-
x	3464253	3463042	-
x	3465925	3465227	-
x	3468414	3468554	+
x	3470508	3468646	-
x	3470662	3471576	+
x	3470992	3471576	+
x	3472025	3471567	-
x	3472677	3472123	-
x	3472584	3472123	-
x	3472608	3472856	+
x	3472626	3472856	+
x	3472668	3472856	+
x	3473634	3473239	-
x	3479507	3479635	+
x	3479715	3479530	-
x	3480528	3480118	-
x	3480882	3480118	-
x	3482767	3482243	-
x	3482683	3482243	-
x	3483988	3484233	+
x	3485235	3484516	-
x	3485398	3485243	-
x	3485367	3486689	+
x	3485424	3486689	+
x	3488595	3487528	-
x	3488427	3487528	-
x	3488484	3487528	-
x	3488570	3488424	-
x	3490006	3490716	+
x	3490718	3490831	+
x	3491189	3491842	+
x	3496950	3496795	-
x	3499334	3499546	+
x	3500768	3500319	-
x	3502026	3502856	+
x	3503234	3502902	-
x	3507724	3507029	-
x	3509099	3510619	+
x	3509138	3510619	+
x	3510734	3511438	+
x	3510863	3511438	+
x	3513430	3512642	-
x	3513531	3514346	+
x	3514574	3514404	-
x	3515689	3515615	-
x	3515826	3516152	+
x	3515862	3516152	+
x	3517037	3519550	+
x	3517082	3519550	+
x	3519557	3520315	+
x	3519620	3520315	+
x	3521630	3521424	-
x	3524545	3524937	+
x	3528656	3526485	-
x	3529397	3526485	-
x	3529436	3526485	-
x	3530872	3530666	-
x	3530851	3530666	-
x	3533788	3532976	-
x	3533800	3532976	-
x	3534258	3533887	-
x	3535953	3536075	+
x	3540506	3540219	-
x	3542670	3542521	-
x	3542533	3542655	+
x	3549007	3549213	+
x	3549038	3550528	+
x	3549122	3550528	+
x	3549149	3550528	+
x	3550512	3550922	+
x	3551009	3551191	+
x	3552252	3555380	+
x	3555817	3555677	-
x	3565155	3565694	+
x	3566515	3567519	+
x	3567572	3567709	+
x	3568870	3569178	+
x	3574243	3572768	-
x	3574543	3575961	+
x	3579818	3577134	-
x	3583254	3583622	+
x	3583754	3584137	+
x	3584414	3584887	+
x	3584835	3585176	+
x	3585272	3585754	+
x	3585350	3585754	+
x	3585803	3586810	+
x	3586870	3587019	+
x	3587103	3587468	+
x	3589705	3589580	-
x	3589836	3590006	+
x	3589839	3590006	+
x	3590157	3589996	-
x	3592824	3591556	-
x	3594460	3593162	-
x	3594532	3593162	-
x	3595050	3594598	-
x	3595035	3594598	-
x	3598549	3597329	-
x	3597481	3597329	-
x	3602119	3602475	+
x	3602131	3602475	+
x	3602731	3603270	+
x	3604711	3604559	-
x	3604597	3604704	+
x	3604869	3604976	+
x	3604982	3605089	+
x	3605095	3605574	+
x	3605125	3605574	+
x	3606665	3605502	-
x	3606728	3605502	-
x	3607643	3606744	-
x	3607634	3606744	-
x	3609748	3608450	-
x	3609805	3609930	+
x	3611230	3611730	+
x	3612074	3612214	+
x	3612999	3612733	-
x	3613475	3613777	+
x	3615058	3615567	+
x	3616341	3617225	+
x	3617288	3617677	+
x	3617653	3618807	+
x	3618304	3618807	+
x	3622094	3622669	+
x	3622578	3623450	+
x	3622590	3623450	+
x	3623505	3624206	+
x	3623697	3624206	+
x	3625291	3625965	+
x	3628324	3629613	+
x	3628654	3629613	+
x	3629263	3629613	+
x	3632700	3632969	+
x	3632963	3632838	-
x	3635317	3634307	-
x	3636070	3635390	-
x	3636111	3636671	+
x	3638479	3637931	-
x	3638558	3638445	-
x	3638637	3639659	+
x	3639650	3640546	+
x	3643037	3641877	-
x	3643137	3643274	+
x	3645215	3643275	-
x	3645164	3643275	-
x	3645237	3645157	-
x	3645301	3645459	+
x	3646274	3648496	+
x	3648541	3646337	-
x	3648559	3646337	-
x	3650500	3650081	-
x	3655280	3654858	-
x	3655316	3654858	-
x	3655322	3654858	-
x	3655493	3655855	+
x	3655733	3655855	+
x	3658809	3657292	-
x	3658023	3657292	-
x	3658950	3657292	-
x	3658935	3657292	-
x	3659313	3659089	-
x	3659857	3659477	-
x	3662281	3661367	-
x	3662260	3661367	-
x	3664239	3662305	-
x	3664208	3664342	+
x	3664812	3664339	-
x	3665326	3665024	-
x	3666004	3665543	-
x	3670107	3670232	+
x	3670247	3670816	+
x	3673960	3673706	-
x	3674392	3674120	-
x	3674509	3674120	-
x	3675633	3675067	-
x	3678194	3678409	+
x	3678402	3679409	+
x	3680516	3681094	+
x	3680573	3681094	+
x	3683711	3684226	+
x	3687625	3686963	-
x	3691240	3690278	-
x	3691144	3690278	-
x	3691357	3691253	-
x	3691774	3696342	+
x	3691789	3696342	+
x	3692134	3696342	+
x	3700513	3699605	-
x	3700519	3699605	-
x	3701208	3700477	-
x	3702734	3701214	-
x	3704619	3703828	-
x	3707447	3707656	+
x	3708811	3708308	-
x	3710270	3710674	+
x	3710786	3712195	+
x	3714418	3713414	-
x	3714630	3714803	+
x	3714639	3714803	+
x	3715571	3715885	+
x	3719421	3719218	-
x	3719622	3720533	+
x	3726053	3722262	-
x	3727617	3726130	-
x	3727587	3726130	-
x	3730951	3729848	-
x	3730966	3729848	-
x	3734299	3734463	+
x	3734421	3734320	-
x	3734548	3734667	+
x	3734599	3734667	+
x	3734671	3734835	+
x	3735098	3734937	-
x	3735079	3735267	+
x	3735682	3737070	+
x	3737405	3738862	+
x	3739864	3739736	-
x	3740189	3741049	+
x	3740204	3741049	+
x	3741451	3742341	+
x	3742425	3742604	+
x	3742491	3742604	+
x	3743679	3743446	-
x	3746709	3747941	+
x	3747174	3747941	+
x	3748088	3747798	-
x	3748609	3748463	-
x	3748954	3749871	+
x	3749921	3751120	+
x	3751127	3752233	+
x	3753308	3753580	+
x	3754498	3754725	+
x	3756060	3756365	+
x	3757455	3757135	-
x	3757500	3757135	-
x	3758833	3759603	+
x	3759020	3758856	-
x	3759049	3759603	+
x	3759752	3759579	-
x	3761228	3760656	-
x	3761538	3761233	-
x	3761751	3761233	-
x	3771558	3771938	+
x	3774509	3775060	+
x	3775111	3775734	+
x	3775819	3776376	+
x	3777462	3778016	+
x	3778563	3778979	+
x	3779696	3780103	+
x	3780323	3781249	+
x	3781177	3781758	+
x	3781458	3782093	+
x	3782029	3782730	+
x	3783373	3783212	-
x	3783540	3783929	+
x	3786081	3784852	-
x	3788297	3788731	+
x	3788801	3789262	+
x	3789319	3788885	-
x	3791159	3790425	-
x	3795865	3795314	-
x	3800605	3800820	+
x	3801498	3803600	+
x	3803537	3803656	+
x	3806327	3806160	-
x	3806551	3806432	-
x	3807294	3807148	-
x	3811963	3812517	+
x	3814618	3815955	+
x	3815976	3816998	+
x	3818226	3818660	+
x	3818694	3819491	+
x	3820263	3819643	-
x	3822448	3822056	-
x	3826172	3825768	-
x	3826995	3826147	-
x	3833898	3833221	-
x	3833943	3833221	-
x	3835276	3834143	-
x	3835303	3834143	-
x	3835351	3834143	-
x	3835733	3835293	-
x	3835736	3835293	-
x	3835833	3835687	-
x	3837456	3836650	-
x	3837525	3840101	+
x	3840254	3840126	-
x	3841027	3841149	+
x	3841158	3843281	+
x	3843301	3844014	+
x	3844451	3845329	+
x	3847322	3847194	-
x	3847498	3849189	+
x	3851608	3851423	-
x	3851525	3852037	+
x	3852137	3854455	+
x	3852233	3854455	+
x	3855125	3857458	+
x	3857449	3857694	+
x	3858182	3858775	+
x	3858203	3858775	+
x	3859458	3859607	+
x	3859549	3860295	+
x	3859564	3860295	+
x	3867499	3867398	-
x	3867618	3867499	-
x	3871517	3870498	-
x	3876112	3875288	-
x	3876513	3876163	-
x	3876664	3878184	+
x	3879475	3879615	+
x	3881858	3880341	-
x	3881756	3880341	-
x	3881755	3881925	+
x	3887204	3885873	-
x	3887189	3885873	-
x	3894628	3893561	-
x	3894826	3893561	-
x	3895393	3894905	-
x	3895453	3894905	-
x	3895396	3894905	-
x	3896536	3895571	-
x	3896644	3896793	+
x	3898490	3898744	+
x	3898592	3898744	+
x	3898955	3898668	-
x	3898863	3898702	-
x	3899293	3899466	+
x	3900881	3901372	+
x	3900917	3901372	+
x	3901458	3901622	+
x	3901467	3901622	+
x	3902257	3902144	-
x	3906274	3905165	-
x	3909717	3909613	-
x	3909622	3909690	+
x	3909657	3909788	+
x	3910490	3909777	-
x	3910502	3909777	-
x	3914667	3913504	-
x	3914640	3914786	+
x	3917527	3916367	-
x	3919925	3918840	-
x	3922668	3923060	+
x	3922788	3923060	+
x	3926524	3926826	+
x	3927713	3928324	+
x	3927725	3928324	+
x	3929545	3928328	-
x	3929578	3928328	-
x	3929596	3930726	+
x	3929632	3930726	+
x	3931454	3931278	-
x	3937253	3936921	-
x	3938819	3937611	-
x	3938738	3937611	-
x	3941419	3938735	-
x	3942445	3942314	-
x	3942497	3942384	-
x	3946445	3947596	+
x	3946572	3946474	-
x	3946502	3947596	+
x	3947676	3947344	-
x	3951197	3950916	-
x	3952439	3952260	-
x	3954769	3953912	-
x	3954727	3953912	-
x	3954706	3953912	-
x	3956753	3954672	-
x	3956866	3957759	+
x	3959353	3959237	-
x	3959365	3959237	-
x	3959342	3959521	+
x	3959348	3959521	+
x	3959795	3959634	-
x	3959957	3959865	-
x	3962709	3963722	+
x	3962760	3963722	+
x	3964098	3964205	+
x	3965739	3966338	+
x	3967725	3967066	-
x	3967641	3967066	-
x	3968103	3967777	-
x	3968833	3969378	+
x	3970099	3970704	+
x	3970144	3970704	+
x	3970983	3970705	-
x	3970748	3971041	+
x	3970754	3971041	+
x	3971137	3971021	-
x	3971113	3971021	-
x	3977876	3977706	-
x	3979283	3977991	-
x	3979454	3977991	-
x	3979898	3979602	-
x	3980998	3980201	-
x	3981179	3981298	+
x	3984153	3985124	+
x	3990228	3988153	-
x	3991053	3990283	-
x	3990897	3990283	-
x	3990918	3990283	-
x	3990934	3992211	+
x	3991004	3991198	+
x	3991019	3991198	+
x	3991063	3992211	+
x	3991245	3991123	-
x	3995236	3995412	+
x	3995314	3995412	+
x	3997442	3995493	-
x	3997481	3995493	-
x	4000571	3997563	-
x	4001036	3997563	-
x	3998432	3997563	-
x	4002124	4001018	-
x	4002130	4001018	-
x	4004440	4002131	-
x	4004407	4002131	-
x	4004557	4002131	-
x	4004434	4002131	-
x	4007147	4004481	-
x	4007824	4007096	-
x	4007833	4007096	-
x	4007632	4007096	-
x	4008321	4009892	+
x	4008333	4009892	+
x	4009892	4010080	+
x	4012040	4011843	-
x	4012118	4011843	-
x	4011950	4011843	-
x	4012010	4011843	-
x	4012085	4011843	-
x	4011992	4012381	+
x	4012013	4012381	+
x	4012022	4012381	+
x	4012134	4012310	+
x	4012190	4012381	+
x	4012433	4012326	-
x	4012523	4012326	-
x	4012496	4012804	+
x	4012673	4012804	+
x	4012976	4012809	-
x	4012916	4012809	-
x	4013084	4012989	-
x	4012991	4013176	+
x	4013191	4013081	-
x	4013329	4014663	+
x	4018582	4018926	+
x	4018706	4018864	+
x	4018777	4018926	+
x	4021527	4020886	-
x	4022086	4021625	-
x	4022179	4021625	-
x	4022110	4022358	+
x	4022128	4022358	+
x	4022170	4022358	+
x	4022519	4022851	+
x	4024618	4022894	-
x	4026162	4024909	-
x	4026453	4026346	-
x	4027050	4026346	-
x	4027037	4027765	+
x	4030390	4028171	-
x	4030450	4028171	-
x	4031408	4032394	+
x	4033274	4032444	-
x	4033423	4033271	-
x	4033309	4033458	+
x	4034518	4034096	-
x	4034771	4034559	-
x	4038394	4038122	-
x	4038647	4039591	+
x	4040073	4039633	-
x	4040499	4040116	-
x	4040469	4040116	-
x	4043486	4042152	-
x	4043694	4043557	-
x	4043762	4044832	+
x	4044293	4044832	+
x	4046453	4047610	+
x	4047522	4047698	+
x	4048150	4048866	+
x	4049546	4048974	-
x	4049948	4050121	+
x	4052221	4053579	+
x	4053677	4053576	-
x	4053583	4053711	+
x	4054209	4053730	-
x	4053754	4054098	+
x	4055153	4054305	-
x	4055447	4056352	+
x	4056403	4056831	+
x	4061820	4062713	+
x	4064243	4063749	-
x	4067092	4067211	+
x	4067211	4067375	+
x	4069222	4067594	-
x	4076032	4079040	+
x	4077571	4079040	+
x	4077817	4079040	+
x	4079012	4079395	+
x	4079027	4079395	+
x	4080390	4081328	+
x	4080804	4081328	+
x	4081340	4081801	+
x	4081983	4082141	+
x	4082022	4082141	+
x	4082508	4082945	+
x	4082676	4082945	+
x	4087436	4088599	+
x	4090526	4090368	-
x	4096522	4098198	+
x	4098183	4098974	+
x	4102772	4103257	+
x	4103389	4103601	+
x	4103830	4103672	-
x	4104159	4103716	-
x	4104171	4104368	+
x	4104248	4105936	+
x	4104365	4105936	+
x	4105946	4107229	+
x	4107359	4108192	+
x	4111878	4111729	-
x	4115892	4114930	-
x	4118896	4118348	-
x	4119541	4119050	-
x	4121900	4121094	-
x	4124063	4123005	-
x	4127102	4127377	+
x	4127700	4127822	+
x	4128471	4127827	-
x	4128501	4127827	-
x	4128595	4129887	+
x	4129865	4130323	+
x	4130388	4131026	+
x	4131719	4131063	-
x	4132510	4131770	-
x	4133685	4134521	+
x	4134759	4135430	+
x	4137112	4135427	-
x	4136944	4135427	-
x	4137109	4135427	-
x	4137233	4136970	-
x	4137310	4137990	+
x	4137454	4137990	+
x	4141116	4143230	+
x	4144009	4143215	-
x	4143733	4143215	-
x	4145560	4146960	+
x	4147057	4148790	+
x	4152553	4151171	-
x	4152598	4151171	-
x	4153046	4153189	+
x	4153049	4153189	+
x	4154829	4154623	-
x	4154808	4154623	-
x	4154817	4154623	-
x	4156714	4156833	+
x	4158410	4157172	-
x	4158362	4157172	-
x	4159052	4158573	-
x	4159503	4159078	-
x	4160412	4159078	-
x	4160424	4159078	-
x	4159407	4159078	-
x	4165249	4163927	-
x	4166758	4165256	-
x	4166761	4165256	-
x	4167520	4167422	-
x	4169388	4169885	+
x	4169403	4169885	+
x	4169608	4169510	-
x	4169595	4169885	+
x	4169882	4170040	+
x	4170063	4170176	+
x	4170388	4170137	-
x	4170173	4170262	+
x	4170675	4171865	+
x	4170714	4171865	+
x	4174079	4173672	-
x	4177014	4177937	+
x	4178748	4178110	-
x	4179233	4178748	-
x	4180370	4178748	-
x	4180364	4178748	-
x	4183058	4181373	-
x	4183077	4183226	+
x	4183632	4183231	-
x	4183665	4183231	-
x	4184190	4183771	-
x	4184602	4184444	-
x	4184490	4184822	+
x	4184562	4184822	+
x	4186074	4184824	-
x	4186071	4184824	-
x	4186006	4186134	+
x	4186118	4187203	+
x	4186121	4187203	+
x	4188519	4187200	-
x	4188492	4187200	-
x	4192200	4192856	+
x	4194236	4193829	-
x	4196884	4194467	-
x	4200503	4199088	-
x	4200422	4199088	-
x	4200985	4200785	-
x	4201145	4201005	-
x	4201288	4201614	+
x	4201637	4201302	-
x	4201578	4201835	+
x	4201710	4201835	+
x	4205197	4205271	+
x	4205477	4206907	+
x	4207043	4208245	+
x	4209518	4210486	+
x	4209584	4210486	+
x	4209599	4210486	+
x	4210631	4211392	+
x	4217347	4216178	-
x	4217374	4216178	-
x	4217380	4216178	-
x	4222441	4220489	-
x	4221591	4221731	+
x	4223330	4222500	-
x	4223360	4222500	-
x	4224365	4223622	-
x	4224395	4225189	+
x	4226110	4225226	-
x	4232056	4229534	-
x	4237236	4237150	-
x	4237341	4237889	+
x	4237859	4237446	-
x	4240218	4241897	+
x	4240314	4241897	+
x	4241937	4242674	+
x	4242003	4242674	+
x	4244171	4243953	-
x	4244345	4243953	-
x	4251476	4250049	-
x	4253014	4251494	-
x	4255236	4255667	+
x	4258169	4259065	+
x	4258175	4259065	+
x	4259164	4260120	+
x	4259176	4260120	+
x	4260133	4261116	+
x	4260433	4261116	+
x	4262509	4261082	-
x	4263080	4262532	-
x	4263560	4263447	-
x	4263645	4263520	-
x	4264781	4265146	+
x	4264826	4265146	+
x	4266129	4265824	-
x	4267691	4267464	-
x	4268846	4268355	-
x	4269621	4269025	-
x	4271897	4270347	-
x	4271432	4270347	-
x	4272073	4271888	-
x	4272220	4272318	+
x	4274104	4274364	+
x	4279746	4278772	-
x	4279662	4281287	+
x	4282345	4281854	-
x	4282505	4284541	+
x	4286081	4284588	-
x	4287497	4287931	+
x	4287548	4287931	+
x	4287988	4287596	-
x	4288072	4288173	+
x	4288186	4289517	+
x	4289551	4289745	+
x	4289772	4290860	+
x	4290869	4291918	+
x	4290935	4291918	+
x	4296308	4296982	+
x	4296377	4296982	+
x	4304769	4306034	+
x	4306176	4306331	+
x	4311065	4310109	-
x	4311050	4310109	-
x	4311532	4311203	-
x	4311488	4313983	+
x	4311494	4313983	+
x	4314134	4314472	+
x	4316270	4315701	-
x	4317209	4315701	-
x	4318688	4319515	+
x	4321858	4324074	+
x	4324998	4325111	+
x	4325340	4326305	+
x	4326186	4326305	+
x	4326769	4326359	-
x	4327689	4326835	-
x	4327819	4328016	+
x	4327840	4328016	+
x	4327897	4328016	+
x	4328427	4328041	-
x	4328319	4328041	-
x	4328096	4328212	+
x	4328625	4328939	+
x	4328640	4328939	+
x	4330392	4329925	-
x	4331438	4331599	+
x	4331553	4333388	+
x	4333452	4334072	+
x	4333704	4334072	+
x	4334550	4334134	-
x	4334753	4334938	+
x	4335778	4336695	+
x	4335832	4336695	+
x	4337532	4336777	-
x	4341809	4340928	-
x	4341991	4341875	-
x	4341999	4342766	+
x	4342116	4342766	+
x	4342854	4343012	+
x	4342922	4344334	+
x	4345153	4345803	+
x	4345168	4345803	+
x	4347477	4347788	+
x	4347870	4348307	+
x	4349116	4349910	+
x	4352068	4352802	+
x	4356482	4354167	-
x	4357877	4358491	+
x	4360854	4360729	-
x	4361989	4362354	+
x	4362034	4362354	+
x	4363429	4363124	-
x	4364991	4364764	-
x	4366631	4366119	-
x	4367203	4366628	-
x	4367252	4367551	+
x	4369282	4369422	+
x	4371839	4370883	-
x	4371815	4370883	-
x	4371727	4371879	+
x	4372054	4371935	-
x	4372120	4371935	-
x	4375333	4375184	-
x	4375327	4375184	-
x	4375943	4375347	-
x	4375946	4375347	-
x	4376138	4375998	-
x	4376251	4376015	-
x	4376197	4376015	-
x	4376276	4376353	+
x	4376592	4376446	-
x	4377253	4378632	+
x	4378838	4378725	-
x	4380513	4379044	-
x	4380462	4379044	-
x	4383309	4383076	-
x	4383377	4383225	-
x	4386330	4387208	+
x	4390835	4389426	-
x	4392257	4390872	-
x	4392290	4390872	-
x	4395449	4394538	-
x	4395464	4394538	-
x	4398796	4399698	+
x	4399708	4400517	+
x	4400595	4401215	+
x	4401302	4402081	+
x	4402512	4403501	+
x	4404548	4403565	-
x	4405882	4406127	+
x	4405909	4406127	+
x	4405915	4406127	+
x	4406370	4406588	+
x	4406802	4406635	-
x	4407047	4406817	-
x	4407005	4406817	-
x	4407065	4406817	-
x	4406996	4407550	+
x	4407089	4407550	+
x	4407648	4408049	+
x	4408010	4407861	-
x	4413083	4410669	-
x	4413719	4413132	-
x	4413913	4414746	+
x	4415607	4415939	+
x	4420254	4418797	-
x	4420882	4420730	-
x	4423661	4422396	-
x	4425269	4425349	+
x	4426208	4427167	+
x	4426319	4427167	+
x	4427955	4427164	-
x	4428477	4429103	+
x	4429321	4430346	+
x	4429354	4430346	+
x	4429357	4430346	+
x	4430465	4431169	+
x	4430480	4431169	+
x	4433490	4433993	+
x	4435094	4434990	-
x	4435129	4436187	+
x	4435165	4436187	+
x	4436336	4436184	-
x	4436227	4436349	+
x	4436242	4436349	+
x	4437230	4437496	+
x	4437633	4438358	+
x	4444833	4443388	-
x	4445001	4443388	-
x	4444917	4443388	-
x	4445605	4444919	-
x	4446171	4446434	+
x	4446189	4446434	+
x	4446576	4447055	+
x	4448035	4447097	-
x	4450908	4450054	-
x	4452097	4451105	-
x	4452136	4451105	-
x	4452096	4452212	+
x	4454556	4452286	-
x	4454809	4454669	-
x	4456286	4459156	+
x	4459448	4459726	+
x	4459765	4459451	-
x	4459944	4459759	-
x	4460243	4459971	-
x	4460166	4460459	+
x	4460287	4460496	+
x	4461039	4461125	+
x	4461208	4461050	-
x	4461411	4461223	-
x	4461453	4461223	-
x	4461471	4461223	-
x	4461402	4461959	+
x	4461495	4461959	+
x	4462057	4462479	+
x	4462419	4462270	-
x	4462675	4462454	-
x	4462934	4464208	+
x	4462994	4464208	+
x	4466916	4466782	-
x	4468172	4470391	+
x	4470452	4471390	+
x	4472265	4472146	-
x	4473451	4472309	-
x	4476232	4474097	-
x	4476207	4476698	+
x	4476234	4476698	+
x	4477666	4477986	+
x	4478360	4478124	-
x	4480566	4481513	+
x	4480674	4481513	+
x	4484621	4482843	-
x	4488952	4487762	-
x	4490046	4490855	+
x	4490079	4490855	+
x	4492727	4494001	+
x	4497836	4496502	-
x	4498179	4498883	+
x	4500706	4502595	+
x	4500709	4502595	+
x	4502528	4503397	+
x	4502609	4503397	+
x	4503626	4503513	-
x	4503711	4503586	-
x	4504847	4505212	+
x	4504892	4505212	+
x	4506195	4505890	-
x	4507757	4507530	-
x	4508950	4508675	-
x	4512028	4511102	-
x	4512073	4511102	-
x	4512208	4511102	-
x	4512035	4512229	+
x	4512394	4512239	-
x	4518011	4517571	-
x	4518238	4522299	+
x	4529736	4528891	-
x	4529676	4528891	-
x	4529919	4528891	-
x	4529706	4528891	-
x	4530584	4529847	-
x	4530695	4529847	-
x	4530617	4529847	-
x	4531233	4530595	-
x	4537586	4538287	+
x	4537652	4538287	+
x	4538855	4538289	-
x	4538961	4540328	+
x	4544640	4544491	-
x	4546228	4546593	+
x	4546273	4546593	+
x	4547576	4547271	-
x	4549138	4548911	-
x	4552059	4553678	+
x	4553693	4555012	+
x	4555161	4555009	-
x	4555259	4555053	-
x	4555088	4555186	+
x	4555179	4555280	+
x	4559753	4558890	-
x	4559665	4559769	+
x	4559899	4563597	+
x	4563892	4565448	+
x	4567923	4567771	-
x	4569239	4570039	+
x	4569248	4570039	+
x	4569326	4570039	+
x	4571007	4570075	-
x	4573014	4574669	+
x	4575008	4575217	+
x	4575024	4575266	+
x	4575380	4576018	+
x	4576090	4576752	+
x	4578861	4579013	+
x	4584208	4582649	-
x	4585725	4585630	-
x	4585812	4587017	+
x	4587092	4588429	+
x	4588572	4589501	+
x	4589730	4589936	+
x	4589981	4590946	+
x	4590014	4590946	+
x	4591421	4592029	+
x	4591427	4592029	+
x	4595552	4593069	-
x	4595700	4595302	-
x	4596822	4598147	+
x	4598257	4598472	+
x	4599089	4598514	-
x	4599623	4600369	+
x	4599656	4600369	+
x	4600733	4601770	+
x	4600751	4601770	+
x	4600778	4601770	+
x	4601694	4602146	+
x	4601922	4602146	+
x	4603403	4602312	-
x	4606136	4607371	+
x	4608135	4607593	-
x	4608132	4607593	-
x	4608096	4607593	-
x	4613146	4613745	+
x	4613152	4613745	+
x	4614224	4613844	-
x	4614194	4613844	-
x	4614212	4614346	+
x	4614546	4616141	+
x	4615809	4616141	+
x	4617004	4617270	+
x	4618890	4619006	+
x	4624299	4623982	-
x	4628321	4628893	+
x	4630570	4632252	+
x	4630573	4632252	+
x	4630630	4632252	+
x	4630645	4632252	+
x	4632559	4633221	+
x	4633486	4633355	-
x	4633483	4633355	-
x	4637462	4637848	+
x	4637884	4637465	-
x	4637946	4638059	+
x	4641455	4639545	-
x	4642921	4642646	-
x	4643157	4643038	-
x	4645127	4643130	-
x	4646104	4645778	-
x	4647319	4646990	-
x	4649880	4649101	-
x	4650680	4649892	-
x	4651576	4650647	-
x	4650749	4651420	+
x	4652555	4651485	-
x	4654317	4653583	-
x	4657012	4657110	+
x	4657693	4658127	+
x	4658280	4657798	-
x	4658211	4657798	-
x	4658105	4658317	+
x	4660760	4661638	+
x	4661869	4663404	+
x	4664681	4663581	-
x	4667035	4665347	-
x	4666990	4665347	-
x	4669423	4669286	-
x	4669565	4669461	-
x	4671921	4669654	-
x	4673027	4673221	+
x	4674745	4676190	+
x	4674781	4676190	+
x	4675021	4676190	+
x	4680145	4679120	-
x	4683055	4683189	+
x	4684075	4684281	+
x	4684492	4684635	+
x	4686145	4684601	-
x	4690024	4687871	-
x	4690057	4687871	-
x	4693623	4693841	+
x	4694067	4693786	-
x	4694126	4694245	+
x	4694734	4694135	-
x	4696216	4694747	-
x	4696525	4694747	-
x	4696764	4696420	-
x	4698082	4696874	-
x	4697989	4696874	-
x	4699774	4698293	-
x	4699881	4699765	-
x	4700165	4700542	+
x	4701874	4700558	-
x	4702280	4701957	-
x	4702404	4702087	-
x	4704178	4704564	+
x	4704966	4704250	-
x	4704604	4704753	+
x	4705525	4705064	-
x	4705618	4705064	-
x	4705549	4705797	+
x	4705567	4705797	+
x	4705609	4705797	+
x	4705812	4705928	+
x	4708982	4708428	-
x	4709090	4708992	-
x	4709001	4709123	+
x	4709234	4709380	+
x	4709492	4709872	+
x	4711753	4710491	-
x	4711657	4710491	-
x	4712076	4711687	-
x	4713188	4712463	-
x	4715293	4716300	+
x	4716477	4718021	+
x	4716564	4718021	+
x	4721415	4722440	+
x	4721559	4722440	+
x	4723595	4722582	-
x	4723667	4722582	-
x	4723585	4724274	+
x	4723612	4724274	+
x	4723660	4724274	+
x	4723675	4724274	+
x	4724309	4724440	+
x	4724876	4724496	-
x	4726039	4725053	-
x	4726237	4725053	-
x	4726170	4727738	+
x	4726206	4727738	+
x	4727713	4728171	+
x	4727950	4728171	+
x	4728175	4729527	+
x	4729534	4731384	+
x	4732866	4734077	+
x	4737031	4738110	+
x	4738737	4741220	+
x	4744023	4744502	+
x	4744528	4744421	-
x	4744635	4745150	+
x	4745396	4746316	+
x	4746382	4748025	+
x	4746385	4748025	+
x	4748444	4748142	-
x	4748417	4748142	-
x	4748895	4748566	-
x	4751756	4750686	-
x	4752048	4753502	+
x	4753834	4753499	-
x	4753512	4753823	+
x	4753518	4753823	+
x	4754158	4754961	+
x	4754272	4754961	+
x	4755082	4755825	+
x	4755777	4756511	+
x	4756999	4757118	+
x	4757523	4757140	-
x	4758693	4758205	-
x	4761655	4761161	-
x	4761637	4761161	-
x	4766069	4765287	-
x	4767839	4768564	+
x	4767890	4768564	+
x	4769194	4768565	-
x	4773543	4772569	-
x	4774480	4774971	+
x	4774501	4774971	+
x	4777052	4775100	-
x	4775336	4775100	-
x	4778779	4779051	+
x	4778806	4779051	+
x	4781500	4780796	-
x	4781461	4780796	-
x	4781542	4781670	+
x	4787503	4787234	-
x	4787416	4787234	-
x	4787699	4787956	+
x	4787986	4788300	+
x	4788909	4789049	+
x	4789068	4788922	-
x	4791808	4792854	+
x	4791832	4792854	+
x	4791892	4792854	+
x	4792856	4793836	+
x	4792865	4793836	+
x	4797212	4798564	+
x	4799012	4798602	-
x	4798831	4799133	+
x	4801979	4802101	+
x	4802361	4802185	-
x	4805459	4804038	-
x	4806530	4806763	+
x	4806575	4806763	+
x	4809813	4809715	-
x	4810076	4809828	-
x	4810016	4809828	-
x	4810058	4809828	-
x	4810007	4810561	+
x	4810100	4810561	+
x	4810659	4811063	+
x	4811021	4810872	-
x	4811510	4811085	-
x	4811543	4811085	-
x	4813148	4812957	-
x	4813091	4812957	-
x	4813118	4812957	-
x	4813106	4812957	-
x	4813267	4813130	-
x	4813221	4813403	+
x	4813725	4813883	+
x	4814785	4814949	+
x	4815021	4815275	+
x	4815275	4815403	+
x	4815411	4815872	+
x	4817093	4817404	+
x	4819581	4819288	-
x	4819957	4821180	+
x	4824756	4824619	-
x	4826752	4826624	-
x	4826687	4827766	+
x	4827763	4828848	+
x	4831700	4830639	-
x	4831936	4831733	-
x	4831939	4831733	-
x	4833487	4833281	-
x	4833727	4833281	-
x	4833391	4833281	-
x	4833667	4833281	-
x	4833691	4833281	-
x	4835367	4833844	-
x	4835513	4835391	-
x	4836438	4835959	-
x	4836198	4835959	-
x	4836441	4835959	-
x	4836713	4836438	-
x	4837559	4837867	+
x	4837915	4838730	+
x	4837924	4838730	+
x	4840302	4839010	-
x	4840055	4840318	+
x	4842347	4840350	-
x	4843319	4842501	-
x	4847862	4848206	+
x	4848262	4848687	+
x	4849133	4849255	+
x	4849279	4850802	+
x	4851923	4851405	-
x	4852796	4851405	-
x	4852025	4851405	-
x	4852523	4851405	-
x	4851918	4852112	+
x	4853085	4852993	-
x	4853286	4852993	-
x	4853738	4853337	-
x	4853717	4853337	-
x	4853498	4853337	-
x	4855289	4855453	+
x	4856472	4855486	-
x	4856952	4855486	-
x	4858336	4857434	-
x	4862526	4862738	+
x	4862603	4862830	+
x	4862749	4863042	+
x	4862857	4863042	+
x	4862875	4863042	+
x	4863043	4863252	+
x	4863978	4864271	+
x	4864014	4864271	+
x	4864643	4864434	-
x	4865022	4866380	+
x	4866616	4866765	+
x	4867857	4866619	-
x	4867584	4866619	-
x	4866979	4867173	+
x	4868346	4868053	-
x	4868145	4868053	-
x	4869366	4868452	-
x	4868832	4868452	-
x	4868598	4868452	-
x	4870130	4870309	+
x	4870875	4870390	-
x	4871037	4870390	-
x	4871265	4871104	-
x	4872360	4871839	-
x	4872102	4871839	-
x	4872668	4872261	-
x	4872662	4872261	-
x	4873527	4872922	-
x	4873690	4873890	+
x	4874232	4874068	-
x	4874376	4874236	-
x	4874978	4874712	-
x	4874948	4874712	-
x	4874945	4874712	-
x	4874924	4875325	+
x	4875119	4875325	+
x	4875405	4876022	+
x	4875420	4876022	+
x	4876125	4875928	-
x	4876194	4876391	+
x	4877075	4876860	-
x	4877223	4878125	+
x	4877412	4878125	+
x	4878147	4879082	+
x	4878957	4879082	+
x	4879330	4879443	+
x	4879379	4882300	+
x	4880450	4882300	+
x	4882371	4882529	+
x	4883535	4882690	-
x	4883544	4882690	-
x	4883463	4884317	+
x	4883502	4884317	+
x	4883772	4884317	+
x	4884281	4883838	-
x	4884425	4883838	-
x	4884318	4884809	+
x	4884363	4884809	+
x	4885148	4885624	+
x	4885331	4885624	+
x	4885358	4885624	+
x	4885376	4885624	+
x	4885463	4885624	+
x	4885481	4885624	+
x	4886088	4886576	+
x	4886142	4886576	+
x	4886224	4886769	+
x	4886869	4887027	+
x	4886872	4887027	+
x	4886875	4887027	+
x	4897446	4897144	-
x	4898664	4897759	-
x	4898688	4897759	-
x	4898594	4898716	+
x	4901102	4899888	-
x	4901739	4901014	-
x	4901562	4901014	-
x	4901968	4902096	+
x	4902098	4902247	+
x	4902925	4902608	-
x	4902796	4902608	-
x	4903126	4903338	+
x	4903203	4903430	+
x	4903475	4903843	+
x	4903643	4903843	+
x	4904758	4905291	+
x	4905413	4905285	-
x	4905298	4905807	+
x	4905818	4906729	+
x	4908325	4908633	+
x	4910519	4911310	+
x	4911573	4912298	+
x	4913315	4913190	-
x	4913478	4913561	+
x	4913797	4913931	+
x	4913888	4914289	+
x	4913897	4914289	+
x	4915010	4914282	-
x	4915025	4914282	-
x	4915122	4915027	-
x	4917596	4916901	-
x	4917614	4917697	+
x	4918760	4918401	-
x	4920615	4919647	-
x	4920507	4919647	-
x	4921599	4920826	-
x	4922775	4921603	-
x	4925708	4925920	+
x	4925785	4926012	+
x	4925931	4926191	+
x	4926039	4926191	+
x	4926057	4926191	+
x	4926224	4926433	+
x	4926605	4926919	+
x	4926632	4926919	+
x	4926765	4927208	+
x	4926912	4927208	+
x	4928096	4927242	-
x	4928282	4927242	-
x	4928237	4927242	-
x	4930612	4928462	-
x	4930576	4928462	-
x	4935084	4934278	-
x	4935316	4936353	+
x	4935340	4936353	+
x	4938745	4936493	-
x	4939532	4939038	-
x	4939529	4939038	-
x	4941440	4940967	-
x	4941293	4940967	-
x	4941455	4940967	-
x	4942255	4941431	-
x	4942201	4941431	-
x	4942897	4943547	+
x	4943559	4944182	+
x	4943655	4944182	+
x	4945110	4945385	+
x	4945149	4945385	+
x	4948683	4948835	+
x	4948732	4950348	+
x	4950663	4951346	+
x	4950747	4951346	+
x	4951443	4951634	+
x	4951455	4951634	+
x	4951720	4952829	+
x	4952970	4953608	+
x	4956158	4956259	+
x	4956340	4957143	+
x	4957399	4958592	+
x	4961090	4960941	-
x	4962778	4963884	+
x	4963885	4965315	+
x	4965315	4966568	+
x	4966619	4966768	+
x	4968516	4968644	+
x	4968726	4970690	+
x	4968786	4970690	+
x	4970810	4971106	+
x	4971712	4971191	-
x	4978888	4979595	+
