x	333	133	-
x	294	2798	+
x	342	2798	+
x	5087	5236	+
x	5242	5529	+
x	5557	5309	-
x	5348	5560	+
x	8061	9077	+
x	9189	9779	+
x	9940	9803	-
x	9811	9948	+
x	10877	11401	+
x	10886	11401	+
x	12044	11907	-
x	12121	11972	-
x	14208	12172	-
x	14189	15349	+
x	15448	15735	+
x	15606	15454	-
x	15588	15454	-
x	16969	18492	+
x	16999	18492	+
x	18621	19880	+
x	21323	22246	+
x	21347	22246	+
x	22341	22213	-
x	22258	22590	+
x	22527	22342	-
x	27742	28737	+
x	31281	31099	-
x	31296	31099	-
x	31424	31350	-
x	31515	32690	+
x	36008	36196	+
x	36153	36611	+
x	36234	36611	+
x	36273	36611	+
x	36866	36648	-
x	36796	37296	+
x	37405	37244	-
x	38026	37415	-
x	38796	38011	-
x	38835	38011	-
x	40458	38905	-
x	44578	44679	+
x	44857	44967	+
x	44973	45806	+
x	45000	45806	+
x	50332	52266	+
x	52323	52937	+
x	52347	52937	+
x	53259	53381	+
x	53458	53574	+
x	54390	54743	+
x	56592	55624	-
x	60273	57952	-
x	60468	61376	+
x	64956	62197	-
x	65055	62197	-
x	72174	73070	+
x	72216	73070	+
x	73335	73457	+
x	73585	74433	+
x	73861	74433	+
x	76614	75895	-
x	78121	76577	-
x	79158	78163	-
x	79309	79190	-
x	80986	79310	-
x	81054	81185	+
x	81344	81529	+
x	84406	83312	-
x	86611	86733	+
x	86726	87754	+
x	86792	87754	+
x	87912	87790	-
x	87918	87790	-
x	87982	89796	+
x	87988	89796	+
x	88030	89796	+
x	88096	89796	+
x	89769	90290	+
x	90293	90388	+
x	90302	90388	+
x	90342	90473	+
x	92040	92534	+
x	92437	93477	+
x	92539	93477	+
x	93486	93839	+
x	95623	97095	+
x	95680	97095	+
x	100842	102089	+
x	102110	103153	+
x	109994	110659	+
x	110072	110659	+
x	113969	114166	+
x	116837	116730	-
x	119890	120063	+
x	125945	126181	+
x	125963	126181	+
x	126636	126875	+
x	126654	126875	+
x	126768	126875	+
x	127283	127140	-
x	127333	127521	+
x	127351	127521	+
x	127433	127582	+
x	127575	127865	+
x	128288	129085	+
x	134020	135447	+
x	137440	135689	-
x	137648	140398	+
x	137879	140398	+
x	140525	140935	+
x	141524	140973	-
x	143063	142755	-
x	143141	142755	-
x	143102	142755	-
x	143225	142755	-
x	143229	144818	+
x	147273	144865	-
x	147422	147997	+
x	147449	147997	+
x	147566	147997	+
x	149735	150502	+
x	152692	152877	+
x	152764	152877	+
x	153184	153882	+
x	154737	153964	-
x	156998	155733	-
x	156044	155733	-
x	156674	155733	-
x	158279	157671	-
x	162936	162346	-
x	163069	162929	-
x	162977	163105	+
x	165138	163774	-
x	166127	165231	-
x	166667	166194	-
x	168085	167546	-
x	168289	167546	-
x	168105	170579	+
x	170674	170507	-
x	170576	170686	+
x	173427	173272	-
x	173406	173272	-
x	173454	173272	-
x	175616	176518	+
x	176515	177408	+
x	182397	182774	+
x	182786	182526	-
x	193538	191043	-
x	194741	195664	+
x	195780	195616	-
x	196545	195616	-
x	197790	197512	-
x	197708	198229	+
x	199706	200464	+
x	200464	200616	+
x	200507	201334	+
x	200585	201334	+
x	201301	202698	+
x	205366	205767	+
x	206808	207356	+
x	206976	207356	+
x	216649	217065	+
x	218658	218476	-
x	218941	218723	-
x	220807	221004	+
x	221766	220933	-
x	221487	220933	-
x	223582	221810	-
x	224696	224343	-
x	229599	229964	+
x	229644	229964	+
x	231030	230725	-
x	232592	232350	-
x	233752	233381	-
x	235845	236669	+
x	235890	236669	+
x	238784	237564	-
x	238553	237564	-
x	239765	240505	+
x	239780	240505	+
x	240074	239946	-
x	241080	240502	-
x	241025	241765	+
x	241981	241667	-
x	241984	242064	+
x	242106	242249	+
x	243907	243428	-
x	245283	243925	-
x	245367	243925	-
x	248761	245294	-
x	250283	248841	-
x	257716	256436	-
x	257728	256436	-
x	260596	258746	-
x	260587	258746	-
x	263033	262530	-
x	264343	264462	+
x	264352	264462	+
x	264616	266460	+
x	267981	269045	+
x	270039	270332	+
x	271158	271646	+
x	271446	271646	+
x	271521	271646	+
x	272696	271917	-
x	272865	273314	+
x	272868	273314	+
x	275837	273357	-
x	275879	273357	-
x	275879	276619	+
x	276673	276774	+
x	276809	277591	+
x	278699	278559	-
x	278696	278559	-
x	278626	279363	+
x	278671	279363	+
x	278737	279363	+
x	280047	280154	+
x	280277	280119	-
x	280328	280119	-
x	280229	280119	-
x	282037	282825	+
x	282040	282825	+
x	282055	282825	+
x	282190	282825	+
x	284785	285159	+
x	285349	286488	+
x	286401	287099	+
x	286485	287099	+
x	286491	287099	+
x	289458	289006	-
x	292298	291237	-
x	292542	293684	+
x	295736	295344	-
x	296591	296067	-
x	296561	296067	-
x	300127	296717	-
x	301160	301357	+
x	301378	301175	-
x	301275	301400	+
x	302121	301846	-
x	302557	302742	+
x	303095	303571	+
x	304149	303820	-
x	303869	303994	+
x	304118	304005	-
x	304030	304170	+
x	305211	304456	-
x	305112	304456	-
x	305121	304456	-
x	306754	305135	-
x	310035	309319	-
x	311247	310705	-
x	311588	311493	-
x	311924	311700	-
x	311719	312009	+
x	312471	312331	-
x	312474	312331	-
x	312737	312471	-
x	313020	312859	-
x	312899	312991	+
x	313200	313099	-
x	313168	313281	+
x	313817	313674	-
x	316065	316991	+
x	316068	316991	+
x	317149	318084	+
x	317191	318084	+
x	320650	320540	-
x	320611	324798	+
x	325813	324923	-
x	325564	324923	-
x	326028	326897	+
x	326121	326897	+
x	327659	327057	-
x	327633	327902	+
x	327913	327662	-
x	329359	328007	-
x	329412	329504	+
x	329508	330413	+
x	332937	333785	+
x	333952	333740	-
x	333987	333859	-
x	337177	334880	-
x	336871	334880	-
x	337192	334880	-
x	337770	337219	-
x	338610	338134	-
x	338718	338134	-
x	338838	338134	-
x	338505	338134	-
x	338965	338810	-
x	338947	338810	-
x	339416	339258	-
x	339821	339258	-
x	339779	339258	-
x	339711	339917	+
x	339927	340112	+
x	340351	340461	+
x	340640	340867	+
x	342496	340892	-
x	342625	340892	-
x	344069	342594	-
x	344057	342594	-
x	344676	344080	-
x	344584	344799	+
x	347701	348795	+
x	349097	348837	-
x	350163	349861	-
x	350435	350677	+
x	350649	351221	+
x	352351	353661	+
x	353988	355079	+
x	356331	357575	+
x	357873	358283	+
x	358412	358311	-
x	358359	358436	+
x	358559	358443	-
x	358537	359520	+
x	359569	361053	+
x	359875	361053	+
x	359941	361053	+
x	362014	362970	+
x	362904	363041	+
x	363057	362947	-
x	364340	364504	+
x	364739	364563	-
x	364698	364973	+
x	364797	364973	+
x	364833	364973	+
x	365637	364990	-
x	365658	364990	-
x	365622	364990	-
x	366110	366232	+
x	367305	366184	-
x	367831	367929	+
x	369001	370113	+
x	373643	373497	-
x	373566	373667	+
x	375083	376381	+
x	375212	376381	+
x	377122	376502	-
x	377164	376502	-
x	382772	381681	-
x	382898	382800	-
x	383526	383633	+
x	383626	383796	+
x	386096	385800	-
x	385919	385800	-
x	385845	386147	+
x	387563	387039	-
x	387479	387039	-
x	387731	387039	-
x	389490	388804	-
x	389647	389739	+
x	390129	389935	-
x	390084	389935	-
x	390026	391045	+
x	391773	391459	-
x	394544	393537	-
x	398110	398733	+
x	399864	398734	-
x	400038	399937	-
x	400105	399983	-
x	400080	400223	+
x	400237	401463	+
x	402867	403001	+
x	403197	403409	+
x	404605	404727	+
x	404608	404727	+
x	404830	404943	+
x	404990	404838	-
x	405104	404838	-
x	405010	405249	+
x	405281	406765	+
x	406866	407204	+
x	409355	408438	-
x	409247	409825	+
x	410845	410522	-
x	410854	410522	-
x	410804	410983	+
x	410964	411110	+
x	412171	412055	-
x	412311	412168	-
x	412272	412168	-
x	412323	412168	-
x	413694	412711	-
x	413688	412711	-
x	413609	414655	+
x	413621	414655	+
x	413660	414655	+
x	414634	414816	+
x	416192	414924	-
x	416144	414924	-
x	420600	419374	-
x	420562	420693	+
x	422929	422819	-
x	423170	423021	-
x	424607	425983	+
x	426142	427956	+
x	428599	427961	-
x	431006	431368	+
x	431429	433243	+
x	433209	434225	+
x	434286	434702	+
x	435672	434740	-
x	436521	435922	-
x	437083	438168	+
x	438161	438727	+
x	439250	438717	-
x	440208	440717	+
x	440247	440717	+
x	444916	445008	+
x	445047	444934	-
x	446976	446536	-
x	447054	446536	-
x	447132	446536	-
x	447703	447089	-
x	448000	448659	+
x	448150	448659	+
x	450157	448787	-
x	450349	448787	-
x	451235	450300	-
x	451612	451202	-
x	451224	451481	+
x	452046	451531	-
x	457046	457645	+
x	457771	457091	-
x	457850	457731	-
x	457941	458291	+
x	457977	458291	+
x	458640	458218	-
x	458300	458488	+
x	458342	458488	+
x	459945	458644	-
x	462345	464744	+
x	470841	469126	-
x	470782	470901	+
x	470914	471744	+
x	471744	472355	+
x	471789	472355	+
x	471810	472355	+
x	471813	472355	+
x	471897	472355	+
x	474036	475931	+
x	476085	475945	-
x	475974	476450	+
x	476402	476169	-
x	478759	477815	-
x	478754	478876	+
x	478908	479465	+
x	479343	479465	+
x	479807	479496	-
x	479867	479496	-
x	479906	479496	-
x	482137	480581	-
x	482804	482295	-
x	483836	483606	-
x	484025	483606	-
x	483824	483606	-
x	489170	487941	-
x	488765	487941	-
x	489330	489923	+
x	490005	490169	+
x	490057	493413	+
x	493459	493608	+
x	494749	494859	+
x	494873	495478	+
x	494894	495478	+
x	497944	497567	-
x	497576	497920	+
x	500700	500575	-
x	500630	501334	+
x	500633	501334	+
x	506783	506700	-
x	508141	508326	+
x	511169	510513	-
x	511702	511337	-
x	512947	513249	+
x	513064	513249	+
x	514238	513684	-
x	518877	519209	+
x	519380	519213	-
x	521157	521035	-
x	522227	521769	-
x	523924	524730	+
x	525683	524793	-
x	526478	525708	-
x	527130	526507	-
x	527100	526507	-
x	527163	526507	-
x	527329	527787	+
x	531225	530257	-
x	533181	533951	+
x	533951	535822	+
x	540170	540634	+
x	540684	541991	+
x	541744	541652	-
x	542007	543158	+
x	545336	544083	-
x	548641	549642	+
x	549560	550468	+
x	549749	550468	+
x	553111	552575	-
x	554333	555019	+
x	557041	557298	+
x	557296	557063	-
x	559896	559525	-
x	559871	559701	-
x	561117	560554	-
x	561604	561218	-
x	562488	562108	-
x	562470	562108	-
x	562728	563096	+
x	563840	563193	-
x	567019	567837	+
x	567025	567837	+
x	567840	568328	+
x	568328	568981	+
x	569859	570674	+
x	570682	571671	+
x	570718	571671	+
x	570754	571671	+
x	571084	571671	+
x	573473	573333	-
x	573430	574071	+
x	573490	574071	+
x	577006	577428	+
x	577159	577428	+
x	577513	577719	+
x	577555	577719	+
x	577724	578074	+
x	578520	578723	+
x	578901	578614	-
x	578831	578968	+
x	578870	578968	+
x	579169	579354	+
x	580630	580752	+
x	580839	580979	+
x	581297	581112	-
x	581237	581112	-
x	583043	582537	-
x	584189	584329	+
x	584326	585918	+
x	587800	587429	-
x	588902	589309	+
x	588935	589309	+
x	589281	589655	+
x	589287	589655	+
x	589302	589655	+
x	589667	590245	+
x	589745	590245	+
x	590000	590245	+
x	590645	591385	+
x	590666	591385	+
x	591375	590965	-
x	591850	592239	+
x	591874	592239	+
x	592298	594793	+
x	595425	595817	+
x	595690	596571	+
x	595768	596571	+
x	595780	596571	+
x	595828	596571	+
x	595897	596571	+
x	595936	596571	+
x	596002	596571	+
x	596568	597149	+
x	596610	597149	+
x	597015	597149	+
x	597562	601185	+
x	598033	601185	+
x	598459	601185	+
x	598618	601185	+
x	601607	601852	+
x	602512	602348	-
x	604803	604429	-
x	604753	604890	+
x	605503	604835	-
x	605500	604835	-
x	605491	604835	-
x	605266	604835	-
x	609456	609148	-
x	609528	609148	-
x	609501	609148	-
x	609431	609580	+
x	609775	609476	-
x	609883	609476	-
x	609868	609476	-
x	609833	610138	+
x	610111	610236	+
x	610624	610193	-
x	610858	610193	-
x	610849	610193	-
x	616588	613595	-
x	618716	616554	-
x	621103	621258	+
x	627411	628823	+
x	630691	630260	-
x	631495	630992	-
x	631640	631440	-
x	632947	633060	+
x	633357	633088	-
x	633226	633414	+
x	633290	633478	+
x	634370	633600	-
x	634343	633600	-
x	634220	633600	-
x	634350	634231	-
x	636695	634395	-
x	636628	636759	+
x	636878	638080	+
x	638077	638301	+
x	638160	642179	+
x	642275	643528	+
x	642524	643528	+
x	644658	643525	-
x	646342	645326	-
x	648828	650015	+
x	652476	653252	+
x	655706	655954	+
x	659214	658642	-
x	659259	658642	-
x	660305	659244	-
x	661513	660611	-
x	662524	661718	-
x	662518	661718	-
x	663318	662803	-
x	663540	665135	+
x	665717	665256	-
x	665968	666351	+
x	666586	666425	-
x	667504	666680	-
x	669030	667600	-
x	669986	669114	-
x	670486	671880	+
x	672096	670522	-
x	672056	673102	+
x	672988	672065	-
x	674288	673281	-
x	674426	673281	-
x	674252	673281	-
x	674658	676376	+
x	676399	677025	+
x	678606	678496	-
x	679652	679485	-
x	679689	679982	+
x	680509	681303	+
x	680515	681303	+
x	682912	682799	-
x	683260	682919	-
x	683272	682919	-
x	683119	682919	-
x	684095	683520	-
x	685866	686009	+
x	685869	686009	+
x	685884	686009	+
x	690812	690603	-
x	690934	691224	+
x	690996	691166	+
x	691794	691180	-
x	692519	691815	-
x	696808	694085	-
x	698397	697429	-
x	701768	700791	-
x	701815	701976	+
x	701834	701956	+
x	703966	704175	+
x	703999	704175	+
x	708195	707155	-
x	708214	708357	+
x	708373	708254	-
x	711245	711526	+
x	711527	711664	+
x	711661	711780	+
x	711683	711934	+
x	711781	711906	+
x	712097	711915	-
x	714232	712334	-
x	713967	714101	+
x	718156	717491	-
x	718474	718340	-
x	718465	718340	-
x	718681	720570	+
x	720692	720540	-
x	722172	720823	-
x	721938	720823	-
x	722184	720823	-
x	724174	723653	-
x	726646	727887	+
x	726652	727887	+
x	726757	727887	+
x	731677	731516	-
x	731704	731516	-
x	732460	733368	+
x	734353	734267	-
x	735210	734563	-
x	735595	735233	-
x	736480	737160	+
x	737135	738826	+
x	742406	740199	-
x	742563	742411	-
x	742811	742707	-
x	742924	742790	-
x	742930	743064	+
x	743190	743086	-
x	746447	743760	-
x	747021	746437	-
x	747033	746437	-
x	750858	749089	-
x	750851	750762	-
x	757644	758261	+
x	760176	759085	-
x	760657	760283	-
x	760393	760283	-
x	762070	762261	+
x	762452	762294	-
x	762401	762294	-
x	762782	763186	+
x	762976	762839	-
x	763069	762839	-
x	763515	765293	+
x	766178	766357	+
x	773776	774129	+
x	773785	774129	+
x	773857	774129	+
x	773890	774129	+
x	774019	774129	+
x	774320	774216	-
x	774261	774377	+
x	775230	776801	+
x	777986	776706	-
x	777971	778084	+
x	778177	778377	+
x	778937	779620	+
x	781497	782792	+
x	783378	782761	-
x	783381	782761	-
x	782803	783348	+
x	784015	784149	+
x	785304	786338	+
x	786391	787095	+
x	788130	788561	+
x	790829	790062	-
x	795317	794259	-
x	795287	794259	-
x	795431	795562	+
x	797022	795538	-
x	797084	796938	-
x	797989	798144	+
x	798080	798289	+
x	801755	800835	-
x	801749	800835	-
x	803797	802844	-
x	803602	802844	-
x	803715	803864	+
x	803779	803895	+
x	804002	805033	+
x	805109	806050	+
x	806443	806613	+
x	806701	808986	+
x	806962	808986	+
x	812449	811097	-
x	812497	811097	-
x	812329	811097	-
x	811163	811360	+
x	814612	815406	+
x	816380	816243	-
x	819664	818714	-
x	819682	818714	-
x	819969	819865	-
x	820020	819865	-
x	819938	821008	+
x	819944	821008	+
x	819986	821008	+
x	821775	821284	-
x	822002	822268	+
x	823626	823495	-
x	823742	824482	+
x	826690	826809	+
x	831972	830221	-
x	832945	831950	-
x	833631	832948	-
x	834959	835480	+
x	835426	835286	-
x	835711	835442	-
x	839028	838924	-
x	841220	840855	-
x	841918	841205	-
x	844364	844468	+
x	844482	844399	-
x	844905	844645	-
x	845091	846107	+
x	848356	846104	-
x	850827	850636	-
x	851048	850755	-
x	851709	851113	-
x	851884	851801	-
x	852814	851915	-
x	853149	853670	+
x	854262	853720	-
x	855327	855542	+
x	858443	857529	-
x	863220	861421	-
x	864817	865551	+
x	868172	868780	+
x	868659	870638	+
x	868749	870638	+
x	868767	870638	+
x	870400	872196	+
x	870502	872196	+
x	870715	872196	+
x	870982	872196	+
x	871351	872196	+
x	874477	876573	+
x	875680	876573	+
x	876668	877909	+
x	876683	877909	+
x	879461	879877	+
x	881732	881100	-
x	881952	883175	+
x	881964	883175	+
x	884827	884934	+
x	884889	886151	+
x	886452	886192	-
x	887331	886543	-
x	887361	886543	-
x	888629	887358	-
x	888485	887358	-
x	888620	889186	+
x	891995	891723	-
x	894136	894660	+
x	894617	894739	+
x	894866	896122	+
x	898268	899155	+
x	899230	899703	+
x	901682	900900	-
x	903819	903247	-
x	904823	903996	-
x	904730	903996	-
x	904882	905001	+
x	905328	904942	-
x	907778	906729	-
x	907805	906729	-
x	909346	907841	-
x	909334	907841	-
x	913145	912171	-
x	914809	913151	-
x	915891	914947	-
x	916868	916167	-
x	917230	917075	-
x	919893	918943	-
x	919899	918943	-
x	920004	920138	+
x	920023	921165	+
x	922764	923108	+
x	923435	923181	-
x	923563	923279	-
x	923555	923629	+
x	924064	926355	+
x	924073	926355	+
x	924223	926355	+
x	926745	926473	-
x	927068	928051	+
x	932915	933130	+
x	933197	933838	+
x	934861	935415	+
x	935983	936303	+
x	939991	940083	+
x	942387	941317	-
x	942402	941317	-
x	942350	942463	+
x	942772	943320	+
x	942775	943320	+
x	943566	947498	+
x	947657	948268	+
x	951331	953688	+
x	954255	955181	+
x	955942	955217	-
x	956126	955998	-
x	956074	956211	+
x	956181	957305	+
x	958169	957402	-
x	961867	960671	-
x	963703	961934	-
x	963727	961934	-
x	967318	968091	+
x	968187	968041	-
x	971208	970900	-
x	971351	973645	+
x	972736	972870	+
x	978008	977739	-
x	980529	980365	-
x	980586	981383	+
x	982656	983387	+
x	982683	983387	+
x	988120	989955	+
x	990127	990684	+
x	992597	992767	+
x	992770	992672	-
x	994194	994349	+
x	995918	994473	-
x	997292	996042	-
x	996060	996245	+
x	1001875	1001081	-
x	1004027	1003026	-
x	1004763	1005800	+
x	1005938	1006516	+
x	1013075	1014775	+
x	1013117	1014775	+
x	1014772	1015335	+
x	1015632	1015501	-
x	1015629	1015501	-
x	1015575	1015772	+
x	1016454	1015828	-
x	1016544	1015828	-
x	1018001	1016415	-
x	1020003	1018891	-
x	1020018	1018891	-
x	1019955	1018891	-
x	1019988	1018891	-
x	1020133	1020303	+
x	1020802	1020287	-
x	1023769	1021607	-
x	1024255	1026402	+
x	1026901	1026434	-
x	1027848	1027690	-
x	1027860	1027690	-
x	1027742	1028236	+
x	1027769	1028236	+
x	1028205	1028600	+
x	1028649	1028281	-
x	1029820	1030218	+
x	1029940	1030218	+
x	1031673	1031497	-
x	1031997	1031857	-
x	1031989	1033134	+
x	1036566	1037483	+
x	1037611	1039161	+
x	1040322	1040414	+
x	1040464	1041804	+
x	1040506	1041804	+
x	1041992	1041792	-
x	1042112	1042014	-
x	1042441	1042701	+
x	1042468	1042701	+
x	1042489	1042701	+
x	1042582	1042701	+
x	1042643	1042906	+
x	1042676	1042906	+
x	1043084	1042911	-
x	1043081	1042911	-
x	1046961	1044274	-
x	1046976	1044274	-
x	1046004	1044274	-
x	1047055	1046786	-
x	1048864	1050084	+
x	1052594	1053226	+
x	1053374	1053273	-
x	1053475	1053374	-
x	1053576	1053475	-
x	1057414	1056869	-
x	1057675	1057905	+
x	1057808	1058011	+
x	1057838	1058011	+
x	1058024	1058161	+
x	1058786	1058094	-
x	1058789	1058094	-
x	1059382	1058786	-
x	1059316	1058786	-
x	1059795	1059337	-
x	1059912	1059337	-
x	1059891	1059337	-
x	1061269	1060442	-
x	1062343	1061648	-
x	1062382	1061648	-
x	1063521	1062340	-
x	1063431	1062340	-
x	1063691	1064356	+
x	1068424	1064396	-
x	1068413	1068622	+
x	1068416	1068622	+
x	1068701	1068510	-
x	1068654	1068791	+
x	1070473	1070345	-
x	1070509	1071339	+
x	1074072	1073938	-
x	1074427	1075215	+
x	1076918	1075680	-
x	1081913	1083403	+
x	1081964	1083403	+
x	1083393	1083647	+
x	1083400	1083504	+
x	1083790	1084767	+
x	1083979	1084767	+
x	1086276	1086154	-
x	1086191	1086730	+
x	1086209	1086730	+
x	1089062	1088490	-
x	1089114	1089254	+
x	1089123	1089254	+
x	1089799	1089665	-
x	1089866	1090348	+
x	1090903	1091235	+
x	1091512	1091667	+
x	1092237	1093718	+
x	1092288	1093718	+
x	1095206	1095075	-
x	1095259	1096812	+
x	1095310	1096812	+
x	1096775	1099348	+
x	1096835	1099348	+
x	1099357	1099581	+
x	1100125	1099748	-
x	1100250	1100152	-
x	1101176	1100205	-
x	1101272	1100205	-
x	1101461	1101565	+
x	1102586	1101603	-
x	1102694	1103800	+
x	1104999	1104421	-
x	1105062	1104421	-
x	1104487	1104654	+
x	1104977	1105123	+
x	1105361	1105248	-
x	1106899	1106642	-
x	1107488	1107186	-
x	1107431	1107186	-
x	1109274	1108657	-
x	1111300	1110062	-
x	1113706	1113308	-
x	1113826	1113719	-
x	1121490	1122203	+
x	1121496	1122203	+
x	1122212	1123312	+
x	1123282	1124253	+
x	1130298	1127122	-
x	1130388	1130762	+
x	1130442	1130762	+
x	1132547	1131951	-
x	1132574	1131951	-
x	1132669	1132547	-
x	1132676	1132581	-
x	1133591	1134631	+
x	1137875	1137501	-
x	1137782	1137501	-
x	1140032	1140184	+
x	1140264	1141073	+
x	1142656	1143513	+
x	1147361	1145301	-
x	1147280	1145301	-
x	1147693	1147523	-
x	1147806	1148183	+
x	1148210	1148563	+
x	1148574	1149218	+
x	1149238	1150023	+
x	1150046	1151059	+
x	1151025	1151624	+
x	1151996	1153327	+
x	1152047	1153327	+
x	1152080	1153327	+
x	1153428	1153324	-
x	1153515	1154093	+
x	1153566	1154093	+
x	1154865	1154155	-
x	1156326	1155367	-
x	1156332	1155367	-
x	1159968	1156474	-
x	1159983	1156474	-
x	1160395	1160048	-
x	1161278	1162582	+
x	1162437	1163276	+
x	1162590	1163276	+
x	1162632	1163276	+
x	1163282	1164520	+
x	1165587	1166297	+
x	1167223	1166435	-
x	1167157	1166435	-
x	1166962	1166435	-
x	1167690	1167220	-
x	1167723	1167220	-
x	1170430	1169573	-
x	1171744	1171529	-
x	1171758	1173026	+
x	1171947	1173026	+
x	1172490	1173026	+
x	1174205	1173075	-
x	1175480	1174272	-
x	1175654	1174272	-
x	1178593	1177946	-
x	1179774	1178623	-
x	1180877	1180254	-
x	1180827	1180949	+
x	1182176	1180995	-
x	1181108	1180995	-
x	1182177	1182329	+
x	1182931	1182443	-
x	1184108	1184572	+
x	1184141	1184572	+
x	1184500	1184174	-
x	1184721	1184500	-
x	1184539	1184682	+
x	1184817	1184728	-
x	1185111	1185028	-
x	1185044	1185229	+
x	1185221	1185108	-
x	1185251	1185577	+
x	1185454	1185272	-
x	1185840	1185451	-
x	1185714	1185451	-
x	1185460	1185771	+
x	1186775	1186128	-
x	1186862	1186128	-
x	1187336	1187184	-
x	1187560	1187291	-
x	1187434	1187291	-
x	1188313	1188191	-
x	1188632	1189186	+
x	1189547	1189203	-
x	1189475	1189203	-
x	1189223	1189336	+
x	1189635	1189453	-
x	1191218	1190661	-
x	1191101	1190661	-
x	1191911	1191258	-
x	1191881	1191258	-
x	1191953	1191258	-
x	1192029	1192244	+
x	1192715	1193179	+
x	1193173	1193547	+
x	1193808	1194245	+
x	1194359	1194532	+
x	1194606	1195046	+
x	1195013	1195570	+
x	1195043	1195570	+
x	1195567	1195743	+
x	1195716	1196087	+
x	1195746	1196087	+
x	1196080	1196274	+
x	1196653	1196793	+
x	1196656	1196793	+
x	1196864	1197262	+
x	1196876	1197262	+
x	1198533	1197451	-
x	1198479	1197451	-
x	1198862	1199011	+
x	1199131	1199337	+
x	1199200	1199337	+
x	1199819	1200292	+
x	1199996	1200292	+
x	1200051	1200233	+
x	1200632	1200324	-
x	1200665	1200324	-
x	1201224	1201072	-
x	1201098	1201424	+
x	1201900	1201547	-
x	1202108	1201788	-
x	1202178	1201975	-
x	1202043	1202294	+
x	1202137	1202280	+
x	1202872	1204824	+
x	1202896	1204824	+
x	1203076	1204824	+
x	1203726	1203220	-
x	1203595	1204824	+
x	1204874	1205014	+
x	1205011	1206603	+
x	1208485	1208114	-
x	1209587	1209994	+
x	1209620	1209994	+
x	1209966	1210340	+
x	1209972	1210340	+
x	1209987	1210340	+
x	1210352	1210930	+
x	1210430	1210930	+
x	1210685	1210930	+
x	1211330	1212070	+
x	1211351	1212070	+
x	1212060	1211650	-
x	1212535	1212924	+
x	1212559	1212924	+
x	1212983	1215478	+
x	1215396	1215554	+
x	1216358	1215708	-
x	1216577	1217251	+
x	1216616	1217251	+
x	1216652	1217251	+
x	1216682	1217251	+
x	1217188	1217820	+
x	1217248	1217820	+
x	1217551	1217820	+
x	1218544	1221363	+
x	1218715	1221363	+
x	1221422	1223482	+
x	1222038	1221784	-
x	1223192	1223482	+
x	1224225	1223785	-
x	1225009	1224155	-
x	1227883	1228167	+
x	1228303	1229061	+
x	1229533	1229685	+
x	1229894	1229769	-
x	1232797	1231508	-
x	1233419	1233246	-
x	1233429	1233584	+
x	1234058	1234240	+
x	1234064	1234240	+
x	1234580	1235431	+
x	1234712	1235431	+
x	1234751	1235431	+
x	1235527	1235781	+
x	1236843	1237025	+
x	1237297	1237698	+
x	1238091	1237756	-
x	1238439	1238095	-
x	1238379	1238095	-
x	1238614	1238441	-
x	1238715	1238900	+
x	1238916	1239089	+
x	1239032	1239358	+
x	1239146	1239358	+
x	1239404	1239589	+
x	1239479	1239589	+
x	1241547	1240837	-
x	1241672	1241899	+
x	1242061	1242420	+
x	1242970	1243089	+
x	1243183	1243476	+
x	1244269	1244745	+
x	1244284	1244745	+
x	1244742	1244885	+
x	1245234	1245016	-
x	1247807	1247271	-
x	1249542	1247947	-
x	1250542	1250417	-
x	1252448	1253752	+
x	1256499	1254889	-
x	1257607	1257795	+
x	1257620	1258345	+
x	1257740	1258345	+
x	1259249	1259536	+
x	1261556	1259586	-
x	1262656	1262375	-
x	1263140	1262433	-
x	1263186	1263335	+
x	1264013	1263255	-
x	1264906	1264010	-
x	1266012	1264990	-
x	1267605	1266349	-
x	1267806	1266349	-
x	1267991	1268206	+
x	1268060	1268206	+
x	1268338	1268225	-
x	1269786	1268365	-
x	1269789	1268365	-
x	1270504	1269794	-
x	1270501	1269794	-
x	1271537	1270437	-
x	1271726	1273654	+
x	1273664	1273849	+
x	1275649	1275266	-
x	1278113	1276461	-
x	1278168	1278046	-
x	1279278	1278265	-
x	1280903	1280214	-
x	1280853	1282307	+
x	1286366	1286629	+
x	1286408	1286629	+
x	1286635	1286504	-
x	1286611	1286504	-
x	1286638	1286504	-
x	1286779	1286699	-
x	1288204	1287017	-
x	1288680	1288381	-
x	1288432	1288617	+
x	1288739	1289470	+
x	1288775	1289470	+
x	1290052	1291446	+
x	1292163	1291447	-
x	1294219	1295616	+
x	1303923	1302724	-
x	1303085	1303237	+
x	1304286	1304218	-
x	1304298	1304218	-
x	1306087	1305608	-
x	1305967	1305608	-
x	1306179	1307084	+
x	1307263	1308189	+
x	1309407	1309760	+
x	1310076	1309948	-
x	1316361	1316516	+
x	1316653	1316492	-
x	1316788	1316492	-
x	1317000	1318703	+
x	1317027	1318703	+
x	1319727	1320632	+
x	1323046	1322711	-
x	1323118	1322711	-
x	1324645	1324851	+
x	1324678	1324851	+
x	1324699	1324851	+
x	1326177	1324906	-
x	1326114	1324906	-
x	1326851	1326459	-
x	1326761	1326459	-
x	1326928	1327695	+
x	1326964	1327695	+
x	1327406	1327161	-
x	1329669	1329788	+
x	1329829	1330545	+
x	1329859	1330545	+
x	1330429	1330545	+
x	1332779	1332012	-
x	1332356	1332012	-
x	1334546	1335091	+
x	1334776	1334576	-
x	1334821	1334576	-
x	1334671	1334576	-
x	1335048	1334764	-
x	1334952	1334764	-
x	1334816	1335091	+
x	1334861	1335091	+
x	1334969	1335091	+
x	1334981	1335091	+
x	1335063	1335218	+
x	1335353	1335517	+
x	1335906	1335769	-
x	1335939	1335769	-
x	1336054	1335899	-
x	1336009	1335899	-
x	1336946	1336347	-
x	1336871	1336347	-
x	1337065	1337319	+
x	1337077	1337319	+
x	1337303	1337728	+
x	1337330	1337728	+
x	1337800	1338870	+
x	1337869	1338870	+
x	1337896	1338870	+
x	1339396	1340487	+
x	1339525	1340487	+
x	1341821	1341910	+
x	1342065	1342277	+
x	1342122	1342277	+
x	1342316	1342723	+
x	1342445	1342723	+
x	1342827	1343771	+
x	1343955	1344158	+
x	1345420	1345521	+
x	1346509	1346598	+
x	1347069	1347332	+
x	1347873	1348100	+
x	1348058	1348219	+
x	1348270	1348584	+
x	1348369	1348584	+
x	1348378	1348584	+
x	1348420	1348584	+
x	1348589	1348933	+
x	1349051	1348899	-
x	1349371	1349811	+
x	1349660	1349863	+
x	1350041	1349754	-
x	1349971	1350108	+
x	1350010	1350108	+
x	1350128	1350574	+
x	1350275	1350574	+
x	1350330	1350512	+
x	1351292	1350882	-
x	1351345	1351494	+
x	1351712	1351599	-
x	1351731	1351889	+
x	1351970	1352518	+
x	1352448	1353956	+
x	1352466	1353956	+
x	1352490	1353956	+
x	1352670	1353956	+
x	1353320	1352814	-
x	1353189	1353956	+
x	1354467	1354607	+
x	1358078	1357707	-
x	1359180	1359587	+
x	1359213	1359587	+
x	1359559	1359933	+
x	1359565	1359933	+
x	1359580	1359933	+
x	1360972	1361634	+
x	1362309	1360975	-
x	1361005	1361634	+
x	1361029	1361634	+
x	1362130	1362519	+
x	1362214	1362519	+
x	1364309	1365073	+
x	1364991	1365149	+
x	1365953	1365303	-
x	1366103	1365303	-
x	1366102	1366845	+
x	1366171	1366845	+
x	1366210	1366845	+
x	1366246	1366845	+
x	1366276	1366845	+
x	1366782	1367384	+
x	1366842	1367384	+
x	1367458	1367796	+
x	1367671	1367796	+
x	1368526	1371342	+
x	1368697	1371342	+
x	1370689	1371342	+
x	1371434	1372009	+
x	1371764	1372009	+
x	1372260	1375268	+
x	1373395	1372658	-
x	1373407	1372658	-
x	1373431	1373565	+
x	1373526	1375268	+
x	1375280	1375852	+
x	1375430	1375852	+
x	1375825	1375962	+
x	1376338	1375907	-
x	1376563	1375907	-
x	1376575	1375907	-
x	1376572	1375907	-
x	1377071	1376721	-
x	1377059	1376721	-
x	1377016	1377186	+
x	1377508	1377615	+
x	1378132	1377674	-
x	1378747	1378226	-
x	1378978	1378784	-
x	1379015	1378812	-
x	1379048	1378812	-
x	1384600	1384340	-
x	1386257	1386105	-
x	1386197	1387057	+
x	1387018	1387674	+
x	1387699	1389597	+
x	1393309	1393401	+
x	1393731	1393883	+
x	1393964	1396603	+
x	1398106	1398246	+
x	1398118	1398246	+
x	1398237	1398416	+
x	1398249	1398416	+
x	1398615	1398490	-
x	1398553	1398765	+
x	1402167	1401514	-
x	1404847	1404695	-
x	1404844	1404695	-
x	1404850	1404695	-
x	1404803	1405600	+
x	1405597	1405926	+
x	1405950	1406102	+
x	1407258	1406539	-
x	1407551	1407378	-
x	1409657	1407699	-
x	1413125	1411920	-
x	1413183	1413076	-
x	1413995	1414099	+
x	1414142	1414282	+
x	1414703	1414317	-
x	1414458	1415024	+
x	1415173	1416294	+
x	1416263	1416406	+
x	1416398	1416270	-
x	1416384	1419401	+
x	1419234	1419401	+
x	1420342	1420650	+
x	1421510	1421950	+
x	1427256	1425637	-
x	1427523	1427383	-
x	1427486	1427611	+
x	1427964	1427854	-
x	1429257	1428265	-
x	1430406	1430149	-
x	1431515	1433221	+
x	1431917	1433221	+
x	1432241	1433221	+
x	1433236	1433036	-
x	1433326	1433036	-
x	1433913	1434527	+
x	1433916	1434527	+
x	1436289	1437011	+
x	1437351	1438148	+
x	1438170	1439213	+
x	1442489	1443229	+
x	1443116	1443229	+
x	1443223	1444179	+
x	1445312	1446781	+
x	1447960	1449528	+
x	1451865	1451137	-
x	1453782	1452865	-
x	1453785	1452865	-
x	1453703	1453536	-
x	1454911	1455036	+
x	1455132	1455022	-
x	1455138	1456772	+
x	1460316	1459507	-
x	1460301	1459507	-
x	1461129	1460980	-
x	1461171	1460980	-
x	1462148	1461501	-
x	1462019	1461501	-
x	1462413	1463441	+
x	1463441	1464952	+
x	1464554	1464952	+
x	1464828	1464700	-
x	1464713	1464952	+
x	1467023	1465731	-
x	1468374	1468270	-
x	1468295	1468513	+
x	1468667	1468431	-
x	1471014	1470181	-
x	1471308	1471168	-
x	1471476	1471168	-
x	1471398	1471168	-
x	1473206	1472985	-
x	1473949	1473443	-
x	1479182	1479051	-
x	1479552	1479112	-
x	1479228	1479112	-
x	1479447	1479112	-
x	1479426	1479581	+
x	1479456	1479581	+
x	1480012	1479578	-
x	1484062	1484463	+
x	1484089	1484463	+
x	1484104	1484463	+
x	1484131	1484463	+
x	1484134	1484463	+
x	1494215	1494328	+
x	1494431	1494279	-
x	1495312	1496034	+
x	1495723	1496034	+
x	1496221	1497807	+
x	1497722	1499113	+
x	1497797	1499113	+
x	1497845	1499113	+
x	1498154	1499113	+
x	1499098	1499760	+
x	1499871	1499945	+
x	1499973	1503875	+
x	1504244	1504948	+
x	1507780	1508346	+
x	1509328	1508837	-
x	1508922	1509392	+
x	1508937	1509392	+
x	1509033	1509392	+
x	1510494	1509430	-
x	1511389	1511913	+
x	1512138	1513793	+
x	1512174	1513793	+
x	1513927	1514157	+
x	1513990	1514157	+
x	1514205	1514759	+
x	1515747	1516847	+
x	1515843	1516847	+
x	1517589	1517708	+
x	1517849	1517721	-
x	1519672	1518443	-
x	1519621	1518443	-
x	1519708	1518443	-
x	1519738	1518443	-
x	1520274	1522277	+
x	1522539	1522369	-
x	1522784	1522656	-
x	1522811	1523014	+
x	1522817	1523014	+
x	1530205	1530089	-
x	1530123	1530320	+
x	1530129	1530320	+
x	1530284	1530189	-
x	1530559	1530281	-
x	1530431	1530652	+
x	1530479	1530652	+
x	1530607	1530711	+
x	1531999	1531418	-
x	1531929	1532270	+
x	1532143	1532379	+
x	1534518	1534613	+
x	1537485	1535935	-
x	1537479	1535935	-
x	1537504	1537653	+
x	1537701	1537877	+
x	1537891	1538301	+
x	1537990	1538301	+
x	1538870	1538721	-
x	1539283	1541550	+
x	1541510	1542301	+
x	1541540	1542301	+
x	1542672	1543073	+
x	1542994	1543173	+
x	1543251	1543394	+
x	1544447	1544004	-
x	1553402	1549575	-
x	1553438	1549575	-
x	1554816	1553410	-
x	1555952	1555071	-
x	1556273	1556079	-
x	1556184	1556771	+
x	1557428	1556358	-
x	1556820	1559231	+
x	1560149	1559208	-
x	1560152	1559208	-
x	1559250	1560128	+
x	1560103	1560774	+
x	1560136	1560774	+
x	1560859	1560990	+
x	1560967	1560884	-
x	1560952	1560884	-
x	1560977	1561249	+
x	1561287	1561003	-
x	1561460	1561287	-
x	1561559	1561287	-
x	1561488	1561652	+
x	1562791	1561751	-
x	1564619	1562895	-
x	1564608	1564730	+
x	1564641	1564730	+
x	1564885	1564748	-
x	1565265	1564987	-
x	1565369	1565509	+
x	1565628	1565978	+
x	1566106	1565960	-
x	1567271	1566168	-
x	1568591	1566168	-
x	1568804	1568592	-
x	1568836	1568663	-
x	1570288	1569134	-
x	1570348	1569134	-
x	1573744	1572275	-
x	1573567	1572275	-
x	1573829	1573686	-
x	1573856	1574035	+
x	1574890	1574036	-
x	1575046	1574036	-
x	1576819	1574036	-
x	1580944	1579286	-
x	1580878	1579286	-
x	1580865	1580984	+
x	1582434	1581262	-
x	1584186	1582471	-
x	1582578	1582471	-
x	1584090	1582471	-
x	1585573	1585391	-
x	1589131	1589214	+
x	1589791	1589273	-
x	1589836	1589273	-
x	1590567	1590719	+
x	1590692	1590853	+
x	1592134	1591112	-
x	1591672	1591112	-
x	1592440	1591112	-
x	1592167	1591112	-
x	1592491	1591112	-
x	1592718	1592434	-
x	1594735	1593770	-
x	1594634	1594834	+
x	1597449	1596559	-
x	1597506	1596559	-
x	1597398	1596559	-
x	1600877	1599465	-
x	1601913	1602032	+
x	1602256	1602134	-
x	1604323	1604700	+
x	1604715	1605104	+
x	1606856	1605411	-
x	1606850	1605411	-
x	1608913	1608602	-
x	1610254	1608941	-
x	1610263	1608941	-
x	1611116	1611586	+
x	1612551	1611631	-
x	1612431	1611631	-
x	1614039	1614134	+
x	1615249	1614353	-
x	1614760	1614353	-
x	1615659	1615498	-
x	1615653	1615498	-
x	1615510	1615662	+
x	1617862	1615751	-
x	1617918	1618679	+
x	1619861	1619589	-
x	1621667	1621419	-
x	1621697	1621419	-
x	1622874	1621831	-
x	1624109	1622862	-
x	1624617	1624282	-
x	1626428	1625682	-
x	1626458	1626805	+
x	1626497	1626805	+
x	1629488	1631914	+
x	1629518	1631914	+
x	1630382	1631914	+
x	1632304	1633398	+
x	1632669	1632523	-
x	1633432	1634055	+
x	1634076	1634186	+
x	1634193	1635434	+
x	1636094	1635387	-
x	1639984	1639865	-
x	1640213	1640548	+
x	1640234	1640548	+
x	1640262	1640639	+
x	1640276	1640548	+
x	1640641	1640724	+
x	1642642	1642472	-
x	1642926	1643810	+
x	1646820	1645234	-
x	1647190	1647300	+
x	1650612	1650496	-
x	1650962	1651741	+
x	1650986	1651741	+
x	1651022	1651741	+
x	1651871	1653046	+
x	1653110	1654051	+
x	1660489	1660268	-
x	1661515	1660268	-
x	1664054	1662942	-
x	1665721	1665143	-
x	1665730	1665143	-
x	1673038	1671959	-
x	1673212	1673367	+
x	1673230	1673367	+
x	1673242	1673367	+
x	1673456	1673719	+
x	1673917	1674381	+
x	1680881	1681081	+
x	1684480	1683620	-
x	1685828	1684542	-
x	1686908	1686660	-
x	1686983	1686660	-
x	1689424	1688984	-
x	1689562	1689443	-
x	1689628	1689855	+
x	1689816	1690715	+
x	1689849	1690715	+
x	1689945	1690715	+
x	1690736	1692727	+
x	1693264	1692728	-
x	1693300	1692728	-
x	1694652	1694275	-
x	1694514	1694275	-
x	1694283	1694405	+
x	1694286	1694405	+
x	1694617	1695216	+
x	1697729	1697643	-
x	1697793	1697659	-
x	1698542	1698432	-
x	1701766	1701647	-
x	1701736	1701647	-
x	1701823	1702047	+
x	1710616	1710521	-
x	1710740	1711111	+
x	1710758	1711111	+
x	1712574	1712927	+
x	1713703	1712939	-
x	1715256	1714537	-
x	1715907	1715269	-
x	1718106	1715920	-
x	1718697	1718834	+
x	1719295	1719125	-
x	1719675	1721303	+
x	1728240	1726714	-
x	1728572	1728210	-
x	1729315	1729127	-
x	1733599	1734204	+
x	1734570	1734394	-
x	1734606	1734989	+
x	1735122	1736303	+
x	1735149	1736303	+
x	1736524	1737795	+
x	1741163	1742368	+
x	1741214	1742368	+
x	1743539	1744402	+
x	1743617	1744402	+
x	1747051	1748697	+
x	1751353	1751186	-
x	1753606	1753824	+
x	1754355	1754456	+
x	1757566	1756829	-
x	1759196	1759068	-
x	1762973	1761978	-
x	1763041	1763349	+
x	1763170	1763075	-
x	1763285	1763151	-
x	1763890	1764501	+
x	1764549	1764115	-
x	1766529	1764661	-
x	1767112	1767546	+
x	1767275	1767496	+
x	1767658	1768035	+
x	1768242	1768147	-
x	1768298	1768420	+
x	1768313	1768420	+
x	1769371	1769478	+
x	1769514	1770446	+
x	1770852	1770475	-
x	1773347	1773949	+
x	1774009	1773902	-
x	1775762	1775520	-
x	1776107	1775949	-
x	1780465	1779044	-
x	1781339	1780500	-
x	1781697	1781350	-
x	1783795	1783535	-
x	1786895	1786257	-
x	1787023	1787511	+
x	1787655	1787756	+
x	1790104	1790250	+
x	1791338	1790151	-
x	1792657	1791626	-
x	1794140	1794310	+
x	1794311	1795129	+
x	1795248	1796006	+
x	1795849	1796688	+
x	1796705	1797409	+
x	1799082	1800641	+
x	1799106	1800641	+
x	1799139	1800641	+
x	1800554	1801294	+
x	1800608	1801294	+
x	1801346	1802668	+
x	1801595	1802668	+
x	1803303	1802677	-
x	1804029	1803757	-
x	1804227	1804114	-
x	1807694	1805685	-
x	1808694	1807645	-
x	1809374	1808805	-
x	1809505	1811373	+
x	1811588	1812556	+
x	1812549	1813208	+
x	1814728	1813301	-
x	1814551	1813301	-
x	1814632	1814775	+
x	1817630	1816662	-
x	1817429	1816662	-
x	1819475	1818471	-
x	1819448	1818471	-
x	1820947	1820795	-
x	1822700	1822383	-
x	1823062	1822697	-
x	1823140	1822697	-
x	1823443	1824447	+
x	1824510	1825415	+
x	1826365	1825466	-
x	1827276	1827377	+
x	1827718	1829526	+
x	1831201	1832544	+
x	1831210	1832544	+
x	1834866	1834762	-
x	1834855	1835043	+
x	1836248	1835439	-
x	1836257	1835439	-
x	1836412	1836272	-
x	1836417	1837538	+
x	1837572	1837940	+
x	1838200	1837943	-
x	1838270	1839424	+
x	1839442	1839555	+
x	1839457	1839555	+
x	1839516	1839632	+
x	1839558	1839632	+
x	1840070	1839951	-
x	1840073	1839951	-
x	1840105	1840596	+
x	1840497	1840273	-
x	1840603	1840737	+
x	1841902	1841570	-
x	1841726	1841896	+
x	1843101	1841986	-
x	1844901	1843183	-
x	1844934	1843183	-
x	1848776	1848390	-
x	1848752	1848390	-
x	1848441	1848833	+
x	1848486	1848833	+
x	1849231	1849554	+
x	1849255	1849554	+
x	1849671	1849835	+
x	1853446	1853574	+
x	1853519	1855147	+
x	1853540	1855147	+
x	1856949	1856695	-
x	1856904	1856695	-
x	1859061	1858300	-
x	1859017	1859868	+
x	1860756	1861376	+
x	1862015	1862599	+
x	1862312	1862599	+
x	1862675	1862938	+
x	1863637	1863329	-
x	1863740	1863928	+
x	1865288	1866772	+
x	1867696	1866818	-
x	1867934	1867797	-
x	1869933	1867891	-
x	1869810	1867891	-
x	1870078	1869959	-
x	1871251	1870754	-
x	1871200	1870754	-
x	1871426	1872664	+
x	1872591	1875266	+
x	1872627	1875266	+
x	1875340	1876785	+
x	1876888	1877139	+
x	1877244	1877435	+
x	1878095	1877436	-
x	1878825	1878487	-
x	1880143	1880460	+
x	1880793	1881218	+
x	1884046	1884648	+
x	1884888	1884998	+
x	1885511	1885155	-
x	1889791	1887914	-
x	1891750	1891601	-
x	1891720	1891601	-
x	1892629	1894212	+
x	1896693	1895434	-
x	1897830	1896772	-
x	1897758	1896772	-
x	1897719	1896772	-
x	1901371	1902045	+
x	1902571	1902047	-
x	1905874	1905779	-
x	1905884	1906465	+
x	1906555	1907280	+
x	1907303	1907728	+
x	1907375	1907728	+
x	1909508	1909654	+
x	1912092	1909645	-
x	1913236	1913105	-
x	1914027	1913587	-
x	1914919	1914347	-
x	1915095	1914916	-
x	1917151	1916915	-
x	1917283	1916915	-
x	1919460	1917307	-
x	1920559	1920705	+
x	1921409	1920735	-
x	1923951	1923832	-
x	1923954	1923832	-
x	1925679	1923997	-
x	1928285	1926327	-
x	1928345	1926327	-
x	1928330	1926327	-
x	1930456	1930310	-
x	1931164	1930814	-
x	1931280	1931164	-
x	1931293	1931195	-
x	1931479	1931450	-
x	1933812	1932379	-
x	1934635	1933778	-
x	1935416	1934745	-
x	1935731	1934745	-
x	1935452	1934745	-
x	1937305	1935746	-
x	1938370	1937330	-
x	1939700	1939972	+
x	1940209	1940063	-
x	1940149	1940063	-
x	1940283	1940170	-
x	1940616	1940440	-
x	1940482	1940736	+
x	1940859	1940746	-
x	1940893	1941405	+
x	1941919	1941821	-
x	1942350	1943084	+
x	1946821	1945055	-
x	1947504	1946884	-
x	1947393	1946884	-
x	1947907	1947779	-
x	1947836	1948012	+
x	1949025	1948291	-
x	1951757	1950675	-
x	1951034	1950675	-
x	1952623	1951766	-
x	1953241	1952654	-
x	1953940	1953251	-
x	1954241	1954041	-
x	1954044	1954130	+
x	1960534	1960118	-
x	1962169	1962930	+
x	1962787	1962930	+
x	1962927	1963115	+
x	1963382	1963528	+
x	1963497	1964525	+
x	1965779	1965027	-
x	1966001	1966123	+
x	1967051	1966554	-
x	1966886	1966554	-
x	1966907	1966554	-
x	1967575	1967231	-
x	1967739	1967590	-
x	1970493	1969564	-
x	1970378	1971085	+
x	1974573	1975622	+
x	1976117	1975995	-
x	1976032	1976400	+
x	1976095	1976400	+
x	1977448	1977723	+
x	1977491	1978210	+
x	1979195	1979470	+
x	1979797	1979447	-
x	1979710	1979447	-
x	1979746	1979447	-
x	1979498	1979740	+
x	1979510	1979740	+
x	1979786	1979887	+
x	1982559	1980850	-
x	1982526	1980850	-
x	1982897	1982802	-
x	1983887	1982976	-
x	1987633	1986911	-
x	1988029	1987646	-
x	1987948	1987646	-
x	1988013	1988120	+
x	1988194	1988358	+
x	1988577	1989692	+
x	1989773	1989922	+
x	1990108	1989965	-
x	1990141	1989965	-
x	1990124	1990267	+
x	1993323	1992604	-
x	1993386	1992604	-
x	1994299	1994934	+
x	1996130	1996477	+
x	1996513	1996842	+
x	1997291	1998127	+
x	1998684	1999646	+
x	1998765	1999646	+
x	2002641	2001253	-
x	2002533	2001253	-
x	2004328	2002526	-
x	2006027	2004315	-
x	2007434	2013541	+
x	2013638	2023120	+
x	2023117	2024217	+
x	2023120	2024217	+
x	2024321	2024187	-
x	2024229	2025017	+
x	2024361	2025017	+
x	2026314	2026598	+
x	2026604	2026335	-
x	2029344	2030150	+
x	2029401	2030150	+
x	2029422	2030150	+
x	2029656	2030150	+
x	2030077	2030247	+
x	2030107	2030247	+
x	2030283	2032241	+
x	2031765	2032241	+
x	2033298	2032369	-
x	2033421	2032369	-
x	2032989	2032369	-
x	2033450	2033608	+
x	2035106	2036608	+
x	2037893	2037723	-
x	2038010	2037723	-
x	2037923	2037723	-
x	2038026	2037874	-
x	2037908	2038081	+
x	2037944	2038081	+
x	2038902	2038297	-
x	2038620	2038297	-
x	2038521	2038297	-
x	2039751	2038297	-
x	2039154	2038297	-
x	2039784	2038297	-
x	2042057	2041110	-
x	2042215	2042331	+
x	2043419	2042484	-
x	2045351	2044572	-
x	2046131	2046009	-
x	2046632	2046525	-
x	2046968	2046879	-
x	2048167	2048042	-
x	2048844	2048530	-
x	2049230	2050177	+
x	2051087	2051971	+
x	2052178	2053008	+
x	2053161	2053048	-
x	2053376	2053152	-
x	2053581	2053420	-
x	2055039	2053660	-
x	2055027	2053660	-
x	2054517	2053660	-
x	2054028	2053660	-
x	2054649	2054900	+
x	2055562	2055323	-
x	2055733	2055323	-
x	2056122	2055721	-
x	2056088	2056603	+
x	2056951	2056382	-
x	2057151	2057351	+
x	2057931	2057746	-
x	2059020	2057746	-
x	2059149	2057746	-
x	2058741	2057746	-
x	2058268	2058432	+
x	2060099	2059737	-
x	2059895	2059737	-
x	2060318	2060641	+
x	2060402	2060641	+
x	2060845	2060609	-
x	2060842	2060609	-
x	2060946	2061224	+
x	2061018	2061224	+
x	2061312	2061920	+
x	2061318	2061920	+
x	2061567	2061920	+
x	2062393	2062608	+
x	2064267	2062879	-
x	2064414	2062879	-
x	2063994	2062879	-
x	2064555	2064463	-
x	2065498	2065259	-
x	2065279	2065554	+
x	2065747	2065538	-
x	2066125	2065781	-
x	2066103	2066363	+
x	2066730	2066584	-
x	2066758	2067909	+
x	2067283	2067909	+
x	2067442	2067909	+
x	2067993	2068865	+
x	2068740	2068865	+
x	2069668	2071479	+
x	2070796	2071479	+
x	2072046	2072381	+
x	2072390	2073448	+
x	2073584	2074267	+
x	2074824	2074690	-
x	2075762	2074920	-
x	2076776	2075853	-
x	2076404	2075853	-
x	2076260	2075853	-
x	2076297	2076788	+
x	2076312	2076788	+
x	2077221	2077514	+
x	2077248	2077514	+
x	2077266	2077514	+
x	2077353	2077514	+
x	2077371	2077514	+
x	2077603	2077866	+
x	2077976	2078167	+
x	2078177	2078293	+
x	2078180	2078293	+
x	2078845	2078964	+
x	2079394	2079065	-
x	2079479	2079601	+
x	2079485	2079601	+
x	2079988	2079566	-
x	2082458	2081415	-
x	2082587	2081415	-
x	2082380	2081415	-
x	2082508	2082666	+
x	2082742	2084217	+
x	2085550	2084501	-
x	2085505	2084501	-
x	2085707	2085594	-
x	2086193	2085738	-
x	2087102	2085738	-
x	2090188	2091126	+
x	2091123	2092436	+
x	2091195	2092436	+
x	2093500	2094570	+
x	2095157	2095897	+
x	2098466	2097432	-
x	2098412	2097432	-
x	2110008	2110271	+
x	2110260	2110165	-
x	2111213	2110308	-
x	2115549	2115286	-
x	2115338	2115568	+
x	2115434	2115568	+
x	2119901	2118483	-
x	2119879	2120037	+
x	2119942	2120037	+
x	2121877	2121485	-
x	2123187	2122705	-
x	2127938	2126694	-
x	2127986	2126694	-
x	2132760	2130562	-
x	2133679	2133176	-
x	2134279	2133176	-
x	2134222	2133176	-
x	2134908	2136557	+
x	2134935	2136557	+
x	2136960	2137250	+
x	2140546	2139851	-
x	2140555	2139851	-
x	2141320	2144127	+
x	2141752	2144127	+
x	2145207	2145055	-
x	2145157	2146572	+
x	2148360	2146585	-
x	2148525	2146585	-
x	2149202	2148522	-
x	2149444	2149280	-
x	2150176	2150322	+
x	2150194	2150322	+
x	2150504	2150650	+
x	2150522	2150650	+
x	2150673	2152067	+
x	2150700	2152067	+
x	2150859	2152067	+
x	2161943	2162314	+
x	2163044	2162439	-
x	2163020	2162439	-
x	2163413	2163105	-
x	2165213	2163105	-
x	2165718	2165224	-
x	2169080	2168943	-
x	2169530	2169276	-
x	2173792	2173673	-
x	2173756	2174145	+
x	2175898	2176035	+
x	2177199	2176609	-
x	2177193	2176609	-
x	2183233	2182364	-
x	2184256	2183621	-
x	2186595	2186437	-
x	2186727	2186437	-
x	2188420	2188217	-
x	2188893	2188420	-
x	2188929	2188420	-
x	2192600	2192935	+
x	2194348	2193494	-
x	2194522	2196294	+
x	2196771	2197328	+
x	2197528	2197367	-
x	2201899	2199617	-
x	2201908	2199617	-
x	2202687	2202388	-
x	2202690	2202388	-
x	2202911	2202687	-
x	2203466	2202975	-
x	2203642	2203472	-
x	2205882	2205757	-
x	2206234	2205902	-
x	2206279	2205902	-
x	2206177	2205902	-
x	2208389	2207616	-
x	2208062	2207616	-
x	2213870	2213010	-
x	2213846	2214103	+
x	2213903	2214103	+
x	2215217	2214093	-
x	2215204	2215350	+
x	2220241	2219414	-
x	2223541	2223879	+
x	2227506	2225011	-
x	2228759	2228262	-
x	2230781	2229642	-
x	2230874	2232916	+
x	2235529	2236845	+
x	2237134	2240487	+
x	2238178	2237927	-
x	2239111	2240487	+
x	2240548	2240733	+
x	2240624	2240740	+
x	2241213	2241124	-
x	2241578	2242732	+
x	2244284	2245015	+
x	2244798	2246144	+
x	2244945	2246144	+
x	2247908	2248144	+
x	2248257	2248730	+
x	2249298	2248771	-
x	2250022	2249288	-
x	2251704	2250004	-
x	2251778	2251906	+
x	2251995	2252642	+
x	2256709	2256557	-
x	2259085	2256716	-
x	2259014	2259172	+
x	2259176	2260924	+
x	2259218	2260924	+
x	2261904	2260963	-
x	2262096	2261974	-
x	2262680	2262069	-
x	2262790	2263404	+
x	2263910	2263524	-
x	2265534	2264338	-
x	2265997	2266080	+
x	2266209	2266105	-
x	2266440	2266243	-
x	2267484	2266468	-
x	2267621	2268055	+
x	2268055	2268747	+
x	2269734	2269606	-
x	2271291	2272304	+
x	2272292	2273533	+
x	2273579	2273698	+
x	2276277	2274802	-
x	2278707	2277661	-
x	2280117	2278843	-
x	2280129	2278843	-
x	2280782	2280669	-
x	2283883	2281811	-
x	2283850	2281811	-
x	2283736	2281811	-
x	2283942	2284076	+
x	2285795	2285547	-
x	2285781	2285671	-
x	2286574	2285768	-
x	2290118	2290002	-
x	2291159	2291857	+
x	2294092	2293268	-
x	2295135	2294194	-
x	2295351	2295773	+
x	2296596	2297306	+
x	2299532	2299663	+
x	2301166	2300912	-
x	2301100	2300912	-
x	2301218	2301057	-
x	2301078	2301893	+
x	2301321	2301893	+
x	2301351	2301893	+
x	2302107	2303582	+
x	2304689	2305438	+
x	2304881	2305438	+
x	2306660	2308153	+
x	2308229	2310049	+
x	2315575	2314442	-
x	2316451	2315660	-
x	2318294	2318674	+
x	2318788	2318375	-
x	2318806	2318375	-
x	2319984	2319865	-
x	2319981	2319865	-
x	2322384	2322262	-
x	2322747	2322262	-
x	2322417	2322262	-
x	2323059	2322856	-
x	2322862	2322972	+
x	2323347	2323090	-
x	2323175	2323270	+
x	2323349	2324026	+
x	2324945	2324061	-
x	2328250	2328080	-
x	2329047	2328286	-
x	2329724	2329065	-
x	2330341	2329724	-
x	2330399	2330887	+
x	2331442	2330972	-
x	2331041	2331583	+
x	2336309	2336473	+
x	2336521	2336393	-
x	2336587	2337096	+
x	2337246	2336788	-
x	2338874	2337246	-
x	2342277	2342495	+
x	2343724	2344782	+
x	2344707	2343784	-
x	2348258	2348953	+
x	2348267	2348953	+
x	2349051	2348950	-
x	2348982	2349077	+
x	2352002	2349153	-
x	2349527	2349153	-
x	2352072	2352305	+
x	2352157	2353995	+
x	2356875	2357036	+
x	2358565	2359419	+
x	2361056	2360274	-
x	2366528	2361924	-
x	2366438	2361924	-
x	2366453	2361924	-
x	2366360	2361924	-
x	2367112	2366462	-
x	2368647	2367082	-
x	2368818	2367082	-
x	2368338	2367082	-
x	2371645	2372415	+
x	2376265	2372555	-
x	2376313	2372555	-
x	2376949	2376737	-
x	2376784	2376927	+
x	2379295	2380557	+
x	2379376	2380557	+
x	2379388	2380557	+
x	2382725	2381718	-
x	2385976	2387307	+
x	2387229	2388494	+
x	2388519	2388644	+
x	2389416	2389646	+
x	2390637	2389885	-
x	2393257	2392052	-
x	2394164	2394069	-
x	2396139	2395576	-
x	2396133	2395576	-
x	2396340	2396239	-
x	2396460	2396822	+
x	2397490	2396861	-
x	2397738	2398910	+
x	2397771	2398910	+
x	2404735	2405121	+
x	2404744	2405121	+
x	2405411	2405115	-
x	2407994	2408827	+
x	2411291	2409432	-
x	2412261	2411191	-
x	2416363	2417340	+
x	2416522	2417340	+
x	2417008	2417340	+
x	2417098	2417340	+
x	2419470	2418013	-
x	2423005	2421170	-
x	2428130	2425404	-
x	2431810	2430020	-
x	2433452	2433183	-
x	2433299	2433463	+
x	2434844	2435098	+
x	2440575	2440063	-
x	2441295	2441164	-
x	2441263	2441424	+
x	2444908	2442638	-
x	2445023	2446564	+
x	2445086	2446564	+
x	2447748	2447197	-
x	2451145	2450612	-
x	2456041	2455898	-
x	2458827	2458997	+
x	2458987	2459088	+
x	2459242	2459111	-
x	2459937	2459257	-
x	2459892	2459257	-
x	2462245	2461247	-
x	2464865	2464978	+
x	2469939	2472005	+
x	2475711	2474623	-
x	2477008	2475743	-
x	2478089	2477712	-
x	2478554	2477712	-
x	2480101	2479556	-
x	2480059	2479556	-
x	2480828	2480076	-
x	2483496	2480848	-
x	2485147	2485299	+
x	2489316	2489008	-
x	2489628	2489377	-
x	2489664	2491004	+
x	2491956	2491843	-
x	2493319	2494512	+
x	2495087	2494752	-
x	2495220	2495375	+
x	2499742	2498840	-
x	2502099	2501533	-
x	2502296	2502625	+
x	2507968	2507267	-
x	2509362	2507968	-
x	2509993	2509838	-
x	2510062	2509838	-
x	2510014	2509838	-
x	2514507	2512324	-
x	2517740	2517597	-
x	2517975	2517790	-
x	2518870	2518631	-
x	2519158	2519006	-
x	2519179	2519385	+
x	2520120	2520500	+
x	2521256	2520900	-
x	2522209	2521784	-
x	2522382	2522206	-
x	2522639	2522379	-
x	2522986	2522801	-
x	2525958	2525071	-
x	2526293	2526021	-
x	2526609	2526316	-
x	2526453	2526316	-
x	2526999	2527634	+
x	2528051	2527755	-
x	2528156	2528455	+
x	2529024	2529299	+
x	2529129	2529299	+
x	2529296	2529454	+
x	2529556	2530161	+
x	2530161	2530544	+
x	2530959	2531408	+
x	2531709	2531359	-
x	2532920	2532570	-
x	2533048	2532713	-
x	2533136	2532966	-
x	2534535	2533594	-
x	2535866	2536084	+
x	2536117	2537430	+
x	2536204	2537430	+
x	2538763	2539101	+
x	2540131	2539076	-
x	2540116	2539076	-
x	2541484	2544867	+
x	2544741	2544643	-
x	2545849	2544923	-
x	2546107	2544923	-
x	2546062	2546166	+
x	2551133	2550666	-
x	2551361	2551522	+
x	2551655	2551530	-
x	2551597	2551872	+
x	2551612	2551872	+
x	2551645	2551872	+
x	2552478	2553464	+
x	2553820	2553891	+
x	2555519	2555382	-
x	2555589	2557268	+
x	2557265	2558020	+
x	2557358	2558020	+
x	2565197	2564820	-
x	2567905	2567807	-
x	2567954	2568313	+
x	2567969	2568313	+
x	2568080	2568313	+
x	2568185	2568313	+
x	2568197	2568313	+
x	2569547	2568372	-
x	2569907	2571148	+
x	2570132	2571148	+
x	2573447	2571198	-
x	2573426	2571198	-
x	2573642	2573484	-
x	2574005	2574364	+
x	2574387	2574758	+
x	2576228	2576359	+
x	2577890	2576991	-
x	2578074	2577916	-
x	2581679	2581329	-
x	2581676	2581329	-
x	2583558	2583340	-
x	2586695	2585646	-
x	2586632	2585646	-
x	2586641	2585646	-
x	2586113	2586418	+
x	2587663	2587827	+
x	2589038	2588910	-
x	2589402	2589109	-
x	2589708	2591204	+
x	2592789	2593121	+
x	2592846	2593121	+
x	2593981	2593124	-
x	2595706	2595257	-
x	2598996	2598139	-
x	2601697	2601554	-
x	2601697	2602623	+
x	2602638	2601712	-
x	2603264	2602707	-
x	2603167	2603307	+
x	2603798	2603343	-
x	2603690	2603343	-
x	2604315	2603779	-
x	2605288	2606190	+
x	2607800	2607294	-
x	2613599	2613399	-
x	2614814	2613600	-
x	2617725	2617456	-
x	2617767	2617456	-
x	2621152	2620745	-
x	2621009	2621116	+
x	2624848	2626914	+
x	2627980	2626991	-
x	2628059	2627928	-
x	2627934	2628194	+
x	2628762	2628160	-
x	2630713	2628803	-
x	2630672	2630806	+
x	2630973	2632688	+
x	2631513	2632688	+
x	2633032	2635965	+
x	2636038	2636265	+
x	2636052	2636231	+
x	2636483	2636382	-
x	2639022	2638300	-
x	2641896	2641102	-
x	2642855	2642133	-
x	2642959	2642852	-
x	2642918	2643148	+
x	2644096	2643059	-
x	2645006	2644110	-
x	2645068	2645706	+
x	2645161	2645706	+
x	2647367	2647543	+
x	2649517	2649407	-
x	2651657	2650326	-
x	2652354	2651701	-
x	2652304	2652411	+
x	2652636	2653688	+
x	2654492	2656564	+
x	2660726	2660574	-
x	2660875	2660609	-
x	2660744	2660935	+
x	2660762	2660935	+
x	2661249	2661764	+
x	2665594	2664059	-
x	2665570	2664059	-
x	2678568	2676337	-
x	2678361	2676337	-
x	2680566	2679055	-
x	2687565	2688092	+
x	2687574	2688092	+
x	2690361	2688178	-
x	2695500	2696504	+
x	2696828	2696965	+
x	2697782	2696997	-
x	2701710	2699806	-
x	2702312	2702196	-
x	2702613	2702284	-
x	2704276	2703038	-
x	2706929	2707783	+
x	2707953	2709254	+
x	2710562	2710419	-
x	2710605	2710757	+
x	2710748	2711176	+
x	2710754	2711176	+
x	2711272	2710964	-
x	2713314	2712220	-
x	2713008	2712220	-
x	2713053	2712220	-
x	2715719	2714370	-
x	2716848	2715904	-
x	2716875	2715904	-
x	2720358	2716984	-
x	2722899	2721640	-
x	2722997	2723173	+
x	2723045	2723173	+
x	2726205	2724856	-
x	2726229	2724856	-
x	2726899	2726180	-
x	2726815	2726180	-
x	2726827	2726991	+
x	2726836	2726991	+
x	2728548	2727058	-
x	2728440	2727058	-
x	2732945	2729061	-
x	2733208	2734764	+
x	2735264	2734761	-
x	2735936	2735322	-
x	2735894	2735322	-
x	2736055	2735918	-
x	2736094	2737014	+
x	2737046	2737330	+
x	2737604	2737524	-
x	2737622	2737524	-
x	2737753	2737601	-
x	2737797	2737919	+
x	2739151	2738405	-
x	2744660	2744794	+
x	2747447	2746839	-
x	2747566	2747411	-
x	2747852	2749444	+
x	2750286	2749429	-
x	2752591	2751665	-
x	2753693	2753292	-
x	2753409	2753786	+
x	2755829	2754717	-
x	2755290	2755892	+
x	2756398	2757147	+
x	2756425	2757147	+
x	2758793	2759839	+
x	2759950	2761308	+
x	2761333	2761677	+
x	2761354	2761677	+
x	2762177	2761674	-
x	2763065	2761674	-
x	2765333	2765668	+
x	2766077	2765901	-
x	2766119	2765901	-
x	2766137	2765901	-
x	2766068	2766592	+
x	2766161	2766592	+
x	2766439	2766215	-
x	2766547	2766215	-
x	2766867	2766463	-
x	2766718	2767086	+
x	2767713	2767111	-
x	2768261	2767938	-
x	2768111	2767938	-
x	2768458	2768216	-
x	2769614	2769856	+
x	2771176	2771481	+
x	2772479	2772159	-
x	2772524	2772159	-
x	2773660	2773785	+
x	2773745	2773858	+
x	2773868	2774002	+
x	2776627	2774042	-
x	2779354	2779560	+
x	2780050	2779514	-
x	2783660	2782521	-
x	2783783	2784166	+
x	2783804	2784166	+
x	2784826	2786049	+
x	2787345	2787013	-
x	2788368	2787811	-
x	2788362	2787811	-
x	2788686	2788378	-
x	2790291	2791082	+
x	2791127	2792389	+
x	2791148	2792389	+
x	2791706	2792389	+
x	2792411	2793163	+
x	2793171	2793034	-
x	2793285	2793034	-
x	2796123	2796275	+
x	2796645	2796337	-
x	2797054	2796617	-
x	2799572	2799204	-
x	2800783	2800301	-
x	2803626	2800783	-
x	2803805	2804260	+
x	2804257	2804841	+
x	2808394	2808876	+
x	2809906	2808998	-
x	2813604	2813173	-
x	2814544	2814125	-
x	2814502	2814125	-
x	2815883	2815419	-
x	2816530	2815979	-
x	2818535	2817708	-
x	2818513	2818674	+
x	2820450	2821484	+
x	2823496	2823263	-
x	2823695	2823507	-
x	2827143	2826286	-
x	2827355	2827140	-
x	2827600	2827367	-
x	2827871	2827668	-
x	2828423	2828127	-
x	2832636	2832382	-
x	2835113	2834340	-
x	2836165	2838054	+
x	2838278	2838150	-
x	2839899	2839819	-
x	2841890	2841141	-
x	2841803	2841141	-
x	2842611	2842186	-
x	2845590	2844235	-
x	2845563	2844235	-
x	2847634	2847452	-
x	2847458	2847751	+
x	2850959	2851426	+
x	2853776	2853126	-
x	2854869	2853754	-
x	2855171	2854995	-
x	2857413	2856919	-
x	2858235	2858432	+
x	2858763	2858539	-
x	2858787	2858539	-
x	2859099	2858914	-
x	2860063	2859758	-
x	2859856	2859758	-
x	2861530	2860736	-
x	2861518	2860736	-
x	2861386	2860736	-
x	2862455	2861502	-
x	2862419	2861502	-
x	2862491	2861502	-
x	2862089	2861502	-
x	2864678	2864025	-
x	2865166	2864678	-
x	2865537	2865169	-
x	2865681	2865848	+
x	2865869	2865687	-
x	2867006	2866455	-
x	2867250	2867050	-
x	2867355	2867050	-
x	2867547	2867050	-
x	2868874	2869101	+
x	2869387	2868902	-
x	2869181	2869561	+
x	2869199	2869561	+
x	2870065	2870451	+
x	2870552	2871103	+
x	2871212	2872078	+
x	2871759	2871869	+
x	2872120	2872326	+
x	2874050	2873451	-
x	2875296	2875550	+
x	2875314	2875550	+
x	2875683	2875501	-
x	2875851	2875726	-
x	2877113	2878447	+
x	2879926	2881212	+
x	2881387	2882850	+
x	2882853	2883533	+
x	2884055	2884240	+
x	2886106	2886234	+
x	2887342	2887671	+
x	2890020	2889766	-
x	2890454	2892559	+
x	2893673	2893894	+
x	2896159	2897193	+
x	2897304	2897197	-
x	2897246	2897392	+
x	2897688	2898569	+
x	2898738	2899430	+
x	2900538	2900404	-
x	2900491	2901675	+
x	2901683	2903230	+
x	2903989	2903681	-
x	2903866	2904195	+
x	2907343	2906021	-
x	2907934	2907650	-
x	2907985	2907650	-
x	2908796	2908671	-
x	2909275	2909712	+
x	2910126	2910242	+
x	2912567	2912968	+
x	2912786	2912968	+
x	2912819	2912968	+
x	2912831	2912968	+
x	2914654	2913578	-
x	2915219	2914719	-
x	2916494	2915361	-
x	2916551	2915361	-
x	2916716	2916618	-
x	2917132	2917266	+
x	2917572	2918222	+
x	2920724	2921650	+
x	2928441	2926141	-
x	2928465	2926141	-
x	2929088	2928546	-
x	2929218	2929051	-
x	2930232	2929222	-
x	2930241	2929222	-
x	2930274	2929222	-
x	2930298	2929222	-
x	2931952	2933382	+
x	2934092	2933925	-
x	2938054	2936324	-
x	2938039	2936324	-
x	2942168	2942085	-
x	2942197	2942559	+
x	2944816	2945826	+
x	2945864	2947978	+
x	2948008	2948451	+
x	2948023	2948451	+
x	2949044	2948889	-
x	2952135	2952443	+
x	2953261	2952494	-
x	2957747	2958493	+
x	2959698	2959844	+
x	2960573	2961199	+
x	2961508	2960633	-
x	2961151	2960633	-
x	2961661	2960633	-
x	2962685	2962852	+
x	2963119	2962967	-
x	2964393	2963587	-
x	2964354	2963587	-
x	2967001	2966882	-
x	2976878	2976762	-
x	2976784	2977233	+
x	2976871	2977233	+
x	2977281	2978582	+
x	2978537	2978833	+
x	2979848	2979573	-
x	2980466	2979573	-
x	2981215	2980430	-
x	2981224	2980430	-
x	2981462	2981187	-
x	2982596	2981187	-
x	2981384	2981187	-
x	2983412	2982618	-
x	2984822	2984142	-
x	2989134	2989202	+
x	2989206	2989331	+
x	2989552	2989947	+
x	2989937	2990854	+
x	2989961	2990854	+
x	2990045	2990854	+
x	2990748	2990458	-
x	2990715	2990867	+
x	2991396	2991563	+
x	2992014	2992916	+
x	2992023	2992916	+
x	2992107	2992916	+
x	2997342	2997704	+
x	3004393	3004277	-
x	3005505	3004378	-
x	3006836	3005739	-
x	3006761	3005739	-
x	3008652	3008527	-
x	3008646	3008774	+
x	3010817	3010692	-
x	3010832	3010692	-
x	3011348	3011067	-
x	3012559	3012467	-
x	3012670	3014004	+
x	3014088	3014219	+
x	3015961	3014534	-
x	3017387	3018142	+
x	3017498	3018142	+
x	3019395	3018247	-
x	3020260	3020397	+
x	3023850	3025268	+
x	3025741	3026481	+
x	3025986	3025873	-
x	3027523	3026525	-
x	3027920	3027618	-
x	3029267	3029560	+
x	3029530	3029300	-
x	3029683	3030924	+
x	3032218	3031418	-
x	3033599	3032301	-
x	3033368	3032301	-
x	3034539	3035039	+
x	3035098	3036636	+
x	3038705	3040318	+
x	3040957	3040355	-
x	3046216	3047382	+
x	3047595	3047975	+
x	3049509	3049769	+
x	3049690	3050907	+
x	3049696	3050907	+
x	3049807	3050907	+
x	3054248	3055873	+
x	3054263	3055873	+
x	3054515	3055873	+
x	3057456	3058085	+
x	3058151	3058291	+
x	3058342	3058785	+
x	3058366	3058785	+
x	3058600	3058785	+
x	3059428	3060915	+
x	3060879	3061958	+
x	3060969	3061958	+
x	3061969	3062475	+
x	3063609	3063457	-
x	3065532	3064585	-
x	3068907	3067378	-
x	3069814	3068990	-
x	3069796	3068990	-
x	3069910	3070062	+
x	3071415	3070072	-
x	3071491	3072888	+
x	3071647	3072888	+
x	3078288	3074776	-
x	3078327	3074776	-
x	3085103	3084756	-
x	3085031	3084756	-
x	3085429	3085064	-
x	3086055	3085468	-
x	3086271	3085468	-
x	3085995	3085468	-
x	3086481	3086684	+
x	3086502	3086684	+
x	3091227	3090763	-
x	3091605	3091799	+
x	3091792	3091646	-
x	3091738	3091899	+
x	3093808	3093521	-
x	3096148	3094985	-
x	3098559	3098723	+
x	3101383	3102273	+
x	3102077	3101979	-
x	3106333	3105605	-
x	3107912	3106728	-
x	3110578	3109862	-
x	3110575	3109862	-
x	3110641	3109862	-
x	3111031	3113328	+
x	3116990	3118177	+
x	3120741	3122138	+
x	3125383	3124832	-
x	3125434	3124832	-
x	3125539	3124832	-
x	3125754	3126284	+
x	3125769	3126284	+
x	3126157	3125927	-
x	3134840	3136297	+
x	3136192	3137631	+
x	3136315	3137631	+
x	3139561	3139070	-
x	3139402	3139070	-
x	3139465	3139070	-
x	3141492	3139558	-
x	3141483	3139558	-
x	3141784	3143361	+
x	3141844	3143361	+
x	3143345	3143488	+
x	3143351	3143488	+
x	3143363	3143488	+
x	3144319	3145734	+
x	3146610	3145729	-
x	3146611	3146766	+
x	3148510	3146918	-
x	3150186	3149392	-
x	3151347	3150961	-
x	3151275	3150961	-
x	3151590	3151781	+
x	3151599	3151781	+
x	3151608	3151781	+
x	3154070	3155527	+
x	3154094	3155527	+
x	3159076	3158684	-
x	3160260	3159097	-
x	3160351	3160199	-
x	3160354	3160199	-
x	3160495	3160367	-
x	3160516	3160367	-
x	3160452	3160565	+
x	3164974	3164390	-
x	3164999	3165187	+
x	3165741	3165415	-
x	3165567	3166313	+
x	3165711	3166313	+
x	3167965	3168087	+
x	3168922	3168191	-
x	3168886	3168191	-
x	3169184	3168906	-
x	3169211	3170170	+
x	3170373	3171428	+
x	3170694	3171428	+
x	3171736	3171425	-
x	3172234	3171425	-
x	3173186	3172479	-
x	3173171	3172479	-
x	3173902	3173312	-
x	3176288	3175134	-
x	3176297	3175134	-
x	3177654	3176428	-
x	3178744	3177641	-
x	3178715	3178614	-
x	3178953	3178861	-
x	3179035	3179463	+
x	3180760	3181437	+
x	3180901	3181437	+
x	3181431	3182108	+
x	3182703	3182080	-
x	3183437	3183321	-
x	3183636	3183448	-
x	3184622	3183633	-
x	3186148	3184925	-
x	3188273	3187911	-
x	3188211	3188062	-
x	3190310	3188289	-
x	3190339	3191316	+
x	3190432	3191316	+
x	3195441	3193453	-
x	3195351	3193453	-
x	3195569	3195438	-
x	3195904	3196029	+
x	3196168	3195917	-
x	3196183	3195917	-
x	3196212	3197378	+
x	3197441	3197656	+
x	3197803	3199209	+
x	3197854	3199209	+
x	3199328	3199783	+
x	3199875	3200585	+
x	3200638	3201396	+
x	3202396	3203031	+
x	3204646	3203621	-
x	3204676	3203621	-
x	3205892	3206194	+
x	3208964	3207993	-
x	3211055	3210339	-
x	3211219	3211079	-
x	3211598	3211242	-
x	3212418	3213500	+
x	3213770	3213477	-
x	3213865	3214947	+
x	3215087	3214953	-
x	3215101	3216405	+
x	3218873	3218670	-
x	3218901	3218752	-
x	3219087	3219695	+
x	3220149	3221336	+
x	3221699	3221436	-
x	3221788	3225303	+
x	3228464	3228799	+
x	3230418	3229672	-
x	3232332	3231832	-
x	3232928	3232407	-
x	3233491	3232955	-
x	3233100	3233768	+
x	3234724	3234119	-
x	3234838	3234119	-
x	3237446	3234924	-
x	3237443	3234924	-
x	3237434	3234924	-
x	3238712	3238143	-
x	3239062	3238898	-
x	3239821	3239516	-
x	3239656	3239877	+
x	3240025	3239900	-
x	3240278	3240072	-
x	3240182	3240072	-
x	3240191	3240072	-
x	3240121	3240447	+
x	3240393	3240220	-
x	3241100	3240525	-
x	3241825	3241358	-
x	3241510	3241358	-
x	3242211	3242417	+
x	3242350	3242640	+
x	3242598	3243311	+
x	3242664	3243311	+
x	3243308	3243478	+
x	3243878	3243513	-
x	3243890	3243513	-
x	3243755	3243880	+
x	3245630	3246901	+
x	3251042	3250737	-
x	3251766	3251125	-
x	3252059	3251790	-
x	3252293	3252138	-
x	3252783	3252220	-
x	3254780	3254136	-
x	3256422	3254974	-
x	3255711	3255893	+
x	3257039	3256593	-
x	3256799	3256593	-
x	3257111	3256593	-
x	3256703	3256593	-
x	3256979	3256593	-
x	3257003	3256593	-
x	3257240	3256593	-
x	3257755	3257480	-
x	3258889	3259020	+
x	3262121	3262011	-
x	3263080	3262814	-
x	3262933	3262814	-
x	3262950	3263123	+
x	3262971	3263123	+
x	3263287	3263129	-
x	3263509	3263390	-
x	3264462	3265250	+
x	3265223	3265041	-
x	3266197	3265247	-
x	3267206	3267361	+
x	3267248	3267361	+
x	3268085	3267954	-
x	3268218	3268895	+
x	3268985	3269134	+
x	3270633	3270187	-
x	3270582	3270187	-
x	3271055	3270567	-
x	3271097	3270567	-
x	3270633	3271109	+
x	3271418	3271855	+
x	3271553	3271855	+
x	3271580	3271855	+
x	3271598	3271855	+
x	3271685	3271855	+
x	3271703	3271855	+
x	3271797	3272279	+
x	3271902	3272279	+
x	3272330	3272764	+
x	3272547	3272846	+
x	3272776	3272973	+
x	3273088	3273903	+
x	3273741	3273412	-
x	3274661	3275509	+
x	3275921	3276076	+
x	3276366	3276244	-
x	3276387	3276244	-
x	3276667	3276822	+
x	3276886	3277869	+
x	3277953	3279089	+
x	3279113	3280789	+
x	3286182	3284953	-
x	3287347	3286172	-
x	3287320	3286172	-
x	3292883	3292107	-
x	3293898	3293713	-
x	3295321	3294479	-
x	3295339	3294479	-
x	3295648	3294479	-
x	3296592	3295654	-
x	3296067	3295654	-
x	3296589	3295654	-
x	3297191	3296628	-
x	3297197	3296628	-
x	3298128	3297598	-
x	3298620	3298165	-
x	3303332	3301353	-
x	3304285	3303443	-
x	3304261	3303443	-
x	3304402	3303443	-
x	3305801	3304896	-
x	3310299	3305869	-
x	3310431	3305869	-
x	3310582	3310887	+
x	3310900	3310778	-
x	3315568	3315146	-
x	3319331	3317841	-
x	3319531	3320355	+
x	3321848	3323599	+
x	3321866	3323599	+
x	3321875	3323599	+
x	3321908	3323599	+
x	3321974	3323599	+
x	3323596	3324510	+
x	3324563	3324790	+
x	3325174	3325962	+
x	3327076	3325997	-
x	3329567	3328734	-
x	3330781	3329570	-
x	3331735	3330965	-
x	3332453	3331755	-
x	3334943	3335083	+
x	3337037	3335175	-
x	3337191	3338105	+
x	3337521	3338105	+
x	3338894	3338499	-
x	3344767	3344895	+
x	3346265	3345378	-
x	3346142	3345378	-
x	3345788	3345378	-
x	3348026	3347502	-
x	3347942	3347502	-
x	3348184	3349071	+
x	3350261	3349542	-
x	3350424	3350269	-
x	3350393	3351715	+
x	3350450	3351715	+
x	3353621	3352554	-
x	3353453	3352554	-
x	3353681	3352554	-
x	3353596	3353450	-
x	3355032	3355742	+
x	3355744	3355857	+
x	3355978	3355886	-
x	3356215	3356868	+
x	3360761	3362233	+
x	3365858	3367162	+
x	3369661	3369506	-
x	3373758	3372088	-
x	3374788	3374339	-
x	3376058	3376888	+
x	3377983	3377273	-
x	3377911	3377273	-
x	3379644	3379321	-
x	3381577	3380570	-
x	3381517	3380570	-
x	3382565	3381528	-
x	3384562	3384443	-
x	3390139	3389444	-
x	3391514	3393034	+
x	3391547	3393034	+
x	3393149	3393853	+
x	3393182	3393853	+
x	3397412	3397293	-
x	3398016	3398672	+
x	3399506	3398718	-
x	3399607	3400422	+
x	3400654	3400484	-
x	3404413	3405153	+
x	3407107	3407033	-
x	3407244	3407579	+
x	3407280	3407579	+
x	3407820	3407614	-
x	3415252	3412301	-
x	3414472	3412301	-
x	3415213	3412301	-
x	3416667	3416482	-
x	3418649	3418732	+
x	3419641	3418817	-
x	3419629	3418817	-
x	3420100	3419729	-
x	3421281	3420832	-
x	3421812	3420832	-
x	3421818	3420832	-
x	3421783	3421917	+
x	3421795	3421917	+
x	3426347	3426060	-
x	3428511	3428362	-
x	3428374	3428496	+
x	3432050	3432157	+
x	3434849	3435055	+
x	3434880	3436370	+
x	3434991	3436370	+
x	3435081	3436370	+
x	3436354	3436764	+
x	3436851	3437033	+
x	3437953	3441222	+
x	3438094	3441222	+
x	3441659	3441519	-
x	3450228	3450767	+
x	3451615	3452601	+
x	3452654	3452791	+
x	3459032	3457557	-
x	3459452	3460750	+
x	3460865	3461656	+
x	3461681	3461812	+
x	3461958	3461842	-
x	3462682	3463050	+
x	3463130	3463035	-
x	3463182	3463565	+
x	3463842	3464315	+
x	3464263	3464604	+
x	3464701	3465183	+
x	3464779	3465183	+
x	3465070	3465183	+
x	3465232	3466239	+
x	3466501	3466890	+
x	3468512	3468348	-
x	3468643	3468813	+
x	3468646	3468813	+
x	3471614	3470283	-
x	3473187	3471889	-
x	3473259	3471889	-
x	3473777	3473325	-
x	3473762	3473325	-
x	3476208	3476056	-
x	3477264	3476056	-
x	3480841	3481197	+
x	3480853	3481197	+
x	3480979	3481197	+
x	3481416	3481315	-
x	3481716	3482243	+
x	3481764	3482243	+
x	3481794	3482243	+
x	3483316	3482171	-
x	3483334	3482171	-
x	3484312	3483413	-
x	3484297	3483413	-
x	3486417	3485119	-
x	3486440	3486553	+
x	3486474	3486599	+
x	3486662	3486781	+
x	3487899	3488399	+
x	3488732	3488451	-
x	3489208	3489510	+
x	3490791	3491300	+
x	3492080	3492958	+
x	3493021	3493410	+
x	3493407	3494540	+
x	3494037	3494540	+
x	3494657	3494791	+
x	3497826	3498401	+
x	3498310	3499182	+
x	3498322	3499182	+
x	3499237	3499950	+
x	3499429	3499950	+
x	3503048	3503317	+
x	3503311	3503186	-
x	3506418	3505738	-
x	3506459	3507019	+
x	3507351	3507536	+
x	3508827	3508279	-
x	3508906	3508793	-
x	3508985	3510007	+
x	3509998	3510894	+
x	3513260	3512100	-
x	3513360	3513497	+
x	3515438	3513498	-
x	3515453	3513498	-
x	3515460	3515380	-
x	3515524	3515682	+
x	3515527	3515682	+
x	3516497	3518719	+
x	3516551	3518719	+
x	3518782	3516560	-
x	3518695	3516560	-
x	3520723	3520304	-
x	3523398	3524867	+
x	3525539	3525081	-
x	3525545	3525081	-
x	3525503	3525081	-
x	3525716	3526078	+
x	3525956	3526078	+
x	3528246	3527515	-
x	3529173	3527515	-
x	3529032	3527515	-
x	3529158	3527515	-
x	3529534	3529310	-
x	3530075	3529695	-
x	3532478	3531585	-
x	3532499	3531585	-
x	3534466	3532523	-
x	3534426	3534560	+
x	3535030	3534557	-
x	3535544	3535242	-
x	3536222	3535761	-
x	3540326	3540451	+
x	3540466	3541035	+
x	3540490	3541035	+
x	3544200	3543931	-
x	3543997	3544338	+
x	3544617	3544345	-
x	3544734	3544345	-
x	3544626	3545261	+
x	3545858	3545292	-
x	3548419	3548634	+
x	3548627	3549634	+
x	3550741	3551319	+
x	3550798	3551319	+
x	3553936	3554451	+
x	3561369	3560503	-
x	3561465	3560503	-
x	3561582	3561478	-
x	3561834	3561697	-
x	3561999	3566567	+
x	3562107	3566567	+
x	3562359	3566567	+
x	3569441	3568527	-
x	3569435	3568527	-
x	3570130	3569399	-
x	3571656	3570136	-
x	3573532	3572750	-
x	3574732	3574941	+
x	3576096	3575593	-
x	3577556	3577960	+
x	3577608	3578021	+
x	3577611	3578021	+
x	3578072	3579481	+
x	3581705	3580701	-
x	3581917	3582090	+
x	3581926	3582090	+
x	3582857	3583171	+
x	3586775	3586503	-
x	3586907	3587818	+
x	3593338	3589547	-
x	3594872	3593415	-
x	3594902	3593415	-
x	3598236	3597133	-
x	3598251	3597133	-
x	3601584	3601748	+
x	3601706	3601605	-
x	3601956	3602120	+
x	3602383	3602222	-
x	3602364	3602552	+
x	3602967	3604355	+
x	3608963	3607464	-
x	3609914	3609024	-
x	3610779	3610907	+
x	3611160	3611975	+
x	3611932	3612582	+
x	3612661	3612942	+
x	3613017	3613277	+
x	3613261	3614718	+
x	3615720	3615592	-
x	3615676	3615768	+
x	3616045	3616905	+
x	3616060	3616905	+
x	3617309	3618199	+
x	3618256	3618462	+
x	3618349	3618462	+
x	3622568	3623800	+
x	3623033	3623800	+
x	3623947	3623822	-
x	3624500	3624676	+
x	3624705	3625730	+
x	3625780	3626979	+
x	3626986	3628092	+
x	3628999	3629271	+
x	3630191	3630433	+
x	3631753	3632058	+
x	3633193	3632828	-
x	3633148	3632828	-
x	3634526	3635296	+
x	3634713	3634549	-
x	3634742	3635296	+
x	3635445	3635272	-
x	3636966	3636349	-
x	3637444	3636926	-
x	3637231	3636926	-
x	3637016	3637252	+
x	3647260	3647640	+
x	3648249	3648133	-
x	3650211	3650762	+
x	3650813	3651436	+
x	3651521	3652078	+
x	3653164	3653718	+
x	3654265	3654681	+
x	3655398	3655805	+
x	3656025	3656951	+
x	3656879	3657460	+
x	3657160	3657795	+
x	3657731	3658432	+
x	3661880	3663844	+
x	3664352	3665335	+
x	3665533	3666528	+
x	3667450	3667884	+
x	3667507	3667884	+
x	3668705	3668502	-
x	3668889	3669440	+
x	3669452	3670618	+
x	3670591	3671076	+
x	3671052	3670813	-
x	3672690	3672574	-
x	3675350	3672693	-
x	3675548	3675480	-
x	3675638	3675480	-
x	3676916	3675687	-
x	3679132	3679566	+
x	3679636	3680097	+
x	3680154	3679720	-
x	3681993	3681259	-
x	3686699	3686148	-
x	3692344	3694434	+
x	3694371	3694490	+
x	3697385	3697266	-
x	3699598	3699422	-
x	3702795	3703349	+
x	3705888	3705268	-
x	3708073	3707681	-
x	3711798	3711394	-
x	3712621	3711773	-
x	3719469	3718747	-
x	3719424	3718747	-
x	3720829	3719669	-
x	3720802	3719669	-
x	3720877	3719669	-
x	3721262	3720819	-
x	3721259	3720819	-
x	3721359	3721213	-
x	3722982	3722176	-
x	3723051	3725627	+
x	3725781	3725653	-
x	3726554	3726676	+
x	3726557	3726676	+
x	3726685	3728808	+
x	3728828	3729541	+
x	3729972	3730856	+
x	3732777	3732649	-
x	3732768	3732649	-
x	3732953	3734644	+
x	3737063	3736878	-
x	3736980	3737492	+
x	3737592	3739910	+
x	3737688	3739910	+
x	3740582	3742915	+
x	3743650	3744258	+
x	3743671	3744258	+
x	3744276	3744374	+
x	3745132	3745281	+
x	3745223	3745969	+
x	3745238	3745969	+
x	3746856	3746948	+
x	3753173	3753072	-
x	3753303	3753157	-
x	3753288	3753157	-
x	3757202	3756183	-
x	3756747	3757868	+
x	3758492	3757203	-
x	3758618	3760177	+
x	3760991	3760197	-
x	3761006	3760197	-
x	3761796	3760972	-
x	3762197	3761847	-
x	3762348	3763868	+
x	3765159	3765299	+
x	3768098	3767319	-
x	3767651	3767319	-
x	3768011	3767319	-
x	3768620	3768126	-
x	3768635	3768126	-
x	3768578	3768126	-
x	3769149	3768586	-
x	3769035	3768586	-
x	3769038	3768586	-
x	3769016	3769177	+
x	3772196	3771780	-
x	3772532	3771780	-
x	3779046	3777730	-
x	3779061	3777730	-
x	3784635	3783472	-
x	3786682	3785417	-
x	3786484	3785417	-
x	3787309	3786761	-
x	3787249	3786761	-
x	3787252	3786761	-
x	3786815	3787447	+
x	3788392	3787427	-
x	3790281	3790475	+
x	3790317	3790475	+
x	3790589	3790404	-
x	3790681	3790427	-
x	3791019	3791192	+
x	3791428	3792228	+
x	3792603	3793097	+
x	3792642	3793097	+
x	3795629	3793869	-
x	3793982	3793869	-
x	3797998	3796889	-
x	3801434	3801318	-
x	3801441	3801337	-
x	3801346	3801414	+
x	3801381	3801512	+
x	3802226	3801501	-
x	3802202	3801501	-
x	3806391	3805228	-
x	3806364	3806510	+
x	3806626	3806489	-
x	3807154	3807276	+
x	3807172	3807276	+
x	3808492	3807332	-
x	3809439	3809771	+
x	3810971	3811873	+
x	3811019	3811873	+
x	3811163	3811873	+
x	3811875	3812795	+
x	3811908	3812795	+
x	3812157	3812795	+
x	3815967	3814882	-
x	3818833	3819105	+
x	3818836	3819105	+
x	3822736	3823038	+
x	3823925	3824536	+
x	3823937	3824536	+
x	3825790	3824540	-
x	3825799	3824540	-
x	3825808	3826938	+
x	3825844	3826938	+
x	3827666	3827490	-
x	3830190	3830309	+
x	3833172	3833077	-
x	3833212	3833958	+
x	3834811	3836169	+
x	3837884	3837522	-
x	3837539	3837670	+
x	3837663	3837929	+
x	3840130	3838922	-
x	3840049	3838922	-
x	3842730	3840046	-
x	3843969	3843838	-
x	3844021	3843908	-
x	3844121	3844327	+
x	3844567	3845631	+
x	3848994	3848713	-
x	3852502	3851708	-
x	3852565	3851708	-
x	3852523	3851708	-
x	3854549	3852468	-
x	3854662	3855555	+
x	3857161	3857033	-
x	3857149	3857033	-
x	3857144	3857317	+
x	3858129	3858293	+
x	3858186	3858293	+
x	3858692	3858865	+
x	3859226	3859825	+
x	3859866	3860039	+
x	3863588	3861642	-
x	3863461	3863721	+
x	3863563	3863721	+
x	3863910	3863725	-
x	3863886	3863725	-
x	3863993	3864154	+
x	3864185	3864036	-
x	3864200	3864036	-
x	3864308	3865222	+
x	3864368	3865222	+
x	3864389	3865222	+
x	3867794	3868750	+
x	3868717	3869517	+
x	3868747	3869517	+
x	3870144	3869569	-
x	3870228	3869569	-
x	3870618	3870280	-
x	3871336	3871881	+
x	3872602	3873207	+
x	3872647	3873207	+
x	3873486	3873157	-
x	3873251	3873544	+
x	3873257	3873544	+
x	3873616	3873524	-
x	3873640	3873524	-
x	3879777	3879929	+
x	3881785	3880493	-
x	3881956	3880493	-
x	3882400	3882104	-
x	3883682	3883801	+
x	3886728	3887627	+
x	3892505	3890457	-
x	3893189	3892575	-
x	3893345	3892575	-
x	3893210	3892575	-
x	3893226	3894503	+
x	3893311	3893490	+
x	3893569	3893342	-
x	3893355	3894503	+
x	3893537	3893415	-
x	3897527	3897703	+
x	3897605	3897703	+
x	3899772	3897784	-
x	3899739	3897784	-
x	3902862	3899854	-
x	3900723	3899854	-
x	3903276	3899854	-
x	3904406	3903309	-
x	3904421	3903309	-
x	3906698	3904422	-
x	3906848	3904422	-
x	3906731	3904422	-
x	3910123	3909386	-
x	3910138	3909386	-
x	3909922	3909386	-
x	3910623	3912182	+
x	3910677	3912182	+
x	3912182	3912370	+
x	3914299	3914132	-
x	3914239	3914132	-
x	3914329	3914132	-
x	3914311	3914610	+
x	3914423	3914599	+
x	3914479	3914610	+
x	3914608	3914501	-
x	3914812	3914615	-
x	3914722	3914615	-
x	3914764	3915081	+
x	3914785	3915081	+
x	3914794	3915081	+
x	3914906	3915049	+
x	3914962	3915081	+
x	3915264	3915097	-
x	3915339	3915097	-
x	3915204	3915097	-
x	3915294	3915097	-
x	3915279	3915449	+
x	3915479	3915369	-
x	3915617	3916951	+
x	3920925	3921068	+
x	3922854	3923009	+
x	3923280	3923017	-
x	3923499	3923017	-
x	3923526	3923017	-
x	3925298	3923574	-
x	3926842	3925589	-
x	3927133	3927026	-
x	3927730	3927026	-
x	3927717	3928445	+
x	3931184	3928851	-
x	3931070	3928851	-
x	3932012	3932137	+
x	3932088	3933074	+
x	3933954	3933124	-
x	3934103	3933951	-
x	3933989	3934138	+
x	3935198	3934776	-
x	3935201	3934776	-
x	3935391	3935239	-
x	3935451	3935239	-
x	3939071	3938799	-
x	3939324	3940268	+
x	3940750	3940310	-
x	3941146	3940793	-
x	3941176	3940793	-
x	3944163	3942829	-
x	3944371	3944234	-
x	3944439	3945509	+
x	3944970	3945509	+
x	3945551	3947128	+
x	3947130	3948287	+
x	3948827	3949516	+
x	3950212	3949640	-
x	3950614	3950787	+
x	3952887	3954245	+
x	3954343	3954242	-
x	3954249	3954377	+
x	3954876	3954397	-
x	3955784	3954972	-
x	3956114	3957019	+
x	3957070	3957495	+
x	3959022	3960299	+
x	3960287	3960409	+
x	3963417	3964310	+
x	3965044	3964307	-
x	3966674	3965046	-
x	3974995	3975087	+
x	3977640	3977485	-
x	3977557	3978885	+
x	3977722	3978885	+
x	3986764	3988440	+
x	3988425	3989216	+
x	3992878	3993363	+
x	3993426	3992899	-
x	3993496	3993765	+
x	3993936	3993778	-
x	3994265	3993822	-
x	3994277	3994474	+
x	3994354	3996042	+
x	3994471	3996042	+
x	3996052	3997335	+
x	3997465	3998298	+
x	3999549	4000574	+
x	4001984	4001835	-
x	4006007	4005045	-
x	4009011	4008463	-
x	4009656	4009165	-
x	4012006	4011209	-
x	4014142	4013120	-
x	4017217	4017492	+
x	4017815	4017937	+
x	4018616	4017942	-
x	4018586	4017942	-
x	4018710	4020002	+
x	4019980	4020438	+
x	4020503	4021141	+
x	4021834	4021178	-
x	4022601	4021885	-
x	4023749	4023639	-
x	4023813	4024637	+
x	4024875	4025546	+
x	4027231	4025543	-
x	4027060	4025543	-
x	4027228	4025543	-
x	4027343	4027086	-
x	4027349	4027086	-
x	4027426	4028106	+
x	4027570	4028106	+
x	4028602	4030563	+
x	4031232	4033346	+
x	4034856	4036256	+
x	4036353	4038086	+
x	4038810	4038130	-
x	4039723	4038791	-
x	4045107	4045220	+
x	4049135	4047696	-
x	4049123	4047696	-
x	4049518	4050555	+
x	4050763	4050984	+
x	4050784	4050984	+
x	4050904	4050984	+
x	4051736	4052713	+
x	4053675	4053532	-
x	4053691	4054050	+
x	4053757	4054050	+
x	4055281	4054091	-
x	4055329	4054091	-
x	4055971	4055492	-
x	4057343	4055997	-
x	4056422	4055997	-
x	4057409	4055997	-
x	4062170	4060848	-
x	4063670	4062177	-
x	4063682	4062177	-
x	4063692	4063579	-
x	4064440	4064342	-
x	4066308	4066640	+
x	4066323	4066640	+
x	4066923	4068113	+
x	4066962	4068113	+
x	4069374	4068967	-
x	4069781	4069374	-
x	4070866	4069802	-
x	4072732	4073598	+
x	4075373	4073688	-
x	4075391	4075549	+
x	4075947	4075546	-
x	4075980	4075546	-
x	4076505	4076086	-
x	4076790	4076698	-
x	4076730	4077137	+
x	4076917	4076759	-
x	4076877	4077137	+
x	4078388	4077141	-
x	4078323	4078451	+
x	4078435	4079556	+
x	4078438	4079556	+
x	4080854	4079517	-
x	4080836	4079517	-
x	4084518	4085174	+
x	4086552	4086145	-
x	4086676	4086777	+
x	4089200	4086783	-
x	4092819	4091404	-
x	4092738	4091404	-
x	4093301	4093101	-
x	4093461	4093321	-
x	4093604	4093930	+
x	4093953	4093618	-
x	4094026	4094151	+
x	4097792	4099222	+
x	4099359	4100561	+
x	4101834	4102802	+
x	4101900	4102802	+
x	4101915	4102802	+
x	4102959	4103708	+
x	4108971	4107877	-
x	4109079	4107877	-
x	4109046	4107877	-
x	4114137	4112188	-
x	4113287	4113427	+
x	4113296	4113427	+
x	4115026	4114196	-
x	4115056	4114196	-
x	4115098	4115220	+
x	4116061	4115318	-
x	4116091	4116684	+
x	4117806	4116922	-
x	4123713	4123627	-
x	4123818	4124369	+
x	4123842	4124369	+
x	4124339	4123926	-
x	4126698	4128377	+
x	4126794	4128377	+
x	4128417	4129154	+
x	4128483	4129154	+
x	4130825	4130433	-
x	4130651	4130433	-
x	4137952	4136525	-
x	4139490	4137970	-
x	4141712	4142143	+
x	4144645	4145541	+
x	4144657	4145541	+
x	4145640	4146596	+
x	4145652	4146596	+
x	4146609	4147592	+
x	4146909	4147592	+
x	4148961	4147558	-
x	4149556	4149008	-
x	4150036	4149923	-
x	4150121	4149996	-
x	4151257	4151622	+
x	4151302	4151622	+
x	4152605	4152300	-
x	4154167	4153925	-
x	4155322	4155086	-
x	4156097	4155501	-
x	4158342	4156822	-
x	4157907	4156822	-
x	4158548	4158363	-
x	4160579	4160839	+
x	4163703	4165250	+
x	4166221	4165247	-
x	4166137	4167762	+
x	4171737	4170244	-
x	4173155	4173589	+
x	4173206	4173589	+
x	4173646	4173254	-
x	4173844	4175175	+
x	4175185	4175310	+
x	4175430	4176518	+
x	4176527	4177576	+
x	4176593	4177576	+
x	4177590	4178762	+
x	4178996	4180021	+
x	4181966	4182640	+
x	4182035	4182640	+
x	4183826	4182792	-
x	4185068	4184976	-
x	4188364	4188266	-
x	4190427	4191692	+
x	4193402	4193557	+
x	4198285	4197329	-
x	4198291	4197329	-
x	4198752	4198423	-
x	4198708	4201203	+
x	4198714	4201203	+
x	4203493	4202924	-
x	4204423	4203578	-
x	4204819	4205646	+
x	4207989	4210205	+
x	4212012	4212125	+
x	4212354	4213319	+
x	4213200	4213319	+
x	4213783	4213355	-
x	4216435	4215950	-
x	4217455	4217616	+
x	4217570	4219057	+
x	4217576	4219057	+
x	4219326	4219940	+
x	4219572	4219940	+
x	4220417	4220001	-
x	4220620	4220805	+
x	4221645	4222562	+
x	4221699	4222562	+
x	4224513	4224388	-
x	4226889	4226764	-
x	4227171	4226926	-
x	4227991	4227500	-
x	4228027	4227500	-
x	4228189	4227500	-
x	4228190	4228300	+
x	4228633	4228340	-
x	4228868	4228999	+
x	4229118	4229675	+
x	4236934	4236581	-
x	4237943	4236987	-
x	4238027	4236987	-
x	4239360	4237936	-
x	4237942	4238082	+
x	4242476	4241877	-
x	4242660	4242511	-
x	4242563	4242676	+
x	4242655	4242771	+
x	4242676	4242771	+
x	4243677	4242802	-
x	4243859	4243743	-
x	4243867	4244637	+
x	4244652	4243918	-
x	4243984	4244637	+
x	4246681	4246175	-
x	4248326	4247697	-
x	4247833	4248357	+
x	4249095	4248316	-
x	4250111	4249344	-
x	4250275	4250433	+
x	4250343	4251755	+
x	4252574	4253224	+
x	4252589	4253224	+
x	4254898	4255209	+
x	4255291	4255728	+
x	4256537	4257331	+
x	4259489	4260223	+
x	4260329	4260469	+
x	4260494	4260393	-
x	4260414	4260509	+
x	4263994	4261679	-
x	4265386	4266003	+
x	4268367	4268170	-
x	4269501	4269866	+
x	4269546	4269866	+
x	4270941	4270636	-
x	4272503	4272261	-
x	4274157	4273630	-
x	4274714	4274139	-
x	4274763	4275062	+
x	4274873	4274772	-
x	4276793	4276933	+
x	4276881	4278353	+
x	4279299	4278394	-
x	4279350	4278394	-
x	4279238	4279390	+
x	4279688	4279446	-
x	4279565	4279446	-
x	4279631	4279446	-
x	4282844	4282695	-
x	4282838	4282695	-
x	4283505	4282858	-
x	4283490	4282858	-
x	4283457	4282858	-
x	4283649	4283509	-
x	4283708	4283526	-
x	4283787	4283864	+
x	4284103	4283957	-
x	4284771	4284655	-
x	4284764	4286143	+
x	4286391	4286281	-
x	4287921	4286503	-
x	4287972	4286503	-
x	4290768	4290535	-
x	4290656	4290546	-
x	4290836	4290690	-
x	4292881	4292762	-
x	4294622	4293687	-
x	4294583	4293687	-
x	4294755	4295633	+
x	4300484	4301416	+
x	4300529	4301416	+
x	4301536	4302156	+
x	4302243	4303022	+
x	4303501	4304442	+
x	4305414	4304506	-
x	4305426	4304506	-
x	4305428	4305526	+
x	4306330	4306542	+
x	4307251	4307496	+
x	4307284	4307496	+
x	4312599	4310185	-
x	4313235	4312648	-
x	4312867	4313493	+
x	4313239	4313493	+
x	4313462	4314262	+
x	4313537	4314262	+
x	4314658	4315038	+
x	4316220	4316786	+
x	4318068	4317151	-
x	4318075	4318167	+
x	4319517	4318252	-
x	4321056	4321205	+
x	4321125	4321205	+
x	4323908	4323117	-
x	4324430	4325056	+
x	4325213	4325085	-
x	4325231	4325338	+
x	4325274	4326299	+
x	4325307	4326299	+
x	4325310	4326299	+
x	4326433	4327122	+
x	4329443	4329946	+
x	4330053	4330997	+
x	4331047	4330943	-
x	4331082	4332140	+
x	4331118	4332140	+
x	4332289	4332137	-
x	4332309	4332166	-
x	4332180	4332377	+
x	4332399	4332536	+
x	4333183	4333449	+
x	4333364	4334311	+
x	4333367	4334311	+
x	4333586	4334311	+
x	4340905	4339376	-
x	4340821	4339376	-
x	4340989	4339376	-
x	4341593	4340907	-
x	4341989	4342090	+
x	4342159	4342422	+
x	4342183	4342422	+
x	4342564	4343070	+
x	4344023	4343085	-
x	4346896	4346042	-
x	4348085	4347093	-
x	4348124	4347093	-
x	4348084	4348200	+
x	4350544	4348274	-
x	4350797	4350657	-
x	4351933	4351616	-
x	4351837	4351616	-
x	4352096	4353370	+
x	4352156	4353370	+
x	4355812	4355916	+
x	4356781	4356023	-
x	4358579	4356960	-
x	4360170	4358620	-
x	4360949	4361110	+
x	4361660	4363213	+
x	4361948	4363213	+
x	4364775	4366994	+
x	4367022	4367993	+
x	4367055	4367993	+
x	4368731	4368537	-
x	4368869	4368750	-
x	4370055	4368913	-
x	4372836	4370701	-
x	4372811	4373302	+
x	4372838	4373302	+
x	4374270	4374590	+
x	4374964	4374638	-
x	4377170	4378117	+
x	4377278	4378117	+
x	4378056	4378460	+
x	4381302	4379524	-
x	4385583	4384393	-
x	4386677	4387486	+
x	4386710	4387486	+
x	4389358	4390632	+
x	4392189	4393151	+
x	4394468	4393134	-
x	4396196	4397389	+
x	4397496	4398143	+
x	4399966	4401855	+
x	4399969	4401855	+
x	4401788	4402657	+
x	4401869	4402657	+
x	4402886	4402773	-
x	4402971	4402846	-
x	4404108	4404473	+
x	4404153	4404473	+
x	4405456	4405151	-
x	4407018	4406776	-
x	4408136	4407891	-
x	4411125	4410199	-
x	4411305	4410199	-
x	4411170	4410199	-
x	4411132	4411326	+
x	4411367	4411206	-
x	4411491	4411336	-
x	4415517	4414516	-
x	4416987	4416547	-
x	4417053	4416547	-
x	4417214	4421275	+
x	4427973	4426945	-
x	4427760	4426945	-
x	4427730	4426945	-
x	4427790	4426945	-
x	4428749	4427901	-
x	4428638	4427901	-
x	4428671	4427901	-
x	4429287	4428649	-
x	4431191	4429284	-
x	4432780	4432679	-
x	4435640	4436341	+
x	4435706	4436341	+
x	4436903	4436343	-
x	4436893	4436765	-
x	4437009	4438376	+
x	4442688	4442539	-
x	4442703	4442825	+
x	4444278	4444643	+
x	4444323	4444643	+
x	4445626	4445321	-
x	4447188	4446946	-
x	4448253	4448672	+
x	4450516	4452135	+
x	4452150	4453469	+
x	4455184	4455351	+
x	4456122	4455259	-
x	4456143	4455259	-
x	4456034	4456153	+
x	4456268	4459966	+
x	4460026	4460346	+
x	4460128	4460346	+
x	4461084	4462640	+
x	4463526	4463681	+
x	4463541	4463681	+
x	4465030	4463801	-
x	4465924	4465082	-
x	4465906	4465082	-
x	4469559	4468567	-
x	4469514	4468567	-
x	4469535	4468567	-
x	4473128	4474783	+
x	4475601	4475179	-
x	4475265	4475474	+
x	4475281	4475523	+
x	4475608	4476276	+
x	4479110	4479271	+
x	4479119	4479271	+
x	4479550	4479428	-
x	4482614	4481055	-
x	4482589	4482711	+
x	4484131	4484036	-
x	4484218	4485423	+
x	4485498	4486835	+
x	4486884	4486982	+
x	4486891	4487064	+
x	4487055	4486918	-
x	4486975	4487064	+
x	4487149	4488078	+
x	4488091	4488243	+
x	4488152	4488754	+
x	4492275	4489792	-
x	4493545	4494870	+
x	4494980	4495195	+
x	4495923	4495237	-
x	4495830	4495237	-
x	4496860	4497279	+
x	4497037	4497279	+
x	4500581	4498533	-
x	4500653	4498533	-
x	4504661	4505695	+
x	4505732	4507183	+
x	4508892	4509890	+
x	4508916	4509890	+
x	4509930	4511165	+
x	4511347	4514091	+
x	4514164	4513964	-
x	4514223	4515278	+
x	4515467	4516708	+
x	4518996	4520495	+
x	4520471	4521580	+
x	4520507	4521580	+
x	4524562	4524696	+
x	4524852	4524712	-
x	4524856	4525008	+
x	4524948	4525730	+
x	4529665	4530264	+
x	4529671	4530264	+
x	4530304	4530399	+
x	4530743	4530363	-
x	4530713	4530363	-
x	4530731	4530865	+
x	4531064	4532659	+
x	4532327	4532659	+
x	4533522	4533788	+
x	4533851	4533738	-
x	4534041	4533826	-
x	4537599	4537267	-
x	4538163	4538291	+
x	4538178	4538291	+
x	4538261	4538665	+
x	4538679	4539347	+
x	4541349	4541032	-
x	4541471	4541346	-
x	4541555	4541472	-
x	4541475	4541573	+
x	4543870	4544067	+
x	4545463	4546035	+
x	4547712	4549394	+
x	4547715	4549394	+
x	4547772	4549394	+
x	4547787	4549394	+
x	4549701	4550363	+
x	4550629	4550498	-
x	4550626	4550498	-
x	4552910	4552167	-
x	4554527	4553658	-
x	4554494	4553658	-
x	4554512	4553658	-
x	4556369	4555320	-
x	4560091	4558412	-
x	4560137	4560523	+
x	4560559	4560140	-
x	4560621	4560734	+
x	4564130	4562220	-
x	4565596	4565321	-
x	4565831	4565736	-
x	4567801	4565804	-
x	4569678	4568977	-
x	4570390	4569683	-
x	4571259	4570642	-
x	4573242	4572301	-
x	4574188	4573295	-
x	4574218	4573295	-
x	4576508	4576179	-
x	4579069	4578290	-
x	4579869	4579081	-
x	4580765	4579836	-
x	4579938	4580609	+
x	4581744	4580674	-
x	4583506	4582772	-
x	4583503	4582772	-
x	4584297	4583518	-
x	4584351	4583518	-
x	4584336	4583518	-
x	4584348	4583518	-
x	4584292	4584441	+
x	4586170	4586280	+
x	4586182	4586280	+
x	4586863	4587297	+
x	4587303	4586968	-
x	4587381	4586968	-
x	4587275	4587487	+
x	4589964	4590809	+
x	4591040	4592575	+
x	4593852	4592752	-
x	4596206	4594518	-
x	4596191	4594518	-
x	4598594	4598457	-
x	4598748	4598668	-
x	4601103	4598836	-
x	4602209	4602403	+
x	4602242	4602403	+
x	4607750	4607908	+
x	4610592	4610726	+
x	4611613	4611819	+
x	4611847	4612020	+
x	4612030	4612173	+
x	4613683	4612139	-
x	4617595	4615409	-
x	4617562	4615409	-
x	4623071	4623604	+
x	4623532	4623239	-
x	4623487	4623239	-
x	4623382	4623239	-
x	4623400	4623239	-
x	4624471	4623995	-
x	4624007	4624537	+
x	4624049	4624537	+
x	4624471	4624929	+
x	4624522	4624929	+
x	4626288	4626139	-
x	4627055	4626378	-
x	4627191	4627322	+
x	4628070	4627915	-
x	4630242	4630424	+
x	4631053	4631172	+
x	4632339	4632193	-
x	4632696	4633403	+
x	4632798	4633403	+
x	4632828	4633403	+
x	4633532	4633705	+
x	4633590	4633922	+
x	4633702	4633827	+
x	4634270	4633980	-
x	4634315	4633980	-
x	4638650	4637553	-
x	4641202	4641513	+
x	4641395	4641207	-
x	4641408	4641274	-
x	4641618	4641505	-
x	4641978	4641658	-
x	4643030	4643317	+
x	4648571	4647960	-
x	4651535	4651254	-
x	4653040	4651820	-
x	4652741	4652920	+
x	4658213	4657809	-
x	4658263	4658496	+
x	4658447	4658722	+
x	4658507	4658722	+
x	4658968	4659081	+
x	4659360	4659770	+
x	4659857	4660240	+
x	4659893	4660240	+
x	4659947	4660240	+
x	4669552	4669367	-
x	4670729	4670442	-
x	4678341	4678553	+
x	4678418	4678645	+
x	4678690	4679067	+
x	4678858	4679067	+
x	4679515	4679360	-
x	4680034	4679534	-
x	4679950	4679534	-
x	4679863	4679534	-
x	4680620	4680252	-
x	4680605	4680252	-
x	4680617	4680252	-
x	4680791	4680693	-
x	4681019	4680693	-
x	4681437	4681060	-
x	4681269	4681060	-
x	4681709	4681482	-
x	4681786	4681574	-
x	4682132	4681914	-
x	4682144	4681914	-
x	4683306	4682287	-
x	4683330	4682287	-
x	4684776	4683586	-
x	4685163	4684915	-
x	4685222	4685341	+
x	4685830	4685231	-
x	4687312	4685843	-
x	4687621	4685843	-
x	4687860	4687516	-
x	4689085	4687970	-
x	4689178	4687970	-
x	4689371	4690822	+
x	4690870	4689389	-
x	4690977	4690861	-
x	4691261	4691638	+
x	4692970	4691654	-
x	4693376	4693053	-
x	4693500	4693183	-
x	4695274	4695660	+
x	4695750	4695346	-
x	4698486	4697932	-
x	4698594	4698496	-
x	4698505	4698627	+
x	4698974	4698792	-
x	4698997	4699377	+
x	4701258	4699996	-
x	4701162	4699996	-
x	4701581	4701192	-
x	4702693	4701968	-
x	4704798	4705805	+
x	4705982	4707526	+
x	4706069	4707526	+
x	4707912	4708214	+
x	4711488	4712513	+
x	4711632	4712513	+
x	4713740	4712655	-
x	4713668	4712655	-
x	4713658	4714347	+
x	4713685	4714347	+
x	4713733	4714347	+
x	4713748	4714347	+
x	4714382	4714513	+
x	4714949	4714569	-
x	4716373	4715126	-
x	4716310	4715126	-
x	4716112	4715126	-
x	4716243	4717811	+
x	4716279	4717811	+
x	4717786	4718244	+
x	4718023	4718244	+
x	4718248	4719600	+
x	4719357	4719256	-
x	4719607	4721457	+
x	4722939	4724150	+
x	4726858	4726754	-
x	4727104	4728183	+
x	4728810	4731293	+
x	4734007	4734486	+
x	4734540	4734385	-
x	4734512	4734405	-
x	4734557	4734405	-
x	4734619	4735134	+
x	4735380	4736300	+
x	4736366	4738009	+
x	4736369	4738009	+
x	4738413	4738126	-
x	4738428	4738126	-
x	4738978	4738550	-
x	4741740	4740670	-
x	4742050	4743486	+
x	4743818	4743483	-
x	4743496	4743807	+
x	4744155	4743823	-
x	4744142	4744945	+
x	4744256	4744945	+
x	4744969	4744301	-
x	4745066	4745809	+
x	4745761	4746495	+
x	4746984	4747103	+
x	4747508	4747125	-
x	4748678	4748190	-
x	4748974	4748777	-
x	4749266	4749559	+
x	4750069	4750830	+
x	4750219	4750830	+
x	4752142	4750973	-
x	4752058	4750973	-
x	4756739	4755963	-
x	4758392	4757601	-
x	4758605	4759252	+
x	4758926	4759252	+
x	4759805	4759236	-
x	4759910	4759236	-
x	4762452	4763120	+
x	4764214	4763249	-
x	4764227	4764322	+
x	4765161	4765652	+
x	4765182	4765652	+
x	4767727	4765775	-
x	4766011	4765775	-
x	4769454	4769726	+
x	4769481	4769726	+
x	4771421	4771284	-
x	4772158	4771454	-
x	4772119	4771454	-
x	4772200	4772328	+
x	4778074	4777892	-
x	4779060	4779200	+
x	4779219	4779073	-
x	4779198	4779073	-
x	4781959	4783005	+
x	4781980	4783005	+
x	4782043	4783005	+
x	4783007	4783987	+
x	4783016	4783987	+
x	4785081	4785212	+
x	4787380	4788720	+
x	4788987	4789289	+
x	4789896	4789798	-
x	4789927	4789844	-
x	4789847	4789942	+
x	4792134	4792256	+
x	4792299	4792415	+
x	4792516	4792340	-
x	4795611	4794193	-
x	4796685	4796918	+
x	4796730	4796918	+
x	4799919	4799836	-
x	4800386	4799961	-
x	4800419	4799961	-
x	4801994	4801833	-
x	4801982	4801833	-
x	4802024	4801833	-
x	4802143	4802006	-
x	4802175	4802071	-
x	4802097	4802279	+
x	4802601	4802759	+
x	4803661	4803825	+
x	4803897	4804151	+
x	4804151	4804279	+
x	4804287	4804748	+
x	4806041	4806454	+
x	4808548	4808255	-
x	4808924	4810147	+
x	4813817	4813584	-
x	4813721	4813584	-
x	4815717	4815589	-
x	4815652	4816731	+
x	4816728	4817813	+
x	4820625	4819564	-
x	4820861	4820658	-
x	4822943	4823293	+
x	4824142	4823213	-
x	4824247	4823213	-
x	4825091	4825333	+
x	4825416	4825673	+
x	4826802	4826966	+
x	4827955	4826999	-
x	4827985	4826999	-
x	4829855	4828947	-
x	4834039	4834251	+
x	4834116	4834346	+
x	4834262	4834558	+
x	4834373	4834558	+
x	4834391	4834558	+
x	4834559	4834768	+
x	4835493	4835786	+
x	4835529	4835786	+
x	4836140	4835949	-
x	4836216	4836106	-
x	4836378	4836488	+
x	4836519	4837877	+
x	4838113	4838262	+
x	4839081	4838383	-
x	4838476	4838670	+
x	4839653	4839561	-
x	4839854	4839561	-
x	4840294	4839905	-
x	4840285	4839905	-
x	4840066	4839905	-
x	4841074	4840640	-
x	4840903	4840640	-
x	4841463	4841062	-
x	4841429	4842298	+
x	4842292	4841723	-
x	4842491	4842691	+
x	4843177	4843037	-
x	4843306	4843512	+
x	4843747	4843514	-
x	4843750	4843514	-
x	4843849	4844127	+
x	4843921	4844127	+
x	4844216	4844824	+
x	4844222	4844824	+
x	4844927	4844730	-
x	4845240	4845148	-
x	4845892	4845677	-
x	4847026	4847898	+
x	4847773	4847898	+
x	4848146	4848259	+
x	4848270	4851116	+
x	4849266	4851116	+
x	4851187	4851345	+
x	4852360	4851506	-
x	4852351	4851506	-
x	4852318	4853133	+
x	4852588	4853133	+
x	4852660	4853133	+
x	4853097	4852696	-
x	4853241	4852696	-
x	4853134	4853625	+
x	4853149	4853625	+
x	4854448	4854113	-
x	4856733	4857026	+
x	4856760	4857026	+
x	4856778	4857026	+
x	4856865	4857026	+
x	4856883	4857026	+
x	4878391	4878852	+
x	4881694	4880480	-
x	4882331	4881606	-
x	4882154	4881606	-
x	4882561	4882689	+
x	4882691	4882840	+
x	4883124	4882987	-
x	4883387	4883121	-
x	4884900	4885451	+
x	4886443	4887090	+
x	4886452	4887090	+
x	4886584	4887090	+
x	4886593	4887090	+
x	4887203	4887084	-
x	4887196	4887852	+
x	4887202	4887852	+
x	4887964	4890555	+
x	4887985	4890555	+
x	4889695	4890555	+
x	4890562	4891095	+
x	4891217	4891089	-
x	4891102	4891611	+
x	4891622	4892533	+
x	4892685	4892581	-
x	4894129	4894437	+
x	4896323	4897114	+
x	4897330	4897136	-
x	4897377	4898102	+
x	4899326	4899427	+
x	4899406	4899549	+
x	4899645	4899779	+
x	4899736	4900137	+
x	4899748	4900137	+
x	4900858	4900130	-
x	4900873	4900130	-
x	4900970	4900875	-
x	4903444	4902749	-
x	4903444	4903617	+
x	4903462	4903617	+
x	4909126	4904387	-
x	4909423	4904387	-
x	4909383	4909192	-
x	4911926	4911087	-
x	4915624	4914851	-
x	4916800	4915628	-
x	4919706	4919918	+
x	4920275	4920859	+
x	4922657	4922809	+
x	4923235	4922897	-
x	4931235	4931522	+
x	4931241	4931522	+
x	4931509	4931811	+
x	4931515	4931811	+
x	4932847	4931852	-
x	4932892	4931852	-
x	4932706	4931852	-
x	4935186	4933072	-
x	4935237	4933072	-
x	4939686	4938880	-
x	4939807	4939899	+
x	4939918	4940955	+
x	4939942	4940955	+
x	4943345	4941093	-
x	4944129	4943638	-
x	4944135	4943638	-
x	4946034	4945567	-
x	4945893	4945567	-
x	4946040	4945567	-
x	4946864	4946031	-
x	4946855	4946031	-
x	4947495	4948145	+
x	4948103	4948780	+
x	4948253	4948780	+
x	4949708	4949983	+
x	4949747	4949983	+
x	4953281	4953427	+
x	4953330	4953431	+
x	4956237	4955242	-
x	4958344	4957778	-
x	4958341	4957778	-
x	4958828	4958442	-
x	4959694	4959332	-
x	4959712	4959332	-
x	4959952	4960320	+
x	4960337	4960083	-
x	4960361	4960083	-
x	4961064	4960417	-
x	4963377	4964195	+
x	4963383	4964195	+
x	4964686	4965012	+
x	4966223	4967212	+
x	4966259	4967212	+
x	4966295	4967212	+
x	4966625	4967212	+
x	4967184	4967978	+
x	4967196	4967978	+
x	4967328	4967978	+
x	4968594	4968394	-
x	4968508	4968675	+
x	4969371	4969502	+
x	4969842	4969762	-
x	4969884	4970090	+
x	4970095	4970646	+
x	4971691	4971945	+
x	4972179	4972337	+
x	4972356	4972571	+
x	4972843	4973073	+
x	4972897	4973073	+
x	4972918	4973073	+
x	4973243	4973419	+
x	4973246	4973419	+
x	4974206	4974484	+
x	4977064	4977276	+
x	4977276	4978784	+
x	4978422	4978784	+
x	4978527	4978784	+
x	4978579	4980756	+
x	4978633	4980756	+
x	4978636	4980756	+
x	4978666	4980756	+
x	4978729	4980756	+
x	4978798	4980756	+
x	4980843	4981166	+
x	4982021	4982422	+
x	4982427	4983176	+
x	4982433	4983176	+
x	4983225	4983623	+
x	4983234	4983623	+
x	4983237	4983623	+
x	4983644	4983961	+
x	4983924	4986998	+
x	4983933	4986998	+
x	4987891	4987388	-
x	4988041	4987388	-
x	4988040	4988783	+
x	4988109	4988783	+
x	4988148	4988783	+
x	4988184	4988783	+
x	4988214	4988783	+
x	4988720	4989328	+
x	4988780	4989328	+
x	4988816	4989328	+
x	4989389	4992784	+
x	4990052	4992784	+
x	4990223	4992784	+
x	4992131	4992784	+
x	4992569	4992784	+
x	4992876	4993451	+
x	4993516	4995894	+
x	4994027	4993881	-
x	4994321	4993881	-
x	4997333	4996980	-
x	4998561	4998328	-
x	4999376	4999170	-
x	4999301	4999170	-
x	4999697	4999533	-
x	5000861	4999533	-
x	4999638	5001224	+
x	4999650	5001224	+
x	5001539	5002222	+
x	5002276	5001584	-
x	5001623	5002222	+
x	5002319	5002510	+
x	5002349	5002510	+
x	5002596	5003705	+
x	5004524	5004733	+
x	5004531	5004632	+
x	5004708	5004559	-
x	5004625	5004726	+
x	5004632	5004733	+
x	5004809	5004660	-
x	5004733	5004834	+
x	5007262	5007387	+
x	5007338	5007439	+
x	5007520	5008323	+
x	5008579	5009772	+
x	5011047	5011823	+
x	5011831	5011950	+
x	5014978	5016084	+
x	5016085	5017515	+
x	5017515	5018768	+
x	5018860	5019192	+
x	5018893	5019192	+
x	5021175	5021339	+
x	5021441	5023345	+
x	5023465	5023761	+
x	5024370	5023834	-
x	5031018	5031158	+
x	5031537	5032244	+
