x	333	133	-
x	294	2798	+
x	342	2798	+
x	5087	5236	+
x	5242	5529	+
x	5938	5309	-
x	5806	5309	-
x	6497	6036	-
x	6590	6036	-
x	6521	6769	+
x	6539	6769	+
x	6581	6769	+
x	6784	6882	+
x	9453	10469	+
x	10581	11171	+
x	12099	12623	+
x	12108	12623	+
x	13271	13134	-
x	13348	13199	-
x	15435	13399	-
x	15416	16576	+
x	16674	16961	+
x	16814	16680	-
x	18626	19549	+
x	18644	19549	+
x	20547	19588	-
x	20013	19588	-
x	20115	19588	-
x	20367	19588	-
x	21567	20560	-
x	20871	20560	-
x	23559	23170	-
x	23481	23597	+
x	24021	23857	-
x	24228	24043	-
x	24409	24627	+
x	29423	30418	+
x	30685	31398	+
x	32595	32428	-
x	32724	32629	-
x	32665	32802	+
x	32815	33990	+
x	37413	37237	-
x	37385	37885	+
x	38582	37971	-
x	39391	38567	-
x	39460	38567	-
x	41029	39461	-
x	45136	45237	+
x	45532	46365	+
x	45559	46365	+
x	50891	52825	+
x	52882	53496	+
x	52906	53496	+
x	54387	54740	+
x	56589	55621	-
x	60270	57949	-
x	65019	62161	-
x	64920	62161	-
x	72023	72952	+
x	72065	72952	+
x	74623	73904	-
x	76130	74586	-
x	77167	76172	-
x	77318	77199	-
x	78995	77319	-
x	78895	79194	+
x	78943	79194	+
x	79063	79194	+
x	80574	80759	+
x	83636	82542	-
x	85844	85966	+
x	85959	86987	+
x	86025	86987	+
x	87145	87023	-
x	87120	87245	+
x	87221	89029	+
x	87263	89029	+
x	87329	89029	+
x	89002	89523	+
x	89526	89621	+
x	89535	89621	+
x	89575	89706	+
x	91273	91767	+
x	91670	92710	+
x	91772	92710	+
x	92719	93072	+
x	94856	96328	+
x	94913	96328	+
x	100075	101322	+
x	101319	102386	+
x	109227	109892	+
x	109380	109892	+
x	113236	113123	-
x	113257	113123	-
x	113205	113402	+
x	116073	115966	-
x	117283	116081	-
x	119126	119314	+
x	120246	119311	-
x	123110	121737	-
x	123618	124415	+
x	124594	124412	-
x	129468	130895	+
x	132717	130966	-
x	132925	135675	+
x	133156	135675	+
x	135803	136213	+
x	136802	136251	-
x	138503	138033	-
x	138380	138033	-
x	138551	138033	-
x	138419	138033	-
x	138507	140096	+
x	142551	140143	-
x	142700	143275	+
x	142739	143275	+
x	142844	143275	+
x	145013	145780	+
x	147970	148155	+
x	148042	148155	+
x	148276	149178	+
x	148462	149178	+
x	150025	149252	-
x	152368	151022	-
x	153671	153576	-
x	154200	153589	-
x	157530	157643	+
x	158263	157655	-
x	160503	159085	-
x	161438	160542	-
x	161978	161505	-
x	163600	162857	-
x	163396	162857	-
x	163461	165890	+
x	168819	168685	-
x	171928	172821	+
x	177810	178187	+
x	178199	177939	-
x	183678	184853	+
x	183723	184853	+
x	188990	186495	-
x	190193	191116	+
x	191355	191068	-
x	192120	191068	-
x	193507	193277	-
x	193425	193946	+
x	195420	196181	+
x	196181	196333	+
x	196194	197051	+
x	196224	197051	+
x	197018	198415	+
x	201083	201484	+
x	202525	203073	+
x	202693	203073	+
x	210004	209069	-
x	212367	212783	+
x	214449	214195	-
x	214377	214195	-
x	214660	214442	-
x	216526	216657	+
x	217205	216651	-
x	217484	216651	-
x	219301	217529	-
x	220415	220062	-
x	225319	225684	+
x	225364	225684	+
x	226759	226454	-
x	228321	228094	-
x	231593	232393	+
x	234278	233289	-
x	234647	233289	-
x	235490	236230	+
x	235505	236230	+
x	235799	235671	-
x	236805	236227	-
x	236759	237490	+
x	237706	237392	-
x	240370	239441	-
x	239779	239441	-
x	242347	240905	-
x	245732	242268	-
x	245375	242268	-
x	247289	245811	-
x	246605	245811	-
x	247920	247228	-
x	250889	247968	-
x	254706	253405	-
x	254415	253405	-
x	255798	254710	-
x	260743	260886	+
x	261564	261701	+
x	268769	269167	+
x	268847	269167	+
x	269290	270411	+
x	269338	270411	+
x	269368	270411	+
x	269446	270411	+
x	269554	270411	+
x	270223	270411	+
x	271232	270453	-
x	271377	271850	+
x	271401	271850	+
x	274415	271893	-
x	274373	271893	-
x	274415	275155	+
x	275292	275098	-
x	275209	275301	+
x	275346	276128	+
x	277198	276995	-
x	277686	278495	+
x	277843	277730	-
x	277746	278495	+
x	277869	278495	+
x	279200	278901	-
x	283546	283274	-
x	293640	292915	-
x	312128	311658	-
x	326854	326198	-
x	332116	329600	-
x	334868	335233	+
x	339540	340205	+
x	340205	341320	+
x	346068	345175	-
x	346437	347417	+
x	349402	349671	+
x	351299	351940	+
x	352819	353742	+
x	353107	353742	+
x	354943	355317	+
x	355536	356702	+
x	356615	357313	+
x	356699	357313	+
x	356705	357313	+
x	356813	357313	+
x	359672	359307	-
x	362441	361380	-
x	365818	365408	-
x	371704	371883	+
x	372207	371878	-
x	372176	372063	-
x	372088	372261	+
x	373176	372520	-
x	373275	372520	-
x	374818	373199	-
x	379361	378771	-
x	379654	379559	-
x	380136	380363	+
x	380541	380398	-
x	380801	380538	-
x	381086	380925	-
x	380965	381057	+
x	381233	381346	+
x	382483	382373	-
x	382444	386634	+
x	387612	386755	-
x	387645	386755	-
x	387396	386755	-
x	387846	388730	+
x	387954	388730	+
x	389492	388890	-
x	389466	389735	+
x	389746	389495	-
x	389731	389495	-
x	391192	389840	-
x	391245	391337	+
x	394759	395607	+
x	395774	395562	-
x	395878	395681	-
x	395809	395681	-
x	395920	396057	+
x	398446	396731	-
x	398317	396731	-
x	399878	398415	-
x	399890	398415	-
x	400497	399901	-
x	400506	399901	-
x	400405	400620	+
x	402744	402595	-
x	403157	407206	+
x	407339	408436	+
x	408738	408478	-
x	409804	409502	-
x	410076	410309	+
x	410290	410862	+
x	411992	413302	+
x	413629	414720	+
x	415961	417205	+
x	417474	417914	+
x	418043	417942	-
x	417990	418067	+
x	418190	418074	-
x	418168	419151	+
x	419185	420684	+
x	419506	420684	+
x	419572	420684	+
x	421615	422601	+
x	422688	422533	-
x	422535	422672	+
x	424820	424984	+
x	425219	425043	-
x	425178	425453	+
x	425277	425453	+
x	425313	425453	+
x	426117	425470	-
x	426141	425470	-
x	426138	425470	-
x	426590	426712	+
x	427785	426664	-
x	428311	428409	+
x	435475	436773	+
x	435604	436773	+
x	437635	437730	+
x	438988	440169	+
x	439252	440169	+
x	440883	440272	-
x	440934	440272	-
x	446533	445451	-
x	447482	446610	-
x	447455	446610	-
x	447443	446610	-
x	447524	446610	-
x	450199	451128	+
x	450247	451128	+
x	451132	451947	+
x	454035	455291	+
x	455954	456061	+
x	456054	456188	+
x	458347	458228	-
x	458524	458228	-
x	458273	458575	+
x	459419	458688	-
x	460173	459463	-
x	459903	459463	-
x	460155	459463	-
x	462071	462178	+
x	462364	462149	-
x	462516	462337	-
x	462561	462337	-
x	462458	463477	+
x	464205	463891	-
x	467043	466036	-
x	467396	467199	-
x	467447	467199	-
x	470553	471221	+
x	472352	471222	-
x	472526	472425	-
x	472593	472471	-
x	472517	472711	+
x	472568	472711	+
x	472725	473951	+
x	475163	475059	-
x	475355	475489	+
x	475553	475897	+
x	477093	477296	+
x	477096	477296	+
x	477319	477432	+
x	477593	477327	-
x	477479	477327	-
x	477499	477738	+
x	477770	479254	+
x	479355	479693	+
x	481844	480927	-
x	481736	482314	+
x	483293	483490	+
x	483453	483599	+
x	484660	484544	-
x	484839	484720	-
x	484761	485042	+
x	485175	484867	-
x	486183	485200	-
x	486111	485200	-
x	486098	487144	+
x	486110	487144	+
x	486149	487144	+
x	487123	487263	+
x	488507	487287	-
x	488471	487287	-
x	492963	491737	-
x	492925	493056	+
x	495292	495182	-
x	495533	495384	-
x	496970	498346	+
x	498505	500319	+
x	503244	503606	+
x	503634	505481	+
x	505447	506463	+
x	506953	507075	+
x	508048	507116	-
x	508898	508299	-
x	509460	510545	+
x	510538	511104	+
x	511627	511094	-
x	512585	513094	+
x	512624	513094	+
x	517418	517510	+
x	517549	517436	-
x	519634	519038	-
x	519478	519038	-
x	520205	519591	-
x	520502	521161	+
x	520652	521161	+
x	522659	521289	-
x	523001	523807	+
x	523091	523807	+
x	524926	524567	-
x	524878	524567	-
x	525998	525063	-
x	525950	525063	-
x	526375	525965	-
x	525987	526244	+
x	526809	526294	-
x	531792	532391	+
x	532517	531837	-
x	532687	533037	+
x	532720	533037	+
x	533386	532964	-
x	532971	533234	+
x	533046	533234	+
x	533088	533234	+
x	534691	533390	-
x	537090	539489	+
x	545574	543859	-
x	545515	545634	+
x	545647	546477	+
x	546402	547088	+
x	546522	547088	+
x	546543	547088	+
x	548769	550664	+
x	550818	550678	-
x	550707	551183	+
x	551135	550902	-
x	553491	552547	-
x	553640	554197	+
x	554075	554197	+
x	554638	554228	-
x	554539	554228	-
x	554599	554228	-
x	554521	554859	+
x	554939	555271	+
x	556869	555313	-
x	557536	557027	-
x	558554	558336	-
x	558755	558336	-
x	558800	558336	-
x	563496	562672	-
x	563901	562672	-
x	564061	564654	+
x	564736	564900	+
x	564788	568144	+
x	568190	568339	+
x	569480	569590	+
x	569604	570209	+
x	569625	570209	+
x	572675	572298	-
x	572307	572651	+
x	575431	575306	-
x	575361	576065	+
x	575364	576065	+
x	582978	583163	+
x	585214	584849	-
x	586464	586805	+
x	587473	586919	-
x	592112	592444	+
x	592900	592445	-
x	594600	595406	+
x	596359	595469	-
x	597193	596384	-
x	597806	597183	-
x	597839	597183	-
x	597809	597183	-
x	598005	598463	+
x	601094	600972	-
x	604353	605588	+
x	605996	606706	+
x	606251	606706	+
x	606687	607178	+
x	606987	607178	+
x	607284	607132	-
x	607678	607463	-
x	608100	607693	-
x	609148	608180	-
x	611104	611874	+
x	611874	613745	+
x	615544	615822	+
x	618092	618556	+
x	618607	619914	+
x	619667	619575	-
x	619930	621081	+
x	623259	622006	-
x	626306	627565	+
x	626564	627565	+
x	627483	628391	+
x	627672	628391	+
x	629281	629409	+
x	629318	629425	+
x	631018	630482	-
x	631822	632508	+
x	634530	634787	+
x	634785	634552	-
x	636080	636655	+
x	636751	636885	+
x	640061	640222	+
x	640243	641226	+
x	640249	641226	+
x	641327	641752	+
x	641555	641752	+
x	642450	641755	-
x	642402	641755	-
x	642442	642597	+
x	642758	642636	-
x	647580	644587	-
x	649708	647546	-
x	650074	649865	-
x	651173	650052	-
x	650405	650052	-
x	650909	650052	-
x	651095	650052	-
x	650240	650052	-
x	651017	650052	-
x	651125	650052	-
x	651927	651718	-
x	651969	651718	-
x	653300	651966	-
x	655702	654425	-
x	656167	654425	-
x	660108	657223	-
x	658515	657223	-
x	659382	657223	-
x	661983	657223	-
x	658980	657223	-
x	666650	665190	-
x	667358	667513	+
x	673702	675078	+
x	677294	677202	-
x	677736	677248	-
x	677881	677681	-
x	679586	679317	-
x	679455	679643	+
x	679519	679707	+
x	679741	679875	+
x	680089	679880	-
x	679913	680146	+
x	679959	680210	+
x	680022	680210	+
x	680952	680332	-
x	681082	680963	-
x	681102	680983	-
x	683427	681127	-
x	683411	683635	+
x	683688	684812	+
x	684809	685033	+
x	684892	688911	+
x	689256	690260	+
x	693074	692058	-
x	695593	695387	-
x	695746	696933	+
x	699394	700170	+
x	702624	702872	+
x	702890	703042	+
x	706248	705619	-
x	706191	705619	-
x	707282	706221	-
x	709505	708699	-
x	709499	708699	-
x	710299	709784	-
x	710551	712116	+
x	712597	712767	+
x	714316	714128	-
x	714256	714128	-
x	714205	714666	+
x	714901	714740	-
x	715819	714995	-
x	717345	715915	-
x	718301	717429	-
x	720411	718837	-
x	720371	721144	+
x	721303	720380	-
x	722603	721596	-
x	722741	721596	-
x	722567	721596	-
x	722974	724692	+
x	724715	725341	+
x	726922	726812	-
x	727052	726906	-
x	727126	727233	+
x	727969	727802	-
x	728006	728299	+
x	729054	729617	+
x	731227	731114	-
x	732024	731224	-
x	732235	732384	+
x	733011	732436	-
x	734783	734926	+
x	734786	734926	+
x	734801	734926	+
x	739729	739520	-
x	739851	740141	+
x	739913	740083	+
x	740711	740097	-
x	745725	743002	-
x	746267	746404	+
x	746667	746371	-
x	746958	746371	-
x	747354	746371	-
x	747338	747478	+
x	751324	752463	+
x	752429	752566	+
x	755245	754277	-
x	758616	757639	-
x	758622	757639	-
x	758682	758804	+
x	764991	763951	-
x	765010	765153	+
x	765169	765050	-
x	767971	768321	+
x	768040	768321	+
x	768322	768459	+
x	768456	768575	+
x	768478	768699	+
x	768509	768598	+
x	768576	768713	+
x	768890	768708	-
x	770760	770924	+
x	774949	774284	-
x	775258	775133	-
x	775267	775133	-
x	775474	777363	+
x	779418	779233	-
x	779391	779233	-
x	779485	779381	-
x	780174	781082	+
x	782033	782287	+
x	782924	782277	-
x	783309	782947	-
x	784194	784874	+
x	784849	786540	+
x	790119	787912	-
x	790277	790155	-
x	790638	790504	-
x	790644	790778	+
x	790904	790800	-
x	794161	791474	-
x	794735	794151	-
x	794747	794151	-
x	798572	796803	-
x	798679	798476	-
x	799085	799240	+
x	799327	802659	+
x	800554	802659	+
x	803548	803916	+
x	804905	805813	+
x	804911	805813	+
x	805407	805628	+
x	806257	807690	+
x	806503	807690	+
x	807714	808256	+
x	808937	809623	+
x	808955	809623	+
x	809141	809623	+
x	815944	816561	+
x	818476	817385	-
x	818957	818583	-
x	820378	819641	-
x	820396	819641	-
x	822837	820387	-
x	822888	820387	-
x	823663	823535	-
x	825119	825310	+
x	825501	825343	-
x	825846	826235	+
x	826118	825888	-
x	826025	825888	-
x	826564	828342	+
x	836372	838348	+
x	836429	838348	+
x	841024	841251	+
x	841432	841328	-
x	841843	843414	+
x	844599	843319	-
x	844790	844990	+
x	845550	846233	+
x	848125	849420	+
x	850009	849389	-
x	850006	849389	-
x	849431	849976	+
x	850921	850622	-
x	850643	850777	+
x	852355	853389	+
x	853442	854146	+
x	855181	855612	+
x	857871	857104	-
x	862361	861303	-
x	862331	861303	-
x	862475	862606	+
x	864066	862582	-
x	864128	863982	-
x	865033	865188	+
x	865124	865333	+
x	868799	867879	-
x	868793	867879	-
x	870646	869888	-
x	870904	869888	-
x	870759	870908	+
x	870823	870939	+
x	871046	872077	+
x	873487	873657	+
x	873745	876030	+
x	874006	876030	+
x	879634	878234	-
x	879523	878234	-
x	879586	878234	-
x	881749	882543	+
x	883517	883380	-
x	885962	885876	-
x	886973	886005	-
x	886955	886005	-
x	887260	887156	-
x	887311	887156	-
x	887229	888299	+
x	887235	888299	+
x	887277	888299	+
x	889066	888575	-
x	889293	889559	+
x	890069	890854	+
x	890917	890786	-
x	891050	890946	-
x	893980	894099	+
x	900238	899240	-
x	900921	900238	-
x	902509	902604	+
x	903216	902734	-
x	903336	905486	+
x	906618	906514	-
x	908811	908434	-
x	909509	908796	-
x	911781	911885	+
x	911899	911816	-
x	912466	912062	-
x	912517	913524	+
x	915773	913521	-
x	915745	915846	+
x	918244	918053	-
x	919126	918530	-
x	919301	919203	-
x	920231	919332	-
x	920566	921087	+
x	921678	921136	-
x	922955	923062	+
x	925860	924946	-
x	928105	927689	-
x	927743	927892	+
x	928757	928203	-
x	928664	928203	-
x	928688	928936	+
x	928706	928936	+
x	928748	928936	+
x	928951	929058	+
x	933369	931570	-
x	932916	931570	-
x	934934	934008	-
x	934966	935700	+
x	938321	938929	+
x	938808	940787	+
x	938898	940787	+
x	938949	940787	+
x	940549	942345	+
x	940651	942345	+
x	940864	942345	+
x	941500	942345	+
x	944627	946723	+
x	945830	946723	+
x	946818	948059	+
x	946833	948059	+
x	949611	950027	+
x	951882	951250	-
x	952102	953325	+
x	952114	953325	+
x	954977	955084	+
x	956626	956342	-
x	957530	956712	-
x	957500	956712	-
x	958735	957527	-
x	958789	959355	+
x	960440	959460	-
x	963511	963837	+
x	964391	964594	+
x	964656	964895	+
x	964907	965122	+
x	965059	965976	+
x	968031	968387	+
x	968739	968972	+
x	969772	969921	+
x	972883	971855	-
x	974817	974656	-
x	974795	975622	+
x	976800	977351	+
x	977384	977911	+
x	978756	979205	+
x	978786	979205	+
x	979473	979763	+
x	979705	980157	+
x	982526	983473	+
x	984077	983490	-
x	985685	985479	-
x	986132	985479	-
x	985919	985479	-
x	986225	985479	-
x	986105	985479	-
x	986332	986150	-
x	986692	986345	-
x	986628	986738	+
x	988006	988578	+
x	990957	990502	-
x	990790	990909	+
x	993979	994461	+
x	994458	995558	+
x	995616	995867	+
x	998737	998465	-
x	1000878	1001402	+
x	1001359	1001481	+
x	1001603	1002865	+
x	1001608	1001769	+
x	1002879	1004093	+
x	1003062	1004093	+
x	1005011	1005898	+
x	1005973	1006446	+
x	1007626	1007814	+
x	1007650	1007814	+
x	1008571	1007789	-
x	1011779	1010952	-
x	1011686	1010952	-
x	1012284	1011898	-
x	1014699	1013686	-
x	1014762	1013686	-
x	1016303	1014798	-
x	1020102	1019128	-
x	1021766	1020108	-
x	1023999	1023298	-
x	1024361	1024206	-
x	1027066	1026074	-
x	1027024	1026074	-
x	1027135	1027269	+
x	1027154	1028296	+
x	1029895	1030239	+
x	1030566	1030312	-
x	1030694	1030410	-
x	1030686	1030760	+
x	1031195	1033486	+
x	1031204	1033486	+
x	1031354	1033486	+
x	1033804	1033565	-
x	1037705	1037797	+
x	1040065	1040178	+
x	1040487	1041035	+
x	1040490	1041035	+
x	1041281	1045237	+
x	1045389	1046003	+
x	1049066	1051423	+
x	1051990	1052916	+
x	1053862	1053734	-
x	1053810	1053947	+
x	1053893	1055041	+
x	1055059	1056681	+
x	1056685	1056834	+
x	1059129	1058362	-
x	1064687	1062894	-
x	1064663	1062894	-
x	1068262	1069050	+
x	1068277	1069050	+
x	1069146	1069000	-
x	1072167	1071859	-
x	1072263	1074605	+
x	1073696	1073830	+
x	1081489	1081325	-
x	1081546	1082343	+
x	1083616	1084347	+
x	1083670	1084347	+
x	1089080	1090915	+
x	1091087	1091644	+
x	1092387	1092536	+
x	1093729	1093899	+
x	1093902	1093804	-
x	1095327	1095482	+
x	1097050	1095605	-
x	1098424	1097174	-
x	1097192	1097377	+
x	1098484	1098606	+
x	1101270	1101386	+
x	1105170	1104169	-
x	1106043	1106594	+
x	1106704	1107378	+
x	1108042	1110003	+
x	1110021	1111064	+
x	1110351	1111064	+
x	1110975	1111064	+
x	1111109	1111618	+
x	1111142	1111618	+
x	1111166	1111618	+
x	1111421	1111618	+
x	1111626	1112141	+
x	1111629	1112141	+
x	1112107	1112844	+
x	1112155	1112844	+
x	1112928	1113965	+
x	1114103	1114681	+
x	1121385	1123085	+
x	1121427	1123085	+
x	1123097	1123645	+
x	1123942	1123811	-
x	1123939	1123811	-
x	1123885	1124082	+
x	1124854	1124138	-
x	1124764	1124138	-
x	1126311	1124725	-
x	1128311	1127199	-
x	1128263	1127199	-
x	1128296	1127199	-
x	1128394	1128612	+
x	1128442	1128612	+
x	1129111	1128596	-
x	1132069	1129916	-
x	1132564	1134711	+
x	1135210	1134743	-
x	1136169	1135999	-
x	1136157	1135999	-
x	1136051	1136545	+
x	1136078	1136545	+
x	1136514	1136909	+
x	1136958	1136590	-
x	1138068	1136965	-
x	1138155	1136965	-
x	1138037	1138528	+
x	1138130	1138528	+
x	1138911	1138525	-
x	1139982	1139806	-
x	1140306	1140166	-
x	1140298	1141443	+
x	1144875	1145792	+
x	1145920	1147470	+
x	1148773	1150101	+
x	1152874	1152416	-
x	1154010	1152850	-
x	1157872	1157600	-
x	1157948	1157625	-
x	1158573	1158373	-
x	1158487	1158630	+
x	1158693	1158595	-
x	1159022	1159282	+
x	1159049	1159282	+
x	1159070	1159282	+
x	1159163	1159282	+
x	1159224	1159487	+
x	1159257	1159487	+
x	1159662	1159492	-
x	1159665	1159492	-
x	1160809	1160645	-
x	1163707	1160843	-
x	1162585	1160843	-
x	1163557	1160843	-
x	1163587	1160843	-
x	1163636	1163367	-
x	1165445	1166665	+
x	1169175	1169807	+
x	1169896	1169747	-
x	1171386	1172276	+
x	1172292	1172642	+
x	1172394	1172642	+
x	1172693	1172794	+
x	1175007	1174462	-
x	1175262	1175498	+
x	1175268	1175498	+
x	1175401	1175604	+
x	1175462	1175620	+
x	1176379	1175687	-
x	1176382	1175687	-
x	1177611	1177036	-
x	1177590	1177036	-
x	1177494	1177036	-
x	1178968	1178141	-
x	1180081	1179347	-
x	1180039	1179347	-
x	1181187	1180039	-
x	1181220	1180039	-
x	1181391	1182056	+
x	1186124	1182096	-
x	1186116	1186322	+
x	1186401	1186210	-
x	1186354	1186491	+
x	1188117	1187995	-
x	1188272	1188397	+
x	1188646	1189485	+
x	1188655	1189485	+
x	1192130	1191951	-
x	1192486	1193274	+
x	1194977	1193739	-
x	1200022	1201452	+
x	1202308	1201493	-
x	1202299	1201493	-
x	1202664	1202356	-
x	1202758	1203249	+
x	1202947	1203249	+
x	1205811	1205698	-
x	1205793	1206770	+
x	1205982	1206770	+
x	1208279	1208157	-
x	1208194	1208733	+
x	1208242	1208733	+
x	1211064	1210492	-
x	1211116	1211256	+
x	1211125	1211256	+
x	1211802	1211554	-
x	1211793	1211554	-
x	1211869	1212351	+
x	1213515	1213670	+
x	1214291	1215721	+
x	1214300	1215721	+
x	1217074	1216931	-
x	1217209	1217078	-
x	1217236	1217078	-
x	1217262	1218815	+
x	1217280	1218815	+
x	1218778	1221351	+
x	1218808	1221351	+
x	1221360	1221533	+
x	1222129	1221752	-
x	1222254	1222156	-
x	1223180	1222209	-
x	1223276	1222209	-
x	1223465	1223569	+
x	1224590	1223607	-
x	1224698	1225804	+
x	1227003	1226425	-
x	1227066	1226425	-
x	1226491	1226658	+
x	1226981	1227127	+
x	1227365	1227252	-
x	1228903	1228646	-
x	1229567	1229190	-
x	1229492	1229190	-
x	1231278	1230661	-
x	1233304	1232066	-
x	1235710	1235312	-
x	1235830	1235723	-
x	1238874	1238152	-
x	1238780	1238950	+
x	1243498	1244211	+
x	1243513	1244211	+
x	1244220	1245320	+
x	1245290	1246261	+
x	1252308	1249132	-
x	1252398	1252772	+
x	1252452	1252772	+
x	1254557	1253961	-
x	1254545	1253961	-
x	1254679	1254557	-
x	1254686	1254591	-
x	1255571	1256641	+
x	1259792	1259511	-
x	1262043	1262225	+
x	1264667	1265524	+
x	1269291	1267312	-
x	1269372	1267312	-
x	1269704	1269534	-
x	1269817	1270194	+
x	1270221	1270574	+
x	1270585	1271229	+
x	1271249	1272034	+
x	1272057	1273070	+
x	1274016	1275347	+
x	1274067	1275347	+
x	1274100	1275347	+
x	1275518	1276096	+
x	1275569	1276096	+
x	1276868	1276158	-
x	1278333	1277371	-
x	1278336	1277371	-
x	1281986	1278477	-
x	1281923	1278477	-
x	1282398	1282051	-
x	1284440	1285279	+
x	1284593	1285279	+
x	1284635	1285279	+
x	1285279	1286523	+
x	1287590	1288300	+
x	1289161	1288439	-
x	1288966	1288439	-
x	1289694	1289224	-
x	1289527	1289664	+
x	1292404	1291577	-
x	1293748	1293533	-
x	1293784	1293533	-
x	1293762	1295033	+
x	1293951	1295033	+
x	1294494	1295033	+
x	1296309	1295179	-
x	1297584	1296376	-
x	1297758	1296376	-
x	1300696	1300049	-
x	1301877	1300726	-
x	1302980	1302357	-
x	1302930	1303052	+
x	1303211	1303098	-
x	1304280	1304432	+
x	1304858	1304535	-
x	1305501	1305391	-
x	1306972	1306820	-
x	1308404	1307115	-
x	1308919	1309191	+
x	1309036	1309191	+
x	1309665	1309847	+
x	1309671	1309847	+
x	1310319	1310146	-
x	1310179	1311702	+
x	1310242	1311702	+
x	1310983	1311702	+
x	1311022	1311702	+
x	1311798	1312052	+
x	1312200	1312030	-
x	1312145	1312288	+
x	1312169	1312288	+
x	1312778	1315099	+
x	1312917	1313057	+
x	1314179	1315099	+
x	1315491	1315156	-
x	1315839	1315495	-
x	1315770	1315495	-
x	1316014	1315841	-
x	1316115	1316300	+
x	1316261	1316380	+
x	1316316	1316759	+
x	1316349	1316759	+
x	1316433	1316759	+
x	1316547	1316759	+
x	1316879	1316989	+
x	1318947	1318237	-
x	1319072	1319299	+
x	1319461	1319820	+
x	1320370	1320474	+
x	1320550	1320876	+
x	1321669	1322145	+
x	1321684	1322145	+
x	1322142	1322285	+
x	1322633	1322352	-
x	1323261	1322881	-
x	1323508	1323398	-
x	1325903	1325367	-
x	1327638	1326043	-
x	1330432	1331736	+
x	1334812	1333202	-
x	1335920	1336108	+
x	1335933	1336658	+
x	1336053	1336658	+
x	1337562	1337849	+
x	1337918	1337649	-
x	1338099	1338467	+
x	1339802	1338546	-
x	1340003	1338546	-
x	1340257	1340403	+
x	1341984	1340563	-
x	1341987	1340563	-
x	1342702	1341992	-
x	1342699	1341992	-
x	1343735	1342635	-
x	1343924	1345852	+
x	1349179	1349385	+
x	1349182	1349385	+
x	1351269	1350886	-
x	1353760	1352081	-
x	1353788	1353666	-
x	1354832	1353885	-
x	1356473	1357927	+
x	1362045	1361083	-
x	1361987	1362250	+
x	1362029	1362250	+
x	1362256	1362125	-
x	1362259	1362125	-
x	1362399	1362229	-
x	1362827	1362660	-
x	1362791	1362660	-
x	1362935	1362855	-
x	1363327	1363196	-
x	1363330	1363196	-
x	1363470	1363390	-
x	1364895	1363708	-
x	1365371	1365126	-
x	1365430	1366164	+
x	1365445	1366164	+
x	1366883	1368136	+
x	1368853	1368137	-
x	1370909	1372306	+
x	1381461	1381102	-
x	1381581	1381102	-
x	1381673	1382578	+
x	1382757	1383683	+
x	1390992	1390831	-
x	1391339	1393042	+
x	1391411	1393042	+
x	1394066	1394971	+
x	1397457	1397050	-
x	1397385	1397050	-
x	1398906	1399190	+
x	1398984	1399190	+
x	1399017	1399190	+
x	1399038	1399190	+
x	1400516	1399245	-
x	1400453	1399245	-
x	1401190	1400798	-
x	1401100	1400798	-
x	1401267	1402037	+
x	1401318	1402037	+
x	1401748	1401500	-
x	1404780	1404887	+
x	1405225	1404947	-
x	1405405	1404947	-
x	1406020	1405499	-
x	1406251	1406057	-
x	1406321	1406085	-
x	1406288	1406085	-
x	1410017	1408656	-
x	1411536	1411634	+
x	1411873	1411613	-
x	1413530	1413378	-
x	1413470	1414330	+
x	1414291	1414947	+
x	1415021	1415920	+
x	1417513	1417349	-
x	1418544	1418636	+
x	1418906	1419118	+
x	1419199	1421838	+
x	1423317	1423481	+
x	1423341	1423481	+
x	1423463	1423651	+
x	1423472	1423651	+
x	1423850	1423725	-
x	1423788	1423970	+
x	1427416	1426763	-
x	1430100	1429954	-
x	1430094	1429954	-
x	1430097	1429954	-
x	1430113	1430850	+
x	1430847	1431176	+
x	1431200	1431352	+
x	1432538	1431789	-
x	1432810	1432628	-
x	1432843	1432628	-
x	1434906	1432948	-
x	1435146	1435039	-
x	1438377	1437172	-
x	1438435	1438328	-
x	1439247	1439351	+
x	1439955	1439602	-
x	1445281	1443662	-
x	1445548	1445348	-
x	1445511	1445636	+
x	1445989	1445879	-
x	1447436	1445997	-
x	1449181	1447685	-
x	1449425	1449291	-
x	1449303	1450079	+
x	1449327	1450079	+
x	1456122	1455130	-
x	1458210	1458308	+
x	1458384	1460090	+
x	1458786	1460090	+
x	1459110	1460090	+
x	1460105	1459905	-
x	1460195	1459905	-
x	1460782	1461396	+
x	1460785	1461396	+
x	1465038	1466081	+
x	1468330	1468232	-
x	1469015	1470097	+
x	1469357	1470097	+
x	1469984	1470097	+
x	1474887	1476455	+
x	1477082	1478089	+
x	1478852	1478064	-
x	1479721	1479083	-
x	1480017	1479739	-
x	1481603	1480671	-
x	1481588	1480671	-
x	1481509	1481342	-
x	1482717	1482842	+
x	1482944	1484578	+
x	1488107	1487313	-
x	1488122	1487313	-
x	1489400	1488786	-
x	1489478	1488786	-
x	1490318	1488786	-
x	1490126	1488786	-
x	1490436	1490242	-
x	1493119	1491794	-
x	1492774	1491794	-
x	1493095	1491794	-
x	1493183	1493079	-
x	1493281	1493180	-
x	1496394	1495102	-
x	1497745	1497641	-
x	1497666	1497884	+
x	1498038	1497802	-
x	1497847	1498020	+
x	1500385	1499552	-
x	1500679	1500539	-
x	1502015	1501776	-
x	1502351	1502070	-
x	1502478	1502272	-
x	1502466	1502272	-
x	1503389	1502523	-
x	1506350	1506027	-
x	1506553	1506377	-
x	1506780	1506547	-
x	1507735	1507517	-
x	1508083	1507772	-
x	1508199	1508525	+
x	1508552	1508944	+
x	1509008	1509814	+
x	1510539	1511351	+
x	1510743	1511351	+
x	1511352	1511789	+
x	1515507	1515596	+
x	1516003	1516134	+
x	1516167	1516006	-
x	1517197	1517853	+
x	1519491	1519781	+
x	1520104	1520358	+
x	1522412	1522663	+
x	1550441	1549935	-
x	1555674	1555543	-
x	1555939	1555604	-
x	1556044	1555604	-
x	1555720	1555604	-
x	1555918	1556073	+
x	1555948	1556073	+
x	1556504	1556070	-
x	1560554	1560955	+
x	1560581	1560955	+
x	1560596	1560955	+
x	1560626	1560955	+
x	1565543	1563825	-
x	1570668	1571171	+
x	1578256	1578134	-
x	1580882	1580995	+
x	1580959	1583271	+
x	1583436	1584047	+
x	1584221	1584943	+
x	1584632	1584943	+
x	1585130	1586716	+
x	1586631	1588022	+
x	1586730	1588022	+
x	1586754	1588022	+
x	1587063	1588022	+
x	1588777	1588851	+
x	1588936	1592781	+
x	1593149	1593853	+
x	1596685	1597251	+
x	1597735	1597965	+
x	1597890	1597741	-
x	1598517	1599929	+
x	1599570	1599929	+
x	1601031	1599967	-
x	1601926	1602450	+
x	1602675	1604330	+
x	1602705	1604330	+
x	1604454	1604251	-
x	1604464	1604694	+
x	1604527	1604694	+
x	1604742	1605293	+
x	1606284	1607384	+
x	1606380	1607384	+
x	1608126	1608245	+
x	1608386	1608258	-
x	1609130	1608963	-
x	1609159	1608977	-
x	1609397	1609242	-
x	1609472	1610680	+
x	1610254	1610123	-
x	1612018	1610720	-
x	1611001	1610720	-
x	1611901	1610720	-
x	1611952	1610720	-
x	1611988	1610720	-
x	1612554	1614557	+
x	1614819	1614649	-
x	1615058	1614936	-
x	1615262	1615065	-
x	1615323	1615739	+
x	1615542	1615739	+
x	1622930	1622814	-
x	1622848	1623045	+
x	1622854	1623045	+
x	1623009	1622914	-
x	1623284	1623006	-
x	1623129	1623377	+
x	1623156	1623377	+
x	1623332	1623436	+
x	1624895	1624143	-
x	1624724	1624143	-
x	1624654	1625016	+
x	1624749	1625879	+
x	1624818	1625879	+
x	1626020	1626742	+
x	1628879	1628974	+
x	1631848	1630298	-
x	1631842	1630298	-
x	1631867	1632016	+
x	1632252	1632680	+
x	1632351	1632680	+
x	1632768	1632968	+
x	1632849	1632968	+
x	1633549	1633641	+
x	1633749	1635893	+
x	1640145	1640576	+
x	1640367	1640576	+
x	1640643	1640792	+
x	1641867	1642220	+
x	1642032	1642220	+
x	1642280	1642546	+
x	1642993	1642550	-
x	1643982	1644137	+
x	1653346	1651940	-
x	1654947	1653652	-
x	1655296	1655006	-
x	1656436	1655555	-
x	1656757	1656563	-
x	1656668	1657255	+
x	1657912	1656842	-
x	1657304	1659715	+
x	1660633	1659692	-
x	1660636	1659692	-
x	1659734	1660612	+
x	1660587	1661258	+
x	1660620	1661258	+
x	1661671	1661309	-
x	1662780	1661740	-
x	1664608	1662884	-
x	1664631	1664720	+
x	1665255	1664977	-
x	1665359	1665541	+
x	1665619	1665969	+
x	1669800	1668820	-
x	1669566	1668820	-
x	1674670	1672247	-
x	1673350	1672247	-
x	1675714	1674671	-
x	1677639	1676425	-
x	1677579	1676425	-
x	1681034	1679565	-
x	1680857	1679565	-
x	1681197	1681084	-
x	1682337	1681327	-
x	1684122	1681327	-
x	1682181	1681327	-
x	1688262	1686577	-
x	1688156	1688275	+
x	1689725	1688553	-
x	1691381	1689762	-
x	1689869	1689762	-
x	1692864	1692682	-
x	1697004	1696714	-
x	1698922	1697774	-
x	1699996	1697774	-
x	1700389	1697774	-
x	1700425	1697774	-
x	1699107	1698919	-
x	1701186	1700467	-
x	1700916	1700467	-
x	1702149	1701538	-
x	1702056	1701538	-
x	1702735	1702556	-
x	1703042	1702818	-
x	1704381	1703053	-
x	1703613	1703053	-
x	1704432	1703053	-
x	1704108	1703053	-
x	1704659	1704375	-
x	1710139	1704944	-
x	1706257	1704944	-
x	1706407	1704944	-
x	1716886	1717230	+
x	1721264	1720299	-
x	1721163	1721363	+
x	1724516	1723098	-
x	1723988	1723098	-
x	1723937	1723098	-
x	1727416	1726004	-
x	1729639	1729520	-
x	1729798	1729676	-
x	1731865	1732242	+
x	1732256	1732645	+
x	1734397	1732952	-
x	1736459	1736145	-
x	1737797	1736484	-
x	1737845	1736484	-
x	1738659	1739129	+
x	1740094	1739174	-
x	1739974	1739174	-
x	1741582	1741677	+
x	1742303	1741896	-
x	1742792	1741896	-
x	1746383	1744272	-
x	1746439	1747200	+
x	1748383	1748111	-
x	1750189	1749941	-
x	1751224	1749941	-
x	1751978	1752244	+
x	1753812	1753249	-
x	1753662	1753249	-
x	1756799	1753824	-
x	1756904	1753824	-
x	1754672	1753824	-
x	1755397	1756401	+
x	1755628	1755494	-
x	1755652	1756401	+
x	1755664	1756401	+
x	1756789	1756962	+
x	1757538	1756963	-
x	1757208	1756963	-
x	1760383	1757633	-
x	1760212	1757633	-
x	1761376	1761107	-
x	1761739	1761107	-
x	1761778	1761107	-
x	1762311	1761676	-
x	1762275	1761676	-
x	1762245	1761676	-
x	1762350	1761676	-
x	1762569	1763225	+
x	1763531	1763373	-
x	1765944	1763449	-
x	1766392	1766003	-
x	1766368	1766003	-
x	1767576	1766857	-
x	1767627	1766857	-
x	1766867	1767277	+
x	1768497	1767997	-
x	1768242	1767997	-
x	1769389	1768952	-
x	1770444	1769392	-
x	1770270	1769392	-
x	1770168	1769392	-
x	1770411	1769392	-
x	1770156	1769392	-
x	1770811	1770473	-
x	1772269	1770815	-
x	1771420	1770815	-
x	1772248	1770815	-
x	1773868	1773713	-
x	1775661	1773916	-
x	1776361	1775816	-
x	1776621	1776734	+
x	1776874	1776722	-
x	1776750	1776983	+
x	1777026	1777451	+
x	1777779	1777603	-
x	1778217	1777948	-
x	1778178	1777948	-
x	1778220	1777948	-
x	1778124	1777948	-
x	1778842	1778684	-
x	1779507	1779025	-
x	1779329	1779075	-
x	1780336	1780049	-
x	1780580	1780365	-
x	1781085	1780954	-
x	1781948	1781781	-
x	1781862	1782062	+
x	1783266	1782484	-
x	1783134	1782484	-
x	1784197	1783250	-
x	1784579	1784301	-
x	1784894	1784646	-
x	1785075	1784959	-
x	1785892	1786197	+
x	1786059	1785898	-
x	1785919	1786197	+
x	1787344	1787117	-
x	1787318	1787169	-
x	1788164	1787169	-
x	1789035	1788817	-
x	1788833	1789090	+
x	1789726	1789601	-
x	1791879	1790965	-
x	1791984	1790965	-
x	1792324	1791911	-
x	1792372	1791911	-
x	1793197	1793105	-
x	1793226	1793459	+
x	1793250	1793459	+
x	1793349	1793459	+
x	1793419	1793589	+
x	1793452	1793589	+
x	1794056	1793841	-
x	1794176	1793841	-
x	1794149	1793841	-
x	1794134	1793841	-
x	1794294	1794139	-
x	1794496	1794206	-
x	1794541	1794206	-
x	1794376	1794206	-
x	1794388	1794206	-
x	1794300	1794593	+
x	1794309	1794593	+
x	1794536	1794781	+
x	1794581	1794781	+
x	1794686	1794781	+
x	1794838	1797351	+
x	1796584	1797351	+
x	1797007	1797351	+
x	1797440	1797348	-
x	1797424	1797675	+
x	1797538	1797675	+
x	1797695	1798990	+
x	1797710	1798990	+
x	1798727	1798990	+
x	1799120	1799010	-
x	1800221	1799178	-
x	1801456	1800209	-
x	1801964	1801629	-
x	1803739	1803029	-
x	1803805	1804152	+
x	1803844	1804152	+
x	1806835	1809261	+
x	1806838	1809261	+
x	1807729	1809261	+
x	1809651	1810745	+
x	1810779	1811402	+
x	1811423	1811530	+
x	1811537	1812853	+
x	1811561	1812853	+
x	1813513	1812806	-
x	1817402	1817283	-
x	1817631	1817966	+
x	1817652	1817966	+
x	1817680	1818057	+
x	1817694	1817966	+
x	1818059	1818142	+
x	1820060	1819890	-
x	1820345	1821229	+
x	1824239	1822653	-
x	1824609	1824719	+
x	1828381	1829160	+
x	1828405	1829160	+
x	1828432	1829160	+
x	1829290	1830465	+
x	1837817	1837737	-
x	1838088	1837867	-
x	1839114	1837867	-
x	1841647	1840541	-
x	1841653	1840541	-
x	1843327	1842740	-
x	1843330	1842740	-
x	1845437	1847233	+
x	1850634	1849555	-
x	1850763	1850963	+
x	1850808	1850963	+
x	1850826	1850963	+
x	1851052	1851315	+
x	1851513	1851977	+
x	1858109	1857399	-
x	1859108	1858998	-
x	1862176	1861313	-
x	1863521	1862235	-
x	1864601	1864353	-
x	1864682	1864353	-
x	1867117	1866677	-
x	1867255	1867136	-
x	1867321	1867548	+
x	1867509	1868408	+
x	1867542	1868408	+
x	1867551	1868408	+
x	1868429	1870420	+
x	1870957	1870421	-
x	1870993	1870421	-
x	1872345	1871968	-
x	1872207	1871968	-
x	1872378	1871968	-
x	1871976	1872098	+
x	1871979	1872098	+
x	1872394	1872909	+
x	1875422	1875312	-
x	1875413	1879990	+
x	1880623	1880513	-
x	1883936	1883817	-
x	1883906	1883817	-
x	1883993	1884217	+
x	1892785	1892690	-
x	1892909	1893337	+
x	1892927	1893337	+
x	1894743	1895096	+
x	1895920	1895108	-
x	1895309	1896055	+
x	1897425	1896706	-
x	1898085	1897438	-
x	1900275	1898089	-
x	1900866	1901003	+
x	1901464	1901294	-
x	1901844	1903472	+
x	1910410	1908884	-
x	1910742	1910380	-
x	1911565	1911296	-
x	1915943	1916548	+
x	1916914	1916738	-
x	1916950	1917333	+
x	1917493	1918647	+
x	1918868	1920139	+
x	1923505	1924710	+
x	1923556	1924710	+
x	1925943	1925767	-
x	1925881	1926744	+
x	1925959	1926744	+
x	1929340	1931037	+
x	1933693	1933526	-
x	1935946	1936164	+
x	1936695	1936796	+
x	1939906	1939169	-
x	1941537	1941409	-
x	1945314	1944319	-
x	1945382	1945600	+
x	1945625	1945491	-
x	1946230	1946841	+
x	1946889	1946455	-
x	1948869	1947001	-
x	1949214	1949285	+
x	1949453	1950568	+
x	1949616	1949837	+
x	1950590	1951351	+
x	1951456	1951346	-
x	1951416	1951634	+
x	1951512	1951634	+
x	1952586	1952693	+
x	1952729	1953661	+
x	1954067	1953690	-
x	1956561	1957163	+
x	1957223	1957095	-
x	1959128	1958691	-
x	1960037	1959783	-
x	1960025	1959783	-
x	1960370	1960212	-
x	1964729	1963308	-
x	1965606	1964764	-
x	1965961	1965614	-
x	1971159	1970521	-
x	1971287	1971775	+
x	1971919	1972020	+
x	1975602	1974415	-
x	1976921	1975890	-
x	1978404	1978574	+
x	1978587	1979393	+
x	1979512	1980270	+
x	1980113	1980952	+
x	1980970	1981674	+
x	1983347	1984906	+
x	1983404	1984906	+
x	1983416	1984906	+
x	1984819	1985559	+
x	1984873	1985559	+
x	1985611	1986933	+
x	1985860	1986933	+
x	1987568	1986942	-
x	1990874	1989990	-
x	1993176	1991158	-
x	1994173	1993124	-
x	1994258	1994109	-
x	1994889	1995053	+
x	1994984	1996852	+
x	1997019	1998035	+
x	1998028	1998687	+
x	2000030	1998780	-
x	2003108	2002140	-
x	2002907	2002140	-
x	2004953	2003949	-
x	2004926	2003949	-
x	2006425	2006273	-
x	2008178	2007861	-
x	2008618	2008175	-
x	2008540	2008175	-
x	2008921	2009925	+
x	2009988	2010893	+
x	2012754	2012855	+
x	2013196	2015004	+
x	2016679	2018022	+
x	2016688	2018022	+
x	2018023	2019693	+
x	2020392	2020240	-
x	2020344	2020240	-
x	2020333	2020521	+
x	2021726	2020917	-
x	2021738	2020917	-
x	2021890	2021750	-
x	2021895	2023016	+
x	2023050	2023418	+
x	2023748	2024902	+
x	2024920	2025033	+
x	2024935	2025033	+
x	2024994	2025110	+
x	2025036	2025110	+
x	2026853	2025645	-
x	2026071	2026202	+
x	2026977	2026831	-
x	2026876	2027823	+
x	2026928	2027080	+
x	2027171	2027353	+
x	2027724	2027500	-
x	2027830	2027964	+
x	2029741	2028797	-
x	2029826	2030908	+
x	2031324	2032769	+
x	2031339	2032769	+
x	2036127	2035000	-
x	2037915	2036197	-
x	2037882	2036197	-
x	2041766	2041404	-
x	2041790	2041404	-
x	2041455	2041847	+
x	2042019	2041903	-
x	2042114	2041998	-
x	2042210	2042569	+
x	2042246	2042569	+
x	2042686	2042850	+
x	2046461	2046589	+
x	2046534	2048162	+
x	2046555	2048162	+
x	2049919	2049710	-
x	2049964	2049710	-
x	2052076	2051315	-
x	2052023	2052883	+
x	2053771	2054391	+
x	2055327	2055614	+
x	2055728	2055585	-
x	2055690	2055896	+
x	2056651	2056343	-
x	2056754	2056942	+
x	2058301	2059785	+
x	2060709	2059831	-
x	2060947	2060807	-
x	2062946	2060904	-
x	2063091	2062972	-
x	2064264	2063767	-
x	2064213	2063767	-
x	2064439	2065677	+
x	2065604	2068279	+
x	2065640	2068279	+
x	2068359	2069798	+
x	2069901	2070152	+
x	2070173	2070448	+
x	2071839	2071501	-
x	2073157	2073474	+
x	2073807	2074232	+
x	2074202	2074918	+
x	2077061	2077663	+
x	2078537	2078169	-
x	2082702	2082860	+
x	2084734	2084615	-
x	2085643	2087226	+
x	2089708	2088449	-
x	2090845	2089787	-
x	2090719	2089787	-
x	2090773	2089787	-
x	2092762	2092514	-
x	2092744	2092514	-
x	2092702	2092514	-
x	2092693	2093247	+
x	2092786	2093247	+
x	2093345	2093707	+
x	2095596	2095531	-
x	2095550	2096269	+
x	2095568	2096269	+
x	2096795	2096271	-
x	2098048	2097596	-
x	2100223	2100128	-
x	2100215	2100814	+
x	2100904	2101629	+
x	2101652	2102077	+
x	2101724	2102077	+
x	2103857	2104003	+
x	2106441	2103994	-
x	2108376	2107936	-
x	2109268	2108696	-
x	2109444	2109331	-
x	2111367	2111876	+
x	2112232	2111996	-
x	2112364	2111996	-
x	2114541	2112388	-
x	2115640	2115774	+
x	2116483	2115809	-
x	2122128	2120446	-
x	2124779	2122776	-
x	2124794	2122776	-
x	2124734	2122776	-
x	2126905	2126759	-
x	2127622	2127263	-
x	2127729	2127613	-
x	2127742	2127644	-
x	2127928	2127899	-
x	2130261	2128828	-
x	2131084	2130227	-
x	2131865	2131194	-
x	2132183	2131194	-
x	2131901	2131194	-
x	2133754	2132195	-
x	2134819	2133779	-
x	2136084	2136422	+
x	2136150	2136422	+
x	2136510	2136656	+
x	2136599	2136513	-
x	2136659	2136513	-
x	2136733	2136620	-
x	2136889	2136746	-
x	2136931	2137185	+
x	2137331	2137191	-
x	2137307	2137191	-
x	2137341	2137853	+
x	2138367	2138269	-
x	2138798	2139532	+
x	2143279	2141513	-
x	2143851	2143342	-
x	2143962	2143342	-
x	2144365	2144237	-
x	2144294	2144470	+
x	2145482	2144748	-
x	2147491	2147132	-
x	2148214	2147132	-
x	2149023	2148223	-
x	2149698	2149111	-
x	2150397	2149708	-
x	2150698	2150498	-
x	2150501	2150620	+
x	2150705	2150598	-
x	2150610	2150678	+
x	2156928	2156512	-
x	2159179	2159325	+
x	2159791	2159922	+
x	2160697	2160551	-
x	2160596	2161255	+
x	2160648	2160800	+
x	2160891	2161073	+
x	2161785	2161642	-
x	2162737	2161985	-
x	2162959	2163081	+
x	2163865	2163512	-
x	2164009	2163512	-
x	2164024	2163512	-
x	2163944	2164111	+
x	2164522	2164178	-
x	2164686	2164537	-
x	2167440	2166511	-
x	2167325	2168032	+
x	2171520	2172569	+
x	2173064	2172942	-
x	2172979	2173347	+
x	2174395	2174793	+
x	2174438	2175157	+
x	2176147	2176422	+
x	2176662	2176399	-
x	2176749	2176399	-
x	2176698	2176399	-
x	2176450	2176692	+
x	2176462	2176692	+
x	2176738	2176848	+
x	2179478	2177802	-
x	2179511	2177802	-
x	2179605	2179417	-
x	2180839	2179928	-
x	2184990	2184607	-
x	2184909	2184607	-
x	2184972	2184607	-
x	2185155	2185268	+
x	2185509	2186654	+
x	2185539	2186654	+
x	2186735	2186833	+
x	2187066	2186863	-
x	2187099	2186863	-
x	2186985	2186863	-
x	2187082	2187225	+
x	2190234	2189563	-
x	2190282	2189563	-
x	2191258	2191893	+
x	2192786	2193436	+
x	2193546	2193695	+
x	2193749	2194309	+
x	2194332	2194574	+
x	2195023	2195859	+
x	2196322	2197938	+
x	2204738	2203686	-
x	2204306	2203686	-
x	2204615	2203686	-
x	2206423	2207925	+
x	2209212	2208985	-
x	2209329	2208985	-
x	2209242	2208985	-
x	2209345	2209193	-
x	2209227	2209403	+
x	2210476	2209619	-
x	2209843	2209619	-
x	2210224	2209619	-
x	2211073	2209619	-
x	2211259	2209619	-
x	2209942	2209619	-
x	2213379	2212432	-
x	2214739	2213807	-
x	2216674	2215895	-
x	2217419	2217538	+
x	2218034	2217639	-
x	2218053	2218175	+
x	2218059	2218175	+
x	2218562	2218140	-
x	2220953	2219988	-
x	2221160	2219988	-
x	2221031	2219988	-
x	2221081	2221239	+
x	2221315	2222790	+
x	2224123	2223074	-
x	2224132	2223074	-
x	2224280	2224167	-
x	2224766	2224311	-
x	2225675	2224311	-
x	2228347	2228069	-
x	2228760	2229698	+
x	2229695	2231008	+
x	2229767	2231008	+
x	2233729	2234469	+
x	2236938	2235925	-
x	2236905	2235925	-
x	2242937	2241486	-
x	2244120	2242915	-
x	2248194	2247325	-
x	2249552	2248191	-
x	2248993	2248871	-
x	2250790	2249534	-
x	2251099	2251004	-
x	2252052	2251147	-
x	2256358	2256125	-
x	2256177	2256503	+
x	2256369	2256503	+
x	2260836	2259418	-
x	2260814	2260972	+
x	2260877	2260972	+
x	2262812	2262420	-
x	2264119	2263640	-
x	2268847	2267558	-
x	2268799	2267558	-
x	2273670	2271472	-
x	2274589	2274086	-
x	2275189	2274086	-
x	2275132	2274086	-
x	2275818	2277467	+
x	2275845	2277467	+
x	2277852	2278160	+
x	2281465	2280761	-
x	2281456	2280761	-
x	2282230	2285037	+
x	2282662	2285037	+
x	2286054	2285980	-
x	2289377	2287431	-
x	2289206	2287431	-
x	2290862	2290101	-
x	2291023	2290859	-
x	2292107	2292235	+
x	2292435	2292563	+
x	2292586	2293980	+
x	2292613	2293980	+
x	2292772	2293980	+
x	2303867	2304238	+
x	2304447	2304743	+
x	2304763	2305041	+
x	2306582	2306445	-
x	2307032	2306778	-
x	2311292	2311173	-
x	2311256	2311645	+
x	2318235	2317366	-
x	2320490	2320200	-
x	2320607	2320200	-
x	2322252	2321980	-
x	2322752	2322183	-
x	2322656	2322183	-
x	2325591	2324671	-
x	2325669	2327471	+
x	2327948	2328499	+
x	2334007	2331722	-
x	2334040	2331722	-
x	2334789	2334487	-
x	2335565	2335074	-
x	2335765	2335571	-
x	2335937	2335752	-
x	2337854	2337705	-
x	2338219	2337842	-
x	2338174	2337842	-
x	2338117	2337842	-
x	2339992	2339546	-
x	2340319	2339546	-
x	2345800	2344940	-
x	2347228	2346104	-
x	2347215	2347316	+
x	2352252	2351425	-
x	2355372	2355890	+
x	2356525	2356689	+
x	2359517	2357022	-
x	2359885	2359995	+
x	2360770	2360273	-
x	2362791	2361652	-
x	2362884	2364926	+
x	2365067	2368861	+
x	2367545	2368861	+
x	2369150	2372503	+
x	2371127	2372503	+
x	2372586	2372750	+
x	2372640	2372750	+
x	2373026	2372937	-
x	2373634	2373545	-
x	2374001	2375155	+
x	2375091	2377445	+
x	2376714	2377445	+
x	2377228	2378574	+
x	2377375	2378574	+
x	2378547	2380571	+
x	2378571	2380571	+
x	2380335	2380571	+
x	2380684	2381157	+
x	2381724	2381197	-
x	2382448	2381714	-
x	2384130	2382430	-
x	2384204	2384332	+
x	2384421	2385068	+
x	2391532	2389163	-
x	2391461	2391619	+
x	2391623	2393371	+
x	2391665	2393371	+
x	2394341	2393409	-
x	2394542	2394420	-
x	2395126	2394515	-
x	2395236	2395850	+
x	2395954	2395841	-
x	2396366	2395980	-
x	2397882	2396794	-
x	2397990	2396794	-
x	2398454	2398537	+
x	2398666	2398574	-
x	2398897	2398700	-
x	2400078	2400512	+
x	2400512	2401204	+
x	2402191	2402063	-
x	2403873	2404886	+
x	2404874	2406115	+
x	2408687	2407212	-
x	2411117	2410071	-
x	2411101	2411304	+
x	2413192	2413079	-
x	2413249	2413425	+
x	2416146	2414221	-
x	2416408	2416205	-
x	2416353	2416487	+
x	2418206	2417958	-
x	2418266	2417958	-
x	2418192	2418082	-
x	2419060	2418179	-
x	2423527	2422286	-
x	2423666	2423550	-
x	2424746	2425405	+
x	2427641	2426817	-
x	2430113	2430823	+
x	2433058	2432915	-
x	2433050	2433181	+
x	2434618	2434430	-
x	2434816	2434430	-
x	2434736	2434575	-
x	2434584	2435411	+
x	2434596	2435411	+
x	2434869	2435411	+
x	2435625	2437100	+
x	2438207	2438956	+
x	2438399	2438956	+
x	2440178	2441671	+
x	2441747	2443567	+
x	2449092	2447959	-
x	2451810	2452190	+
x	2452322	2451891	-
x	2452304	2451891	-
x	2453500	2453381	-
x	2453497	2453381	-
x	2455816	2455655	-
x	2455992	2455780	-
x	2458290	2456005	-
x	2458174	2458284	+
x	2458659	2458402	-
x	2458487	2458582	+
x	2458661	2459338	+
x	2460257	2459373	-
x	2463562	2463392	-
x	2464359	2463598	-
x	2465036	2464377	-
x	2465659	2465036	-
x	2465711	2466304	+
x	2466754	2466284	-
x	2466353	2466895	+
x	2471612	2471836	+
x	2471834	2471736	-
x	2471900	2472409	+
x	2474186	2472558	-
x	2477589	2477807	+
x	2479036	2480106	+
x	2480031	2479096	-
x	2480716	2480591	-
x	2483582	2484277	+
x	2483591	2484277	+
x	2484375	2484274	-
x	2484306	2484401	+
x	2487278	2484477	-
x	2484851	2484477	-
x	2487496	2487591	+
x	2489083	2488382	-
x	2489164	2488382	-
x	2494561	2490032	-
x	2494468	2490032	-
x	2494546	2490032	-
x	2494636	2490032	-
x	2494651	2490032	-
x	2495220	2494570	-
x	2496755	2495190	-
x	2496446	2495190	-
x	2496926	2495190	-
x	2496788	2495190	-
x	2496991	2496911	-
x	2499753	2500523	+
x	2504385	2500651	-
x	2504337	2500651	-
x	2504137	2504235	+
x	2504746	2504838	+
x	2504857	2505000	+
x	2507381	2508643	+
x	2507462	2508643	+
x	2507474	2508643	+
x	2511070	2510063	-
x	2512619	2512750	+
x	2515574	2516839	+
x	2517762	2517935	+
x	2518488	2517976	-
x	2520366	2519803	-
x	2520360	2519803	-
x	2520567	2520466	-
x	2520687	2521049	+
x	2521717	2521088	-
x	2521965	2523137	+
x	2521980	2523137	+
x	2528680	2529348	+
x	2529638	2529342	-
x	2532221	2533054	+
x	2535518	2533659	-
x	2536488	2535418	-
x	2537678	2538595	+
x	2538758	2538585	-
x	2538783	2540003	+
x	2540787	2540999	+
x	2542972	2541695	-
x	2546687	2544852	-
x	2551818	2549086	-
x	2555492	2553702	-
x	2556691	2556822	+
x	2558528	2558782	+
x	2564259	2563747	-
x	2564979	2564848	-
x	2564947	2565108	+
x	2568592	2566322	-
x	2568707	2570248	+
x	2568728	2570248	+
x	2571435	2570881	-
x	2574829	2574296	-
x	2579726	2579559	-
x	2583304	2582669	-
x	2583349	2582669	-
x	2585657	2584659	-
x	2588277	2588390	+
x	2593397	2595463	+
x	2595563	2595450	-
x	2599169	2598081	-
x	2600466	2599201	-
x	2601844	2600972	-
x	2601829	2600972	-
x	2602801	2602352	-
x	2603433	2602819	-
x	2604067	2603342	-
x	2603940	2604128	+
x	2605010	2604114	-
x	2606699	2604114	-
x	2606745	2607281	+
x	2608538	2608690	+
x	2612706	2612398	-
x	2613018	2612767	-
x	2613048	2614394	+
x	2616893	2616780	-
x	2616950	2616780	-
x	2618256	2619449	+
x	2628073	2627615	-
x	2628357	2628070	-
x	2630312	2628918	-
x	2638867	2638724	-
x	2639111	2638905	-
x	2640027	2639788	-
x	2640246	2640404	+
x	2641120	2640545	-
x	2641219	2641599	+
x	2643254	2642889	-
x	2643427	2643251	-
x	2646240	2644789	-
x	2648078	2647692	-
x	2648055	2648678	+
x	2648948	2649340	+
x	2650937	2651125	+
x	2651046	2651216	+
x	2653326	2653490	+
x	2654020	2654646	+
x	2656222	2655920	-
x	2660664	2660756	+
x	2660749	2662191	+
x	2663380	2662199	-
x	2663257	2662199	-
x	2663194	2662199	-
x	2663425	2663643	+
x	2663676	2664989	+
x	2663763	2664989	+
x	2666322	2666660	+
x	2667675	2666635	-
x	2667690	2666635	-
x	2669043	2672426	+
x	2672300	2672202	-
x	2673666	2672482	-
x	2673408	2672482	-
x	2673621	2673725	+
x	2678693	2678226	-
x	2678918	2679079	+
x	2679212	2679087	-
x	2679202	2679429	+
x	2679551	2679414	-
x	2680056	2679982	-
x	2680035	2681021	+
x	2681332	2681448	+
x	2681377	2681448	+
x	2682804	2682670	-
x	2683076	2682915	-
x	2683146	2684825	+
x	2684822	2685574	+
x	2684915	2685574	+
x	2692750	2692373	-
x	2695458	2695360	-
x	2695507	2695866	+
x	2695522	2695866	+
x	2695633	2695866	+
x	2695738	2695866	+
x	2697100	2695925	-
x	2697460	2698701	+
x	2697685	2698701	+
x	2700979	2698751	-
x	2701000	2698751	-
x	2701560	2701919	+
x	2701942	2702313	+
x	2703784	2703915	+
x	2705391	2705044	-
x	2705394	2705044	-
x	2707372	2707055	-
x	2710335	2709361	-
x	2710398	2709361	-
x	2710344	2709361	-
x	2709828	2710121	+
x	2711366	2711530	+
x	2712741	2712613	-
x	2713105	2712812	-
x	2713411	2714907	+
x	2716491	2716823	+
x	2716548	2716823	+
x	2717683	2716826	-
x	2719407	2718958	-
x	2722710	2721853	-
x	2726036	2727427	+
x	2726135	2727427	+
x	2727470	2728396	+
x	2728411	2727485	-
x	2729037	2728480	-
x	2728940	2729080	+
x	2729571	2729116	-
x	2729463	2729116	-
x	2730088	2729552	-
x	2733573	2733067	-
x	2740487	2739273	-
x	2743399	2743106	-
x	2746826	2746419	-
x	2746683	2746790	+
x	2750522	2752588	+
x	2752581	2752694	+
x	2753673	2752684	-
x	2753752	2753621	-
x	2754455	2753853	-
x	2756406	2754496	-
x	2756365	2756499	+
x	2756666	2758381	+
x	2757206	2758381	+
x	2758725	2761658	+
x	2761731	2761958	+
x	2761745	2761924	+
x	2762176	2762075	-
x	2764715	2763993	-
x	2767589	2766795	-
x	2768430	2768203	-
x	2769307	2768585	-
x	2769411	2769304	-
x	2770548	2769511	-
x	2771458	2770562	-
x	2771520	2772158	+
x	2771613	2772158	+
x	2772842	2773498	+
x	2775506	2776474	+
x	2776944	2777930	+
x	2778612	2780177	+
x	2783115	2783591	+
x	2783627	2785633	+
x	2783642	2785633	+
x	2783687	2785633	+
x	2787633	2787809	+
x	2789783	2789673	-
x	2791923	2790592	-
x	2792620	2791967	-
x	2792570	2792704	+
x	2792903	2793955	+
x	2794758	2796830	+
x	2801141	2800875	-
x	2801165	2800875	-
x	2801028	2801201	+
x	2801263	2801409	+
x	2801512	2802030	+
x	2805861	2804326	-
x	2805837	2804326	-
x	2809116	2807605	-
x	2816121	2816648	+
x	2816130	2816648	+
x	2818917	2816734	-
x	2824056	2825060	+
x	2825384	2825521	+
x	2826338	2825553	-
x	2827841	2826471	-
x	2830385	2828481	-
x	2830987	2830871	-
x	2831288	2830959	-
x	2831218	2831700	+
x	2832951	2831713	-
x	2835577	2836458	+
x	2836628	2837929	+
x	2840113	2839220	-
x	2844488	2844982	+
x	2844515	2844982	+
x	2844554	2844982	+
x	2847008	2845914	-
x	2846702	2845914	-
x	2846747	2845914	-
x	2849413	2848064	-
x	2850542	2849598	-
x	2850569	2849598	-
x	2854052	2850678	-
x	2854071	2855270	+
x	2856593	2855334	-
x	2856691	2856867	+
x	2856739	2856867	+
x	2859922	2858549	-
x	2859898	2858549	-
x	2860592	2859873	-
x	2860508	2859873	-
x	2860520	2860684	+
x	2860529	2860684	+
x	2862241	2860751	-
x	2862178	2860751	-
x	2866638	2862754	-
x	2866796	2866656	-
x	2868988	2868452	-
x	2869627	2869013	-
x	2869585	2869013	-
x	2869746	2869609	-
x	2869785	2870705	+
x	2870737	2871021	+
x	2871313	2871215	-
x	2871295	2871215	-
x	2871456	2871292	-
x	2871444	2871292	-
x	2872842	2872096	-
x	2875219	2875383	+
x	2878356	2878490	+
x	2881143	2880535	-
x	2881262	2881107	-
x	2881430	2881323	-
x	2881548	2883140	+
x	2883982	2883125	-
x	2886287	2885361	-
x	2887388	2886987	-
x	2887104	2887481	+
x	2889524	2888412	-
x	2888985	2889587	+
x	2889642	2889439	-
x	2890093	2890842	+
x	2890120	2890842	+
x	2892488	2893534	+
x	2893645	2895003	+
x	2895028	2895372	+
x	2895049	2895372	+
x	2895872	2895369	-
x	2896748	2895369	-
x	2898016	2898243	+
x	2899578	2899883	+
x	2900967	2900647	-
x	2901012	2900647	-
x	2902148	2902273	+
x	2902233	2902346	+
x	2902356	2902490	+
x	2905117	2902532	-
x	2907845	2908051	+
x	2908541	2908005	-
x	2912151	2911012	-
x	2912253	2912657	+
x	2912274	2912657	+
x	2912295	2912657	+
x	2913315	2914541	+
x	2915837	2915505	-
x	2916854	2916303	-
x	2916860	2916303	-
x	2917178	2916870	-
x	2918895	2919686	+
x	2919731	2920993	+
x	2919797	2920993	+
x	2920310	2920993	+
x	2921015	2921767	+
x	2921889	2921638	-
x	2921775	2921638	-
x	2924727	2924879	+
x	2925249	2924941	-
x	2925658	2925221	-
x	2933245	2932430	-
x	2933236	2932430	-
x	2933601	2933293	-
x	2933758	2934765	+
x	2934493	2934765	+
x	2934996	2936078	+
x	2936032	2937366	+
x	2940305	2941768	+
x	2941117	2941347	+
x	2941771	2942451	+
x	2942973	2943158	+
x	2945024	2945152	+
x	2946248	2946589	+
x	2947067	2946813	-
x	2947462	2949606	+
x	2953205	2954239	+
x	2954338	2954243	-
x	2954438	2954271	-
x	2954450	2954271	-
x	2954292	2954399	+
x	2954392	2954538	+
x	2954531	2955715	+
x	2955884	2956576	+
x	2957684	2957550	-
x	2957637	2958821	+
x	2958829	2960376	+
x	2961012	2961341	+
x	2965077	2964793	-
x	2965128	2964793	-
x	2965939	2965814	-
x	2967537	2967653	+
x	2969978	2970379	+
x	2970197	2970379	+
x	2970230	2970379	+
x	2970242	2970379	+
x	2972239	2971163	-
x	2972804	2972304	-
x	2974079	2972946	-
x	2974136	2972946	-
x	2974300	2974202	-
x	2974716	2974850	+
x	2975156	2975806	+
x	2978307	2979233	+
x	2980819	2979230	-
x	2986026	2983726	-
x	2986673	2986131	-
x	2986803	2986636	-
x	2987817	2986807	-
x	2987883	2986807	-
x	2987826	2986807	-
x	2987859	2986807	-
x	2989537	2990967	+
x	2991365	2991135	-
x	2991323	2991135	-
x	2991383	2991135	-
x	2991314	2991745	+
x	2991407	2991745	+
x	2992116	2991658	-
x	2991967	2992341	+
x	2992344	2992180	-
x	2992329	2992180	-
x	2996310	2994595	-
x	2996325	2994595	-
x	3000439	3000302	-
x	3000468	3000830	+
x	3003129	3004097	+
x	3004135	3006249	+
x	3009941	3010249	+
x	3011097	3010300	-
x	3015553	3016299	+
x	3020308	3019280	-
x	3020155	3019280	-
x	3019798	3019280	-
x	3021332	3021499	+
x	3021766	3021614	-
x	3023040	3022234	-
x	3023001	3022234	-
x	3025648	3025529	-
x	3031687	3031400	-
x	3033398	3032610	-
x	3037170	3035602	-
x	3037233	3035602	-
x	3039919	3037262	-
x	3045218	3045105	-
x	3045124	3045573	+
x	3045211	3045573	+
x	3045621	3046922	+
x	3046877	3047173	+
x	3048188	3047913	-
x	3048806	3047913	-
x	3049555	3048770	-
x	3050864	3049527	-
x	3049802	3049527	-
x	3051752	3050958	-
x	3053162	3052482	-
x	3057043	3057177	+
x	3058618	3058686	+
x	3059117	3059821	+
x	3059631	3059897	+
x	3059836	3061065	+
x	3064305	3063994	-
x	3064246	3064608	+
x	3068295	3071051	+
x	3071298	3071182	-
x	3072410	3071283	-
x	3073666	3072644	-
x	3073741	3072644	-
x	3075558	3075433	-
x	3075552	3075680	+
x	3077723	3077598	-
x	3077738	3077598	-
x	3078254	3077973	-
x	3079465	3079373	-
x	3079576	3080910	+
x	3080994	3081125	+
x	3082867	3081440	-
x	3084293	3085048	+
x	3084404	3085048	+
x	3086254	3085103	-
x	3090676	3092124	+
x	3092597	3093337	+
x	3092842	3092729	-
x	3094379	3093381	-
x	3094776	3094474	-
x	3096123	3096416	+
x	3096386	3096156	-
x	3096539	3097780	+
x	3099074	3098274	-
x	3100224	3099157	-
x	3101373	3101894	+
x	3101947	3103491	+
x	3105560	3107173	+
x	3107812	3107210	-
x	3117995	3118444	+
x	3118960	3119736	+
x	3119736	3123125	+
x	3119793	3123125	+
x	3126465	3126650	+
x	3129210	3128584	-
x	3129237	3128584	-
x	3128790	3128584	-
x	3129330	3128584	-
x	3129024	3128584	-
x	3129437	3129255	-
x	3129797	3129450	-
x	3131289	3131693	+
x	3132042	3133529	+
x	3133484	3134572	+
x	3133583	3134572	+
x	3136223	3136071	-
x	3139199	3137856	-
x	3139275	3140672	+
x	3139431	3140672	+
x	3146072	3142560	-
x	3146111	3142560	-
x	3152887	3152540	-
x	3153213	3152848	-
x	3153779	3153252	-
x	3154055	3153252	-
x	3153839	3153252	-
x	3154265	3154468	+
x	3154286	3154468	+
x	3159011	3158547	-
x	3159389	3159583	+
x	3159522	3159683	+
x	3161592	3161305	-
x	3163932	3162769	-
x	3166343	3166507	+
x	3169167	3170057	+
x	3169861	3169763	-
x	3172412	3170865	-
x	3172479	3172393	-
x	3174117	3173389	-
x	3175696	3174512	-
x	3177577	3178269	+
x	3177700	3178269	+
x	3177751	3178269	+
x	3179494	3179886	+
x	3179572	3179886	+
x	3180059	3179919	-
x	3180044	3179919	-
x	3180472	3180035	-
x	3180654	3181091	+
x	3181397	3181275	-
x	3184039	3184515	+
x	3184264	3184515	+
x	3185003	3184560	-
x	3185006	3184560	-
x	3185192	3185037	-
x	3185357	3185491	+
x	3185844	3185413	-
x	3186216	3186061	-
x	3186641	3186234	-
x	3187647	3187432	-
x	3187979	3187824	-
x	3188802	3187993	-
x	3188727	3187993	-
x	3189183	3187993	-
x	3190650	3190288	-
x	3190680	3190288	-
x	3191408	3190677	-
x	3191653	3191417	-
x	3192445	3192260	-
x	3193682	3193110	-
x	3194155	3194057	-
x	3194959	3194189	-
x	3195217	3194189	-
x	3195841	3194189	-
x	3195799	3194189	-
x	3195865	3195975	+
x	3196901	3196185	-
x	3196898	3196185	-
x	3196964	3196185	-
x	3197149	3196937	-
x	3197394	3199652	+
x	3203311	3204501	+
x	3207065	3208462	+
x	3211707	3211156	-
x	3211758	3211156	-
x	3211863	3211156	-
x	3212077	3212607	+
x	3212092	3212607	+
x	3212480	3212250	-
x	3215964	3217358	+
x	3221163	3222620	+
x	3222515	3223954	+
x	3222635	3223954	+
x	3225788	3225393	-
x	3225725	3225393	-
x	3225884	3225393	-
x	3227806	3225881	-
x	3227815	3225881	-
x	3228107	3229684	+
x	3228167	3229684	+
x	3229668	3229811	+
x	3229674	3229811	+
x	3230642	3232057	+
x	3232934	3233089	+
x	3236509	3235715	-
x	3237598	3237284	-
x	3237670	3237284	-
x	3237913	3238104	+
x	3237922	3238104	+
x	3237931	3238104	+
x	3240393	3241850	+
x	3240411	3241850	+
x	3246299	3245907	-
x	3247674	3247787	+
x	3252190	3251612	-
x	3252221	3252409	+
x	3252963	3252637	-
x	3252789	3253535	+
x	3252987	3253535	+
x	3253937	3253776	-
x	3253898	3253978	+
x	3255577	3255699	+
x	3256534	3255803	-
x	3256498	3255803	-
x	3256824	3257783	+
x	3261088	3261915	+
x	3264223	3263414	-
x	3263725	3263414	-
x	3265169	3264477	-
x	3265184	3264477	-
x	3265903	3265310	-
x	3268456	3267302	-
x	3268465	3267302	-
x	3269822	3268596	-
x	3270912	3269809	-
x	3270883	3270782	-
x	3271121	3271029	-
x	3271203	3271631	+
x	3271555	3272232	+
x	3272922	3273605	+
x	3273069	3273605	+
x	3273566	3274276	+
x	3274871	3274248	-
x	3275605	3275489	-
x	3277440	3276451	-
x	3278966	3277743	-
x	3279734	3279612	-
x	3279782	3279612	-
x	3279863	3279612	-
x	3281937	3279916	-
x	3281966	3282943	+
x	3282059	3282943	+
x	3286980	3285082	-
x	3287070	3285082	-
x	3287198	3287067	-
x	3287213	3287067	-
x	3287334	3287549	+
x	3287533	3287658	+
x	3287812	3287546	-
x	3287841	3289007	+
x	3289070	3289204	+
x	3289431	3290837	+
x	3289482	3290837	+
x	3290914	3291411	+
x	3291503	3292213	+
x	3292266	3293024	+
x	3294096	3294659	+
x	3295202	3295104	-
x	3296276	3295251	-
x	3296306	3295251	-
x	3297522	3297824	+
x	3299569	3299652	+
x	3300680	3299709	-
x	3302771	3302055	-
x	3302935	3302795	-
x	3303314	3302958	-
x	3304134	3305216	+
x	3305486	3305193	-
x	3305584	3306663	+
x	3306803	3306669	-
x	3306817	3308121	+
x	3310366	3308171	-
x	3310589	3310386	-
x	3310617	3310468	-
x	3310803	3311411	+
x	3313139	3312279	-
x	3313121	3312279	-
x	3314389	3313454	-
x	3314392	3313454	-
x	3313867	3313454	-
x	3314997	3314428	-
x	3314991	3314428	-
x	3315928	3315398	-
x	3316447	3315965	-
x	3321132	3319153	-
x	3322202	3321243	-
x	3322061	3321243	-
x	3323529	3323630	+
x	3328233	3323653	-
x	3328083	3323653	-
x	3328170	3323653	-
x	3328363	3328575	+
x	3328366	3328575	+
x	3328686	3328564	-
x	3333354	3332932	-
x	3337117	3335627	-
x	3337317	3338141	+
x	3339290	3338148	-
x	3339634	3341382	+
x	3339652	3341382	+
x	3339694	3341382	+
x	3339760	3341382	+
x	3341169	3342293	+
x	3342346	3342573	+
x	3342957	3343745	+
x	3344940	3343780	-
x	3346520	3345957	-
x	3347350	3346529	-
x	3348564	3347353	-
x	3350251	3349538	-
x	3352730	3352870	+
x	3354824	3352962	-
x	3354978	3355892	+
x	3355308	3355892	+
x	3356671	3356276	-
x	3360567	3361481	+
x	3362544	3362672	+
x	3362752	3362567	-
x	3364087	3363155	-
x	3364081	3363155	-
x	3363919	3363155	-
x	3364042	3363155	-
x	3363565	3363155	-
x	3365719	3365279	-
x	3365803	3365279	-
x	3367112	3366921	-
x	3367024	3367269	+
x	3368271	3367552	-
x	3368459	3369724	+
x	3371630	3370563	-
x	3371690	3370563	-
x	3371462	3370563	-
x	3371605	3371459	-
x	3373041	3373751	+
x	3373753	3373866	+
x	3373987	3373895	-
x	3374224	3374877	+
x	3379984	3379829	-
x	3382368	3382580	+
x	3383802	3383353	-
x	3385072	3385902	+
x	3386280	3385948	-
x	3390770	3390075	-
x	3392145	3393665	+
x	3392178	3393665	+
x	3393665	3393925	+
x	3393780	3394484	+
x	3393909	3394484	+
x	3396476	3395688	-
x	3396577	3397392	+
x	3397644	3397450	-
x	3398736	3398662	-
x	3398849	3399199	+
x	3398873	3399199	+
x	3400093	3402597	+
x	3400129	3402597	+
x	3402604	3403362	+
x	3402667	3403362	+
x	3404677	3404471	-
x	3407592	3407984	+
x	3412483	3409532	-
x	3412444	3409532	-
x	3411703	3409532	-
x	3413919	3413713	-
x	3413898	3413713	-
x	3416847	3416023	-
x	3416835	3416023	-
x	3417305	3416934	-
x	3418988	3419122	+
x	3419000	3419122	+
x	3425716	3425567	-
x	3425579	3425701	+
x	3429254	3429361	+
x	3432081	3431968	-
x	3432053	3432259	+
x	3432084	3433574	+
x	3432168	3433574	+
x	3432195	3433574	+
x	3433558	3433968	+
x	3434055	3434237	+
x	3435298	3438426	+
x	3438863	3438723	-
x	3446912	3446742	-
x	3448201	3448740	+
x	3449561	3450565	+
x	3450618	3450755	+
x	3457072	3455597	-
x	3457372	3458790	+
x	3462665	3459963	-
x	3466083	3466451	+
x	3466531	3466436	-
x	3466583	3466966	+
x	3467243	3467716	+
x	3467664	3468005	+
x	3468101	3468583	+
x	3468179	3468583	+
x	3468632	3469639	+
x	3469679	3469774	+
x	3469699	3469848	+
x	3469911	3470297	+
x	3470390	3470482	+
x	3472534	3472409	-
x	3472665	3472835	+
x	3472668	3472835	+
x	3472977	3472825	-
x	3472986	3472825	-
x	3475653	3474385	-
x	3477862	3477425	-
x	3477877	3477425	-
x	3480308	3480156	-
x	3481376	3480156	-
x	3484946	3485302	+
x	3484958	3485302	+
x	3485521	3485384	-
x	3485537	3486097	+
x	3487367	3487531	+
x	3487538	3487386	-
x	3487424	3487531	+
x	3487583	3487690	+
x	3487696	3487803	+
x	3487809	3487916	+
x	3487963	3487859	-
x	3487922	3488401	+
x	3487952	3488401	+
x	3489555	3488329	-
x	3489492	3488329	-
x	3490455	3489571	-
x	3490470	3489571	-
x	3492575	3491277	-
x	3492598	3492711	+
x	3492632	3492757	+
x	3492820	3492939	+
x	3494057	3494557	+
x	3494901	3495041	+
x	3495826	3495560	-
x	3496302	3496604	+
x	3497885	3498394	+
x	3499168	3500052	+
x	3500115	3500504	+
x	3500480	3501634	+
x	3501131	3501634	+
x	3504921	3505496	+
x	3505405	3506277	+
x	3505417	3506277	+
x	3506278	3507033	+
x	3506524	3507033	+
x	3508118	3508792	+
x	3511151	3512440	+
x	3511481	3512440	+
x	3512090	3512440	+
x	3515527	3515796	+
x	3515790	3515665	-
x	3518898	3518218	-
x	3518939	3519499	+
x	3519831	3520016	+
x	3521307	3520759	-
x	3521386	3521273	-
x	3521465	3522487	+
x	3522478	3523374	+
x	3525865	3524705	-
x	3525965	3526102	+
x	3528058	3526103	-
x	3528043	3526103	-
x	3528065	3527985	-
x	3528129	3528287	+
x	3528132	3528287	+
x	3529102	3531324	+
x	3529156	3531324	+
x	3531369	3529165	-
x	3531387	3529165	-
x	3533328	3532909	-
x	3536003	3537472	+
x	3538150	3537686	-
x	3538138	3537686	-
x	3538144	3537686	-
x	3538321	3538683	+
x	3538561	3538683	+
x	3541778	3540120	-
x	3541637	3540120	-
x	3540851	3540120	-
x	3541763	3540120	-
x	3542141	3541917	-
x	3542685	3542305	-
x	3545109	3544195	-
x	3545088	3544195	-
x	3547067	3545133	-
x	3547036	3547170	+
x	3547640	3547167	-
x	3548154	3547852	-
x	3548832	3548371	-
x	3552935	3553060	+
x	3553075	3553644	+
x	3553099	3553644	+
x	3556789	3556535	-
x	3556601	3556942	+
x	3557221	3556949	-
x	3557338	3556949	-
x	3557230	3557865	+
x	3558462	3557896	-
x	3561023	3561238	+
x	3561231	3562238	+
x	3563345	3563923	+
x	3563402	3563923	+
x	3566540	3567055	+
x	3570454	3569792	-
x	3573973	3573107	-
x	3574069	3573107	-
x	3574186	3574082	-
x	3574438	3574301	-
x	3574603	3579171	+
x	3574711	3579171	+
x	3574963	3579171	+
x	3583342	3582434	-
x	3583348	3582434	-
x	3584037	3583306	-
x	3585563	3584043	-
x	3587439	3586657	-
x	3589170	3589304	+
x	3590321	3590530	+
x	3591685	3591182	-
x	3593144	3593548	+
x	3593196	3593609	+
x	3593199	3593609	+
x	3593660	3595069	+
x	3597293	3596289	-
x	3597505	3597678	+
x	3597514	3597678	+
x	3598446	3598760	+
x	3602365	3602093	-
x	3602497	3603408	+
x	3605040	3605270	+
x	3605205	3605071	-
x	3605296	3605114	-
x	3609208	3605417	-
x	3610772	3609285	-
x	3610742	3609285	-
x	3611949	3611818	-
x	3614106	3613003	-
x	3614121	3613003	-
x	3614154	3614342	+
x	3617454	3617618	+
x	3617576	3617475	-
x	3617703	3617822	+
x	3617754	3617822	+
x	3617826	3617990	+
x	3618234	3618422	+
x	3618837	3620225	+
x	3620560	3622017	+
x	3623019	3622891	-
x	3622975	3623067	+
x	3623239	3624204	+
x	3623359	3624204	+
x	3624606	3625496	+
x	3625553	3625759	+
x	3625646	3625759	+
x	3626834	3626601	-
x	3629864	3631096	+
x	3630329	3631096	+
x	3631764	3631618	-
x	3631796	3631972	+
x	3632001	3633026	+
x	3632109	3633026	+
x	3633076	3634275	+
x	3634282	3635388	+
x	3636464	3636736	+
x	3637654	3637881	+
x	3639216	3639521	+
x	3640611	3640291	-
x	3640656	3640291	-
x	3641878	3642759	+
x	3641989	3642759	+
x	3642176	3642012	-
x	3642908	3642735	-
x	3644429	3643812	-
x	3644907	3644389	-
x	3644694	3644389	-
x	3654714	3655094	+
x	3657665	3658216	+
x	3658267	3658890	+
x	3658975	3659532	+
x	3660618	3661172	+
x	3661719	3662135	+
x	3662852	3663259	+
x	3663479	3664405	+
x	3664333	3664914	+
x	3664614	3665249	+
x	3665185	3665886	+
x	3666529	3666368	-
x	3666618	3667085	+
x	3666696	3667085	+
x	3669237	3668008	-
x	3671453	3671887	+
x	3671957	3672418	+
x	3672475	3672041	-
x	3674315	3673581	-
x	3679024	3678470	-
x	3683761	3683976	+
x	3684654	3686756	+
x	3686693	3686812	+
x	3689707	3689588	-
x	3690450	3690304	-
x	3691921	3691745	-
x	3695119	3695673	+
x	3697723	3699111	+
x	3699111	3700154	+
x	3701382	3701816	+
x	3701850	3702647	+
x	3703419	3702799	-
x	3705604	3705212	-
x	3709328	3708924	-
x	3710151	3709303	-
x	3716954	3716277	-
x	3716999	3716277	-
x	3718359	3717199	-
x	3718437	3717199	-
x	3718332	3717199	-
x	3718792	3718349	-
x	3718789	3718349	-
x	3718889	3718743	-
x	3720512	3719706	-
x	3720581	3723157	+
x	3723310	3723182	-
x	3724083	3724205	+
x	3724086	3724205	+
x	3724214	3726337	+
x	3726357	3727070	+
x	3727501	3728385	+
x	3730306	3730178	-
x	3730324	3730178	-
x	3730297	3730178	-
x	3730379	3730248	-
x	3730482	3732173	+
x	3732303	3732482	+
x	3732455	3732607	+
x	3735337	3735152	-
x	3735254	3735766	+
x	3735866	3738184	+
x	3735962	3738184	+
x	3738219	3738368	+
x	3738854	3741187	+
x	3741178	3741423	+
x	3741626	3741919	+
x	3741932	3742504	+
x	3743187	3743336	+
x	3743278	3744024	+
x	3743293	3744024	+
x	3744911	3745003	+
x	3751228	3751127	-
x	3751347	3751228	-
x	3755246	3754227	-
x	3754791	3755912	+
x	3759841	3759017	-
x	3760242	3759892	-
x	3760393	3761913	+
x	3763204	3763344	+
x	3765587	3764070	-
x	3765485	3764070	-
x	3765484	3765654	+
x	3770918	3769602	-
x	3770933	3769602	-
x	3776507	3775344	-
x	3778629	3777289	-
x	3778356	3777289	-
x	3779124	3778633	-
x	3779160	3778633	-
x	3779181	3778633	-
x	3780264	3779299	-
x	3780372	3780521	+
x	3782218	3782472	+
x	3782284	3782472	+
x	3782320	3782472	+
x	3782590	3782396	-
x	3782682	3782488	-
x	3783020	3783193	+
x	3784605	3785099	+
x	3784608	3785099	+
x	3784644	3785099	+
x	3785185	3785349	+
x	3785984	3785871	-
x	3787640	3785871	-
x	3790009	3788900	-
x	3793445	3793329	-
x	3793452	3793348	-
x	3793357	3793425	+
x	3793392	3793523	+
x	3794213	3793512	-
x	3794237	3793512	-
x	3798402	3797239	-
x	3798375	3798521	+
x	3798637	3798500	-
x	3801262	3800102	-
x	3803660	3802575	-
x	3806403	3806795	+
x	3806523	3806795	+
x	3811448	3812059	+
x	3811460	3812059	+
x	3813280	3812063	-
x	3813313	3812063	-
x	3813331	3814461	+
x	3813367	3814461	+
x	3817713	3817832	+
x	3819259	3818495	-
x	3820988	3820656	-
x	3822473	3821346	-
x	3822554	3821346	-
x	3825154	3822470	-
x	3826393	3826262	-
x	3826445	3826332	-
x	3830108	3828519	-
x	3830393	3831544	+
x	3830520	3830422	-
x	3830450	3831544	+
x	3831624	3831292	-
x	3831737	3831624	-
x	3835145	3834864	-
x	3836387	3836208	-
x	3838717	3837860	-
x	3838675	3837860	-
x	3838654	3837860	-
x	3840701	3838620	-
x	3840814	3841707	+
x	3843301	3843185	-
x	3843313	3843185	-
x	3843334	3843185	-
x	3843290	3843469	+
x	3843743	3843582	-
x	3843905	3843813	-
x	3846195	3846323	+
x	3846677	3847690	+
x	3846728	3847690	+
x	3848066	3848173	+
x	3849707	3850306	+
x	3851681	3851034	-
x	3851693	3851034	-
x	3852071	3851745	-
x	3852801	3853346	+
x	3854067	3854672	+
x	3854112	3854672	+
x	3854716	3855009	+
x	3854722	3855009	+
x	3855081	3854989	-
x	3855105	3854989	-
x	3860577	3860470	-
x	3861241	3861393	+
x	3861844	3861674	-
x	3863422	3861959	-
x	3863251	3861959	-
x	3863866	3863570	-
x	3865148	3865267	+
x	3868194	3869093	+
x	3874182	3872122	-
x	3874887	3874252	-
x	3874866	3874252	-
x	3875022	3874252	-
x	3874903	3876180	+
x	3874973	3875167	+
x	3874988	3875167	+
x	3875032	3876180	+
x	3875214	3875092	-
x	3879205	3879381	+
x	3879283	3879381	+
x	3881417	3879462	-
x	3881450	3879462	-
x	3882401	3881532	-
x	3884540	3881532	-
x	3884954	3881532	-
x	3886099	3884987	-
x	3886084	3884987	-
x	3888409	3886100	-
x	3888526	3886100	-
x	3888439	3886100	-
x	3888376	3886100	-
x	3891116	3888450	-
x	3891817	3891065	-
x	3891793	3891065	-
x	3891601	3891065	-
x	3891802	3891065	-
x	3892290	3893861	+
x	3892356	3893861	+
x	3893861	3894049	+
x	3896087	3895812	-
x	3895979	3895812	-
x	3896009	3895812	-
x	3896054	3895812	-
x	3895961	3896350	+
x	3895982	3896350	+
x	3895991	3896350	+
x	3896103	3896279	+
x	3896159	3896350	+
x	3896288	3896181	-
x	3896537	3896295	-
x	3896492	3896295	-
x	3896465	3896773	+
x	3896642	3896773	+
x	3896945	3896778	-
x	3897053	3896958	-
x	3896960	3897145	+
x	3897211	3897050	-
x	3897160	3897050	-
x	3897298	3898632	+
x	3902551	3902895	+
x	3902606	3902833	+
x	3902675	3902833	+
x	3902746	3902895	+
x	3904692	3904847	+
x	3905275	3905018	-
x	3905209	3905541	+
x	3907308	3905584	-
x	3914544	3913297	-
x	3914835	3914728	-
x	3915432	3914728	-
x	3915419	3916147	+
x	3918832	3916553	-
x	3918772	3916553	-
x	3919714	3919839	+
x	3919790	3920776	+
x	3921656	3920826	-
x	3921805	3921653	-
x	3921691	3921840	+
x	3922900	3922478	-
x	3928222	3927950	-
x	3928475	3929419	+
x	3929901	3929461	-
x	3930327	3929944	-
x	3930297	3929944	-
x	3933314	3931980	-
x	3933522	3933385	-
x	3933590	3934660	+
x	3934121	3934660	+
x	3936281	3937438	+
x	3937350	3937526	+
x	3937978	3938694	+
x	3939374	3938802	-
x	3939776	3939949	+
x	3942049	3943407	+
x	3943505	3943404	-
x	3943411	3943539	+
x	3944037	3943558	-
x	3943582	3943926	+
x	3944945	3944133	-
x	3945275	3946180	+
x	3946231	3946659	+
x	3951648	3952541	+
x	3954071	3953577	-
x	3956920	3957039	+
x	3957039	3957203	+
x	3959050	3957422	-
x	3964403	3964546	+
x	3965860	3968868	+
x	3967399	3968868	+
x	3968855	3969223	+
x	3970212	3971156	+
x	3970218	3971156	+
x	3970632	3971156	+
x	3971811	3971969	+
x	3971850	3971969	+
x	3972336	3972773	+
x	3972504	3972773	+
x	3974760	3974852	+
x	3977224	3977358	+
x	3977399	3978562	+
x	3979948	3979571	-
x	3980195	3980103	-
x	3980490	3980347	-
x	3986486	3988162	+
x	3988147	3988938	+
x	3992705	3993190	+
x	3993322	3993534	+
x	3993763	3993605	-
x	3994092	3993649	-
x	3994104	3994301	+
x	3994181	3995869	+
x	3994298	3995869	+
x	3995879	3997162	+
x	3997292	3998125	+
x	3999376	4000401	+
x	4001811	4001662	-
x	4005825	4004863	-
x	4008829	4008281	-
x	4009474	4008983	-
x	4011833	4011027	-
x	4013996	4012938	-
x	4017035	4017310	+
x	4017633	4017755	+
x	4018404	4017760	-
x	4018434	4017760	-
x	4018528	4019820	+
x	4019801	4020256	+
x	4020321	4020959	+
x	4021652	4020996	-
x	4022443	4021703	-
x	4023566	4023426	-
x	4023618	4024454	+
x	4024692	4025363	+
x	4027048	4025360	-
x	4027093	4025360	-
x	4026877	4025360	-
x	4027166	4026903	-
x	4027160	4026903	-
x	4027243	4027923	+
x	4027387	4027923	+
x	4031049	4033163	+
x	4033942	4033148	-
x	4033666	4033148	-
x	4035493	4036893	+
x	4036990	4038723	+
x	4041061	4041201	+
x	4042542	4041103	-
x	4042530	4041103	-
x	4053846	4053040	-
x	4053855	4053040	-
x	4054211	4053903	-
x	4058580	4058729	+
x	4058583	4058729	+
x	4059014	4059148	+
x	4060364	4060158	-
x	4060352	4060158	-
x	4060343	4060158	-
x	4064062	4062707	-
x	4063897	4062707	-
x	4064587	4064108	-
x	4065038	4064613	-
x	4066025	4064613	-
x	4065959	4064613	-
x	4064942	4064613	-
x	4070784	4069462	-
x	4072284	4070791	-
x	4072296	4070791	-
x	4072306	4072193	-
x	4073056	4072958	-
x	4074924	4075421	+
x	4074939	4075421	+
x	4075131	4075421	+
x	4075418	4075576	+
x	4075599	4075712	+
x	4075709	4075798	+
x	4076211	4077401	+
x	4076217	4077401	+
x	4079615	4079208	-
x	4082550	4083473	+
x	4084284	4083646	-
x	4085906	4084284	-
x	4084769	4084284	-
x	4086161	4084284	-
x	4085900	4084284	-
x	4088594	4086909	-
x	4088601	4088762	+
x	4088613	4088762	+
x	4089201	4088767	-
x	4089168	4088767	-
x	4089726	4089307	-
x	4090011	4089919	-
x	4089951	4090358	+
x	4090138	4089980	-
x	4090098	4090358	+
x	4091610	4090360	-
x	4091607	4090360	-
x	4091542	4091670	+
x	4091654	4092739	+
x	4091657	4092739	+
x	4094055	4092736	-
x	4094073	4092736	-
x	4097631	4098392	+
x	4099772	4099365	-
x	4099983	4099897	-
x	4102420	4100003	-
x	4106039	4104624	-
x	4105958	4104624	-
x	4106521	4106321	-
x	4106681	4106541	-
x	4106791	4107150	+
x	4107173	4106838	-
x	4107114	4107371	+
x	4107246	4107371	+
x	4111013	4112443	+
x	4112579	4113781	+
x	4115054	4116022	+
x	4115120	4116022	+
x	4115135	4116022	+
x	4116167	4116928	+
x	4122910	4121714	-
x	4122916	4121714	-
x	4122808	4121714	-
x	4127127	4127267	+
x	4127136	4127267	+
x	4128867	4128037	-
x	4128897	4128037	-
x	4128939	4129061	+
x	4129902	4129159	-
x	4129932	4130711	+
x	4131647	4130763	-
x	4137590	4135071	-
x	4142773	4142687	-
x	4142878	4143426	+
x	4142902	4143426	+
x	4143396	4142983	-
x	4145755	4147434	+
x	4145851	4147434	+
x	4147474	4148211	+
x	4147540	4148211	+
x	4149708	4149490	-
x	4149882	4149490	-
x	4157009	4155582	-
x	4158547	4157027	-
x	4160769	4161200	+
x	4165020	4163617	-
x	4165615	4165067	-
x	4166095	4165982	-
x	4166180	4166055	-
x	4167316	4167681	+
x	4167361	4167681	+
x	4168664	4168359	-
x	4170226	4169999	-
x	4172156	4171560	-
x	4173966	4172881	-
x	4174431	4172881	-
x	4174607	4174422	-
x	4176638	4176898	+
x	4182338	4181361	-
x	4182254	4183879	+
x	4184895	4184446	-
x	4184937	4184446	-
x	4185097	4187133	+
x	4188673	4187180	-
x	4188770	4188868	+
x	4190089	4190523	+
x	4190140	4190523	+
x	4190580	4190188	-
x	4190664	4190765	+
x	4190778	4192109	+
x	4192143	4192337	+
x	4192364	4193452	+
x	4193461	4194510	+
x	4193527	4194510	+
x	4194524	4195696	+
x	4198969	4199574	+
x	4199029	4199574	+
x	4202002	4201910	-
x	4205298	4205200	-
x	4207361	4208626	+
x	4208871	4208710	-
x	4208768	4208923	+
x	4209151	4209014	-
x	4213663	4212707	-
x	4213648	4212707	-
x	4214130	4213801	-
x	4214086	4216581	+
x	4214092	4216581	+
x	4216732	4217217	+
x	4217056	4217217	+
x	4217641	4218468	+
x	4220811	4223027	+
x	4223930	4224064	+
x	4224293	4225258	+
x	4225139	4225258	+
x	4225264	4225365	+
x	4225722	4225312	-
x	4226642	4225788	-
x	4226766	4226969	+
x	4226772	4226969	+
x	4226793	4226969	+
x	4226850	4226969	+
x	4227380	4226994	-
x	4227272	4226994	-
x	4227049	4227165	+
x	4227576	4227890	+
x	4229361	4228876	-
x	4230510	4232339	+
x	4232409	4233023	+
x	4232655	4233023	+
x	4233501	4233085	-
x	4233704	4233889	+
x	4234729	4235646	+
x	4234783	4235646	+
x	4236483	4235728	-
x	4240766	4239885	-
x	4240948	4240832	-
x	4240956	4241723	+
x	4241073	4241723	+
x	4241811	4241969	+
x	4241879	4243291	+
x	4244110	4244760	+
x	4244125	4244760	+
x	4246434	4246745	+
x	4246827	4247264	+
x	4251025	4251759	+
x	4255439	4253124	-
x	4256831	4257448	+
x	4259811	4259686	-
x	4260947	4261312	+
x	4260992	4261312	+
x	4262387	4262082	-
x	4263948	4263721	-
x	4265589	4265077	-
x	4266161	4265586	-
x	4266210	4266509	+
x	4266320	4266219	-
x	4270796	4269840	-
x	4270745	4269840	-
x	4270684	4270836	+
x	4271134	4270892	-
x	4271011	4270892	-
x	4274284	4274141	-
x	4274290	4274141	-
x	4274903	4274304	-
x	4274900	4274304	-
x	4275095	4274955	-
x	4275154	4274972	-
x	4275208	4274972	-
x	4275233	4275310	+
x	4275549	4275403	-
x	4276217	4276101	-
x	4276210	4277589	+
x	4277739	4277635	-
x	4277795	4277682	-
x	4279470	4278001	-
x	4279419	4278001	-
x	4282411	4282178	-
x	4282299	4282189	-
x	4282479	4282327	-
x	4285432	4286310	+
x	4289937	4288528	-
x	4291380	4289974	-
x	4291392	4289974	-
x	4294542	4293640	-
x	4294551	4293640	-
x	4297898	4298800	+
x	4298810	4299619	+
x	4299697	4300317	+
x	4300311	4301183	+
x	4301614	4302603	+
x	4303650	4302667	-
x	4303589	4303687	+
x	4303954	4304115	+
x	4304984	4305229	+
x	4305017	4305229	+
x	4305472	4305690	+
x	4305840	4305706	-
x	4305746	4305925	+
x	4310907	4308493	-
x	4311543	4310956	-
x	4311547	4311801	+
x	4311770	4312570	+
x	4313431	4313763	+
x	4318078	4316621	-
x	4318706	4318554	-
x	4318829	4318719	-
x	4321485	4320220	-
x	4323024	4323173	+
x	4323093	4323173	+
x	4324032	4324991	+
x	4324143	4324991	+
x	4325779	4324988	-
x	4326301	4326927	+
x	4327084	4326968	-
x	4327102	4327209	+
x	4327145	4328170	+
x	4327178	4328170	+
x	4327181	4328170	+
x	4328289	4328993	+
x	4328304	4328993	+
x	4331314	4331817	+
x	4333774	4333944	+
x	4333950	4334441	+
x	4334726	4335031	+
x	4335475	4337802	+
x	4335508	4337802	+
x	4337802	4338254	+
x	4338448	4338326	-
x	4341873	4340668	-
x	4341957	4342118	+
x	4342714	4342157	-
x	4344993	4343191	-
x	4345071	4345793	+
x	4345137	4345793	+
x	4346049	4347122	+
x	4347909	4348478	+
x	4348005	4348478	+
x	4348409	4348681	+
x	4350055	4350462	+
x	4350304	4350462	+
x	4352427	4353296	+
x	4355003	4355839	+
x	4357785	4357648	-
x	4359927	4359538	-
x	4359891	4360010	+
x	4361071	4362450	+
x	4364153	4364407	+
x	4365631	4366689	+
x	4365667	4366689	+
x	4366838	4366686	-
x	4366858	4366715	-
x	4366729	4366926	+
x	4367732	4367998	+
x	4368135	4368860	+
x	4375335	4373890	-
x	4375503	4373890	-
x	4375419	4373890	-
x	4376107	4375421	-
x	4376503	4376604	+
x	4376673	4376936	+
x	4376691	4376936	+
x	4377078	4377557	+
x	4378537	4377599	-
x	4381515	4380556	-
x	4382599	4381607	-
x	4382638	4381607	-
x	4382598	4382714	+
x	4385058	4382788	-
x	4385311	4385171	-
x	4386788	4389733	+
x	4388315	4389733	+
x	4388834	4389733	+
x	4390025	4390303	+
x	4390521	4390336	-
x	4390743	4391036	+
x	4390961	4390860	-
x	4390864	4391073	+
x	4391586	4391702	+
x	4391616	4391702	+
x	4392038	4391808	-
x	4392056	4391808	-
x	4391996	4391808	-
x	4391987	4392541	+
x	4392080	4392541	+
x	4392639	4393061	+
x	4393257	4393036	-
x	4393491	4393036	-
x	4393516	4394790	+
x	4393576	4394790	+
x	4397498	4397364	-
x	4398754	4400973	+
x	4401034	4401972	+
x	4402847	4402728	-
x	4404033	4402891	-
x	4406814	4404679	-
x	4406789	4407280	+
x	4406816	4407280	+
x	4408248	4408568	+
x	4408942	4408706	-
x	4411148	4412095	+
x	4411256	4412095	+
x	4415203	4413425	-
x	4419534	4418344	-
x	4420628	4421437	+
x	4420664	4421437	+
x	4425372	4424038	-
x	4425772	4426419	+
x	4428242	4430131	+
x	4428245	4430131	+
x	4430064	4430933	+
x	4430145	4430933	+
x	4431162	4431049	-
x	4431247	4431122	-
x	4432383	4432748	+
x	4432428	4432748	+
x	4433817	4433512	-
x	4435378	4435151	-
x	4436571	4436245	-
x	4439694	4438723	-
x	4439673	4438723	-
x	4439829	4438723	-
x	4439656	4439850	+
x	4439891	4439730	-
x	4440015	4439860	-
x	4440591	4441604	+
x	4444040	4443039	-
x	4445697	4445191	-
x	4445631	4445191	-
x	4445858	4449919	+
x	4456375	4455590	-
x	4456435	4455590	-
x	4456405	4455590	-
x	4456618	4455590	-
x	4457316	4456546	-
x	4457283	4456546	-
x	4457394	4456546	-
x	4457932	4457294	-
x	4461425	4461324	-
x	4464285	4464986	+
x	4464291	4464986	+
x	4465554	4464988	-
x	4465660	4467027	+
x	4471339	4471190	-
x	4471354	4471476	+
x	4472927	4473292	+
x	4472972	4473292	+
x	4474275	4473970	-
x	4475837	4475610	-
x	4478758	4480377	+
x	4480392	4481711	+
x	4481860	4481708	-
x	4481780	4481881	+
x	4486353	4485490	-
x	4486265	4486369	+
x	4486499	4490197	+
x	4490492	4492048	+
x	4494523	4494371	-
x	4494430	4494591	+
x	4495839	4496639	+
x	4495848	4496639	+
x	4495926	4496639	+
x	4497607	4496675	-
x	4499614	4501269	+
x	4501853	4501605	-
x	4501608	4501817	+
x	4501950	4502618	+
x	4502690	4503352	+
x	4505452	4505613	+
x	4505461	4505613	+
x	4505773	4505495	-
x	4505774	4505917	+
x	4510808	4509249	-
x	4510783	4510905	+
x	4512412	4513617	+
x	4513692	4515029	+
x	4515158	4515057	-
x	4515263	4516192	+
x	4516673	4518001	+
x	4516706	4518001	+
x	4518113	4518721	+
x	4518119	4518721	+
x	4522244	4519761	-
x	4522392	4521994	-
x	4523460	4524839	+
x	4524949	4525164	+
x	4525781	4525206	-
x	4526039	4527061	+
x	4526315	4527061	+
x	4526348	4527061	+
x	4527419	4528462	+
x	4527443	4528462	+
x	4527470	4528462	+
x	4528386	4528838	+
x	4528419	4528838	+
x	4528614	4528838	+
x	4530095	4529004	-
x	4532828	4534063	+
x	4539817	4540416	+
x	4539823	4540416	+
x	4540456	4540551	+
x	4540895	4540515	-
x	4540865	4540515	-
x	4540883	4541017	+
x	4541217	4542812	+
x	4542480	4542812	+
x	4543675	4543941	+
x	4544004	4543891	-
x	4544197	4543979	-
x	4545561	4545677	+
x	4550970	4550653	-
x	4551092	4550967	-
x	4554926	4555498	+
x	4557175	4558857	+
x	4557178	4558857	+
x	4557199	4558857	+
x	4557250	4558857	+
x	4559164	4559826	+
x	4560088	4559960	-
x	4560091	4559960	-
x	4564021	4562342	-
x	4564067	4564453	+
x	4564489	4564070	-
x	4564551	4564664	+
x	4568060	4566150	-
x	4569574	4569251	-
x	4569762	4569643	-
x	4571732	4569735	-
x	4571914	4572081	+
x	4571973	4572290	+
x	4572012	4572290	+
x	4572054	4572290	+
x	4572709	4572383	-
x	4573924	4573595	-
x	4576485	4575706	-
x	4577285	4576497	-
x	4577354	4578025	+
x	4579160	4578090	-
x	4580922	4580188	-
x	4583541	4583651	+
x	4583553	4583651	+
x	4584234	4584668	+
x	4584821	4584339	-
x	4584752	4584339	-
x	4584646	4584858	+
x	4587334	4588179	+
x	4588410	4589945	+
x	4591213	4590122	-
x	4593561	4591888	-
x	4593576	4591888	-
x	4595964	4595827	-
x	4596106	4596002	-
x	4598462	4596195	-
x	4599568	4599762	+
x	4601286	4602731	+
x	4601310	4602731	+
x	4601562	4602731	+
x	4609596	4609730	+
x	4610616	4610822	+
x	4611033	4611176	+
x	4612686	4611142	-
x	4616565	4614412	-
x	4616598	4614412	-
x	4620164	4620382	+
x	4620667	4620786	+
x	4621275	4620676	-
x	4622757	4621288	-
x	4623066	4621288	-
x	4623305	4622961	-
x	4624623	4623415	-
x	4624530	4623415	-
x	4624816	4626267	+
x	4626315	4624834	-
x	4626422	4626306	-
x	4626706	4627083	+
x	4628822	4628499	-
x	4628946	4628629	-
x	4630720	4631106	+
x	4631196	4630792	-
x	4634087	4633533	-
x	4634195	4634097	-
x	4634106	4634228	+
x	4634574	4634323	-
x	4634597	4634977	+
x	4636762	4635596	-
x	4636858	4635596	-
x	4637181	4636792	-
x	4638293	4637568	-
x	4640398	4641405	+
x	4641582	4643126	+
x	4641624	4643126	+
x	4646520	4647545	+
x	4646664	4647545	+
x	4648772	4647687	-
x	4648700	4647687	-
x	4648690	4649379	+
x	4648717	4649379	+
x	4648765	4649379	+
x	4648780	4649379	+
x	4649414	4649545	+
x	4649981	4649601	-
x	4651342	4650158	-
x	4651144	4650158	-
x	4651275	4652843	+
x	4651311	4652843	+
x	4652818	4653276	+
x	4653055	4653276	+
x	4653280	4654632	+
x	4654389	4654288	-
x	4654639	4656489	+
x	4657971	4659182	+
x	4661890	4661786	-
x	4662136	4663215	+
x	4663842	4666325	+
x	4666368	4666505	+
x	4669127	4669606	+
x	4669632	4669525	-
x	4669739	4670254	+
x	4670500	4671420	+
x	4671486	4673129	+
x	4671489	4673129	+
x	4673548	4673246	-
x	4673533	4673246	-
x	4674098	4673670	-
x	4676860	4675790	-
x	4677152	4678606	+
x	4679262	4680065	+
x	4679376	4680065	+
x	4680089	4679421	-
x	4680186	4680929	+
x	4680881	4681615	+
x	4683219	4682836	-
x	4684389	4683901	-
x	4685589	4685849	+
x	4685864	4685682	-
x	4685986	4685804	-
x	4686229	4686077	-
x	4686222	4687511	+
x	4686246	4687511	+
x	4686303	4687511	+
x	4687085	4686954	-
x	4688320	4687646	-
x	4688215	4687646	-
x	4688343	4689122	+
x	4690861	4691496	+
x	4692632	4691658	-
x	4692636	4692731	+
x	4693570	4694061	+
x	4693591	4694061	+
x	4696142	4694190	-
x	4694426	4694190	-
x	4697869	4698141	+
x	4697896	4698141	+
x	4699836	4699699	-
x	4700534	4699869	-
x	4700573	4699869	-
x	4700615	4700743	+
x	4706489	4706307	-
x	4706773	4707030	+
x	4707024	4707374	+
x	4707983	4708123	+
x	4708121	4707996	-
x	4708142	4707996	-
x	4710882	4711928	+
x	4710903	4711928	+
x	4710966	4711928	+
x	4711930	4712910	+
x	4711939	4712910	+
x	4714004	4714135	+
x	4716303	4717643	+
x	4718091	4717681	-
x	4717826	4718212	+
x	4717910	4718212	+
x	4718819	4718721	-
x	4718850	4718767	-
x	4718770	4718865	+
x	4721057	4721179	+
x	4721222	4721338	+
x	4721439	4721263	-
x	4724534	4723116	-
x	4725608	4725841	+
x	4725653	4725841	+
x	4728842	4728759	-
x	4729342	4728884	-
x	4729309	4728884	-
x	4730917	4730756	-
x	4730947	4730756	-
x	4730905	4730756	-
x	4731066	4730929	-
x	4731098	4730994	-
x	4731020	4731202	+
x	4731524	4731682	+
x	4732584	4732748	+
x	4732820	4733074	+
x	4733074	4733202	+
x	4733210	4733671	+
x	4733794	4734768	+
x	4737376	4737083	-
x	4737752	4738975	+
x	4742329	4741886	-
x	4744327	4744199	-
x	4744241	4745341	+
x	4745338	4746423	+
x	4749150	4748122	-
x	4754235	4753174	-
x	4754471	4754268	-
x	4754474	4754268	-
x	4754495	4754268	-
x	4754596	4755942	+
x	4754674	4755942	+
x	4798878	4797973	-
x	4798902	4797973	-
x	4798805	4798930	+
x	4798808	4798930	+
x	4798927	4799049	+
x	4801316	4800102	-
x	4801953	4801228	-
x	4801776	4801228	-
x	4802183	4802311	+
x	4802313	4802462	+
x	4802747	4802610	-
x	4803139	4802918	-
x	4804525	4805076	+
x	4806046	4806708	+
x	4806061	4806708	+
x	4806070	4806708	+
x	4806169	4806708	+
x	4806202	4806708	+
x	4806821	4806702	-
x	4806814	4807470	+
x	4806820	4807470	+
x	4807582	4810173	+
x	4807603	4810173	+
x	4809313	4810173	+
x	4810180	4810713	+
x	4810835	4810707	-
x	4810720	4811229	+
x	4811240	4812151	+
x	4816011	4816802	+
x	4817017	4817790	+
x	4818852	4818712	-
x	4819015	4819116	+
x	4819095	4819238	+
x	4819325	4819468	+
x	4819334	4819468	+
x	4819425	4819826	+
x	4819437	4819826	+
x	4820562	4819819	-
x	4820659	4820564	-
x	4823133	4822438	-
x	4823133	4823342	+
x	4823151	4823342	+
x	4824297	4823938	-
x	4826044	4825184	-
x	4826152	4825184	-
x	4827136	4826363	-
x	4828312	4827140	-
x	4831218	4831430	+
x	4831427	4832371	+
x	4831787	4832371	+
x	4832490	4832368	-
x	4832558	4832442	-
x	4834123	4834275	+
x	4838286	4837291	-
x	4838331	4837291	-
x	4838145	4837291	-
x	4840676	4838511	-
x	4840625	4838511	-
x	4840975	4840829	-
x	4846654	4845848	-
x	4846777	4845848	-
x	4847552	4846647	-
x	4847468	4846647	-
x	4851562	4850267	-
x	4851747	4852274	+
x	4851774	4852274	+
x	4851777	4852274	+
x	4856488	4855682	-
x	4856609	4856701	+
x	4856720	4857757	+
x	4856744	4857757	+
x	4860148	4857896	-
x	4860932	4860441	-
x	4860938	4860441	-
x	4862696	4862370	-
x	4862837	4862370	-
x	4862858	4862370	-
x	4863667	4862834	-
x	4863658	4862834	-
x	4863920	4863828	-
x	4864298	4864948	+
x	4864906	4865583	+
x	4864960	4865583	+
x	4866439	4866786	+
x	4866511	4866786	+
x	4868437	4868826	+
x	4870084	4870236	+
x	4870133	4871749	+
x	4872064	4872747	+
x	4872801	4872109	-
x	4872148	4872747	+
x	4872844	4873035	+
x	4872856	4873035	+
x	4873121	4874230	+
x	4874371	4875009	+
x	4877483	4877608	+
x	4877559	4877660	+
x	4877741	4878544	+
x	4878800	4879993	+
x	4882491	4882342	-
x	4884179	4885285	+
x	4885286	4886716	+
x	4886716	4887969	+
x	4888020	4888169	+
x	4889917	4890045	+
x	4890127	4892091	+
x	4890187	4892091	+
x	4892181	4892507	+
x	4893070	4892549	-
x	4899718	4899858	+
x	4900237	4900944	+
