x	41	2497	+
x	4786	4935	+
x	4941	5228	+
x	5256	5008	-
x	7770	8786	+
x	8898	9488	+
x	9649	9512	-
x	9520	9657	+
x	10586	11110	+
x	10595	11110	+
x	11753	11616	-
x	11830	11681	-
x	13917	11881	-
x	13898	15058	+
x	15157	15444	+
x	15297	15163	-
x	15372	15163	-
x	15315	15163	-
x	16681	18204	+
x	16711	18204	+
x	18333	19592	+
x	21035	21958	+
x	21059	21958	+
x	22053	21925	-
x	21970	22302	+
x	22239	22054	-
x	27454	28449	+
x	30993	30811	-
x	31008	30811	-
x	31078	31215	+
x	31228	32403	+
x	35826	35650	-
x	35798	36298	+
x	36407	36246	-
x	37028	36417	-
x	37798	37013	-
x	39457	37904	-
x	43973	44806	+
x	44000	44806	+
x	49332	51266	+
x	51323	51937	+
x	51347	51937	+
x	52457	52573	+
x	53389	53742	+
x	55591	54623	-
x	59272	56951	-
x	59467	60375	+
x	63923	61164	-
x	64022	61164	-
x	71183	72037	+
x	71192	72037	+
x	72302	72424	+
x	72552	73400	+
x	72828	73400	+
x	75581	74862	-
x	77088	75544	-
x	78125	77130	-
x	78276	78157	-
x	79953	78277	-
x	79901	80152	+
x	80021	80152	+
x	80311	80496	+
x	83373	82279	-
x	85289	85158	-
x	85579	85701	+
x	86417	86629	+
x	86494	86721	+
x	86748	87143	+
x	86766	87143	+
x	86934	87143	+
x	87663	87535	-
x	87657	87535	-
x	87727	89541	+
x	87733	89541	+
x	87775	89541	+
x	87841	89541	+
x	89514	90035	+
x	90038	90133	+
x	90047	90133	+
x	90087	90218	+
x	91785	92279	+
x	92182	93222	+
x	92284	93222	+
x	93231	93584	+
x	95368	96840	+
x	95425	96840	+
x	100587	101834	+
x	101855	102898	+
x	109739	110404	+
x	109817	110404	+
x	113861	113748	-
x	113882	113748	-
x	113830	114027	+
x	114030	113833	-
x	116698	116591	-
x	119751	119924	+
x	120872	119937	-
x	125806	126042	+
x	125824	126042	+
x	126497	126736	+
x	126515	126736	+
x	126629	126736	+
x	127144	127001	-
x	127194	127382	+
x	127212	127382	+
x	127294	127443	+
x	127436	127726	+
x	128149	128946	+
x	129125	128943	-
x	133822	135309	+
x	133882	135309	+
x	137302	135551	-
x	137510	140260	+
x	137741	140260	+
x	140387	140797	+
x	141386	140835	-
x	143087	142617	-
x	143003	142617	-
x	142964	142617	-
x	142925	142617	-
x	143091	144680	+
x	147135	144727	-
x	147284	147859	+
x	147311	147859	+
x	147428	147859	+
x	149597	150364	+
x	152554	152739	+
x	152626	152739	+
x	153046	153840	+
x	154695	153922	-
x	156005	155691	-
x	158233	157625	-
x	162890	162300	-
x	163023	162883	-
x	162931	163059	+
x	165094	163730	-
x	166083	165187	-
x	166623	166150	-
x	168245	167502	-
x	168041	167502	-
x	168061	170535	+
x	170630	170463	-
x	170532	170642	+
x	173362	173228	-
x	173410	173228	-
x	173383	173228	-
x	175587	176489	+
x	176486	177379	+
x	182368	182745	+
x	182757	182497	-
x	188236	189411	+
x	188281	189411	+
x	193513	191018	-
x	194716	195639	+
x	195755	195591	-
x	196520	195591	-
x	197765	197487	-
x	197683	198204	+
x	199681	200439	+
x	200439	200591	+
x	200482	201309	+
x	200560	201309	+
x	201276	202673	+
x	205341	205742	+
x	206783	207331	+
x	206951	207331	+
x	216624	217040	+
x	218712	218452	-
x	218634	218452	-
x	218917	218699	-
x	220783	220980	+
x	221463	220909	-
x	221742	220909	-
x	223558	221786	-
x	224672	224319	-
x	229575	229940	+
x	229620	229940	+
x	231015	230710	-
x	232577	232335	-
x	233731	233495	-
x	235824	236648	+
x	235869	236648	+
x	238763	237543	-
x	238532	237543	-
x	239744	240484	+
x	239759	240484	+
x	240053	239925	-
x	241059	240481	-
x	241004	241744	+
x	241960	241646	-
x	241963	242043	+
x	242085	242228	+
x	243886	243407	-
x	245402	244554	-
x	245345	244554	-
x	248739	245272	-
x	250261	248819	-
x	257697	256417	-
x	257859	256417	-
x	257805	256417	-
x	260577	258727	-
x	260568	258727	-
x	263014	262511	-
x	264328	264447	+
x	264337	264447	+
x	264601	266694	+
x	271938	272147	+
x	273057	273545	+
x	273345	273545	+
x	273420	273545	+
x	274595	273816	-
x	274764	275213	+
x	274767	275213	+
x	277778	275256	-
x	277736	275256	-
x	277778	278518	+
x	278572	278673	+
x	278708	279490	+
x	280598	280458	-
x	280595	280458	-
x	280525	281262	+
x	280570	281262	+
x	280636	281262	+
x	282076	281930	-
x	282127	281930	-
x	281946	282152	+
x	282275	282117	-
x	282227	282117	-
x	282326	282117	-
x	284035	284823	+
x	284053	284823	+
x	284188	284823	+
x	286783	287157	+
x	287347	288486	+
x	288399	289097	+
x	288483	289097	+
x	288489	289097	+
x	291456	291004	-
x	294225	293164	-
x	294469	295611	+
x	303496	303392	-
x	304263	306629	+
x	316658	316227	-
x	335664	336053	+
x	335673	336053	+
x	335892	336053	+
x	336104	336397	+
x	336305	336397	+
x	336594	337853	+
x	336867	337853	+
x	337472	337278	-
x	342654	341734	-
x	342681	341734	-
x	342957	343739	+
x	343839	343741	-
x	343956	343840	-
x	344167	343967	-
x	344260	344403	+
x	344909	344796	-
x	344877	344978	+
x	345057	345218	+
x	345178	345086	-
x	345340	345606	+
x	345603	345746	+
x	345606	345746	+
x	346358	346068	-
x	346153	346353	+
x	346489	346584	+
x	346830	347372	+
x	347467	347679	+
x	347544	347771	+
x	347798	348193	+
x	347816	348193	+
x	347984	348193	+
x	348819	349535	+
x	354693	354091	-
x	354667	354936	+
x	354947	354696	-
x	356393	355041	-
x	356446	356538	+
x	356542	357447	+
x	359971	360819	+
x	360986	360774	-
x	361021	360893	-
x	365752	366843	+
x	366852	367058	+
x	366872	367093	+
x	368188	369432	+
x	369729	370139	+
x	370268	370152	-
x	370215	370292	+
x	370415	370299	-
x	370393	371376	+
x	371425	372909	+
x	371731	372909	+
x	371797	372909	+
x	373870	374826	+
x	374913	374758	-
x	374877	374758	-
x	374760	374897	+
x	376196	376360	+
x	376595	376419	-
x	377476	376844	-
x	377512	376844	-
x	377491	376844	-
x	377964	378086	+
x	379159	378038	-
x	379685	379783	+
x	380970	382082	+
x	386958	388256	+
x	387087	388256	+
x	388997	388377	-
x	389039	388377	-
x	394647	393556	-
x	395560	394715	-
x	395587	394715	-
x	395548	394715	-
x	398305	399234	+
x	398368	399234	+
x	402141	403397	+
x	404060	404314	+
x	404161	404331	+
x	406631	406335	-
x	406454	406335	-
x	406380	406682	+
x	407571	406999	-
x	408013	407573	-
x	408097	407573	-
x	408265	407573	-
x	410009	409338	-
x	410181	410273	+
x	410618	410469	-
x	410560	411579	+
x	412307	411993	-
x	415078	414071	-
x	415615	415220	-
x	415597	415220	-
x	415429	415220	-
x	415869	415642	-
x	415946	415734	-
x	417229	416099	-
x	417403	417302	-
x	417470	417348	-
x	417394	417588	+
x	417445	417588	+
x	417602	418828	+
x	420231	420365	+
x	420561	420773	+
x	421969	422091	+
x	421972	422091	+
x	422195	422308	+
x	422469	422203	-
x	422355	422203	-
x	422375	422614	+
x	422646	424130	+
x	424231	424569	+
x	426720	425803	-
x	426612	427190	+
x	428219	427887	-
x	428210	427887	-
x	428169	428348	+
x	428329	428475	+
x	429536	429420	-
x	429688	429533	-
x	429637	429533	-
x	429676	429533	-
x	431056	430073	-
x	431050	430073	-
x	430971	432017	+
x	430983	432017	+
x	431022	432017	+
x	431996	432178	+
x	433554	432286	-
x	433506	432286	-
x	437962	436736	-
x	437924	438055	+
x	440532	440383	-
x	441969	443345	+
x	443504	445318	+
x	448242	448604	+
x	448665	450479	+
x	450445	451461	+
x	451522	451938	+
x	452908	451976	-
x	453758	453159	-
x	454320	455405	+
x	456487	455954	-
x	457445	457954	+
x	457484	457954	+
x	462153	462245	+
x	462284	462171	-
x	464369	463773	-
x	464213	463773	-
x	464940	464326	-
x	465237	465896	+
x	465387	465896	+
x	467394	466024	-
x	467586	466024	-
x	468472	467537	-
x	468849	468439	-
x	468461	468718	+
x	469283	468768	-
x	474266	474865	+
x	474991	474311	-
x	475070	474939	-
x	475161	475511	+
x	475197	475511	+
x	475860	475438	-
x	475520	475708	+
x	475562	475708	+
x	479565	481964	+
x	488061	486346	-
x	488002	488121	+
x	488134	488964	+
x	489009	489575	+
x	489030	489575	+
x	489033	489575	+
x	489117	489575	+
x	491256	493151	+
x	493305	493165	-
x	493194	493670	+
x	493622	493389	-
x	495979	495035	-
x	495974	496096	+
x	496128	496685	+
x	496563	496685	+
x	497027	496716	-
x	497126	496716	-
x	497087	496716	-
x	497009	497347	+
x	499357	497801	-
x	500024	499515	-
x	501244	500825	-
x	501055	500825	-
x	501289	500825	-
x	505984	505160	-
x	506389	505160	-
x	506549	507142	+
x	507224	507388	+
x	507276	510632	+
x	510678	510827	+
x	511968	512078	+
x	512092	512697	+
x	512113	512697	+
x	515163	514786	-
x	514795	515139	+
x	517919	517794	-
x	517849	518553	+
x	517852	518553	+
x	524002	523919	-
x	527595	527230	-
x	528840	529142	+
x	528957	529142	+
x	530131	529577	-
x	534770	535102	+
x	536902	536444	-
x	537959	538639	+
x	538599	539405	+
x	540358	539468	-
x	541153	540383	-
x	541775	541182	-
x	541805	541182	-
x	541838	541182	-
x	542004	542462	+
x	545082	544972	-
x	546082	545114	-
x	548038	548808	+
x	548898	550676	+
x	554235	554699	+
x	554749	556056	+
x	555809	555717	-
x	556072	557223	+
x	559401	558148	-
x	562706	563707	+
x	563625	564533	+
x	563814	564533	+
x	565633	565523	-
x	565551	565658	+
x	565733	565623	-
x	565651	565758	+
x	565833	565723	-
x	565751	565858	+
x	565933	565823	-
x	567556	567020	-
x	568778	569464	+
x	571486	571743	+
x	571741	571508	-
x	573296	572943	-
x	573323	572943	-
x	573251	572943	-
x	573226	573375	+
x	573678	573271	-
x	573570	573271	-
x	573663	573271	-
x	573628	573933	+
x	573906	574031	+
x	574644	573988	-
x	574419	573988	-
x	574653	573988	-
x	574656	573988	-
x	575322	575113	-
x	575508	575113	-
x	575490	575113	-
x	575762	575535	-
x	575839	575627	-
x	576617	575865	-
x	581160	578167	-
x	583363	581711	-
x	583288	581711	-
x	585675	585830	+
x	592019	593401	+
x	595344	594913	-
x	596148	595645	-
x	596028	595645	-
x	596293	596093	-
x	597600	597713	+
x	598010	597741	-
x	597879	598067	+
x	597943	598131	+
x	598873	598253	-
x	599023	598253	-
x	598996	598253	-
x	599003	598884	-
x	601348	599234	-
x	601288	599234	-
x	601281	601412	+
x	601531	602733	+
x	602730	602954	+
x	602813	606832	+
x	609343	608210	-
x	611027	610011	-
x	613513	614700	+
x	617161	617937	+
x	620380	620628	+
x	623878	623306	-
x	623923	623306	-
x	624969	623908	-
x	626177	625275	-
x	627182	626382	-
x	627188	626382	-
x	627982	627467	-
x	628204	629799	+
x	630381	629920	-
x	630562	630473	-
x	630633	631016	+
x	631251	631090	-
x	632169	631345	-
x	633695	632265	-
x	634651	633779	-
x	635151	636545	+
x	636721	637767	+
x	637653	636730	-
x	639091	637946	-
x	638953	637946	-
x	638917	637946	-
x	639324	641042	+
x	641065	641691	+
x	643272	643162	-
x	644318	644151	-
x	644355	644648	+
x	645172	645966	+
x	645178	645966	+
x	647575	647462	-
x	647783	647595	-
x	648758	648183	-
x	650529	650672	+
x	650532	650672	+
x	650547	650672	+
x	655475	655266	-
x	655597	655887	+
x	655659	655829	+
x	656457	655843	-
x	661471	658748	-
x	663060	662092	-
x	666431	665454	-
x	666478	666639	+
x	666497	666619	+
x	668662	668823	+
x	672855	671815	-
x	672874	673017	+
x	673033	672914	-
x	675904	676185	+
x	676186	676323	+
x	676320	676439	+
x	676342	676593	+
x	676373	676462	+
x	676440	676565	+
x	676756	676574	-
x	678626	678760	+
x	682815	682150	-
x	683133	682999	-
x	683124	682999	-
x	683340	685229	+
x	685321	685199	-
x	685354	685199	-
x	687346	687242	-
x	688036	688944	+
x	689929	689843	-
x	690786	690139	-
x	691171	690809	-
x	692056	692736	+
x	692711	694402	+
x	697982	695775	-
x	698139	697987	-
x	698387	698283	-
x	698500	698366	-
x	698506	698640	+
x	698766	698662	-
x	702023	699336	-
x	702609	702013	-
x	702597	702013	-
x	706434	704665	-
x	706427	706338	-
x	706541	706338	-
x	713220	713837	+
x	715752	714661	-
x	715969	715859	-
x	716233	715859	-
x	717646	717837	+
x	717977	717870	-
x	718358	718762	+
x	718552	718415	-
x	718645	718415	-
x	719091	720869	+
x	721944	722123	+
x	729542	729895	+
x	729551	729895	+
x	729623	729895	+
x	729656	729895	+
x	729785	729895	+
x	730086	729982	-
x	730027	730143	+
x	733737	733850	+
x	733943	734143	+
x	734703	735386	+
x	737278	738573	+
x	739159	738542	-
x	739162	738542	-
x	738584	739129	+
x	739796	739930	+
x	741085	742119	+
x	742172	742876	+
x	743911	744342	+
x	746605	745838	-
x	751093	750035	-
x	751063	750035	-
x	752796	751312	-
x	753763	753918	+
x	753854	754063	+
x	757523	756609	-
x	757529	756609	-
x	759376	758618	-
x	759633	759352	-
x	759488	759607	+
x	759552	759668	+
x	759775	760806	+
x	762474	764759	+
x	762735	764759	+
x	768270	766870	-
x	768222	766870	-
x	768102	766870	-
x	766936	767133	+
x	770385	771179	+
x	772153	772016	-
x	775437	774487	-
x	775455	774487	-
x	775742	775638	-
x	775711	776781	+
x	775717	776781	+
x	775759	776781	+
x	777548	777057	-
x	777775	778041	+
x	779399	779268	-
x	779515	780255	+
x	782463	782582	+
x	787745	785994	-
x	788718	787723	-
x	789404	788721	-
x	790732	791253	+
x	791199	791059	-
x	791484	791215	-
x	794801	794697	-
x	796994	796629	-
x	797692	796979	-
x	800138	800242	+
x	800256	800173	-
x	800679	800419	-
x	800865	801881	+
x	804130	801878	-
x	806601	806410	-
x	806822	806529	-
x	807483	806887	-
x	807659	807576	-
x	808924	809445	+
x	810037	809495	-
x	811102	811317	+
x	811478	811350	-
x	814218	813304	-
x	818995	817196	-
x	820533	819634	-
x	820592	821326	+
x	823947	824555	+
x	824434	826413	+
x	824524	826413	+
x	824542	826413	+
x	826175	827971	+
x	826277	827971	+
x	826490	827971	+
x	826757	827971	+
x	827126	827971	+
x	830252	832348	+
x	831455	832348	+
x	832443	833684	+
x	832458	833684	+
x	835236	835652	+
x	837507	836875	-
x	837727	838950	+
x	837739	838950	+
x	840602	840709	+
x	840664	841926	+
x	842245	841967	-
x	844268	843141	-
x	844412	843141	-
x	844403	844969	+
x	847778	847506	-
x	849919	850443	+
x	850400	850522	+
x	850648	851904	+
x	851918	853132	+
x	852101	853132	+
x	853142	853840	+
x	854040	854927	+
x	855002	855475	+
x	857454	856672	-
x	859592	859020	-
x	860596	859769	-
x	860503	859769	-
x	860655	860774	+
x	861254	860715	-
x	861101	860715	-
x	863552	862503	-
x	863579	862503	-
x	865120	863615	-
x	868919	867945	-
x	870583	868925	-
x	872816	872115	-
x	873178	873023	-
x	875841	874891	-
x	875847	874891	-
x	875952	876086	+
x	875971	877113	+
x	878712	879056	+
x	879383	879129	-
x	879511	879227	-
x	879503	879577	+
x	880012	882303	+
x	880021	882303	+
x	880171	882303	+
x	883726	884709	+
x	889855	890496	+
x	891519	892073	+
x	897071	897163	+
x	899467	898397	-
x	899482	898397	-
x	899430	899543	+
x	899852	900400	+
x	899855	900400	+
x	900646	904602	+
x	904761	905372	+
x	908490	908350	-
x	908962	908822	-
x	939687	939244	-
x	945749	946090	+
x	946160	947152	+
x	947539	949896	+
x	950463	951389	+
x	952150	951425	-
x	952334	952206	-
x	952282	952419	+
x	952389	953513	+
x	954377	953610	-
x	958075	956879	-
x	959911	958142	-
x	959935	958142	-
x	963526	964299	+
x	964395	964249	-
x	967416	967108	-
x	967559	969853	+
x	968944	969078	+
x	975483	975214	-
x	978061	978858	+
x	980131	980862	+
x	980158	980862	+
x	985595	987430	+
x	987602	988159	+
x	990072	990242	+
x	990245	990147	-
x	991670	991825	+
x	993394	991949	-
x	994768	993518	-
x	993536	993721	+
x	999199	998405	-
x	1001351	1000350	-
x	1002087	1003124	+
x	1003262	1003840	+
x	1010399	1012099	+
x	1010441	1012099	+
x	1012096	1012659	+
x	1012956	1012825	-
x	1012953	1012825	-
x	1012899	1013096	+
x	1013868	1013152	-
x	1013778	1013152	-
x	1015325	1013739	-
x	1017279	1016215	-
x	1017327	1016215	-
x	1017342	1016215	-
x	1017312	1016215	-
x	1017409	1017627	+
x	1017457	1017627	+
x	1018126	1017611	-
x	1021093	1018931	-
x	1021579	1023726	+
x	1024225	1023758	-
x	1025172	1025014	-
x	1025184	1025014	-
x	1025066	1025560	+
x	1025093	1025560	+
x	1025529	1025924	+
x	1025973	1025605	-
x	1027155	1025980	-
x	1027170	1025980	-
x	1027145	1027543	+
x	1027265	1027543	+
x	1027585	1027887	+
x	1028826	1029038	+
x	1031102	1030335	-
x	1031717	1030335	-
x	1030679	1030335	-
x	1033068	1032901	-
x	1033029	1032901	-
x	1033183	1033383	+
x	1033509	1033670	+
x	1033536	1033670	+
x	1033633	1033848	+
x	1034535	1034383	-
x	1034490	1034383	-
x	1036204	1036602	+
x	1036625	1037587	+
x	1036676	1037587	+
x	1036700	1037587	+
x	1039148	1039570	+
x	1041308	1041397	+
x	1041507	1041400	-
x	1041552	1041764	+
x	1041609	1041764	+
x	1041801	1041896	+
x	1042129	1041806	-
x	1041991	1041806	-
x	1041932	1042210	+
x	1042314	1043261	+
x	1043445	1043633	+
x	1043642	1044202	+
x	1044384	1044617	+
x	1044420	1044617	+
x	1044639	1044740	+
x	1045728	1045826	+
x	1048806	1049000	+
x	1048873	1049316	+
x	1049401	1049607	+
x	1049443	1049607	+
x	1050949	1051167	+
x	1051257	1051439	+
x	1051293	1051439	+
x	1051454	1051585	+
x	1051597	1052055	+
x	1051753	1052055	+
x	1051808	1051993	+
x	1051823	1051993	+
x	1053025	1053267	+
x	1053203	1055167	+
x	1053239	1055167	+
x	1053269	1055167	+
x	1053419	1055167	+
x	1054069	1053689	-
x	1053938	1055167	+
x	1055217	1055357	+
x	1058828	1058457	-
x	1060325	1060678	+
x	1062395	1062826	+
x	1062877	1063266	+
x	1062961	1063266	+
x	1066440	1066832	+
x	1066705	1067586	+
x	1066783	1067586	+
x	1066795	1067586	+
x	1066843	1067586	+
x	1066912	1067586	+
x	1066951	1067586	+
x	1067017	1067586	+
x	1067583	1068164	+
x	1067625	1068164	+
x	1068030	1068164	+
x	1068415	1071945	+
x	1068484	1071945	+
x	1068955	1071945	+
x	1069381	1071945	+
x	1069540	1071945	+
x	1075017	1074796	-
x	1075341	1075201	-
x	1075333	1076478	+
x	1079910	1080827	+
x	1080955	1082505	+
x	1083666	1083758	+
x	1083808	1085148	+
x	1083838	1085148	+
x	1085336	1085136	-
x	1085250	1085393	+
x	1085456	1085358	-
x	1085783	1086043	+
x	1085810	1086043	+
x	1085831	1086043	+
x	1085924	1086043	+
x	1085985	1086248	+
x	1086018	1086248	+
x	1086426	1086253	-
x	1086423	1086253	-
x	1090303	1087616	-
x	1089346	1087616	-
x	1090318	1087616	-
x	1090397	1090128	-
x	1092206	1093426	+
x	1095936	1096568	+
x	1096717	1096616	-
x	1096818	1096717	-
x	1096919	1096818	-
x	1099114	1099326	+
x	1099191	1099418	+
x	1099445	1099840	+
x	1099463	1099840	+
x	1099631	1099840	+
x	1101533	1100988	-
x	1102873	1101563	-
x	1103507	1103256	-
x	1103944	1103555	-
x	1103818	1103555	-
x	1103564	1103875	+
x	1104966	1104232	-
x	1104879	1104232	-
x	1108199	1107966	-
x	1120031	1120222	+
x	1125573	1126016	+
x	1127003	1127185	+
x	1127039	1127185	+
x	1127357	1127806	+
x	1127504	1127806	+
x	1127559	1127744	+
x	1127574	1127744	+
x	1134196	1134612	+
x	1143110	1144735	+
x	1144777	1146000	+
x	1146302	1146919	+
x	1147968	1148108	+
x	1164550	1164780	+
x	1164683	1164886	+
x	1164744	1164902	+
x	1164899	1165036	+
x	1166411	1164969	-
x	1166363	1164969	-
x	1165664	1164969	-
x	1165661	1164969	-
x	1166776	1166318	-
x	1166872	1166318	-
x	1166893	1166318	-
x	1168250	1167423	-
x	1169324	1168629	-
x	1169363	1168629	-
x	1170412	1169321	-
x	1170502	1169321	-
x	1170666	1171331	+
x	1175399	1171371	-
x	1175388	1175597	+
x	1175391	1175597	+
x	1175676	1175485	-
x	1175629	1175766	+
x	1177448	1177320	-
x	1177484	1178314	+
x	1181047	1180913	-
x	1181403	1182191	+
x	1182789	1183466	+
x	1184029	1184817	+
x	1186326	1186204	-
x	1186241	1186780	+
x	1186259	1186780	+
x	1189111	1188539	-
x	1189163	1189303	+
x	1189172	1189303	+
x	1189838	1189704	-
x	1189905	1190387	+
x	1191554	1191709	+
x	1192279	1193760	+
x	1192330	1193760	+
x	1195248	1195117	-
x	1195301	1196854	+
x	1195352	1196854	+
x	1196817	1199390	+
x	1196877	1199390	+
x	1199399	1199623	+
x	1200167	1199790	-
x	1200292	1200194	-
x	1201314	1200247	-
x	1201218	1200247	-
x	1201503	1201607	+
x	1202628	1201645	-
x	1202736	1203842	+
x	1205041	1204463	-
x	1205104	1204463	-
x	1204529	1204696	+
x	1205019	1205165	+
x	1205403	1205290	-
x	1205430	1205290	-
x	1206941	1206684	-
x	1209316	1208699	-
x	1211342	1210104	-
x	1213868	1213761	-
x	1221532	1222245	+
x	1221538	1222245	+
x	1222254	1223354	+
x	1223324	1224295	+
x	1230340	1227164	-
x	1230430	1230804	+
x	1230484	1230804	+
x	1232616	1231993	-
x	1232589	1231993	-
x	1232711	1232589	-
x	1232718	1232623	-
x	1233633	1234673	+
x	1237824	1237543	-
x	1237917	1237543	-
x	1240074	1240226	+
x	1240306	1241115	+
x	1242698	1243555	+
x	1247322	1245343	-
x	1247403	1245343	-
x	1247735	1247565	-
x	1247848	1248225	+
x	1248252	1248605	+
x	1248616	1249260	+
x	1249280	1250065	+
x	1250088	1251101	+
x	1251067	1251666	+
x	1252038	1253369	+
x	1252089	1253369	+
x	1252122	1253369	+
x	1253470	1253366	-
x	1253557	1254135	+
x	1253608	1254135	+
x	1254907	1254197	-
x	1256375	1255410	-
x	1256369	1255410	-
x	1256543	1255410	-
x	1260009	1256515	-
x	1260024	1256515	-
x	1260436	1260089	-
x	1262478	1263317	+
x	1262631	1263317	+
x	1262673	1263317	+
x	1263323	1264561	+
x	1265628	1266338	+
x	1266991	1266464	-
x	1267719	1267249	-
x	1267752	1267249	-
x	1270459	1269602	-
x	1271773	1271558	-
x	1271787	1273055	+
x	1271976	1273055	+
x	1272519	1273055	+
x	1274234	1273104	-
x	1275509	1274301	-
x	1275683	1274301	-
x	1278622	1277975	-
x	1279803	1278652	-
x	1280906	1280283	-
x	1280856	1280978	+
x	1282205	1281024	-
x	1281137	1281024	-
x	1282206	1282358	+
x	1283172	1282795	-
x	1283004	1282795	-
x	1283190	1282795	-
x	1283444	1283217	-
x	1283521	1283309	-
x	1283761	1283543	-
x	1285531	1283543	-
x	1284915	1285169	+
x	1286203	1285751	-
x	1286440	1286652	+
x	1286517	1286744	+
x	1286771	1287166	+
x	1286789	1287166	+
x	1286957	1287166	+
x	1289277	1288837	-
x	1290061	1289207	-
x	1294556	1294389	-
x	1294595	1294747	+
x	1294956	1294831	-
x	1296427	1296275	-
x	1297859	1296570	-
x	1298480	1298307	-
x	1298490	1298645	+
x	1299119	1299301	+
x	1299125	1299301	+
x	1299641	1300492	+
x	1299773	1300492	+
x	1299812	1300492	+
x	1300588	1300842	+
x	1301903	1302085	+
x	1302357	1302758	+
x	1303152	1302817	-
x	1303500	1303156	-
x	1303440	1303156	-
x	1303675	1303502	-
x	1303776	1303961	+
x	1303977	1304150	+
x	1304093	1304419	+
x	1304207	1304419	+
x	1304465	1304650	+
x	1304540	1304650	+
x	1306608	1305898	-
x	1306733	1306960	+
x	1307122	1307481	+
x	1308031	1308150	+
x	1308244	1308537	+
x	1309330	1309806	+
x	1309345	1309806	+
x	1309803	1309946	+
x	1310300	1310013	-
x	1312867	1312331	-
x	1314602	1313007	-
x	1315602	1315477	-
x	1317508	1318812	+
x	1321559	1319949	-
x	1322667	1322855	+
x	1322680	1323405	+
x	1322800	1323405	+
x	1324309	1324596	+
x	1326616	1324646	-
x	1327716	1327435	-
x	1328200	1327493	-
x	1328246	1328395	+
x	1329211	1328315	-
x	1329966	1329070	-
x	1331072	1330050	-
x	1332665	1331409	-
x	1333106	1332738	-
x	1333051	1333266	+
x	1333120	1333266	+
x	1333398	1333285	-
x	1334849	1333425	-
x	1334846	1333425	-
x	1335561	1334854	-
x	1335564	1334854	-
x	1336597	1335497	-
x	1336786	1338714	+
x	1340710	1340327	-
x	1343174	1341522	-
x	1343229	1343107	-
x	1344339	1343326	-
x	1351488	1350526	-
x	1351472	1351693	+
x	1351699	1351568	-
x	1351702	1351568	-
x	1351842	1351672	-
x	1353267	1352080	-
x	1353743	1353444	-
x	1353495	1353680	+
x	1353802	1354533	+
x	1353838	1354533	+
x	1355115	1356509	+
x	1357226	1356510	-
x	1359282	1360679	+
x	1369239	1369526	+
x	1369362	1369261	-
x	1369350	1369261	-
x	1371151	1370672	-
x	1371031	1370672	-
x	1371243	1372148	+
x	1372327	1373253	+
x	1374471	1374824	+
x	1375140	1375012	-
x	1381415	1381570	+
x	1381842	1381546	-
x	1381707	1381546	-
x	1382054	1383757	+
x	1382081	1383757	+
x	1384781	1385686	+
x	1388172	1387765	-
x	1388100	1387765	-
x	1389699	1389905	+
x	1389732	1389905	+
x	1389753	1389905	+
x	1391168	1389960	-
x	1391231	1389960	-
x	1391815	1391513	-
x	1391905	1391513	-
x	1392018	1392749	+
x	1392033	1392749	+
x	1392460	1392215	-
x	1394882	1395598	+
x	1394912	1395598	+
x	1397409	1397065	-
x	1397822	1397427	-
x	1397636	1397427	-
x	1397804	1397427	-
x	1398076	1397849	-
x	1398153	1397941	-
x	1399046	1399264	+
x	1399248	1399057	-
x	1399085	1399264	+
x	1399523	1399678	+
x	1399717	1399833	+
x	1399898	1400146	+
x	1400213	1400491	+
x	1400595	1401542	+
x	1401548	1401748	+
x	1402938	1403171	+
x	1402974	1403171	+
x	1403193	1403294	+
x	1407942	1408124	+
x	1408009	1408452	+
x	1408537	1408743	+
x	1408579	1408743	+
x	1410156	1410392	+
x	1410463	1410597	+
x	1410502	1410597	+
x	1410600	1410731	+
x	1410635	1410850	+
x	1410950	1411444	+
x	1410968	1411444	+
x	1411170	1411355	+
x	1411185	1411355	+
x	1411662	1411901	+
x	1412004	1412336	+
x	1412010	1412336	+
x	1412973	1412680	-
x	1413120	1413251	+
x	1413202	1413303	+
x	1415847	1417589	+
x	1417056	1417589	+
x	1417092	1417589	+
x	1417665	1417850	+
x	1418614	1419165	+
x	1420811	1421068	+
x	1420865	1421068	+
x	1421065	1421511	+
x	1421245	1421511	+
x	1423111	1423320	+
x	1423117	1423320	+
x	1426434	1426610	+
x	1428510	1429208	+
x	1428816	1429208	+
x	1429081	1429962	+
x	1429159	1429962	+
x	1429171	1429962	+
x	1429219	1429962	+
x	1429288	1429962	+
x	1429327	1429962	+
x	1429393	1429962	+
x	1429959	1430540	+
x	1430001	1430540	+
x	1430406	1430540	+
x	1430791	1431837	+
x	1430857	1431837	+
x	1432967	1433182	+
x	1440132	1438771	-
x	1441988	1441728	-
x	1443645	1443493	-
x	1443585	1444445	+
x	1444406	1445062	+
x	1445090	1446979	+
x	1449660	1449496	-
x	1450691	1450783	+
x	1451053	1451265	+
x	1451113	1451265	+
x	1451346	1453985	+
x	1455488	1455628	+
x	1455500	1455628	+
x	1455619	1455798	+
x	1455631	1455798	+
x	1455997	1455872	-
x	1459548	1458895	-
x	1462225	1462076	-
x	1462231	1462076	-
x	1462228	1462076	-
x	1462184	1462981	+
x	1462978	1463307	+
x	1463331	1463483	+
x	1464639	1463920	-
x	1464932	1464759	-
x	1467038	1465080	-
x	1470503	1469298	-
x	1470561	1470454	-
x	1471373	1471477	+
x	1471520	1471660	+
x	1472081	1471695	-
x	1471815	1472402	+
x	1471836	1472402	+
x	1472551	1473672	+
x	1473641	1473784	+
x	1473776	1473648	-
x	1473762	1476779	+
x	1476612	1476779	+
x	1477720	1478028	+
x	1478888	1479328	+
x	1484634	1483015	-
x	1484901	1484761	-
x	1484864	1484989	+
x	1485342	1485232	-
x	1486635	1485643	-
x	1488893	1490599	+
x	1489295	1490599	+
x	1489619	1490599	+
x	1490614	1490414	-
x	1490704	1490414	-
x	1491291	1491905	+
x	1491294	1491905	+
x	1494729	1495526	+
x	1495548	1496591	+
x	1499867	1500607	+
x	1500494	1500607	+
x	1500601	1501557	+
x	1505339	1506907	+
x	1507534	1508541	+
x	1509244	1508516	-
x	1511081	1510959	-
x	1512289	1512414	+
x	1512510	1512400	-
x	1512516	1514150	+
x	1517694	1516885	-
x	1517679	1516885	-
x	1518507	1518358	-
x	1519397	1518879	-
x	1519526	1518879	-
x	1519791	1520819	+
x	1520819	1522330	+
x	1521932	1522330	+
x	1522206	1522078	-
x	1524401	1523109	-
x	1525752	1525648	-
x	1525673	1525891	+
x	1526045	1525809	-
x	1528392	1527559	-
x	1528776	1528546	-
x	1528686	1528546	-
x	1530585	1530364	-
x	1531327	1530821	-
x	1536560	1536429	-
x	1536825	1536490	-
x	1536606	1536490	-
x	1536930	1536490	-
x	1536804	1536959	+
x	1536834	1536959	+
x	1537390	1536956	-
x	1541440	1541841	+
x	1541467	1541841	+
x	1541482	1541841	+
x	1541509	1541841	+
x	1541512	1541841	+
x	1551039	1551113	+
x	1551141	1555043	+
x	1555412	1556116	+
x	1558948	1559514	+
x	1560089	1560559	+
x	1560104	1560559	+
x	1560200	1560559	+
x	1561661	1560597	-
x	1562556	1563080	+
x	1563305	1564960	+
x	1563341	1564960	+
x	1565094	1565324	+
x	1565157	1565324	+
x	1565372	1565926	+
x	1566914	1568014	+
x	1567010	1568014	+
x	1568756	1568875	+
x	1569016	1568888	-
x	1570782	1569610	-
x	1571441	1573444	+
x	1573706	1573536	-
x	1573951	1573823	-
x	1573978	1574181	+
x	1573984	1574181	+
x	1581372	1581256	-
x	1581290	1581499	+
x	1581296	1581499	+
x	1581451	1581356	-
x	1581728	1581435	-
x	1581600	1581821	+
x	1581648	1581821	+
x	1581776	1581880	+
x	1583168	1582587	-
x	1585689	1585784	+
x	1588656	1587106	-
x	1588650	1587106	-
x	1588675	1588824	+
x	1588872	1589048	+
x	1589161	1589490	+
x	1590059	1589910	-
x	1590471	1592738	+
x	1592698	1593519	+
x	1592728	1593519	+
x	1593861	1594328	+
x	1594441	1594584	+
x	1595637	1595194	-
x	1604592	1600765	-
x	1604628	1600765	-
x	1606006	1604600	-
x	1607142	1606261	-
x	1607463	1607269	-
x	1607374	1607961	+
x	1608618	1607548	-
x	1608010	1610421	+
x	1611339	1610398	-
x	1611342	1610398	-
x	1610440	1611318	+
x	1611293	1611964	+
x	1611326	1611964	+
x	1612153	1612085	-
x	1612163	1612435	+
x	1612473	1612189	-
x	1612646	1612473	-
x	1612745	1612473	-
x	1612674	1612838	+
x	1613977	1612937	-
x	1615805	1614081	-
x	1616072	1615935	-
x	1616452	1616174	-
x	1616556	1616696	+
x	1616815	1617165	+
x	1617293	1617147	-
x	1618458	1617355	-
x	1619778	1617355	-
x	1620023	1619850	-
x	1621535	1620321	-
x	1621475	1620321	-
x	1624754	1623462	-
x	1624931	1623462	-
x	1625016	1624873	-
x	1626233	1625223	-
x	1626077	1625223	-
x	1627659	1626487	-
x	1627803	1627696	-
x	1629411	1627696	-
x	1629315	1627696	-
x	1630799	1630617	-
x	1630814	1630617	-
x	1636866	1635538	-
x	1636593	1635538	-
x	1636917	1635538	-
x	1636560	1635538	-
x	1636098	1635538	-
x	1637144	1636860	-
x	1638170	1638370	+
x	1641380	1639968	-
x	1642416	1642535	+
x	1642759	1642637	-
x	1644826	1645203	+
x	1645218	1645607	+
x	1647359	1645914	-
x	1647353	1645914	-
x	1648757	1647837	-
x	1648637	1647837	-
x	1650245	1650340	+
x	1650967	1650560	-
x	1651456	1650560	-
x	1651859	1651704	-
x	1651865	1651704	-
x	1654068	1651957	-
x	1654124	1654885	+
x	1656067	1655795	-
x	1657873	1657625	-
x	1660214	1660546	+
x	1660235	1660546	+
x	1673362	1669901	-
x	1672306	1669901	-
x	1672891	1669901	-
x	1672465	1669901	-
x	1674210	1673671	-
x	1673805	1673671	-
x	1674252	1673671	-
x	1674923	1674249	-
x	1674884	1674249	-
x	1674818	1674249	-
x	1677808	1677110	-
x	1677502	1677110	-
x	1679885	1679709	-
x	1683695	1683492	-
x	1683701	1683492	-
x	1684171	1683797	-
x	1685576	1685310	-
x	1686010	1685753	-
x	1685956	1685753	-
x	1688207	1687656	-
x	1689156	1688971	-
x	1689765	1689232	-
x	1689729	1689232	-
x	1690974	1689232	-
x	1694151	1694351	+
x	1694815	1694483	-
x	1694809	1694483	-
x	1695425	1695243	-
x	1695994	1695497	-
x	1697318	1696869	-
x	1697171	1696869	-
x	1697336	1696869	-
x	1697101	1696931	-
x	1697116	1696931	-
x	1697651	1697436	-
x	1697686	1697555	-
x	1697784	1697689	-
x	1698901	1698665	-
x	1700281	1700150	-
x	1700323	1700150	-
x	1700851	1700408	-
x	1700918	1700736	-
x	1703836	1703573	-
x	1704335	1704102	-
x	1704299	1704102	-
x	1705425	1704742	-
x	1705788	1705588	-
x	1706741	1705794	-
x	1707123	1706845	-
x	1706926	1707030	+
x	1707254	1707159	-
x	1707446	1707291	-
x	1707503	1707291	-
x	1707548	1707655	+
x	1708348	1707683	-
x	1708918	1708523	-
x	1708882	1708523	-
x	1709659	1708934	-
x	1709479	1708934	-
x	1710154	1709693	-
x	1710286	1709693	-
x	1710115	1709693	-
x	1711187	1710147	-
x	1711654	1711256	-
x	1712731	1712883	+
x	1712776	1712883	+
x	1714223	1714020	-
x	1714317	1714505	+
x	1714377	1714505	+
x	1716188	1716955	+
x	1716611	1716955	+
x	1717027	1717278	+
x	1717042	1717278	+
x	1717141	1717278	+
x	1717313	1718593	+
x	1718126	1718593	+
x	1718171	1718593	+
x	1718330	1718593	+
x	1719824	1718781	-
x	1721059	1719812	-
x	1721568	1721233	-
x	1723379	1722633	-
x	1723409	1723756	+
x	1723448	1723756	+
x	1723955	1725943	+
x	1726438	1728864	+
x	1726468	1728864	+
x	1727332	1728864	+
x	1729254	1730348	+
x	1729619	1729473	-
x	1730382	1731005	+
x	1731026	1731133	+
x	1731140	1732456	+
x	1731164	1732456	+
x	1733116	1732409	-
x	1737006	1736887	-
x	1737235	1737570	+
x	1737256	1737570	+
x	1737284	1737661	+
x	1737298	1737570	+
x	1737663	1737746	+
x	1739664	1739494	-
x	1742525	1740996	-
x	1742474	1740996	-
x	1743561	1743289	-
x	1743981	1744262	+
x	1744357	1744019	-
x	1746124	1745567	-
x	1747336	1746179	-
x	1747861	1747637	-
x	1748251	1748003	-
x	1750970	1751257	+
x	1751526	1751284	-
x	1752349	1751885	-
x	1752055	1751885	-
x	1752539	1752342	-
x	1754167	1753430	-
x	1753782	1753955	+
x	1754188	1754358	+
x	1756005	1754788	-
x	1755732	1754788	-
x	1760109	1758523	-
x	1760479	1760589	+
x	1761682	1763091	+
x	1764251	1765030	+
x	1764275	1765030	+
x	1764311	1765030	+
x	1765160	1766335	+
x	1766399	1767340	+
x	1774804	1773557	-
x	1773778	1773557	-
x	1777343	1776231	-
x	1779017	1778430	-
x	1779008	1778430	-
x	1781127	1782923	+
x	1786325	1785246	-
x	1786499	1786654	+
x	1786517	1786654	+
x	1786529	1786654	+
x	1787205	1787669	+
x	1794169	1794369	+
x	1797769	1796909	-
x	1799117	1797831	-
x	1800272	1799949	-
x	1800197	1799949	-
x	1802851	1802732	-
x	1802917	1803144	+
x	1803105	1804004	+
x	1803138	1804004	+
x	1803234	1804004	+
x	1804025	1806016	+
x	1806589	1806017	-
x	1806553	1806017	-
x	1807941	1807564	-
x	1807974	1807564	-
x	1807803	1807564	-
x	1807572	1807694	+
x	1807575	1807694	+
x	1807906	1808505	+
x	1811018	1810908	-
x	1811082	1810939	-
x	1810970	1811113	+
x	1811831	1811721	-
x	1815067	1814948	-
x	1815037	1814948	-
x	1815124	1815348	+
x	1823916	1823821	-
x	1824040	1824411	+
x	1824058	1824411	+
x	1825874	1826227	+
x	1827003	1826239	-
x	1828556	1827837	-
x	1829207	1828569	-
x	1831998	1832135	+
x	1832596	1832426	-
x	1832747	1832875	+
x	1832977	1834605	+
x	1841542	1840016	-
x	1841874	1841512	-
x	1842617	1842429	-
x	1846901	1847506	+
x	1847872	1847696	-
x	1847908	1848291	+
x	1848424	1849605	+
x	1848451	1849605	+
x	1849826	1851097	+
x	1854669	1854292	-
x	1854501	1854292	-
x	1854941	1854714	-
x	1855018	1854806	-
x	1855240	1856445	+
x	1855291	1856445	+
x	1857616	1858479	+
x	1857694	1858479	+
x	1861128	1862774	+
x	1865430	1865263	-
x	1867683	1867901	+
x	1868432	1868533	+
x	1871643	1870906	-
x	1873273	1873145	-
x	1877050	1876055	-
x	1877118	1877426	+
x	1877247	1877152	-
x	1877362	1877228	-
x	1877967	1878578	+
x	1878626	1878192	-
x	1880606	1878738	-
x	1881189	1881428	+
x	1881352	1881624	+
x	1881673	1882113	+
x	1881736	1882113	+
x	1882320	1882225	-
x	1882280	1882498	+
x	1882376	1882498	+
x	1882391	1882498	+
x	1883449	1883556	+
x	1883592	1884524	+
x	1887424	1888026	+
x	1888086	1887958	-
x	1889839	1889597	-
x	1889851	1889597	-
x	1890184	1890026	-
x	1894542	1893121	-
x	1895416	1894577	-
x	1895774	1895427	-
x	1897872	1897612	-
x	1900972	1900334	-
x	1901100	1901588	+
x	1901732	1901833	+
x	1904181	1904327	+
x	1905415	1904228	-
x	1906734	1905703	-
x	1908217	1908387	+
x	1908388	1909206	+
x	1909325	1910083	+
x	1909926	1910765	+
x	1910782	1911486	+
x	1913159	1914718	+
x	1913183	1914718	+
x	1913216	1914718	+
x	1914631	1915371	+
x	1914685	1915371	+
x	1915423	1916745	+
x	1915672	1916745	+
x	1917380	1916754	-
x	1918106	1917834	-
x	1918304	1918191	-
x	1921717	1919762	-
x	1922771	1921722	-
x	1923451	1922882	-
x	1923582	1925450	+
x	1925665	1926633	+
x	1926626	1927285	+
x	1928628	1927378	-
x	1928805	1927378	-
x	1930729	1930085	-
x	1931506	1930739	-
x	1931707	1930739	-
x	1933525	1932548	-
x	1933552	1932548	-
x	1935024	1934872	-
x	1936777	1936460	-
x	1937217	1936774	-
x	1937139	1936774	-
x	1937520	1938524	+
x	1938587	1939492	+
x	1940442	1939543	-
x	1941353	1941454	+
x	1941795	1943603	+
x	1945278	1946621	+
x	1945287	1946621	+
x	1948943	1948839	-
x	1948932	1949120	+
x	1950334	1949516	-
x	1950325	1949516	-
x	1950489	1950349	-
x	1950494	1951615	+
x	1951649	1952017	+
x	1952277	1952020	-
x	1952347	1953501	+
x	1953519	1953632	+
x	1953534	1953632	+
x	1953593	1953709	+
x	1953635	1953709	+
x	1954147	1954028	-
x	1954150	1954028	-
x	1954182	1954673	+
x	1954574	1954350	-
x	1954680	1954814	+
x	1955803	1955973	+
x	1957178	1956063	-
x	1958978	1957260	-
x	1959011	1957260	-
x	1962853	1962467	-
x	1962829	1962467	-
x	1962518	1962910	+
x	1962563	1962910	+
x	1963308	1963631	+
x	1963332	1963631	+
x	1963748	1963912	+
x	1967523	1967651	+
x	1967596	1969224	+
x	1967617	1969224	+
x	1971026	1970772	-
x	1970981	1970772	-
x	1973139	1972378	-
x	1973095	1973946	+
x	1974834	1975454	+
x	1976390	1976677	+
x	1976753	1976959	+
x	1977714	1977406	-
x	1977817	1978005	+
x	1979365	1980849	+
x	1981773	1980895	-
x	1982011	1981871	-
x	1984010	1981968	-
x	1983887	1981968	-
x	1984155	1984036	-
x	1985328	1984831	-
x	1985277	1984831	-
x	1985503	1986741	+
x	1986668	1989343	+
x	1986704	1989343	+
x	1986722	1989343	+
x	1989417	1990862	+
x	1990965	1991216	+
x	1991321	1991512	+
x	1992172	1991513	-
x	1992902	1992564	-
x	1994220	1994537	+
x	1994870	1995295	+
x	1998123	1998725	+
x	1998965	1999075	+
x	1999588	1999232	-
x	2003855	2001978	-
x	2003752	2003910	+
x	2005814	2005665	-
x	2005784	2005665	-
x	2006693	2008276	+
x	2010757	2009498	-
x	2011822	2010836	-
x	2011783	2010836	-
x	2011894	2010836	-
x	2016562	2016038	-
x	2019865	2019770	-
x	2033649	2030659	-
x	2034120	2030659	-
x	2033064	2030659	-
x	2033223	2030659	-
x	2034189	2030659	-
x	2034578	2034444	-
x	2035025	2034444	-
x	2034983	2034444	-
x	2035813	2035022	-
x	2035657	2035022	-
x	2035765	2035022	-
x	2035825	2035022	-
x	2035591	2035022	-
x	2035903	2035022	-
x	2035696	2035022	-
x	2036168	2035776	-
x	2037564	2036800	-
x	2039743	2039354	-
x	2039659	2039354	-
x	2040868	2040239	-
x	2040901	2040239	-
x	2040844	2040239	-
x	2042711	2042328	-
x	2043846	2044217	+
x	2047457	2047317	-
x	2048736	2047507	-
x	2049255	2047507	-
x	2049405	2047507	-
x	2049471	2047507	-
x	2049435	2047507	-
x	2048605	2048892	+
x	2049649	2049407	-
x	2051068	2050592	-
x	2050851	2050681	-
x	2050866	2050681	-
x	2051225	2051088	-
x	2051186	2051088	-
x	2051155	2051442	+
x	2051536	2051318	-
x	2053042	2052878	-
x	2053084	2052878	-
x	2055905	2055621	-
x	2055818	2055621	-
x	2055854	2055621	-
x	2056415	2056023	-
x	2057350	2056433	-
x	2057020	2056433	-
x	2057422	2056433	-
x	2057386	2056433	-
x	2058245	2057430	-
x	2059776	2059123	-
x	2060264	2059776	-
x	2063877	2064524	+
x	2064605	2064859	+
x	2064990	2064622	-
x	2067377	2067601	+
x	2068952	2069194	+
x	2071733	2072158	+
x	2071805	2072158	+
x	2076393	2073946	-
x	2077537	2077406	-
x	2078328	2077888	-
x	2079220	2078648	-
x	2079396	2079283	-
x	2081584	2081216	-
x	2081452	2081216	-
x	2083761	2081608	-
x	2085690	2085016	-
x	2088235	2088113	-
x	2088232	2088113	-
x	2089960	2088278	-
x	2092566	2090608	-
x	2092626	2090608	-
x	2092611	2090608	-
x	2094737	2094591	-
x	2095445	2095095	-
x	2095561	2095445	-
x	2095574	2095476	-
x	2095760	2095731	-
x	2098093	2096660	-
x	2098916	2098059	-
x	2100012	2099026	-
x	2099733	2099026	-
x	2099697	2099026	-
x	2101586	2100027	-
x	2102594	2101611	-
x	2103656	2103261	-
x	2103638	2103261	-
x	2103470	2103261	-
x	2103910	2103683	-
x	2103987	2103775	-
x	2104687	2105025	+
x	2104753	2105025	+
x	2105262	2105116	-
x	2105202	2105116	-
x	2105336	2105223	-
x	2105492	2105349	-
x	2105534	2105788	+
x	2105934	2105794	-
x	2105910	2105794	-
x	2105944	2106456	+
x	2106970	2106872	-
x	2107401	2108135	+
x	2111883	2110117	-
x	2112455	2111946	-
x	2112566	2111946	-
x	2112744	2112860	+
x	2112969	2112841	-
x	2112898	2113074	+
x	2114087	2113353	-
x	2116096	2115737	-
x	2116819	2115737	-
x	2117685	2116828	-
x	2118303	2117716	-
x	2119002	2118313	-
x	2120912	2122324	+
x	2125129	2124713	-
x	2127380	2127526	+
x	2128714	2127566	-
x	2127992	2128123	+
x	2128849	2129001	+
x	2129092	2129274	+
x	2129946	2129788	-
x	2131134	2131256	+
x	2132184	2131687	-
x	2132040	2131687	-
x	2132019	2131687	-
x	2132697	2132353	-
x	2132861	2132712	-
x	2135615	2134686	-
x	2135500	2136207	+
x	2139695	2140744	+
x	2141239	2141117	-
x	2141154	2141522	+
x	2142569	2142967	+
x	2142612	2143331	+
x	2144321	2144596	+
x	2144923	2144573	-
x	2144836	2144573	-
x	2144872	2144573	-
x	2144624	2144866	+
x	2144636	2144866	+
x	2144912	2145022	+
x	2147652	2145976	-
x	2147685	2145976	-
x	2149013	2148102	-
x	2153074	2152772	-
x	2153155	2152772	-
x	2153139	2153246	+
x	2153320	2153448	+
x	2153672	2154775	+
x	2153702	2154775	+
x	2154943	2154776	-
x	2154856	2155206	+
x	2155220	2154984	-
x	2155106	2154984	-
x	2155187	2154984	-
x	2155203	2155346	+
x	2158466	2157684	-
x	2158403	2157684	-
x	2159379	2160014	+
x	2160886	2161557	+
x	2161870	2162430	+
x	2162453	2162695	+
x	2163144	2163980	+
x	2164537	2165580	+
x	2164618	2165580	+
x	2168386	2167106	-
x	2168494	2167106	-
x	2170181	2168379	-
x	2171880	2170168	-
x	2173287	2179394	+
x	2179491	2188973	+
x	2188970	2190070	+
x	2188973	2190070	+
x	2190174	2190040	-
x	2190082	2190870	+
x	2190214	2190870	+
x	2192167	2192451	+
x	2192457	2192188	-
x	2210642	2212501	+
x	2222462	2222611	+
x	2222577	2229728	+
x	2222652	2229728	+
x	2230610	2230338	-
x	2230919	2230338	-
x	2231042	2230338	-
x	2231071	2231229	+
x	2232619	2234229	+
x	2232727	2234229	+
x	2235512	2235333	-
x	2235629	2235333	-
x	2235542	2235333	-
x	2235498	2235379	-
x	2237371	2235917	-
x	2236774	2235917	-
x	2237404	2235917	-
x	2236522	2235917	-
x	2236141	2235917	-
x	2237557	2235917	-
x	2236240	2235917	-
x	2269004	2268057	-
x	2270367	2269432	-
x	2272299	2271520	-
x	2273079	2272957	-
x	2273580	2273473	-
x	2273916	2273827	-
x	2275358	2275242	-
x	2276354	2276040	-
x	2276740	2277687	+
x	2278597	2279481	+
x	2279688	2280518	+
x	2280671	2280558	-
x	2280886	2280662	-
x	2280752	2280871	+
x	2281091	2280930	-
x	2281538	2281170	-
x	2282153	2281170	-
x	2282027	2281170	-
x	2282159	2282410	+
x	2282549	2282211	-
x	2283327	2282833	-
x	2283069	2282833	-
x	2283629	2283228	-
x	2283595	2284110	+
x	2284458	2283889	-
x	2284658	2284858	+
x	2285369	2285653	+
x	2286322	2285771	-
x	2286178	2285771	-
x	2286694	2285771	-
x	2286215	2286706	+
x	2286230	2286706	+
x	2287139	2287432	+
x	2287166	2287432	+
x	2287184	2287432	+
x	2287271	2287432	+
x	2287289	2287432	+
x	2287521	2287784	+
x	2287891	2288031	+
x	2287894	2288031	+
x	2288096	2288212	+
x	2288099	2288212	+
x	2288764	2288883	+
x	2289313	2288984	-
x	2289398	2289520	+
x	2289404	2289520	+
x	2289907	2289485	-
x	2292299	2291334	-
x	2292506	2291334	-
x	2292377	2291334	-
x	2292427	2292585	+
x	2292661	2294136	+
x	2295424	2294420	-
x	2295469	2294420	-
x	2295626	2295513	-
x	2296112	2295657	-
x	2297021	2295657	-
x	2298232	2297282	-
x	2299154	2299360	+
x	2299664	2300602	+
x	2300599	2301912	+
x	2300671	2301912	+
x	2304633	2305373	+
x	2307810	2306833	-
x	2307813	2306833	-
x	2320845	2320750	-
x	2327325	2327092	-
x	2327144	2327470	+
x	2327240	2327470	+
x	2327336	2327470	+
x	2331803	2330385	-
x	2331781	2331939	+
x	2331844	2331939	+
x	2331851	2332027	+
x	2332009	2331911	-
x	2333867	2333475	-
x	2335177	2334695	-
x	2339903	2338614	-
x	2339855	2338614	-
x	2344704	2342506	-
x	2346166	2345120	-
x	2345623	2345120	-
x	2346223	2345120	-
x	2346852	2348501	+
x	2346879	2348501	+
x	2352027	2351323	-
x	2352018	2351323	-
x	2352792	2355599	+
x	2353224	2355599	+
x	2356686	2356612	-
x	2356636	2358051	+
x	2359839	2358064	-
x	2359971	2358064	-
x	2360166	2360056	-
x	2361416	2360736	-
x	2361658	2361494	-
x	2362725	2362871	+
x	2362743	2362871	+
x	2362894	2364288	+
x	2362921	2364288	+
x	2363080	2364288	+
x	2374164	2374535	+
x	2375241	2374660	-
x	2375265	2374660	-
x	2375634	2375326	-
x	2377434	2375326	-
x	2377939	2377445	-
x	2381301	2381164	-
x	2381751	2381497	-
x	2386012	2385893	-
x	2385976	2386365	+
x	2388118	2388255	+
x	2389413	2388829	-
x	2389419	2388829	-
x	2394822	2393953	-
x	2395845	2395210	-
x	2397062	2396937	-
x	2397414	2397082	-
x	2397357	2397082	-
x	2397815	2398525	+
x	2398913	2398536	-
x	2398745	2398536	-
x	2399185	2398958	-
x	2399262	2399050	-
x	2402878	2402051	-
x	2406178	2406516	+
x	2410143	2407648	-
x	2411396	2410899	-
x	2413418	2412279	-
x	2413511	2415553	+
x	2418166	2419482	+
x	2419771	2423124	+
x	2421748	2423124	+
x	2423261	2423371	+
x	2423648	2423559	-
x	2424015	2425169	+
x	2425105	2427459	+
x	2426728	2427459	+
x	2427242	2428588	+
x	2427389	2428588	+
x	2430352	2430588	+
x	2430701	2431174	+
x	2431742	2431215	-
x	2432466	2431732	-
x	2434148	2432448	-
x	2434222	2434350	+
x	2434355	2434423	+
x	2434392	2434532	+
x	2447717	2444256	-
x	2446661	2444256	-
x	2447246	2444256	-
x	2446820	2444256	-
x	2448160	2448026	-
x	2448607	2448026	-
x	2448565	2448026	-
x	2449278	2448604	-
x	2449239	2448604	-
x	2449173	2448604	-
x	2451857	2451465	-
x	2452163	2451465	-
x	2454240	2454064	-
x	2458050	2457847	-
x	2458056	2457847	-
x	2458526	2458152	-
x	2459931	2459665	-
x	2460365	2460108	-
x	2460311	2460108	-
x	2462562	2462011	-
x	2463511	2463326	-
x	2464120	2463587	-
x	2464084	2463587	-
x	2465329	2463587	-
x	2468506	2468706	+
x	2469164	2468838	-
x	2469170	2468838	-
x	2469780	2469598	-
x	2470349	2469852	-
x	2471691	2471224	-
x	2471673	2471224	-
x	2471526	2471224	-
x	2471456	2471286	-
x	2471471	2471286	-
x	2472006	2471791	-
x	2472041	2471910	-
x	2472139	2472044	-
x	2473256	2473020	-
x	2474571	2474407	-
x	2474613	2474407	-
x	2475208	2475014	-
x	2477316	2477465	+
x	2477591	2477926	+
x	2478374	2478222	-
x	2478814	2478383	-
x	2478877	2478383	-
x	2478726	2478526	-
x	2479883	2479683	-
x	2479880	2479683	-
x	2480644	2480288	-
x	2482259	2482077	-
x	2482783	2482256	-
x	2483226	2482780	-
x	2483313	2482780	-
x	2483419	2483183	-
x	2483904	2483731	-
x	2484455	2484018	-
x	2485090	2484716	-
x	2486344	2486126	-
x	2486462	2487100	+
x	2488736	2488569	-
x	2488708	2488980	+
x	2489042	2489665	+
x	2489890	2490030	+
x	2490023	2490166	+
x	2490593	2491327	+
x	2490680	2491327	+
x	2491615	2492004	+
x	2491995	2491684	-
x	2491741	2492004	+
x	2491995	2492159	+
x	2492001	2492159	+
x	2492916	2493131	+
x	2493134	2493223	+
x	2494145	2494336	+
x	2495258	2495500	+
x	2495504	2495638	+
x	2495771	2495911	+
x	2496821	2497231	+
x	2498013	2498120	+
x	2502020	2501868	-
x	2504396	2502027	-
x	2504325	2504483	+
x	2504487	2506235	+
x	2504529	2506235	+
x	2507215	2506274	-
x	2507407	2507285	-
x	2507991	2507380	-
x	2508101	2508715	+
x	2509221	2508835	-
x	2511166	2509649	-
x	2510845	2509649	-
x	2511085	2509649	-
x	2511175	2509649	-
x	2511013	2509649	-
x	2511309	2511392	+
x	2511521	2511417	-
x	2513138	2512941	-
x	2514116	2513166	-
x	2514319	2514753	+
x	2514753	2515445	+
x	2516432	2516304	-
x	2517989	2519002	+
x	2518990	2520231	+
x	2520277	2520396	+
x	2522975	2521500	-
x	2525405	2524359	-
x	2526815	2525541	-
x	2526827	2525541	-
x	2527480	2527367	-
x	2530695	2530438	-
x	2530640	2530774	+
x	2532553	2532245	-
x	2532493	2532245	-
x	2532479	2532369	-
x	2533272	2532466	-
x	2536816	2536700	-
x	2537857	2538555	+
x	2540790	2539966	-
x	2541833	2540892	-
x	2542049	2542471	+
x	2543294	2544004	+
x	2546239	2546096	-
x	2546231	2546362	+
x	2547865	2547611	-
x	2547799	2547611	-
x	2547917	2547756	-
x	2547765	2548592	+
x	2547777	2548592	+
x	2548050	2548592	+
x	2548806	2550281	+
x	2551388	2552137	+
x	2553359	2554852	+
x	2562273	2561140	-
x	2563149	2562358	-
x	2564992	2565372	+
x	2565504	2565073	-
x	2565486	2565073	-
x	2566682	2566563	-
x	2566679	2566563	-
x	2569077	2570318	+
x	2570417	2570647	+
x	2571343	2571170	-
x	2571532	2571401	-
x	2571727	2572284	+
x	2572277	2572597	+
x	2573863	2575041	+
x	2574217	2575041	+
x	2580721	2580599	-
x	2580754	2580599	-
x	2581396	2581193	-
x	2581199	2581309	+
x	2581684	2581427	-
x	2581512	2581607	+
x	2581686	2582363	+
x	2583282	2582398	-
x	2586587	2586417	-
x	2587384	2586623	-
x	2588061	2587402	-
x	2588678	2588061	-
x	2588736	2589224	+
x	2589779	2589309	-
x	2589378	2589920	+
x	2594646	2594810	+
x	2594858	2594730	-
x	2594924	2595433	+
x	2595583	2595239	-
x	2597211	2595583	-
x	2600614	2600832	+
x	2602061	2603104	+
x	2603765	2603640	-
x	2606631	2607326	+
x	2606640	2607326	+
x	2607786	2607412	-
x	2610261	2607412	-
x	2610331	2610564	+
x	2610416	2612254	+
x	2616824	2617678	+
x	2619315	2618533	-
x	2624619	2620183	-
x	2624697	2620183	-
x	2624712	2620183	-
x	2624787	2620183	-
x	2625371	2624721	-
x	2627077	2625341	-
x	2626597	2625341	-
x	2626906	2625341	-
x	2629904	2630674	+
x	2634572	2630814	-
x	2634524	2630814	-
x	2635208	2634996	-
x	2635043	2635186	+
x	2641027	2640020	-
x	2644278	2645609	+
x	2645531	2646796	+
x	2646821	2646946	+
x	2647913	2648134	+
x	2648927	2648175	-
x	2650324	2648996	-
x	2649748	2648996	-
x	2649754	2648996	-
x	2651547	2650342	-
x	2652454	2652359	-
x	2654429	2653866	-
x	2654423	2653866	-
x	2654630	2654529	-
x	2654750	2655112	+
x	2655780	2655151	-
x	2656028	2657200	+
x	2656061	2657200	+
x	2663025	2663411	+
x	2663034	2663411	+
x	2663701	2663405	-
x	2666284	2667117	+
x	2669581	2667722	-
x	2670551	2669481	-
x	2674653	2675630	+
x	2674812	2675630	+
x	2675298	2675630	+
x	2675388	2675630	+
x	2677580	2676303	-
x	2681295	2679460	-
x	2686420	2683694	-
x	2690100	2688310	-
x	2691299	2691424	+
x	2691743	2691474	-
x	2691590	2691754	+
x	2693135	2693389	+
x	2698866	2698354	-
x	2699586	2699455	-
x	2699554	2699715	+
x	2703199	2700929	-
x	2703314	2704855	+
x	2703377	2704855	+
x	2706040	2705489	-
x	2709437	2708904	-
x	2714333	2714166	-
x	2717119	2717253	+
x	2717352	2717221	-
x	2718047	2717367	-
x	2718002	2717367	-
x	2720355	2719357	-
x	2722975	2723088	+
x	2728049	2730115	+
x	2733821	2732733	-
x	2735118	2733853	-
x	2738173	2737670	-
x	2738215	2737670	-
x	2739083	2738190	-
x	2741610	2738962	-
x	2743286	2743438	+
x	2747456	2747148	-
x	2747768	2747517	-
x	2747804	2749144	+
x	2750100	2749987	-
x	2752378	2751437	-
x	2753709	2753927	+
x	2753960	2755273	+
x	2754047	2755273	+
x	2756606	2756944	+
x	2757959	2756919	-
x	2757974	2756919	-
x	2759327	2762710	+
x	2762584	2762486	-
x	2763950	2762766	-
x	2763692	2762766	-
x	2763905	2764009	+
x	2768976	2768509	-
x	2769201	2769362	+
x	2769451	2769711	+
x	2769484	2769711	+
x	2769833	2769696	-
x	2770317	2771303	+
x	2771614	2771730	+
x	2771659	2771730	+
x	2773358	2773221	-
x	2773428	2775107	+
x	2775122	2775859	+
x	2775197	2775859	+
x	2783036	2782659	-
x	2785744	2785646	-
x	2785793	2786152	+
x	2785808	2786152	+
x	2785919	2786152	+
x	2786024	2786152	+
x	2786036	2786152	+
x	2787386	2786211	-
x	2787746	2788987	+
x	2787971	2788987	+
x	2792995	2793354	+
x	2793377	2793748	+
x	2795218	2795349	+
x	2796880	2795981	-
x	2797064	2796906	-
x	2800666	2800319	-
x	2800669	2800319	-
x	2802641	2802330	-
x	2805631	2804636	-
x	2805685	2804636	-
x	2805634	2804636	-
x	2805103	2805408	+
x	2806653	2806817	+
x	2808028	2807900	-
x	2808392	2808099	-
x	2808698	2810194	+
x	2811779	2812111	+
x	2811836	2812111	+
x	2812971	2812129	-
x	2814696	2814247	-
x	2817986	2817129	-
x	2820442	2820618	+
x	2820689	2820546	-
x	2820689	2821615	+
x	2821630	2820704	-
x	2822256	2821699	-
x	2822159	2822299	+
x	2822790	2822335	-
x	2822682	2822335	-
x	2823307	2822771	-
x	2824280	2825182	+
x	2826792	2826286	-
x	2832591	2832391	-
x	2833806	2832592	-
x	2836760	2836425	-
x	2840145	2839738	-
x	2840002	2840109	+
x	2843841	2845907	+
x	2846973	2845984	-
x	2847052	2846921	-
x	2846927	2847187	+
x	2847755	2847153	-
x	2849706	2847796	-
x	2849665	2849799	+
x	2849966	2851681	+
x	2850506	2851681	+
x	2852025	2854958	+
x	2855031	2855258	+
x	2855045	2855224	+
x	2855476	2855375	-
x	2858015	2857293	-
x	2860889	2860095	-
x	2861848	2861126	-
x	2861952	2861845	-
x	2861911	2862141	+
x	2863089	2862052	-
x	2863999	2863103	-
x	2864061	2864699	+
x	2864154	2864699	+
x	2866360	2866536	+
x	2868510	2868400	-
x	2870650	2869319	-
x	2871347	2870694	-
x	2871297	2871431	+
x	2871630	2872682	+
x	2873486	2875558	+
x	2879720	2879568	-
x	2879869	2879615	-
x	2879738	2879929	+
x	2879756	2879929	+
x	2880243	2880758	+
x	2884589	2883054	-
x	2884565	2883054	-
x	2886793	2886398	-
x	2886775	2886398	-
x	2886607	2886398	-
x	2887047	2886820	-
x	2887124	2886912	-
x	2894954	2888739	-
x	2900187	2898676	-
x	2907186	2907713	+
x	2907195	2907713	+
x	2909982	2907799	-
x	2915121	2916125	+
x	2916449	2916586	+
x	2917403	2916618	-
x	2921331	2919427	-
x	2921933	2921817	-
x	2922234	2921905	-
x	2923897	2922659	-
x	2926550	2927404	+
x	2927574	2928875	+
x	2930183	2930040	-
x	2930369	2930797	+
x	2930375	2930797	+
x	2930893	2930585	-
x	2932935	2931841	-
x	2932674	2931841	-
x	2932629	2931841	-
x	2935340	2933991	-
x	2936469	2935525	-
x	2936496	2935525	-
x	2939979	2936605	-
x	2939998	2941197	+
x	2942520	2941261	-
x	2942618	2942794	+
x	2942666	2942794	+
x	2945826	2944477	-
x	2945850	2944477	-
x	2946436	2945801	-
x	2946520	2945801	-
x	2946448	2946612	+
x	2946457	2946612	+
x	2948061	2946679	-
x	2948169	2946679	-
x	2952566	2948682	-
x	2952724	2952584	-
x	2952827	2954383	+
x	2954883	2954380	-
x	2955555	2954941	-
x	2955513	2954941	-
x	2955674	2955537	-
x	2955713	2956633	+
x	2956665	2956949	+
x	2957241	2957143	-
x	2957223	2957143	-
x	2957372	2957220	-
x	2957416	2957538	+
x	2958770	2958024	-
x	2961147	2961311	+
x	2964284	2964418	+
x	2967071	2966463	-
x	2967190	2967035	-
x	2967476	2969068	+
x	2969910	2969053	-
x	2972215	2971289	-
x	2973317	2972916	-
x	2973033	2973410	+
x	2975453	2974341	-
x	2974914	2975516	+
x	2976022	2976771	+
x	2976049	2976771	+
x	2978417	2979463	+
x	2979574	2980932	+
x	2980957	2981301	+
x	2980978	2981301	+
x	2981801	2981298	-
x	2982689	2981298	-
x	2983135	2982758	-
x	2982967	2982758	-
x	2983153	2982758	-
x	2983407	2983180	-
x	2983484	2983272	-
x	2983934	2983716	-
x	2983892	2983716	-
x	2983883	2984407	+
x	2983976	2984407	+
x	2984254	2984030	-
x	2984533	2984901	+
x	2985528	2984926	-
x	2985926	2985753	-
x	2986076	2985753	-
x	2986273	2986031	-
x	2987425	2987667	+
x	2988987	2989292	+
x	2990290	2989970	-
x	2990335	2989970	-
x	2991471	2991596	+
x	2991556	2991669	+
x	2994438	2991853	-
x	2997165	2997371	+
x	2997861	2997325	-
x	3001471	3000332	-
x	3001436	3001978	+
x	3001595	3001978	+
x	3001616	3001978	+
x	3002638	3003861	+
x	3005157	3004825	-
x	3006180	3005623	-
x	3006174	3005623	-
x	3006498	3006190	-
x	3008103	3008894	+
x	3008939	3010201	+
x	3008960	3010201	+
x	3009518	3010201	+
x	3010223	3010975	+
x	3010983	3010846	-
x	3011097	3010846	-
x	3013935	3014087	+
x	3014457	3014149	-
x	3014866	3014429	-
x	3017384	3017016	-
x	3018595	3018113	-
x	3021617	3022072	+
x	3021784	3021665	-
x	3024562	3023996	-
x	3025123	3025728	+
x	3027537	3026116	-
x	3027528	3028115	+
x	3029040	3028132	-
x	3029997	3030521	+
x	3030900	3030469	-
x	3031840	3031421	-
x	3031798	3031421	-
x	3033179	3032715	-
x	3033826	3033275	-
x	3035831	3035004	-
x	3035809	3035970	+
x	3037746	3038780	+
x	3041764	3041531	-
x	3041963	3041775	-
x	3045411	3044554	-
x	3045982	3045587	-
x	3045964	3045587	-
x	3045796	3045587	-
x	3046236	3046009	-
x	3046313	3046101	-
x	3046699	3046484	-
x	3046944	3046711	-
x	3047215	3047012	-
x	3047600	3047376	-
x	3047797	3047471	-
x	3047767	3047471	-
x	3051325	3051143	-
x	3051493	3051368	-
x	3052755	3054089	+
x	3055568	3056854	+
x	3057028	3058491	+
x	3058494	3059174	+
x	3059696	3059881	+
x	3061746	3061874	+
x	3062982	3063311	+
x	3065659	3065405	-
x	3066093	3068198	+
x	3069313	3069534	+
x	3071792	3072832	+
x	3072943	3072836	-
x	3072885	3073031	+
x	3073327	3074208	+
x	3074377	3075069	+
x	3076177	3076043	-
x	3076130	3077314	+
x	3077322	3078869	+
x	3080920	3079598	-
x	3081511	3081227	-
x	3081562	3081227	-
x	3082373	3082248	-
x	3082851	3083288	+
x	3083702	3083818	+
x	3086143	3086532	+
x	3086362	3086532	+
x	3086395	3086532	+
x	3086407	3086532	+
x	3088231	3087155	-
x	3088796	3088296	-
x	3090128	3088938	-
x	3090071	3088938	-
x	3090293	3090195	-
x	3090709	3090843	+
x	3091149	3091799	+
x	3094302	3095228	+
x	3096814	3095225	-
x	3102041	3099717	-
x	3102017	3099717	-
x	3102664	3102122	-
x	3103593	3103468	-
x	3105242	3104487	-
x	3109204	3107474	-
x	3109189	3107474	-
x	3113318	3113235	-
x	3113347	3113709	+
x	3115966	3116976	+
x	3117014	3119128	+
x	3119158	3119601	+
x	3119173	3119601	+
x	3120194	3120039	-
x	3123285	3123593	+
x	3124411	3123644	-
x	3128897	3129643	+
x	3130848	3130994	+
x	3131716	3132342	+
x	3132804	3131776	-
x	3132294	3131776	-
x	3132651	3131776	-
x	3133828	3133995	+
x	3134262	3134110	-
x	3135536	3134730	-
x	3135497	3134730	-
x	3138144	3138025	-
x	3148021	3147905	-
x	3147927	3148376	+
x	3148014	3148376	+
x	3148424	3149725	+
x	3149680	3149976	+
x	3150991	3150716	-
x	3151609	3150716	-
x	3152349	3151573	-
x	3152602	3152327	-
x	3152524	3152327	-
x	3153736	3152327	-
x	3154552	3153758	-
x	3156142	3155282	-
x	3155962	3155282	-
x	3160214	3160282	+
x	3160286	3160411	+
x	3160632	3161027	+
x	3161017	3161934	+
x	3161041	3161934	+
x	3161125	3161934	+
x	3161828	3161538	-
x	3161795	3161947	+
x	3162476	3162643	+
x	3163103	3163975	+
x	3163990	3165219	+
x	3168401	3168763	+
x	3175452	3175336	-
x	3176564	3175437	-
x	3177820	3176798	-
x	3177895	3176798	-
x	3179711	3179586	-
x	3179705	3179833	+
x	3181891	3181751	-
x	3181876	3181751	-
x	3182407	3182126	-
x	3183618	3183526	-
x	3183729	3185063	+
x	3185147	3185278	+
x	3187020	3185593	-
x	3188446	3189201	+
x	3188557	3189201	+
x	3190454	3189306	-
x	3191319	3191456	+
x	3194909	3196327	+
x	3196800	3197540	+
x	3197045	3196932	-
x	3198582	3197584	-
x	3198979	3198677	-
x	3200589	3200359	-
x	3200742	3201983	+
x	3203277	3202477	-
x	3204427	3203360	-
x	3204658	3203360	-
x	3205989	3205042	-
x	3209364	3207835	-
x	3210271	3209447	-
x	3210253	3209447	-
x	3210367	3210519	+
x	3211872	3210529	-
x	3211948	3213345	+
x	3212104	3213345	+
x	3218745	3215233	-
x	3218784	3215233	-
x	3225560	3225213	-
x	3225488	3225213	-
x	3225886	3225521	-
x	3226512	3225925	-
x	3226728	3225925	-
x	3226452	3225925	-
x	3226938	3227141	+
x	3226959	3227141	+
x	3231684	3231220	-
x	3232062	3232256	+
x	3232249	3232103	-
x	3232195	3232356	+
x	3234265	3233978	-
x	3236605	3235442	-
x	3239016	3239180	+
x	3241840	3242730	+
x	3242534	3242436	-
x	3245152	3245066	-
x	3246813	3246085	-
x	3248392	3247208	-
x	3259648	3259463	-
x	3259811	3259641	-
x	3265544	3264828	-
x	3265541	3264828	-
x	3265607	3264828	-
x	3265997	3268294	+
x	3271956	3273143	+
x	3275615	3277105	+
x	3275708	3277105	+
x	3280350	3279799	-
x	3280506	3279799	-
x	3280401	3279799	-
x	3280721	3281251	+
x	3280736	3281251	+
x	3281124	3280894	-
x	3289807	3291264	+
x	3291159	3292598	+
x	3291282	3292598	+
x	3294369	3294037	-
x	3294432	3294037	-
x	3294528	3294037	-
x	3296450	3294525	-
x	3296459	3294525	-
x	3296747	3296935	+
x	3296751	3298328	+
x	3296811	3298328	+
x	3298312	3298455	+
x	3298318	3298455	+
x	3298330	3298455	+
x	3299286	3300701	+
x	3301577	3300696	-
x	3301578	3301733	+
x	3303477	3301885	-
x	3305153	3304359	-
x	3306242	3305928	-
x	3306314	3305928	-
x	3306557	3306748	+
x	3306566	3306748	+
x	3306575	3306748	+
x	3309037	3310494	+
x	3309061	3310494	+
x	3314043	3313651	-
x	3315227	3314064	-
x	3315318	3315166	-
x	3315321	3315166	-
x	3315462	3315334	-
x	3315419	3315532	+
x	3319941	3319357	-
x	3319966	3320154	+
x	3320708	3320382	-
x	3320534	3321280	+
x	3320678	3321280	+
x	3322931	3323053	+
x	3323888	3323157	-
x	3323852	3323157	-
x	3324150	3323872	-
x	3324177	3325136	+
x	3325339	3326433	+
x	3325699	3326433	+
x	3326741	3326430	-
x	3327239	3326430	-
x	3328191	3327484	-
x	3328176	3327484	-
x	3328910	3328317	-
x	3331296	3330142	-
x	3331305	3330142	-
x	3332662	3331436	-
x	3333752	3332649	-
x	3333723	3333622	-
x	3333961	3333869	-
x	3334043	3334471	+
x	3335768	3336445	+
x	3335909	3336445	+
x	3336439	3337116	+
x	3337711	3337088	-
x	3338445	3338329	-
x	3338644	3338456	-
x	3339630	3338641	-
x	3341156	3339933	-
x	3342133	3343077	+
x	3342169	3343077	+
x	3343280	3342822	-
x	3343287	3342919	-
x	3345317	3343296	-
x	3345346	3346323	+
x	3345439	3346323	+
x	3350448	3348460	-
x	3350358	3348460	-
x	3350576	3350445	-
x	3350911	3351036	+
x	3351190	3350924	-
x	3351219	3352385	+
x	3352448	3352582	+
x	3352809	3354215	+
x	3352860	3354215	+
x	3354238	3354789	+
x	3354334	3354789	+
x	3354881	3355591	+
x	3355644	3356402	+
x	3357402	3358037	+
x	3359652	3358627	-
x	3359682	3358627	-
x	3360898	3361200	+
x	3363970	3362999	-
x	3366061	3365345	-
x	3366225	3366085	-
x	3366604	3366248	-
x	3367424	3368506	+
x	3368776	3368483	-
x	3368871	3369953	+
x	3370093	3369998	-
x	3370107	3371411	+
x	3373879	3373676	-
x	3373907	3373758	-
x	3374093	3374701	+
x	3375155	3376342	+
x	3376915	3376706	-
x	3376897	3376706	-
x	3377169	3376942	-
x	3377246	3377034	-
x	3386170	3384683	-
x	3388062	3387961	-
x	3388423	3388076	-
x	3388459	3388076	-
x	3388369	3388076	-
x	3388956	3388546	-
x	3389128	3389000	-
x	3389348	3389235	-
x	3389809	3389594	-
x	3389869	3389594	-
x	3390053	3389820	-
x	3390103	3390507	+
x	3395276	3396496	+
x	3395575	3395396	-
x	3396781	3397062	+
x	3399754	3400365	+
x	3405295	3405008	-
x	3406347	3406667	+
x	3407123	3406812	-
x	3406917	3407051	+
x	3406930	3407118	+
x	3409675	3410772	+
x	3414009	3414344	+
x	3414054	3414344	+
x	3414734	3414402	-
x	3414622	3414497	-
x	3414792	3414619	-
x	3415496	3414921	-
x	3415526	3414921	-
x	3415628	3414921	-
x	3415985	3416131	+
x	3417271	3417152	-
x	3418082	3417900	-
x	3420254	3420409	+
x	3420296	3420409	+
x	3420438	3421118	+
x	3421133	3421002	-
x	3421266	3421943	+
x	3422033	3422182	+
x	3424147	3423236	-
x	3423631	3423236	-
x	3423775	3423236	-
x	3423668	3424159	+
x	3423683	3424159	+
x	3424681	3424974	+
x	3424708	3424974	+
x	3424813	3424974	+
x	3424831	3424974	+
x	3425489	3425923	+
x	3425935	3426132	+
x	3426229	3426798	+
x	3451774	3451905	+
x	3451780	3451905	+
x	3463181	3463393	+
x	3463258	3463485	+
x	3463512	3463907	+
x	3463530	3463907	+
x	3463698	3463907	+
x	3466751	3466891	+
x	3466935	3466801	-
x	3468105	3468446	+
x	3468365	3468499	+
x	3469073	3468933	-
x	3469065	3469355	+
x	3470256	3470795	+
x	3471409	3470843	-
x	3471136	3470843	-
x	3471094	3470843	-
x	3474105	3473905	-
x	3474298	3474468	+
x	3474515	3474823	+
x	3476510	3476653	+
x	3486024	3485005	-
x	3487034	3487240	+
x	3504736	3504494	-
x	3506571	3505063	-
x	3506732	3506610	-
x	3507603	3507178	-
x	3507932	3507630	-
x	3507968	3507630	-
x	3511115	3510993	-
x	3511136	3510993	-
x	3511417	3511572	+
x	3511636	3512619	+
x	3512703	3513839	+
x	3513863	3515539	+
x	3524787	3524137	-
x	3525578	3524802	-
x	3526708	3526523	-
x	3528458	3527289	-
x	3528149	3527289	-
x	3528131	3527289	-
x	3529399	3528464	-
x	3528877	3528464	-
x	3529402	3528464	-
x	3530007	3529438	-
x	3530001	3529438	-
x	3530938	3530408	-
x	3531430	3530975	-
x	3536142	3534163	-
x	3537083	3536253	-
x	3537095	3536253	-
x	3537071	3536253	-
x	3538611	3537706	-
x	3543109	3538679	-
x	3543241	3538679	-
x	3543392	3543697	+
x	3543710	3543588	-
x	3548378	3547956	-
x	3552139	3550649	-
x	3552339	3553163	+
x	3554656	3556407	+
x	3554674	3556407	+
x	3554683	3556407	+
x	3554716	3556407	+
x	3554782	3556407	+
x	3556194	3557318	+
x	3557371	3557598	+
x	3557982	3558770	+
x	3559884	3558805	-
x	3562375	3561542	-
x	3563589	3562378	-
x	3564543	3563773	-
x	3565261	3564563	-
x	3567751	3567891	+
x	3569845	3567983	-
x	3569999	3570913	+
x	3570329	3570913	+
x	3571711	3571316	-
x	3577584	3577712	+
x	3578959	3578195	-
x	3578605	3578195	-
x	3579082	3578195	-
x	3580759	3580319	-
x	3580843	3580319	-
x	3581001	3581888	+
x	3583078	3582359	-
x	3583210	3584532	+
x	3583267	3584532	+
x	3586270	3585371	-
x	3586498	3585371	-
x	3586438	3585371	-
x	3586413	3586267	-
x	3587849	3588559	+
x	3588561	3588674	+
x	3588795	3588703	-
x	3589032	3589688	+
x	3590000	3589623	-
x	3590018	3589623	-
x	3589832	3589623	-
x	3590272	3590045	-
x	3590349	3590137	-
x	3599453	3600745	+
x	3607341	3605671	-
x	3608371	3607922	-
x	3609641	3610471	+
x	3611565	3610855	-
x	3611493	3610855	-
x	3613226	3612903	-
x	3615099	3614152	-
x	3615159	3614152	-
x	3616147	3615110	-
x	3617945	3617283	-
x	3618144	3618025	-
x	3623718	3623026	-
x	3625093	3626613	+
x	3625126	3626613	+
x	3626728	3627432	+
x	3626761	3627432	+
x	3630991	3630872	-
x	3631595	3632251	+
x	3633085	3632297	-
x	3633186	3634001	+
x	3634233	3634063	-
x	3637992	3638732	+
x	3640686	3640612	-
x	3640823	3641158	+
x	3640859	3641158	+
x	3641399	3641193	-
x	3648051	3645880	-
x	3648831	3645880	-
x	3648792	3645880	-
x	3650246	3650061	-
x	3652228	3652311	+
x	3652371	3652252	-
x	3653214	3652390	-
x	3653202	3652390	-
x	3653673	3653302	-
x	3655385	3654405	-
x	3655391	3654405	-
x	3654854	3654405	-
x	3655356	3655490	+
x	3655368	3655490	+
x	3659920	3659633	-
x	3662084	3661935	-
x	3661947	3662069	+
x	3668428	3668300	-
x	3668385	3668591	+
x	3668416	3669906	+
x	3668527	3669906	+
x	3668617	3669906	+
x	3669890	3670300	+
x	3670387	3670569	+
x	3671489	3674758	+
x	3671630	3674758	+
x	3675195	3675055	-
x	3683144	3682974	-
x	3684433	3684972	+
x	3685820	3686806	+
x	3686859	3686996	+
x	3693237	3691762	-
x	3695070	3695861	+
x	3695886	3696017	+
x	3696163	3696047	-
x	3696887	3697255	+
x	3697335	3697240	-
x	3697387	3697770	+
x	3698047	3698520	+
x	3698468	3698809	+
x	3698906	3699388	+
x	3698984	3699388	+
x	3699275	3699388	+
x	3699437	3700444	+
x	3700727	3701095	+
x	3702717	3702553	-
x	3702848	3703018	+
x	3702851	3703018	+
x	3705821	3704490	-
x	3707394	3706096	-
x	3707466	3706096	-
x	3707984	3707532	-
x	3707969	3707532	-
x	3710415	3710263	-
x	3711471	3710263	-
x	3715065	3715409	+
x	3715191	3715409	+
x	3715628	3715527	-
x	3715635	3715763	+
x	3715968	3716447	+
x	3715998	3716447	+
x	3717538	3716375	-
x	3717520	3716375	-
x	3718516	3717617	-
x	3718501	3717617	-
x	3720661	3720774	+
x	3720695	3720820	+
x	3720883	3721002	+
x	3722120	3722620	+
x	3722964	3723104	+
x	3723889	3723623	-
x	3724365	3724667	+
x	3725948	3726457	+
x	3727237	3728115	+
x	3728178	3728567	+
x	3728564	3729697	+
x	3729194	3729697	+
x	3729815	3729928	+
x	3732985	3733560	+
x	3733469	3734341	+
x	3733481	3734341	+
x	3734396	3735109	+
x	3734588	3735109	+
x	3738207	3738476	+
x	3738470	3738345	-
x	3741577	3740897	-
x	3741618	3742178	+
x	3743986	3743438	-
x	3744065	3743952	-
x	3744144	3745166	+
x	3745157	3746053	+
x	3748419	3747259	-
x	3748519	3748650	+
x	3750612	3748657	-
x	3750597	3748657	-
x	3750619	3750539	-
x	3750683	3750841	+
x	3750686	3750841	+
x	3751656	3753878	+
x	3751710	3753878	+
x	3753854	3751719	-
x	3753941	3751719	-
x	3755882	3755463	-
x	3758557	3760026	+
x	3760662	3760240	-
x	3760698	3760240	-
x	3760704	3760240	-
x	3760875	3761237	+
x	3761115	3761237	+
x	3764191	3762674	-
x	3764332	3762674	-
x	3764317	3762674	-
x	3763405	3762674	-
x	3764693	3764469	-
x	3765237	3764857	-
x	3767661	3766747	-
x	3767640	3766747	-
x	3769628	3767685	-
x	3769588	3769722	+
x	3770192	3769719	-
x	3770706	3770404	-
x	3771384	3770923	-
x	3775488	3775613	+
x	3775628	3776197	+
x	3775652	3776197	+
x	3779363	3779094	-
x	3779160	3779501	+
x	3779780	3779508	-
x	3779897	3779508	-
x	3779789	3780424	+
x	3781021	3780455	-
x	3783582	3783797	+
x	3783790	3784797	+
x	3785904	3786482	+
x	3785961	3786482	+
x	3789099	3789614	+
x	3796628	3795666	-
x	3796532	3795666	-
x	3796745	3796641	-
x	3796997	3796860	-
x	3797162	3801730	+
x	3797270	3801730	+
x	3797522	3801730	+
x	3804598	3803690	-
x	3804604	3803690	-
x	3805293	3804562	-
x	3806819	3805299	-
x	3808695	3807913	-
x	3809895	3810104	+
x	3811259	3810756	-
x	3812719	3813123	+
x	3812771	3813184	+
x	3812774	3813184	+
x	3813235	3814644	+
x	3816868	3815864	-
x	3817080	3817253	+
x	3817089	3817253	+
x	3818020	3818334	+
x	3821938	3821666	-
x	3822070	3822981	+
x	3828501	3824710	-
x	3830035	3828578	-
x	3830065	3828578	-
x	3833399	3832296	-
x	3833414	3832296	-
x	3836869	3836768	-
x	3837121	3837285	+
x	3837548	3837387	-
x	3837529	3837717	+
x	3838132	3839520	+
x	3844128	3842629	-
x	3845079	3844189	-
x	3845944	3846072	+
x	3846326	3847141	+
x	3847152	3848108	+
x	3847173	3848108	+
x	3847827	3848108	+
x	3848183	3848443	+
x	3848427	3849884	+
x	3850886	3850758	-
x	3850842	3850934	+
x	3851211	3852071	+
x	3851226	3852071	+
x	3852473	3853363	+
x	3853420	3853626	+
x	3853513	3853626	+
x	3854701	3854468	-
x	3857731	3858963	+
x	3858196	3858963	+
x	3859146	3859604	+
x	3859227	3859604	+
x	3859266	3859604	+
x	3859822	3859709	-
x	3860580	3861605	+
x	3861655	3862854	+
x	3862861	3863967	+
x	3864874	3865146	+
x	3866064	3866306	+
x	3867626	3867931	+
x	3869066	3868701	-
x	3869021	3868701	-
x	3870399	3871169	+
x	3870586	3870422	-
x	3870615	3871169	+
x	3871318	3871145	-
x	3872839	3872222	-
x	3873317	3872799	-
x	3873104	3872799	-
x	3872889	3873125	+
x	3883132	3883512	+
x	3884121	3884005	-
x	3886083	3886634	+
x	3886685	3887308	+
x	3887393	3887950	+
x	3889036	3889590	+
x	3890137	3890553	+
x	3891270	3891677	+
x	3891897	3892823	+
x	3892751	3893332	+
x	3893032	3893667	+
x	3893603	3894304	+
x	3897752	3899716	+
x	3900224	3901207	+
x	3901405	3902400	+
x	3903322	3903738	+
x	3903379	3903738	+
x	3904311	3905090	+
x	3907229	3904749	-
x	3907427	3907359	-
x	3907517	3907359	-
x	3908795	3907566	-
x	3911011	3911445	+
x	3911515	3911976	+
x	3912033	3911599	-
x	3913872	3913138	-
x	3918578	3918027	-
x	3924223	3926313	+
x	3926250	3926369	+
x	3929264	3929145	-
x	3931478	3931302	-
x	3934675	3935229	+
x	3937768	3937148	-
x	3939953	3939561	-
x	3943678	3943274	-
x	3944501	3943653	-
x	3951304	3950627	-
x	3951349	3950627	-
x	3952682	3951549	-
x	3952709	3951549	-
x	3952757	3951549	-
x	3953139	3952699	-
x	3953142	3952699	-
x	3953239	3953093	-
x	3954862	3954056	-
x	3954931	3957507	+
x	3958435	3958557	+
x	3958438	3958557	+
x	3958566	3960689	+
x	3960709	3961422	+
x	3961853	3962737	+
x	3964658	3964530	-
x	3964649	3964530	-
x	3964834	3966525	+
x	3968945	3968760	-
x	3968862	3969374	+
x	3969474	3971792	+
x	3969570	3971792	+
x	3972480	3974813	+
x	3975293	3975886	+
x	3975314	3975886	+
x	3976569	3976718	+
x	3976660	3977406	+
x	3976675	3977406	+
x	3984634	3984533	-
x	3984764	3984618	-
x	3984749	3984618	-
x	3988663	3987644	-
x	3988208	3989329	+
x	3989953	3988664	-
x	3992453	3991659	-
x	3992468	3991659	-
x	3993258	3992434	-
x	3993659	3993309	-
x	3993810	3995330	+
x	3996621	3996761	+
x	3999057	3998848	-
x	3999225	3998848	-
x	3999243	3998848	-
x	3999497	3999270	-
x	3999574	3999362	-
x	4000347	3999574	-
x	4000260	3999574	-
x	3999900	3999574	-
x	4000828	4000313	-
x	4000885	4000313	-
x	4000870	4000313	-
x	4001285	4000836	-
x	4001399	4000836	-
x	4001408	4000836	-
x	4001288	4000836	-
x	4001266	4001445	+
x	4001445	4001657	+
x	4001522	4001749	+
x	4001776	4002171	+
x	4001794	4002171	+
x	4001962	4002171	+
x	4005097	4004345	-
x	4004761	4004345	-
x	4006107	4006319	+
x	4006184	4006411	+
x	4006438	4006833	+
x	4006456	4006833	+
x	4006624	4006833	+
x	4012402	4011071	-
x	4012387	4011071	-
x	4017976	4016813	-
x	4019825	4018758	-
x	4020023	4018758	-
x	4020593	4020102	-
x	4020650	4020102	-
x	4020590	4020102	-
x	4020156	4020788	+
x	4021733	4020768	-
x	4023556	4023816	+
x	4023622	4023816	+
x	4023658	4023816	+
x	4024023	4023745	-
x	4024361	4024534	+
x	4024770	4025477	+
x	4025949	4026440	+
x	4025985	4026440	+
x	4027325	4027212	-
x	4028945	4027212	-
x	4031341	4030232	-
x	4034777	4034661	-
x	4034784	4034680	-
x	4034689	4034757	+
x	4034724	4034855	+
x	4035569	4034844	-
x	4035545	4034844	-
x	4039734	4038571	-
x	4039707	4039853	+
x	4039969	4039832	-
x	4040497	4040619	+
x	4040515	4040619	+
x	4041835	4040675	-
x	4044233	4043148	-
x	4046979	4047371	+
x	4047099	4047371	+
x	4051002	4051304	+
x	4052191	4052802	+
x	4052203	4052802	+
x	4054056	4052806	-
x	4054065	4052806	-
x	4054074	4055204	+
x	4054110	4055204	+
x	4055932	4055756	-
x	4058456	4058575	+
x	4061252	4061121	-
x	4062496	4061288	-
x	4062415	4061288	-
x	4065096	4062412	-
x	4066335	4066204	-
x	4066387	4066274	-
x	4066487	4066693	+
x	4066945	4067997	+
x	4071360	4071079	-
x	4074931	4074074	-
x	4074889	4074074	-
x	4074868	4074074	-
x	4076915	4074834	-
x	4077028	4077921	+
x	4079515	4079399	-
x	4079527	4079399	-
x	4080296	4080460	+
x	4080353	4080460	+
x	4080859	4081032	+
x	4081396	4081995	+
x	4082036	4082209	+
x	4085631	4085891	+
x	4085733	4085891	+
x	4086080	4085895	-
x	4086056	4085895	-
x	4086163	4086324	+
x	4086355	4086206	-
x	4086370	4086206	-
x	4086538	4087392	+
x	4086559	4087392	+
x	4089964	4090920	+
x	4090764	4091687	+
x	4090887	4091687	+
x	4092398	4091739	-
x	4092314	4091739	-
x	4092788	4092450	-
x	4093506	4094051	+
x	4094772	4095377	+
x	4094817	4095377	+
x	4095656	4095327	-
x	4095421	4095714	+
x	4095427	4095714	+
x	4095786	4095694	-
x	4095810	4095694	-
x	4101947	4102099	+
x	4103956	4102664	-
x	4104127	4102664	-
x	4104571	4104275	-
x	4105853	4105972	+
x	4108899	4109798	+
x	4114676	4112616	-
x	4115516	4114746	-
x	4115381	4114746	-
x	4115360	4114746	-
x	4115397	4116674	+
x	4115467	4115661	+
x	4115482	4115661	+
x	4115740	4115513	-
x	4115526	4116674	+
x	4115708	4115586	-
x	4119698	4119874	+
x	4119776	4119874	+
x	4121943	4119955	-
x	4121910	4119955	-
x	4125448	4122026	-
x	4122895	4122026	-
x	4125034	4122026	-
x	4126578	4125481	-
x	4126593	4125481	-
x	4129020	4126594	-
x	4128903	4126594	-
x	4128870	4126594	-
x	4131610	4128944	-
x	4132095	4131673	-
x	4132296	4131673	-
x	4132796	4134355	+
x	4132850	4134355	+
x	4134355	4134543	+
x	4136473	4136306	-
x	4136548	4136306	-
x	4136581	4136306	-
x	4136413	4136306	-
x	4136503	4136306	-
x	4136488	4136658	+
x	4136688	4136578	-
x	4136826	4138160	+
x	4142079	4142450	+
x	4142134	4142361	+
x	4142203	4142361	+
x	4142294	4142422	+
x	4144219	4144374	+
x	4144891	4144382	-
x	4144864	4144382	-
x	4144645	4144382	-
x	4146663	4144939	-
x	4148149	4148361	+
x	4148178	4148453	+
x	4148226	4148453	+
x	4148480	4148875	+
x	4148498	4148875	+
x	4148666	4148875	+
x	4154627	4153425	-
x	4155560	4154856	-
x	4154963	4154856	-
x	4155547	4156275	+
x	4159014	4156681	-
x	4158900	4156681	-
x	4159842	4159967	+
x	4159918	4160904	+
x	4161784	4160954	-
x	4161933	4161781	-
x	4161819	4161968	+
x	4163031	4162606	-
x	4163028	4162606	-
x	4163281	4163069	-
x	4163221	4163069	-
x	4166910	4166629	-
x	4166901	4166629	-
x	4167163	4168107	+
x	4168983	4168630	-
x	4169013	4168630	-
x	4172000	4170666	-
x	4172208	4172071	-
x	4172276	4173346	+
x	4172807	4173346	+
x	4173424	4174368	+
x	4174967	4176124	+
x	4176664	4177380	+
x	4178060	4177488	-
x	4178462	4178635	+
x	4180735	4182093	+
x	4182191	4182090	-
x	4182097	4182225	+
x	4182724	4182245	-
x	4183632	4182820	-
x	4183962	4184867	+
x	4184918	4185343	+
x	4186870	4188147	+
x	4188135	4188257	+
x	4191265	4192158	+
x	4192892	4192155	-
x	4194522	4192894	-
x	4202843	4202935	+
x	4205489	4205352	-
x	4205406	4206734	+
x	4205571	4206734	+
x	4208610	4208443	-
x	4208670	4208443	-
x	4208979	4209428	+
x	4214434	4214628	+
x	4214665	4216341	+
x	4216326	4217117	+
x	4220779	4221264	+
x	4221327	4220800	-
x	4221397	4221666	+
x	4221837	4221679	-
x	4222166	4221723	-
x	4222178	4222375	+
x	4222255	4223943	+
x	4222372	4223943	+
x	4223953	4225236	+
x	4225366	4226199	+
x	4227450	4228475	+
x	4230837	4229965	-
x	4238045	4237539	-
x	4240119	4239322	-
x	4242255	4241233	-
x	4245330	4245605	+
x	4245928	4246050	+
x	4246699	4246055	-
x	4246729	4246055	-
x	4246823	4248115	+
x	4248093	4248551	+
x	4248616	4249254	+
x	4249947	4249291	-
x	4250714	4249998	-
x	4251902	4252573	+
x	4254255	4252570	-
x	4254087	4252570	-
x	4254258	4252570	-
x	4254376	4254113	-
x	4254370	4254113	-
x	4254453	4255133	+
x	4254597	4255133	+
x	4255629	4257590	+
x	4258259	4260373	+
x	4261883	4263283	+
x	4263380	4265113	+
x	4265837	4265157	-
x	4266750	4265818	-
x	4272134	4272247	+
x	4276150	4274723	-
x	4276162	4274723	-
x	4276545	4277582	+
x	4277790	4278011	+
x	4277811	4278011	+
x	4277931	4278011	+
x	4278762	4279739	+
x	4280701	4280558	-
x	4280717	4281076	+
x	4280783	4281076	+
x	4282307	4281117	-
x	4282355	4281117	-
x	4282997	4282518	-
x	4283448	4283023	-
x	4284369	4283023	-
x	4284435	4283023	-
x	4289195	4287873	-
x	4290695	4289202	-
x	4290707	4289202	-
x	4290717	4290604	-
x	4291616	4291416	-
x	4292858	4292760	-
x	4294726	4295058	+
x	4294741	4295058	+
x	4295341	4296531	+
x	4295380	4296531	+
x	4297792	4297385	-
x	4298199	4297792	-
x	4301164	4302030	+
x	4303805	4302120	-
x	4303811	4303981	+
x	4303823	4303981	+
x	4304412	4303978	-
x	4304379	4303978	-
x	4304937	4304518	-
x	4305222	4305130	-
x	4305162	4305569	+
x	4305349	4305191	-
x	4305309	4305569	+
x	4306823	4305573	-
x	4306820	4305573	-
x	4306755	4306883	+
x	4306870	4307988	+
x	4306888	4307988	+
x	4309286	4307949	-
x	4309268	4307949	-
x	4312950	4313606	+
x	4314984	4314577	-
x	4315108	4315209	+
x	4317632	4315215	-
x	4321170	4319836	-
x	4321251	4319836	-
x	4321733	4321533	-
x	4321893	4321753	-
x	4322036	4322362	+
x	4322385	4322050	-
x	4322458	4322583	+
x	4326224	4327654	+
x	4327791	4328993	+
x	4330266	4331234	+
x	4330332	4331234	+
x	4330347	4331234	+
x	4331391	4332140	+
x	4337511	4336309	-
x	4337403	4336309	-
x	4337478	4336309	-
x	4342494	4340620	-
x	4341719	4341859	+
x	4341728	4341859	+
x	4343458	4342628	-
x	4343488	4342628	-
x	4343530	4343652	+
x	4344493	4343750	-
x	4344523	4345116	+
x	4346238	4345354	-
x	4352145	4352059	-
x	4352250	4352801	+
x	4352274	4352801	+
x	4352771	4352358	-
x	4355130	4356809	+
x	4355226	4356809	+
x	4356849	4357586	+
x	4356915	4357586	+
x	4359083	4358865	-
x	4359257	4358865	-
x	4366384	4364957	-
x	4367922	4366402	-
x	4370144	4370575	+
x	4373077	4373973	+
x	4373089	4373973	+
x	4374072	4375028	+
x	4374084	4375028	+
x	4375041	4376024	+
x	4375341	4376024	+
x	4377393	4375990	-
x	4377988	4377440	-
x	4378468	4378355	-
x	4378553	4378428	-
x	4379687	4380052	+
x	4379732	4380052	+
x	4381035	4380730	-
x	4382597	4382355	-
x	4383751	4383515	-
x	4384526	4383930	-
x	4386336	4385251	-
x	4386771	4385251	-
x	4386977	4386792	-
x	4389008	4389268	+
x	4392132	4393679	+
x	4394566	4393676	-
x	4394566	4396191	+
x	4400166	4398673	-
x	4401584	4402018	+
x	4401635	4402018	+
x	4402075	4401683	-
x	4402273	4403604	+
x	4403614	4403739	+
x	4403859	4404947	+
x	4404956	4406005	+
x	4405022	4406005	+
x	4406019	4407191	+
x	4407425	4408450	+
x	4410464	4411069	+
x	4410524	4411069	+
x	4412255	4411221	-
x	4413497	4413405	-
x	4416793	4416695	-
x	4418856	4420121	+
x	4421764	4421919	+
x	4426683	4425721	-
x	4426677	4425721	-
x	4427144	4426815	-
x	4427100	4429595	+
x	4427106	4429595	+
x	4430662	4431489	+
x	4433832	4436048	+
x	4437865	4437978	+
x	4438207	4439172	+
x	4439053	4439172	+
x	4439636	4439208	-
x	4442287	4441802	-
x	4443307	4443468	+
x	4443422	4445257	+
x	4445327	4445941	+
x	4445573	4445941	+
x	4446418	4446002	-
x	4446621	4446806	+
x	4447646	4448563	+
x	4447700	4448563	+
x	4450514	4450389	-
x	4453086	4453655	+
x	4453098	4453655	+
x	4460913	4460560	-
x	4462009	4460966	-
x	4462006	4460966	-
x	4463339	4461915	-
x	4461921	4462061	+
x	4466455	4465856	-
x	4466639	4466490	-
x	4466542	4466655	+
x	4466634	4466750	+
x	4466655	4466750	+
x	4467590	4466781	-
x	4467838	4467722	-
x	4467852	4468616	+
x	4468631	4467897	-
x	4467963	4468616	+
x	4470660	4470154	-
x	4472380	4471676	-
x	4471812	4472336	+
x	4473074	4472295	-
x	4474090	4473323	-
x	4474254	4474412	+
x	4474322	4475734	+
x	4476553	4477203	+
x	4476568	4477203	+
x	4478877	4479188	+
x	4479270	4479707	+
x	4480516	4481310	+
x	4483468	4484202	+
x	4484307	4484447	+
x	4484472	4484371	-
x	4484392	4484487	+
x	4487972	4485657	-
x	4489364	4489981	+
x	4492261	4492148	-
x	4492346	4492221	-
x	4493480	4493845	+
x	4493525	4493845	+
x	4494920	4494615	-
x	4496482	4496240	-
x	4498135	4497608	-
x	4498692	4498117	-
x	4498741	4499040	+
x	4498851	4498750	-
x	4500771	4500911	+
x	4500859	4502331	+
x	4503328	4502372	-
x	4503277	4502372	-
x	4503216	4503368	+
x	4503543	4503424	-
x	4503609	4503424	-
x	4503666	4503424	-
x	4506816	4506673	-
x	4506822	4506673	-
x	4507468	4506836	-
x	4507435	4506836	-
x	4507483	4506836	-
x	4507627	4507487	-
x	4507686	4507504	-
x	4507765	4507842	+
x	4508081	4507935	-
x	4508749	4508633	-
x	4508742	4510121	+
x	4510271	4510167	-
x	4510464	4510354	-
x	4512045	4510576	-
x	4511994	4510576	-
x	4514841	4514608	-
x	4514729	4514619	-
x	4519096	4517687	-
x	4520518	4519133	-
x	4527828	4528730	+
x	4528740	4529549	+
x	4529627	4530247	+
x	4530334	4531113	+
x	4531592	4532533	+
x	4533517	4532597	-
x	4533505	4532597	-
x	4533519	4533617	+
x	4534421	4534633	+
x	4535342	4535587	+
x	4535375	4535587	+
x	4540690	4538276	-
x	4541326	4540739	-
x	4540958	4541584	+
x	4541330	4541584	+
x	4541553	4542353	+
x	4541628	4542353	+
x	4542615	4542995	+
x	4544177	4544743	+
x	4546025	4545108	-
x	4547382	4546117	-
x	4548921	4549070	+
x	4548990	4549070	+
x	4549929	4550888	+
x	4550040	4550888	+
x	4551676	4550885	-
x	4551884	4552051	+
x	4552199	4552825	+
x	4552982	4552854	-
x	4553000	4553107	+
x	4554121	4554810	+
x	4557196	4557699	+
x	4557806	4558750	+
x	4558800	4558696	-
x	4558835	4559893	+
x	4558871	4559893	+
x	4560042	4559890	-
x	4560062	4559919	-
x	4559933	4560130	+
x	4560152	4560289	+
x	4560936	4561202	+
x	4561117	4562064	+
x	4561120	4562064	+
x	4561339	4562064	+
x	4568574	4567129	-
x	4568742	4567129	-
x	4568658	4567129	-
x	4569346	4568660	-
x	4569742	4569843	+
x	4569912	4570175	+
x	4569936	4570175	+
x	4570317	4570823	+
x	4571776	4570838	-
x	4574649	4573795	-
x	4575838	4574846	-
x	4575877	4574846	-
x	4575837	4575953	+
x	4578297	4576027	-
x	4578550	4578410	-
x	4579686	4579369	-
x	4579590	4579369	-
x	4579849	4581123	+
x	4579909	4581123	+
x	4583565	4583669	+
x	4584534	4583776	-
x	4589031	4591250	+
x	4591278	4592249	+
x	4591311	4592249	+
x	4592987	4592793	-
x	4593125	4593006	-
x	4594311	4593169	-
x	4597092	4594957	-
x	4597067	4597558	+
x	4597094	4597558	+
x	4598526	4598846	+
x	4599220	4598894	-
x	4601426	4602373	+
x	4601534	4602373	+
x	4602312	4602716	+
x	4605558	4603780	-
x	4609839	4608649	-
x	4610933	4611742	+
x	4610966	4611742	+
x	4613674	4614888	+
x	4616445	4617407	+
x	4618724	4617390	-
x	4620431	4621624	+
x	4621731	4622378	+
x	4626098	4626886	+
x	4627202	4627002	-
x	4628338	4628703	+
x	4628383	4628703	+
x	4629686	4629381	-
x	4631248	4631006	-
x	4635533	4634427	-
x	4635353	4634427	-
x	4635398	4634427	-
x	4635360	4635554	+
x	4635595	4635434	-
x	4635719	4635564	-
x	4639745	4638744	-
x	4641281	4640775	-
x	4641215	4640775	-
x	4641442	4645503	+
x	4651960	4651175	-
x	4651990	4651175	-
x	4652868	4652131	-
x	4652979	4652131	-
x	4652901	4652131	-
x	4653517	4652879	-
x	4655421	4653514	-
x	4657010	4656909	-
x	4659870	4660571	+
x	4659936	4660571	+
x	4660992	4660573	-
x	4661123	4660995	-
x	4661239	4662606	+
x	4666918	4666769	-
x	4666933	4667055	+
x	4668508	4668873	+
x	4668553	4668873	+
x	4669856	4669551	-
x	4671418	4671176	-
x	4672482	4672901	+
x	4674744	4676363	+
x	4676378	4677697	+
x	4677712	4677858	+
x	4677840	4677757	-
x	4679579	4679746	+
x	4680538	4679654	-
x	4680517	4679654	-
x	4680429	4680548	+
x	4680663	4684361	+
x	4684421	4684741	+
x	4685479	4687035	+
x	4687921	4688076	+
x	4687936	4688076	+
x	4689425	4688196	-
x	4690301	4689477	-
x	4690319	4689477	-
x	4693954	4692962	-
x	4693930	4692962	-
x	4693909	4692962	-
x	4697523	4699178	+
x	4700068	4699559	-
x	4699905	4699657	-
x	4699660	4699869	+
x	4699676	4699918	+
x	4700075	4700743	+
x	4700815	4701477	+
x	4703586	4703738	+
x	4704017	4703895	-
x	4703958	4704116	+
x	4707081	4705522	-
x	4707056	4707178	+
x	4708598	4708503	-
x	4708685	4709890	+
x	4709965	4711302	+
x	4711351	4711440	+
x	4711525	4712454	+
x	4712467	4712619	+
x	4712528	4713130	+
x	4716653	4714170	-
x	4717923	4719248	+
x	4719358	4719573	+
x	4720301	4719615	-
x	4720208	4719615	-
x	4721238	4721657	+
x	4721415	4721657	+
x	4722913	4721822	-
x	4725646	4726881	+
x	4729880	4729680	-
x	4729939	4730994	+
x	4734711	4736210	+
x	4736084	4737109	+
x	4736186	4737109	+
x	4736222	4737109	+
x	4740276	4740410	+
x	4740566	4740426	-
x	4740570	4740722	+
x	4740662	4741444	+
x	4745379	4745978	+
x	4745385	4745978	+
x	4746018	4746113	+
x	4746457	4746077	-
x	4746427	4746077	-
x	4746445	4746579	+
x	4746778	4748373	+
x	4748041	4748373	+
x	4749236	4749502	+
x	4749565	4749452	-
x	4749755	4749540	-
x	4753313	4752981	-
x	4753877	4754005	+
x	4753892	4754005	+
x	4753975	4754379	+
x	4757063	4756746	-
x	4757185	4757060	-
x	4759505	4759702	+
x	4761098	4761670	+
x	4763347	4765029	+
x	4763350	4765029	+
x	4763407	4765029	+
x	4763422	4765029	+
x	4765336	4765998	+
x	4766261	4766133	-
x	4766264	4766133	-
x	4768225	4768383	+
x	4769112	4768369	-
x	4770714	4769860	-
x	4770729	4769860	-
x	4770696	4769860	-
x	4772571	4771522	-
x	4776293	4774614	-
x	4776339	4776725	+
x	4776761	4776342	-
x	4776823	4776936	+
x	4780332	4778422	-
x	4781798	4781523	-
x	4781846	4781523	-
x	4782034	4781915	-
x	4783993	4782044	-
x	4785880	4785179	-
x	4786592	4785885	-
x	4787461	4786844	-
x	4789445	4788504	-
x	4790421	4789498	-
x	4790391	4789498	-
x	4792711	4792382	-
x	4795272	4794493	-
x	4796072	4795284	-
x	4796968	4796039	-
x	4796141	4796812	+
x	4797947	4796877	-
x	4799706	4798975	-
x	4799709	4798975	-
x	4800539	4799721	-
x	4800551	4799721	-
x	4800554	4799721	-
x	4800500	4799721	-
x	4800495	4800644	+
x	4802373	4802483	+
x	4802385	4802483	+
x	4803066	4803500	+
x	4803506	4803171	-
x	4803584	4803171	-
x	4806166	4807011	+
x	4807242	4808777	+
x	4810054	4808954	-
x	4812408	4810720	-
x	4812393	4810720	-
x	4814796	4814659	-
x	4814950	4814870	-
x	4817305	4815038	-
x	4818411	4818605	+
x	4818444	4818605	+
x	4823952	4824110	+
x	4826794	4826928	+
x	4827815	4828021	+
x	4828232	4828375	+
x	4829885	4828341	-
x	4833797	4831611	-
x	4833764	4831611	-
x	4838394	4837825	-
x	4838688	4838491	-
x	4839134	4838700	-
x	4839792	4839649	-
x	4839915	4839649	-
x	4839810	4839649	-
x	4839942	4839649	-
x	4840940	4840464	-
x	4840955	4840464	-
x	4840476	4841240	+
x	4840848	4841240	+
x	4840992	4841240	+
x	4842416	4842604	+
x	4842707	4842615	-
x	4845772	4843256	-
x	4844329	4843256	-
x	4846053	4846202	+
x	4847482	4846976	-
x	4847140	4846976	-
x	4847293	4846976	-
x	4849633	4849779	+
x	4850070	4850432	+
x	4850274	4850432	+
x	4851179	4852453	+
x	4851458	4852453	+
x	4851931	4851767	-
x	4854077	4853058	-
x	4855087	4855269	+
x	4856075	4855953	-
x	4857423	4857325	-
x	4857490	4857362	-
x	4860878	4858683	-
x	4866632	4864908	-
x	4866689	4864908	-
x	4866695	4864908	-
x	4867291	4867169	-
x	4867552	4867896	+
x	4868270	4867908	-
x	4870870	4872342	+
x	4872367	4873176	+
x	4873222	4873932	+
x	4873945	4875054	+
x	4875116	4876039	+
x	4876026	4876157	+
x	4876909	4877895	+
x	4879376	4879639	+
x	4880926	4879739	-
x	4881313	4881065	-
x	4881372	4881491	+
x	4881980	4881381	-
x	4883462	4881993	-
x	4883771	4881993	-
x	4884010	4883666	-
x	4885235	4884120	-
x	4885328	4884120	-
x	4885521	4886972	+
x	4887020	4885539	-
x	4887127	4887011	-
x	4887411	4887788	+
x	4889120	4887804	-
x	4889526	4889203	-
x	4889650	4889333	-
x	4891424	4891810	+
x	4891900	4891496	-
x	4894636	4894082	-
x	4894744	4894646	-
x	4894652	4894777	+
x	4894655	4894777	+
x	4895124	4894942	-
x	4895147	4895527	+
x	4897312	4896146	-
x	4897408	4896146	-
x	4897731	4897342	-
x	4898843	4898118	-
x	4900948	4901955	+
x	4902174	4903628	+
x	4902219	4903628	+
x	4907070	4908095	+
x	4907214	4908095	+
x	4909322	4908237	-
x	4909250	4908237	-
x	4909240	4909929	+
x	4909267	4909929	+
x	4909315	4909929	+
x	4909330	4909929	+
x	4909964	4910095	+
x	4910531	4910151	-
x	4911955	4910708	-
x	4911694	4910708	-
x	4911892	4910708	-
x	4911846	4913393	+
x	4911861	4913393	+
x	4913368	4913826	+
x	4913605	4913826	+
x	4913845	4915176	+
x	4914933	4914832	-
x	4915183	4917033	+
x	4918515	4919726	+
x	4922434	4922330	-
x	4922680	4923759	+
x	4924386	4926869	+
x	4929582	4930061	+
x	4930115	4929960	-
x	4930132	4929980	-
x	4930087	4929980	-
x	4930194	4930709	+
x	4931941	4933584	+
x	4931944	4933584	+
x	4933988	4933701	-
x	4934003	4933701	-
x	4934553	4934125	-
x	4937315	4936245	-
x	4939393	4939058	-
x	4939071	4939382	+
x	4939730	4939398	-
x	4939717	4940520	+
x	4939831	4940520	+
x	4940544	4939885	-
x	4941610	4940792	-
x	4941922	4941725	-
x	4942151	4941825	-
x	4942368	4941919	-
x	4942796	4942419	-
x	4943142	4942843	-
x	4943097	4942843	-
x	4943010	4942843	-
x	4943115	4942843	-
x	4942992	4942843	-
x	4944081	4943605	-
x	4944051	4943605	-
x	4943617	4944381	+
x	4943989	4944381	+
x	4944133	4944381	+
x	4945852	4945760	-
x	4947474	4946401	-
x	4948535	4948314	-
x	4951035	4949479	-
x	4952231	4952443	+
x	4952308	4952535	+
x	4952562	4952957	+
x	4952580	4952957	+
x	4952748	4952957	+
x	4954016	4954309	+
x	4954217	4954309	+
x	4954505	4955896	+
x	4954778	4955896	+
x	4955383	4955189	-
x	4955378	4955896	+
x	4956923	4956276	-
x	4956722	4956276	-
x	4956794	4956276	-
x	4956386	4956276	-
x	4956482	4956276	-
x	4956662	4956276	-
x	4956686	4956276	-
x	4957163	4956276	-
x	4957438	4957163	-
x	4962942	4963154	+
x	4963019	4963246	+
x	4963291	4963395	+
x	4963460	4963669	+
x	4964128	4963946	-
x	4965226	4965456	+
x	4966185	4965817	-
x	4965880	4966281	+
x	4966718	4966476	-
x	4968791	4968925	+
x	4969000	4969119	+
x	4969347	4969571	+
x	4969738	4969884	+
x	4969970	4969857	-
x	4971628	4970570	-
x	4973706	4971628	-
x	4976107	4974803	-
x	4980768	4981502	+
x	4981992	4982111	+
x	4982516	4982133	-
x	4983686	4983198	-
x	4983982	4983785	-
x	4984274	4984567	+
x	4985077	4985838	+
x	4985227	4985838	+
x	4987066	4985981	-
x	4987150	4985981	-
x	4993577	4994260	+
x	4993613	4994260	+
x	4993934	4994260	+
x	4994813	4994244	-
x	4994918	4994244	-
x	4994941	4995720	+
x	4997566	4997997	+
x	4998096	4999163	+
x	4998231	4999163	+
x	4999148	4999240	+
x	5001145	5000180	-
x	5001158	5001256	+
x	5002091	5002582	+
x	5002112	5002582	+
x	5004663	5002711	-
x	5002947	5002711	-
x	5006390	5006662	+
x	5006417	5006662	+
x	5008373	5008236	-
x	5009110	5008406	-
x	5009071	5008406	-
x	5015026	5014844	-
x	5017668	5017781	+
x	5020590	5021921	+
x	5020593	5021921	+
x	5023018	5021957	-
x	5023018	5023149	+
x	5025319	5026659	+
x	5027107	5026697	-
x	5026926	5027228	+
x	5027835	5027737	-
x	5027866	5027783	-
x	5030073	5030195	+
x	5030455	5030279	-
x	5033550	5032132	-
x	5034624	5034857	+
x	5034669	5034857	+
x	5037858	5037784	-
x	5038325	5037900	-
x	5038358	5037900	-
x	5037993	5038457	+
x	5039921	5039772	-
x	5039933	5039772	-
x	5040484	5039996	-
x	5041553	5040600	-
x	5042003	5040600	-
x	5043064	5042060	-
x	5044020	5043088	-
x	5045251	5044031	-
x	5045473	5045339	-
x	5048478	5048185	-
x	5048706	5048185	-
x	5049379	5050068	+
x	5053635	5053498	-
x	5055535	5055407	-
x	5055470	5056549	+
x	5056546	5057631	+
x	5060401	5059373	-
x	5065485	5064424	-
x	5065721	5065518	-
x	5065724	5065518	-
x	5065910	5067175	+
x	5068141	5067701	-
x	5068524	5068745	+
x	5070041	5069061	-
x	5070227	5070880	+
x	5071366	5071659	+
x	5072089	5071928	-
x	5073387	5072110	-
x	5073155	5073418	+
x	5075447	5073450	-
x	5081021	5081323	+
x	5081379	5081804	+
x	5082250	5082372	+
x	5082411	5083919	+
x	5084245	5084487	+
x	5084570	5084827	+
x	5087619	5086153	-
x	5087139	5086153	-
x	5089009	5088101	-
x	5093193	5093405	+
x	5093270	5093497	+
x	5093524	5093919	+
x	5093542	5093919	+
x	5093710	5093919	+
x	5094645	5094938	+
x	5094681	5094938	+
x	5095386	5095276	-
x	5095548	5095658	+
x	5095689	5097047	+
x	5097283	5097432	+
x	5097646	5097840	+
x	5098524	5097664	-
x	5098671	5097664	-
x	5098251	5097664	-
x	5099014	5098721	-
x	5098813	5098721	-
x	5099226	5099065	-
x	5099445	5099065	-
x	5099454	5099065	-
x	5100063	5099800	-
x	5100321	5099800	-
x	5100623	5100222	-
x	5100589	5101458	+
x	5101452	5100883	-
x	5101651	5101851	+
x	5102336	5102199	-
x	5103055	5103315	+
x	5103109	5103315	+
x	5103401	5103973	+
x	5104049	5104312	+
x	5106596	5107468	+
x	5107343	5107468	+
x	5111044	5113560	+
x	5112487	5113560	+
x	5114109	5114201	+
x	5115973	5115434	-
x	5115829	5115434	-
x	5116345	5115434	-
x	5115881	5116357	+
x	5115911	5116357	+
x	5116696	5117172	+
x	5116879	5117172	+
x	5116906	5117172	+
x	5117011	5117172	+
x	5117029	5117172	+
x	5117687	5118121	+
x	5118133	5118330	+
x	5122483	5122367	-
x	5122752	5122874	+
x	5125141	5123927	-
x	5125601	5125053	-
x	5125778	5125053	-
x	5126006	5126134	+
x	5126136	5126285	+
x	5126845	5126567	-
x	5128359	5128910	+
x	5129204	5128989	-
x	5129334	5129939	+
x	5129896	5130543	+
x	5129905	5130543	+
x	5130037	5130543	+
x	5130046	5130543	+
x	5130656	5130537	-
x	5130649	5131305	+
x	5130655	5131305	+
x	5133255	5133151	-
x	5133492	5133376	-
x	5133413	5133547	+
x	5133572	5133805	+
x	5133650	5133805	+
x	5135766	5136557	+
x	5136773	5136579	-
x	5136820	5137545	+
x	5138990	5137674	-
x	5139499	5140059	+
x	5140178	5140056	-
x	5140357	5142546	+
x	5140453	5142546	+
x	5141383	5142546	+
x	5142934	5142593	-
x	5146378	5144909	-
x	5146390	5144909	-
x	5149155	5149439	+
x	5149638	5150807	+
x	5151730	5150876	-
x	5151916	5150876	-
x	5151871	5150876	-
x	5154278	5152164	-
x	5154329	5152164	-
x	5159865	5161517	+
x	5166143	5163891	-
x	5166927	5166436	-
x	5166933	5166436	-
x	5168839	5168366	-
x	5168854	5168366	-
x	5168833	5168366	-
x	5169663	5168830	-
x	5169654	5168830	-
x	5170238	5170450	+
x	5170315	5170542	+
x	5170569	5170964	+
x	5170587	5170964	+
x	5170755	5170964	+
x	5171072	5171722	+
x	5171680	5172357	+
x	5171830	5172357	+
x	5173285	5173560	+
x	5173324	5173560	+
x	5174109	5173987	-
x	5175143	5175532	+
x	5178092	5176602	-
x	5176790	5176942	+
x	5176839	5178455	+
x	5178770	5179453	+
x	5179507	5178815	-
x	5178854	5179453	+
x	5179550	5179741	+
x	5179580	5179741	+
x	5179827	5180936	+
x	5181077	5181712	+
x	5181837	5181727	-
x	5181755	5181862	+
x	5184290	5184415	+
x	5184366	5184467	+
x	5184548	5185351	+
x	5185360	5186751	+
x	5185378	5186751	+
x	5185558	5186751	+
x	5188026	5188802	+
x	5188810	5188929	+
x	5191957	5193063	+
x	5194494	5195747	+
x	5195839	5196171	+
x	5198154	5198318	+
x	5198360	5200324	+
x	5198420	5200324	+
x	5200444	5200740	+
x	5201340	5200813	-
x	5207997	5208137	+
x	5208516	5209223	+
