x	333	133	-
x	294	2798	+
x	342	2798	+
x	5087	5236	+
x	5242	5529	+
x	5348	5560	+
x	8124	9077	+
x	9192	9779	+
x	9940	9803	-
x	9811	9948	+
x	10877	11401	+
x	12044	11907	-
x	12121	11972	-
x	14189	15349	+
x	15448	15735	+
x	15606	15454	-
x	15588	15454	-
x	16969	18492	+
x	16999	18492	+
x	18615	19880	+
x	21341	22246	+
x	21347	22246	+
x	22341	22213	-
x	22527	22342	-
x	27742	28737	+
x	31281	31099	-
x	31425	31330	-
x	31366	31503	+
x	31543	32691	+
x	35994	36197	+
x	36009	36197	+
x	36154	36612	+
x	36235	36612	+
x	36274	36612	+
x	36902	37297	+
x	37406	37245	-
x	38006	37416	-
x	38836	38012	-
x	38797	38012	-
x	40459	38906	-
x	44579	44680	+
x	44858	44968	+
x	45001	45807	+
x	45037	45807	+
x	50333	52267	+
x	52348	52938	+
x	52459	52938	+
x	53260	53382	+
x	53459	53575	+
x	54391	54744	+
x	56593	55625	-
x	60274	57953	-
x	60562	61377	+
x	65056	62198	-
x	64957	62198	-
x	72217	73071	+
x	72226	73071	+
x	73586	74194	+
x	76593	75895	-
x	78121	76577	-
x	79146	78163	-
x	79309	79190	-
x	80965	79310	-
x	80934	81185	+
x	81054	81185	+
x	81344	81529	+
x	84403	83312	-
x	86726	87754	+
x	86792	87754	+
x	87918	87790	-
x	87912	87790	-
x	87988	89796	+
x	88030	89796	+
x	88072	89796	+
x	88096	89796	+
x	89799	90290	+
x	90302	90388	+
x	92076	92534	+
x	92437	93477	+
x	92539	93477	+
x	93486	93839	+
x	95623	97095	+
x	95680	97095	+
x	100845	102089	+
x	102110	103153	+
x	110072	110659	+
x	110147	110659	+
x	113969	114166	+
x	116837	116730	-
x	120969	120076	-
x	125945	126181	+
x	125963	126181	+
x	126636	126875	+
x	126654	126875	+
x	126768	126875	+
x	127283	127140	-
x	127333	127521	+
x	127351	127521	+
x	127433	127582	+
x	127569	127865	+
x	128321	129085	+
x	134021	135448	+
x	134024	135448	+
x	137441	135690	-
x	137802	140399	+
x	137880	140399	+
x	140574	140936	+
x	141525	140974	-
x	143142	142756	-
x	143103	142756	-
x	143064	142756	-
x	143226	142756	-
x	143269	144819	+
x	147256	144866	-
x	147450	147998	+
x	147462	147998	+
x	147567	147998	+
x	149736	150503	+
x	152765	152878	+
x	153185	153883	+
x	154738	153965	-
x	156675	155734	-
x	156999	155734	-
x	156045	155734	-
x	158280	157672	-
x	162937	162347	-
x	163070	162930	-
x	162978	163106	+
x	165139	163775	-
x	166128	165232	-
x	166650	166195	-
x	168290	167547	-
x	168077	167547	-
x	168151	170580	+
x	170577	170687	+
x	173407	173273	-
x	173428	173273	-
x	175722	176519	+
x	176519	177409	+
x	182431	182775	+
x	182787	182527	-
x	193539	191044	-
x	194940	195665	+
x	195781	195617	-
x	197791	197513	-
x	197709	198230	+
x	199707	200465	+
x	200465	200617	+
x	200508	201335	+
x	200586	201335	+
x	201347	202699	+
x	205367	205768	+
x	206902	207357	+
x	206977	207357	+
x	216677	217066	+
x	218659	218477	-
x	218924	218724	-
x	220808	221005	+
x	221758	220934	-
x	221488	220934	-
x	223529	221811	-
x	224697	224344	-
x	229600	229965	+
x	232593	232351	-
x	235870	236670	+
x	235891	236670	+
x	238785	237565	-
x	238554	237565	-
x	239781	240506	+
x	239784	240506	+
x	240075	239947	-
x	240970	240503	-
x	241035	241766	+
x	241982	241668	-
x	241985	242065	+
x	242107	242250	+
x	243929	243429	-
x	245284	243926	-
x	245425	243926	-
x	248822	245295	-
x	250350	248842	-
x	257879	256437	-
x	257717	256437	-
x	260606	258747	-
x	260597	258747	-
x	263085	262531	-
x	264344	264463	+
x	264353	264463	+
x	264617	266461	+
x	267982	269046	+
x	269569	269748	+
x	269848	270333	+
x	270040	270333	+
x	271159	271647	+
x	271447	271647	+
x	271522	271647	+
x	272688	271918	-
x	272866	273315	+
x	272869	273315	+
x	275802	273358	-
x	275838	273358	-
x	276042	276620	+
x	276674	276775	+
x	276825	277592	+
x	278700	278560	-
x	278606	279364	+
x	278627	279364	+
x	278738	279364	+
x	280048	280155	+
x	280278	280120	-
x	280230	280120	-
x	281936	282826	+
x	282041	282826	+
x	282056	282826	+
x	282191	282826	+
x	284786	285160	+
x	285350	286489	+
x	286402	287100	+
x	286492	287100	+
x	286600	287100	+
x	292293	291238	-
x	292582	293685	+
x	297558	297292	-
x	301886	299622	-
x	302123	302680	+
x	304432	304542	+
x	307196	306702	-
x	312014	311811	-
x	311911	312036	+
x	313193	313378	+
x	313731	314207	+
x	314505	314630	+
x	314754	314641	-
x	314666	314806	+
x	315757	315092	-
x	315748	315092	-
x	315802	315092	-
x	317390	315771	-
x	320623	319955	-
x	321315	320680	-
x	321882	321340	-
x	322223	322128	-
x	323106	322966	-
x	323369	323106	-
x	323655	323494	-
x	323534	323626	+
x	323835	323734	-
x	323803	323916	+
x	324452	324309	-
x	326700	327626	+
x	326703	327626	+
x	327784	328719	+
x	327826	328719	+
x	331285	331175	-
x	331246	335433	+
x	336415	335558	-
x	336199	335558	-
x	336663	337532	+
x	336756	337532	+
x	338285	337692	-
x	338533	338297	-
x	339967	338642	-
x	340047	340139	+
x	340194	341048	+
x	343725	344420	+
x	347505	345514	-
x	347811	345514	-
x	347826	345514	-
x	348404	347853	-
x	349139	348768	-
x	349562	348768	-
x	349244	348768	-
x	349352	348768	-
x	349581	349444	-
x	350455	349892	-
x	350413	349892	-
x	350050	349892	-
x	350345	350551	+
x	350561	350746	+
x	350984	351094	+
x	351219	351500	+
x	353213	351525	-
x	353129	351525	-
x	354690	353227	-
x	354699	353227	-
x	355300	354713	-
x	355309	354713	-
x	355217	355432	+
x	358019	357831	-
x	358340	359428	+
x	359730	359470	-
x	360796	360494	-
x	361282	361854	+
x	362984	364294	+
x	364621	365712	+
x	366964	368208	+
x	368506	368916	+
x	369045	368944	-
x	368992	369069	+
x	369192	369076	-
x	369170	370153	+
x	370202	371686	+
x	370508	371686	+
x	370574	371686	+
x	372617	373603	+
x	373537	373674	+
x	373690	373580	-
x	374973	375137	+
x	375372	375196	-
x	375361	375606	+
x	375430	375606	+
x	375466	375606	+
x	376291	375623	-
x	376270	375623	-
x	376255	375623	-
x	376743	376865	+
x	377938	376817	-
x	378403	378065	-
x	378464	378562	+
x	379634	380746	+
x	384276	384130	-
x	384199	384300	+
x	385731	387014	+
x	385845	387014	+
x	387746	387135	-
x	387755	387135	-
x	393396	392314	-
x	394159	394266	+
x	394259	394429	+
x	396552	396433	-
x	396708	396433	-
x	398112	397672	-
x	398382	397672	-
x	398364	397672	-
x	400108	399437	-
x	400280	400372	+
x	400717	400568	-
x	400716	401678	+
x	402406	402092	-
x	405144	404170	-
x	408743	409366	+
x	410497	409367	-
x	410671	410570	-
x	410738	410616	-
x	410713	410856	+
x	410876	412096	+
x	413830	414042	+
x	415241	415360	+
x	415624	415475	-
x	415644	415883	+
x	415984	417399	+
x	417518	417838	+
x	419881	419072	-
x	420001	420459	+
x	421479	421156	-
x	421438	421617	+
x	421598	421744	+
x	422805	422689	-
x	422906	422802	-
x	422945	422802	-
x	424322	423345	-
x	424256	423345	-
x	424255	425289	+
x	424294	425289	+
x	424381	425289	+
x	425268	425450	+
x	426742	425558	-
x	426778	425558	-
x	431234	430008	-
x	433563	433453	-
x	435244	436617	+
x	436776	438590	+
x	439176	438595	-
x	441670	442002	+
x	442063	443877	+
x	443888	444859	+
x	444989	445336	+
x	446258	445374	-
x	447095	446556	-
x	447717	448802	+
x	448891	449361	+
x	450842	451351	+
x	450881	451351	+
x	455550	455642	+
x	455681	455568	-
x	457610	457170	-
x	457688	457170	-
x	457760	457170	-
x	458337	457723	-
x	458784	459293	+
x	458802	459293	+
x	460791	459421	-
x	460785	459421	-
x	461824	460934	-
x	462246	461836	-
x	462680	462165	-
x	467662	468261	+
x	468285	467707	-
x	468590	468907	+
x	468593	468907	+
x	468916	469104	+
x	468958	469104	+
x	473006	475360	+
x	481442	479742	-
x	481398	481517	+
x	481542	482360	+
x	482285	482971	+
x	482426	482971	+
x	482429	482971	+
x	482513	482971	+
x	484766	486547	+
x	486701	486561	-
x	486590	487066	+
x	487018	486785	-
x	489291	488431	-
x	489370	489492	+
x	489524	490081	+
x	489959	490081	+
x	490483	490112	-
x	490501	490112	-
x	490423	490112	-
x	490405	490743	+
x	492747	491197	-
x	493381	492911	-
x	494641	494222	-
x	494686	494222	-
x	494440	494222	-
x	499750	498557	-
x	499381	498557	-
x	499946	500539	+
x	500621	500785	+
x	500673	504029	+
x	504075	504224	+
x	505365	505475	+
x	505510	506094	+
x	505543	506094	+
x	508207	508536	+
x	511316	511191	-
x	511249	511950	+
x	511306	511950	+
x	517399	517316	-
x	518757	518942	+
x	521929	521129	-
x	522318	521953	-
x	523563	523865	+
x	523680	523865	+
x	524854	524300	-
x	529493	529825	+
x	530032	529829	-
x	531773	531651	-
x	531798	531905	+
x	532840	532385	-
x	534567	535346	+
x	536263	535409	-
x	537094	536324	-
x	537746	537123	-
x	537749	537123	-
x	537716	537123	-
x	537945	538403	+
x	541841	540873	-
x	543797	544567	+
x	544657	546438	+
x	550786	551250	+
x	551306	552607	+
x	552360	552268	-
x	552629	553774	+
x	555934	554699	-
x	559257	560258	+
x	560269	561084	+
x	560365	561084	+
x	563700	563191	-
x	564949	565635	+
x	567891	567679	-
x	569422	569114	-
x	569494	569114	-
x	569397	569546	+
x	569849	569442	-
x	569741	569442	-
x	569799	570104	+
x	570077	570202	+
x	570590	570159	-
x	570743	570159	-
x	570815	570159	-
x	576533	573561	-
x	578682	576520	-
x	581069	581224	+
x	587413	588789	+
x	590657	590226	-
x	591461	590958	-
x	591606	591406	-
x	592913	593026	+
x	593192	593380	+
x	593256	593444	+
x	593292	593444	+
x	594195	593566	-
x	594309	593566	-
x	594186	593566	-
x	594316	594197	-
x	596661	594361	-
x	596922	598046	+
x	598049	598267	+
x	598126	602145	+
x	602241	603494	+
x	602490	603494	+
x	604624	603491	-
x	606296	605292	-
x	608806	609981	+
x	612442	613218	+
x	615672	615920	+
x	617400	618608	+
x	619181	618609	-
x	619226	618609	-
x	620272	619211	-
x	621480	620578	-
x	622485	621685	-
x	622431	621685	-
x	623285	622770	-
x	623537	625102	+
x	625651	625223	-
x	625864	625775	-
x	626553	626392	-
x	627453	626647	-
x	628997	627567	-
x	629953	629081	-
x	632063	630489	-
x	632940	632032	-
x	634255	633248	-
x	634219	633248	-
x	634306	633248	-
x	634685	636343	+
x	636366	636992	+
x	638573	638463	-
x	639619	639452	-
x	639740	639949	+
x	640482	641270	+
x	640707	641270	+
x	642879	642766	-
x	643086	642886	-
x	643239	642886	-
x	643227	642886	-
x	644062	643487	-
x	645833	645976	+
x	645836	645976	+
x	645851	645976	+
x	650779	650570	-
x	650963	651133	+
x	651758	651147	-
x	652423	651782	-
x	656634	654052	-
x	658331	657396	-
x	661666	660758	-
x	661782	661943	+
x	663933	664142	+
x	668162	667122	-
x	668181	668324	+
x	668340	668221	-
x	671212	671493	+
x	671494	671631	+
x	671628	671747	+
x	671650	671901	+
x	671681	671770	+
x	671748	671873	+
x	672064	671882	-
x	673965	672301	-
x	673934	674068	+
x	678123	677458	-
x	678432	678307	-
x	678648	680537	+
x	682140	680626	-
x	682152	680626	-
x	684142	683621	-
x	686578	687855	+
x	686614	687855	+
x	686620	687855	+
x	691672	691484	-
x	691645	691484	-
x	692428	693336	+
x	694321	694235	-
x	695061	694531	-
x	695494	695201	-
x	696583	697128	+
x	697154	698794	+
x	702365	700167	-
x	702779	702675	-
x	702892	702758	-
x	703158	703054	-
x	706412	703728	-
x	706989	706405	-
x	706977	706405	-
x	710826	709057	-
x	710819	710730	-
x	717612	718229	+
x	720099	719053	-
x	720361	720251	-
x	722369	722262	-
x	722420	722262	-
x	722765	723154	+
x	723037	722807	-
x	722944	722807	-
x	723495	725261	+
x	726146	726325	+
x	733744	734097	+
x	733825	734097	+
x	733858	734097	+
x	733987	734097	+
x	734288	734184	-
x	734229	734345	+
x	735201	736769	+
x	738145	738345	+
x	738905	739588	+
x	741468	742760	+
x	743349	742729	-
x	742795	743316	+
x	743983	744117	+
x	745272	746306	+
x	746359	747063	+
x	748098	748529	+
x	750782	750030	-
x	755285	754227	-
x	755255	754227	-
x	755399	755530	+
x	756978	755506	-
x	757052	756906	-
x	757963	758112	+
x	761717	760803	-
x	761723	760803	-
x	763765	762812	-
x	763570	762812	-
x	763683	763832	+
x	763747	763863	+
x	763970	765001	+
x	766411	766581	+
x	766693	768954	+
x	766930	768954	+
x	772297	771065	-
x	772354	771065	-
x	772417	771065	-
x	771131	771328	+
x	774619	775374	+
x	776348	776211	-
x	779590	778682	-
x	779632	778682	-
x	779937	779833	-
x	779912	780976	+
x	779954	780976	+
x	779987	780976	+
x	781991	782236	+
x	783737	784450	+
x	786658	786777	+
x	791925	790189	-
x	792913	791918	-
x	793587	792916	-
x	795679	795410	-
x	798996	798892	-
x	801188	800823	-
x	801850	801173	-
x	804332	804436	+
x	804450	804367	-
x	804873	804613	-
x	805149	806075	+
x	808297	806072	-
x	810795	810604	-
x	811584	811081	-
x	811852	811769	-
x	812770	811883	-
x	813123	813638	+
x	814230	813688	-
x	815295	815510	+
x	818411	817497	-
x	823188	821389	-
x	824726	823827	-
x	824857	825519	+
x	828140	828748	+
x	828717	830606	+
x	828735	830606	+
x	828768	830606	+
x	830470	832164	+
x	830626	832164	+
x	830683	832164	+
x	830950	832164	+
x	831319	832164	+
x	834445	836541	+
x	835648	836541	+
x	836636	837877	+
x	836651	837877	+
x	839462	839845	+
x	841694	841068	-
x	841932	843143	+
x	841941	843143	+
x	844795	844902	+
x	844887	846119	+
x	846420	846160	-
x	847326	846511	-
x	847299	846511	-
x	848534	847326	-
x	848453	847326	-
x	848618	849154	+
x	851948	851691	-
x	854152	854628	+
x	854585	854707	+
x	854978	856090	+
x	856185	857318	+
x	856287	857318	+
x	858278	859123	+
x	859198	859671	+
x	861599	860868	-
x	863788	863216	-
x	864693	863965	-
x	864699	863965	-
x	864851	864970	+
x	865426	864911	-
x	865297	864911	-
x	867748	866699	-
x	867712	866699	-
x	869241	867811	-
x	869304	867811	-
x	873109	872141	-
x	874773	873121	-
x	875861	874917	-
x	875794	875943	+
x	876832	876137	-
x	879869	878913	-
x	879863	878913	-
x	880020	881135	+
x	882734	883078	+
x	883375	883151	-
x	883525	883599	+
x	884043	886325	+
x	884049	886325	+
x	884193	886325	+
x	887212	888201	+
x	894969	895565	+
x	900141	900233	+
x	902432	901467	-
x	902537	901467	-
x	902500	902613	+
x	902925	903470	+
x	902976	903470	+
x	903716	907648	+
x	907807	908418	+
x	913334	912093	-
x	912836	912093	-
x	913380	913249	-
x	915495	915650	+
x	915522	915650	+
x	917608	918444	+
x	918457	918945	+
x	919591	918974	-
x	925350	925021	-
x	925934	925368	-
x	926581	925946	-
x	927586	927179	-
x	928310	927972	-
x	928514	927972	-
x	930980	929940	-
x	931885	931016	-
x	932025	933758	+
x	935001	934873	-
x	934949	935263	+
x	935235	935128	-
x	936322	935831	-
x	941068	938384	-
x	943732	943833	+
x	944700	944587	-
x	944942	944697	-
x	945298	944951	-
x	945410	945249	-
x	947381	948388	+
x	948775	951132	+
x	951699	952625	+
x	953287	952661	-
x	953518	953655	+
x	953625	954749	+
x	955586	954846	-
x	958972	958115	-
x	961147	959378	-
x	961138	959378	-
x	964771	965535	+
x	965631	965485	-
x	968652	968344	-
x	968825	971089	+
x	970180	970314	+
x	975452	975183	-
x	978042	978827	+
x	980127	980831	+
x	980154	980831	+
x	985564	987399	+
x	987580	988128	+
x	990041	990211	+
x	990214	990116	-
x	991638	991793	+
x	993362	991917	-
x	994688	993486	-
x	993504	993689	+
x	999316	998525	-
x	1001429	1000470	-
x	1002234	1003244	+
x	1003418	1003960	+
x	1010561	1012219	+
x	1010579	1012219	+
x	1012231	1012779	+
x	1013073	1012945	-
x	1013076	1012945	-
x	1013019	1013216	+
x	1013988	1013272	-
x	1013790	1013272	-
x	1015445	1013859	-
x	1017399	1016335	-
x	1017447	1016335	-
x	1017432	1016335	-
x	1017375	1016335	-
x	1017577	1017747	+
x	1018240	1017731	-
x	1021204	1019051	-
x	1021792	1023846	+
x	1024336	1023878	-
x	1025304	1025134	-
x	1025292	1025134	-
x	1025213	1025680	+
x	1025267	1025680	+
x	1026042	1025725	-
x	1027203	1026100	-
x	1027275	1026100	-
x	1027172	1027663	+
x	1027385	1027663	+
x	1029442	1029302	-
x	1029461	1030579	+
x	1034011	1034928	+
x	1035056	1036606	+
x	1037939	1039249	+
x	1037951	1039249	+
x	1039437	1039237	-
x	1039351	1039494	+
x	1039557	1039459	-
x	1039886	1040146	+
x	1039913	1040146	+
x	1039934	1040146	+
x	1040027	1040146	+
x	1040121	1040351	+
x	1040526	1040356	-
x	1044421	1041719	-
x	1044406	1041719	-
x	1043449	1041719	-
x	1046367	1047539	+
x	1050082	1050681	+
x	1050829	1050728	-
x	1050930	1050829	-
x	1051031	1050930	-
x	1054869	1054324	-
x	1055124	1055360	+
x	1055130	1055360	+
x	1055263	1055466	+
x	1055293	1055466	+
x	1056241	1055549	-
x	1056244	1055549	-
x	1056771	1056241	-
x	1056837	1056241	-
x	1057286	1056792	-
x	1057346	1056792	-
x	1057250	1056792	-
x	1058697	1057897	-
x	1059798	1059103	-
x	1059795	1059103	-
x	1060886	1059795	-
x	1060943	1059795	-
x	1061173	1061811	+
x	1065813	1061851	-
x	1065871	1066077	+
x	1066156	1065965	-
x	1066109	1066246	+
x	1067928	1067800	-
x	1067964	1068794	+
x	1071527	1071393	-
x	1071882	1072670	+
x	1074373	1073135	-
x	1079419	1080858	+
x	1079491	1080858	+
x	1080855	1080959	+
x	1084322	1082526	-
x	1084712	1084792	+
x	1085373	1085753	+
x	1085445	1085753	+
x	1085505	1085753	+
x	1085980	1086177	+
x	1086396	1087829	+
x	1086639	1087829	+
x	1088736	1088635	-
x	1088821	1089378	+
x	1089707	1089477	-
x	1089699	1089788	+
x	1091744	1089855	-
x	1092933	1091770	-
x	1093025	1092945	-
x	1093113	1093018	-
x	1094230	1094481	+
x	1094519	1094800	+
x	1095363	1094863	-
x	1095579	1095382	-
x	1096112	1095771	-
x	1096472	1096921	+
x	1096731	1096606	-
x	1096753	1096637	-
x	1097941	1097591	-
x	1097671	1097901	+
x	1098228	1098007	-
x	1099967	1100506	+
x	1099982	1100506	+
x	1101312	1103942	+
x	1102830	1103942	+
x	1103958	1104482	+
x	1105057	1105956	+
x	1107198	1107698	+
x	1107282	1107698	+
x	1107369	1107698	+
x	1116447	1112788	-
x	1116525	1112788	-
x	1117702	1116587	-
x	1118914	1118597	-
x	1119698	1119829	+
x	1119792	1120004	+
x	1121167	1120823	-
x	1121182	1120823	-
x	1121658	1121293	-
x	1122102	1121293	-
x	1122228	1122446	+
x	1122538	1124502	+
x	1125576	1126775	+
x	1125636	1126775	+
x	1126458	1126775	+
x	1126960	1127097	+
x	1127523	1127630	+
x	1127821	1128861	+
x	1127875	1128861	+
x	1128897	1129322	+
x	1129316	1129438	+
x	1130408	1130560	+
x	1131521	1131288	-
x	1132054	1131812	-
x	1133155	1133280	+
x	1133529	1133642	+
x	1133578	1136499	+
x	1134649	1136499	+
x	1137684	1136836	-
x	1137651	1137896	+
x	1138427	1137984	-
x	1138571	1137984	-
x	1137990	1138463	+
x	1138509	1138955	+
x	1139844	1140329	+
x	1139952	1140329	+
x	1140027	1140329	+
x	1140054	1140329	+
x	1140072	1140329	+
x	1140159	1140329	+
x	1140177	1140329	+
x	1140262	1140750	+
x	1140271	1140750	+
x	1140747	1141238	+
x	1140804	1141238	+
x	1141021	1141338	+
x	1141205	1141447	+
x	1141537	1142382	+
x	1141570	1142382	+
x	1142853	1143791	+
x	1143003	1143791	+
x	1145300	1145178	-
x	1145233	1145754	+
x	1145263	1145754	+
x	1148086	1147514	-
x	1148147	1148278	+
x	1148917	1149372	+
x	1149768	1150259	+
x	1150536	1150691	+
x	1151312	1152742	+
x	1151321	1152742	+
x	1154257	1154099	-
x	1154230	1154099	-
x	1154301	1155836	+
x	1154334	1155836	+
x	1155829	1158372	+
x	1155859	1158372	+
x	1159146	1158772	-
x	1159274	1159176	-
x	1160296	1159229	-
x	1160200	1159229	-
x	1160485	1160589	+
x	1161547	1160627	-
x	1161772	1162824	+
x	1164086	1163445	-
x	1164011	1163445	-
x	1163511	1163678	+
x	1164385	1164272	-
x	1165920	1165666	-
x	1166455	1166210	-
x	1166587	1166210	-
x	1168241	1167681	-
x	1170294	1169086	-
x	1172730	1172332	-
x	1172850	1172743	-
x	1180520	1181227	+
x	1180529	1181227	+
x	1181239	1182336	+
x	1182336	1183277	+
x	1189322	1186146	-
x	1189466	1189786	+
x	1191571	1190975	-
x	1191559	1190975	-
x	1191693	1191571	-
x	1191700	1191605	-
x	1192615	1193655	+
x	1196806	1196525	-
x	1199288	1200097	+
x	1201740	1202537	+
x	1206385	1204325	-
x	1206304	1204325	-
x	1206830	1207207	+
x	1207234	1207587	+
x	1207601	1208242	+
x	1208262	1209047	+
x	1209070	1210083	+
x	1210106	1210648	+
x	1211047	1212351	+
x	1211071	1212351	+
x	1211104	1212351	+
x	1212452	1212348	-
x	1212578	1213117	+
x	1212590	1213117	+
x	1213811	1213179	-
x	1215356	1214391	-
x	1215350	1214391	-
x	1218944	1215498	-
x	1218992	1215498	-
x	1219419	1219072	-
x	1220302	1221606	+
x	1221461	1222300	+
x	1221614	1222300	+
x	1221656	1222300	+
x	1222306	1223544	+
x	1224611	1225321	+
x	1225986	1225459	-
x	1226349	1225459	-
x	1226181	1225459	-
x	1226705	1226244	-
x	1226714	1226244	-
x	1229424	1228597	-
x	1230768	1230553	-
x	1230782	1232050	+
x	1230971	1232050	+
x	1231514	1232050	+
x	1233220	1232099	-
x	1234678	1233296	-
x	1234504	1233296	-
x	1237611	1236970	-
x	1238753	1237647	-
x	1239901	1239278	-
x	1239851	1239973	+
x	1240132	1240019	-
x	1241201	1241353	+
x	1241955	1241467	-
x	1243165	1243596	+
x	1243524	1243198	-
x	1243539	1243706	+
x	1243563	1243706	+
x	1243841	1243752	-
x	1244121	1243939	-
x	1244135	1244052	-
x	1244068	1244253	+
x	1244245	1244132	-
x	1244478	1244296	-
x	1244484	1244296	-
x	1244738	1244475	-
x	1244864	1244475	-
x	1244484	1244795	+
x	1245799	1245152	-
x	1245886	1245152	-
x	1246458	1246315	-
x	1247337	1247215	-
x	1247485	1247399	-
x	1247656	1248210	+
x	1248499	1248227	-
x	1248247	1248360	+
x	1248471	1248692	+
x	1249036	1248884	-
x	1250125	1249685	-
x	1250977	1250282	-
x	1250905	1250282	-
x	1250983	1250282	-
x	1250882	1251268	+
x	1251053	1251268	+
x	1252264	1252638	+
x	1252899	1253336	+
x	1253450	1253623	+
x	1253679	1254137	+
x	1254074	1254661	+
x	1254134	1254661	+
x	1254795	1255178	+
x	1254807	1255178	+
x	1255747	1255884	+
x	1255967	1256353	+
x	1255970	1256353	+
x	1257624	1256542	-
x	1257570	1256542	-
x	1257953	1258102	+
x	1258222	1258428	+
x	1258291	1258428	+
x	1258922	1259383	+
x	1259087	1259383	+
x	1259142	1259324	+
x	1259708	1259415	-
x	1259723	1259415	-
x	1260189	1260515	+
x	1261199	1260879	-
x	1261269	1261066	-
x	1261228	1261386	+
x	1261946	1263916	+
x	1261988	1263916	+
x	1262168	1263916	+
x	1262818	1262312	-
x	1262687	1263916	+
x	1263966	1264106	+
x	1264073	1265695	+
x	1267577	1267206	-
x	1268679	1269086	+
x	1268712	1269086	+
x	1269043	1269432	+
x	1269064	1269432	+
x	1269079	1269432	+
x	1269378	1270022	+
x	1269522	1270022	+
x	1269777	1270022	+
x	1270422	1271162	+
x	1271152	1270742	-
x	1271627	1272016	+
x	1271651	1272016	+
x	1272075	1274570	+
x	1274488	1274646	+
x	1275669	1276343	+
x	1275708	1276343	+
x	1275744	1276343	+
x	1275774	1276343	+
x	1276241	1276912	+
x	1276340	1276912	+
x	1276643	1276912	+
x	1277636	1280455	+
x	1277807	1280455	+
x	1280514	1282574	+
x	1281130	1280876	-
x	1282284	1282574	+
x	1284101	1283247	-
x	1287395	1288153	+
x	1288276	1288431	+
x	1288986	1288861	-
x	1291811	1290600	-
x	1292521	1292676	+
x	1293092	1292715	-
x	1292924	1292715	-
x	1293110	1292715	-
x	1293412	1293137	-
x	1293364	1293137	-
x	1293543	1293761	+
x	1294159	1294338	+
x	1294628	1295005	+
x	1294823	1295005	+
x	1295277	1295678	+
x	1296065	1295736	-
x	1296359	1296075	-
x	1296350	1296075	-
x	1296695	1296880	+
x	1296896	1297069	+
x	1297126	1297338	+
x	1297459	1297569	+
x	1299512	1298817	-
x	1300041	1300400	+
x	1300950	1301069	+
x	1301163	1301456	+
x	1302264	1302725	+
x	1302279	1302725	+
x	1302722	1302865	+
x	1305781	1305251	-
x	1307468	1305927	-
x	1308522	1308397	-
x	1310434	1311732	+
x	1314479	1312869	-
x	1315714	1316325	+
x	1315720	1316325	+
x	1317262	1317516	+
x	1319536	1317566	-
x	1320636	1320355	-
x	1321120	1320413	-
x	1321166	1321315	+
x	1322131	1321235	-
x	1322886	1321990	-
x	1324034	1322970	-
x	1325786	1324329	-
x	1325585	1324329	-
x	1326040	1326186	+
x	1326318	1326205	-
x	1327763	1326345	-
x	1327766	1326345	-
x	1328481	1327774	-
x	1328406	1327774	-
x	1329487	1328417	-
x	1329715	1331634	+
x	1333629	1333246	-
x	1336093	1334441	-
x	1336148	1336026	-
x	1337192	1336245	-
x	1338817	1338194	-
x	1339031	1340287	+
x	1344388	1344609	+
x	1344651	1344484	-
x	1344618	1344484	-
x	1344615	1344484	-
x	1344591	1344484	-
x	1344759	1344679	-
x	1346097	1344997	-
x	1346412	1346597	+
x	1346734	1347450	+
x	1346755	1347450	+
x	1348173	1349426	+
x	1350077	1349427	-
x	1352205	1353596	+
x	1361903	1360704	-
x	1361065	1361217	+
x	1362266	1362198	-
x	1362278	1362198	-
x	1364046	1363588	-
x	1363947	1363588	-
x	1364159	1365064	+
x	1365243	1366169	+
x	1374341	1374496	+
x	1374768	1374472	-
x	1374633	1374472	-
x	1375007	1376683	+
x	1375052	1376683	+
x	1377707	1378612	+
x	1381026	1380691	-
x	1381020	1380691	-
x	1382625	1382831	+
x	1382658	1382831	+
x	1382679	1382831	+
x	1384094	1382886	-
x	1384139	1382886	-
x	1384735	1384439	-
x	1384741	1384439	-
x	1384944	1385675	+
x	1384959	1385675	+
x	1387649	1387768	+
x	1387839	1388525	+
x	1387887	1388525	+
x	1388409	1388525	+
x	1390759	1389992	-
x	1390336	1389992	-
x	1392526	1393071	+
x	1392801	1392556	-
x	1392651	1392556	-
x	1392747	1392556	-
x	1393028	1392744	-
x	1392932	1392744	-
x	1392796	1393071	+
x	1392841	1393071	+
x	1392949	1393071	+
x	1392961	1393071	+
x	1393282	1393497	+
x	1393333	1393497	+
x	1393877	1393749	-
x	1393886	1393749	-
x	1394034	1393879	-
x	1393989	1393879	-
x	1394851	1394327	-
x	1394926	1394327	-
x	1395009	1395299	+
x	1395057	1395299	+
x	1395211	1395708	+
x	1395310	1395708	+
x	1395774	1396850	+
x	1395780	1396850	+
x	1395876	1396850	+
x	1397355	1398467	+
x	1397505	1398467	+
x	1399801	1399890	+
x	1400102	1400257	+
x	1400296	1400703	+
x	1400807	1401751	+
x	1401935	1402138	+
x	1403400	1403501	+
x	1404489	1404578	+
x	1406250	1406564	+
x	1406349	1406564	+
x	1406358	1406564	+
x	1406400	1406564	+
x	1407031	1406879	-
x	1407639	1407842	+
x	1408020	1407733	-
x	1407950	1408087	+
x	1407989	1408087	+
x	1408107	1408553	+
x	1408254	1408553	+
x	1408309	1408491	+
x	1408815	1408717	-
x	1409271	1408861	-
x	1409324	1409473	+
x	1409691	1409578	-
x	1409925	1410497	+
x	1410427	1412397	+
x	1410469	1412397	+
x	1410649	1412397	+
x	1411299	1410793	-
x	1411168	1412397	+
x	1412447	1412587	+
x	1416058	1415687	-
x	1417193	1417576	+
x	1418961	1419623	+
x	1420298	1418964	-
x	1418994	1419623	+
x	1419018	1419623	+
x	1420119	1420508	+
x	1420203	1420508	+
x	1422298	1423062	+
x	1422980	1423138	+
x	1423942	1423292	-
x	1424091	1424834	+
x	1424160	1424834	+
x	1424199	1424834	+
x	1424235	1424834	+
x	1424265	1424834	+
x	1424771	1425373	+
x	1424831	1425373	+
x	1425435	1425785	+
x	1425660	1425785	+
x	1426515	1429331	+
x	1426686	1429331	+
x	1428678	1429331	+
x	1429423	1429998	+
x	1429753	1429998	+
x	1430249	1433257	+
x	1431384	1430647	-
x	1431420	1431554	+
x	1431515	1433257	+
x	1433269	1433841	+
x	1433419	1433841	+
x	1433814	1433951	+
x	1434564	1433896	-
x	1434327	1433896	-
x	1434552	1433896	-
x	1434480	1433896	-
x	1435060	1434710	-
x	1435005	1435175	+
x	1435497	1435604	+
x	1436121	1435663	-
x	1436736	1436215	-
x	1436967	1436773	-
x	1436980	1436801	-
x	1437004	1436801	-
x	1442589	1442329	-
x	1444246	1444094	-
x	1444186	1445046	+
x	1445043	1445663	+
x	1445691	1447586	+
x	1450267	1450103	-
x	1451298	1451390	+
x	1451660	1451872	+
x	1451720	1451872	+
x	1451995	1454592	+
x	1456095	1456235	+
x	1456107	1456235	+
x	1456226	1456405	+
x	1456238	1456405	+
x	1456604	1456479	-
x	1456542	1456754	+
x	1460093	1459503	-
x	1462835	1462683	-
x	1462832	1462683	-
x	1462838	1462683	-
x	1462791	1463588	+
x	1463585	1463914	+
x	1465246	1464527	-
x	1465548	1465366	-
x	1467645	1465687	-
x	1471035	1469908	-
x	1471171	1471064	-
x	1471983	1472087	+
x	1472130	1472270	+
x	1472691	1472305	-
x	1472425	1473012	+
x	1472446	1473012	+
x	1473161	1474282	+
x	1474251	1474394	+
x	1474386	1474258	-
x	1474372	1477389	+
x	1477222	1477389	+
x	1478330	1478638	+
x	1479498	1479938	+
x	1485244	1483625	-
x	1485511	1485371	-
x	1485474	1485599	+
x	1485952	1485842	-
x	1487230	1486253	-
x	1488394	1488137	-
x	1489530	1491209	+
x	1489905	1491209	+
x	1490229	1491209	+
x	1491314	1491024	-
x	1491901	1492515	+
x	1491904	1492515	+
x	1495348	1496136	+
x	1496158	1497201	+
x	1500477	1501217	+
x	1501104	1501217	+
x	1501262	1502167	+
x	1503372	1504769	+
x	1505975	1507516	+
x	1509853	1509125	-
x	1511770	1510853	-
x	1511773	1510853	-
x	1511691	1511524	-
x	1512899	1513024	+
x	1513120	1513010	-
x	1513147	1514760	+
x	1518289	1517495	-
x	1518247	1517495	-
x	1519117	1518968	-
x	1520136	1519489	-
x	1520007	1519489	-
x	1520398	1521429	+
x	1521429	1522940	+
x	1522542	1522940	+
x	1522816	1522688	-
x	1522701	1522940	+
x	1524951	1523719	-
x	1526362	1526258	-
x	1526283	1526501	+
x	1526655	1526419	-
x	1526464	1526637	+
x	1529002	1528169	-
x	1529296	1529156	-
x	1529386	1529156	-
x	1531194	1530973	-
x	1531865	1531431	-
x	1537170	1537039	-
x	1537540	1537100	-
x	1537216	1537100	-
x	1537414	1537569	+
x	1537444	1537569	+
x	1537988	1537566	-
x	1542050	1542451	+
x	1542077	1542451	+
x	1542119	1542451	+
x	1542122	1542451	+
x	1542125	1542451	+
x	1552203	1552316	+
x	1552419	1552267	-
x	1553300	1554022	+
x	1553711	1554022	+
x	1554209	1555795	+
x	1555785	1557101	+
x	1555809	1557101	+
x	1555833	1557101	+
x	1556142	1557101	+
x	1557086	1557748	+
x	1557859	1557933	+
x	1558018	1561863	+
x	1562232	1562936	+
x	1565804	1566334	+
x	1566925	1567380	+
x	1567021	1567380	+
x	1568341	1567418	-
x	1569377	1569901	+
x	1570156	1571781	+
x	1570162	1571781	+
x	1571905	1571702	-
x	1571921	1572145	+
x	1571978	1572145	+
x	1572208	1572747	+
x	1573831	1574835	+
x	1573843	1574835	+
x	1575577	1575696	+
x	1575837	1575709	-
x	1577603	1576431	-
x	1577696	1576431	-
x	1577609	1576431	-
x	1577660	1576431	-
x	1578304	1580265	+
x	1580527	1580357	-
x	1580805	1581002	+
x	1588193	1588077	-
x	1588111	1588308	+
x	1588117	1588308	+
x	1588272	1588177	-
x	1588419	1588640	+
x	1588467	1588640	+
x	1588595	1588699	+
x	1589924	1589406	-
x	1589917	1590258	+
x	1592506	1592601	+
x	1595467	1593923	-
x	1595422	1593923	-
x	1595492	1595641	+
x	1595879	1596289	+
x	1596858	1596709	-
x	1597271	1599538	+
x	1599498	1600289	+
x	1599528	1600289	+
x	1600342	1601127	+
x	1601461	1601676	+
x	1602436	1601993	-
x	1611304	1607564	-
x	1611391	1607564	-
x	1612805	1611399	-
x	1613884	1613060	-
x	1614262	1614068	-
x	1614173	1614760	+
x	1615417	1614347	-
x	1614809	1617220	+
x	1618141	1617197	-
x	1617239	1618117	+
x	1618092	1618763	+
x	1618125	1618763	+
x	1618848	1618979	+
x	1618941	1618873	-
x	1618956	1618873	-
x	1619554	1619276	-
x	1619449	1619276	-
x	1619477	1619641	+
x	1620750	1619740	-
x	1622581	1620884	-
x	1622597	1622719	+
x	1622630	1622719	+
x	1623191	1622976	-
x	1623617	1623967	+
x	1624095	1623949	-
x	1626556	1624157	-
x	1625260	1624157	-
x	1626793	1626581	-
x	1628337	1627123	-
x	1628277	1627123	-
x	1631664	1630264	-
x	1631556	1630264	-
x	1631818	1631675	-
x	1631845	1632024	+
x	1633035	1632025	-
x	1634808	1632025	-
x	1632879	1632025	-
x	1638933	1637275	-
x	1638867	1637275	-
x	1638854	1638973	+
x	1640408	1639251	-
x	1642079	1640460	-
x	1640567	1640460	-
x	1642142	1640460	-
x	1643562	1643380	-
x	1647707	1647417	-
x	1647914	1647726	-
x	1649723	1649274	-
x	1649993	1649274	-
x	1650204	1650287	+
x	1650864	1650346	-
x	1650909	1650346	-
x	1651559	1651437	-
x	1652548	1652700	+
x	1652673	1652834	+
x	1664008	1662680	-
x	1663702	1662680	-
x	1663735	1662680	-
x	1664002	1662680	-
x	1664059	1662680	-
x	1663240	1662680	-
x	1664268	1664002	-
x	1666252	1665338	-
x	1666202	1666402	+
x	1668966	1668127	-
x	1669017	1668127	-
x	1669074	1668127	-
x	1672421	1671033	-
x	1673824	1673702	-
x	1675891	1676268	+
x	1676289	1676672	+
x	1678418	1676979	-
x	1678448	1676979	-
x	1680481	1680170	-
x	1681822	1680509	-
x	1681831	1680509	-
x	1682684	1683154	+
x	1683999	1683199	-
x	1684098	1683199	-
x	1685607	1685702	+
x	1686811	1685921	-
x	1686328	1685921	-
x	1687227	1687066	-
x	1687221	1687066	-
x	1687078	1687230	+
x	1689364	1687319	-
x	1689501	1690247	+
x	1693235	1692987	-
x	1693265	1692987	-
x	1693341	1693249	-
x	1694418	1693399	-
x	1695644	1694430	-
x	1696176	1695850	-
x	1697960	1697250	-
x	1698065	1698373	+
x	1698068	1698373	+
x	1701059	1703482	+
x	1701086	1703482	+
x	1701950	1703482	+
x	1703872	1704966	+
x	1704237	1704091	-
x	1705009	1705623	+
x	1705820	1707001	+
x	1707649	1706954	-
x	1711551	1711432	-
x	1711801	1712115	+
x	1711807	1712115	+
x	1711843	1712115	+
x	1712208	1712291	+
x	1714209	1714039	-
x	1714493	1715377	+
x	1718333	1716801	-
x	1718757	1718867	+
x	1722179	1722063	-
x	1722553	1723308	+
x	1722580	1723308	+
x	1722589	1723308	+
x	1723438	1724613	+
x	1724689	1725618	+
x	1733082	1731835	-
x	1732056	1731835	-
x	1735621	1734509	-
x	1737297	1736710	-
x	1737288	1736710	-
x	1739611	1741203	+
x	1744566	1743526	-
x	1744734	1744934	+
x	1744779	1744934	+
x	1744797	1744934	+
x	1745508	1745948	+
x	1756047	1755187	-
x	1757383	1756109	-
x	1758550	1758227	-
x	1758475	1758227	-
x	1760985	1760551	-
x	1761129	1761010	-
x	1761195	1761422	+
x	1761416	1762282	+
x	1761425	1762282	+
x	1761512	1762282	+
x	1762303	1764294	+
x	1764831	1764295	-
x	1764816	1764295	-
x	1766081	1765842	-
x	1766252	1765842	-
x	1765850	1765972	+
x	1765853	1765972	+
x	1766268	1766783	+
x	1769296	1769210	-
x	1769360	1769226	-
x	1770109	1769999	-
x	1773333	1773214	-
x	1773303	1773214	-
x	1773390	1773614	+
x	1782183	1782088	-
x	1782325	1782678	+
x	1784141	1784494	+
x	1785270	1784506	-
x	1786772	1786104	-
x	1787474	1786836	-
x	1789589	1787487	-
x	1790264	1790401	+
x	1790862	1790692	-
x	1791458	1792870	+
x	1799768	1798281	-
x	1800139	1799777	-
x	1800882	1800694	-
x	1805166	1805771	+
x	1806137	1805961	-
x	1806200	1806556	+
x	1806689	1807870	+
x	1806716	1807870	+
x	1808097	1809362	+
x	1812781	1813935	+
x	1812784	1813935	+
x	1815106	1815969	+
x	1815205	1815969	+
x	1818618	1820264	+
x	1822920	1822753	-
x	1825200	1825391	+
x	1825922	1826023	+
x	1829133	1828396	-
x	1830763	1830635	-
x	1834528	1833545	-
x	1834737	1834642	-
x	1834852	1834718	-
x	1835457	1836068	+
x	1838096	1836228	-
x	1838842	1839063	+
x	1839162	1839602	+
x	1839809	1839714	-
x	1839769	1839987	+
x	1839865	1839987	+
x	1839880	1839987	+
x	1840938	1841045	+
x	1841084	1842013	+
x	1844926	1845516	+
x	1845576	1845469	-
x	1847329	1847087	-
x	1847341	1847087	-
x	1847674	1847516	-
x	1851963	1850611	-
x	1852906	1852067	-
x	1853264	1852917	-
x	1858399	1857824	-
x	1859222	1859323	+
x	1861671	1861817	+
x	1862905	1861718	-
x	1864224	1863193	-
x	1865890	1866696	+
x	1866863	1867573	+
x	1867578	1868255	+
x	1868272	1868976	+
x	1870673	1872208	+
x	1870706	1872208	+
x	1870718	1872208	+
x	1872121	1872861	+
x	1872208	1872861	+
x	1872928	1874235	+
x	1873162	1874235	+
x	1874864	1874244	-
x	1875794	1875681	-
x	1879261	1877252	-
x	1880255	1879212	-
x	1880346	1880197	-
x	1880923	1880372	-
x	1881072	1882940	+
x	1883155	1884123	+
x	1884134	1884775	+
x	1886118	1884868	-
x	1886226	1884868	-
x	1886199	1886342	+
x	1889176	1888229	-
x	1888996	1888229	-
x	1891042	1890038	-
x	1891015	1890038	-
x	1892514	1892362	-
x	1894222	1893950	-
x	1894629	1894264	-
x	1894677	1894264	-
x	1895019	1896014	+
x	1896098	1896982	+
x	1897887	1897033	-
x	1898843	1898944	+
x	1899285	1901093	+
x	1902768	1904111	+
x	1902777	1904111	+
x	1904292	1905782	+
x	1906433	1906329	-
x	1906422	1906610	+
x	1907824	1907006	-
x	1907815	1907006	-
x	1907979	1907839	-
x	1907984	1909105	+
x	1909139	1909507	+
x	1909966	1910991	+
x	1911009	1911122	+
x	1911024	1911122	+
x	1911083	1911199	+
x	1911125	1911199	+
x	1911637	1911518	-
x	1911672	1912163	+
x	1912064	1911840	-
x	1912170	1912304	+
x	1914668	1913553	-
x	1916468	1914750	-
x	1916435	1914750	-
x	1920343	1919957	-
x	1920053	1920400	+
x	1920056	1920400	+
x	1920798	1921121	+
x	1920822	1921121	+
x	1925013	1925141	+
x	1925107	1926714	+
x	1925116	1926714	+
x	1928516	1928262	-
x	1930584	1931435	+
x	1932377	1932943	+
x	1933582	1934166	+
x	1933879	1934166	+
x	1935307	1935495	+
x	1936966	1938339	+
x	1939263	1938385	-
x	1939501	1939364	-
x	1941377	1939458	-
x	1941500	1939458	-
x	1941645	1941526	-
x	1942818	1942321	-
x	1942767	1942321	-
x	1942993	1944231	+
x	1944194	1946833	+
x	1944200	1946833	+
x	1946913	1948352	+
x	1948470	1948706	+
x	1948811	1949002	+
x	1949659	1949003	-
x	1950392	1950054	-
x	1951797	1952027	+
x	1952360	1952785	+
x	1956455	1956565	+
x	1957078	1956722	-
x	1961292	1959481	-
x	1961255	1961413	+
x	1963287	1963168	-
x	1964337	1965779	+
x	1968260	1967001	-
x	1969286	1968339	-
x	1969325	1968339	-
x	1969271	1968339	-
x	1973010	1973612	+
x	1974138	1973614	-
x	1977441	1977346	-
x	1977466	1978032	+
x	1978122	1978847	+
x	1978900	1979295	+
x	1978942	1979295	+
x	1981075	1981221	+
x	1983641	1981212	-
x	1984803	1984672	-
x	1985594	1985154	-
x	1986480	1985914	-
x	1986662	1986483	-
x	1988718	1988482	-
x	1988850	1988482	-
x	1990952	1988874	-
x	1992946	1992302	-
x	1995518	1995399	-
x	1995521	1995399	-
x	1997225	1995564	-
x	1999852	1997894	-
x	1999897	1997894	-
x	1999858	1997894	-
x	2002023	2001877	-
x	2002731	2002381	-
x	2002847	2002731	-
x	2002860	2002762	-
x	2003046	2003017	-
x	2005370	2003946	-
x	2006145	2005345	-
x	2006983	2006312	-
x	2007298	2006312	-
x	2007019	2006312	-
x	2008827	2007313	-
x	2009886	2008897	-
x	2011627	2011773	+
x	2011776	2011630	-
x	2011716	2011630	-
x	2011850	2011737	-
x	2012183	2012007	-
x	2012049	2012303	+
x	2012426	2012313	-
x	2012475	2012972	+
x	2013486	2013388	-
x	2013917	2014651	+
x	2018387	2016621	-
x	2018959	2018450	-
x	2019070	2018450	-
x	2019473	2019345	-
x	2019402	2019578	+
x	2020579	2019857	-
x	2023323	2022241	-
x	2022600	2022241	-
x	2024132	2023332	-
x	2024771	2024220	-
x	2025506	2024817	-
x	2025807	2025607	-
x	2025610	2025696	+
x	2032097	2031684	-
x	2033735	2034496	+
x	2034353	2034496	+
x	2034493	2034681	+
x	2034948	2035094	+
x	2035009	2036091	+
x	2037345	2036593	-
x	2037567	2037689	+
x	2038617	2038120	-
x	2038452	2038120	-
x	2038473	2038120	-
x	2039111	2038797	-
x	2039305	2039156	-
x	2042059	2041130	-
x	2041965	2042651	+
x	2046184	2047188	+
x	2047683	2047561	-
x	2047601	2047966	+
x	2047661	2047966	+
x	2049014	2049289	+
x	2049057	2049776	+
x	2051281	2051018	-
x	2051317	2051018	-
x	2051081	2051311	+
x	2051084	2051311	+
x	2051357	2051458	+
x	2054097	2052421	-
x	2054115	2052421	-
x	2054468	2054373	-
x	2055458	2054547	-
x	2059177	2058482	-
x	2059519	2059217	-
x	2059582	2059217	-
x	2059584	2059691	+
x	2059765	2059929	+
x	2060148	2061263	+
x	2061344	2061481	+
x	2061713	2061537	-
x	2061680	2061537	-
x	2061696	2061839	+
x	2064895	2064176	-
x	2064847	2064176	-
x	2065871	2066506	+
x	2067702	2068049	+
x	2068902	2069699	+
x	2070237	2070010	-
x	2070337	2071218	+
x	2074105	2072825	-
x	2074213	2072825	-
x	2075900	2074098	-
x	2077599	2075887	-
x	2079006	2085113	+
x	2085210	2094692	+
x	2094629	2095789	+
x	2094692	2095789	+
x	2095893	2095759	-
x	2095786	2096589	+
x	2095933	2096589	+
x	2097886	2098170	+
x	2098176	2097907	-
x	2100974	2101723	+
x	2100995	2101723	+
x	2101229	2101723	+
x	2101680	2101820	+
x	2104562	2103942	-
x	2104871	2103942	-
x	2105057	2103942	-
x	2105023	2105181	+
x	2106679	2108181	+
x	2106727	2108181	+
x	2109496	2109296	-
x	2109466	2109296	-
x	2109599	2109447	-
x	2109481	2109654	+
x	2109517	2109654	+
x	2111354	2109870	-
x	2110475	2109870	-
x	2110193	2109870	-
x	2110094	2109870	-
x	2110727	2109870	-
x	2111321	2109870	-
x	2113597	2112680	-
x	2114380	2115432	+
x	2118479	2116974	-
x	2125358	2120991	-
x	2125355	2120991	-
x	2122106	2120991	-
x	2128319	2126856	-
x	2141218	2134787	-
x	2149209	2144413	-
x	2146579	2146710	+
x	2151652	2150522	-
x	2151596	2151793	+
x	2155413	2152813	-
x	2164366	2155454	-
x	2165074	2155454	-
x	2165113	2165301	+
x	2165476	2165688	+
x	2166313	2166176	-
x	2166945	2166832	-
x	2168125	2167727	-
x	2168140	2167727	-
x	2168395	2168168	-
x	2169376	2168444	-
x	2171275	2170532	-
x	2172592	2172485	-
x	2172928	2172839	-
x	2173185	2173382	+
x	2173462	2175636	+
x	2173477	2175636	+
x	2175775	2175611	-
x	2175636	2175752	+
x	2177859	2176636	-
x	2177922	2176636	-
x	2178907	2179560	+
x	2180619	2181329	+
x	2180637	2181329	+
x	2180889	2181329	+
x	2181331	2182104	+
x	2181373	2182104	+
x	2182375	2182815	+
x	2182618	2182815	+
x	2184333	2184208	-
x	2184241	2184357	+
x	2186673	2187557	+
x	2187764	2188594	+
x	2188747	2188634	-
x	2188896	2188810	-
x	2188828	2188947	+
x	2189167	2189006	-
x	2189614	2189246	-
x	2190103	2189246	-
x	2190235	2190486	+
x	2191406	2190909	-
x	2191148	2190909	-
x	2192443	2191874	-
x	2192643	2192843	+
x	2193223	2193083	-
x	2193267	2193590	+
x	2193351	2193590	+
x	2193791	2193558	-
x	2195126	2194989	-
x	2195415	2195621	+
x	2195700	2196317	+
x	2195715	2196317	+
x	2195964	2196317	+
x	2196791	2197006	+
x	2197145	2197056	-
x	2197327	2197097	-
x	2198119	2197343	-
x	2198122	2197343	-
x	2197636	2197343	-
x	2198775	2198122	-
x	2199413	2199171	-
x	2199673	2199446	-
x	2199474	2199542	+
x	2200021	2199695	-
x	2199999	2200259	+
x	2200656	2201813	+
x	2200668	2201813	+
x	2201193	2201813	+
x	2201352	2201813	+
x	2201878	2202114	+
x	2205485	2204496	-
x	2207631	2205496	-
x	2208051	2208524	+
x	2208399	2208524	+
x	2209327	2211126	+
x	2210478	2210302	-
x	2210443	2211126	+
x	2211693	2212028	+
x	2212037	2213095	+
x	2213231	2213908	+
x	2215418	2214561	-
x	2215409	2214561	-
x	2216076	2215633	-
x	2215639	2216112	+
x	2216591	2216061	-
x	2216549	2216061	-
x	2216157	2216603	+
x	2217042	2217335	+
x	2217069	2217335	+
x	2217087	2217335	+
x	2217174	2217335	+
x	2217192	2217335	+
x	2217798	2217989	+
x	2217999	2218115	+
x	2218667	2218786	+
x	2219216	2218887	-
x	2219301	2219423	+
x	2219307	2219423	+
x	2219810	2219388	-
x	2222201	2221236	-
x	2222401	2222210	-
x	2222328	2222486	+
x	2222610	2224037	+
x	2224566	2224111	-
x	2225469	2224111	-
x	2225770	2225651	-
x	2226665	2225736	-
x	2228120	2227869	-
x	2229504	2230808	+
x	2229567	2230808	+
x	2231875	2232942	+
x	2233532	2234269	+
x	2236795	2235818	-
x	2236798	2235818	-
x	2243673	2243236	-
x	2251392	2250499	-
x	2255529	2255633	+
x	2255808	2255623	-
x	2255626	2255730	+
x	2255723	2255923	+
x	2256001	2255816	-
x	2255819	2255923	+
x	2255916	2256146	+
x	2256012	2256146	+
x	2260430	2259060	-
x	2260519	2260614	+
x	2262454	2262062	-
x	2263761	2263282	-
x	2268515	2267271	-
x	2268491	2267271	-
x	2273301	2271139	-
x	2274799	2273753	-
x	2274856	2273753	-
x	2275511	2277133	+
x	2275550	2277133	+
x	2277518	2277826	+
x	2281068	2280427	-
x	2281122	2280427	-
x	2281896	2284703	+
x	2282328	2284703	+
x	2285783	2285631	-
x	2285796	2287148	+
x	2288936	2287161	-
x	2289101	2287161	-
x	2289778	2289098	-
x	2290020	2289856	-
x	2290752	2290898	+
x	2290770	2290898	+
x	2291080	2291226	+
x	2291098	2291226	+
x	2291276	2292643	+
x	2291396	2292643	+
x	2291435	2292643	+
x	2302558	2302890	+
x	2303620	2303015	-
x	2303596	2303015	-
x	2303989	2303681	-
x	2305789	2303681	-
x	2306294	2305800	-
x	2309656	2309519	-
x	2310059	2309934	-
x	2310411	2310079	-
x	2310396	2310079	-
x	2310354	2310079	-
x	2312566	2311793	-
x	2312239	2311793	-
x	2318041	2317187	-
x	2318080	2318280	+
x	2319322	2318270	-
x	2319381	2319527	+
x	2324409	2323591	-
x	2327718	2328056	+
x	2331668	2329188	-
x	2332936	2332439	-
x	2334927	2333818	-
x	2335059	2337092	+
x	2339705	2341021	+
x	2341310	2344663	+
x	2342354	2342103	-
x	2343287	2344663	+
x	2344746	2344916	+
x	2344800	2344916	+
x	2345389	2345300	-
x	2345820	2346908	+
x	2346915	2349191	+
x	2348460	2349191	+
x	2348974	2350320	+
x	2349184	2350320	+
x	2352084	2352320	+
x	2352445	2352906	+
x	2353417	2352947	-
x	2354183	2353464	-
x	2355865	2354180	-
x	2355954	2356082	+
x	2356171	2356818	+
x	2363261	2360892	-
x	2363190	2363348	+
x	2363385	2365100	+
x	2363394	2365100	+
x	2366071	2365139	-
x	2366272	2366150	-
x	2366832	2366245	-
x	2367002	2367580	+
x	2368086	2367700	-
x	2369878	2368514	-
x	2369710	2368514	-
x	2370031	2368514	-
x	2369950	2368514	-
x	2369602	2368514	-
x	2370174	2370257	+
x	2370386	2370282	-
x	2370617	2370420	-
x	2371595	2370645	-
x	2371834	2372232	+
x	2372232	2372924	+
x	2373911	2373783	-
x	2375468	2376481	+
x	2376475	2377710	+
x	2377756	2377875	+
x	2380454	2378979	-
x	2382878	2381838	-
x	2384294	2383020	-
x	2384306	2383020	-
x	2384959	2384846	-
x	2385016	2385192	+
x	2387913	2385988	-
x	2387979	2385988	-
x	2388027	2385988	-
x	2388119	2388253	+
x	2390032	2389724	-
x	2389958	2389848	-
x	2390751	2389945	-
x	2394295	2394179	-
x	2395375	2396034	+
x	2398269	2397445	-
x	2399312	2398371	-
x	2400773	2401483	+
x	2405343	2405089	-
x	2405475	2405089	-
x	2405395	2405234	-
x	2405255	2406070	+
x	2405498	2406070	+
x	2405528	2406070	+
x	2406293	2407759	+
x	2408902	2409615	+
x	2409058	2409615	+
x	2410837	2412330	+
x	2412412	2414226	+
x	2419752	2418619	-
x	2420532	2419837	-
x	2422965	2422552	-
x	2422567	2422851	+
x	2424161	2424042	-
x	2424158	2424042	-
x	2426561	2426439	-
x	2426924	2426439	-
x	2427039	2427149	+
x	2427352	2427447	+
x	2427556	2428203	+
x	2429122	2428238	-
x	2432427	2432257	-
x	2433200	2432463	-
x	2433901	2433242	-
x	2434518	2433901	-
x	2434576	2435064	+
x	2435598	2435149	-
x	2435218	2435760	+
x	2440486	2440650	+
x	2440785	2441273	+
x	2441423	2440965	-
x	2443051	2441423	-
x	2448884	2447961	-
x	2452444	2453130	+
x	2452480	2453130	+
x	2453228	2453127	-
x	2453159	2453254	+
x	2453704	2453330	-
x	2456131	2453330	-
x	2456249	2456482	+
x	2456346	2458172	+
x	2461052	2461213	+
x	2462742	2463596	+
x	2465233	2464451	-
x	2470705	2466101	-
x	2470537	2466101	-
x	2470720	2466101	-
x	2470615	2466101	-
x	2471262	2470639	-
x	2472947	2471259	-
x	2472824	2471259	-
x	2472515	2471259	-
x	2475822	2476592	+
x	2480442	2476732	-
x	2480490	2476732	-
x	2481126	2480914	-
x	2480961	2481104	+
x	2483472	2484734	+
x	2483553	2484734	+
x	2483565	2484734	+
x	2486902	2485895	-
x	2490225	2491484	+
x	2491481	2492671	+
x	2493593	2493823	+
x	2494814	2494062	-
x	2495635	2494883	-
x	2495641	2494883	-
x	2496172	2494883	-
x	2497434	2496229	-
x	2498341	2498246	-
x	2500295	2499753	-
x	2500310	2499753	-
x	2500517	2500416	-
x	2500637	2500999	+
x	2501640	2501038	-
x	2501930	2503087	+
x	2501948	2503087	+
x	2508912	2509298	+
x	2508921	2509298	+
x	2509558	2509292	-
x	2515279	2513609	-
x	2516438	2515368	-
x	2520546	2521517	+
x	2520699	2521517	+
x	2521185	2521517	+
x	2521275	2521517	+
x	2523467	2522190	-
x	2527182	2525347	-
x	2532307	2529581	-
x	2535987	2534197	-
x	2537186	2537311	+
x	2537477	2537641	+
x	2544735	2544241	-
x	2545441	2545602	+
x	2549222	2550742	+
x	2549264	2550742	+
x	2551926	2551375	-
x	2555323	2554790	-
x	2560219	2560076	-
x	2563165	2563266	+
x	2563420	2563289	-
x	2564070	2563435	-
x	2564097	2563435	-
x	2566339	2565425	-
x	2569043	2569156	+
x	2574177	2576183	+
x	2579886	2578801	-
x	2580853	2579921	-
x	2582732	2581890	-
x	2582267	2581890	-
x	2584279	2583734	-
x	2584303	2583734	-
x	2585147	2584254	-
x	2587674	2585026	-
x	2589325	2589477	+
x	2593470	2593186	-
x	2593842	2595182	+
x	2596134	2596021	-
x	2597533	2598690	+
x	2599398	2599553	+
x	2604247	2604107	-
x	2611747	2610944	-
x	2613039	2611645	-
x	2613691	2613515	-
x	2613670	2613515	-
x	2613739	2613515	-
x	2618184	2616001	-
x	2621417	2621274	-
x	2621652	2621467	-
x	2622547	2622308	-
x	2622835	2622683	-
x	2623797	2624177	+
x	2624933	2624577	-
x	2625468	2625292	-
x	2626047	2625811	-
x	2626617	2626405	-
x	2626841	2626683	-
x	2629019	2628072	-
x	2629053	2628811	-
x	2629567	2629022	-
x	2629697	2629317	-
x	2629454	2629317	-
x	2630000	2630635	+
x	2631465	2631551	+
x	2631613	2631735	+
x	2633895	2634530	+
x	2634440	2634913	+
x	2635968	2635282	-
x	2635328	2635846	+
x	2635843	2636142	+
x	2636716	2637000	+
x	2637417	2637082	-
x	2637505	2637335	-
x	2638897	2637962	-
x	2640234	2640452	+
x	2640485	2641798	+
x	2640572	2641798	+
x	2644484	2643444	-
x	2644499	2643444	-
x	2645852	2649235	+
x	2649109	2649011	-
x	2650217	2649291	-
x	2650436	2649291	-
x	2650430	2650534	+
x	2655501	2655034	-
x	2655729	2655890	+
x	2656023	2655898	-
x	2655980	2656240	+
x	2656013	2656240	+
x	2656362	2656216	-
x	2656912	2657832	+
x	2658188	2658259	+
x	2659887	2659750	-
x	2659957	2661636	+
x	2661651	2662388	+
x	2661726	2662388	+
x	2669514	2669188	-
x	2672273	2672175	-
x	2672337	2672681	+
x	2672448	2672681	+
x	2672553	2672681	+
x	2672565	2672681	+
x	2673915	2672740	-
x	2674314	2675516	+
x	2674500	2675516	+
x	2677755	2675566	-
x	2677794	2675566	-
x	2678010	2677852	-
x	2678388	2678732	+
x	2678755	2679126	+
x	2680596	2680727	+
x	2682243	2681359	-
x	2684894	2685658	+
x	2686047	2685697	-
x	2686044	2685697	-
x	2688019	2687708	-
x	2691012	2690014	-
x	2691009	2690014	-
x	2691000	2690014	-
x	2692031	2692195	+
x	2693406	2693278	-
x	2694076	2695572	+
x	2697157	2697489	+
x	2697214	2697489	+
x	2698349	2697492	-
x	2700074	2699625	-
x	2703298	2702507	-
x	2706979	2706080	-
x	2707632	2707075	-
x	2707535	2707675	+
x	2708160	2707711	-
x	2708058	2707711	-
x	2708572	2708147	-
x	2709659	2710558	+
x	2712162	2711662	-
x	2717967	2717767	-
x	2719155	2717968	-
x	2722094	2721801	-
x	2725449	2725114	-
x	2725378	2725485	+
x	2729280	2731283	+
x	2732349	2731360	-
x	2733104	2732529	-
x	2735082	2733172	-
x	2735041	2735175	+
x	2735357	2737057	+
x	2735882	2737057	+
x	2737401	2740334	+
x	2740407	2740634	+
x	2740421	2740600	+
x	2740852	2740751	-
x	2743367	2742669	-
x	2746265	2745471	-
x	2747215	2746502	-
x	2747328	2747221	-
x	2747287	2747517	+
x	2748462	2747428	-
x	2749357	2748479	-
x	2749503	2750075	+
x	2749530	2750075	+
x	2753886	2753776	-
x	2755984	2754695	-
x	2756696	2756070	-
x	2756673	2756780	+
x	2757005	2758057	+
x	2758867	2760933	+
x	2765244	2764978	-
x	2765131	2765304	+
x	2765618	2766133	+
x	2769939	2768428	-
x	2769894	2768428	-
x	2782702	2780705	-
x	2782909	2780705	-
x	2784868	2783396	-
x	2791906	2792433	+
x	2794702	2792519	-
x	2800000	2800845	+
x	2801169	2801306	+
x	2802114	2801338	-
x	2805997	2804147	-
x	2806653	2806537	-
x	2806948	2806625	-
x	2808593	2807379	-
x	2811270	2812124	+
x	2812315	2813595	+
x	2815089	2815517	+
x	2815095	2815517	+
x	2817349	2816561	-
x	2817394	2816561	-
x	2817622	2816561	-
x	2820060	2818711	-
x	2821216	2820245	-
x	2821189	2820245	-
x	2824606	2821325	-
x	2827234	2825981	-
x	2827338	2827514	+
x	2827386	2827514	+
x	2830531	2829197	-
x	2830546	2829197	-
x	2831234	2830521	-
x	2831156	2830521	-
x	2831168	2831332	+
x	2832781	2831399	-
x	2832826	2831399	-
x	2837289	2833402	-
x	2837286	2833402	-
x	2837686	2839104	+
x	2839604	2839101	-
x	2840276	2839662	-
x	2840234	2839662	-
x	2840395	2840258	-
x	2840506	2841354	+
x	2841386	2841670	+
x	2841944	2841864	-
x	2841962	2841864	-
x	2842105	2841941	-
x	2842137	2842259	+
x	2843476	2842745	-
x	2849000	2849134	+
x	2851754	2851179	-
x	2851906	2851751	-
x	2852192	2853784	+
x	2854506	2853769	-
x	2856886	2856005	-
x	2858015	2857632	-
x	2857749	2858126	+
x	2860094	2859057	-
x	2859630	2860232	+
x	2860765	2861487	+
x	2860789	2861487	+
x	2863133	2864179	+
x	2864293	2865648	+
x	2865694	2866017	+
x	2865745	2866017	+
x	2867312	2866014	-
x	2866517	2866014	-
x	2867831	2867655	-
x	2867891	2867655	-
x	2867873	2867655	-
x	2867915	2868346	+
x	2868301	2867969	-
x	2868193	2867969	-
x	2869467	2868865	-
x	2870015	2869692	-
x	2869865	2869692	-
x	2870212	2869970	-
x	2874237	2873917	-
x	2875572	2875405	-
x	2875627	2875761	+
x	2878374	2875801	-
x	2885350	2884280	-
x	2885560	2885925	+
x	2885563	2885925	+
x	2886585	2887808	+
x	2889104	2888772	-
x	2890121	2889570	-
x	2890118	2889570	-
x	2890385	2890137	-
x	2892050	2892841	+
x	2892907	2894148	+
x	2892952	2894148	+
x	2893465	2894148	+
x	2894930	2894793	-
x	2897882	2898034	+
x	2898386	2898096	-
x	2898813	2898376	-
x	2901995	2901849	-
x	2902809	2902003	-
x	2903266	2903403	+
x	2903768	2905717	+
x	2905941	2905813	-
x	2905968	2906462	+
x	2907562	2907482	-
x	2909466	2908804	-
x	2909553	2908804	-
x	2910277	2909849	-
x	2913226	2911898	-
x	2913268	2911898	-
x	2915297	2915115	-
x	2915121	2915414	+
x	2921439	2920789	-
x	2922532	2921417	-
x	2922834	2922658	-
x	2925085	2924582	-
x	2925655	2925822	+
x	2925897	2926094	+
x	2926425	2926201	-
x	2926452	2926201	-
x	2926761	2926576	-
x	2927824	2927420	-
x	2927518	2927420	-
x	2929150	2928398	-
x	2929192	2928398	-
x	2929048	2928398	-
x	2930081	2929164	-
x	2930153	2929164	-
x	2929751	2929164	-
x	2930117	2929164	-
x	2932373	2931687	-
x	2932828	2932340	-
x	2933199	2932831	-
x	2933343	2933510	+
x	2933531	2933349	-
x	2934668	2934117	-
x	2934912	2934712	-
x	2935209	2934712	-
x	2935017	2934712	-
x	2935831	2935685	-
x	2936536	2936763	+
x	2936543	2937223	+
x	2937049	2936564	-
x	2936843	2937223	+
x	2936861	2937223	+
x	2937727	2938113	+
x	2938241	2938765	+
x	2938874	2939740	+
x	2939421	2939531	+
x	2939743	2939988	+
x	2939782	2939988	+
x	2941730	2941113	-
x	2942949	2943212	+
x	2942976	2943212	+
x	2943345	2943163	-
x	2943513	2943388	-
x	2944841	2946109	+
x	2947594	2948874	+
x	2949112	2950512	+
x	2950533	2951195	+
x	2955004	2955333	+
x	2958116	2960221	+
x	2961335	2961556	+
x	2963863	2964855	+
x	2964966	2964859	-
x	2965350	2966231	+
x	2966400	2967092	+
x	2968200	2968066	-
x	2968165	2969337	+
x	2969354	2970892	+
x	2971651	2971343	-
x	2971528	2971857	+
x	2975005	2973683	-
x	2975647	2975312	-
x	2975596	2975312	-
x	2976458	2976333	-
x	2976797	2977234	+
x	2977648	2977764	+
x	2980089	2980490	+
x	2980341	2980490	+
x	2980353	2980490	+
x	2982176	2981100	-
x	2982738	2982241	-
x	2983968	2982883	-
x	2984016	2982883	-
x	2984238	2984140	-
x	2984654	2984788	+
x	2985094	2985744	+
x	2988246	2989172	+
x	2995963	2993663	-
x	2995915	2993663	-
x	2996595	2996068	-
x	2996740	2996573	-
x	2997763	2996744	-
x	2997757	2996744	-
x	2997820	2996744	-
x	2997754	2996744	-
x	2999474	3000904	+
x	3001614	3001447	-
x	3001632	3001447	-
x	3005570	3003855	-
x	3005585	3003855	-
x	3009699	3009616	-
x	3009740	3010090	+
x	3012389	3013357	+
x	3013431	3015509	+
x	3015539	3015982	+
x	3015554	3015982	+
x	3019854	3019477	-
x	3019872	3019477	-
x	3019686	3019477	-
x	3020174	3019899	-
x	3020126	3019899	-
x	3020245	3020553	+
x	3021371	3020604	-
x	3025857	3026603	+
x	3029261	3028743	-
x	3029618	3028743	-
x	3029735	3028743	-
x	3031229	3031077	-
x	3032458	3031697	-
x	3032464	3031697	-
x	3035111	3034992	-
x	3044988	3044872	-
x	3044978	3045343	+
x	3044981	3045343	+
x	3045421	3046692	+
x	3046683	3046943	+
x	3047958	3047683	-
x	3048543	3047683	-
x	3049319	3048540	-
x	3049334	3048540	-
x	3049494	3049297	-
x	3049572	3049297	-
x	3050634	3049297	-
x	3051522	3050728	-
x	3053037	3052252	-
x	3052932	3052252	-
x	3057245	3057313	+
x	3057663	3058070	+
x	3058060	3058977	+
x	3058084	3058977	+
x	3058168	3058977	+
x	3058838	3058990	+
x	3060137	3061039	+
x	3060146	3061039	+
x	3060230	3061039	+
x	3072516	3072400	-
x	3073628	3072501	-
x	3074884	3073862	-
x	3074959	3073862	-
x	3076775	3076650	-
x	3076769	3076897	+
x	3078940	3078815	-
x	3078955	3078815	-
x	3079471	3079190	-
x	3080682	3080590	-
x	3080793	3082127	+
x	3082211	3082342	+
x	3085510	3086265	+
x	3085621	3086265	+
x	3087518	3086370	-
x	3091973	3093391	+
x	3093873	3094604	+
x	3094109	3093996	-
x	3095646	3094648	-
x	3096136	3095741	-
x	3097650	3097423	-
x	3097842	3099047	+
x	3100341	3099541	-
x	3101491	3100424	-
x	3101722	3100424	-
x	3101521	3100424	-
x	3102662	3103162	+
x	3103221	3104759	+
x	3106828	3108441	+
x	3115494	3116108	+
x	3115728	3116108	+
x	3117793	3119040	+
x	3117823	3119040	+
x	3117940	3119040	+
x	3122381	3124006	+
x	3122396	3124006	+
x	3122648	3124006	+
x	3124006	3125589	+
x	3125589	3126218	+
x	3126284	3126424	+
x	3126475	3126918	+
x	3126733	3126918	+
x	3127288	3129048	+
x	3127561	3129048	+
x	3129003	3130091	+
x	3129012	3130091	+
x	3129102	3130091	+
x	3130102	3130608	+
x	3133665	3132718	-
x	3137040	3135511	-
x	3137917	3137123	-
x	3137935	3137123	-
x	3139446	3138193	-
x	3139678	3141009	+
x	3139768	3141009	+
x	3146439	3142897	-
x	3146409	3142897	-
x	3153152	3152877	-
x	3153224	3152877	-
x	3153550	3153185	-
x	3154116	3153589	-
x	3154152	3153589	-
x	3154392	3153589	-
x	3154623	3154805	+
x	3159348	3158884	-
x	3159726	3159920	+
x	3159859	3160020	+
x	3164269	3163106	-
x	3166680	3166844	+
x	3169504	3170394	+
x	3170198	3170100	-
x	3172620	3171202	-
x	3174454	3173726	-
x	3176030	3174849	-
x	3178738	3177983	-
x	3178699	3177983	-
x	3178696	3177983	-
x	3179191	3181449	+
x	3185111	3186298	+
x	3188874	3190259	+
x	3193504	3192953	-
x	3193555	3192953	-
x	3193660	3192953	-
x	3193875	3194405	+
x	3193890	3194405	+
x	3194278	3194048	-
x	3203018	3204418	+
x	3204433	3205752	+
x	3204436	3205752	+
x	3207679	3207191	-
x	3207523	3207191	-
x	3207586	3207191	-
x	3209598	3207679	-
x	3209604	3207679	-
x	3209901	3210089	+
x	3209965	3211482	+
x	3210034	3211482	+
x	3211472	3211609	+
x	3211484	3211609	+
x	3214731	3213850	-
x	3214732	3214887	+
x	3216631	3215039	-
x	3218307	3217513	-
x	3219468	3219082	-
x	3219396	3219082	-
x	3219720	3219902	+
x	3219729	3219902	+
x	3222209	3223648	+
x	3222215	3223648	+
x	3227194	3226805	-
x	3228381	3227218	-
x	3228472	3228320	-
x	3228637	3228488	-
x	3228616	3228488	-
x	3228573	3228686	+
x	3233089	3232511	-
x	3233862	3233536	-
x	3233832	3234434	+
x	3233886	3234434	+
x	3236086	3236208	+
x	3236971	3236312	-
x	3237007	3236312	-
x	3237257	3237027	-
x	3237398	3238291	+
x	3238815	3239549	+
x	3239857	3239546	-
x	3240355	3239546	-
x	3241307	3240600	-
x	3241292	3240600	-
x	3242023	3241433	-
x	3244334	3243255	-
x	3244409	3243255	-
x	3245712	3244549	-
x	3246781	3245762	-
x	3246836	3246735	-
x	3247074	3246982	-
x	3247156	3247584	+
x	3248875	3249558	+
x	3248881	3249558	+
x	3249552	3250229	+
x	3250824	3250201	-
x	3251558	3251442	-
x	3252743	3251754	-
x	3254269	3253046	-
x	3256394	3256032	-
x	3256332	3256183	-
x	3258401	3256410	-
x	3258553	3259437	+
x	3258679	3259437	+
x	3263472	3261574	-
x	3263550	3261574	-
x	3263690	3263559	-
x	3264025	3264150	+
x	3264289	3264038	-
x	3264345	3265499	+
x	3265562	3265777	+
x	3265936	3267330	+
x	3265975	3267330	+
x	3267449	3267904	+
x	3267999	3268706	+
x	3268786	3269517	+
x	3270589	3271152	+
x	3272767	3271742	-
x	3272722	3271742	-
x	3274025	3274315	+
x	3277085	3276114	-
x	3279176	3278460	-
x	3279689	3279363	-
x	3280569	3281621	+
x	3281989	3283068	+
x	3283208	3283074	-
x	3283270	3284526	+
x	3287022	3286873	-
x	3287208	3287816	+
x	3288667	3288545	-
x	3288968	3289123	+
x	3289187	3290170	+
x	3290254	3291390	+
x	3291414	3293090	+
x	3299648	3298473	-
x	3299708	3298473	-
x	3305244	3304408	-
x	3306199	3306014	-
x	3307622	3306780	-
x	3307640	3306780	-
x	3307949	3306780	-
x	3308893	3307955	-
x	3308368	3307955	-
x	3308890	3307955	-
x	3309492	3308929	-
x	3309534	3308929	-
x	3310429	3309899	-
x	3310948	3310466	-
x	3315633	3313654	-
x	3316562	3315744	-
x	3316586	3315744	-
x	3316703	3315744	-
x	3318102	3317197	-
x	3322600	3318170	-
x	3322750	3318170	-
x	3323201	3323079	-
x	3327851	3327447	-
x	3329079	3327856	-
x	3330142	3329090	-
x	3331632	3330142	-
x	3331892	3332656	+
x	3334149	3335900	+
x	3334176	3335900	+
x	3334209	3335900	+
x	3334275	3335900	+
x	3335687	3336811	+
x	3336864	3337091	+
x	3337475	3338263	+
x	3339377	3338298	-
x	3341868	3341035	-
x	3343082	3341871	-
x	3344024	3343266	-
x	3344754	3344056	-
x	3347244	3347384	+
x	3349335	3347476	-
x	3349540	3350406	+
x	3349822	3350406	+
x	3351195	3350800	-
x	3357068	3357196	+
x	3357276	3357091	-
x	3358566	3357679	-
x	3358443	3357679	-
x	3358089	3357679	-
x	3360243	3359803	-
x	3360297	3359803	-
x	3360488	3361372	+
x	3362562	3361843	-
x	3362751	3364016	+
x	3362829	3364016	+
x	3365811	3364855	-
x	3365922	3364855	-
x	3365754	3364855	-
x	3365897	3365751	-
x	3367333	3368043	+
x	3368045	3368158	+
x	3368279	3368187	-
x	3368516	3369169	+
x	3373062	3374534	+
x	3378159	3379463	+
x	3385996	3384389	-
x	3387032	3386640	-
x	3388359	3389189	+
x	3390212	3389574	-
x	3390284	3389574	-
x	3393878	3392871	-
x	3393818	3392871	-
x	3394866	3393829	-
x	3396863	3396744	-
x	3402440	3401745	-
x	3403848	3405335	+
x	3403854	3405335	+
x	3405483	3406154	+
x	3405579	3406154	+
x	3409713	3409594	-
x	3410317	3410973	+
x	3411807	3411019	-
x	3411950	3412723	+
x	3412955	3412785	-
x	3416715	3417455	+
x	3419409	3419335	-
x	3419546	3419881	+
x	3419582	3419881	+
x	3420116	3419916	-
x	3426774	3424603	-
x	3427443	3424603	-
x	3427515	3424603	-
x	3428969	3428784	-
x	3428990	3428784	-
x	3430951	3431034	+
x	3431940	3431119	-
x	3431931	3431119	-
x	3432399	3432031	-
x	3434066	3433134	-
x	3433583	3433134	-
x	3434120	3433134	-
x	3434085	3434219	+
x	3434097	3434219	+
x	3440813	3440664	-
x	3444352	3444459	+
x	3447151	3447357	+
x	3447266	3448672	+
x	3447293	3448672	+
x	3447383	3448672	+
x	3450396	3453524	+
x	3450432	3453524	+
x	3453961	3453821	-
x	3462566	3463069	+
x	3463146	3463838	+
x	3463917	3464903	+
x	3464956	3465093	+
x	3471271	3469859	-
x	3471754	3473052	+
x	3473182	3473958	+
x	3473983	3474114	+
x	3474260	3474144	-
x	3474984	3475352	+
x	3475432	3475337	-
x	3475499	3475867	+
x	3476144	3476617	+
x	3476565	3476906	+
x	3477003	3477485	+
x	3477093	3477485	+
x	3477372	3477485	+
x	3477534	3478541	+
x	3478824	3479192	+
x	3480814	3480650	-
x	3480948	3481115	+
x	3480951	3481115	+
x	3483853	3482585	-
x	3485555	3484191	-
x	3485489	3484191	-
x	3486064	3485627	-
x	3486016	3485627	-
x	3489566	3488358	-
x	3488510	3488358	-
x	3493161	3493505	+
x	3493287	3493505	+
x	3493724	3493623	-
x	3494024	3494551	+
x	3494072	3494551	+
x	3494102	3494551	+
x	3495624	3494479	-
x	3495642	3494479	-
x	3496605	3495721	-
x	3496611	3495721	-
x	3498725	3497427	-
x	3498748	3498861	+
x	3498782	3498907	+
x	3498970	3499089	+
x	3500207	3500707	+
x	3501040	3500759	-
x	3501516	3501818	+
x	3503135	3503608	+
x	3504388	3505266	+
x	3505329	3505718	+
x	3505715	3506848	+
x	3506345	3506848	+
x	3506965	3507099	+
x	3510134	3510709	+
x	3510618	3511490	+
x	3510699	3511490	+
x	3511545	3512258	+
x	3511737	3512258	+
x	3513236	3515272	+
x	3515356	3515625	+
x	3518726	3518046	-
x	3518809	3519327	+
x	3519659	3519844	+
x	3521111	3520587	-
x	3521214	3521101	-
x	3521320	3522315	+
x	3522324	3523202	+
x	3525568	3524408	-
x	3527746	3525806	-
x	3527695	3525806	-
x	3527768	3527688	-
x	3527835	3527990	+
x	3528859	3531027	+
x	3531003	3528868	-
x	3531072	3528868	-
x	3533013	3532612	-
x	3537841	3537389	-
x	3537811	3537389	-
x	3537847	3537389	-
x	3538264	3538386	+
x	3541448	3539823	-
x	3541340	3539823	-
x	3540554	3539823	-
x	3541466	3539823	-
x	3541842	3541618	-
x	3542335	3542003	-
x	3544786	3543893	-
x	3544741	3543893	-
x	3546774	3544831	-
x	3546734	3546868	+
x	3547338	3546865	-
x	3548530	3548069	-
x	3552622	3552747	+
x	3552762	3553331	+
x	3556481	3556227	-
x	3556934	3556641	-
x	3556913	3556641	-
x	3558139	3557588	-
x	3560715	3560930	+
x	3560944	3561930	+
x	3563058	3563615	+
x	3563094	3563615	+
x	3566256	3566747	+
x	3573728	3572799	-
x	3573761	3572799	-
x	3573878	3573774	-
x	3574310	3578863	+
x	3574403	3578863	+
x	3574655	3578863	+
x	3581698	3580823	-
x	3581737	3580823	-
x	3582384	3581695	-
x	3583922	3582432	-
x	3585828	3585046	-
x	3588317	3587889	-
x	3589852	3590256	+
x	3589907	3590317	+
x	3590410	3591777	+
x	3593935	3592997	-
x	3594213	3594386	+
x	3594222	3594386	+
x	3595204	3595467	+
x	3599002	3598799	-
x	3599203	3600114	+
x	3605634	3601843	-
x	3607168	3605711	-
x	3607180	3605711	-
x	3608375	3608244	-
x	3610472	3609429	-
x	3610532	3609429	-
x	3614252	3614416	+
x	3614679	3614518	-
x	3615302	3616651	+
x	3621259	3619760	-
x	3622210	3621320	-
x	3623456	3624271	+
x	3624282	3625238	+
x	3624303	3625238	+
x	3624957	3625238	+
x	3625331	3625573	+
x	3625563	3627014	+
x	3628016	3627888	-
x	3627972	3628064	+
x	3628341	3629201	+
x	3628356	3629201	+
x	3629611	3630495	+
x	3630579	3630758	+
x	3630645	3630758	+
x	3631833	3631600	-
x	3634863	3636095	+
x	3635328	3636095	+
x	3636242	3636117	-
x	3636795	3636971	+
x	3637108	3638025	+
x	3638093	3639274	+
x	3639284	3640387	+
x	3641294	3641566	+
x	3645443	3645123	-
x	3646710	3647591	+
x	3647008	3646844	-
x	3647037	3647591	+
x	3647740	3647567	-
x	3649216	3648644	-
x	3649526	3649221	-
x	3649739	3649221	-
x	3649311	3649547	+
x	3669174	3669755	+
x	3674187	3676139	+
x	3676647	3677630	+
x	3677828	3678823	+
x	3679784	3680179	+
x	3679802	3680179	+
x	3681000	3680797	-
x	3681184	3681735	+
x	3681750	3682913	+
x	3682910	3683371	+
x	3683347	3683108	-
x	3684985	3684869	-
x	3687645	3684988	-
x	3687843	3687775	-
x	3690101	3689907	-
x	3689928	3691034	+
x	3690084	3691034	+
x	3690108	3691034	+
x	3697080	3696760	-
x	3698715	3698864	+
x	3704393	3703026	-
x	3704509	3704637	+
x	3704640	3705059	+
x	3705696	3705061	-
x	3705756	3705061	-
x	3708622	3708723	+
x	3710223	3712118	+
x	3712118	3712753	+
x	3712653	3713501	+
x	3712746	3713501	+
x	3712764	3713501	+
x	3713429	3714457	+
x	3713612	3714457	+
x	3713642	3714457	+
x	3713687	3714457	+
x	3724155	3720127	-
x	3724415	3724855	+
x	3729335	3728151	-
x	3731596	3732030	+
x	3732100	3732561	+
x	3732558	3732184	-
x	3734445	3733723	-
x	3739163	3738612	-
x	3743903	3744118	+
x	3744808	3746898	+
x	3746835	3746954	+
x	3749849	3749730	-
x	3755259	3755813	+
x	3758352	3757732	-
x	3760498	3760145	-
x	3764220	3763858	-
x	3765085	3764237	-
x	3771732	3771211	-
x	3771888	3771211	-
x	3773293	3772133	-
x	3773266	3772133	-
x	3773341	3772133	-
x	3773723	3773283	-
x	3773687	3773283	-
x	3773823	3773677	-
x	3775419	3774640	-
x	3775539	3778091	+
x	3778245	3778117	-
x	3779018	3779140	+
x	3779021	3779140	+
x	3779149	3781272	+
x	3781337	3782005	+
x	3782442	3783320	+
x	3785232	3785113	-
x	3785486	3787108	+
x	3789480	3789956	+
x	3790056	3792374	+
x	3790152	3792374	+
x	3793058	3795379	+
x	3796114	3796722	+
x	3796135	3796722	+
x	3796740	3796838	+
x	3797596	3797745	+
x	3797702	3798433	+
x	3797750	3798433	+
x	3799320	3799412	+
x	3805637	3805536	-
x	3805767	3805621	-
x	3805752	3805621	-
x	3809663	3808647	-
x	3809211	3810332	+
x	3810893	3809667	-
x	3813456	3812662	-
x	3813420	3812662	-
x	3814261	3813437	-
x	3814638	3814312	-
x	3814828	3816333	+
x	3817624	3817764	+
x	3820475	3819783	-
x	3820562	3819783	-
x	3820115	3819783	-
x	3821043	3820528	-
x	3821100	3820528	-
x	3821106	3820528	-
x	3821614	3821051	-
x	3821623	3821051	-
x	3821503	3821051	-
x	3824661	3824245	-
x	3824997	3824245	-
x	3831511	3830195	-
x	3831490	3830195	-
x	3837040	3835937	-
x	3838949	3837882	-
x	3839147	3837882	-
x	3839717	3839226	-
x	3839753	3839226	-
x	3839714	3839226	-
x	3839280	3839912	+
x	3840857	3839892	-
x	3842680	3842940	+
x	3842746	3842940	+
x	3843054	3842869	-
x	3843484	3843657	+
x	3843893	3844693	+
x	3845071	3845562	+
x	3845107	3845562	+
x	3846447	3846334	-
x	3848094	3846334	-
x	3850424	3849354	-
x	3853899	3853783	-
x	3853906	3853802	-
x	3853811	3853879	+
x	3853846	3853977	+
x	3854679	3853966	-
x	3854667	3853966	-
x	3858802	3857693	-
x	3858829	3858975	+
x	3859637	3859741	+
x	3860900	3859797	-
x	3861835	3862236	+
x	3863412	3864338	+
x	3863436	3864338	+
x	3863484	3864338	+
x	3864310	3865260	+
x	3864373	3865260	+
x	3864622	3865260	+
x	3868405	3867347	-
x	3871178	3871570	+
x	3871301	3871570	+
x	3876402	3877001	+
x	3876444	3877001	+
x	3878255	3877005	-
x	3878222	3877005	-
x	3878309	3879403	+
x	3878354	3879403	+
x	3882655	3882774	+
x	3885637	3885542	-
x	3885677	3886423	+
x	3887276	3888634	+
x	3890349	3889987	-
x	3890004	3890135	+
x	3890128	3890394	+
x	3892511	3891387	-
x	3892514	3891387	-
x	3895195	3892511	-
x	3896486	3896373	-
x	3896586	3896792	+
x	3897044	3898096	+
x	3901459	3901178	-
x	3904925	3904173	-
x	3905030	3904173	-
x	3904967	3904173	-
x	3906975	3904933	-
x	3907178	3908020	+
x	3909614	3909498	-
x	3909626	3909498	-
x	3909603	3909782	+
x	3909609	3909782	+
x	3910651	3910758	+
x	3911724	3912290	+
x	3916053	3914107	-
x	3915926	3916186	+
x	3916351	3916190	-
x	3916665	3916501	-
x	3916773	3917687	+
x	3916833	3917687	+
x	3916854	3917687	+
x	3920259	3921215	+
x	3921059	3921982	+
x	3921212	3921982	+
x	3922609	3922034	-
x	3922693	3922034	-
x	3923071	3922745	-
x	3923801	3924346	+
x	3925112	3925672	+
x	3925145	3925672	+
x	3925951	3925622	-
x	3925722	3926009	+
x	3926105	3925989	-
x	3926081	3925989	-
x	3932242	3932394	+
x	3934358	3932958	-
x	3934250	3932958	-
x	3934865	3934569	-
x	3936147	3936266	+
x	3939193	3940092	+
x	3944970	3942910	-
x	3945654	3945040	-
x	3945807	3945040	-
x	3945675	3945040	-
x	3945761	3945955	+
x	3945776	3945955	+
x	3946034	3945807	-
x	3945820	3946968	+
x	3946002	3945880	-
x	3946039	3946968	+
x	3949992	3950168	+
x	3950070	3950168	+
x	3952204	3950249	-
x	3952198	3950249	-
x	3953188	3952319	-
x	3955741	3952319	-
x	3955327	3952319	-
x	3956871	3955774	-
x	3956880	3955774	-
x	3959226	3956887	-
x	3959163	3956887	-
x	3959196	3956887	-
x	3961855	3959237	-
x	3962589	3961852	-
x	3962388	3961852	-
x	3963089	3964648	+
x	3963143	3964648	+
x	3964648	3964836	+
x	3966795	3966598	-
x	3966765	3966598	-
x	3966705	3966598	-
x	3966889	3967065	+
x	3966945	3967076	+
x	3967074	3966967	-
x	3967278	3967081	-
x	3967188	3967081	-
x	3967251	3967547	+
x	3967260	3967547	+
x	3967372	3967515	+
x	3967428	3967547	+
x	3967805	3967563	-
x	3967670	3967563	-
x	3967730	3967563	-
x	3967760	3967563	-
x	3967745	3967915	+
x	3967945	3967835	-
x	3968146	3969417	+
x	3973391	3973534	+
x	3975965	3975483	-
x	3975746	3975483	-
x	3977731	3976040	-
x	3979263	3978055	-
x	3980190	3979492	-
x	3979599	3979492	-
x	3980348	3980911	+
x	3983536	3981317	-
x	3983596	3981317	-
x	3984478	3984603	+
x	3984566	3985540	+
x	3986300	3985590	-
x	3986569	3986417	-
x	3986455	3986604	+
x	3987667	3987242	-
x	3987857	3987705	-
x	3991537	3991265	-
x	3991790	3992734	+
x	3993213	3992776	-
x	3993600	3993259	-
x	3993612	3993259	-
x	3996617	3995295	-
x	3996837	3996700	-
x	3996983	3997975	+
x	3997436	3997975	+
x	3998053	3999594	+
x	3999596	4000753	+
x	4000665	4000841	+
x	4001293	4002009	+
x	4002689	4002117	-
x	4005469	4006722	+
x	4006820	4006719	-
x	4006726	4006854	+
x	4007347	4006874	-
x	4008261	4007449	-
x	4008591	4009496	+
x	4009547	4009972	+
x	4011301	4012776	+
x	4015927	4016787	+
x	4019061	4017523	-
x	4027472	4027564	+
x	4030117	4029962	-
x	4030199	4031362	+
x	4030214	4031362	+
x	4033374	4033532	+
x	4033608	4034057	+
x	4039262	4040917	+
x	4040917	4041693	+
x	4045843	4045376	-
x	4046730	4046299	-
x	4046831	4048519	+
x	4046975	4048519	+
x	4048553	4049812	+
x	4049942	4050775	+
x	4054461	4054312	-
x	4058484	4057522	-
x	4061488	4060940	-
x	4062133	4061642	-
x	4064483	4063686	-
x	4066619	4065597	-
x	4070292	4070414	+
x	4071063	4070419	-
x	4071087	4070419	-
x	4071259	4072479	+
x	4072460	4072915	+
x	4073022	4073618	+
x	4074296	4073655	-
x	4075078	4074362	-
x	4076226	4076116	-
x	4076290	4077114	+
x	4077406	4078023	+
x	4079702	4078020	-
x	4079537	4078020	-
x	4079705	4078020	-
x	4079820	4079563	-
x	4079960	4080583	+
x	4080047	4080583	+
x	4081079	4083040	+
x	4083742	4085823	+
x	4087342	4088733	+
x	4088854	4090563	+
x	4091287	4090607	-
x	4092200	4091268	-
x	4097584	4097697	+
x	4101555	4100173	-
x	4101600	4100173	-
x	4101866	4103032	+
x	4103261	4103461	+
x	4103381	4103461	+
x	4103602	4103970	+
x	4104267	4105190	+
x	4106168	4106527	+
x	4106234	4106527	+
x	4107806	4106568	-
x	4107758	4106568	-
x	4108421	4107969	-
x	4109808	4108474	-
x	4109820	4108474	-
x	4108899	4108474	-
x	4114644	4113325	-
x	4116147	4114654	-
x	4116159	4114654	-
x	4116169	4116056	-
x	4116917	4116819	-
x	4118800	4119117	+
x	4119005	4118907	-
x	4119406	4120590	+
x	4119439	4120590	+
x	4121791	4121444	-
x	4122258	4121851	-
x	4123343	4122279	-
x	4125222	4126088	+
x	4127839	4126178	-
x	4127881	4128039	+
x	4128464	4128036	-
x	4128437	4128036	-
x	4128989	4128576	-
x	4129280	4129188	-
x	4129407	4129249	-
x	4129295	4129627	+
x	4129367	4129627	+
x	4130878	4129631	-
x	4130845	4129631	-
x	4130813	4130941	+
x	4130928	4132046	+
x	4130946	4132046	+
x	4133326	4132007	-
x	4133299	4132007	-
x	4136990	4137664	+
x	4137008	4137664	+
x	4139033	4138635	-
x	4139166	4139267	+
x	4141687	4139273	-
x	4145309	4143894	-
x	4145228	4143894	-
x	4145951	4145811	-
x	4146094	4146420	+
x	4146516	4146641	+
x	4150297	4151712	+
x	4151849	4153051	+
x	4154333	4155292	+
x	4154390	4155292	+
x	4154405	4155292	+
x	4155449	4156198	+
x	4161541	4160372	-
x	4161466	4160372	-
x	4161568	4160372	-
x	4166557	4164683	-
x	4165782	4165922	+
x	4165791	4165922	+
x	4167527	4166691	-
x	4167521	4166691	-
x	4168538	4167813	-
x	4168586	4169179	+
x	4170301	4169417	-
x	4176208	4176122	-
x	4176313	4176864	+
x	4176834	4176421	-
x	4179289	4180872	+
x	4180978	4181649	+
x	4183308	4182928	-
x	4183146	4182928	-
x	4190447	4189020	-
x	4191961	4190465	-
x	4194219	4194638	+
x	4197146	4198036	+
x	4197152	4198036	+
x	4198147	4199091	+
x	4198162	4199091	+
x	4199104	4200087	+
x	4199404	4200087	+
x	4201456	4200053	-
x	4202051	4201503	-
x	4202531	4202418	-
x	4202616	4202491	-
x	4203752	4204117	+
x	4207817	4207581	-
x	4208592	4207996	-
x	4210402	4209317	-
x	4210837	4209317	-
x	4211190	4211288	+
x	4213074	4213334	+
x	4216201	4217745	+
x	4218632	4217742	-
x	4218782	4220257	+
x	4224223	4222739	-
x	4224408	4224229	-
x	4225701	4226084	+
x	4225755	4226084	+
x	4226411	4227670	+
x	4227925	4229013	+
x	4229025	4230071	+
x	4229088	4230071	+
x	4230127	4231257	+
x	4231491	4232516	+
x	4234530	4235135	+
x	4234590	4235135	+
x	4237563	4237471	-
x	4240859	4240761	-
x	4242952	4244187	+
x	4250792	4249836	-
x	4250777	4249836	-
x	4251259	4250930	-
x	4251215	4253710	+
x	4251221	4253710	+
x	4255595	4255870	+
x	4255643	4255870	+
x	4255915	4256292	+
x	4256083	4256292	+
x	4257676	4256303	-
x	4256776	4256303	-
x	4258105	4258929	+
x	4261326	4263488	+
x	4265295	4265408	+
x	4265652	4266602	+
x	4266483	4266602	+
x	4267066	4266638	-
x	4269700	4269233	-
x	4270859	4272688	+
x	4272758	4273372	+
x	4273004	4273372	+
x	4273849	4273433	-
x	4274052	4274237	+
x	4275077	4275994	+
x	4275194	4275994	+
x	4277945	4277820	-
x	4280603	4280358	-
x	4281423	4280932	-
x	4281459	4280932	-
x	4281622	4281732	+
x	4282065	4281772	-
x	4282300	4282431	+
x	4282517	4283107	+
x	4282550	4283107	+
x	4290366	4290013	-
x	4291459	4290419	-
x	4291462	4290419	-
x	4292792	4291368	-
x	4291374	4291514	+
x	4295977	4295309	-
x	4296092	4295943	-
x	4295995	4296108	+
x	4296087	4296203	+
x	4296108	4296203	+
x	4297043	4296234	-
x	4297291	4297175	-
x	4297299	4298069	+
x	4297305	4298069	+
x	4298084	4297350	-
x	4300113	4299607	-
x	4301833	4301129	-
x	4301265	4301789	+
x	4302527	4301748	-
x	4303543	4302776	-
x	4303775	4305187	+
x	4306021	4306656	+
x	4306051	4306656	+
x	4308372	4308641	+
x	4308723	4309160	+
x	4309981	4310763	+
x	4312954	4313655	+
x	4313761	4313901	+
x	4313926	4313825	-
x	4313846	4313941	+
x	4317300	4315111	-
x	4318821	4319435	+
x	4321715	4321602	-
x	4321800	4321675	-
x	4322934	4323299	+
x	4325936	4325694	-
x	4327575	4327063	-
x	4328147	4327572	-
x	4328306	4328205	-
x	4328226	4328495	+
x	4330356	4331786	+
x	4332732	4331827	-
x	4332759	4331827	-
x	4332671	4332823	+
x	4332998	4332879	-
x	4333064	4332879	-
x	4336271	4336128	-
x	4336923	4336291	-
x	4336887	4336291	-
x	4336938	4336291	-
x	4337082	4336942	-
x	4337141	4336959	-
x	4337220	4337297	+
x	4337536	4337390	-
x	4338204	4338088	-
x	4338203	4339576	+
x	4339824	4339714	-
x	4341354	4339936	-
x	4341345	4339936	-
x	4344201	4343968	-
x	4344089	4343979	-
x	4344269	4344123	-
x	4346314	4346195	-
x	4348055	4347120	-
x	4348016	4347120	-
x	4348119	4349066	+
x	4353917	4354849	+
x	4353962	4354849	+
x	4354990	4355589	+
x	4355676	4356455	+
x	4356934	4357875	+
x	4358847	4357939	-
x	4358922	4357939	-
x	4358861	4358959	+
x	4359763	4359975	+
x	4360711	4360929	+
x	4360717	4360929	+
x	4366032	4363618	-
x	4366668	4366081	-
x	4366672	4366926	+
x	4366895	4367695	+
x	4366970	4367695	+
x	4368091	4368471	+
x	4369653	4370219	+
x	4371408	4370584	-
x	4371508	4371600	+
x	4372944	4371685	-
x	4374489	4374638	+
x	4374558	4374638	+
x	4375518	4376456	+
x	4375608	4376456	+
x	4377244	4376453	-
x	4377772	4378392	+
x	4378567	4378674	+
x	4378643	4379635	+
x	4378646	4379635	+
x	4378652	4379635	+
x	4379769	4380458	+
x	4379784	4380458	+
x	4382782	4383282	+
x	4383431	4384333	+
x	4384383	4384279	-
x	4384454	4385476	+
x	4384514	4385476	+
x	4385625	4385473	-
x	4385645	4385502	-
x	4385516	4385713	+
x	4386519	4386785	+
x	4386703	4387647	+
x	4386892	4387647	+
x	4386922	4387647	+
x	4394157	4392712	-
x	4394241	4392712	-
x	4394220	4392712	-
x	4394929	4394243	-
x	4395325	4395426	+
x	4395513	4395758	+
x	4395519	4395758	+
x	4397347	4396421	-
x	4400232	4399378	-
x	4401421	4400429	-
x	4401460	4400429	-
x	4401420	4401536	+
x	4403808	4401610	-
x	4404011	4404223	+
x	4405173	4404952	-
x	4405269	4404952	-
x	4405492	4406706	+
x	4405546	4406706	+
x	4409148	4409252	+
x	4410117	4409359	-
x	4411915	4410296	-
x	4413506	4411956	-
x	4414285	4414446	+
x	4414996	4416549	+
x	4415284	4416549	+
x	4418150	4420330	+
x	4420391	4421329	+
x	4420424	4421329	+
x	4422205	4422086	-
x	4423352	4422249	-
x	4426172	4424037	-
x	4426147	4426638	+
x	4426174	4426638	+
x	4427606	4427926	+
x	4430506	4431453	+
x	4430614	4431453	+
x	4431392	4431796	+
x	4434593	4432860	-
x	4438880	4437729	-
x	4440046	4440822	+
x	4440049	4440822	+
x	4442694	4443968	+
x	4445570	4446487	+
x	4447804	4446470	-
x	4449532	4450725	+
x	4450832	4451479	+
x	4453305	4455191	+
x	4453347	4455191	+
x	4455124	4455993	+
x	4455205	4455993	+
x	4456222	4456109	-
x	4456307	4456182	-
x	4457443	4457808	+
x	4461459	4461842	+
x	4463704	4465305	+
x	4465335	4466639	+
x	4468354	4468521	+
x	4469253	4468429	-
x	4469292	4468429	-
x	4469204	4469323	+
x	4469438	4473136	+
x	4473196	4473516	+
x	4473298	4473516	+
x	4474254	4475810	+
x	4476711	4476851	+
x	4478212	4476971	-
x	4479094	4478252	-
x	4479076	4478252	-
x	4482705	4481737	-
x	4482684	4481737	-
x	4482729	4481737	-
x	4486304	4487953	+
x	4488680	4488432	-
x	4488435	4488644	+
x	4488451	4488693	+
x	4488808	4489446	+
x	4492289	4492441	+
x	4492661	4492819	+
x	4495769	4494225	-
x	4495759	4495881	+
x	4497301	4497206	-
x	4497478	4498593	+
x	4498668	4500005	+
x	4500054	4500152	+
x	4500061	4500234	+
x	4500225	4500088	-
x	4500145	4500234	+
x	4500328	4501248	+
x	4501322	4501924	+
x	4505385	4502962	-
x	4506715	4508040	+
x	4508156	4508365	+
x	4508922	4508407	-
x	4509000	4508407	-
x	4510030	4510449	+
x	4510207	4510449	+
x	4513751	4511703	-
x	4513823	4511703	-
x	4517831	4518865	+
x	4518938	4520353	+
x	4522062	4523060	+
x	4522086	4523060	+
x	4523142	4524335	+
x	4524517	4527261	+
x	4527294	4528448	+
x	4528637	4529878	+
x	4532166	4533665	+
x	4533641	4534750	+
x	4533677	4534750	+
x	4537732	4537866	+
x	4538022	4537882	-
x	4538118	4538900	+
x	4542841	4543434	+
x	4542898	4543434	+
x	4543474	4543569	+
x	4543883	4543533	-
x	4543814	4543533	-
x	4543901	4544035	+
x	4544243	4545829	+
x	4545497	4545829	+
x	4547021	4546908	-
x	4547211	4546996	-
x	4550769	4550437	-
x	4551348	4551461	+
x	4551431	4551835	+
x	4551849	4552517	+
x	4554519	4554202	-
x	4554641	4554516	-
x	4554725	4554642	-
x	4554645	4554743	+
x	4557040	4557237	+
x	4558639	4559205	+
x	4560885	4562564	+
x	4560906	4562564	+
x	4560942	4562564	+
x	4560957	4562564	+
x	4562871	4563533	+
x	4563796	4563668	-
x	4566026	4565337	-
x	4567697	4566828	-
x	4567682	4566828	-
x	4567664	4566828	-
x	4569539	4568490	-
x	4573261	4571582	-
x	4573307	4573693	+
x	4573729	4573310	-
x	4573791	4573904	+
x	4577300	4575390	-
x	4578766	4578491	-
x	4579001	4578906	-
x	4580959	4578974	-
x	4582842	4582147	-
x	4583560	4582853	-
x	4584429	4583812	-
x	4586406	4585471	-
x	4587355	4586465	-
x	4587358	4586465	-
x	4589679	4589350	-
x	4592240	4591461	-
x	4593010	4592252	-
x	4593852	4593007	-
x	4593109	4593780	+
x	4594909	4593845	-
x	4596674	4595943	-
x	4596668	4595943	-
x	4597522	4596689	-
x	4597468	4596689	-
x	4597519	4596689	-
x	4597507	4596689	-
x	4597463	4597612	+
x	4599341	4599451	+
x	4599353	4599451	+
x	4600034	4600468	+
x	4600474	4600139	-
x	4600552	4600139	-
x	4600446	4600658	+
x	4603135	4603980	+
x	4604244	4605746	+
x	4607014	4605923	-
x	4609362	4607689	-
x	4609332	4607689	-
x	4611765	4611628	-
x	4611919	4611839	-
x	4614274	4612007	-
x	4615380	4615574	+
x	4615413	4615574	+
x	4623763	4623897	+
x	4624785	4624991	+
x	4626828	4625311	-
x	4630728	4628581	-
x	4630767	4628581	-
x	4634333	4634551	+
x	4634836	4634955	+
x	4635420	4634845	-
x	4636926	4635457	-
x	4637235	4635457	-
x	4637468	4637130	-
x	4638792	4637584	-
x	4638699	4637584	-
x	4638985	4640436	+
x	4640439	4639003	-
x	4640875	4641252	+
x	4642524	4641268	-
x	4642990	4642667	-
x	4643114	4642797	-
x	4644921	4645274	+
x	4645364	4644960	-
x	4648100	4647546	-
x	4648208	4648110	-
x	4648119	4648241	+
x	4648588	4648406	-
x	4648674	4648991	+
x	4650743	4649610	-
x	4650872	4649610	-
x	4651195	4650806	-
x	4652307	4651582	-
x	4654412	4655419	+
x	4655638	4657140	+
x	4655683	4657140	+
x	4657526	4657828	+
x	4661102	4662127	+
x	4661246	4662127	+
x	4663282	4662269	-
x	4663321	4662269	-
x	4663272	4663961	+
x	4663347	4663961	+
x	4663362	4663961	+
x	4663416	4663961	+
x	4663996	4664127	+
x	4664563	4664183	-
x	4665987	4664740	-
x	4665726	4664740	-
x	4665879	4664740	-
x	4665878	4667425	+
x	4665893	4667425	+
x	4667400	4667858	+
x	4667637	4667858	+
x	4667877	4669214	+
x	4668971	4668870	-
x	4669224	4671071	+
x	4672553	4673764	+
x	4676472	4676368	-
x	4676718	4677797	+
x	4678466	4680907	+
x	4683621	4684100	+
x	4684154	4683999	-
x	4684126	4684019	-
x	4684171	4684019	-
x	4684233	4684748	+
x	4684994	4685914	+
x	4685983	4687623	+
x	4685998	4687623	+
x	4688015	4687740	-
x	4688027	4687740	-
x	4688493	4688164	-
x	4691348	4690284	-
x	4691664	4693100	+
x	4693432	4693097	-
x	4693116	4693421	+
x	4693769	4693437	-
x	4693756	4694559	+
x	4693909	4694559	+
x	4694583	4693915	-
x	4694680	4695423	+
x	4695423	4696109	+
x	4696598	4696717	+
x	4697122	4696739	-
x	4698292	4697804	-
x	4698588	4698391	-
x	4698880	4699173	+
x	4699683	4700444	+
x	4699833	4700444	+
x	4701672	4700587	-
x	4702215	4701838	-
x	4702047	4701838	-
x	4702233	4701838	-
x	4702487	4702260	-
x	4702564	4702352	-
x	4708887	4707991	-
x	4708958	4709641	+
x	4708994	4709641	+
x	4709315	4709641	+
x	4710194	4709625	-
x	4710263	4709625	-
x	4710481	4711101	+
x	4714602	4713637	-
x	4714615	4714713	+
x	4715569	4716039	+
x	4715659	4716039	+
x	4716404	4716168	-
x	4718120	4716168	-
x	4719874	4720119	+
x	4719913	4720119	+
x	4721830	4721693	-
x	4722528	4721863	-
x	4722501	4721863	-
x	4728483	4728301	-
x	4729469	4729609	+
x	4729607	4729482	-
x	4729628	4729482	-
x	4732389	4733414	+
x	4732392	4733414	+
x	4732452	4733414	+
x	4733416	4734396	+
x	4733425	4734396	+
x	4735427	4734429	-
x	4735490	4735621	+
x	4737791	4739131	+
x	4739399	4739701	+
x	4740308	4740210	-
x	4740339	4740256	-
x	4742546	4742668	+
x	4742777	4742872	+
x	4746023	4744605	-
x	4747097	4747330	+
x	4750331	4750257	-
x	4750798	4750373	-
x	4750759	4750373	-
x	4752394	4752245	-
x	4752406	4752245	-
x	4752957	4752469	-
x	4754476	4753073	-
x	4754026	4753073	-
x	4755537	4754533	-
x	4756516	4755548	-
x	4757726	4756503	-
x	4760107	4758899	-
x	4760951	4760658	-
x	4761161	4760658	-
x	4761852	4762541	+
x	4766108	4765971	-
x	4767943	4769022	+
x	4769022	4770104	+
x	4772843	4771845	-
x	4777916	4776897	-
x	4778194	4777991	-
x	4778218	4777991	-
x	4778197	4777991	-
x	4778458	4779645	+
x	4785094	4783721	-
x	4785220	4783721	-
x	4786141	4785401	-
x	4786628	4786359	-
x	4786998	4786828	-
x	4787293	4787120	-
x	4788268	4788053	-
x	4788787	4788287	-
x	4788616	4788287	-
x	4788703	4788287	-
x	4789100	4788867	-
x	4789076	4788867	-
x	4791207	4790731	-
x	4791270	4790731	-
x	4791818	4791279	-
x	4791424	4792092	+
x	4793177	4792443	-
x	4793048	4792443	-
x	4795770	4793248	-
x	4795767	4793248	-
x	4795779	4793248	-
x	4796730	4796467	-
x	4797063	4796467	-
x	4797402	4797238	-
x	4797706	4797539	-
x	4797709	4797539	-
x	4798134	4797856	-
x	4797969	4798190	+
x	4798526	4798296	-
x	4799200	4799409	+
x	4799654	4799803	+
x	4799806	4799657	-
x	4799995	4799837	-
x	4800449	4800111	-
x	4800862	4800650	-
x	4800905	4801051	+
x	4801658	4801933	+
x	4805562	4803028	-
x	4806665	4806360	-
x	4807024	4806905	-
x	4807906	4807484	-
x	4807912	4807484	-
x	4809138	4807909	-
x	4809725	4809177	-
x	4809895	4810536	+
x	4810520	4810828	+
x	4811097	4810879	-
x	4810889	4811038	+
x	4814113	4812884	-
x	4813834	4812884	-
x	4814242	4812884	-
x	4813711	4812884	-
x	4813361	4813525	+
x	4814474	4814818	+
x	4815974	4815600	-
x	4816167	4815931	-
x	4824978	4825199	+
x	4827619	4825022	-
x	4828620	4828108	-
x	4828737	4828108	-
x	4829279	4829076	-
x	4829737	4830000	+
x	4830844	4830074	-
x	4831583	4832302	+
x	4833188	4833775	+
x	4834220	4833855	-
x	4834223	4833855	-
x	4834394	4834296	-
x	4834677	4834537	-
x	4834955	4834704	-
x	4835319	4835053	-
x	4835647	4835399	-
x	4836524	4836000	-
x	4841957	4841778	-
x	4842873	4842439	-
x	4843231	4842950	-
x	4843544	4843275	-
x	4843584	4843733	+
x	4843964	4843587	-
x	4847209	4844378	-
x	4856168	4856004	-
x	4857263	4856640	-
x	4857275	4856640	-
x	4857735	4857851	+
x	4857879	4858055	+
x	4858404	4858171	-
x	4858308	4858171	-
x	4858317	4858171	-
x	4858519	4858346	-
x	4858660	4858346	-
x	4859238	4858648	-
x	4859208	4858648	-
x	4859607	4859455	-
x	4859922	4859455	-
x	4862445	4861132	-
x	4862358	4861132	-
x	4862696	4862478	-
x	4864033	4864977	+
x	4865064	4865510	+
x	4865097	4865510	+
x	4865315	4865425	+
x	4865984	4865649	-
x	4872583	4869197	-
x	4873776	4872610	-
x	4876628	4876299	-
x	4876833	4877018	+
x	4876936	4877100	+
x	4877627	4877097	-
x	4879972	4879325	-
x	4879711	4879325	-
x	4879771	4879325	-
x	4880212	4879325	-
x	4879435	4879325	-
x	4879735	4879325	-
x	4879843	4879325	-
x	4879531	4879325	-
x	4880487	4880212	-
x	4880672	4880890	+
x	4880898	4882190	+
x	4882135	4883634	+
x	4884213	4884437	+
x	4884258	4884437	+
x	4885646	4884948	-
x	4886157	4886044	-
x	4886236	4886126	-
x	4887123	4886929	-
x	4887576	4887307	-
x	4887543	4887307	-
x	4888423	4888274	-
x	4891607	4892284	+
x	4892374	4892523	+
x	4893564	4894007	+
x	4894486	4893956	-
x	4894052	4894498	+
x	4894961	4895254	+
x	4894988	4895254	+
x	4895006	4895254	+
x	4895093	4895254	+
x	4895111	4895254	+
x	4895203	4895721	+
x	4895772	4896206	+
x	4895854	4896306	+
x	4896173	4896415	+
x	4896494	4896652	+
x	4896497	4896652	+
x	4896891	4897109	+
x	4897045	4897191	+
x	4897234	4897380	+
x	4897724	4899640	+
x	4900140	4900039	-
x	4901192	4900263	-
x	4901135	4900263	-
x	4901095	4901220	+
x	4901098	4901220	+
x	4901217	4901339	+
x	4903498	4902392	-
x	4904066	4903518	-
x	4904234	4903518	-
x	4904472	4904600	+
x	4904602	4904751	+
x	4905311	4905033	-
x	4906825	4907376	+
x	4907670	4907455	-
x	4907800	4908411	+
x	4908353	4909015	+
x	4908377	4909015	+
x	4908476	4909015	+
x	4908509	4909015	+
x	4908518	4909015	+
x	4909128	4909009	-
x	4909121	4909777	+
x	4909127	4909777	+
x	4909888	4912479	+
x	4909909	4912479	+
x	4911619	4912479	+
x	4912486	4913019	+
x	4913141	4913013	-
x	4913026	4913535	+
x	4913546	4914457	+
x	4914609	4914505	-
x	4914846	4914730	-
x	4914767	4914901	+
x	4914926	4915234	+
x	4917120	4917911	+
x	4918127	4917933	-
x	4918174	4918899	+
x	4919304	4919696	+
x	4919316	4919696	+
x	4922056	4919744	-
x	4920085	4919744	-
x	4923838	4922774	-
x	4928015	4928239	+
x	4934910	4936844	+
x	4940749	4940006	-
x	4940846	4940751	-
x	4943308	4942625	-
x	4943320	4943451	+
x	4943338	4943451	+
x	4943456	4943917	+
x	4943513	4943917	+
x	4943558	4943917	+
x	4943938	4944111	+
x	4944483	4944124	-
x	4946338	4945370	-
x	4946230	4945370	-
x	4947316	4946549	-
x	4948477	4947326	-
x	4949873	4948593	-
x	4950418	4950978	+
x	4951097	4950975	-
x	4951172	4951243	+
x	4951276	4953477	+
x	4951384	4953477	+
x	4952314	4953477	+
x	4953922	4953524	-
x	4960761	4957249	-
x	4962949	4961909	-
x	4962865	4961909	-
x	4962763	4961909	-
x	4965311	4963197	-
x	4965347	4963197	-
x	4970889	4972541	+
x	4977170	4974918	-
x	4977954	4977463	-
x	4977957	4977463	-
x	4979866	4979393	-
x	4979719	4979393	-
x	4979860	4979393	-
x	4980681	4979857	-
x	4980627	4979857	-
x	4981322	4981972	+
x	4981984	4982607	+
x	4982080	4982607	+
x	4983535	4983810	+
x	4983574	4983810	+
x	4983666	4983821	+
x	4987040	4987186	+
x	4990017	4989001	-
x	4992997	4992431	-
x	4992994	4992431	-
x	4993481	4993095	-
x	4994365	4993985	-
x	4994347	4993985	-
x	4995014	4994736	-
x	4994990	4994736	-
x	4995717	4995070	-
x	4998036	4998848	+
x	4998851	4999339	+
x	4999306	4999992	+
x	5001526	5002515	+
x	5001562	5002515	+
x	5001598	5002515	+
x	5001928	5002515	+
x	5002518	5002898	+
x	5002530	5002898	+
x	5005111	5005389	+
x	5005183	5005389	+
x	5005871	5006350	+
x	5006103	5006309	+
x	5006347	5006490	+
x	5007035	5006904	-
x	5007016	5006921	-
x	5009756	5009968	+
x	5009968	5011476	+
x	5011114	5011476	+
x	5011219	5011476	+
x	5011229	5013448	+
x	5011271	5013448	+
x	5011328	5013448	+
x	5011358	5013448	+
x	5011421	5013448	+
x	5011490	5013448	+
x	5013535	5013858	+
x	5014713	5015126	+
x	5015062	5015880	+
x	5015137	5015880	+
x	5015899	5016327	+
x	5015929	5016327	+
x	5015941	5016327	+
x	5016348	5016665	+
x	5016607	5019693	+
x	5016628	5019693	+
x	5020736	5020083	-
x	5020586	5020083	-
x	5020735	5021478	+
x	5020804	5021478	+
x	5020843	5021478	+
x	5020879	5021478	+
x	5020909	5021478	+
x	5021415	5022023	+
x	5021475	5022023	+
x	5022747	5025479	+
x	5022918	5025479	+
x	5024826	5025479	+
x	5025901	5026146	+
x	5026205	5028586	+
x	5026722	5026576	-
x	5029954	5030253	+
x	5029960	5030253	+
x	5030365	5030550	+
x	5033101	5032895	-
x	5033026	5032895	-
x	5034586	5033258	-
x	5033422	5033258	-
x	5033336	5034949	+
x	5033375	5034949	+
x	5036001	5035309	-
x	5035342	5035947	+
x	5035348	5035947	+
x	5036056	5036235	+
x	5036074	5036235	+
x	5036357	5037430	+
x	5037571	5038206	+
x	5038331	5038221	-
x	5038249	5038356	+
x	5040860	5040961	+
x	5041066	5041845	+
x	5041872	5043245	+
x	5041923	5043245	+
x	5042052	5043245	+
x	5044577	5045296	+
x	5045304	5045423	+
x	5048589	5049557	+
x	5049606	5050988	+
x	5051009	5052241	+
x	5052333	5052665	+
x	5052366	5052665	+
x	5054648	5054812	+
x	5054914	5056818	+
x	5056938	5057234	+
x	5057834	5057307	-
x	5065031	5065717	+
