1047949.1049070.-	1049070	1047949	-	KZN_1435	1047953.1049074.-	1049074	1047953	-	KZN_605
3490329.3491198.+	3490329	3491198	+	KZN_1435	3491442.3492311.+	3491442	3492311	+	KZN_605
309639.310013.+	309639	310013	+	KZN_1435	309638.310012.+	309638	310012	+	KZN_605
1761765.1761950.-	1761950	1761765	-	KZN_1435	1761881.1762066.-	1762066	1761881	-	KZN_605
1431299.1432102.-	1432102	1431299	-	KZN_1435	1431411.1432214.-	1432214	1431411	-	KZN_605
4165194.4167560.+	4165194	4167560	+	KZN_1435	4166064.4168430.+	4166064	4168430	+	KZN_605
2204355.2204963.-	2204963	2204355	-	KZN_1435	2204235.2204843.-	2204843	2204235	-	KZN_605
103841.104560.-	104560	103841	-	KZN_1435	103839.104558.-	104558	103839	-	KZN_605
3874015.3874734.+	3874015	3874734	+	KZN_1435	103839.104558.-	104558	103839	-	KZN_605
2633549.2634271.+	2633549	2634271	+	KZN_1435	103839.104558.-	104558	103839	-	KZN_605
3197149.3197601.-	3197601	3197149	-	KZN_1435	3196920.3197372.-	3197372	3196920	-	KZN_605
3583783.3584070.-	3584070	3583783	-	KZN_1435	3584896.3585183.-	3585183	3584896	-	KZN_605
1035164.1035448.+	1035164	1035448	+	KZN_1435	1035170.1035454.+	1035170	1035454	+	KZN_605
183354.183500.+	183354	183500	+	KZN_1435	183352.183498.+	183352	183498	+	KZN_605
577846.578472.+	577846	578472	+	KZN_1435	577903.578529.+	577903	578529	+	KZN_605
3330924.3333236.-	3333236	3330924	-	KZN_1435	3330679.3332991.-	3332991	3330679	-	KZN_605
3334144.3334746.+	3334144	3334746	+	KZN_1435	3333899.3334501.+	3333899	3334501	+	KZN_605
4238055.4239812.+	4238055	4239812	+	KZN_1435	4238924.4240681.+	4238924	4240681	+	KZN_605
1697374.1698207.+	1697374	1698207	+	KZN_1435	1697489.1698322.+	1697489	1698322	+	KZN_605
2370181.2371593.-	2371593	2370181	-	KZN_1435	2370063.2371475.-	2371475	2370063	-	KZN_605
1075907.1076983.+	1075907	1076983	+	KZN_1435	1075911.1076987.+	1075911	1076987	+	KZN_605
1451410.1453710.+	1451410	1453710	+	KZN_1435	1451522.1453822.+	1451522	1453822	+	KZN_605
698776.699246.-	699246	698776	-	KZN_1435	698835.699305.-	699305	698835	-	KZN_605
3347017.3347865.+	3347017	3347865	+	KZN_1435	3346772.3347620.+	3346772	3347620	+	KZN_605
4253899.4255842.-	4255842	4253899	-	KZN_1435	4254768.4256711.-	4256711	4254768	-	KZN_605
543454.544989.+	543454	544989	+	KZN_1435	543455.544990.+	543455	544990	+	KZN_605
3888952.3889662.-	3889662	3888952	-	KZN_1435	3890062.3890772.-	3890772	3890062	-	KZN_605
3581907.3582764.-	3582764	3581907	-	KZN_1435	3583020.3583877.-	3583877	3583020	-	KZN_605
3137468.3138967.-	3138967	3137468	-	KZN_1435	3137238.3138737.-	3138737	3137238	-	KZN_605
144131.145759.+	144131	145759	+	KZN_1435	144129.145757.+	144129	145757	+	KZN_605
3044830.3045918.-	3045918	3044830	-	KZN_1435	3044602.3045690.-	3045690	3044602	-	KZN_605
3426008.3426466.+	3426008	3426466	+	KZN_1435	3425761.3426219.+	3425761	3426219	+	KZN_605
2264873.2265478.+	2264873	2265478	+	KZN_1435	2264754.2265359.+	2264754	2265359	+	KZN_605
1470212.1470439.-	1470439	1470212	-	KZN_1435	1470324.1470551.-	1470551	1470324	-	KZN_605
3238180.3239088.-	3239088	3238180	-	KZN_1435	3237935.3238843.-	3238843	3237935	-	KZN_605
1441788.1442252.-	1442252	1441788	-	KZN_1435	1441900.1442364.-	1442364	1441900	-	KZN_605
2446419.2449010.-	2449010	2446419	-	KZN_1435	2446300.2448891.-	2448891	2446300	-	KZN_605
3548441.3549730.+	3548441	3549730	+	KZN_1435	3549554.3550843.+	3549554	3550843	+	KZN_605
3510911.3512128.-	3512128	3510911	-	KZN_1435	3512024.3513241.-	3513241	3512024	-	KZN_605
737520.738401.-	738401	737520	-	KZN_1435	737579.738460.-	738460	737579	-	KZN_605
3302718.3303389.+	3302718	3303389	+	KZN_1435	3302473.3303144.+	3302473	3303144	+	KZN_605
3072991.3073290.-	3073290	3072991	-	KZN_1435	3072763.3073062.-	3073062	3072763	-	KZN_605
932089.932925.-	932925	932089	-	KZN_1435	932094.932930.-	932930	932094	-	KZN_605
1292329.1293165.+	1292329	1293165	+	KZN_1435	932094.932930.-	932930	932094	-	KZN_605
1330496.1331332.-	1331332	1330496	-	KZN_1435	932094.932930.-	932930	932094	-	KZN_605
1605986.1606822.-	1606822	1605986	-	KZN_1435	932094.932930.-	932930	932094	-	KZN_605
1781593.1782429.+	1781593	1782429	+	KZN_1435	932094.932930.-	932930	932094	-	KZN_605
1861140.1861976.+	1861140	1861976	+	KZN_1435	932094.932930.-	932930	932094	-	KZN_605
2048612.2049448.+	2048612	2049448	+	KZN_1435	932094.932930.-	932930	932094	-	KZN_605
2050283.2051119.+	2050283	2051119	+	KZN_1435	932094.932930.-	932930	932094	-	KZN_605
2155671.2156507.-	2156507	2155671	-	KZN_1435	932094.932930.-	932930	932094	-	KZN_605
2375978.2376814.+	2375978	2376814	+	KZN_1435	932094.932930.-	932930	932094	-	KZN_605
2435226.2436062.+	2435226	2436062	+	KZN_1435	932094.932930.-	932930	932094	-	KZN_605
3480315.3481151.+	3480315	3481151	+	KZN_1435	932094.932930.-	932930	932094	-	KZN_605
3708737.3709573.-	3709573	3708737	-	KZN_1435	932094.932930.-	932930	932094	-	KZN_605
4063263.4064099.-	4064099	4063263	-	KZN_1435	932094.932930.-	932930	932094	-	KZN_605
632004.632636.+	632004	632636	+	KZN_1435	632063.632695.+	632063	632695	+	KZN_605
1418279.1419064.-	1419064	1418279	-	KZN_1435	1418391.1419176.-	1419176	1418391	-	KZN_605
3554962.3555171.+	3554962	3555171	+	KZN_1435	3556075.3556284.+	3556075	3556284	+	KZN_605
3317103.3317297.+	3317103	3317297	+	KZN_1435	3316858.3317052.+	3316858	3317052	+	KZN_605
1117250.1122100.+	1117250	1122100	+	KZN_1435	1117252.1122102.+	1117252	1122102	+	KZN_605
1868840.1869709.-	1869709	1868840	-	KZN_1435	1868956.1869825.-	1869825	1868956	-	KZN_605
877520.877912.-	877912	877520	-	KZN_1435	877525.877917.-	877917	877525	-	KZN_605
984257.986539.-	986539	984257	-	KZN_1435	984262.986544.-	986544	984262	-	KZN_605
3631759.3633183.+	3631759	3633183	+	KZN_1435	3632872.3634296.+	3632872	3634296	+	KZN_605
2100031.2100432.-	2100432	2100031	-	KZN_1435	2099908.2100309.-	2100309	2099908	-	KZN_605
2845668.2846888.-	2846888	2845668	-	KZN_1435	2845438.2846658.-	2846658	2845438	-	KZN_605
1676692.1676970.-	1676970	1676692	-	KZN_1435	1676807.1677085.-	1677085	1676807	-	KZN_605
1287692.1288840.+	1287692	1288840	+	KZN_1435	1287804.1288952.+	1287804	1288952	+	KZN_605
1183149.1184585.+	1183149	1184585	+	KZN_1435	1183261.1184697.+	1183261	1184697	+	KZN_605
3707772.3708305.-	3708305	3707772	-	KZN_1435	3708885.3709418.-	3709418	3708885	-	KZN_605
562982.563752.-	563752	562982	-	KZN_1435	562983.563753.-	563753	562983	-	KZN_605
3315471.3316889.+	3315471	3316889	+	KZN_1435	3315226.3316644.+	3315226	3316644	+	KZN_605
1226216.1226806.-	1226806	1226216	-	KZN_1435	1226328.1226918.-	1226918	1226328	-	KZN_605
1796062.1796319.-	1796319	1796062	-	KZN_1435	1796178.1796435.-	1796435	1796178	-	KZN_605
3128135.3129178.+	3128135	3129178	+	KZN_1435	3127905.3128948.+	3127905	3128948	+	KZN_605
1842885.1843577.-	1843577	1842885	-	KZN_1435	1843001.1843693.-	1843693	1843001	-	KZN_605
1394505.1394693.-	1394693	1394505	-	KZN_1435	1394617.1394805.-	1394805	1394617	-	KZN_605
1660685.1660831.+	1660685	1660831	+	KZN_1435	1660800.1660946.+	1660800	1660946	+	KZN_605
3071769.3072941.-	3072941	3071769	-	KZN_1435	3071541.3072713.-	3072713	3071541	-	KZN_605
2878716.2879903.+	2878716	2879903	+	KZN_1435	3071541.3072713.-	3072713	3071541	-	KZN_605
3882888.3884066.+	3882888	3884066	+	KZN_1435	3071541.3072713.-	3072713	3071541	-	KZN_605
3387855.3388112.-	3388112	3387855	-	KZN_1435	3387609.3387866.-	3387866	3387609	-	KZN_605
1008559.1008810.-	1008810	1008559	-	KZN_1435	1008564.1008815.-	1008815	1008564	-	KZN_605
770783.771334.+	770783	771334	+	KZN_1435	770842.771393.+	770842	771393	+	KZN_605
1700797.1702350.+	1700797	1702350	+	KZN_1435	1700912.1702465.+	1700912	1702465	+	KZN_605
3146722.3147090.+	3146722	3147090	+	KZN_1435	3146492.3146860.+	3146492	3146860	+	KZN_605
3702159.3702497.+	3702159	3702497	+	KZN_1435	3703272.3703610.+	3703272	3703610	+	KZN_605
3233216.3233362.+	3233216	3233362	+	KZN_1435	3232971.3233117.+	3232971	3233117	+	KZN_605
4081376.4081630.-	4081630	4081376	-	KZN_1435	4082246.4082500.-	4082500	4082246	-	KZN_605
1943349.1944098.-	1944098	1943349	-	KZN_1435	1943468.1944217.-	1944217	1943468	-	KZN_605
2593915.2594541.-	2594541	2593915	-	KZN_1435	2593797.2594423.-	2594423	2593797	-	KZN_605
2044530.2044745.+	2044530	2044745	+	KZN_1435	2044420.2044635.+	2044420	2044635	+	KZN_605
3578744.3579418.+	3578744	3579418	+	KZN_1435	3579857.3580531.+	3579857	3580531	+	KZN_605
1882126.1882548.+	1882126	1882548	+	KZN_1435	1882243.1882665.+	1882243	1882665	+	KZN_605
4115637.4116086.-	4116086	4115637	-	KZN_1435	4116507.4116956.-	4116956	4116507	-	KZN_605
732576.733073.+	732576	733073	+	KZN_1435	732635.733132.+	732635	733132	+	KZN_605
2998351.2999031.-	2999031	2998351	-	KZN_1435	2998051.2998803.-	2998803	2998051	-	KZN_605
2638321.2638605.+	2638321	2638605	+	KZN_1435	2638204.2638488.+	2638204	2638488	+	KZN_605
560147.561007.+	560147	561007	+	KZN_1435	560148.561008.+	560148	561008	+	KZN_605
1621040.1622317.+	1621040	1622317	+	KZN_1435	1621155.1622432.+	1621155	1622432	+	KZN_605
1832184.1832780.-	1832780	1832184	-	KZN_1435	1832300.1832896.-	1832896	1832300	-	KZN_605
4080656.4081243.+	4080656	4081243	+	KZN_1435	4081526.4082113.+	4081526	4082113	+	KZN_605
1821893.1822438.+	1821893	1822438	+	KZN_1435	1822009.1822554.+	1822009	1822554	+	KZN_605
3281862.3282833.-	3282833	3281862	-	KZN_1435	3281617.3282588.-	3282588	3281617	-	KZN_605
586573.587559.+	586573	587559	+	KZN_1435	586630.587616.+	586630	587616	+	KZN_605
3133414.3133851.-	3133851	3133414	-	KZN_1435	3133184.3133621.-	3133621	3133184	-	KZN_605
3246959.3247396.+	3246959	3247396	+	KZN_1435	3133184.3133621.-	3133621	3133184	-	KZN_605
1735054.1736037.-	1736037	1735054	-	KZN_1435	1735169.1736152.-	1736152	1735169	-	KZN_605
2352244.2353173.-	2353173	2352244	-	KZN_1435	2352126.2353055.-	2353055	2352126	-	KZN_605
1709865.1710467.-	1710467	1709865	-	KZN_1435	1709980.1710582.-	1710582	1709980	-	KZN_605
3865869.3866639.-	3866639	3865869	-	KZN_1435	3866979.3867749.-	3867749	3866979	-	KZN_605
3739572.3749009.-	3749009	3739572	-	KZN_1435	3740685.3750122.-	3750122	3740685	-	KZN_605
532613.533170.+	532613	533170	+	KZN_1435	532614.533171.+	532614	533171	+	KZN_605
1832813.1833157.-	1833157	1832813	-	KZN_1435	1832929.1833273.-	1833273	1832929	-	KZN_605
2225720.2227084.-	2227084	2225720	-	KZN_1435	2225601.2226965.-	2226965	2225601	-	KZN_605
3134571.3135935.+	3134571	3135935	+	KZN_1435	2225601.2226965.-	2226965	2225601	-	KZN_605
4084811.4085884.-	4085884	4084811	-	KZN_1435	4085681.4086754.-	4086754	4085681	-	KZN_605
2795614.2795847.-	2795847	2795614	-	KZN_1435	2795383.2795616.-	2795616	2795383	-	KZN_605
3002933.3004051.-	3004051	3002933	-	KZN_1435	3002705.3003823.-	3003823	3002705	-	KZN_605
518992.519300.+	518992	519300	+	KZN_1435	518993.519301.+	518993	519301	+	KZN_605
836059.836205.-	836205	836059	-	KZN_1435	836064.836210.-	836210	836064	-	KZN_605
1468830.1470215.+	1468830	1470215	+	KZN_1435	1468942.1470327.+	1468942	1470327	+	KZN_605
1618978.1619739.+	1618978	1619739	+	KZN_1435	1619093.1619854.+	1619093	1619854	+	KZN_605
2109194.2109418.+	2109194	2109418	+	KZN_1435	2109071.2109295.+	2109071	2109295	+	KZN_605
142261.144018.-	144018	142261	-	KZN_1435	142259.144016.-	144016	142259	-	KZN_605
2772838.2773845.+	2772838	2773845	+	KZN_1435	2772721.2773728.+	2772721	2773728	+	KZN_605
3637992.3638261.-	3638261	3637992	-	KZN_1435	3639105.3639374.-	3639374	3639105	-	KZN_605
1347883.1348794.+	1347883	1348794	+	KZN_1435	1347995.1348906.+	1347995	1348906	+	KZN_605
932089.932925.-	932925	932089	-	KZN_1435	2048502.2049338.+	2048502	2049338	+	KZN_605
1292329.1293165.+	1292329	1293165	+	KZN_1435	2048502.2049338.+	2048502	2049338	+	KZN_605
1330496.1331332.-	1331332	1330496	-	KZN_1435	2048502.2049338.+	2048502	2049338	+	KZN_605
1605986.1606822.-	1606822	1605986	-	KZN_1435	2048502.2049338.+	2048502	2049338	+	KZN_605
1781593.1782429.+	1781593	1782429	+	KZN_1435	2048502.2049338.+	2048502	2049338	+	KZN_605
1861140.1861976.+	1861140	1861976	+	KZN_1435	2048502.2049338.+	2048502	2049338	+	KZN_605
2048612.2049448.+	2048612	2049448	+	KZN_1435	2048502.2049338.+	2048502	2049338	+	KZN_605
2050283.2051119.+	2050283	2051119	+	KZN_1435	2048502.2049338.+	2048502	2049338	+	KZN_605
2155671.2156507.-	2156507	2155671	-	KZN_1435	2048502.2049338.+	2048502	2049338	+	KZN_605
2375978.2376814.+	2375978	2376814	+	KZN_1435	2048502.2049338.+	2048502	2049338	+	KZN_605
2435226.2436062.+	2435226	2436062	+	KZN_1435	2048502.2049338.+	2048502	2049338	+	KZN_605
3480315.3481151.+	3480315	3481151	+	KZN_1435	2048502.2049338.+	2048502	2049338	+	KZN_605
3708737.3709573.-	3709573	3708737	-	KZN_1435	2048502.2049338.+	2048502	2049338	+	KZN_605
4063263.4064099.-	4064099	4063263	-	KZN_1435	2048502.2049338.+	2048502	2049338	+	KZN_605
2926397.2926579.+	2926397	2926579	+	KZN_1435	2926168.2926350.+	2926168	2926350	+	KZN_605
3661809.3662279.+	3661809	3662279	+	KZN_1435	3662922.3663392.+	3662922	3663392	+	KZN_605
2756730.2757857.+	2756730	2757857	+	KZN_1435	2756613.2757740.+	2756613	2757740	+	KZN_605
3489407.3489886.+	3489407	3489886	+	KZN_1435	3490520.3490999.+	3490520	3490999	+	KZN_605
1288844.1289869.+	1288844	1289869	+	KZN_1435	1288956.1289981.+	1288956	1289981	+	KZN_605
1580053.1580304.+	1580053	1580304	+	KZN_1435	1580166.1580417.+	1580166	1580417	+	KZN_605
2525835.2526227.-	2526227	2525835	-	KZN_1435	2525717.2526109.-	2526109	2525717	-	KZN_605
140098.140277.+	140098	140277	+	KZN_1435	140096.140275.+	140096	140275	+	KZN_605
1485424.1485825.-	1485825	1485424	-	KZN_1435	1485536.1485937.-	1485937	1485536	-	KZN_605
4156412.4156654.+	4156412	4156654	+	KZN_1435	4157282.4157524.+	4157282	4157524	+	KZN_605
2456705.2457037.-	2457037	2456705	-	KZN_1435	2456586.2456918.-	2456918	2456586	-	KZN_605
1041308.1041964.-	1041964	1041308	-	KZN_1435	1041312.1041968.-	1041968	1041312	-	KZN_605
877890.878030.+	877890	878030	+	KZN_1435	877895.878035.+	877895	878035	+	KZN_605
1435485.1435847.+	1435485	1435847	+	KZN_1435	1435597.1435959.+	1435597	1435959	+	KZN_605
864497.865342.+	864497	865342	+	KZN_1435	864502.865347.+	864502	865347	+	KZN_605
27095.27403.+	27095	27403	+	KZN_1435	27094.27402.+	27094	27402	+	KZN_605
2430857.2431090.-	2431090	2430857	-	KZN_1435	2430738.2430971.-	2430971	2430738	-	KZN_605
1583675.1583860.-	1583860	1583675	-	KZN_1435	1583788.1583973.-	1583973	1583788	-	KZN_605
1552670.1553368.-	1553368	1552670	-	KZN_1435	1552783.1553481.-	1553481	1552783	-	KZN_605
873871.874554.-	874554	873871	-	KZN_1435	873876.874559.-	874559	873876	-	KZN_605
4207966.4209594.+	4207966	4209594	+	KZN_1435	4208835.4210463.+	4208835	4210463	+	KZN_605
591654.591755.+	591654	591755	+	KZN_1435	591711.591812.+	591711	591812	+	KZN_605
3833803.3834450.-	3834450	3833803	-	KZN_1435	3834913.3835560.-	3835560	3834913	-	KZN_605
1280195.1280935.+	1280195	1280935	+	KZN_1435	1280307.1281047.+	1280307	1281047	+	KZN_605
2307454.2309790.-	2309790	2307454	-	KZN_1435	2307336.2309672.-	2309672	2307336	-	KZN_605
4370604.4370942.-	4370942	4370604	-	KZN_1435	4371473.4371811.-	4371811	4371473	-	KZN_605
3458811.3459245.-	3459245	3458811	-	KZN_1435	3458566.3459000.-	3459000	3458566	-	KZN_605
1687818.1688084.+	1687818	1688084	+	KZN_1435	1687933.1688199.+	1687933	1688199	+	KZN_605
3247496.3247804.+	3247496	3247804	+	KZN_1435	3247251.3247559.+	3247251	3247559	+	KZN_605
602989.604695.+	602989	604695	+	KZN_1435	603046.604752.+	603046	604752	+	KZN_605
833058.833303.+	833058	833303	+	KZN_1435	833063.833308.+	833063	833308	+	KZN_605
843231.843476.+	843231	843476	+	KZN_1435	833063.833308.+	833063	833308	+	KZN_605
4350363.4351733.-	4351733	4350363	-	KZN_1435	4351232.4352602.-	4352602	4351232	-	KZN_605
1429919.1430440.-	1430440	1429919	-	KZN_1435	1430031.1430552.-	1430552	1430031	-	KZN_605
3795235.3795975.+	3795235	3795975	+	KZN_1435	3796348.3797088.+	3796348	3797088	+	KZN_605
369007.375621.-	375621	369007	-	KZN_1435	369007.375621.-	375621	369007	-	KZN_605
3133934.3134341.-	3134341	3133934	-	KZN_1435	3246224.3246631.+	3246224	3246631	+	KZN_605
3246469.3246876.+	3246469	3246876	+	KZN_1435	3246224.3246631.+	3246224	3246631	+	KZN_605
2035355.2035870.+	2035355	2035870	+	KZN_1435	2035473.2035988.+	2035473	2035988	+	KZN_605
1838670.1839104.-	1839104	1838670	-	KZN_1435	1838786.1839220.-	1839220	1838786	-	KZN_605
4371098.4372192.-	4372192	4371098	-	KZN_1435	4371967.4373061.-	4373061	4371967	-	KZN_605
2367519.2368712.+	2367519	2368712	+	KZN_1435	2367401.2368594.+	2367401	2368594	+	KZN_605
918754.919395.-	919395	918754	-	KZN_1435	918759.919400.-	919400	918759	-	KZN_605
2397829.2398926.-	2398926	2397829	-	KZN_1435	2397711.2398808.-	2398808	2397711	-	KZN_605
3048047.3048790.+	3048047	3048790	+	KZN_1435	3047818.3048561.+	3047818	3048561	+	KZN_605
3902990.3904345.-	3904345	3902990	-	KZN_1435	3904100.3905455.-	3905455	3904100	-	KZN_605
3520096.3521337.+	3520096	3521337	+	KZN_1435	3521209.3522450.+	3521209	3522450	+	KZN_605
34397.36643.+	34397	36643	+	KZN_1435	34396.36642.+	34396	36642	+	KZN_605
1157916.1162532.-	1162532	1157916	-	KZN_1435	1157917.1162533.-	1162533	1157917	-	KZN_605
3183595.3184581.+	3183595	3184581	+	KZN_1435	3183366.3184352.+	3183366	3184352	+	KZN_605
3644099.3645022.-	3645022	3644099	-	KZN_1435	3645212.3646135.-	3646135	3645212	-	KZN_605
932089.932925.-	932925	932089	-	KZN_1435	1292441.1293277.+	1292441	1293277	+	KZN_605
1292329.1293165.+	1292329	1293165	+	KZN_1435	1292441.1293277.+	1292441	1293277	+	KZN_605
1330496.1331332.-	1331332	1330496	-	KZN_1435	1292441.1293277.+	1292441	1293277	+	KZN_605
1605986.1606822.-	1606822	1605986	-	KZN_1435	1292441.1293277.+	1292441	1293277	+	KZN_605
1781593.1782429.+	1781593	1782429	+	KZN_1435	1292441.1293277.+	1292441	1293277	+	KZN_605
1861140.1861976.+	1861140	1861976	+	KZN_1435	1292441.1293277.+	1292441	1293277	+	KZN_605
2048612.2049448.+	2048612	2049448	+	KZN_1435	1292441.1293277.+	1292441	1293277	+	KZN_605
2050283.2051119.+	2050283	2051119	+	KZN_1435	1292441.1293277.+	1292441	1293277	+	KZN_605
2155671.2156507.-	2156507	2155671	-	KZN_1435	1292441.1293277.+	1292441	1293277	+	KZN_605
2375978.2376814.+	2375978	2376814	+	KZN_1435	1292441.1293277.+	1292441	1293277	+	KZN_605
2435226.2436062.+	2435226	2436062	+	KZN_1435	1292441.1293277.+	1292441	1293277	+	KZN_605
3480315.3481151.+	3480315	3481151	+	KZN_1435	1292441.1293277.+	1292441	1293277	+	KZN_605
3708737.3709573.-	3709573	3708737	-	KZN_1435	1292441.1293277.+	1292441	1293277	+	KZN_605
4063263.4064099.-	4064099	4063263	-	KZN_1435	1292441.1293277.+	1292441	1293277	+	KZN_605
1173899.1174090.+	1173899	1174090	+	KZN_1435	1173899.1174090.+	1173899	1174090	+	KZN_605
362625.364031.-	364031	362625	-	KZN_1435	362624.364030.-	364030	362624	-	KZN_605
3598915.3599142.-	3599142	3598915	-	KZN_1435	3600028.3600255.-	3600255	3600028	-	KZN_605
133153.133902.+	133153	133902	+	KZN_1435	133151.133900.+	133151	133900	+	KZN_605
4068233.4069441.-	4069441	4068233	-	KZN_1435	4069103.4070311.-	4070311	4069103	-	KZN_605
3557667.3558131.+	3557667	3558131	+	KZN_1435	3558780.3559244.+	3558780	3559244	+	KZN_605
1031091.1032401.+	1031091	1032401	+	KZN_1435	3481966.3483276.+	3481966	3483276	+	KZN_605
1583948.1585258.+	1583948	1585258	+	KZN_1435	3481966.3483276.+	3481966	3483276	+	KZN_605
3069625.3070935.+	3069625	3070935	+	KZN_1435	3481966.3483276.+	3481966	3483276	+	KZN_605
3241296.3242606.-	3242606	3241296	-	KZN_1435	3481966.3483276.+	3481966	3483276	+	KZN_605
3482211.3483521.+	3482211	3483521	+	KZN_1435	3481966.3483276.+	3481966	3483276	+	KZN_605
3860901.3862349.-	3862349	3860901	-	KZN_1435	3862011.3863459.-	3863459	3862011	-	KZN_605
3133414.3133851.-	3133851	3133414	-	KZN_1435	3246714.3247151.+	3246714	3247151	+	KZN_605
3246959.3247396.+	3246959	3247396	+	KZN_1435	3246714.3247151.+	3246714	3247151	+	KZN_605
4038877.4039206.-	4039206	4038877	-	KZN_1435	4039747.4040076.-	4040076	4039747	-	KZN_605
3555418.3556602.-	3556602	3555418	-	KZN_1435	3556531.3557715.-	3557715	3556531	-	KZN_605
104936.105346.-	105346	104936	-	KZN_1435	104934.105344.-	105344	104934	-	KZN_605
2394024.2394323.-	2394323	2394024	-	KZN_1435	2393906.2394205.-	2394205	2393906	-	KZN_605
4199149.4199928.+	4199149	4199928	+	KZN_1435	4200018.4200797.+	4200018	4200797	+	KZN_605
3512400.3512891.+	3512400	3512891	+	KZN_1435	3513513.3514004.+	3513513	3514004	+	KZN_605
1363004.1363210.+	1363004	1363210	+	KZN_1435	1363116.1363322.+	1363116	1363322	+	KZN_605
2580470.2582140.+	2580470	2582140	+	KZN_1435	2580352.2582022.+	2580352	2582022	+	KZN_605
1706946.1707920.-	1707920	1706946	-	KZN_1435	1707061.1708035.-	1708035	1707061	-	KZN_605
1389679.1390746.+	1389679	1390746	+	KZN_1435	1389791.1390858.+	1389791	1390858	+	KZN_605
2157073.2157792.-	2157792	2157073	-	KZN_1435	2156953.2157672.-	2157672	2156953	-	KZN_605
3148049.3149905.+	3148049	3149905	+	KZN_1435	3147819.3149675.+	3147819	3149675	+	KZN_605
1993172.1993513.+	1993172	1993513	+	KZN_1435	1993290.1993631.+	1993290	1993631	+	KZN_605
1031106.1032401.+	1031106	1032401	+	KZN_1435	3241051.3242346.-	3242346	3241051	-	KZN_605
1583963.1585258.+	1583963	1585258	+	KZN_1435	3241051.3242346.-	3242346	3241051	-	KZN_605
3069640.3070935.+	3069640	3070935	+	KZN_1435	3241051.3242346.-	3242346	3241051	-	KZN_605
3241296.3242591.-	3242591	3241296	-	KZN_1435	3241051.3242346.-	3242346	3241051	-	KZN_605
3482226.3483521.+	3482226	3483521	+	KZN_1435	3241051.3242346.-	3242346	3241051	-	KZN_605
278326.278529.+	278326	278529	+	KZN_1435	278325.278528.+	278325	278528	+	KZN_605
1105050.1106024.+	1105050	1106024	+	KZN_1435	1105052.1106026.+	1105052	1106026	+	KZN_605
738549.739412.-	739412	738549	-	KZN_1435	738608.739471.-	739471	738608	-	KZN_605
578608.579378.+	578608	579378	+	KZN_1435	578665.579435.+	578665	579435	+	KZN_605
932089.932925.-	932925	932089	-	KZN_1435	1781709.1782545.+	1781709	1782545	+	KZN_605
1292329.1293165.+	1292329	1293165	+	KZN_1435	1781709.1782545.+	1781709	1782545	+	KZN_605
1330496.1331332.-	1331332	1330496	-	KZN_1435	1781709.1782545.+	1781709	1782545	+	KZN_605
1605986.1606822.-	1606822	1605986	-	KZN_1435	1781709.1782545.+	1781709	1782545	+	KZN_605
1781593.1782429.+	1781593	1782429	+	KZN_1435	1781709.1782545.+	1781709	1782545	+	KZN_605
1861140.1861976.+	1861140	1861976	+	KZN_1435	1781709.1782545.+	1781709	1782545	+	KZN_605
2048612.2049448.+	2048612	2049448	+	KZN_1435	1781709.1782545.+	1781709	1782545	+	KZN_605
2050283.2051119.+	2050283	2051119	+	KZN_1435	1781709.1782545.+	1781709	1782545	+	KZN_605
2155671.2156507.-	2156507	2155671	-	KZN_1435	1781709.1782545.+	1781709	1782545	+	KZN_605
2375978.2376814.+	2375978	2376814	+	KZN_1435	1781709.1782545.+	1781709	1782545	+	KZN_605
2435226.2436062.+	2435226	2436062	+	KZN_1435	1781709.1782545.+	1781709	1782545	+	KZN_605
3480315.3481151.+	3480315	3481151	+	KZN_1435	1781709.1782545.+	1781709	1782545	+	KZN_605
3708737.3709573.-	3709573	3708737	-	KZN_1435	1781709.1782545.+	1781709	1782545	+	KZN_605
4063263.4064099.-	4064099	4063263	-	KZN_1435	1781709.1782545.+	1781709	1782545	+	KZN_605
3211594.3212544.+	3211594	3212544	+	KZN_1435	3211348.3212187.+	3211348	3212187	+	KZN_605
3884096.3887344.+	3884096	3887344	+	KZN_1435	3885206.3888454.+	3885206	3888454	+	KZN_605
2451486.2451671.+	2451486	2451671	+	KZN_1435	2451367.2451552.+	2451367	2451552	+	KZN_605
3706495.3707127.-	3707127	3706495	-	KZN_1435	3707608.3708240.-	3708240	3707608	-	KZN_605
3479108.3479761.+	3479108	3479761	+	KZN_1435	3478863.3479516.+	3478863	3479516	+	KZN_605
1359525.1361102.-	1361102	1359525	-	KZN_1435	1359637.1361214.-	1361214	1359637	-	KZN_605
3870249.3870599.-	3870599	3870249	-	KZN_1435	3871359.3871709.-	3871709	3871359	-	KZN_605
1026962.1027702.+	1026962	1027702	+	KZN_1435	1026968.1027708.+	1026968	1027708	+	KZN_605
3751813.3762963.-	3762963	3751813	-	KZN_1435	3752926.3764076.-	3764076	3752926	-	KZN_605
4297347.4297760.+	4297347	4297760	+	KZN_1435	4298216.4298629.+	4298216	4298629	+	KZN_605
364108.366039.+	364108	366039	+	KZN_1435	364107.365966.+	364107	365966	+	KZN_605
3739572.3746990.-	3746990	3739572	-	KZN_1435	3740685.3748103.-	3748103	3740685	-	KZN_605
3494423.3495004.-	3495004	3494423	-	KZN_1435	3495536.3496117.-	3496117	3495536	-	KZN_605
4082255.4082935.-	4082935	4082255	-	KZN_1435	4083125.4083805.-	4083805	4083125	-	KZN_605
151501.152529.+	151501	152529	+	KZN_1435	151499.152527.+	151499	152527	+	KZN_605
3698413.3698583.-	3698583	3698413	-	KZN_1435	3699526.3699696.-	3699696	3699526	-	KZN_605
2051607.2051903.+	2051607	2051903	+	KZN_1435	2051497.2051793.+	2051497	2051793	+	KZN_605
676083.676562.+	676083	676562	+	KZN_1435	676142.676621.+	676142	676621	+	KZN_605
2465401.2466954.+	2465401	2466954	+	KZN_1435	2465282.2466835.+	2465282	2466835	+	KZN_605
832776.833303.+	832776	833303	+	KZN_1435	832781.833308.+	832781	833308	+	KZN_605
3423274.3424797.-	3424797	3423274	-	KZN_1435	3423027.3424550.-	3424550	3423027	-	KZN_605
3204321.3204671.-	3204671	3204321	-	KZN_1435	3204075.3204425.-	3204425	3204075	-	KZN_605
3501998.3502555.+	3501998	3502555	+	KZN_1435	3503111.3503668.+	3503111	3503668	+	KZN_605
3092313.3098618.-	3098618	3092313	-	KZN_1435	3092083.3098388.-	3098388	3092083	-	KZN_605
2944668.2945033.-	2945033	2944668	-	KZN_1435	2944439.2944804.-	2944804	2944439	-	KZN_605
1893417.1894304.-	1894304	1893417	-	KZN_1435	1893534.1894421.-	1894421	1893534	-	KZN_605
977463.977978.+	977463	977978	+	KZN_1435	977468.977983.+	977468	977983	+	KZN_605
3879765.3880550.-	3880550	3879765	-	KZN_1435	3880875.3881660.-	3881660	3880875	-	KZN_605
658579.659601.+	658579	659601	+	KZN_1435	658638.659660.+	658638	659660	+	KZN_605
1515032.1515772.-	1515772	1515032	-	KZN_1435	1515145.1515885.-	1515885	1515145	-	KZN_605
223546.223848.+	223546	223848	+	KZN_1435	223544.223846.+	223544	223846	+	KZN_605
3226226.3227083.-	3227083	3226226	-	KZN_1435	3225981.3226838.-	3226838	3225981	-	KZN_605
3667008.3667445.-	3667445	3667008	-	KZN_1435	3668121.3668558.-	3668558	3668121	-	KZN_605
1589212.1590558.+	1589212	1590558	+	KZN_1435	1589325.1590671.+	1589325	1590671	+	KZN_605
3863254.3863949.+	3863254	3863949	+	KZN_1435	3864364.3865059.+	3864364	3865059	+	KZN_605
1766615.1766956.+	1766615	1766956	+	KZN_1435	1766731.1767072.+	1766731	1767072	+	KZN_605
768102.768605.-	768605	768102	-	KZN_1435	768161.768664.-	768664	768161	-	KZN_605
3234724.3235080.-	3235080	3234724	-	KZN_1435	3234479.3234835.-	3234835	3234479	-	KZN_605
1055212.1056177.-	1056177	1055212	-	KZN_1435	1055216.1056181.-	1056181	1055216	-	KZN_605
2161928.2162407.-	2162407	2161928	-	KZN_1435	2161808.2162287.-	2162287	2161808	-	KZN_605
1244468.1245244.+	1244468	1245244	+	KZN_1435	1244580.1245356.+	1244580	1245356	+	KZN_605
4001954.4002553.+	4001954	4002553	+	KZN_1435	4002713.4003312.+	4002713	4003312	+	KZN_605
2298560.2299246.-	2299246	2298560	-	KZN_1435	2298441.2299127.-	2299127	2298441	-	KZN_605
2562954.2564012.-	2564012	2562954	-	KZN_1435	2562836.2563894.-	2563894	2562836	-	KZN_605
207391.208359.+	207391	208359	+	KZN_1435	207389.208357.+	207389	208357	+	KZN_605
932089.932925.-	932925	932089	-	KZN_1435	1330608.1331444.-	1331444	1330608	-	KZN_605
1292329.1293165.+	1292329	1293165	+	KZN_1435	1330608.1331444.-	1331444	1330608	-	KZN_605
1330496.1331332.-	1331332	1330496	-	KZN_1435	1330608.1331444.-	1331444	1330608	-	KZN_605
1605986.1606822.-	1606822	1605986	-	KZN_1435	1330608.1331444.-	1331444	1330608	-	KZN_605
1781593.1782429.+	1781593	1782429	+	KZN_1435	1330608.1331444.-	1331444	1330608	-	KZN_605
1861140.1861976.+	1861140	1861976	+	KZN_1435	1330608.1331444.-	1331444	1330608	-	KZN_605
2048612.2049448.+	2048612	2049448	+	KZN_1435	1330608.1331444.-	1331444	1330608	-	KZN_605
2050283.2051119.+	2050283	2051119	+	KZN_1435	1330608.1331444.-	1331444	1330608	-	KZN_605
2155671.2156507.-	2156507	2155671	-	KZN_1435	1330608.1331444.-	1331444	1330608	-	KZN_605
2375978.2376814.+	2375978	2376814	+	KZN_1435	1330608.1331444.-	1331444	1330608	-	KZN_605
2435226.2436062.+	2435226	2436062	+	KZN_1435	1330608.1331444.-	1331444	1330608	-	KZN_605
3480315.3481151.+	3480315	3481151	+	KZN_1435	1330608.1331444.-	1331444	1330608	-	KZN_605
3708737.3709573.-	3709573	3708737	-	KZN_1435	1330608.1331444.-	1331444	1330608	-	KZN_605
4063263.4064099.-	4064099	4063263	-	KZN_1435	1330608.1331444.-	1331444	1330608	-	KZN_605
4288509.4289735.-	4289735	4288509	-	KZN_1435	4289378.4290604.-	4290604	4289378	-	KZN_605
333377.335047.-	335047	333377	-	KZN_1435	333376.335046.-	335046	333376	-	KZN_605
3026749.3027294.+	3026749	3027294	+	KZN_1435	3026521.3027066.+	3026521	3027066	+	KZN_605
4371098.4372417.-	4372417	4371098	-	KZN_1435	4371967.4373286.-	4373286	4371967	-	KZN_605
1962825.1963076.+	1962825	1963076	+	KZN_1435	1962944.1963195.+	1962944	1963195	+	KZN_605
3252661.3253050.+	3252661	3253050	+	KZN_1435	3252416.3252805.+	3252416	3252805	+	KZN_605
181926.183149.-	183149	181926	-	KZN_1435	181924.183147.-	183147	181924	-	KZN_605
369007.376128.-	376128	369007	-	KZN_1435	369007.376128.-	376128	369007	-	KZN_605
1887416.1887610.+	1887416	1887610	+	KZN_1435	1887533.1887727.+	1887533	1887727	+	KZN_605
1276772.1277497.+	1276772	1277497	+	KZN_1435	1276884.1277609.+	1276884	1277609	+	KZN_605
743504.747151.+	743504	747151	+	KZN_1435	743563.747210.+	743563	747210	+	KZN_605
643150.644754.+	643150	644754	+	KZN_1435	643209.644813.+	643209	644813	+	KZN_605
3205525.3205986.+	3205525	3205986	+	KZN_1435	3205279.3205740.+	3205279	3205740	+	KZN_605
3968598.3969617.-	3969617	3968598	-	KZN_1435	3969357.3970376.-	3970376	3969357	-	KZN_605
131515.133005.+	131515	133005	+	KZN_1435	131513.133003.+	131513	133003	+	KZN_605
2215866.2216123.-	2216123	2215866	-	KZN_1435	2215747.2216004.-	2216004	2215747	-	KZN_605
3873781.3874734.+	3873781	3874734	+	KZN_1435	3874891.3875844.+	3874891	3875844	+	KZN_605
103841.104794.-	104794	103841	-	KZN_1435	3874891.3875844.+	3874891	3875844	+	KZN_605
2633315.2634271.+	2633315	2634271	+	KZN_1435	3874891.3875844.+	3874891	3875844	+	KZN_605
1302926.1303150.+	1302926	1303150	+	KZN_1435	1303038.1303262.+	1303038	1303262	+	KZN_605
1622540.1624021.+	1622540	1624021	+	KZN_1435	1622655.1624136.+	1622655	1624136	+	KZN_605
3150019.3150255.-	3150255	3150019	-	KZN_1435	3149789.3150025.-	3150025	3149789	-	KZN_605
141327.142277.+	141327	142277	+	KZN_1435	141325.142275.+	141325	142275	+	KZN_605
2087733.2088488.+	2087733	2088488	+	KZN_1435	2087611.2088366.+	2087611	2088366	+	KZN_605
3942994.3943905.+	3942994	3943905	+	KZN_1435	3943753.3944664.+	3943753	3944664	+	KZN_605
2052593.2053309.-	2053309	2052593	-	KZN_1435	2052483.2053199.-	2053199	2052483	-	KZN_605
2208946.2210187.-	2210187	2208946	-	KZN_1435	2208826.2210067.-	2210067	2208826	-	KZN_605
1056351.1056554.+	1056351	1056554	+	KZN_1435	1056355.1056558.+	1056355	1056558	+	KZN_605
1451374.1453710.+	1451374	1453710	+	KZN_1435	1451486.1453822.+	1451486	1453822	+	KZN_605
1663424.1666084.+	1663424	1666084	+	KZN_1435	1663539.1666199.+	1663539	1666199	+	KZN_605
4149263.4150663.+	4149263	4150663	+	KZN_1435	4150133.4151533.+	4150133	4151533	+	KZN_605
563823.565193.+	563823	565193	+	KZN_1435	563824.565194.+	563824	565194	+	KZN_605
849301.851241.-	851241	849301	-	KZN_1435	849307.851247.-	851247	849307	-	KZN_605
2775290.2777503.+	2775290	2777503	+	KZN_1435	2775173.2777386.+	2775173	2777386	+	KZN_605
2431252.2433996.+	2431252	2433996	+	KZN_1435	2431133.2433877.+	2431133	2433877	+	KZN_605
2881149.2881373.+	2881149	2881373	+	KZN_1435	2880920.2881144.+	2880920	2881144	+	KZN_605
2374835.2375182.+	2374835	2375182	+	KZN_1435	2374717.2375064.+	2374717	2375064	+	KZN_605
1062786.1063505.+	1062786	1063505	+	KZN_1435	1062790.1063509.+	1062790	1063509	+	KZN_605
1549402.1550607.+	1549402	1550607	+	KZN_1435	1549515.1550720.+	1549515	1550720	+	KZN_605
1806863.1807618.-	1807618	1806863	-	KZN_1435	1806979.1807734.-	1807734	1806979	-	KZN_605
2338166.2338366.-	2338366	2338166	-	KZN_1435	2338048.2338248.-	2338248	2338048	-	KZN_605
3112110.3112412.+	3112110	3112412	+	KZN_1435	3111880.3112182.+	3111880	3112182	+	KZN_605
144182.145759.+	144182	145759	+	KZN_1435	144180.145757.+	144180	145757	+	KZN_605
4397232.4397582.-	4397582	4397232	-	KZN_1435	4398101.4398451.-	4398451	4398101	-	KZN_605
254578.255909.-	255909	254578	-	KZN_1435	254577.255908.-	255908	254577	-	KZN_605
736550.737497.-	737497	736550	-	KZN_1435	736609.737556.-	737556	736609	-	KZN_605
677377.677868.-	677868	677377	-	KZN_1435	677436.677927.-	677927	677436	-	KZN_605
1860457.1860651.-	1860651	1860457	-	KZN_1435	1860573.1860767.-	1860767	1860573	-	KZN_605
2511892.2512116.-	2512116	2511892	-	KZN_1435	2511774.2511998.-	2511998	2511774	-	KZN_605
4187367.4188272.+	4187367	4188272	+	KZN_1435	4188236.4189141.+	4188236	4189141	+	KZN_605
53766.55802.+	53766	55802	+	KZN_1435	53765.55801.+	53765	55801	+	KZN_605
3467305.3467697.-	3467697	3467305	-	KZN_1435	3467060.3467452.-	3467452	3467060	-	KZN_605
1644642.1645448.-	1645448	1644642	-	KZN_1435	1644757.1645563.-	1645563	1644757	-	KZN_605
3719565.3719951.+	3719565	3719951	+	KZN_1435	3720678.3721064.+	3720678	3721064	+	KZN_605
2608135.2609544.-	2609544	2608135	-	KZN_1435	2608018.2609427.-	2609427	2608018	-	KZN_605
1651299.1652825.-	1652825	1651299	-	KZN_1435	1651414.1652940.-	1652940	1651414	-	KZN_605
677979.678827.-	678827	677979	-	KZN_1435	678038.678886.-	678886	678038	-	KZN_605
932089.932925.-	932925	932089	-	KZN_1435	2375860.2376696.+	2375860	2376696	+	KZN_605
1292329.1293165.+	1292329	1293165	+	KZN_1435	2375860.2376696.+	2375860	2376696	+	KZN_605
1330496.1331332.-	1331332	1330496	-	KZN_1435	2375860.2376696.+	2375860	2376696	+	KZN_605
1605986.1606822.-	1606822	1605986	-	KZN_1435	2375860.2376696.+	2375860	2376696	+	KZN_605
1781593.1782429.+	1781593	1782429	+	KZN_1435	2375860.2376696.+	2375860	2376696	+	KZN_605
1861140.1861976.+	1861140	1861976	+	KZN_1435	2375860.2376696.+	2375860	2376696	+	KZN_605
2048612.2049448.+	2048612	2049448	+	KZN_1435	2375860.2376696.+	2375860	2376696	+	KZN_605
2050283.2051119.+	2050283	2051119	+	KZN_1435	2375860.2376696.+	2375860	2376696	+	KZN_605
2155671.2156507.-	2156507	2155671	-	KZN_1435	2375860.2376696.+	2375860	2376696	+	KZN_605
2375978.2376814.+	2375978	2376814	+	KZN_1435	2375860.2376696.+	2375860	2376696	+	KZN_605
2435226.2436062.+	2435226	2436062	+	KZN_1435	2375860.2376696.+	2375860	2376696	+	KZN_605
3480315.3481151.+	3480315	3481151	+	KZN_1435	2375860.2376696.+	2375860	2376696	+	KZN_605
3708737.3709573.-	3709573	3708737	-	KZN_1435	2375860.2376696.+	2375860	2376696	+	KZN_605
4063263.4064099.-	4064099	4063263	-	KZN_1435	2375860.2376696.+	2375860	2376696	+	KZN_605
2284826.2285545.+	2284826	2285545	+	KZN_1435	2284707.2285426.+	2284707	2285426	+	KZN_605
594050.594958.-	594958	594050	-	KZN_1435	594107.595015.-	595015	594107	-	KZN_605
3252556.3253050.+	3252556	3253050	+	KZN_1435	3252311.3252805.+	3252311	3252805	+	KZN_605
1031106.1032401.+	1031106	1032401	+	KZN_1435	1031112.1032407.+	1031112	1032407	+	KZN_605
1583963.1585258.+	1583963	1585258	+	KZN_1435	1031112.1032407.+	1031112	1032407	+	KZN_605
3069640.3070935.+	3069640	3070935	+	KZN_1435	1031112.1032407.+	1031112	1032407	+	KZN_605
3241296.3242591.-	3242591	3241296	-	KZN_1435	1031112.1032407.+	1031112	1032407	+	KZN_605
3482226.3483521.+	3482226	3483521	+	KZN_1435	1031112.1032407.+	1031112	1032407	+	KZN_605
1031154.1032401.+	1031154	1032401	+	KZN_1435	3482029.3483276.+	3482029	3483276	+	KZN_605
1584011.1585258.+	1584011	1585258	+	KZN_1435	3482029.3483276.+	3482029	3483276	+	KZN_605
3069688.3070935.+	3069688	3070935	+	KZN_1435	3482029.3483276.+	3482029	3483276	+	KZN_605
3241296.3242543.-	3242543	3241296	-	KZN_1435	3482029.3483276.+	3482029	3483276	+	KZN_605
3482274.3483521.+	3482274	3483521	+	KZN_1435	3482029.3483276.+	3482029	3483276	+	KZN_605
1451103.1451345.-	1451345	1451103	-	KZN_1435	1451215.1451457.-	1451457	1451215	-	KZN_605
2252383.2255424.+	2252383	2255424	+	KZN_1435	2252264.2255305.+	2252264	2255305	+	KZN_605
1914953.1915255.+	1914953	1915255	+	KZN_1435	1915071.1915373.+	1915071	1915373	+	KZN_605
4038325.4038915.+	4038325	4038915	+	KZN_1435	4039084.4039785.+	4039084	4039785	+	KZN_605
1099875.1100288.+	1099875	1100288	+	KZN_1435	1099877.1100290.+	1099877	1100290	+	KZN_605
1031154.1032401.+	1031154	1032401	+	KZN_1435	1584124.1585371.+	1584124	1585371	+	KZN_605
1584011.1585258.+	1584011	1585258	+	KZN_1435	1584124.1585371.+	1584124	1585371	+	KZN_605
3069688.3070935.+	3069688	3070935	+	KZN_1435	1584124.1585371.+	1584124	1585371	+	KZN_605
3241296.3242543.-	3242543	3241296	-	KZN_1435	1584124.1585371.+	1584124	1585371	+	KZN_605
3482274.3483521.+	3482274	3483521	+	KZN_1435	1584124.1585371.+	1584124	1585371	+	KZN_605
4118577.4119278.+	4118577	4119278	+	KZN_1435	4119447.4120148.+	4119447	4120148	+	KZN_605
2631139.2631378.-	2631378	2631139	-	KZN_1435	2631022.2631261.-	2631261	2631022	-	KZN_605
2821552.2822016.-	2822016	2821552	-	KZN_1435	2821322.2821786.-	2821786	2821322	-	KZN_605
2800734.2801363.+	2800734	2801363	+	KZN_1435	2800503.2801132.+	2800503	2801132	+	KZN_605
2210214.2211446.-	2211446	2210214	-	KZN_1435	2210094.2211326.-	2211326	2210094	-	KZN_605
3128063.3129178.+	3128063	3129178	+	KZN_1435	3127833.3128948.+	3127833	3128948	+	KZN_605
1116963.1117253.+	1116963	1117253	+	KZN_1435	1116965.1117255.+	1116965	1117255	+	KZN_605
710597.710839.+	710597	710839	+	KZN_1435	710656.710898.+	710656	710898	+	KZN_605
2371719.2372948.-	2372948	2371719	-	KZN_1435	2371601.2372830.-	2372830	2371601	-	KZN_605
4119404.4120405.+	4119404	4120405	+	KZN_1435	4120274.4121275.+	4120274	4121275	+	KZN_605
2460858.2461355.+	2460858	2461355	+	KZN_1435	2460739.2461236.+	2460739	2461236	+	KZN_605
3137468.3138970.-	3138970	3137468	-	KZN_1435	3137238.3138740.-	3138740	3137238	-	KZN_605
2335962.2338169.+	2335962	2338169	+	KZN_1435	2335844.2338051.+	2335844	2338051	+	KZN_605
1784516.1786054.+	1784516	1786054	+	KZN_1435	1784632.1786170.+	1784632	1786170	+	KZN_605
2800701.2801363.+	2800701	2801363	+	KZN_1435	2800470.2801132.+	2800470	2801132	+	KZN_605
1880950.1882548.+	1880950	1882548	+	KZN_1435	1881067.1882665.+	1881067	1882665	+	KZN_605
1702381.1703331.+	1702381	1703331	+	KZN_1435	1702496.1703446.+	1702496	1703446	+	KZN_605
3806231.3806857.+	3806231	3806857	+	KZN_1435	3807341.3807967.+	3807341	3807967	+	KZN_605
3182793.3183464.-	3183464	3182793	-	KZN_1435	3182564.3183235.-	3183235	3182564	-	KZN_605
932089.932925.-	932925	932089	-	KZN_1435	2435107.2435943.+	2435107	2435943	+	KZN_605
1292329.1293165.+	1292329	1293165	+	KZN_1435	2435107.2435943.+	2435107	2435943	+	KZN_605
1330496.1331332.-	1331332	1330496	-	KZN_1435	2435107.2435943.+	2435107	2435943	+	KZN_605
1605986.1606822.-	1606822	1605986	-	KZN_1435	2435107.2435943.+	2435107	2435943	+	KZN_605
1781593.1782429.+	1781593	1782429	+	KZN_1435	2435107.2435943.+	2435107	2435943	+	KZN_605
1861140.1861976.+	1861140	1861976	+	KZN_1435	2435107.2435943.+	2435107	2435943	+	KZN_605
2048612.2049448.+	2048612	2049448	+	KZN_1435	2435107.2435943.+	2435107	2435943	+	KZN_605
2050283.2051119.+	2050283	2051119	+	KZN_1435	2435107.2435943.+	2435107	2435943	+	KZN_605
2155671.2156507.-	2156507	2155671	-	KZN_1435	2435107.2435943.+	2435107	2435943	+	KZN_605
2375978.2376814.+	2375978	2376814	+	KZN_1435	2435107.2435943.+	2435107	2435943	+	KZN_605
2435226.2436062.+	2435226	2436062	+	KZN_1435	2435107.2435943.+	2435107	2435943	+	KZN_605
3480315.3481151.+	3480315	3481151	+	KZN_1435	2435107.2435943.+	2435107	2435943	+	KZN_605
3708737.3709573.-	3709573	3708737	-	KZN_1435	2435107.2435943.+	2435107	2435943	+	KZN_605
4063263.4064099.-	4064099	4063263	-	KZN_1435	2435107.2435943.+	2435107	2435943	+	KZN_605
1438754.1439245.+	1438754	1439245	+	KZN_1435	1438866.1439357.+	1438866	1439357	+	KZN_605
1687832.1688101.-	1688101	1687832	-	KZN_1435	1687947.1688216.-	1688216	1687947	-	KZN_605
3423274.3424746.-	3424746	3423274	-	KZN_1435	3423027.3424499.-	3424499	3423027	-	KZN_605
2710450.2710869.-	2710869	2710450	-	KZN_1435	2710333.2710752.-	2710752	2710333	-	KZN_605
655185.656270.-	656270	655185	-	KZN_1435	655244.656329.-	656329	655244	-	KZN_605
3790682.3790963.-	3790963	3790682	-	KZN_1435	3791795.3792076.-	3792076	3791795	-	KZN_605
2471652.2472071.+	2471652	2472071	+	KZN_1435	2471533.2471952.+	2471533	2471952	+	KZN_605
3992801.3993652.-	3993652	3992801	-	KZN_1435	3993560.3994411.-	3994411	3993560	-	KZN_605
2483100.2483864.-	2483864	2483100	-	KZN_1435	2482981.2483745.-	2483745	2482981	-	KZN_605
2081337.2081651.-	2081651	2081337	-	KZN_1435	2081215.2081529.-	2081529	2081215	-	KZN_605
26015.26983.-	26983	26015	-	KZN_1435	26014.26982.-	26982	26014	-	KZN_605
2522455.2522730.-	2522730	2522455	-	KZN_1435	2522337.2522612.-	2522612	2522337	-	KZN_605
4147457.4147840.-	4147840	4147457	-	KZN_1435	4148327.4148710.-	4148710	4148327	-	KZN_605
508017.508844.-	508844	508017	-	KZN_1435	508018.508845.-	508845	508018	-	KZN_605
1391584.1392555.-	1392555	1391584	-	KZN_1435	1391696.1392667.-	1392667	1391696	-	KZN_605
3245155.3246186.+	3245155	3246186	+	KZN_1435	3244910.3245941.+	3244910	3245941	+	KZN_605
3264939.3265406.-	3265406	3264939	-	KZN_1435	3264695.3265162.-	3265162	3264695	-	KZN_605
4058026.4058994.-	4058994	4058026	-	KZN_1435	4058896.4059864.-	4059864	4058896	-	KZN_605
65094.65519.+	65094	65519	+	KZN_1435	65092.65517.+	65092	65517	+	KZN_605
3777371.3780610.-	3780610	3777371	-	KZN_1435	3778484.3781723.-	3781723	3778484	-	KZN_605
4112325.4113365.+	4112325	4113365	+	KZN_1435	4113195.4114235.+	4113195	4114235	+	KZN_605
3035465.3036061.+	3035465	3036061	+	KZN_1435	3035237.3035833.+	3035237	3035833	+	KZN_605
2610353.2611585.-	2611585	2610353	-	KZN_1435	2610236.2611468.-	2611468	2610236	-	KZN_605
3578384.3578602.+	3578384	3578602	+	KZN_1435	3579497.3579715.+	3579497	3579715	+	KZN_605
2026882.2027148.+	2026882	2027148	+	KZN_1435	2027000.2027266.+	2027000	2027266	+	KZN_605
895662.897926.+	895662	897926	+	KZN_1435	895667.897931.+	895667	897931	+	KZN_605
3297261.3297581.+	3297261	3297581	+	KZN_1435	3297016.3297336.+	3297016	3297336	+	KZN_605
2878713.2879903.+	2878713	2879903	+	KZN_1435	2878484.2879674.+	2878484	2879674	+	KZN_605
3882885.3884066.+	3882885	3884066	+	KZN_1435	2878484.2879674.+	2878484	2879674	+	KZN_605
3071769.3072944.-	3072944	3071769	-	KZN_1435	2878484.2879674.+	2878484	2879674	+	KZN_605
3337558.3337899.-	3337899	3337558	-	KZN_1435	3337313.3337654.-	3337654	3337313	-	KZN_605
179258.180835.-	180835	179258	-	KZN_1435	179256.180833.-	180833	179256	-	KZN_605
994415.995065.+	994415	995065	+	KZN_1435	994420.995070.+	994420	995070	+	KZN_605
2099617.2100030.+	2099617	2100030	+	KZN_1435	2099494.2099907.+	2099494	2099907	+	KZN_605
1706946.1707665.-	1707665	1706946	-	KZN_1435	1707061.1707780.-	1707780	1707061	-	KZN_605
1174090.1175004.+	1174090	1175004	+	KZN_1435	1174090.1175004.+	1174090	1175004	+	KZN_605
569223.570065.-	570065	569223	-	KZN_1435	569224.570066.-	570066	569224	-	KZN_605
2825214.2825933.+	2825214	2825933	+	KZN_1435	2824984.2825703.+	2824984	2825703	+	KZN_605
1536837.1537238.+	1536837	1537238	+	KZN_1435	1536950.1537351.+	1536950	1537351	+	KZN_605
806798.807166.+	806798	807166	+	KZN_1435	806803.807171.+	806803	807171	+	KZN_605
2393584.2393703.-	2393703	2393584	-	KZN_1435	2393466.2393585.-	2393585	2393466	-	KZN_605
1651299.1652915.-	1652915	1651299	-	KZN_1435	1651414.1653030.-	1653030	1651414	-	KZN_605
1394559.1394816.+	1394559	1394816	+	KZN_1435	1394671.1394928.+	1394671	1394928	+	KZN_605
4196528.4197955.-	4197955	4196528	-	KZN_1435	4197397.4198824.-	4198824	4197397	-	KZN_605
1656960.1658936.+	1656960	1658936	+	KZN_1435	1657075.1659051.+	1657075	1659051	+	KZN_605
1031091.1032401.+	1031091	1032401	+	KZN_1435	3241051.3242361.-	3242361	3241051	-	KZN_605
1583948.1585258.+	1583948	1585258	+	KZN_1435	3241051.3242361.-	3242361	3241051	-	KZN_605
3069625.3070935.+	3069625	3070935	+	KZN_1435	3241051.3242361.-	3242361	3241051	-	KZN_605
3241296.3242606.-	3242606	3241296	-	KZN_1435	3241051.3242361.-	3242361	3241051	-	KZN_605
3482211.3483521.+	3482211	3483521	+	KZN_1435	3241051.3242361.-	3242361	3241051	-	KZN_605
53457.55802.+	53457	55802	+	KZN_1435	53456.55801.+	53456	55801	+	KZN_605
843231.843476.+	843231	843476	+	KZN_1435	843237.843482.+	843237	843482	+	KZN_605
833058.833303.+	833058	833303	+	KZN_1435	843237.843482.+	843237	843482	+	KZN_605
1393151.1393468.+	1393151	1393468	+	KZN_1435	1393263.1393580.+	1393263	1393580	+	KZN_605
677377.677955.-	677955	677377	-	KZN_1435	677436.678014.-	678014	677436	-	KZN_605
2744322.2745083.-	2745083	2744322	-	KZN_1435	2744205.2744966.-	2744966	2744205	-	KZN_605
1490633.1492264.-	1492264	1490633	-	KZN_1435	1490745.1492376.-	1492376	1490745	-	KZN_605
1963262.1964419.+	1963262	1964419	+	KZN_1435	1963381.1964538.+	1963381	1964538	+	KZN_605
1466704.1467381.-	1467381	1466704	-	KZN_1435	1466816.1467493.-	1467493	1466816	-	KZN_605
1531668.1532057.-	1532057	1531668	-	KZN_1435	1531781.1532170.-	1532170	1531781	-	KZN_605
1787893.1789419.+	1787893	1789419	+	KZN_1435	1788009.1789535.+	1788009	1789535	+	KZN_605
3143217.3144032.+	3143217	3144032	+	KZN_1435	3142987.3143802.+	3142987	3143802	+	KZN_605
2239834.2240613.+	2239834	2240613	+	KZN_1435	2239715.2240494.+	2239715	2240494	+	KZN_605
829947.830159.+	829947	830159	+	KZN_1435	829952.830164.+	829952	830164	+	KZN_605
2360195.2361691.+	2360195	2361691	+	KZN_1435	2360077.2361573.+	2360077	2361573	+	KZN_605
4280171.4286482.-	4286482	4280171	-	KZN_1435	4281040.4287351.-	4287351	4281040	-	KZN_605
3503768.3504082.-	3504082	3503768	-	KZN_1435	3504881.3505195.-	3505195	3504881	-	KZN_605
1071697.1073925.-	1073925	1071697	-	KZN_1435	1071701.1073929.-	1073929	1071701	-	KZN_605
2329227.2330666.+	2329227	2330666	+	KZN_1435	2329109.2330548.+	2329109	2330548	+	KZN_605
544995.545381.-	545381	544995	-	KZN_1435	544996.545382.-	545382	544996	-	KZN_605
800413.800634.+	800413	800634	+	KZN_1435	800472.800693.+	800472	800693	+	KZN_605
709851.710600.+	709851	710600	+	KZN_1435	709910.710659.+	709910	710659	+	KZN_605
2089209.2090144.-	2090144	2089209	-	KZN_1435	2089087.2090022.-	2090022	2089087	-	KZN_605
3983453.3985108.+	3983453	3985108	+	KZN_1435	3984212.3985867.+	3984212	3985867	+	KZN_605
4094175.4094384.+	4094175	4094384	+	KZN_1435	4095045.4095254.+	4095045	4095254	+	KZN_605
3092313.3097061.-	3097061	3092313	-	KZN_1435	3092083.3096831.-	3096831	3092083	-	KZN_605
3860901.3862313.-	3862313	3860901	-	KZN_1435	3862011.3863423.-	3863423	3862011	-	KZN_605
3701521.3701922.-	3701922	3701521	-	KZN_1435	3702634.3703035.-	3703035	3702634	-	KZN_605
1853478.1853993.-	1853993	1853478	-	KZN_1435	1853594.1854109.-	1854109	1853594	-	KZN_605
3092313.3098570.-	3098570	3092313	-	KZN_1435	3092083.3098340.-	3098340	3092083	-	KZN_605
2559205.2560365.+	2559205	2560365	+	KZN_1435	2559087.2560247.+	2559087	2560247	+	KZN_605
1629074.1629559.+	1629074	1629559	+	KZN_1435	1629189.1629674.+	1629189	1629674	+	KZN_605
515632.516207.-	516207	515632	-	KZN_1435	515633.516208.-	516208	515633	-	KZN_605
4355464.4357182.-	4357182	4355464	-	KZN_1435	4356333.4358051.-	4358051	4356333	-	KZN_605
2321283.2321909.-	2321909	2321283	-	KZN_1435	2321165.2321791.-	2321791	2321165	-	KZN_605
476042.476512.-	476512	476042	-	KZN_1435	476043.476513.-	476513	476043	-	KZN_605
932089.932925.-	932925	932089	-	KZN_1435	3480070.3480906.+	3480070	3480906	+	KZN_605
1292329.1293165.+	1292329	1293165	+	KZN_1435	3480070.3480906.+	3480070	3480906	+	KZN_605
1330496.1331332.-	1331332	1330496	-	KZN_1435	3480070.3480906.+	3480070	3480906	+	KZN_605
1605986.1606822.-	1606822	1605986	-	KZN_1435	3480070.3480906.+	3480070	3480906	+	KZN_605
1781593.1782429.+	1781593	1782429	+	KZN_1435	3480070.3480906.+	3480070	3480906	+	KZN_605
1861140.1861976.+	1861140	1861976	+	KZN_1435	3480070.3480906.+	3480070	3480906	+	KZN_605
2048612.2049448.+	2048612	2049448	+	KZN_1435	3480070.3480906.+	3480070	3480906	+	KZN_605
2050283.2051119.+	2050283	2051119	+	KZN_1435	3480070.3480906.+	3480070	3480906	+	KZN_605
2155671.2156507.-	2156507	2155671	-	KZN_1435	3480070.3480906.+	3480070	3480906	+	KZN_605
2375978.2376814.+	2375978	2376814	+	KZN_1435	3480070.3480906.+	3480070	3480906	+	KZN_605
2435226.2436062.+	2435226	2436062	+	KZN_1435	3480070.3480906.+	3480070	3480906	+	KZN_605
3480315.3481151.+	3480315	3481151	+	KZN_1435	3480070.3480906.+	3480070	3480906	+	KZN_605
3708737.3709573.-	3709573	3708737	-	KZN_1435	3480070.3480906.+	3480070	3480906	+	KZN_605
4063263.4064099.-	4064099	4063263	-	KZN_1435	3480070.3480906.+	3480070	3480906	+	KZN_605
1031106.1032401.+	1031106	1032401	+	KZN_1435	1584076.1585371.+	1584076	1585371	+	KZN_605
1583963.1585258.+	1583963	1585258	+	KZN_1435	1584076.1585371.+	1584076	1585371	+	KZN_605
3069640.3070935.+	3069640	3070935	+	KZN_1435	1584076.1585371.+	1584076	1585371	+	KZN_605
3241296.3242591.-	3242591	3241296	-	KZN_1435	1584076.1585371.+	1584076	1585371	+	KZN_605
3482226.3483521.+	3482226	3483521	+	KZN_1435	1584076.1585371.+	1584076	1585371	+	KZN_605
2719030.2719470.+	2719030	2719470	+	KZN_1435	2718913.2719353.+	2718913	2719353	+	KZN_605
3647489.3648229.+	3647489	3648229	+	KZN_1435	3648602.3649342.+	3648602	3649342	+	KZN_605
3960833.3962533.+	3960833	3962533	+	KZN_1435	3961592.3963292.+	3961592	3963292	+	KZN_605
1278344.1279231.+	1278344	1279231	+	KZN_1435	1278456.1279343.+	1278456	1279343	+	KZN_605
959433.960854.-	960854	959433	-	KZN_1435	959438.960859.-	960859	959438	-	KZN_605
714454.715518.+	714454	715518	+	KZN_1435	714513.715577.+	714513	715577	+	KZN_605
241917.243155.-	243155	241917	-	KZN_1435	241915.243153.-	243153	241915	-	KZN_605
965350.966372.+	965350	966372	+	KZN_1435	965355.966377.+	965355	966377	+	KZN_605
534704.534892.-	534892	534704	-	KZN_1435	534705.534893.-	534893	534705	-	KZN_605
1228973.1229164.-	1229164	1228973	-	KZN_1435	1229085.1229276.-	1229276	1229085	-	KZN_605
3710047.3710250.-	3710250	3710047	-	KZN_1435	3711160.3711363.-	3711363	3711160	-	KZN_605
2836173.2836958.-	2836958	2836173	-	KZN_1435	2835943.2836728.-	2836728	2835943	-	KZN_605
1018904.1019758.+	1018904	1019758	+	KZN_1435	1018909.1019763.+	1018909	1019763	+	KZN_605
3750154.3750894.-	3750894	3750154	-	KZN_1435	3751267.3752007.-	3752007	3751267	-	KZN_605
1393181.1393468.+	1393181	1393468	+	KZN_1435	1393293.1393580.+	1393293	1393580	+	KZN_605
456525.457076.-	457076	456525	-	KZN_1435	456526.457077.-	457077	456526	-	KZN_605
386518.387372.+	386518	387372	+	KZN_1435	386518.387372.+	386518	387372	+	KZN_605
530555.530941.-	530941	530555	-	KZN_1435	530556.530942.-	530942	530556	-	KZN_605
3589753.3590364.+	3589753	3590364	+	KZN_1435	3590866.3591477.+	3590866	3591477	+	KZN_605
536763.537428.-	537428	536763	-	KZN_1435	536764.537429.-	537429	536764	-	KZN_605
2128033.2128830.+	2128033	2128830	+	KZN_1435	2127913.2128710.+	2127913	2128710	+	KZN_605
1958139.1958897.-	1958897	1958139	-	KZN_1435	1958258.1959016.-	1959016	1958258	-	KZN_605
3873775.3874734.+	3873775	3874734	+	KZN_1435	3874885.3875844.+	3874885	3875844	+	KZN_605
103841.104800.-	104800	103841	-	KZN_1435	3874885.3875844.+	3874885	3875844	+	KZN_605
2633309.2634271.+	2633309	2634271	+	KZN_1435	3874885.3875844.+	3874885	3875844	+	KZN_605
760592.764110.+	760592	764110	+	KZN_1435	760651.764169.+	760651	764169	+	KZN_605
1403249.1403617.+	1403249	1403617	+	KZN_1435	1403361.1403729.+	1403361	1403729	+	KZN_605
3242738.3243331.+	3242738	3243331	+	KZN_1435	3242493.3243086.+	3242493	3243086	+	KZN_605
3884279.3887344.+	3884279	3887344	+	KZN_1435	3885389.3888454.+	3885389	3888454	+	KZN_605
2424222.2424497.-	2424497	2424222	-	KZN_1435	2424103.2424378.-	2424378	2424103	-	KZN_605
3621279.3623030.-	3623030	3621279	-	KZN_1435	3622392.3624143.-	3624143	3622392	-	KZN_605
41407.42015.+	41407	42015	+	KZN_1435	41406.42014.+	41406	42014	+	KZN_605
552285.552809.+	552285	552809	+	KZN_1435	552286.552810.+	552286	552810	+	KZN_605
1031091.1032401.+	1031091	1032401	+	KZN_1435	3069397.3070707.+	3069397	3070707	+	KZN_605
1583948.1585258.+	1583948	1585258	+	KZN_1435	3069397.3070707.+	3069397	3070707	+	KZN_605
3069625.3070935.+	3069625	3070935	+	KZN_1435	3069397.3070707.+	3069397	3070707	+	KZN_605
3241296.3242606.-	3242606	3241296	-	KZN_1435	3069397.3070707.+	3069397	3070707	+	KZN_605
3482211.3483521.+	3482211	3483521	+	KZN_1435	3069397.3070707.+	3069397	3070707	+	KZN_605
1846539.1847606.-	1847606	1846539	-	KZN_1435	1846655.1847722.-	1847722	1846655	-	KZN_605
3025614.3027302.+	3025614	3027302	+	KZN_1435	3025386.3027074.+	3025386	3027074	+	KZN_605
1786272.1787810.+	1786272	1787810	+	KZN_1435	1786388.1787926.+	1786388	1787926	+	KZN_605
2621813.2623129.-	2623129	2621813	-	KZN_1435	2621696.2623012.-	2623012	2621696	-	KZN_605
2551358.2551870.-	2551870	2551358	-	KZN_1435	2551240.2551752.-	2551752	2551240	-	KZN_605
1976470.1976652.+	1976470	1976652	+	KZN_1435	1976589.1976771.+	1976589	1976771	+	KZN_605
3436042.3437688.+	3436042	3437688	+	KZN_1435	3435796.3437442.+	3435796	3437442	+	KZN_605
3662913.3663878.+	3662913	3663878	+	KZN_1435	3664026.3664991.+	3664026	3664991	+	KZN_605
2926576.2927034.+	2926576	2927034	+	KZN_1435	2926347.2926805.+	2926347	2926805	+	KZN_605
3539328.3540674.+	3539328	3540674	+	KZN_1435	3540441.3541787.+	3540441	3541787	+	KZN_605
3433844.3435121.+	3433844	3435121	+	KZN_1435	3433598.3434875.+	3433598	3434875	+	KZN_605
237833.238336.-	238336	237833	-	KZN_1435	237831.238334.-	238334	237831	-	KZN_605
3864639.3865907.+	3864639	3865907	+	KZN_1435	3865749.3867017.+	3865749	3867017	+	KZN_605
3751813.3762837.-	3762837	3751813	-	KZN_1435	3752926.3763950.-	3763950	3752926	-	KZN_605
4050210.4051262.-	4051262	4050210	-	KZN_1435	4051080.4052132.-	4052132	4051080	-	KZN_605
33684.33896.+	33684	33896	+	KZN_1435	33683.33895.+	33683	33895	+	KZN_605
698156.698662.-	698662	698156	-	KZN_1435	698215.698721.-	698721	698215	-	KZN_605
1719819.1720904.-	1720904	1719819	-	KZN_1435	1719934.1721019.-	1721019	1719934	-	KZN_605
2420358.2421602.-	2421602	2420358	-	KZN_1435	2420239.2421483.-	2421483	2420239	-	KZN_605
3646005.3647501.+	3646005	3647501	+	KZN_1435	3647118.3648614.+	3647118	3648614	+	KZN_605
1211808.1213034.+	1211808	1213034	+	KZN_1435	1211920.1213146.+	1211920	1213146	+	KZN_605
3380112.3381356.+	3380112	3381356	+	KZN_1435	3379867.3381153.+	3379867	3381153	+	KZN_605
710836.711102.-	711102	710836	-	KZN_1435	710895.711161.-	711161	710895	-	KZN_605
3214241.3214747.-	3214747	3214241	-	KZN_1435	3213996.3214502.-	3214502	3213996	-	KZN_605
2986377.2986853.+	2986377	2986853	+	KZN_1435	2986148.2986624.+	2986148	2986624	+	KZN_605
4338012.4339127.+	4338012	4339127	+	KZN_1435	4338881.4339996.+	4338881	4339996	+	KZN_605
186434.186559.-	186559	186434	-	KZN_1435	186432.186557.-	186557	186432	-	KZN_605
2214575.2215384.-	2215384	2214575	-	KZN_1435	2214456.2215265.-	2215265	2214456	-	KZN_605
3395292.3395765.-	3395765	3395292	-	KZN_1435	3395046.3395519.-	3395519	3395046	-	KZN_605
1503608.1505989.+	1503608	1505989	+	KZN_1435	1503720.1506101.+	1503720	1506101	+	KZN_605
3416638.3416916.-	3416916	3416638	-	KZN_1435	3416392.3416670.-	3416670	3416392	-	KZN_605
3528214.3530145.-	3530145	3528214	-	KZN_1435	3529327.3531258.-	3531258	3529327	-	KZN_605
2007550.2008335.+	2007550	2008335	+	KZN_1435	2007668.2008453.+	2007668	2008453	+	KZN_605
2492981.2493571.+	2492981	2493571	+	KZN_1435	2492863.2493453.+	2492863	2493453	+	KZN_605
3443683.3444090.-	3444090	3443683	-	KZN_1435	3443437.3443844.-	3443844	3443437	-	KZN_605
627554.628549.+	627554	628549	+	KZN_1435	627613.628608.+	627613	628608	+	KZN_605
1763455.1763757.+	1763455	1763757	+	KZN_1435	1763571.1763873.+	1763571	1763873	+	KZN_605
1311471.1312076.+	1311471	1312076	+	KZN_1435	1311583.1312188.+	1311583	1312188	+	KZN_605
2519403.2520311.-	2520311	2519403	-	KZN_1435	2519285.2520193.-	2520193	2519285	-	KZN_605
2013389.2014741.+	2013389	2014741	+	KZN_1435	2013507.2014859.+	2013507	2014859	+	KZN_605
21739.23274.-	23274	21739	-	KZN_1435	21738.23273.-	23273	21738	-	KZN_605
1341401.1341886.+	1341401	1341886	+	KZN_1435	1341513.1341998.+	1341513	1341998	+	KZN_605
1946128.1947204.+	1946128	1947204	+	KZN_1435	1946247.1947323.+	1946247	1947323	+	KZN_605
4115637.4115975.-	4115975	4115637	-	KZN_1435	4116507.4116845.-	4116845	4116507	-	KZN_605
879839.880525.+	879839	880525	+	KZN_1435	879844.880530.+	879844	880530	+	KZN_605
200913.202418.+	200913	202418	+	KZN_1435	200911.202416.+	200911	202416	+	KZN_605
172141.173082.+	172141	173082	+	KZN_1435	172139.173080.+	172139	173080	+	KZN_605
3512505.3512891.+	3512505	3512891	+	KZN_1435	3513618.3514004.+	3513618	3514004	+	KZN_605
2027145.2027915.+	2027145	2027915	+	KZN_1435	2027263.2028033.+	2027263	2028033	+	KZN_605
2709370.2710416.-	2710416	2709370	-	KZN_1435	2709253.2710299.-	2710299	2709253	-	KZN_605
4090390.4091253.-	4091253	4090390	-	KZN_1435	4091260.4092123.-	4092123	4091260	-	KZN_605
3135375.3135935.+	3135375	3135935	+	KZN_1435	3135145.3135705.+	3135145	3135705	+	KZN_605
1368492.1370030.+	1368492	1370030	+	KZN_1435	1368604.1370142.+	1368604	1370142	+	KZN_605
1050093.1050431.-	1050431	1050093	-	KZN_1435	1050097.1050435.-	1050435	1050097	-	KZN_605
462392.463564.+	462392	463564	+	KZN_1435	462393.463565.+	462393	463565	+	KZN_605
2325281.2325601.-	2325601	2325281	-	KZN_1435	2325163.2325483.-	2325483	2325163	-	KZN_605
4022068.4022766.-	4022766	4022068	-	KZN_1435	4022827.4023525.-	4023525	4022827	-	KZN_605
3138901.3139812.-	3139812	3138901	-	KZN_1435	3138671.3139582.-	3139582	3138671	-	KZN_605
738549.739502.-	739502	738549	-	KZN_1435	738608.739561.-	739561	738608	-	KZN_605
3179351.3179866.-	3179866	3179351	-	KZN_1435	3179122.3179637.-	3179637	3179122	-	KZN_605
3316908.3317081.-	3317081	3316908	-	KZN_1435	3316663.3316836.-	3316836	3316663	-	KZN_605
3291971.3293539.+	3291971	3293539	+	KZN_1435	3291726.3293294.+	3291726	3293294	+	KZN_605
257724.258797.-	258797	257724	-	KZN_1435	257723.258796.-	258796	257723	-	KZN_605
3843033.3843521.-	3843521	3843033	-	KZN_1435	3844143.3844631.-	3844631	3844143	-	KZN_605
3133934.3134341.-	3134341	3133934	-	KZN_1435	3133704.3134111.-	3134111	3133704	-	KZN_605
3246469.3246876.+	3246469	3246876	+	KZN_1435	3133704.3134111.-	3134111	3133704	-	KZN_605
1074017.1074688.-	1074688	1074017	-	KZN_1435	1074021.1074692.-	1074692	1074021	-	KZN_605
456525.457187.-	457187	456525	-	KZN_1435	456526.457188.-	457188	456526	-	KZN_605
2574254.2574529.+	2574254	2574529	+	KZN_1435	2574136.2574411.+	2574136	2574411	+	KZN_605
330362.330943.+	330362	330943	+	KZN_1435	330361.330942.+	330361	330942	+	KZN_605
1020576.1020965.-	1020965	1020576	-	KZN_1435	1020581.1020970.-	1020970	1020581	-	KZN_605
1031091.1032401.+	1031091	1032401	+	KZN_1435	1031097.1032407.+	1031097	1032407	+	KZN_605
1583948.1585258.+	1583948	1585258	+	KZN_1435	1031097.1032407.+	1031097	1032407	+	KZN_605
3069625.3070935.+	3069625	3070935	+	KZN_1435	1031097.1032407.+	1031097	1032407	+	KZN_605
3241296.3242606.-	3242606	3241296	-	KZN_1435	1031097.1032407.+	1031097	1032407	+	KZN_605
3482211.3483521.+	3482211	3483521	+	KZN_1435	1031097.1032407.+	1031097	1032407	+	KZN_605
1730561.1731688.+	1730561	1731688	+	KZN_1435	1730676.1731803.+	1730676	1731803	+	KZN_605
3134487.3135935.+	3134487	3135935	+	KZN_1435	3134257.3135705.+	3134257	3135705	+	KZN_605
2225720.2227168.-	2227168	2225720	-	KZN_1435	3134257.3135705.+	3134257	3135705	+	KZN_605
2844117.2845595.+	2844117	2845595	+	KZN_1435	2843887.2845365.+	2843887	2845365	+	KZN_605
230838.231473.+	230838	231473	+	KZN_1435	230836.231471.+	230836	231471	+	KZN_605
1300563.1301192.+	1300563	1301192	+	KZN_1435	1300675.1301304.+	1300675	1301304	+	KZN_605
4150660.4151943.+	4150660	4151943	+	KZN_1435	4151530.4152813.+	4151530	4152813	+	KZN_605
2137731.2138216.+	2137731	2138216	+	KZN_1435	2137611.2138096.+	2137611	2138096	+	KZN_605
1249712.1251559.-	1251559	1249712	-	KZN_1435	1249824.1251671.-	1251671	1249824	-	KZN_605
2394750.2395802.-	2395802	2394750	-	KZN_1435	2394632.2395684.-	2395684	2394632	-	KZN_605
1217612.1218283.+	1217612	1218283	+	KZN_1435	1217724.1218395.+	1217724	1218395	+	KZN_605
3046485.3047066.-	3047066	3046485	-	KZN_1435	3046256.3046837.-	3046837	3046256	-	KZN_605
3919530.3923975.+	3919530	3923975	+	KZN_1435	3920640.3925085.+	3920640	3925085	+	KZN_605
932089.932925.-	932925	932089	-	KZN_1435	3709850.3710686.-	3710686	3709850	-	KZN_605
1292329.1293165.+	1292329	1293165	+	KZN_1435	3709850.3710686.-	3710686	3709850	-	KZN_605
1330496.1331332.-	1331332	1330496	-	KZN_1435	3709850.3710686.-	3710686	3709850	-	KZN_605
1605986.1606822.-	1606822	1605986	-	KZN_1435	3709850.3710686.-	3710686	3709850	-	KZN_605
1781593.1782429.+	1781593	1782429	+	KZN_1435	3709850.3710686.-	3710686	3709850	-	KZN_605
1861140.1861976.+	1861140	1861976	+	KZN_1435	3709850.3710686.-	3710686	3709850	-	KZN_605
2048612.2049448.+	2048612	2049448	+	KZN_1435	3709850.3710686.-	3710686	3709850	-	KZN_605
2050283.2051119.+	2050283	2051119	+	KZN_1435	3709850.3710686.-	3710686	3709850	-	KZN_605
2155671.2156507.-	2156507	2155671	-	KZN_1435	3709850.3710686.-	3710686	3709850	-	KZN_605
2375978.2376814.+	2375978	2376814	+	KZN_1435	3709850.3710686.-	3710686	3709850	-	KZN_605
2435226.2436062.+	2435226	2436062	+	KZN_1435	3709850.3710686.-	3710686	3709850	-	KZN_605
3480315.3481151.+	3480315	3481151	+	KZN_1435	3709850.3710686.-	3710686	3709850	-	KZN_605
3708737.3709573.-	3709573	3708737	-	KZN_1435	3709850.3710686.-	3710686	3709850	-	KZN_605
4063263.4064099.-	4064099	4063263	-	KZN_1435	3709850.3710686.-	3710686	3709850	-	KZN_605
739579.740469.-	740469	739579	-	KZN_1435	739638.740528.-	740528	739638	-	KZN_605
2078522.2078920.-	2078920	2078522	-	KZN_1435	2078400.2078798.-	2078798	2078400	-	KZN_605
1170324.1170635.-	1170635	1170324	-	KZN_1435	1170324.1170635.-	1170635	1170324	-	KZN_605
3380611.3381399.+	3380611	3381399	+	KZN_1435	3380365.3381153.+	3380365	3381153	+	KZN_605
447689.448117.+	447689	448117	+	KZN_1435	447690.448118.+	447690	448118	+	KZN_605
709608.710600.+	709608	710600	+	KZN_1435	709667.710659.+	709667	710659	+	KZN_605
4289732.4290343.-	4290343	4289732	-	KZN_1435	4290601.4291212.-	4291212	4290601	-	KZN_605
3027753.3028013.-	3028013	3027753	-	KZN_1435	3027525.3027785.-	3027785	3027525	-	KZN_605
3007700.3008905.+	3007700	3008905	+	KZN_1435	3007472.3008677.+	3007472	3008677	+	KZN_605
510636.510911.-	510911	510636	-	KZN_1435	510637.510912.-	510912	510637	-	KZN_605
1425905.1427482.-	1427482	1425905	-	KZN_1435	1426017.1427594.-	1427594	1426017	-	KZN_605
865339.865773.+	865339	865773	+	KZN_1435	865344.865778.+	865344	865778	+	KZN_605
2773873.2775138.-	2775138	2773873	-	KZN_1435	2773756.2775021.-	2775021	2773756	-	KZN_605
1300386.1300790.-	1300790	1300386	-	KZN_1435	1300498.1300902.-	1300902	1300498	-	KZN_605
806756.807166.+	806756	807166	+	KZN_1435	806761.807171.+	806761	807171	+	KZN_605
602027.602965.+	602027	602965	+	KZN_1435	602084.603022.+	602084	603022	+	KZN_605
4039240.4039401.-	4039401	4039240	-	KZN_1435	4040110.4040271.-	4040271	4040110	-	KZN_605
3530813.3531970.-	3531970	3530813	-	KZN_1435	3531926.3533083.-	3533083	3531926	-	KZN_605
1382518.1383228.-	1383228	1382518	-	KZN_1435	1382630.1383340.-	1383340	1382630	-	KZN_605
2871701.2872834.+	2871701	2872834	+	KZN_1435	2871472.2872605.+	2871472	2872605	+	KZN_605
3687580.3688995.-	3688995	3687580	-	KZN_1435	3688693.3690108.-	3690108	3688693	-	KZN_605
87929.88135.-	88135	87929	-	KZN_1435	87927.88133.-	88133	87927	-	KZN_605
4083651.4084814.-	4084814	4083651	-	KZN_1435	4084521.4085684.-	4085684	4084521	-	KZN_605
875432.877591.+	875432	877591	+	KZN_1435	875437.877596.+	875437	877596	+	KZN_605
738549.739460.-	739460	738549	-	KZN_1435	738608.739519.-	739519	738608	-	KZN_605
932089.932925.-	932925	932089	-	KZN_1435	1861256.1862092.+	1861256	1862092	+	KZN_605
1292329.1293165.+	1292329	1293165	+	KZN_1435	1861256.1862092.+	1861256	1862092	+	KZN_605
1330496.1331332.-	1331332	1330496	-	KZN_1435	1861256.1862092.+	1861256	1862092	+	KZN_605
1605986.1606822.-	1606822	1605986	-	KZN_1435	1861256.1862092.+	1861256	1862092	+	KZN_605
1781593.1782429.+	1781593	1782429	+	KZN_1435	1861256.1862092.+	1861256	1862092	+	KZN_605
1861140.1861976.+	1861140	1861976	+	KZN_1435	1861256.1862092.+	1861256	1862092	+	KZN_605
2048612.2049448.+	2048612	2049448	+	KZN_1435	1861256.1862092.+	1861256	1862092	+	KZN_605
2050283.2051119.+	2050283	2051119	+	KZN_1435	1861256.1862092.+	1861256	1862092	+	KZN_605
2155671.2156507.-	2156507	2155671	-	KZN_1435	1861256.1862092.+	1861256	1862092	+	KZN_605
2375978.2376814.+	2375978	2376814	+	KZN_1435	1861256.1862092.+	1861256	1862092	+	KZN_605
2435226.2436062.+	2435226	2436062	+	KZN_1435	1861256.1862092.+	1861256	1862092	+	KZN_605
3480315.3481151.+	3480315	3481151	+	KZN_1435	1861256.1862092.+	1861256	1862092	+	KZN_605
3708737.3709573.-	3709573	3708737	-	KZN_1435	1861256.1862092.+	1861256	1862092	+	KZN_605
4063263.4064099.-	4064099	4063263	-	KZN_1435	1861256.1862092.+	1861256	1862092	+	KZN_605
4270942.4271277.+	4270942	4271277	+	KZN_1435	4271811.4272146.+	4271811	4272146	+	KZN_605
1835115.1835384.-	1835384	1835115	-	KZN_1435	1835231.1835500.-	1835500	1835231	-	KZN_605
1866554.1867468.+	1866554	1867468	+	KZN_1435	1866670.1867584.+	1866670	1867584	+	KZN_605
2220977.2221330.-	2221330	2220977	-	KZN_1435	2220858.2221211.-	2221211	2220858	-	KZN_605
1838891.1839484.-	1839484	1838891	-	KZN_1435	1839007.1839600.-	1839600	1839007	-	KZN_605
1230768.1232057.+	1230768	1232057	+	KZN_1435	1230880.1232169.+	1230880	1232169	+	KZN_605
1140394.1141410.-	1141410	1140394	-	KZN_1435	1140396.1141412.-	1141412	1140396	-	KZN_605
3251550.3251873.+	3251550	3251873	+	KZN_1435	3251305.3251628.+	3251305	3251628	+	KZN_605
4251509.4252408.-	4252408	4251509	-	KZN_1435	4252378.4253277.-	4253277	4252378	-	KZN_605
427081.427638.-	427638	427081	-	KZN_1435	427082.427639.-	427639	427082	-	KZN_605
3210310.3211203.-	3211203	3210310	-	KZN_1435	3210064.3210957.-	3210957	3210064	-	KZN_605
1077099.1077644.-	1077644	1077099	-	KZN_1435	1077101.1077646.-	1077646	1077101	-	KZN_605
1123097.1123636.-	1123636	1123097	-	KZN_1435	1123099.1123638.-	1123638	1123099	-	KZN_605
4030677.4031588.-	4031588	4030677	-	KZN_1435	4031436.4032347.-	4032347	4031436	-	KZN_605
149663.150769.+	149663	150769	+	KZN_1435	149661.150767.+	149661	150767	+	KZN_605
307817.309379.-	309379	307817	-	KZN_1435	307816.309378.-	309378	307816	-	KZN_605
1806863.1807651.-	1807651	1806863	-	KZN_1435	1806979.1807767.-	1807767	1806979	-	KZN_605
3790960.3791949.-	3791949	3790960	-	KZN_1435	3792073.3793062.-	3793062	3792073	-	KZN_605
1279234.1280118.+	1279234	1280118	+	KZN_1435	1279346.1280230.+	1279346	1280230	+	KZN_605
3843757.3844611.-	3844611	3843757	-	KZN_1435	3844867.3845721.-	3845721	3844867	-	KZN_605
2659887.2662169.+	2659887	2662169	+	KZN_1435	2659770.2662052.+	2659770	2662052	+	KZN_605
274247.274927.-	274927	274247	-	KZN_1435	274246.274926.-	274926	274246	-	KZN_605
2127115.2127432.+	2127115	2127432	+	KZN_1435	2126994.2127311.+	2126994	2127311	+	KZN_605
2847007.2848263.-	2848263	2847007	-	KZN_1435	2846777.2848033.-	2848033	2846777	-	KZN_605
2611654.2612472.-	2612472	2611654	-	KZN_1435	2611537.2612355.-	2612355	2611537	-	KZN_605
2528482.2529135.+	2528482	2529135	+	KZN_1435	2528364.2529017.+	2528364	2529017	+	KZN_605
3214241.3214738.-	3214738	3214241	-	KZN_1435	3213996.3214493.-	3214493	3213996	-	KZN_605
547845.549875.-	549875	547845	-	KZN_1435	547846.549876.-	549876	547846	-	KZN_605
704082.704309.+	704082	704309	+	KZN_1435	704141.704368.+	704141	704368	+	KZN_605
3838842.3839006.-	3839006	3838842	-	KZN_1435	3839952.3840116.-	3840116	3839952	-	KZN_605
1373555.1374250.+	1373555	1374250	+	KZN_1435	1373667.1374362.+	1373667	1374362	+	KZN_605
2695758.2699294.+	2695758	2699294	+	KZN_1435	2695641.2699177.+	2695641	2699177	+	KZN_605
750019.750786.-	750786	750019	-	KZN_1435	750078.750845.-	750845	750078	-	KZN_605
103841.104704.-	104704	103841	-	KZN_1435	103839.104702.-	104702	103839	-	KZN_605
3873871.3874734.+	3873871	3874734	+	KZN_1435	103839.104702.-	104702	103839	-	KZN_605
2633405.2634271.+	2633405	2634271	+	KZN_1435	103839.104702.-	104702	103839	-	KZN_605
998437.998841.+	998437	998841	+	KZN_1435	998442.998846.+	998442	998846	+	KZN_605
2159071.2159646.-	2159646	2159071	-	KZN_1435	2158951.2159526.-	2159526	2158951	-	KZN_605
1089128.1089895.+	1089128	1089895	+	KZN_1435	1089130.1089897.+	1089130	1089897	+	KZN_605
3833330.3833812.-	3833812	3833330	-	KZN_1435	3834440.3834922.-	3834922	3834440	-	KZN_605
2040658.2041281.-	2041281	2040658	-	KZN_1435	2040776.2041399.-	2041399	2040776	-	KZN_605
542401.543111.+	542401	543111	+	KZN_1435	542402.543112.+	542402	543112	+	KZN_605
3141091.3142173.-	3142173	3141091	-	KZN_1435	3140861.3141943.-	3141943	3140861	-	KZN_605
17569.18846.-	18846	17569	-	KZN_1435	17568.18845.-	18845	17568	-	KZN_605
700515.701441.+	700515	701441	+	KZN_1435	700574.701500.+	700574	701500	+	KZN_605
1062660.1063505.+	1062660	1063505	+	KZN_1435	1062664.1063509.+	1062664	1063509	+	KZN_605
729579.730439.-	730439	729579	-	KZN_1435	729638.730498.-	730498	729638	-	KZN_605
1298354.1298623.-	1298623	1298354	-	KZN_1435	1298466.1298735.-	1298735	1298466	-	KZN_605
4081376.4081684.-	4081684	4081376	-	KZN_1435	4082246.4082554.-	4082554	4082246	-	KZN_605
3567216.3569405.-	3569405	3567216	-	KZN_1435	3568329.3570518.-	3570518	3568329	-	KZN_605
702981.703451.+	702981	703451	+	KZN_1435	703040.703510.+	703040	703510	+	KZN_605
1438171.1438587.+	1438171	1438587	+	KZN_1435	1438283.1438699.+	1438283	1438699	+	KZN_605
417930.418346.+	417930	418346	+	KZN_1435	417931.418347.+	417931	418347	+	KZN_605
3555418.3556452.-	3556452	3555418	-	KZN_1435	3556531.3557565.-	3557565	3556531	-	KZN_605
1707924.1708196.+	1707924	1708196	+	KZN_1435	1708039.1708311.+	1708039	1708311	+	KZN_605
4295984.4297342.+	4295984	4297342	+	KZN_1435	4296853.4298211.+	4296853	4298211	+	KZN_605
3273059.3273667.-	3273667	3273059	-	KZN_1435	3272814.3273422.-	3273422	3272814	-	KZN_605
2736541.2737449.+	2736541	2737449	+	KZN_1435	2736424.2737332.+	2736424	2737332	+	KZN_605
2724236.2725525.-	2725525	2724236	-	KZN_1435	2724119.2725408.-	2725408	2724119	-	KZN_605
1796575.1797009.-	1797009	1796575	-	KZN_1435	1796691.1797125.-	1797125	1796691	-	KZN_605
3046485.3046949.-	3046949	3046485	-	KZN_1435	3046256.3046720.-	3046720	3046256	-	KZN_605
1640115.1640519.-	1640519	1640115	-	KZN_1435	1640230.1640634.-	1640634	1640230	-	KZN_605
1906335.1907102.-	1907102	1906335	-	KZN_1435	1906453.1907220.-	1907220	1906453	-	KZN_605
878019.879656.-	879656	878019	-	KZN_1435	878024.879661.-	879661	878024	-	KZN_605
860061.860351.-	860351	860061	-	KZN_1435	860067.860357.-	860357	860067	-	KZN_605
2276567.2277691.+	2276567	2277691	+	KZN_1435	2276448.2277572.+	2276448	2277572	+	KZN_605
2221329.2221850.+	2221329	2221850	+	KZN_1435	2221210.2221731.+	2221210	2221731	+	KZN_605
2633405.2634271.+	2633405	2634271	+	KZN_1435	2633288.2634154.+	2633288	2634154	+	KZN_605
103841.104704.-	104704	103841	-	KZN_1435	2633288.2634154.+	2633288	2634154	+	KZN_605
3873871.3874734.+	3873871	3874734	+	KZN_1435	2633288.2634154.+	2633288	2634154	+	KZN_605
1746588.1751636.+	1746588	1751636	+	KZN_1435	1746703.1751751.+	1746703	1751751	+	KZN_605
474009.474365.+	474009	474365	+	KZN_1435	474010.474366.+	474010	474366	+	KZN_605
476075.476443.+	476075	476443	+	KZN_1435	474010.474366.+	474010	474366	+	KZN_605
2725578.2726582.-	2726582	2725578	-	KZN_1435	2725461.2726465.-	2726465	2725461	-	KZN_605
2095243.2095653.-	2095653	2095243	-	KZN_1435	2095121.2095531.-	2095531	2095121	-	KZN_605
545634.546080.-	546080	545634	-	KZN_1435	545635.546081.-	546081	545635	-	KZN_605
2365446.2366348.-	2366348	2365446	-	KZN_1435	2365328.2366230.-	2366230	2365328	-	KZN_605
4324893.4325219.+	4324893	4325219	+	KZN_1435	4325762.4326088.+	4325762	4326088	+	KZN_605
2307454.2309868.-	2309868	2307454	-	KZN_1435	2307336.2309750.-	2309750	2307336	-	KZN_605
1054241.1054459.+	1054241	1054459	+	KZN_1435	1054245.1054463.+	1054245	1054463	+	KZN_605
4055885.4056598.+	4055885	4056598	+	KZN_1435	4056755.4057468.+	4056755	4057468	+	KZN_605
3774429.3776204.+	3774429	3776204	+	KZN_1435	3775542.3777317.+	3775542	3777317	+	KZN_605
336439.336861.-	336861	336439	-	KZN_1435	336438.336860.-	336860	336438	-	KZN_605
3806147.3806857.+	3806147	3806857	+	KZN_1435	3807257.3807967.+	3807257	3807967	+	KZN_605
3335720.3336682.+	3335720	3336682	+	KZN_1435	3335475.3336437.+	3335475	3336437	+	KZN_605
4081716.4082258.-	4082258	4081716	-	KZN_1435	4082586.4083128.-	4083128	4082586	-	KZN_605
545634.546161.-	546161	545634	-	KZN_1435	545635.546162.-	546162	545635	-	KZN_605
860311.861270.-	861270	860311	-	KZN_1435	860317.861276.-	861276	860317	-	KZN_605
437693.438322.-	438322	437693	-	KZN_1435	437694.438323.-	438323	437694	-	KZN_605
2504770.2504946.-	2504946	2504770	-	KZN_1435	2504652.2504828.-	2504828	2504652	-	KZN_605
1985906.1986940.+	1985906	1986940	+	KZN_1435	1986024.1987058.+	1986024	1987058	+	KZN_605
1907198.1908157.+	1907198	1908157	+	KZN_1435	1907316.1908275.+	1907316	1908275	+	KZN_605
1238832.1239026.-	1239026	1238832	-	KZN_1435	1238944.1239138.-	1239138	1238944	-	KZN_605
3597021.3597671.-	3597671	3597021	-	KZN_1435	3598134.3598784.-	3598784	3598134	-	KZN_605
4342049.4343488.+	4342049	4343488	+	KZN_1435	4342918.4344357.+	4342918	4344357	+	KZN_605
1087500.1087670.-	1087670	1087500	-	KZN_1435	1087502.1087672.-	1087672	1087502	-	KZN_605
1205500.1205886.+	1205500	1205886	+	KZN_1435	1205612.1205998.+	1205612	1205998	+	KZN_605
52913.53347.+	52913	53347	+	KZN_1435	52912.53346.+	52912	53346	+	KZN_605
131027.131236.-	131236	131027	-	KZN_1435	131025.131234.-	131234	131025	-	KZN_605
4121612.4122934.+	4121612	4122934	+	KZN_1435	4122482.4123804.+	4122482	4123804	+	KZN_605
3019290.3022934.+	3019290	3022934	+	KZN_1435	3019062.3022706.+	3019062	3022706	+	KZN_605
1841367.1841576.+	1841367	1841576	+	KZN_1435	1841483.1841692.+	1841483	1841692	+	KZN_605
2466976.2467167.+	2466976	2467167	+	KZN_1435	2466857.2467048.+	2466857	2467048	+	KZN_605
4198026.4198730.-	4198730	4198026	-	KZN_1435	4198895.4199599.-	4199599	4198895	-	KZN_605
352850.354343.+	352850	354343	+	KZN_1435	352849.354342.+	352849	354342	+	KZN_605
204004.205176.+	204004	205176	+	KZN_1435	204002.205174.+	204002	205174	+	KZN_605
1453714.1453968.+	1453714	1453968	+	KZN_1435	1453826.1454080.+	1453826	1454080	+	KZN_605
2456705.2456989.-	2456989	2456705	-	KZN_1435	2456586.2456870.-	2456870	2456586	-	KZN_605
4222257.4222685.+	4222257	4222685	+	KZN_1435	4223126.4223554.+	4223126	4223554	+	KZN_605
521770.522426.+	521770	522426	+	KZN_1435	521771.522427.+	521771	522427	+	KZN_605
2653287.2654027.-	2654027	2653287	-	KZN_1435	2653170.2653910.-	2653910	2653170	-	KZN_605
1380133.1380381.-	1380381	1380133	-	KZN_1435	1380245.1380493.-	1380493	1380245	-	KZN_605
1981997.1982902.+	1981997	1982902	+	KZN_1435	1982115.1983020.+	1982115	1983020	+	KZN_605
1901347.1904139.-	1904139	1901347	-	KZN_1435	1901465.1904257.-	1904257	1901465	-	KZN_605
4115637.4115969.-	4115969	4115637	-	KZN_1435	4116507.4116839.-	4116839	4116507	-	KZN_605
4192484.4192786.+	4192484	4192786	+	KZN_1435	4193353.4193655.+	4193353	4193655	+	KZN_605
3803954.3805537.-	3805537	3803954	-	KZN_1435	3805064.3806647.-	3806647	3805064	-	KZN_605
3556905.3557087.-	3557087	3556905	-	KZN_1435	3558018.3558200.-	3558200	3558018	-	KZN_605
3637545.3637964.+	3637545	3637964	+	KZN_1435	3638658.3639077.+	3638658	3639077	+	KZN_605
534950.535486.-	535486	534950	-	KZN_1435	534951.535487.-	535487	534951	-	KZN_605
2190401.2190673.-	2190673	2190401	-	KZN_1435	2190281.2190553.-	2190553	2190281	-	KZN_605
2534692.2536224.-	2536224	2534692	-	KZN_1435	2534574.2536106.-	2536106	2534574	-	KZN_605
1276803.1277207.+	1276803	1277207	+	KZN_1435	1276915.1277319.+	1276915	1277319	+	KZN_605
218650.219306.+	218650	219306	+	KZN_1435	218648.219304.+	218648	219304	+	KZN_605
3309418.3310131.-	3310131	3309418	-	KZN_1435	3309173.3309886.-	3309886	3309173	-	KZN_605
670100.671413.+	670100	671413	+	KZN_1435	670159.671472.+	670159	671472	+	KZN_605
315723.316355.-	316355	315723	-	KZN_1435	315722.316354.-	316354	315722	-	KZN_605
1388169.1389584.-	1389584	1388169	-	KZN_1435	1388281.1389696.-	1389696	1388281	-	KZN_605
661147.661530.+	661147	661530	+	KZN_1435	661206.661589.+	661206	661589	+	KZN_605
1340536.1341336.+	1340536	1341336	+	KZN_1435	1340648.1341448.+	1340648	1341448	+	KZN_605
2400795.2403593.-	2403593	2400795	-	KZN_1435	2400677.2403475.-	2403475	2400677	-	KZN_605
4233508.4236756.+	4233508	4236756	+	KZN_1435	4234377.4237625.+	4234377	4237625	+	KZN_605
984026.984208.-	984208	984026	-	KZN_1435	984031.984213.-	984213	984031	-	KZN_605
2732476.2732739.-	2732739	2732476	-	KZN_1435	2732359.2732622.-	2732622	2732359	-	KZN_605
3334054.3334746.+	3334054	3334746	+	KZN_1435	3333809.3334501.+	3333809	3334501	+	KZN_605
882276.882665.-	882665	882276	-	KZN_1435	882281.882670.-	882670	882281	-	KZN_605
847366.849111.+	847366	849111	+	KZN_1435	847372.849117.+	847372	849117	+	KZN_605
3521309.3521965.+	3521309	3521965	+	KZN_1435	3522422.3523078.+	3522422	3523078	+	KZN_605
3828378.3829265.-	3829265	3828378	-	KZN_1435	3829488.3830375.-	3830375	3829488	-	KZN_605
3353678.3354331.+	3353678	3354331	+	KZN_1435	3353432.3354085.+	3353432	3354085	+	KZN_605
1910506.1910877.+	1910506	1910877	+	KZN_1435	1910624.1910995.+	1910624	1910995	+	KZN_605
3064605.3065357.+	3064605	3065357	+	KZN_1435	3064376.3065128.+	3064376	3065128	+	KZN_605
2801312.2801449.-	2801449	2801312	-	KZN_1435	2801081.2801218.-	2801218	2801081	-	KZN_605
661514.663634.+	661514	663634	+	KZN_1435	661573.663693.+	661573	663693	+	KZN_605
2411698.2412147.+	2411698	2412147	+	KZN_1435	2411579.2412028.+	2411579	2412028	+	KZN_605
3289819.3291078.+	3289819	3291078	+	KZN_1435	3289574.3290833.+	3289574	3290833	+	KZN_605
1555557.1555961.+	1555557	1555961	+	KZN_1435	1555670.1556074.+	1555670	1556074	+	KZN_605
3876961.3878634.-	3878634	3876961	-	KZN_1435	3878071.3879744.-	3879744	3878071	-	KZN_605
455157.456017.-	456017	455157	-	KZN_1435	455158.456018.-	456018	455158	-	KZN_605
1661499.1662017.+	1661499	1662017	+	KZN_1435	1661614.1662132.+	1661614	1662132	+	KZN_605
3213888.3214178.-	3214178	3213888	-	KZN_1435	3213643.3213933.-	3213933	3213643	-	KZN_605
2702464.2702733.-	2702733	2702464	-	KZN_1435	2702347.2702616.-	2702616	2702347	-	KZN_605
2633549.2634271.+	2633549	2634271	+	KZN_1435	2633432.2634154.+	2633432	2634154	+	KZN_605
103841.104560.-	104560	103841	-	KZN_1435	2633432.2634154.+	2633432	2634154	+	KZN_605
3874015.3874734.+	3874015	3874734	+	KZN_1435	2633432.2634154.+	2633432	2634154	+	KZN_605
3595671.3595886.-	3595886	3595671	-	KZN_1435	3596784.3596999.-	3596999	3596784	-	KZN_605
1218280.1219662.+	1218280	1219662	+	KZN_1435	1218392.1219774.+	1218392	1219774	+	KZN_605
768102.768422.-	768422	768102	-	KZN_1435	768161.768481.-	768481	768161	-	KZN_605
3231389.3232570.-	3232570	3231389	-	KZN_1435	3231144.3232325.-	3232325	3231144	-	KZN_605
3407494.3408021.-	3408021	3407494	-	KZN_1435	3407248.3407775.-	3407775	3407248	-	KZN_605
3888952.3889698.-	3889698	3888952	-	KZN_1435	3890062.3890808.-	3890808	3890062	-	KZN_605
2638845.2639537.+	2638845	2639537	+	KZN_1435	2638728.2639420.+	2638728	2639420	+	KZN_605
3299744.3300397.-	3300397	3299744	-	KZN_1435	3299499.3300152.-	3300152	3299499	-	KZN_605
2672219.2673610.-	2673610	2672219	-	KZN_1435	2672102.2673493.-	2673493	2672102	-	KZN_605
655185.656210.-	656210	655185	-	KZN_1435	655244.656269.-	656269	655244	-	KZN_605
2848677.2849303.-	2849303	2848677	-	KZN_1435	2848447.2849073.-	2849073	2848447	-	KZN_605
57513.58076.+	57513	58076	+	KZN_1435	57512.58075.+	57512	58075	+	KZN_605
1334559.1335707.+	1334559	1335707	+	KZN_1435	1334671.1335819.+	1334671	1335819	+	KZN_605
1032684.1033097.+	1032684	1033097	+	KZN_1435	1032690.1033103.+	1032690	1033103	+	KZN_605
3777371.3780646.-	3780646	3777371	-	KZN_1435	3778484.3781759.-	3781759	3778484	-	KZN_605
515632.516075.-	516075	515632	-	KZN_1435	515633.516076.-	516076	515633	-	KZN_605
736550.737446.-	737446	736550	-	KZN_1435	736609.737505.-	737505	736609	-	KZN_605
4187328.4188272.+	4187328	4188272	+	KZN_1435	4188197.4189141.+	4188197	4189141	+	KZN_605
3719813.3720457.+	3719813	3720457	+	KZN_1435	3720926.3721570.+	3720926	3721570	+	KZN_605
906247.907134.+	906247	907134	+	KZN_1435	906252.907139.+	906252	907139	+	KZN_605
1031154.1032401.+	1031154	1032401	+	KZN_1435	3069460.3070707.+	3069460	3070707	+	KZN_605
1584011.1585258.+	1584011	1585258	+	KZN_1435	3069460.3070707.+	3069460	3070707	+	KZN_605
3069688.3070935.+	3069688	3070935	+	KZN_1435	3069460.3070707.+	3069460	3070707	+	KZN_605
3241296.3242543.-	3242543	3241296	-	KZN_1435	3069460.3070707.+	3069460	3070707	+	KZN_605
3482274.3483521.+	3482274	3483521	+	KZN_1435	3069460.3070707.+	3069460	3070707	+	KZN_605
855023.855355.-	855355	855023	-	KZN_1435	855029.855361.-	855361	855029	-	KZN_605
1229260.1229979.-	1229979	1229260	-	KZN_1435	1229372.1230091.-	1230091	1229372	-	KZN_605
1111260.1113008.+	1111260	1113008	+	KZN_1435	1111262.1113010.+	1111262	1113010	+	KZN_605
4014438.4015256.-	4015256	4014438	-	KZN_1435	4015197.4016015.-	4016015	4015197	-	KZN_605
4028422.4028505.-	4028505	4028422	-	KZN_1435	4029181.4029264.-	4029264	4029181	-	KZN_605
1433743.1434210.+	1433743	1434210	+	KZN_1435	1433855.1434322.+	1433855	1434322	+	KZN_605
715622.716569.+	715622	716569	+	KZN_1435	715681.716628.+	715681	716628	+	KZN_605
1737866.1742110.+	1737866	1742110	+	KZN_1435	1737981.1742225.+	1737981	1742225	+	KZN_605
2377385.2379304.+	2377385	2379304	+	KZN_1435	2377267.2379186.+	2377267	2379186	+	KZN_605
466929.467663.-	467663	466929	-	KZN_1435	466930.467664.-	467664	466930	-	KZN_605
932089.932925.-	932925	932089	-	KZN_1435	2050173.2051009.+	2050173	2051009	+	KZN_605
1292329.1293165.+	1292329	1293165	+	KZN_1435	2050173.2051009.+	2050173	2051009	+	KZN_605
1330496.1331332.-	1331332	1330496	-	KZN_1435	2050173.2051009.+	2050173	2051009	+	KZN_605
1605986.1606822.-	1606822	1605986	-	KZN_1435	2050173.2051009.+	2050173	2051009	+	KZN_605
1781593.1782429.+	1781593	1782429	+	KZN_1435	2050173.2051009.+	2050173	2051009	+	KZN_605
1861140.1861976.+	1861140	1861976	+	KZN_1435	2050173.2051009.+	2050173	2051009	+	KZN_605
2048612.2049448.+	2048612	2049448	+	KZN_1435	2050173.2051009.+	2050173	2051009	+	KZN_605
2050283.2051119.+	2050283	2051119	+	KZN_1435	2050173.2051009.+	2050173	2051009	+	KZN_605
2155671.2156507.-	2156507	2155671	-	KZN_1435	2050173.2051009.+	2050173	2051009	+	KZN_605
2375978.2376814.+	2375978	2376814	+	KZN_1435	2050173.2051009.+	2050173	2051009	+	KZN_605
2435226.2436062.+	2435226	2436062	+	KZN_1435	2050173.2051009.+	2050173	2051009	+	KZN_605
3480315.3481151.+	3480315	3481151	+	KZN_1435	2050173.2051009.+	2050173	2051009	+	KZN_605
3708737.3709573.-	3709573	3708737	-	KZN_1435	2050173.2051009.+	2050173	2051009	+	KZN_605
4063263.4064099.-	4064099	4063263	-	KZN_1435	2050173.2051009.+	2050173	2051009	+	KZN_605
2836173.2836775.-	2836775	2836173	-	KZN_1435	2835943.2836545.-	2836545	2835943	-	KZN_605
3794529.3795308.+	3794529	3795308	+	KZN_1435	3795642.3796421.+	3795642	3796421	+	KZN_605
2063320.2063571.+	2063320	2063571	+	KZN_1435	2063210.2063461.+	2063210	2063461	+	KZN_605
333377.336280.-	336280	333377	-	KZN_1435	333376.336279.-	336279	333376	-	KZN_605
1797683.1798924.+	1797683	1798924	+	KZN_1435	1797799.1799040.+	1797799	1799040	+	KZN_605
4136916.4138022.-	4138022	4136916	-	KZN_1435	4137786.4138892.-	4138892	4137786	-	KZN_605
4186667.4187167.-	4187167	4186667	-	KZN_1435	4187536.4188036.-	4188036	4187536	-	KZN_605
3102965.3103345.-	3103345	3102965	-	KZN_1435	3102735.3103115.-	3103115	3102735	-	KZN_605
2729462.2731333.-	2731333	2729462	-	KZN_1435	2729345.2731216.-	2731216	2729345	-	KZN_605
1013573.1014358.+	1013573	1014358	+	KZN_1435	1013578.1014363.+	1013578	1014363	+	KZN_605
2633315.2634271.+	2633315	2634271	+	KZN_1435	2633198.2634154.+	2633198	2634154	+	KZN_605
103841.104794.-	104794	103841	-	KZN_1435	2633198.2634154.+	2633198	2634154	+	KZN_605
3873781.3874734.+	3873781	3874734	+	KZN_1435	2633198.2634154.+	2633198	2634154	+	KZN_605
1020962.1022230.-	1022230	1020962	-	KZN_1435	1021004.1022236.-	1022236	1021004	-	KZN_605
552008.552247.+	552008	552247	+	KZN_1435	552009.552248.+	552009	552248	+	KZN_605
3298507.3299583.-	3299583	3298507	-	KZN_1435	3298262.3299338.-	3299338	3298262	-	KZN_605
3002334.3002807.+	3002334	3002807	+	KZN_1435	3002106.3002579.+	3002106	3002579	+	KZN_605
2347097.2347354.-	2347354	2347097	-	KZN_1435	2346979.2347236.-	2347236	2346979	-	KZN_605
1053181.1054194.+	1053181	1054194	+	KZN_1435	1053185.1054198.+	1053185	1054198	+	KZN_605
932089.932925.-	932925	932089	-	KZN_1435	4064133.4064969.-	4064969	4064133	-	KZN_605
1292329.1293165.+	1292329	1293165	+	KZN_1435	4064133.4064969.-	4064969	4064133	-	KZN_605
1330496.1331332.-	1331332	1330496	-	KZN_1435	4064133.4064969.-	4064969	4064133	-	KZN_605
1605986.1606822.-	1606822	1605986	-	KZN_1435	4064133.4064969.-	4064969	4064133	-	KZN_605
1781593.1782429.+	1781593	1782429	+	KZN_1435	4064133.4064969.-	4064969	4064133	-	KZN_605
1861140.1861976.+	1861140	1861976	+	KZN_1435	4064133.4064969.-	4064969	4064133	-	KZN_605
2048612.2049448.+	2048612	2049448	+	KZN_1435	4064133.4064969.-	4064969	4064133	-	KZN_605
2050283.2051119.+	2050283	2051119	+	KZN_1435	4064133.4064969.-	4064969	4064133	-	KZN_605
2155671.2156507.-	2156507	2155671	-	KZN_1435	4064133.4064969.-	4064969	4064133	-	KZN_605
2375978.2376814.+	2375978	2376814	+	KZN_1435	4064133.4064969.-	4064969	4064133	-	KZN_605
2435226.2436062.+	2435226	2436062	+	KZN_1435	4064133.4064969.-	4064969	4064133	-	KZN_605
3480315.3481151.+	3480315	3481151	+	KZN_1435	4064133.4064969.-	4064969	4064133	-	KZN_605
3708737.3709573.-	3709573	3708737	-	KZN_1435	4064133.4064969.-	4064969	4064133	-	KZN_605
4063263.4064099.-	4064099	4063263	-	KZN_1435	4064133.4064969.-	4064969	4064133	-	KZN_605
4119275.4120405.+	4119275	4120405	+	KZN_1435	4120145.4121275.+	4120145	4121275	+	KZN_605
831858.832661.+	831858	832661	+	KZN_1435	831863.832666.+	831863	832666	+	KZN_605
2570677.2574195.+	2570677	2574195	+	KZN_1435	2570559.2574077.+	2570559	2574077	+	KZN_605
103841.104794.-	104794	103841	-	KZN_1435	103839.104792.-	104792	103839	-	KZN_605
3873781.3874734.+	3873781	3874734	+	KZN_1435	103839.104792.-	104792	103839	-	KZN_605
2633315.2634271.+	2633315	2634271	+	KZN_1435	103839.104792.-	104792	103839	-	KZN_605
2265561.2266154.+	2265561	2266154	+	KZN_1435	2265442.2266035.+	2265442	2266035	+	KZN_605
3882888.3884066.+	3882888	3884066	+	KZN_1435	3883998.3885176.+	3883998	3885176	+	KZN_605
2878716.2879903.+	2878716	2879903	+	KZN_1435	3883998.3885176.+	3883998	3885176	+	KZN_605
3071769.3072941.-	3072941	3071769	-	KZN_1435	3883998.3885176.+	3883998	3885176	+	KZN_605
606730.608241.+	606730	608241	+	KZN_1435	606787.608298.+	606787	608298	+	KZN_605
403078.404589.+	403078	404589	+	KZN_1435	606787.608298.+	606787	608298	+	KZN_605
412242.413687.+	412242	413687	+	KZN_1435	412243.413688.+	412243	413688	+	KZN_605
1789635.1789937.+	1789635	1789937	+	KZN_1435	1789751.1790053.+	1789751	1790053	+	KZN_605
1507052.1507726.+	1507052	1507726	+	KZN_1435	1507164.1507838.+	1507164	1507838	+	KZN_605
1692238.1692903.+	1692238	1692903	+	KZN_1435	1692353.1693018.+	1692353	1693018	+	KZN_605
1976586.1977251.+	1976586	1977251	+	KZN_1435	1692353.1693018.+	1692353	1693018	+	KZN_605
4182386.4182748.+	4182386	4182748	+	KZN_1435	4183255.4183617.+	4183255	4183617	+	KZN_605
3219821.3221212.+	3219821	3221212	+	KZN_1435	3219576.3220967.+	3219576	3220967	+	KZN_605
2081688.2081858.+	2081688	2081858	+	KZN_1435	2081566.2081736.+	2081566	2081736	+	KZN_605
2621813.2623156.-	2623156	2621813	-	KZN_1435	2621696.2623039.-	2623039	2621696	-	KZN_605
710836.711069.-	711069	710836	-	KZN_1435	710895.711128.-	711128	710895	-	KZN_605
4140746.4142560.+	4140746	4142560	+	KZN_1435	4141616.4143430.+	4141616	4143430	+	KZN_605
1973320.1974207.+	1973320	1974207	+	KZN_1435	1973439.1974326.+	1973439	1974326	+	KZN_605
2790734.2790973.-	2790973	2790734	-	KZN_1435	2790503.2790742.-	2790742	2790503	-	KZN_605
1821228.1821893.+	1821228	1821893	+	KZN_1435	1821344.1822009.+	1821344	1822009	+	KZN_605
1513125.1513589.+	1513125	1513589	+	KZN_1435	1513237.1513701.+	1513237	1513701	+	KZN_605
1305999.1306346.+	1305999	1306346	+	KZN_1435	1306111.1306458.+	1306111	1306458	+	KZN_605
2393704.2393865.-	2393865	2393704	-	KZN_1435	2393586.2393747.-	2393747	2393586	-	KZN_605
818531.818905.-	818905	818531	-	KZN_1435	818536.818910.-	818910	818536	-	KZN_605
95545.97023.+	95545	97023	+	KZN_1435	95543.97021.+	95543	97021	+	KZN_605
3357736.3358212.-	3358212	3357736	-	KZN_1435	3357490.3357966.-	3357966	3357490	-	KZN_605
3357736.3358236.-	3358236	3357736	-	KZN_1435	3357490.3357990.-	3357990	3357490	-	KZN_605
2583541.2585760.-	2585760	2583541	-	KZN_1435	2583423.2585642.-	2585642	2583423	-	KZN_605
1329354.1330283.+	1329354	1330283	+	KZN_1435	1329466.1330395.+	1329466	1330395	+	KZN_605
1945918.1947204.+	1945918	1947204	+	KZN_1435	1946037.1947323.+	1946037	1947323	+	KZN_605
566041.566655.+	566041	566655	+	KZN_1435	566042.566656.+	566042	566656	+	KZN_605
614505.614909.-	614909	614505	-	KZN_1435	614562.614966.-	614966	614562	-	KZN_605
580700.580906.-	580906	580700	-	KZN_1435	580757.580963.-	580963	580757	-	KZN_605
3118831.3119496.-	3119496	3118831	-	KZN_1435	3118601.3119266.-	3119266	3118601	-	KZN_605
4156551.4157114.+	4156551	4157114	+	KZN_1435	4157421.4157984.+	4157421	4157984	+	KZN_605
3318835.3321606.-	3321606	3318835	-	KZN_1435	3318590.3321361.-	3321361	3318590	-	KZN_605
449394.449909.-	449909	449394	-	KZN_1435	449395.449910.-	449910	449395	-	KZN_605
4002559.4003638.-	4003638	4002559	-	KZN_1435	4003318.4004397.-	4004397	4003318	-	KZN_605
1966572.1968383.-	1968383	1966572	-	KZN_1435	1966691.1968502.-	1968502	1966691	-	KZN_605
2618681.2619418.-	2619418	2618681	-	KZN_1435	2618564.2619301.-	2619301	2618564	-	KZN_605
3359338.3359616.-	3359616	3359338	-	KZN_1435	3359093.3359371.-	3359371	3359093	-	KZN_605
1280390.1280935.+	1280390	1280935	+	KZN_1435	1280502.1281047.+	1280502	1281047	+	KZN_605
1277494.1278039.+	1277494	1278039	+	KZN_1435	1280502.1281047.+	1280502	1281047	+	KZN_605
4047808.4048608.+	4047808	4048608	+	KZN_1435	4048678.4049478.+	4048678	4049478	+	KZN_605
1298845.1299999.-	1299999	1298845	-	KZN_1435	1298957.1300111.-	1300111	1298957	-	KZN_605
3324628.3326223.+	3324628	3326223	+	KZN_1435	3324383.3325978.+	3324383	3325978	+	KZN_605
3472636.3473928.-	3473928	3472636	-	KZN_1435	3472391.3473683.-	3473683	3472391	-	KZN_605
4145160.4145867.+	4145160	4145867	+	KZN_1435	4146030.4146737.+	4146030	4146737	+	KZN_605
1236517.1238373.+	1236517	1238373	+	KZN_1435	1236629.1238485.+	1236629	1238485	+	KZN_605
3455752.3456990.-	3456990	3455752	-	KZN_1435	3455507.3456745.-	3456745	3455507	-	KZN_605
1035245.1035448.+	1035245	1035448	+	KZN_1435	1035251.1035454.+	1035251	1035454	+	KZN_605
1998781.2000241.+	1998781	2000241	+	KZN_1435	1998899.2000359.+	1998899	2000359	+	KZN_605
932089.932925.-	932925	932089	-	KZN_1435	1606101.1606937.-	1606937	1606101	-	KZN_605
1292329.1293165.+	1292329	1293165	+	KZN_1435	1606101.1606937.-	1606937	1606101	-	KZN_605
1330496.1331332.-	1331332	1330496	-	KZN_1435	1606101.1606937.-	1606937	1606101	-	KZN_605
1605986.1606822.-	1606822	1605986	-	KZN_1435	1606101.1606937.-	1606937	1606101	-	KZN_605
1781593.1782429.+	1781593	1782429	+	KZN_1435	1606101.1606937.-	1606937	1606101	-	KZN_605
1861140.1861976.+	1861140	1861976	+	KZN_1435	1606101.1606937.-	1606937	1606101	-	KZN_605
2048612.2049448.+	2048612	2049448	+	KZN_1435	1606101.1606937.-	1606937	1606101	-	KZN_605
2050283.2051119.+	2050283	2051119	+	KZN_1435	1606101.1606937.-	1606937	1606101	-	KZN_605
2155671.2156507.-	2156507	2155671	-	KZN_1435	1606101.1606937.-	1606937	1606101	-	KZN_605
2375978.2376814.+	2375978	2376814	+	KZN_1435	1606101.1606937.-	1606937	1606101	-	KZN_605
2435226.2436062.+	2435226	2436062	+	KZN_1435	1606101.1606937.-	1606937	1606101	-	KZN_605
3480315.3481151.+	3480315	3481151	+	KZN_1435	1606101.1606937.-	1606937	1606101	-	KZN_605
3708737.3709573.-	3709573	3708737	-	KZN_1435	1606101.1606937.-	1606937	1606101	-	KZN_605
4063263.4064099.-	4064099	4063263	-	KZN_1435	1606101.1606937.-	1606937	1606101	-	KZN_605
4129634.4130821.-	4130821	4129634	-	KZN_1435	4130504.4131691.-	4131691	4130504	-	KZN_605
1391584.1392621.-	1392621	1391584	-	KZN_1435	1391696.1392733.-	1392733	1391696	-	KZN_605
932089.932925.-	932925	932089	-	KZN_1435	3488592.3489428.-	3489428	3488592	-	KZN_605
1292329.1293165.+	1292329	1293165	+	KZN_1435	3488592.3489428.-	3489428	3488592	-	KZN_605
1330496.1331332.-	1331332	1330496	-	KZN_1435	3488592.3489428.-	3489428	3488592	-	KZN_605
1605986.1606822.-	1606822	1605986	-	KZN_1435	3488592.3489428.-	3489428	3488592	-	KZN_605
1781593.1782429.+	1781593	1782429	+	KZN_1435	3488592.3489428.-	3489428	3488592	-	KZN_605
1861140.1861976.+	1861140	1861976	+	KZN_1435	3488592.3489428.-	3489428	3488592	-	KZN_605
2048612.2049448.+	2048612	2049448	+	KZN_1435	3488592.3489428.-	3489428	3488592	-	KZN_605
2050283.2051119.+	2050283	2051119	+	KZN_1435	3488592.3489428.-	3489428	3488592	-	KZN_605
2155671.2156507.-	2156507	2155671	-	KZN_1435	3488592.3489428.-	3489428	3488592	-	KZN_605
2375978.2376814.+	2375978	2376814	+	KZN_1435	3488592.3489428.-	3489428	3488592	-	KZN_605
2435226.2436062.+	2435226	2436062	+	KZN_1435	3488592.3489428.-	3489428	3488592	-	KZN_605
3480315.3481151.+	3480315	3481151	+	KZN_1435	3488592.3489428.-	3489428	3488592	-	KZN_605
3708737.3709573.-	3709573	3708737	-	KZN_1435	3488592.3489428.-	3489428	3488592	-	KZN_605
4063263.4064099.-	4064099	4063263	-	KZN_1435	3488592.3489428.-	3489428	3488592	-	KZN_605
1698347.1699555.+	1698347	1699555	+	KZN_1435	1698462.1699670.+	1698462	1699670	+	KZN_605
1270208.1271518.+	1270208	1271518	+	KZN_1435	1270320.1271630.+	1270320	1271630	+	KZN_605
3458811.3459215.-	3459215	3458811	-	KZN_1435	3458566.3458970.-	3458970	3458566	-	KZN_605
3721793.3722005.-	3722005	3721793	-	KZN_1435	3722906.3723118.-	3723118	3722906	-	KZN_605
3210310.3211386.-	3211386	3210310	-	KZN_1435	3210064.3211140.-	3211140	3210064	-	KZN_605
3134571.3135935.+	3134571	3135935	+	KZN_1435	3134341.3135705.+	3134341	3135705	+	KZN_605
2225720.2227084.-	2227084	2225720	-	KZN_1435	3134341.3135705.+	3134341	3135705	+	KZN_605
1676848.1678887.+	1676848	1678887	+	KZN_1435	1676963.1679002.+	1676963	1679002	+	KZN_605
4001666.4002553.+	4001666	4002553	+	KZN_1435	4002425.4003312.+	4002425	4003312	+	KZN_605
4256786.4257286.-	4257286	4256786	-	KZN_1435	4257655.4258155.-	4258155	4257655	-	KZN_605
2951058.2951303.-	2951303	2951058	-	KZN_1435	2950829.2951074.-	2951074	2950829	-	KZN_605
1034433.1034741.+	1034433	1034741	+	KZN_1435	1034439.1034747.+	1034439	1034747	+	KZN_605
1370027.1370641.+	1370027	1370641	+	KZN_1435	1370139.1370753.+	1370139	1370753	+	KZN_605
2882255.2884918.-	2884918	2882255	-	KZN_1435	2882026.2884689.-	2884689	2882026	-	KZN_605
2701398.2702438.-	2702438	2701398	-	KZN_1435	2701281.2702321.-	2702321	2701281	-	KZN_605
3169113.3169313.+	3169113	3169313	+	KZN_1435	3168884.3169084.+	3168884	3169084	+	KZN_605
781505.782095.+	781505	782095	+	KZN_1435	781564.782154.+	781564	782154	+	KZN_605
1969585.1970727.+	1969585	1970727	+	KZN_1435	1969704.1970846.+	1969704	1970846	+	KZN_605
932089.932925.-	932925	932089	-	KZN_1435	2155551.2156387.-	2156387	2155551	-	KZN_605
1292329.1293165.+	1292329	1293165	+	KZN_1435	2155551.2156387.-	2156387	2155551	-	KZN_605
1330496.1331332.-	1331332	1330496	-	KZN_1435	2155551.2156387.-	2156387	2155551	-	KZN_605
1605986.1606822.-	1606822	1605986	-	KZN_1435	2155551.2156387.-	2156387	2155551	-	KZN_605
1781593.1782429.+	1781593	1782429	+	KZN_1435	2155551.2156387.-	2156387	2155551	-	KZN_605
1861140.1861976.+	1861140	1861976	+	KZN_1435	2155551.2156387.-	2156387	2155551	-	KZN_605
2048612.2049448.+	2048612	2049448	+	KZN_1435	2155551.2156387.-	2156387	2155551	-	KZN_605
2050283.2051119.+	2050283	2051119	+	KZN_1435	2155551.2156387.-	2156387	2155551	-	KZN_605
2155671.2156507.-	2156507	2155671	-	KZN_1435	2155551.2156387.-	2156387	2155551	-	KZN_605
2375978.2376814.+	2375978	2376814	+	KZN_1435	2155551.2156387.-	2156387	2155551	-	KZN_605
2435226.2436062.+	2435226	2436062	+	KZN_1435	2155551.2156387.-	2156387	2155551	-	KZN_605
3480315.3481151.+	3480315	3481151	+	KZN_1435	2155551.2156387.-	2156387	2155551	-	KZN_605
3708737.3709573.-	3709573	3708737	-	KZN_1435	2155551.2156387.-	2156387	2155551	-	KZN_605
4063263.4064099.-	4064099	4063263	-	KZN_1435	2155551.2156387.-	2156387	2155551	-	KZN_605
3211600.3212544.+	3211600	3212544	+	KZN_1435	3211354.3212187.+	3211354	3212187	+	KZN_605
339427.341940.-	341940	339427	-	KZN_1435	339426.341939.-	341939	339426	-	KZN_605
1559548.1560558.-	1560558	1559548	-	KZN_1435	1559661.1560671.-	1560671	1559661	-	KZN_605
3607901.3608503.-	3608503	3607901	-	KZN_1435	3609014.3609616.-	3609616	3609014	-	KZN_605
4004732.4005598.+	4004732	4005598	+	KZN_1435	4005491.4006357.+	4005491	4006357	+	KZN_605
1822454.1823869.+	1822454	1823869	+	KZN_1435	1822570.1823985.+	1822570	1823985	+	KZN_605
776370.779186.-	779186	776370	-	KZN_1435	776429.779245.-	779245	776429	-	KZN_605
2814822.2815805.-	2815805	2814822	-	KZN_1435	2814592.2815575.-	2815575	2814592	-	KZN_605
2516460.2517455.-	2517455	2516460	-	KZN_1435	2516342.2517337.-	2517337	2516342	-	KZN_605
110438.117670.+	110438	117670	+	KZN_1435	110436.117668.+	110436	117668	+	KZN_605
1168157.1170037.-	1170037	1168157	-	KZN_1435	1168157.1170037.-	1170037	1168157	-	KZN_605
941926.942363.+	941926	942363	+	KZN_1435	941931.942368.+	941931	942368	+	KZN_605
3303463.3303795.+	3303463	3303795	+	KZN_1435	3303218.3303550.+	3303218	3303550	+	KZN_605
4312020.4312424.+	4312020	4312424	+	KZN_1435	4312889.4313293.+	4312889	4313293	+	KZN_605
2105791.2108580.+	2105791	2108580	+	KZN_1435	2105668.2108457.+	2105668	2108457	+	KZN_605
2670614.2671222.-	2671222	2670614	-	KZN_1435	2670497.2671105.-	2671105	2670497	-	KZN_605
882660.883619.+	882660	883619	+	KZN_1435	882665.883624.+	882665	883624	+	KZN_605
3083233.3084606.+	3083233	3084606	+	KZN_1435	3083003.3084376.+	3083003	3084376	+	KZN_605
545094.545444.+	545094	545444	+	KZN_1435	545095.545445.+	545095	545445	+	KZN_605
3993637.3993903.-	3993903	3993637	-	KZN_1435	3994396.3994662.-	3994662	3994396	-	KZN_605
1359525.1361204.-	1361204	1359525	-	KZN_1435	1359637.1361316.-	1361316	1359637	-	KZN_605
2832632.2833114.-	2833114	2832632	-	KZN_1435	2832402.2832884.-	2832884	2832402	-	KZN_605
1909438.1910313.-	1910313	1909438	-	KZN_1435	1909556.1910431.-	1910431	1909556	-	KZN_605
661264.661530.+	661264	661530	+	KZN_1435	661323.661589.+	661323	661589	+	KZN_605
4199173.4199928.+	4199173	4199928	+	KZN_1435	4200042.4200797.+	4200042	4200797	+	KZN_605
1249712.1251556.-	1251556	1249712	-	KZN_1435	1249824.1251668.-	1251668	1249824	-	KZN_605
1733036.1733245.-	1733245	1733036	-	KZN_1435	1733151.1733360.-	1733360	1733151	-	KZN_605
85767.86621.-	86621	85767	-	KZN_1435	85765.86619.-	86619	85765	-	KZN_605
1834845.1835168.+	1834845	1835168	+	KZN_1435	1834961.1835284.+	1834961	1835284	+	KZN_605
232170.234416.+	232170	234416	+	KZN_1435	232168.234414.+	232168	234414	+	KZN_605
4256786.4257319.-	4257319	4256786	-	KZN_1435	4257655.4258188.-	4258188	4257655	-	KZN_605
3874015.3874734.+	3874015	3874734	+	KZN_1435	3875125.3875844.+	3875125	3875844	+	KZN_605
103841.104560.-	104560	103841	-	KZN_1435	3875125.3875844.+	3875125	3875844	+	KZN_605
2633549.2634271.+	2633549	2634271	+	KZN_1435	3875125.3875844.+	3875125	3875844	+	KZN_605
999611.1001692.+	999611	1001692	+	KZN_1435	999616.1001697.+	999616	1001697	+	KZN_605
4290344.4291969.-	4291969	4290344	-	KZN_1435	4291213.4292838.-	4292838	4291213	-	KZN_605
3072991.3073320.-	3073320	3072991	-	KZN_1435	3072763.3073092.-	3073092	3072763	-	KZN_605
1050093.1050470.-	1050470	1050093	-	KZN_1435	1050097.1050474.-	1050474	1050097	-	KZN_605
475585.476001.+	475585	476001	+	KZN_1435	475586.476002.+	475586	476002	+	KZN_605
2135097.2135420.-	2135420	2135097	-	KZN_1435	2134977.2135300.-	2135300	2134977	-	KZN_605
3297585.3297794.+	3297585	3297794	+	KZN_1435	3297340.3297549.+	3297340	3297549	+	KZN_605
223938.224603.+	223938	224603	+	KZN_1435	223936.224601.+	223936	224601	+	KZN_605
69644.71662.+	69644	71662	+	KZN_1435	69642.71660.+	69642	71660	+	KZN_605
1807575.1807796.-	1807796	1807575	-	KZN_1435	1807691.1807912.-	1807912	1807691	-	KZN_605
1882625.1883263.-	1883263	1882625	-	KZN_1435	1882742.1883380.-	1883380	1882742	-	KZN_605
1497384.1497593.+	1497384	1497593	+	KZN_1435	1497496.1497705.+	1497496	1497705	+	KZN_605
1036925.1037287.+	1036925	1037287	+	KZN_1435	1036931.1037293.+	1036931	1037293	+	KZN_605
3896531.3896695.+	3896531	3896695	+	KZN_1435	3897641.3897805.+	3897641	3897805	+	KZN_605
2135097.2135567.-	2135567	2135097	-	KZN_1435	2134977.2135447.-	2135447	2134977	-	KZN_605
1123368.1123898.-	1123898	1123368	-	KZN_1435	1123370.1123900.-	1123900	1123370	-	KZN_605
1444965.1445282.+	1444965	1445282	+	KZN_1435	1445077.1445394.+	1445077	1445394	+	KZN_605
2992504.2993277.+	2992504	2993277	+	KZN_1435	2992275.2993048.+	2992275	2993048	+	KZN_605
