879821.880525.+	879821	880525	+	KZN_1435	879926.880630.+	879926	880630	+	H37Ra
3026749.3027294.+	3026749	3027294	+	KZN_1435	1386307.1386852.-	1386852	1386307	-	H37Ra
542350.543111.+	542350	543111	+	KZN_1435	543401.544162.+	543401	544162	+	H37Ra
2395914.2396216.-	2396216	2395914	-	KZN_1435	2037943.2038245.+	2037943	2038245	+	H37Ra
3334054.3334746.+	3334054	3334746	+	KZN_1435	1078541.1079233.-	1079233	1078541	-	H37Ra
2773873.2775171.-	2775171	2773873	-	KZN_1435	1639865.1641163.+	1639865	1641163	+	H37Ra
17569.18846.-	18846	17569	-	KZN_1435	18825.20102.-	20102	18825	-	H37Ra
3567216.3569405.-	3569405	3567216	-	KZN_1435	3579892.3582081.-	3582081	3579892	-	H37Ra
333100.333273.-	333273	333100	-	KZN_1435	334522.334695.-	334695	334522	-	H37Ra
2456705.2456989.-	2456989	2456705	-	KZN_1435	1967175.1967459.+	1967175	1967459	+	H37Ra
3179351.3179761.-	3179761	3179351	-	KZN_1435	1233726.1234136.+	1233726	1234136	+	H37Ra
2052593.2053426.-	2053426	2052593	-	KZN_1435	2373176.2374009.+	2373176	2374009	+	H37Ra
41410.42015.+	41410	42015	+	KZN_1435	42665.43270.+	42665	43270	+	H37Ra
4136916.4138022.-	4138022	4136916	-	KZN_1435	4158476.4159582.-	4159582	4158476	-	H37Ra
602027.602965.+	602027	602965	+	KZN_1435	603158.604096.+	603158	604096	+	H37Ra
307817.309487.-	309487	307817	-	KZN_1435	309239.310909.-	310909	309239	-	H37Ra
4371098.4372192.-	4372192	4371098	-	KZN_1435	4392593.4393687.-	4393687	4392593	-	H37Ra
1451344.1453710.+	1451344	1453710	+	KZN_1435	2972073.2974439.-	2974439	2972073	-	H37Ra
843231.843476.+	843231	843476	+	KZN_1435	843339.843584.+	843339	843584	+	H37Ra
833058.833303.+	833058	833303	+	KZN_1435	843339.843584.+	843339	843584	+	H37Ra
3843757.3844695.-	3844695	3843757	-	KZN_1435	3862617.3863555.-	3863555	3862617	-	H37Ra
1709865.1710467.-	1710467	1709865	-	KZN_1435	2715204.2715806.+	2715204	2715806	+	H37Ra
1218283.1219662.+	1218283	1219662	+	KZN_1435	3206158.3207537.-	3207537	3206158	-	H37Ra
1077099.1077674.-	1077674	1077099	-	KZN_1435	3347922.3348497.+	3347922	3348497	+	H37Ra
339427.341961.-	341961	339427	-	KZN_1435	337922.340456.-	340456	337922	-	H37Ra
536763.537494.-	537494	536763	-	KZN_1435	537814.538545.-	538545	537814	-	H37Ra
800888.801178.-	801178	800888	-	KZN_1435	801410.801700.-	801700	801410	-	H37Ra
3521309.3521965.+	3521309	3521965	+	KZN_1435	3532642.3533298.+	3532642	3533298	+	H37Ra
476653.476901.+	476653	476901	+	KZN_1435	477704.477952.+	477704	477952	+	H37Ra
676083.676562.+	676083	676562	+	KZN_1435	677141.677620.+	677141	677620	+	H37Ra
661147.661530.+	661147	661530	+	KZN_1435	662196.662579.+	662196	662579	+	H37Ra
3539310.3540674.+	3539310	3540674	+	KZN_1435	3550643.3552007.+	3550643	3552007	+	H37Ra
1278329.1279231.+	1278329	1279231	+	KZN_1435	3146588.3147490.-	3147490	3146588	-	H37Ra
4090390.4091253.-	4091253	4090390	-	KZN_1435	4112121.4112984.-	4112984	4112121	-	H37Ra
737520.738413.-	738413	737520	-	KZN_1435	738574.739467.-	739467	738574	-	H37Ra
2220977.2221330.-	2221330	2220977	-	KZN_1435	2211642.2211995.+	2211642	2211995	+	H37Ra
4253899.4255842.-	4255842	4253899	-	KZN_1435	4275399.4277342.-	4277342	4275399	-	H37Ra
3425954.3426466.+	3425954	3426466	+	KZN_1435	986820.987332.-	987332	986820	-	H37Ra
932089.932925.-	932925	932089	-	KZN_1435	2560394.2561230.+	2560394	2561230	+	H37Ra
1292329.1293165.+	1292329	1293165	+	KZN_1435	2560394.2561230.+	2560394	2561230	+	H37Ra
1330496.1331332.-	1331332	1330496	-	KZN_1435	2560394.2561230.+	2560394	2561230	+	H37Ra
1605986.1606822.-	1606822	1605986	-	KZN_1435	2560394.2561230.+	2560394	2561230	+	H37Ra
1781593.1782429.+	1781593	1782429	+	KZN_1435	2560394.2561230.+	2560394	2561230	+	H37Ra
1861140.1861976.+	1861140	1861976	+	KZN_1435	2560394.2561230.+	2560394	2561230	+	H37Ra
2048612.2049448.+	2048612	2049448	+	KZN_1435	2560394.2561230.+	2560394	2561230	+	H37Ra
2050283.2051119.+	2050283	2051119	+	KZN_1435	2560394.2561230.+	2560394	2561230	+	H37Ra
2155671.2156507.-	2156507	2155671	-	KZN_1435	2560394.2561230.+	2560394	2561230	+	H37Ra
2375978.2376814.+	2375978	2376814	+	KZN_1435	2560394.2561230.+	2560394	2561230	+	H37Ra
2435226.2436062.+	2435226	2436062	+	KZN_1435	2560394.2561230.+	2560394	2561230	+	H37Ra
3480315.3481151.+	3480315	3481151	+	KZN_1435	2560394.2561230.+	2560394	2561230	+	H37Ra
3708737.3709573.-	3709573	3708737	-	KZN_1435	2560394.2561230.+	2560394	2561230	+	H37Ra
4063263.4064099.-	4064099	4063263	-	KZN_1435	2560394.2561230.+	2560394	2561230	+	H37Ra
4199173.4199928.+	4199173	4199928	+	KZN_1435	4220673.4221428.+	4220673	4221428	+	H37Ra
3044830.3045918.-	3045918	3044830	-	KZN_1435	1367683.1368771.+	1367683	1368771	+	H37Ra
1846539.1847606.-	1847606	1846539	-	KZN_1435	2578890.2579957.+	2578890	2579957	+	H37Ra
1280390.1280935.+	1280390	1280935	+	KZN_1435	3144883.3145428.-	3145428	3144883	-	H37Ra
1277494.1278039.+	1277494	1278039	+	KZN_1435	3144883.3145428.-	3145428	3144883	-	H37Ra
508017.508844.-	508844	508017	-	KZN_1435	509068.509895.-	509895	509068	-	H37Ra
1835115.1835447.-	1835447	1835115	-	KZN_1435	2591049.2591381.+	2591049	2591381	+	H37Ra
2608135.2609544.-	2609544	2608135	-	KZN_1435	1814686.1816095.+	1814686	1816095	+	H37Ra
3777371.3780646.-	3780646	3777371	-	KZN_1435	3790624.3793899.-	3793899	3790624	-	H37Ra
1515032.1515859.-	1515859	1515032	-	KZN_1435	2909924.2910751.+	2909924	2910751	+	H37Ra
3007700.3008905.+	3007700	3008905	+	KZN_1435	1404696.1405901.-	1405901	1404696	-	H37Ra
2204355.2204963.-	2204963	2204355	-	KZN_1435	2228009.2228617.+	2228009	2228617	+	H37Ra
2044530.2044745.+	2044530	2044745	+	KZN_1435	2380500.2380715.-	2380715	2380500	-	H37Ra
369007.375621.-	375621	369007	-	KZN_1435	367512.374126.-	374126	367512	-	H37Ra
2264861.2265478.+	2264861	2265478	+	KZN_1435	2167314.2167931.-	2167931	2167314	-	H37Ra
3882888.3884066.+	3882888	3884066	+	KZN_1435	3903106.3904284.+	3903106	3904284	+	H37Ra
2878716.2879903.+	2878716	2879903	+	KZN_1435	3903106.3904284.+	3903106	3904284	+	H37Ra
3071769.3072941.-	3072941	3071769	-	KZN_1435	3903106.3904284.+	3903106	3904284	+	H37Ra
3134571.3135935.+	3134571	3135935	+	KZN_1435	1277610.1278974.-	1278974	1277610	-	H37Ra
2225720.2227084.-	2227084	2225720	-	KZN_1435	1277610.1278974.-	1278974	1277610	-	H37Ra
2525835.2526230.-	2526230	2525835	-	KZN_1435	1897990.1898385.+	1897990	1898385	+	H37Ra
1715646.1715975.-	1715975	1715646	-	KZN_1435	2709696.2710025.+	2709696	2710025	+	H37Ra
2113991.2122183.+	2113991	2122183	+	KZN_1435	2304431.2312623.-	2312623	2304431	-	H37Ra
3501998.3502555.+	3501998	3502555	+	KZN_1435	3513331.3513888.+	3513331	3513888	+	H37Ra
3423274.3424776.-	3424776	3423274	-	KZN_1435	988510.990012.+	988510	990012	+	H37Ra
1697374.1698207.+	1697374	1698207	+	KZN_1435	2727440.2728273.-	2728273	2727440	-	H37Ra
1506986.1507726.+	1506986	1507726	+	KZN_1435	2918057.2918797.-	2918797	2918057	-	H37Ra
2471655.2472071.+	2471655	2472071	+	KZN_1435	1952150.1952566.-	1952566	1952150	-	H37Ra
3002334.3002807.+	3002334	3002807	+	KZN_1435	1410794.1411267.-	1411267	1410794	-	H37Ra
1618978.1619739.+	1618978	1619739	+	KZN_1435	2807269.2808030.-	2808030	2807269	-	H37Ra
1288844.1289869.+	1288844	1289869	+	KZN_1435	3135958.3136983.-	3136983	3135958	-	H37Ra
71729.71968.+	71729	71968	+	KZN_1435	72947.73186.+	72947	73186	+	H37Ra
3479015.3479761.+	3479015	3479761	+	KZN_1435	933585.934331.-	934331	933585	-	H37Ra
1031091.1032401.+	1031091	1032401	+	KZN_1435	3493544.3494854.+	3493544	3494854	+	H37Ra
1583948.1585258.+	1583948	1585258	+	KZN_1435	3493544.3494854.+	3493544	3494854	+	H37Ra
3069625.3070935.+	3069625	3070935	+	KZN_1435	3493544.3494854.+	3493544	3494854	+	H37Ra
3241296.3242606.-	3242606	3241296	-	KZN_1435	3493544.3494854.+	3493544	3494854	+	H37Ra
3482211.3483521.+	3482211	3483521	+	KZN_1435	3493544.3494854.+	3493544	3494854	+	H37Ra
3530813.3531970.-	3531970	3530813	-	KZN_1435	3542146.3543303.-	3543303	3542146	-	H37Ra
53457.55802.+	53457	55802	+	KZN_1435	54712.57057.+	54712	57057	+	H37Ra
3147995.3149905.+	3147995	3149905	+	KZN_1435	1263582.1265492.-	1265492	1263582	-	H37Ra
2611654.2612502.-	2612502	2611654	-	KZN_1435	1811728.1812576.+	1811728	1812576	+	H37Ra
1168157.1170037.-	1170037	1168157	-	KZN_1435	3255560.3257440.+	3255560	3257440	+	H37Ra
3644099.3645022.-	3645022	3644099	-	KZN_1435	3656762.3657685.-	3657685	3656762	-	H37Ra
1056351.1056554.+	1056351	1056554	+	KZN_1435	3369394.3369597.-	3369597	3369394	-	H37Ra
2040658.2041299.-	2041299	2040658	-	KZN_1435	2383718.2384359.+	2383718	2384359	+	H37Ra
2756730.2757857.+	2756730	2757857	+	KZN_1435	1657126.1658253.-	1658253	1657126	-	H37Ra
1230768.1232057.+	1230768	1232057	+	KZN_1435	3193762.3195051.-	3195051	3193762	-	H37Ra
3702063.3702497.+	3702063	3702497	+	KZN_1435	3714847.3715281.+	3714847	3715281	+	H37Ra
1651299.1652915.-	1652915	1651299	-	KZN_1435	2772732.2774348.+	2772732	2774348	+	H37Ra
1031106.1032401.+	1031106	1032401	+	KZN_1435	3493559.3494854.+	3493559	3494854	+	H37Ra
1583963.1585258.+	1583963	1585258	+	KZN_1435	3493559.3494854.+	3493559	3494854	+	H37Ra
3069640.3070935.+	3069640	3070935	+	KZN_1435	3493559.3494854.+	3493559	3494854	+	H37Ra
3241296.3242591.-	3242591	3241296	-	KZN_1435	3493559.3494854.+	3493559	3494854	+	H37Ra
3482226.3483521.+	3482226	3483521	+	KZN_1435	3493559.3494854.+	3493559	3494854	+	H37Ra
2007550.2008335.+	2007550	2008335	+	KZN_1435	2416742.2417527.-	2417527	2416742	-	H37Ra
770783.771334.+	770783	771334	+	KZN_1435	771305.771856.+	771305	771856	+	H37Ra
2109056.2109418.+	2109056	2109418	+	KZN_1435	2317193.2317555.-	2317555	2317193	-	H37Ra
2446419.2449010.-	2449010	2446419	-	KZN_1435	1975154.1977745.+	1975154	1977745	+	H37Ra
878019.879656.-	879656	878019	-	KZN_1435	878124.879761.-	879761	878124	-	H37Ra
362625.364031.-	364031	362625	-	KZN_1435	361120.362526.-	362526	361120	-	H37Ra
103841.104800.-	104800	103841	-	KZN_1435	3892635.3893594.+	3892635	3893594	+	H37Ra
3873775.3874734.+	3873775	3874734	+	KZN_1435	3892635.3893594.+	3892635	3893594	+	H37Ra
2633309.2634271.+	2633309	2634271	+	KZN_1435	3892635.3893594.+	3892635	3893594	+	H37Ra
4119326.4120405.+	4119326	4120405	+	KZN_1435	4140886.4141965.+	4140886	4141965	+	H37Ra
3397422.3397580.-	3397580	3397422	-	KZN_1435	1015705.1015863.+	1015705	1015863	+	H37Ra
3489407.3489886.+	3489407	3489886	+	KZN_1435	3500740.3501219.+	3500740	3501219	+	H37Ra
799944.800591.-	800591	799944	-	KZN_1435	800466.801113.-	801113	800466	-	H37Ra
2836173.2836886.-	2836886	2836173	-	KZN_1435	1578129.1578842.+	1578129	1578842	+	H37Ra
1973269.1974207.+	1973269	1974207	+	KZN_1435	2452229.2453167.-	2453167	2452229	-	H37Ra
2825214.2825933.+	2825214	2825933	+	KZN_1435	1589082.1589801.-	1589801	1589082	-	H37Ra
545094.545444.+	545094	545444	+	KZN_1435	546145.546495.+	546145	546495	+	H37Ra
877520.877999.-	877999	877520	-	KZN_1435	877625.878104.-	878104	877625	-	H37Ra
1698329.1699555.+	1698329	1699555	+	KZN_1435	2726092.2727318.-	2727318	2726092	-	H37Ra
1833163.1833315.-	1833315	1833163	-	KZN_1435	2593181.2593333.+	2593181	2593333	+	H37Ra
2580443.2582140.+	2580443	2582140	+	KZN_1435	1842090.1843787.-	1843787	1842090	-	H37Ra
4295984.4297342.+	4295984	4297342	+	KZN_1435	4317484.4318842.+	4317484	4318842	+	H37Ra
1834842.1835168.+	1834842	1835168	+	KZN_1435	2591328.2591654.-	2591654	2591328	-	H37Ra
1621040.1622317.+	1621040	1622317	+	KZN_1435	2804691.2805968.-	2805968	2804691	-	H37Ra
3210310.3211386.-	3211386	3210310	-	KZN_1435	1201893.1202969.+	1201893	1202969	+	H37Ra
3179715.3180113.-	3180113	3179715	-	KZN_1435	1233374.1233772.+	1233374	1233772	+	H37Ra
1451374.1453710.+	1451374	1453710	+	KZN_1435	2972073.2974409.-	2974409	2972073	-	H37Ra
449394.449996.-	449996	449394	-	KZN_1435	447894.448496.-	448496	447894	-	H37Ra
2089209.2090144.-	2090144	2089209	-	KZN_1435	2336466.2337401.+	2336466	2337401	+	H37Ra
2800743.2801363.+	2800743	2801363	+	KZN_1435	1613652.1614251.-	1614251	1613652	-	H37Ra
1074017.1074688.-	1074688	1074017	-	KZN_1435	3351260.3351931.+	3351260	3351931	+	H37Ra
1340536.1341336.+	1340536	1341336	+	KZN_1435	3085648.3086448.-	3086448	3085648	-	H37Ra
3902990.3904342.-	3904342	3902990	-	KZN_1435	3923208.3924560.-	3924560	3923208	-	H37Ra
1373558.1374250.+	1373558	1374250	+	KZN_1435	3052734.3053426.-	3053426	3052734	-	H37Ra
2063224.2063571.+	2063224	2063571	+	KZN_1435	2362946.2363293.-	2363293	2362946	-	H37Ra
661514.663634.+	661514	663634	+	KZN_1435	662563.664683.+	662563	664683	+	H37Ra
998437.998841.+	998437	998841	+	KZN_1435	3427106.3427510.-	3427510	3427106	-	H37Ra
3589678.3590364.+	3589678	3590364	+	KZN_1435	3602354.3603040.+	3602354	3603040	+	H37Ra
4001666.4002553.+	4001666	4002553	+	KZN_1435	4024862.4025749.+	4024862	4025749	+	H37Ra
4371098.4372417.-	4372417	4371098	-	KZN_1435	4392593.4393912.-	4393912	4392593	-	H37Ra
3264939.3265430.-	3265430	3264939	-	KZN_1435	1147845.1148336.+	1147845	1148336	+	H37Ra
2492870.2493571.+	2492870	2493571	+	KZN_1435	1930649.1931350.-	1931350	1930649	-	H37Ra
2456705.2457166.-	2457166	2456705	-	KZN_1435	1966998.1967459.+	1966998	1967459	+	H37Ra
3211594.3212544.+	3211594	3212544	+	KZN_1435	1200735.1201685.-	1201685	1200735	-	H37Ra
3631759.3633183.+	3631759	3633183	+	KZN_1435	3644422.3645846.+	3644422	3645846	+	H37Ra
186434.186562.-	186562	186434	-	KZN_1435	187855.187983.-	187983	187855	-	H37Ra
2420358.2421593.-	2421593	2420358	-	KZN_1435	2012567.2013802.+	2012567	2013802	+	H37Ra
1787869.1789419.+	1787869	1789419	+	KZN_1435	2637076.2638626.-	2638626	2637076	-	H37Ra
932089.932925.-	932925	932089	-	KZN_1435	890803.891639.+	890803	891639	+	H37Ra
1292329.1293165.+	1292329	1293165	+	KZN_1435	890803.891639.+	890803	891639	+	H37Ra
1330496.1331332.-	1331332	1330496	-	KZN_1435	890803.891639.+	890803	891639	+	H37Ra
1605986.1606822.-	1606822	1605986	-	KZN_1435	890803.891639.+	890803	891639	+	H37Ra
1781593.1782429.+	1781593	1782429	+	KZN_1435	890803.891639.+	890803	891639	+	H37Ra
1861140.1861976.+	1861140	1861976	+	KZN_1435	890803.891639.+	890803	891639	+	H37Ra
2048612.2049448.+	2048612	2049448	+	KZN_1435	890803.891639.+	890803	891639	+	H37Ra
2050283.2051119.+	2050283	2051119	+	KZN_1435	890803.891639.+	890803	891639	+	H37Ra
2155671.2156507.-	2156507	2155671	-	KZN_1435	890803.891639.+	890803	891639	+	H37Ra
2375978.2376814.+	2375978	2376814	+	KZN_1435	890803.891639.+	890803	891639	+	H37Ra
2435226.2436062.+	2435226	2436062	+	KZN_1435	890803.891639.+	890803	891639	+	H37Ra
3480315.3481151.+	3480315	3481151	+	KZN_1435	890803.891639.+	890803	891639	+	H37Ra
3708737.3709573.-	3709573	3708737	-	KZN_1435	890803.891639.+	890803	891639	+	H37Ra
4063263.4064099.-	4064099	4063263	-	KZN_1435	890803.891639.+	890803	891639	+	H37Ra
2072461.2072691.-	2072691	2072461	-	KZN_1435	2353894.2354124.+	2353894	2354124	+	H37Ra
1429919.1430485.-	1430485	1429919	-	KZN_1435	2996656.2997222.+	2996656	2997222	+	H37Ra
518848.519300.+	518848	519300	+	KZN_1435	519899.520351.+	519899	520351	+	H37Ra
1099932.1100321.-	1100321	1099932	-	KZN_1435	3325275.3325664.+	3325275	3325664	+	H37Ra
4147457.4147840.-	4147840	4147457	-	KZN_1435	4168958.4169341.-	4169341	4168958	-	H37Ra
1433597.1433986.+	1433597	1433986	+	KZN_1435	2993155.2993544.-	2993544	2993155	-	H37Ra
95548.97023.+	95548	97023	+	KZN_1435	96775.98250.+	96775	98250	+	H37Ra
3828378.3829229.-	3829229	3828378	-	KZN_1435	3842372.3843163.-	3843163	3842372	-	H37Ra
806759.807166.+	806759	807166	+	KZN_1435	807065.807472.+	807065	807472	+	H37Ra
932089.932925.-	932925	932089	-	KZN_1435	2796625.2797461.-	2797461	2796625	-	H37Ra
1292329.1293165.+	1292329	1293165	+	KZN_1435	2796625.2797461.-	2797461	2796625	-	H37Ra
1330496.1331332.-	1331332	1330496	-	KZN_1435	2796625.2797461.-	2797461	2796625	-	H37Ra
1605986.1606822.-	1606822	1605986	-	KZN_1435	2796625.2797461.-	2797461	2796625	-	H37Ra
1781593.1782429.+	1781593	1782429	+	KZN_1435	2796625.2797461.-	2797461	2796625	-	H37Ra
1861140.1861976.+	1861140	1861976	+	KZN_1435	2796625.2797461.-	2797461	2796625	-	H37Ra
2048612.2049448.+	2048612	2049448	+	KZN_1435	2796625.2797461.-	2797461	2796625	-	H37Ra
2050283.2051119.+	2050283	2051119	+	KZN_1435	2796625.2797461.-	2797461	2796625	-	H37Ra
2155671.2156507.-	2156507	2155671	-	KZN_1435	2796625.2797461.-	2797461	2796625	-	H37Ra
2375978.2376814.+	2375978	2376814	+	KZN_1435	2796625.2797461.-	2797461	2796625	-	H37Ra
2435226.2436062.+	2435226	2436062	+	KZN_1435	2796625.2797461.-	2797461	2796625	-	H37Ra
3480315.3481151.+	3480315	3481151	+	KZN_1435	2796625.2797461.-	2797461	2796625	-	H37Ra
3708737.3709573.-	3709573	3708737	-	KZN_1435	2796625.2797461.-	2797461	2796625	-	H37Ra
4063263.4064099.-	4064099	4063263	-	KZN_1435	2796625.2797461.-	2797461	2796625	-	H37Ra
1008559.1008810.-	1008810	1008559	-	KZN_1435	3417137.3417388.+	3417137	3417388	+	H37Ra
257724.258845.-	258845	257724	-	KZN_1435	259145.260266.-	260266	259145	-	H37Ra
4165194.4167560.+	4165194	4167560	+	KZN_1435	4186695.4189061.+	4186695	4189061	+	H37Ra
3578633.3579418.+	3578633	3579418	+	KZN_1435	3591309.3592094.+	3591309	3592094	+	H37Ra
1361161.1361427.-	1361427	1361161	-	KZN_1435	3065557.3065823.+	3065557	3065823	+	H37Ra
1031106.1032401.+	1031106	1032401	+	KZN_1435	1342668.1343963.-	1343963	1342668	-	H37Ra
1583963.1585258.+	1583963	1585258	+	KZN_1435	1342668.1343963.-	1343963	1342668	-	H37Ra
3069640.3070935.+	3069640	3070935	+	KZN_1435	1342668.1343963.-	1343963	1342668	-	H37Ra
3241296.3242591.-	3242591	3241296	-	KZN_1435	1342668.1343963.-	1343963	1342668	-	H37Ra
3482226.3483521.+	3482226	3483521	+	KZN_1435	1342668.1343963.-	1343963	1342668	-	H37Ra
3141091.3142278.-	3142278	3141091	-	KZN_1435	1271267.1272454.+	1271267	1272454	+	H37Ra
1279228.1280118.+	1279228	1280118	+	KZN_1435	3145701.3146591.-	3146591	3145701	-	H37Ra
932089.932925.-	932925	932089	-	KZN_1435	1989483.1990319.-	1990319	1989483	-	H37Ra
1292329.1293165.+	1292329	1293165	+	KZN_1435	1989483.1990319.-	1990319	1989483	-	H37Ra
1330496.1331332.-	1331332	1330496	-	KZN_1435	1989483.1990319.-	1990319	1989483	-	H37Ra
1605986.1606822.-	1606822	1605986	-	KZN_1435	1989483.1990319.-	1990319	1989483	-	H37Ra
1781593.1782429.+	1781593	1782429	+	KZN_1435	1989483.1990319.-	1990319	1989483	-	H37Ra
1861140.1861976.+	1861140	1861976	+	KZN_1435	1989483.1990319.-	1990319	1989483	-	H37Ra
2048612.2049448.+	2048612	2049448	+	KZN_1435	1989483.1990319.-	1990319	1989483	-	H37Ra
2050283.2051119.+	2050283	2051119	+	KZN_1435	1989483.1990319.-	1990319	1989483	-	H37Ra
2155671.2156507.-	2156507	2155671	-	KZN_1435	1989483.1990319.-	1990319	1989483	-	H37Ra
2375978.2376814.+	2375978	2376814	+	KZN_1435	1989483.1990319.-	1990319	1989483	-	H37Ra
2435226.2436062.+	2435226	2436062	+	KZN_1435	1989483.1990319.-	1990319	1989483	-	H37Ra
3480315.3481151.+	3480315	3481151	+	KZN_1435	1989483.1990319.-	1990319	1989483	-	H37Ra
3708737.3709573.-	3709573	3708737	-	KZN_1435	1989483.1990319.-	1990319	1989483	-	H37Ra
4063263.4064099.-	4064099	4063263	-	KZN_1435	1989483.1990319.-	1990319	1989483	-	H37Ra
534704.534892.-	534892	534704	-	KZN_1435	535755.535943.-	535943	535755	-	H37Ra
3315471.3316889.+	3315471	3316889	+	KZN_1435	1096386.1097804.-	1097804	1096386	-	H37Ra
3621279.3623042.-	3623042	3621279	-	KZN_1435	3633942.3635705.-	3635705	3633942	-	H37Ra
2772838.2773845.+	2772838	2773845	+	KZN_1435	1641191.1642198.-	1642198	1641191	-	H37Ra
3231389.3232621.-	3232621	3231389	-	KZN_1435	1180654.1181886.+	1180654	1181886	+	H37Ra
274651.274845.-	274845	274651	-	KZN_1435	276072.276266.-	276266	276072	-	H37Ra
2163007.2163255.-	2163255	2163007	-	KZN_1435	2269717.2269965.+	2269717	2269965	+	H37Ra
1589212.1590558.+	1589212	1590558	+	KZN_1435	2835224.2836570.-	2836570	2835224	-	H37Ra
223546.223848.+	223546	223848	+	KZN_1435	224967.225269.+	224967	225269	+	H37Ra
965347.966372.+	965347	966372	+	KZN_1435	3459560.3460585.-	3460585	3459560	-	H37Ra
1111260.1113008.+	1111260	1113008	+	KZN_1435	3312588.3314336.-	3314336	3312588	-	H37Ra
3637992.3638363.-	3638363	3637992	-	KZN_1435	3650655.3651026.-	3651026	3650655	-	H37Ra
3860901.3862325.-	3862325	3860901	-	KZN_1435	3879761.3881185.-	3881185	3879761	-	H37Ra
2944668.2945099.-	2945099	2944668	-	KZN_1435	1468559.1468990.+	1468559	1468990	+	H37Ra
2394024.2394341.-	2394341	2394024	-	KZN_1435	2039818.2040135.+	2039818	2040135	+	H37Ra
3555418.3556602.-	3556602	3555418	-	KZN_1435	3568109.3569293.-	3569293	3568109	-	H37Ra
3146722.3147090.+	3146722	3147090	+	KZN_1435	1266397.1266765.-	1266765	1266397	-	H37Ra
2583541.2585760.-	2585760	2583541	-	KZN_1435	1838470.1840689.+	1838470	1840689	+	H37Ra
4338012.4339127.+	4338012	4339127	+	KZN_1435	4359512.4360627.+	4359512	4360627	+	H37Ra
2724236.2725522.-	2725522	2724236	-	KZN_1435	1689461.1690747.+	1689461	1690747	+	H37Ra
4192433.4192786.+	4192433	4192786	+	KZN_1435	4213933.4214286.+	4213933	4214286	+	H37Ra
1277228.1277497.+	1277228	1277497	+	KZN_1435	3148322.3148591.-	3148591	3148322	-	H37Ra
144140.145759.+	144140	145759	+	KZN_1435	145366.146985.+	145366	146985	+	H37Ra
3739572.3746990.-	3746990	3739572	-	KZN_1435	3752824.3760242.-	3760242	3752824	-	H37Ra
710836.711069.-	711069	710836	-	KZN_1435	711894.712127.-	712127	711894	-	H37Ra
2562954.2564012.-	2564012	2562954	-	KZN_1435	1860218.1861276.+	1860218	1861276	+	H37Ra
455157.456059.-	456059	455157	-	KZN_1435	453657.454559.-	454559	453657	-	H37Ra
144131.145759.+	144131	145759	+	KZN_1435	145357.146985.+	145357	146985	+	H37Ra
4238055.4239812.+	4238055	4239812	+	KZN_1435	4259555.4261312.+	4259555	4261312	+	H37Ra
1229260.1229979.-	1229979	1229260	-	KZN_1435	3195840.3196559.+	3195840	3196559	+	H37Ra
2424222.2424497.-	2424497	2424222	-	KZN_1435	2009663.2009938.+	2009663	2009938	+	H37Ra
1661451.1662017.+	1661451	1662017	+	KZN_1435	2763630.2764196.-	2764196	2763630	-	H37Ra
833058.833303.+	833058	833303	+	KZN_1435	833364.833609.+	833364	833609	+	H37Ra
843231.843476.+	843231	843476	+	KZN_1435	833364.833609.+	833364	833609	+	H37Ra
4156491.4157114.+	4156491	4157114	+	KZN_1435	4177992.4178615.+	4177992	4178615	+	H37Ra
932089.932925.-	932925	932089	-	KZN_1435	3132534.3133370.-	3133370	3132534	-	H37Ra
1292329.1293165.+	1292329	1293165	+	KZN_1435	3132534.3133370.-	3133370	3132534	-	H37Ra
1330496.1331332.-	1331332	1330496	-	KZN_1435	3132534.3133370.-	3133370	3132534	-	H37Ra
1605986.1606822.-	1606822	1605986	-	KZN_1435	3132534.3133370.-	3133370	3132534	-	H37Ra
1781593.1782429.+	1781593	1782429	+	KZN_1435	3132534.3133370.-	3133370	3132534	-	H37Ra
1861140.1861976.+	1861140	1861976	+	KZN_1435	3132534.3133370.-	3133370	3132534	-	H37Ra
2048612.2049448.+	2048612	2049448	+	KZN_1435	3132534.3133370.-	3133370	3132534	-	H37Ra
2050283.2051119.+	2050283	2051119	+	KZN_1435	3132534.3133370.-	3133370	3132534	-	H37Ra
2155671.2156507.-	2156507	2155671	-	KZN_1435	3132534.3133370.-	3133370	3132534	-	H37Ra
2375978.2376814.+	2375978	2376814	+	KZN_1435	3132534.3133370.-	3133370	3132534	-	H37Ra
2435226.2436062.+	2435226	2436062	+	KZN_1435	3132534.3133370.-	3133370	3132534	-	H37Ra
3480315.3481151.+	3480315	3481151	+	KZN_1435	3132534.3133370.-	3133370	3132534	-	H37Ra
3708737.3709573.-	3709573	3708737	-	KZN_1435	3132534.3133370.-	3133370	3132534	-	H37Ra
4063263.4064099.-	4064099	4063263	-	KZN_1435	3132534.3133370.-	3133370	3132534	-	H37Ra
945850.946170.-	946170	945850	-	KZN_1435	3479762.3480082.+	3479762	3480082	+	H37Ra
3289819.3291078.+	3289819	3291078	+	KZN_1435	1122197.1123456.-	1123456	1122197	-	H37Ra
714445.715518.+	714445	715518	+	KZN_1435	715503.716576.+	715503	716576	+	H37Ra
1651299.1652870.-	1652870	1651299	-	KZN_1435	2772777.2774348.+	2772777	2774348	+	H37Ra
456525.457076.-	457076	456525	-	KZN_1435	457631.458182.-	458182	457631	-	H37Ra
3584262.3584591.-	3584591	3584262	-	KZN_1435	3596938.3597267.-	3597267	3596938	-	H37Ra
1882625.1883263.-	1883263	1882625	-	KZN_1435	2543231.2543869.+	2543231	2543869	+	H37Ra
3512400.3512891.+	3512400	3512891	+	KZN_1435	3523733.3524224.+	3523733	3524224	+	H37Ra
4084811.4085884.-	4085884	4084811	-	KZN_1435	4106542.4107615.-	4107615	4106542	-	H37Ra
3318835.3321636.-	3321636	3318835	-	KZN_1435	1091651.1094452.+	1091651	1094452	+	H37Ra
831858.832661.+	831858	832661	+	KZN_1435	832164.832967.+	832164	832967	+	H37Ra
3595671.3595910.-	3595910	3595671	-	KZN_1435	3608334.3608573.-	3608573	3608334	-	H37Ra
462287.463564.+	462287	463564	+	KZN_1435	463338.464615.+	463338	464615	+	H37Ra
3245155.3246186.+	3245155	3246186	+	KZN_1435	1167089.1168120.-	1168120	1167089	-	H37Ra
1909438.1910196.-	1910196	1909438	-	KZN_1435	2516297.2517055.+	2516297	2517055	+	H37Ra
1062660.1063505.+	1062660	1063505	+	KZN_1435	3362443.3363288.-	3363288	3362443	-	H37Ra
2087715.2088488.+	2087715	2088488	+	KZN_1435	2338122.2338895.-	2338895	2338122	-	H37Ra
1821887.1822438.+	1821887	1822438	+	KZN_1435	2604058.2604609.-	2604609	2604058	-	H37Ra
1403144.1403617.+	1403144	1403617	+	KZN_1435	3023367.3023840.-	3023840	3023367	-	H37Ra
1555557.1555961.+	1555557	1555961	+	KZN_1435	2869821.2870225.-	2870225	2869821	-	H37Ra
3864639.3865907.+	3864639	3865907	+	KZN_1435	3883499.3884767.+	3883499	3884767	+	H37Ra
3795235.3795975.+	3795235	3795975	+	KZN_1435	3809846.3810586.+	3809846	3810586	+	H37Ra
3749083.3749574.-	3749574	3749083	-	KZN_1435	3762335.3762826.-	3762826	3762335	-	H37Ra
704676.705011.+	704676	705011	+	KZN_1435	705734.706069.+	705734	706069	+	H37Ra
4105245.4105406.-	4105406	4105245	-	KZN_1435	4126976.4127137.-	4127137	4126976	-	H37Ra
3836458.3836820.-	3836820	3836458	-	KZN_1435	3855360.3855680.-	3855680	3855360	-	H37Ra
52913.53347.+	52913	53347	+	KZN_1435	54168.54602.+	54168	54602	+	H37Ra
1334499.1335707.+	1334499	1335707	+	KZN_1435	3091277.3092485.-	3092485	3091277	-	H37Ra
1062708.1063505.+	1062708	1063505	+	KZN_1435	3362443.3363240.-	3363240	3362443	-	H37Ra
437693.438322.-	438322	437693	-	KZN_1435	436193.436822.-	436822	436193	-	H37Ra
1992897.1993532.+	1992897	1993532	+	KZN_1435	2431545.2432180.-	2432180	2431545	-	H37Ra
3838842.3839006.-	3839006	3838842	-	KZN_1435	3857702.3857866.-	3857866	3857702	-	H37Ra
3213888.3214178.-	3214178	3213888	-	KZN_1435	1199101.1199391.+	1199101	1199391	+	H37Ra
3353678.3354331.+	3353678	3354331	+	KZN_1435	1058954.1059607.-	1059607	1058954	-	H37Ra
2321283.2321927.-	2321927	2321283	-	KZN_1435	2110936.2111580.+	2110936	2111580	+	H37Ra
3662913.3663878.+	3662913	3663878	+	KZN_1435	3675639.3676604.+	3675639	3676604	+	H37Ra
3251550.3251873.+	3251550	3251873	+	KZN_1435	1161403.1161726.-	1161726	1161403	-	H37Ra
658579.659601.+	658579	659601	+	KZN_1435	659628.660650.+	659628	660650	+	H37Ra
403054.404589.+	403054	404589	+	KZN_1435	401530.403065.+	401530	403065	+	H37Ra
606706.608241.+	606706	608241	+	KZN_1435	401530.403065.+	401530	403065	+	H37Ra
4145160.4145867.+	4145160	4145867	+	KZN_1435	4166661.4167368.+	4166661	4167368	+	H37Ra
3019239.3022934.+	3019239	3022934	+	KZN_1435	1390667.1394362.-	1394362	1390667	-	H37Ra
3234724.3235080.-	3235080	3234724	-	KZN_1435	1178195.1178551.+	1178195	1178551	+	H37Ra
918754.919413.-	919413	918754	-	KZN_1435	920218.920877.-	920877	920218	-	H37Ra
2476179.2476286.-	2476286	2476179	-	KZN_1435	1947935.1948042.+	1947935	1948042	+	H37Ra
4280171.4286482.-	4286482	4280171	-	KZN_1435	4301671.4307982.-	4307982	4301671	-	H37Ra
4082255.4082830.-	4082830	4082255	-	KZN_1435	4103986.4104561.-	4104561	4103986	-	H37Ra
3790960.3791955.-	3791955	3790960	-	KZN_1435	3805571.3806566.-	3806566	3805571	-	H37Ra
712501.712971.+	712501	712971	+	KZN_1435	713559.714029.+	713559	714029	+	H37Ra
3481254.3481565.+	3481254	3481565	+	KZN_1435	3492587.3492898.+	3492587	3492898	+	H37Ra
1466704.1467432.-	1467432	1466704	-	KZN_1435	2958351.2959079.+	2958351	2959079	+	H37Ra
1868840.1869373.-	1869373	1868840	-	KZN_1435	2557123.2557656.+	2557123	2557656	+	H37Ra
4055885.4056598.+	4055885	4056598	+	KZN_1435	4078973.4079686.+	4078973	4079686	+	H37Ra
3865869.3866762.-	3866762	3865869	-	KZN_1435	3884729.3885622.-	3885622	3884729	-	H37Ra
1644795.1645418.+	1644795	1645418	+	KZN_1435	2780229.2780852.-	2780852	2780229	-	H37Ra
3316908.3317432.-	3317432	3316908	-	KZN_1435	1095843.1096367.+	1095843	1096367	+	H37Ra
2016433.2016714.-	2016714	2016433	-	KZN_1435	2408305.2408586.+	2408305	2408586	+	H37Ra
4081376.4081630.-	4081630	4081376	-	KZN_1435	4103107.4103361.-	4103361	4103107	-	H37Ra
2926397.2926579.+	2926397	2926579	+	KZN_1435	1487078.1487260.-	1487260	1487078	-	H37Ra
4080656.4081243.+	4080656	4081243	+	KZN_1435	4102387.4102974.+	4102387	4102974	+	H37Ra
3719711.3720457.+	3719711	3720457	+	KZN_1435	3734643.3735389.+	3734643	3735389	+	H37Ra
207391.208359.+	207391	208359	+	KZN_1435	208812.209780.+	208812	209780	+	H37Ra
2365446.2366390.-	2366390	2365446	-	KZN_1435	2066411.2067355.+	2066411	2067355	+	H37Ra
3942901.3943905.+	3942901	3943905	+	KZN_1435	3966094.3967098.+	3966094	3967098	+	H37Ra
768102.768422.-	768422	768102	-	KZN_1435	768623.768943.-	768943	768623	-	H37Ra
3196689.3196871.-	3196871	3196689	-	KZN_1435	1216534.1216716.+	1216534	1216716	+	H37Ra
544995.545381.-	545381	544995	-	KZN_1435	546046.546432.-	546432	546046	-	H37Ra
3395292.3395765.-	3395765	3395292	-	KZN_1435	1017520.1017993.+	1017520	1017993	+	H37Ra
3235062.3235400.-	3235400	3235062	-	KZN_1435	1177875.1178213.+	1177875	1178213	+	H37Ra
2638788.2639537.+	2638788	2639537	+	KZN_1435	1775445.1776194.-	1776194	1775445	-	H37Ra
2800701.2801363.+	2800701	2801363	+	KZN_1435	1613652.1614293.-	1614293	1613652	-	H37Ra
736550.737497.-	737497	736550	-	KZN_1435	737604.738551.-	738551	737604	-	H37Ra
1205461.1205886.+	1205461	1205886	+	KZN_1435	3219934.3220359.-	3220359	3219934	-	H37Ra
3394762.3395157.+	3394762	3395157	+	KZN_1435	1018128.1018523.-	1018523	1018128	-	H37Ra
57438.58076.+	57438	58076	+	KZN_1435	58693.59331.+	58693	59331	+	H37Ra
3238180.3239088.-	3239088	3238180	-	KZN_1435	1174187.1175095.+	1174187	1175095	+	H37Ra
932089.932925.-	932925	932089	-	KZN_1435	3721699.3722535.+	3721699	3722535	+	H37Ra
1292329.1293165.+	1292329	1293165	+	KZN_1435	3721699.3722535.+	3721699	3722535	+	H37Ra
1330496.1331332.-	1331332	1330496	-	KZN_1435	3721699.3722535.+	3721699	3722535	+	H37Ra
1605986.1606822.-	1606822	1605986	-	KZN_1435	3721699.3722535.+	3721699	3722535	+	H37Ra
1781593.1782429.+	1781593	1782429	+	KZN_1435	3721699.3722535.+	3721699	3722535	+	H37Ra
1861140.1861976.+	1861140	1861976	+	KZN_1435	3721699.3722535.+	3721699	3722535	+	H37Ra
2048612.2049448.+	2048612	2049448	+	KZN_1435	3721699.3722535.+	3721699	3722535	+	H37Ra
2050283.2051119.+	2050283	2051119	+	KZN_1435	3721699.3722535.+	3721699	3722535	+	H37Ra
2155671.2156507.-	2156507	2155671	-	KZN_1435	3721699.3722535.+	3721699	3722535	+	H37Ra
2375978.2376814.+	2375978	2376814	+	KZN_1435	3721699.3722535.+	3721699	3722535	+	H37Ra
2435226.2436062.+	2435226	2436062	+	KZN_1435	3721699.3722535.+	3721699	3722535	+	H37Ra
3480315.3481151.+	3480315	3481151	+	KZN_1435	3721699.3722535.+	3721699	3722535	+	H37Ra
3708737.3709573.-	3709573	3708737	-	KZN_1435	3721699.3722535.+	3721699	3722535	+	H37Ra
4063263.4064099.-	4064099	4063263	-	KZN_1435	3721699.3722535.+	3721699	3722535	+	H37Ra
3182793.3183464.-	3183464	3182793	-	KZN_1435	1230023.1230694.+	1230023	1230694	+	H37Ra
1370021.1370641.+	1370021	1370641	+	KZN_1435	3056343.3056963.-	3056963	3056343	-	H37Ra
2042801.2044438.+	2042801	2044438	+	KZN_1435	2380807.2382444.-	2382444	2380807	-	H37Ra
704237.704464.+	704237	704464	+	KZN_1435	705295.705522.+	705295	705522	+	H37Ra
2729462.2731333.-	2731333	2729462	-	KZN_1435	1683650.1685521.+	1683650	1685521	+	H37Ra
3860901.3862349.-	3862349	3860901	-	KZN_1435	3879761.3881209.-	3881209	3879761	-	H37Ra
932089.932925.-	932925	932089	-	KZN_1435	2984553.2985389.+	2984553	2985389	+	H37Ra
1292329.1293165.+	1292329	1293165	+	KZN_1435	2984553.2985389.+	2984553	2985389	+	H37Ra
1330496.1331332.-	1331332	1330496	-	KZN_1435	2984553.2985389.+	2984553	2985389	+	H37Ra
1605986.1606822.-	1606822	1605986	-	KZN_1435	2984553.2985389.+	2984553	2985389	+	H37Ra
1781593.1782429.+	1781593	1782429	+	KZN_1435	2984553.2985389.+	2984553	2985389	+	H37Ra
1861140.1861976.+	1861140	1861976	+	KZN_1435	2984553.2985389.+	2984553	2985389	+	H37Ra
2048612.2049448.+	2048612	2049448	+	KZN_1435	2984553.2985389.+	2984553	2985389	+	H37Ra
2050283.2051119.+	2050283	2051119	+	KZN_1435	2984553.2985389.+	2984553	2985389	+	H37Ra
2155671.2156507.-	2156507	2155671	-	KZN_1435	2984553.2985389.+	2984553	2985389	+	H37Ra
2375978.2376814.+	2375978	2376814	+	KZN_1435	2984553.2985389.+	2984553	2985389	+	H37Ra
2435226.2436062.+	2435226	2436062	+	KZN_1435	2984553.2985389.+	2984553	2985389	+	H37Ra
3480315.3481151.+	3480315	3481151	+	KZN_1435	2984553.2985389.+	2984553	2985389	+	H37Ra
3708737.3709573.-	3709573	3708737	-	KZN_1435	2984553.2985389.+	2984553	2985389	+	H37Ra
4063263.4064099.-	4064099	4063263	-	KZN_1435	2984553.2985389.+	2984553	2985389	+	H37Ra
3548366.3549730.+	3548366	3549730	+	KZN_1435	3559699.3561063.+	3559699	3561063	+	H37Ra
237833.238330.-	238330	237833	-	KZN_1435	239254.239751.-	239751	239254	-	H37Ra
1338123.1338413.+	1338123	1338413	+	KZN_1435	3088571.3088861.-	3088861	3088571	-	H37Ra
3458811.3459221.-	3459221	3458811	-	KZN_1435	954125.954535.+	954125	954535	+	H37Ra
3863254.3863949.+	3863254	3863949	+	KZN_1435	3882114.3882809.+	3882114	3882809	+	H37Ra
427081.427632.-	427632	427081	-	KZN_1435	425506.426057.-	426057	425506	-	H37Ra
3732935.3733951.-	3733951	3732935	-	KZN_1435	3746097.3747113.-	3747113	3746097	-	H37Ra
3490305.3491198.+	3490305	3491198	+	KZN_1435	3501638.3502531.+	3501638	3502531	+	H37Ra
566041.566655.+	566041	566655	+	KZN_1435	567092.567706.+	567092	567706	+	H37Ra
3324628.3326223.+	3324628	3326223	+	KZN_1435	1087064.1088659.-	1088659	1087064	-	H37Ra
2821552.2822034.-	2822034	2821552	-	KZN_1435	1592981.1593463.+	1592981	1593463	+	H37Ra
3597021.3597788.-	3597788	3597021	-	KZN_1435	3609684.3610451.-	3610451	3609684	-	H37Ra
1435482.1435847.+	1435482	1435847	+	KZN_1435	2991294.2991659.-	2991659	2991294	-	H37Ra
1687619.1687813.+	1687619	1687813	+	KZN_1435	2737834.2738028.-	2738028	2737834	-	H37Ra
882276.882665.-	882665	882276	-	KZN_1435	882381.882770.-	882770	882381	-	H37Ra
1035245.1035448.+	1035245	1035448	+	KZN_1435	3390498.3390701.-	3390701	3390498	-	H37Ra
4305193.4305702.-	4305702	4305193	-	KZN_1435	4326693.4327202.-	4327202	4326693	-	H37Ra
3072991.3073320.-	3073320	3072991	-	KZN_1435	1340284.1340613.+	1340284	1340613	+	H37Ra
3252556.3253050.+	3252556	3253050	+	KZN_1435	1160226.1160720.-	1160720	1160226	-	H37Ra
1368393.1370030.+	1368393	1370030	+	KZN_1435	3056954.3058591.-	3058591	3056954	-	H37Ra
2026848.2027915.+	2026848	2027915	+	KZN_1435	2397104.2398171.-	2398171	2397104	-	H37Ra
1702363.1703331.+	1702363	1703331	+	KZN_1435	2722319.2723287.-	2723287	2722319	-	H37Ra
3102965.3103345.-	3103345	3102965	-	KZN_1435	1310261.1310641.+	1310261	1310641	+	H37Ra
1031091.1032401.+	1031091	1032401	+	KZN_1435	2840524.2841834.-	2841834	2840524	-	H37Ra
1583948.1585258.+	1583948	1585258	+	KZN_1435	2840524.2841834.-	2841834	2840524	-	H37Ra
3069625.3070935.+	3069625	3070935	+	KZN_1435	2840524.2841834.-	2841834	2840524	-	H37Ra
3241296.3242606.-	3242606	3241296	-	KZN_1435	2840524.2841834.-	2841834	2840524	-	H37Ra
3482211.3483521.+	3482211	3483521	+	KZN_1435	2840524.2841834.-	2841834	2840524	-	H37Ra
3357736.3358236.-	3358236	3357736	-	KZN_1435	1055049.1055549.+	1055049	1055549	+	H37Ra
4001822.4002553.+	4001822	4002553	+	KZN_1435	4025018.4025749.+	4025018	4025749	+	H37Ra
510636.510914.-	510914	510636	-	KZN_1435	511687.511965.-	511965	511687	-	H37Ra
3520096.3521337.+	3520096	3521337	+	KZN_1435	3531429.3532670.+	3531429	3532670	+	H37Ra
1906335.1907150.-	1907150	1906335	-	KZN_1435	2519343.2520158.+	2519343	2520158	+	H37Ra
1985906.1986940.+	1985906	1986940	+	KZN_1435	2438137.2439171.-	2439171	2438137	-	H37Ra
3750154.3751098.-	3751098	3750154	-	KZN_1435	3763406.3764350.-	3764350	3763406	-	H37Ra
218650.219306.+	218650	219306	+	KZN_1435	220071.220727.+	220071	220727	+	H37Ra
1468785.1470215.+	1468785	1470215	+	KZN_1435	2955568.2956998.-	2956998	2955568	-	H37Ra
315723.316376.-	316376	315723	-	KZN_1435	317145.317798.-	317798	317145	-	H37Ra
1700797.1702350.+	1700797	1702350	+	KZN_1435	2723300.2724853.-	2724853	2723300	-	H37Ra
1963238.1964419.+	1963238	1964419	+	KZN_1435	2462017.2463198.-	2463198	2462017	-	H37Ra
3547860.3548153.+	3547860	3548153	+	KZN_1435	3559193.3559486.+	3559193	3559486	+	H37Ra
2053419.2055968.-	2055968	2053419	-	KZN_1435	2370634.2373183.+	2370634	2373183	+	H37Ra
2847007.2848260.-	2848260	2847007	-	KZN_1435	1566754.1568007.+	1566754	1568007	+	H37Ra
34409.36643.+	34409	36643	+	KZN_1435	35665.37968.+	35665	37968	+	H37Ra
2338166.2338366.-	2338366	2338166	-	KZN_1435	2094491.2094691.+	2094491	2094691	+	H37Ra
2352244.2353173.-	2353173	2352244	-	KZN_1435	2079628.2080557.+	2079628	2080557	+	H37Ra
931420.931971.-	931971	931420	-	KZN_1435	932884.933435.-	933435	932884	-	H37Ra
3134436.3135935.+	3134436	3135935	+	KZN_1435	1277610.1279109.-	1279109	1277610	-	H37Ra
855023.855355.-	855355	855023	-	KZN_1435	855131.855463.-	855463	855131	-	H37Ra
2882255.2884867.-	2884867	2882255	-	KZN_1435	1528789.1531401.+	1528789	1531401	+	H37Ra
3135375.3135935.+	3135375	3135935	+	KZN_1435	1277610.1278170.-	1278170	1277610	-	H37Ra
2210214.2211458.-	2211458	2210214	-	KZN_1435	2221514.2222758.+	2221514	2222758	+	H37Ra
4080698.4081243.+	4080698	4081243	+	KZN_1435	4102429.4102974.+	4102429	4102974	+	H37Ra
1032684.1033097.+	1032684	1033097	+	KZN_1435	3392849.3393262.-	3393262	3392849	-	H37Ra
1089110.1089895.+	1089110	1089895	+	KZN_1435	3335701.3336486.-	3336486	3335701	-	H37Ra
1834845.1835168.+	1834845	1835168	+	KZN_1435	2591328.2591651.-	2591651	2591328	-	H37Ra
1050093.1050440.-	1050440	1050093	-	KZN_1435	3375508.3375855.+	3375508	3375855	+	H37Ra
2986347.2986853.+	2986347	2986853	+	KZN_1435	1426748.1427254.-	1427254	1426748	-	H37Ra
3983213.3985108.+	3983213	3985108	+	KZN_1435	4006406.4008304.+	4006406	4008304	+	H37Ra
1382518.1383228.-	1383228	1382518	-	KZN_1435	3043756.3044466.+	3043756	3044466	+	H37Ra
877890.878030.+	877890	878030	+	KZN_1435	877995.878135.+	877995	878135	+	H37Ra
3493991.3494341.-	3494341	3493991	-	KZN_1435	3505324.3505674.-	3505674	3505324	-	H37Ra
3803954.3805534.-	3805534	3803954	-	KZN_1435	3818120.3819700.-	3819700	3818120	-	H37Ra
4082039.4082245.-	4082245	4082039	-	KZN_1435	4103770.4103976.-	4103976	4103770	-	H37Ra
3607901.3608503.-	3608503	3607901	-	KZN_1435	3620564.3621166.-	3621166	3620564	-	H37Ra
1393181.1393468.+	1393181	1393468	+	KZN_1435	3033516.3033803.-	3033803	3033516	-	H37Ra
3335720.3336682.+	3335720	3336682	+	KZN_1435	1076605.1077567.-	1077567	1076605	-	H37Ra
4256786.4257286.-	4257286	4256786	-	KZN_1435	4278286.4278786.-	4278786	4278286	-	H37Ra
941887.942363.+	941887	942363	+	KZN_1435	3483569.3484045.-	3484045	3483569	-	H37Ra
632004.632636.+	632004	632636	+	KZN_1435	633053.633685.+	633053	633685	+	H37Ra
183354.183500.+	183354	183500	+	KZN_1435	184775.184921.+	184775	184921	+	H37Ra
474009.474365.+	474009	474365	+	KZN_1435	475060.475416.+	475060	475416	+	H37Ra
476075.476443.+	476075	476443	+	KZN_1435	475060.475416.+	475060	475416	+	H37Ra
614505.614909.-	614909	614505	-	KZN_1435	615636.616040.-	616040	615636	-	H37Ra
3556905.3557087.-	3557087	3556905	-	KZN_1435	3569581.3569763.-	3569763	3569581	-	H37Ra
4115637.4116086.-	4116086	4115637	-	KZN_1435	4137197.4137646.-	4137646	4137197	-	H37Ra
3581907.3582893.-	3582893	3581907	-	KZN_1435	3594583.3595569.-	3595569	3594583	-	H37Ra
104936.105232.-	105232	104936	-	KZN_1435	106163.106459.-	106459	106163	-	H37Ra
1311471.1312076.+	1311471	1312076	+	KZN_1435	3113549.3114154.-	3114154	3113549	-	H37Ra
1656960.1658936.+	1656960	1658936	+	KZN_1435	2766711.2768687.-	2768687	2766711	-	H37Ra
4297359.4297760.+	4297359	4297760	+	KZN_1435	4318859.4319260.+	4318859	4319260	+	H37Ra
3436009.3437688.+	3436009	3437688	+	KZN_1435	975597.977276.-	977276	975597	-	H37Ra
1901347.1904139.-	1904139	1901347	-	KZN_1435	2522354.2525146.+	2522354	2525146	+	H37Ra
4094175.4094384.+	4094175	4094384	+	KZN_1435	4115906.4116115.+	4115906	4116115	+	H37Ra
1910208.1910384.+	1910208	1910384	+	KZN_1435	2516109.2516285.-	2516285	2516109	-	H37Ra
3472636.3473964.-	3473964	3472636	-	KZN_1435	939382.940710.+	939382	940710	+	H37Ra
3346993.3347865.+	3346993	3347865	+	KZN_1435	1065422.1066294.-	1066294	1065422	-	H37Ra
847357.849111.+	847357	849111	+	KZN_1435	847465.849219.+	847465	849219	+	H37Ra
3455752.3456990.-	3456990	3455752	-	KZN_1435	956356.957594.+	956356	957594	+	H37Ra
4342049.4343488.+	4342049	4343488	+	KZN_1435	4363549.4364988.+	4363549	4364988	+	H37Ra
1806863.1807618.-	1807618	1806863	-	KZN_1435	2618877.2619632.+	2618877	2619632	+	H37Ra
2157073.2157801.-	2157801	2157073	-	KZN_1435	2275171.2275899.+	2275171	2275899	+	H37Ra
1797587.1798924.+	1797587	1798924	+	KZN_1435	2627571.2628908.-	2628908	2627571	-	H37Ra
352802.354343.+	352802	354343	+	KZN_1435	351297.352838.+	351297	352838	+	H37Ra
1031091.1032401.+	1031091	1032401	+	KZN_1435	1170669.1171979.+	1170669	1171979	+	H37Ra
1583948.1585258.+	1583948	1585258	+	KZN_1435	1170669.1171979.+	1170669	1171979	+	H37Ra
3069625.3070935.+	3069625	3070935	+	KZN_1435	1170669.1171979.+	1170669	1171979	+	H37Ra
3241296.3242606.-	3242606	3241296	-	KZN_1435	1170669.1171979.+	1170669	1171979	+	H37Ra
3482211.3483521.+	3482211	3483521	+	KZN_1435	1170669.1171979.+	1170669	1171979	+	H37Ra
3072991.3073290.-	3073290	3072991	-	KZN_1435	1340314.1340613.+	1340314	1340613	+	H37Ra
2451486.2451671.+	2451486	2451671	+	KZN_1435	1972493.1972678.-	1972678	1972493	-	H37Ra
2998351.2998965.-	2998965	2998351	-	KZN_1435	1414636.1415250.+	1414636	1415250	+	H37Ra
4119275.4120405.+	4119275	4120405	+	KZN_1435	4140835.4141965.+	4140835	4141965	+	H37Ra
781439.782095.+	781439	782095	+	KZN_1435	781961.782617.+	781961	782617	+	H37Ra
4196528.4198048.-	4198048	4196528	-	KZN_1435	4218028.4219548.-	4219548	4218028	-	H37Ra
3380109.3381356.+	3380109	3381356	+	KZN_1435	1031886.1033175.-	1033175	1031886	-	H37Ra
2360135.2361691.+	2360135	2361691	+	KZN_1435	2071110.2072666.-	2072666	2071110	-	H37Ra
3555418.3556476.-	3556476	3555418	-	KZN_1435	3568109.3569167.-	3569167	3568109	-	H37Ra
1123097.1123636.-	1123636	1123097	-	KZN_1435	3301959.3302498.+	3301959	3302498	+	H37Ra
3330924.3333302.-	3333302	3330924	-	KZN_1435	1079985.1082363.+	1079985	1082363	+	H37Ra
3204321.3204671.-	3204671	3204321	-	KZN_1435	1208608.1208958.+	1208608	1208958	+	H37Ra
2951058.2951345.-	2951345	2951058	-	KZN_1435	1462313.1462600.+	1462313	1462600	+	H37Ra
3112092.3112412.+	3112092	3112412	+	KZN_1435	1301132.1301452.-	1301452	1301132	-	H37Ra
3637437.3637964.+	3637437	3637964	+	KZN_1435	3650100.3650627.+	3650100	3650627	+	H37Ra
932089.932925.-	932925	932089	-	KZN_1435	2648021.2648857.+	2648021	2648857	+	H37Ra
1292329.1293165.+	1292329	1293165	+	KZN_1435	2648021.2648857.+	2648021	2648857	+	H37Ra
1330496.1331332.-	1331332	1330496	-	KZN_1435	2648021.2648857.+	2648021	2648857	+	H37Ra
1605986.1606822.-	1606822	1605986	-	KZN_1435	2648021.2648857.+	2648021	2648857	+	H37Ra
1781593.1782429.+	1781593	1782429	+	KZN_1435	2648021.2648857.+	2648021	2648857	+	H37Ra
1861140.1861976.+	1861140	1861976	+	KZN_1435	2648021.2648857.+	2648021	2648857	+	H37Ra
2048612.2049448.+	2048612	2049448	+	KZN_1435	2648021.2648857.+	2648021	2648857	+	H37Ra
2050283.2051119.+	2050283	2051119	+	KZN_1435	2648021.2648857.+	2648021	2648857	+	H37Ra
2155671.2156507.-	2156507	2155671	-	KZN_1435	2648021.2648857.+	2648021	2648857	+	H37Ra
2375978.2376814.+	2375978	2376814	+	KZN_1435	2648021.2648857.+	2648021	2648857	+	H37Ra
2435226.2436062.+	2435226	2436062	+	KZN_1435	2648021.2648857.+	2648021	2648857	+	H37Ra
3480315.3481151.+	3480315	3481151	+	KZN_1435	2648021.2648857.+	2648021	2648857	+	H37Ra
3708737.3709573.-	3709573	3708737	-	KZN_1435	2648021.2648857.+	2648021	2648857	+	H37Ra
4063263.4064099.-	4064099	4063263	-	KZN_1435	2648021.2648857.+	2648021	2648857	+	H37Ra
988659.990461.+	988659	990461	+	KZN_1435	3435418.3437220.-	3437220	3435418	-	H37Ra
412242.413687.+	412242	413687	+	KZN_1435	410718.412163.+	410718	412163	+	H37Ra
836059.836205.-	836205	836059	-	KZN_1435	836365.836511.-	836511	836365	-	H37Ra
223938.224603.+	223938	224603	+	KZN_1435	225359.226024.+	225359	226024	+	H37Ra
2105791.2108580.+	2105791	2108580	+	KZN_1435	2318031.2320820.-	2320820	2318031	-	H37Ra
4083651.4084814.-	4084814	4083651	-	KZN_1435	4105382.4106545.-	4106545	4105382	-	H37Ra
1914959.1915660.-	1915660	1914959	-	KZN_1435	2510833.2511534.+	2510833	2511534	+	H37Ra
1943349.1944095.-	1944095	1943349	-	KZN_1435	2482398.2483144.+	2482398	2483144	+	H37Ra
1893417.1894304.-	1894304	1893417	-	KZN_1435	2532190.2533077.+	2532190	2533077	+	H37Ra
386518.387372.+	386518	387372	+	KZN_1435	384994.385848.+	384994	385848	+	H37Ra
2307454.2309790.-	2309790	2307454	-	KZN_1435	2123072.2125408.+	2123072	2125408	+	H37Ra
3751189.3751425.-	3751425	3751189	-	KZN_1435	3764441.3764677.-	3764677	3764441	-	H37Ra
3273059.3273667.-	3273667	3273059	-	KZN_1435	1139608.1140216.+	1139608	1140216	+	H37Ra
4355464.4357182.-	4357182	4355464	-	KZN_1435	4376964.4378682.-	4378682	4376964	-	H37Ra
3118831.3119496.-	3119496	3118831	-	KZN_1435	1294048.1294713.+	1294048	1294713	+	H37Ra
142261.144018.-	144018	142261	-	KZN_1435	143487.145244.-	145244	143487	-	H37Ra
2638033.2638605.+	2638033	2638605	+	KZN_1435	1776377.1776949.-	1776949	1776377	-	H37Ra
1998772.2000241.+	1998772	2000241	+	KZN_1435	2424836.2426305.-	2426305	2424836	-	H37Ra
1329192.1330283.+	1329192	1330283	+	KZN_1435	3095342.3096433.-	3096433	3095342	-	H37Ra
2569834.2570388.-	2570388	2569834	-	KZN_1435	1853842.1854396.+	1853842	1854396	+	H37Ra
3247532.3247804.+	3247532	3247804	+	KZN_1435	1165472.1165744.-	1165744	1165472	-	H37Ra
606706.608241.+	606706	608241	+	KZN_1435	607837.609372.+	607837	609372	+	H37Ra
403054.404589.+	403054	404589	+	KZN_1435	607837.609372.+	607837	609372	+	H37Ra
4115637.4115975.-	4115975	4115637	-	KZN_1435	4137197.4137535.-	4137535	4137197	-	H37Ra
655185.656270.-	656270	655185	-	KZN_1435	656234.657319.-	657319	656234	-	H37Ra
1391584.1392621.-	1392621	1391584	-	KZN_1435	3034363.3035400.+	3034363	3035400	+	H37Ra
3992801.3994189.-	3994189	3992801	-	KZN_1435	4015997.4017385.-	4017385	4015997	-	H37Ra
1031106.1032401.+	1031106	1032401	+	KZN_1435	1170684.1171979.+	1170684	1171979	+	H37Ra
1583963.1585258.+	1583963	1585258	+	KZN_1435	1170684.1171979.+	1170684	1171979	+	H37Ra
3069640.3070935.+	3069640	3070935	+	KZN_1435	1170684.1171979.+	1170684	1171979	+	H37Ra
3241296.3242591.-	3242591	3241296	-	KZN_1435	1170684.1171979.+	1170684	1171979	+	H37Ra
3482226.3483521.+	3482226	3483521	+	KZN_1435	1170684.1171979.+	1170684	1171979	+	H37Ra
3040589.3040762.-	3040762	3040589	-	KZN_1435	1372839.1373012.+	1372839	1373012	+	H37Ra
4014438.4015256.-	4015256	4014438	-	KZN_1435	4037634.4038452.-	4038452	4037634	-	H37Ra
2621813.2623147.-	2623147	2621813	-	KZN_1435	1801083.1802417.+	1801083	1802417	+	H37Ra
1031106.1032401.+	1031106	1032401	+	KZN_1435	3393545.3394840.-	3394840	3393545	-	H37Ra
1583963.1585258.+	1583963	1585258	+	KZN_1435	3393545.3394840.-	3394840	3393545	-	H37Ra
3069640.3070935.+	3069640	3070935	+	KZN_1435	3393545.3394840.-	3394840	3393545	-	H37Ra
3241296.3242591.-	3242591	3241296	-	KZN_1435	3393545.3394840.-	3394840	3393545	-	H37Ra
3482226.3483521.+	3482226	3483521	+	KZN_1435	3393545.3394840.-	3394840	3393545	-	H37Ra
4289732.4290337.-	4290337	4289732	-	KZN_1435	4311232.4311837.-	4311837	4311232	-	H37Ra
2335962.2338169.+	2335962	2338169	+	KZN_1435	2094688.2096895.-	2096895	2094688	-	H37Ra
3242543.3243331.+	3242543	3243331	+	KZN_1435	1169944.1170732.-	1170732	1169944	-	H37Ra
2709370.2710416.-	2710416	2709370	-	KZN_1435	1704567.1705613.+	1704567	1705613	+	H37Ra
906247.907134.+	906247	907134	+	KZN_1435	907711.908598.+	907711	908598	+	H37Ra
3443683.3444099.-	3444099	3443683	-	KZN_1435	969195.969611.+	969195	969611	+	H37Ra
2832632.2833159.-	2833159	2832632	-	KZN_1435	1581856.1582383.+	1581856	1582383	+	H37Ra
676284.676562.+	676284	676562	+	KZN_1435	677342.677620.+	677342	677620	+	H37Ra
1270208.1271518.+	1270208	1271518	+	KZN_1435	3154301.3155611.-	3155611	3154301	-	H37Ra
3721793.3722005.-	3722005	3721793	-	KZN_1435	3736725.3736937.-	3736937	3736725	-	H37Ra
1962798.1963076.+	1962798	1963076	+	KZN_1435	2463360.2463638.-	2463638	2463360	-	H37Ra
545634.546161.-	546161	545634	-	KZN_1435	546685.547212.-	547212	546685	-	H37Ra
2844120.2845595.+	2844120	2845595	+	KZN_1435	1569419.1570894.-	1570894	1569419	-	H37Ra
1676671.1678887.+	1676671	1678887	+	KZN_1435	2746760.2748976.-	2748976	2746760	-	H37Ra
3698413.3698583.-	3698583	3698413	-	KZN_1435	3711197.3711367.-	3711367	3711197	-	H37Ra
591654.591755.+	591654	591755	+	KZN_1435	592785.592886.+	592785	592886	+	H37Ra
882891.883619.+	882891	883619	+	KZN_1435	882996.883724.+	882996	883724	+	H37Ra
738549.739469.-	739469	738549	-	KZN_1435	739603.740523.-	740523	739603	-	H37Ra
932089.932925.-	932925	932089	-	KZN_1435	2440061.2440897.-	2440897	2440061	-	H37Ra
1292329.1293165.+	1292329	1293165	+	KZN_1435	2440061.2440897.-	2440897	2440061	-	H37Ra
1330496.1331332.-	1331332	1330496	-	KZN_1435	2440061.2440897.-	2440897	2440061	-	H37Ra
1605986.1606822.-	1606822	1605986	-	KZN_1435	2440061.2440897.-	2440897	2440061	-	H37Ra
1781593.1782429.+	1781593	1782429	+	KZN_1435	2440061.2440897.-	2440897	2440061	-	H37Ra
1861140.1861976.+	1861140	1861976	+	KZN_1435	2440061.2440897.-	2440897	2440061	-	H37Ra
2048612.2049448.+	2048612	2049448	+	KZN_1435	2440061.2440897.-	2440897	2440061	-	H37Ra
2050283.2051119.+	2050283	2051119	+	KZN_1435	2440061.2440897.-	2440897	2440061	-	H37Ra
2155671.2156507.-	2156507	2155671	-	KZN_1435	2440061.2440897.-	2440897	2440061	-	H37Ra
2375978.2376814.+	2375978	2376814	+	KZN_1435	2440061.2440897.-	2440897	2440061	-	H37Ra
2435226.2436062.+	2435226	2436062	+	KZN_1435	2440061.2440897.-	2440897	2440061	-	H37Ra
3480315.3481151.+	3480315	3481151	+	KZN_1435	2440061.2440897.-	2440897	2440061	-	H37Ra
3708737.3709573.-	3709573	3708737	-	KZN_1435	2440061.2440897.-	2440897	2440061	-	H37Ra
4063263.4064099.-	4064099	4063263	-	KZN_1435	2440061.2440897.-	2440897	2440061	-	H37Ra
530555.530941.-	530941	530555	-	KZN_1435	531606.531992.-	531992	531606	-	H37Ra
3219803.3221212.+	3219803	3221212	+	KZN_1435	1192066.1193475.-	1193475	1192066	-	H37Ra
849301.851241.-	851241	849301	-	KZN_1435	849409.851349.-	851349	849409	-	H37Ra
2393584.2393703.-	2393703	2393584	-	KZN_1435	2040456.2040575.+	2040456	2040575	+	H37Ra
4290344.4291969.-	4291969	4290344	-	KZN_1435	4311844.4313469.-	4313469	4311844	-	H37Ra
131404.133005.+	131404	133005	+	KZN_1435	132630.134231.+	132630	134231	+	H37Ra
2297882.2298100.+	2297882	2298100	+	KZN_1435	2134762.2134980.-	2134980	2134762	-	H37Ra
677377.677943.-	677943	677377	-	KZN_1435	678435.679001.-	679001	678435	-	H37Ra
3226226.3227110.-	3227110	3226226	-	KZN_1435	1186165.1187049.+	1186165	1187049	+	H37Ra
3641034.3641147.+	3641034	3641147	+	KZN_1435	3653697.3653810.+	3653697	3653810	+	H37Ra
2035355.2035870.+	2035355	2035870	+	KZN_1435	2389147.2389662.-	2389662	2389147	-	H37Ra
2208946.2210187.-	2210187	2208946	-	KZN_1435	2222785.2224026.+	2222785	2224026	+	H37Ra
3337558.3337905.-	3337905	3337558	-	KZN_1435	1075382.1075729.+	1075382	1075729	+	H37Ra
3407494.3408024.-	3408024	3407494	-	KZN_1435	1005261.1005791.+	1005261	1005791	+	H37Ra
4207966.4209594.+	4207966	4209594	+	KZN_1435	4229466.4231094.+	4229466	4231094	+	H37Ra
1300863.1301228.-	1301228	1300863	-	KZN_1435	3124397.3124762.+	3124397	3124762	+	H37Ra
3046485.3047066.-	3047066	3046485	-	KZN_1435	1366537.1367118.+	1366537	1367118	+	H37Ra
4002559.4003773.-	4003773	4002559	-	KZN_1435	4025755.4026969.-	4026969	4025755	-	H37Ra
4140746.4142560.+	4140746	4142560	+	KZN_1435	4162306.4164120.+	4162306	4164120	+	H37Ra
1026857.1027702.+	1026857	1027702	+	KZN_1435	3398244.3399089.-	3399089	3398244	-	H37Ra
1389679.1390746.+	1389679	1390746	+	KZN_1435	3036238.3037305.-	3037305	3036238	-	H37Ra
977463.977978.+	977463	977978	+	KZN_1435	3447954.3448469.-	3448469	3447954	-	H37Ra
1640115.1640519.-	1640519	1640115	-	KZN_1435	2785128.2785532.+	2785128	2785532	+	H37Ra
1095619.1096137.-	1096137	1095619	-	KZN_1435	3329459.3329977.+	3329459	3329977	+	H37Ra
2845668.2846888.-	2846888	2845668	-	KZN_1435	1568126.1569346.+	1568126	1569346	+	H37Ra
1976470.1976652.+	1976470	1976652	+	KZN_1435	2449783.2449965.-	2449965	2449783	-	H37Ra
1735054.1736037.-	1736037	1735054	-	KZN_1435	2689634.2690617.+	2689634	2690617	+	H37Ra
3647489.3648229.+	3647489	3648229	+	KZN_1435	3660152.3660892.+	3660152	3660892	+	H37Ra
1737869.1742110.+	1737869	1742110	+	KZN_1435	2683561.2687802.-	2687802	2683561	-	H37Ra
1388169.1389584.-	1389584	1388169	-	KZN_1435	3037400.3038815.+	3037400	3038815	+	H37Ra
4311999.4312424.+	4311999	4312424	+	KZN_1435	4333499.4333924.+	4333499	4333924	+	H37Ra
2436240.2437751.+	2436240	2437751	+	KZN_1435	1986497.1988008.-	1988008	1986497	-	H37Ra
2670614.2671288.-	2671288	2670614	-	KZN_1435	1743695.1744369.+	1743695	1744369	+	H37Ra
1359525.1361102.-	1361102	1359525	-	KZN_1435	3065882.3067459.+	3065882	3067459	+	H37Ra
4112259.4113365.+	4112259	4113365	+	KZN_1435	4133819.4134925.+	4133819	4134925	+	H37Ra
594050.595018.-	595018	594050	-	KZN_1435	595181.596149.-	596149	595181	-	H37Ra
2593915.2594541.-	2594541	2593915	-	KZN_1435	1829689.1830315.+	1829689	1830315	+	H37Ra
1842885.1843544.-	1843544	1842885	-	KZN_1435	2582952.2583611.+	2582952	2583611	+	H37Ra
364108.366039.+	364108	366039	+	KZN_1435	362603.364471.+	362603	364471	+	H37Ra
3687580.3689025.-	3689025	3687580	-	KZN_1435	3700240.3701751.-	3701751	3700240	-	H37Ra
3598755.3598943.+	3598755	3598943	+	KZN_1435	3611418.3611606.+	3611418	3611606	+	H37Ra
4251509.4252441.-	4252441	4251509	-	KZN_1435	4273009.4273941.-	4273941	4273009	-	H37Ra
3233150.3233362.+	3233150	3233362	+	KZN_1435	1179913.1180125.-	1180125	1179913	-	H37Ra
53340.55802.+	53340	55802	+	KZN_1435	54595.57057.+	54595	57057	+	H37Ra
1276803.1277207.+	1276803	1277207	+	KZN_1435	3148612.3149016.-	3149016	3148612	-	H37Ra
4222257.4222685.+	4222257	4222685	+	KZN_1435	4243757.4244185.+	4243757	4244185	+	H37Ra
551969.552247.+	551969	552247	+	KZN_1435	553020.553298.+	553020	553298	+	H37Ra
2377385.2379304.+	2377385	2379304	+	KZN_1435	2054855.2056774.-	2056774	2054855	-	H37Ra
4081716.4082015.-	4082015	4081716	-	KZN_1435	4103447.4103746.-	4103746	4103447	-	H37Ra
563826.565193.+	563826	565193	+	KZN_1435	564877.566244.+	564877	566244	+	H37Ra
1687818.1688084.+	1687818	1688084	+	KZN_1435	2737563.2737829.-	2737829	2737563	-	H37Ra
4187328.4188272.+	4187328	4188272	+	KZN_1435	4208828.4209772.+	4208828	4209772	+	H37Ra
2701398.2702471.-	2702471	2701398	-	KZN_1435	1712512.1713585.+	1712512	1713585	+	H37Ra
133048.133902.+	133048	133902	+	KZN_1435	134274.135128.+	134274	135128	+	H37Ra
2878716.2879903.+	2878716	2879903	+	KZN_1435	1533753.1534940.-	1534940	1533753	-	H37Ra
3882888.3884066.+	3882888	3884066	+	KZN_1435	1533753.1534940.-	1534940	1533753	-	H37Ra
3071769.3072941.-	3072941	3071769	-	KZN_1435	1533753.1534940.-	1534940	1533753	-	H37Ra
254578.255909.-	255909	254578	-	KZN_1435	255999.257330.-	257330	255999	-	H37Ra
1821204.1821893.+	1821204	1821893	+	KZN_1435	2604603.2605292.-	2605292	2604603	-	H37Ra
1719819.1720967.-	1720967	1719819	-	KZN_1435	2704704.2705852.+	2704704	2705852	+	H37Ra
3025542.3027302.+	3025542	3027302	+	KZN_1435	1386299.1388059.-	1388059	1386299	-	H37Ra
1746441.1751636.+	1746441	1751636	+	KZN_1435	2674035.2679230.-	2679230	2674035	-	H37Ra
171742.172107.+	171742	172107	+	KZN_1435	173162.173527.+	173162	173527	+	H37Ra
2367519.2368712.+	2367519	2368712	+	KZN_1435	2064089.2065282.-	2065282	2064089	-	H37Ra
69644.71662.+	69644	71662	+	KZN_1435	70899.72917.+	70899	72917	+	H37Ra
3354907.3355191.+	3354907	3355191	+	KZN_1435	1058094.1058378.-	1058378	1058094	-	H37Ra
580700.580906.-	580906	580700	-	KZN_1435	581807.582013.-	582013	581807	-	H37Ra
515632.516207.-	516207	515632	-	KZN_1435	516683.517258.-	517258	516683	-	H37Ra
2371719.2372951.-	2372951	2371719	-	KZN_1435	2059850.2061082.+	2059850	2061082	+	H37Ra
1298354.1298623.-	1298623	1298354	-	KZN_1435	3127002.3127271.+	3127002	3127271	+	H37Ra
447707.448096.-	448096	447707	-	KZN_1435	446207.446596.-	446596	446207	-	H37Ra
1302920.1303150.+	1302920	1303150	+	KZN_1435	3122475.3122705.-	3122705	3122475	-	H37Ra
591570.591755.+	591570	591755	+	KZN_1435	592701.592886.+	592701	592886	+	H37Ra
750019.750786.-	750786	750019	-	KZN_1435	750540.751307.-	751307	750540	-	H37Ra
200913.202418.+	200913	202418	+	KZN_1435	202334.203839.+	202334	203839	+	H37Ra
2225720.2227084.-	2227084	2225720	-	KZN_1435	2205888.2207252.+	2205888	2207252	+	H37Ra
3134571.3135935.+	3134571	3135935	+	KZN_1435	2205888.2207252.+	2205888	2207252	+	H37Ra
2215600.2216052.+	2215600	2216052	+	KZN_1435	2216920.2217372.-	2217372	2216920	-	H37Ra
1439398.1439931.+	1439398	1439931	+	KZN_1435	1783590.1784123.-	1784123	1783590	-	H37Ra
1966572.1968383.-	1968383	1966572	-	KZN_1435	2458053.2459864.+	2458053	2459864	+	H37Ra
1300386.1300817.-	1300817	1300386	-	KZN_1435	3124808.3125239.+	3124808	3125239	+	H37Ra
1796062.1796355.-	1796355	1796062	-	KZN_1435	2630140.2630433.+	2630140	2630433	+	H37Ra
932089.932925.-	932925	932089	-	KZN_1435	1997429.1998265.-	1998265	1997429	-	H37Ra
1292329.1293165.+	1292329	1293165	+	KZN_1435	1997429.1998265.-	1998265	1997429	-	H37Ra
1330496.1331332.-	1331332	1330496	-	KZN_1435	1997429.1998265.-	1998265	1997429	-	H37Ra
1605986.1606822.-	1606822	1605986	-	KZN_1435	1997429.1998265.-	1998265	1997429	-	H37Ra
1781593.1782429.+	1781593	1782429	+	KZN_1435	1997429.1998265.-	1998265	1997429	-	H37Ra
1861140.1861976.+	1861140	1861976	+	KZN_1435	1997429.1998265.-	1998265	1997429	-	H37Ra
2048612.2049448.+	2048612	2049448	+	KZN_1435	1997429.1998265.-	1998265	1997429	-	H37Ra
2050283.2051119.+	2050283	2051119	+	KZN_1435	1997429.1998265.-	1998265	1997429	-	H37Ra
2155671.2156507.-	2156507	2155671	-	KZN_1435	1997429.1998265.-	1998265	1997429	-	H37Ra
2375978.2376814.+	2375978	2376814	+	KZN_1435	1997429.1998265.-	1998265	1997429	-	H37Ra
2435226.2436062.+	2435226	2436062	+	KZN_1435	1997429.1998265.-	1998265	1997429	-	H37Ra
3480315.3481151.+	3480315	3481151	+	KZN_1435	1997429.1998265.-	1998265	1997429	-	H37Ra
3708737.3709573.-	3709573	3708737	-	KZN_1435	1997429.1998265.-	1998265	1997429	-	H37Ra
4063263.4064099.-	4064099	4063263	-	KZN_1435	1997429.1998265.-	1998265	1997429	-	H37Ra
665695.665862.-	665862	665695	-	KZN_1435	666744.666911.-	666911	666744	-	H37Ra
2621813.2623156.-	2623156	2621813	-	KZN_1435	1801074.1802417.+	1801074	1802417	+	H37Ra
2570671.2574195.+	2570671	2574195	+	KZN_1435	1850035.1853559.-	1853559	1850035	-	H37Ra
1211820.1213034.+	1211820	1213034	+	KZN_1435	3212786.3214000.-	3214000	3212786	-	H37Ra
3137468.3138970.-	3138970	3137468	-	KZN_1435	1274575.1276077.+	1274575	1276077	+	H37Ra
1034433.1034741.+	1034433	1034741	+	KZN_1435	3391205.3391513.-	3391513	3391205	-	H37Ra
1552670.1553368.-	1553368	1552670	-	KZN_1435	2872414.2873112.+	2872414	2873112	+	H37Ra
768102.768476.-	768476	768102	-	KZN_1435	768623.768997.-	768997	768623	-	H37Ra
1838772.1839398.+	1838772	1839398	+	KZN_1435	2587098.2587724.-	2587724	2587098	-	H37Ra
760079.760309.+	760079	760309	+	KZN_1435	760600.760830.+	760600	760830	+	H37Ra
1095318.1095503.-	1095503	1095318	-	KZN_1435	3330093.3330278.+	3330093	3330278	+	H37Ra
4030677.4031651.-	4031651	4030677	-	KZN_1435	4053872.4054846.-	4054846	4053872	-	H37Ra
3046485.3046949.-	3046949	3046485	-	KZN_1435	1366654.1367118.+	1366654	1367118	+	H37Ra
2610353.2611621.-	2611621	2610353	-	KZN_1435	1812609.1813877.+	1812609	1813877	+	H37Ra
103841.104704.-	104704	103841	-	KZN_1435	105068.105931.-	105931	105068	-	H37Ra
3873871.3874734.+	3873871	3874734	+	KZN_1435	105068.105931.-	105931	105068	-	H37Ra
2633405.2634271.+	2633405	2634271	+	KZN_1435	105068.105931.-	105931	105068	-	H37Ra
3205525.3205986.+	3205525	3205986	+	KZN_1435	1207293.1207754.-	1207754	1207293	-	H37Ra
1761765.1761950.-	1761950	1761765	-	KZN_1435	2663721.2663906.+	2663721	2663906	+	H37Ra
836154.836681.+	836154	836681	+	KZN_1435	836460.836987.+	836460	836987	+	H37Ra
1305999.1306346.+	1305999	1306346	+	KZN_1435	3119279.3119626.-	3119626	3119279	-	H37Ra
4186667.4187188.-	4187188	4186667	-	KZN_1435	4208167.4208688.-	4208688	4208167	-	H37Ra
921417.921707.+	921417	921707	+	KZN_1435	922881.923171.+	922881	923171	+	H37Ra
1020962.1022230.-	1022230	1020962	-	KZN_1435	3403716.3404948.+	3403716	3404948	+	H37Ra
1692238.1692903.+	1692238	1692903	+	KZN_1435	2732744.2733409.-	2733409	2732744	-	H37Ra
1976586.1977251.+	1976586	1977251	+	KZN_1435	2732744.2733409.-	2733409	2732744	-	H37Ra
2137731.2138216.+	2137731	2138216	+	KZN_1435	2288398.2288883.-	2288883	2288398	-	H37Ra
2836173.2836958.-	2836958	2836173	-	KZN_1435	1578057.1578842.+	1578057	1578842	+	H37Ra
1075907.1076983.+	1075907	1076983	+	KZN_1435	3348965.3350041.-	3350041	3348965	-	H37Ra
515632.516093.-	516093	515632	-	KZN_1435	516683.517144.-	517144	516683	-	H37Ra
3137468.3138880.-	3138880	3137468	-	KZN_1435	1274665.1276077.+	1274665	1276077	+	H37Ra
932089.932925.-	932925	932089	-	KZN_1435	2006262.2007098.+	2006262	2007098	+	H37Ra
1292329.1293165.+	1292329	1293165	+	KZN_1435	2006262.2007098.+	2006262	2007098	+	H37Ra
1330496.1331332.-	1331332	1330496	-	KZN_1435	2006262.2007098.+	2006262	2007098	+	H37Ra
1605986.1606822.-	1606822	1605986	-	KZN_1435	2006262.2007098.+	2006262	2007098	+	H37Ra
1781593.1782429.+	1781593	1782429	+	KZN_1435	2006262.2007098.+	2006262	2007098	+	H37Ra
1861140.1861976.+	1861140	1861976	+	KZN_1435	2006262.2007098.+	2006262	2007098	+	H37Ra
2048612.2049448.+	2048612	2049448	+	KZN_1435	2006262.2007098.+	2006262	2007098	+	H37Ra
2050283.2051119.+	2050283	2051119	+	KZN_1435	2006262.2007098.+	2006262	2007098	+	H37Ra
2155671.2156507.-	2156507	2155671	-	KZN_1435	2006262.2007098.+	2006262	2007098	+	H37Ra
2375978.2376814.+	2375978	2376814	+	KZN_1435	2006262.2007098.+	2006262	2007098	+	H37Ra
2435226.2436062.+	2435226	2436062	+	KZN_1435	2006262.2007098.+	2006262	2007098	+	H37Ra
3480315.3481151.+	3480315	3481151	+	KZN_1435	2006262.2007098.+	2006262	2007098	+	H37Ra
3708737.3709573.-	3709573	3708737	-	KZN_1435	2006262.2007098.+	2006262	2007098	+	H37Ra
4063263.4064099.-	4064099	4063263	-	KZN_1435	2006262.2007098.+	2006262	2007098	+	H37Ra
3707772.3708326.-	3708326	3707772	-	KZN_1435	3720556.3721110.-	3721110	3720556	-	H37Ra
3133414.3133851.-	3133851	3133414	-	KZN_1435	1165880.1166317.-	1166317	1165880	-	H37Ra
3246959.3247396.+	3246959	3247396	+	KZN_1435	1165880.1166317.-	1166317	1165880	-	H37Ra
1497384.1497593.+	1497384	1497593	+	KZN_1435	2928190.2928399.-	2928399	2928190	-	H37Ra
1347883.1348794.+	1347883	1348794	+	KZN_1435	3078190.3079101.-	3079101	3078190	-	H37Ra
806798.807166.+	806798	807166	+	KZN_1435	807104.807472.+	807104	807472	+	H37Ra
3583783.3584070.-	3584070	3583783	-	KZN_1435	3596459.3596746.-	3596746	3596459	-	H37Ra
1838891.1839484.-	1839484	1838891	-	KZN_1435	2587012.2587605.+	2587012	2587605	+	H37Ra
670100.671413.+	670100	671413	+	KZN_1435	671149.672462.+	671149	672462	+	H37Ra
2715607.2716110.-	2716110	2715607	-	KZN_1435	1698873.1699376.+	1698873	1699376	+	H37Ra
2393704.2393865.-	2393865	2393704	-	KZN_1435	2040294.2040455.+	2040294	2040455	+	H37Ra
1832813.1833154.-	1833154	1832813	-	KZN_1435	2593342.2593683.+	2593342	2593683	+	H37Ra
2051607.2051903.+	2051607	2051903	+	KZN_1435	2374699.2374995.-	2374995	2374699	-	H37Ra
710600.710839.+	710600	710839	+	KZN_1435	711658.711897.+	711658	711897	+	H37Ra
232167.234416.+	232167	234416	+	KZN_1435	233588.235837.+	233588	235837	+	H37Ra
3169113.3169313.+	3169113	3169313	+	KZN_1435	1244174.1244374.-	1244374	1244174	-	H37Ra
1444965.1445282.+	1444965	1445282	+	KZN_1435	2980501.2980818.-	2980818	2980501	-	H37Ra
677377.677955.-	677955	677377	-	KZN_1435	678435.679013.-	679013	678435	-	H37Ra
4129634.4130821.-	4130821	4129634	-	KZN_1435	4151194.4152381.-	4152381	4151194	-	H37Ra
4150660.4151943.+	4150660	4151943	+	KZN_1435	4172161.4173444.+	4172161	4173444	+	H37Ra
85767.86621.-	86621	85767	-	KZN_1435	86994.87848.-	87848	86994	-	H37Ra
2732476.2732739.-	2732739	2732476	-	KZN_1435	1682244.1682507.+	1682244	1682507	+	H37Ra
3281862.3282833.-	3282833	3281862	-	KZN_1435	1130442.1131413.+	1130442	1131413	+	H37Ra
3667008.3667634.-	3667634	3667008	-	KZN_1435	3679734.3680360.-	3680360	3679734	-	H37Ra
3380611.3381399.+	3380611	3381399	+	KZN_1435	1031886.1032674.-	1032674	1031886	-	H37Ra
230775.231473.+	230775	231473	+	KZN_1435	232196.232894.+	232196	232894	+	H37Ra
1099013.1099831.+	1099013	1099831	+	KZN_1435	3325765.3326583.-	3326583	3325765	-	H37Ra
1441788.1442252.-	1442252	1441788	-	KZN_1435	2983531.2983995.+	2983531	2983995	+	H37Ra
1302926.1303150.+	1302926	1303150	+	KZN_1435	3122475.3122699.-	3122699	3122475	-	H37Ra
2307454.2309862.-	2309862	2307454	-	KZN_1435	2123000.2125408.+	2123000	2125408	+	H37Ra
3027753.3028025.-	3028025	3027753	-	KZN_1435	1385576.1385848.+	1385576	1385848	+	H37Ra
1981979.1982902.+	1981979	1982902	+	KZN_1435	2443533.2444456.-	2444456	2443533	-	H37Ra
932089.932925.-	932925	932089	-	KZN_1435	3804223.3805059.-	3805059	3804223	-	H37Ra
1292329.1293165.+	1292329	1293165	+	KZN_1435	3804223.3805059.-	3805059	3804223	-	H37Ra
1330496.1331332.-	1331332	1330496	-	KZN_1435	3804223.3805059.-	3805059	3804223	-	H37Ra
1605986.1606822.-	1606822	1605986	-	KZN_1435	3804223.3805059.-	3805059	3804223	-	H37Ra
1781593.1782429.+	1781593	1782429	+	KZN_1435	3804223.3805059.-	3805059	3804223	-	H37Ra
1861140.1861976.+	1861140	1861976	+	KZN_1435	3804223.3805059.-	3805059	3804223	-	H37Ra
2048612.2049448.+	2048612	2049448	+	KZN_1435	3804223.3805059.-	3805059	3804223	-	H37Ra
2050283.2051119.+	2050283	2051119	+	KZN_1435	3804223.3805059.-	3805059	3804223	-	H37Ra
2155671.2156507.-	2156507	2155671	-	KZN_1435	3804223.3805059.-	3805059	3804223	-	H37Ra
2375978.2376814.+	2375978	2376814	+	KZN_1435	3804223.3805059.-	3805059	3804223	-	H37Ra
2435226.2436062.+	2435226	2436062	+	KZN_1435	3804223.3805059.-	3805059	3804223	-	H37Ra
3480315.3481151.+	3480315	3481151	+	KZN_1435	3804223.3805059.-	3805059	3804223	-	H37Ra
3708737.3709573.-	3709573	3708737	-	KZN_1435	3804223.3805059.-	3805059	3804223	-	H37Ra
4063263.4064099.-	4064099	4063263	-	KZN_1435	3804223.3805059.-	3805059	3804223	-	H37Ra
3876961.3878634.-	3878634	3876961	-	KZN_1435	3895821.3897494.-	3897494	3895821	-	H37Ra
1676692.1676970.-	1676970	1676692	-	KZN_1435	2748677.2748955.+	2748677	2748955	+	H37Ra
890413.891324.+	890413	891324	+	KZN_1435	891877.892788.+	891877	892788	+	H37Ra
3503768.3504100.-	3504100	3503768	-	KZN_1435	3515101.3515433.-	3515433	3515101	-	H37Ra
2298560.2299264.-	2299264	2298560	-	KZN_1435	2133598.2134302.+	2133598	2134302	+	H37Ra
1140394.1141410.-	1141410	1140394	-	KZN_1435	3284185.3285201.+	3284185	3285201	+	H37Ra
1276603.1276818.+	1276603	1276818	+	KZN_1435	3149001.3149216.-	3149216	3149001	-	H37Ra
31926.32069.-	32069	31926	-	KZN_1435	33182.33325.-	33325	33182	-	H37Ra
2460762.2461355.+	2460762	2461355	+	KZN_1435	1962809.1963402.-	1963402	1962809	-	H37Ra
3701521.3702009.-	3702009	3701521	-	KZN_1435	3714305.3714793.-	3714793	3714305	-	H37Ra
2095243.2095569.-	2095569	2095243	-	KZN_1435	2331041.2331367.+	2331041	2331367	+	H37Ra
278326.278529.+	278326	278529	+	KZN_1435	279747.279950.+	279747	279950	+	H37Ra
994385.995065.+	994385	995065	+	KZN_1435	3430882.3431562.-	3431562	3430882	-	H37Ra
1531668.1532057.-	1532057	1531668	-	KZN_1435	2893726.2894115.+	2893726	2894115	+	H37Ra
3083233.3084606.+	3083233	3084606	+	KZN_1435	1329000.1330373.-	1330373	1329000	-	H37Ra
3528214.3530145.-	3530145	3528214	-	KZN_1435	3539547.3541478.-	3541478	3539547	-	H37Ra
1628521.1628778.-	1628778	1628521	-	KZN_1435	2798230.2798487.+	2798230	2798487	+	H37Ra
3512415.3512891.+	3512415	3512891	+	KZN_1435	3523748.3524224.+	3523748	3524224	+	H37Ra
1244471.1245244.+	1244471	1245244	+	KZN_1435	3180575.3181348.-	3181348	3180575	-	H37Ra
698156.699289.-	699289	698156	-	KZN_1435	699214.700347.-	700347	699214	-	H37Ra
4350363.4351733.-	4351733	4350363	-	KZN_1435	4371863.4373233.-	4373233	4371863	-	H37Ra
3072991.3073326.-	3073326	3072991	-	KZN_1435	1340278.1340613.+	1340278	1340613	+	H37Ra
3968598.3969635.-	3969635	3968598	-	KZN_1435	3991791.3992828.-	3992828	3991791	-	H37Ra
2871629.2872834.+	2871629	2872834	+	KZN_1435	1540822.1542027.-	1542027	1540822	-	H37Ra
131027.131260.-	131260	131027	-	KZN_1435	132253.132486.-	132486	132253	-	H37Ra
1031091.1032401.+	1031091	1032401	+	KZN_1435	1342668.1343978.-	1343978	1342668	-	H37Ra
1583948.1585258.+	1583948	1585258	+	KZN_1435	1342668.1343978.-	1343978	1342668	-	H37Ra
3069625.3070935.+	3069625	3070935	+	KZN_1435	1342668.1343978.-	1343978	1342668	-	H37Ra
3241296.3242606.-	3242606	3241296	-	KZN_1435	1342668.1343978.-	1343978	1342668	-	H37Ra
3482211.3483521.+	3482211	3483521	+	KZN_1435	1342668.1343978.-	1343978	1342668	-	H37Ra
3002933.3004060.-	3004060	3002933	-	KZN_1435	1409541.1410668.+	1409541	1410668	+	H37Ra
3183529.3184581.+	3183529	3184581	+	KZN_1435	1228906.1229958.-	1229958	1228906	-	H37Ra
2841254.2841577.+	2841254	2841577	+	KZN_1435	1573437.1573760.-	1573760	1573437	-	H37Ra
1836382.1836564.+	1836382	1836564	+	KZN_1435	2589932.2590114.-	2590114	2589932	-	H37Ra
2465335.2466954.+	2465335	2466954	+	KZN_1435	1957210.1958829.-	1958829	1957210	-	H37Ra
1958139.1958897.-	1958897	1958139	-	KZN_1435	2467539.2468297.+	2467539	2468297	+	H37Ra
1969585.1970727.+	1969585	1970727	+	KZN_1435	2455709.2456851.-	2456851	2455709	-	H37Ra
1789635.1789937.+	1789635	1789937	+	KZN_1435	2636558.2636860.-	2636860	2636558	-	H37Ra
1470212.1470439.-	1470439	1470212	-	KZN_1435	2955344.2955571.+	2955344	2955571	+	H37Ra
4149263.4150663.+	4149263	4150663	+	KZN_1435	4170764.4172164.+	4170764	4172164	+	H37Ra
3423274.3424797.-	3424797	3423274	-	KZN_1435	988489.990012.+	988489	990012	+	H37Ra
865342.865773.+	865342	865773	+	KZN_1435	865449.865880.+	865449	865880	+	H37Ra
4050210.4051271.-	4051271	4050210	-	KZN_1435	4073298.4074359.-	4074359	4073298	-	H37Ra
715544.716569.+	715544	716569	+	KZN_1435	716602.717627.+	716602	717627	+	H37Ra
179258.180859.-	180859	179258	-	KZN_1435	180679.182280.-	182280	180679	-	H37Ra
577846.578472.+	577846	578472	+	KZN_1435	578953.579579.+	578953	579579	+	H37Ra
3150726.3153110.+	3150726	3153110	+	KZN_1435	1260377.1262761.-	1262761	1260377	-	H37Ra
1276815.1277207.+	1276815	1277207	+	KZN_1435	3148612.3149004.-	3149004	3148612	-	H37Ra
1766618.1766956.+	1766618	1766956	+	KZN_1435	2658715.2659053.-	2659053	2658715	-	H37Ra
1490633.1492264.-	1492264	1490633	-	KZN_1435	2933519.2935150.+	2933519	2935150	+	H37Ra
2519403.2520311.-	2520311	2519403	-	KZN_1435	1903909.1904817.+	1903909	1904817	+	H37Ra
4370604.4370942.-	4370942	4370604	-	KZN_1435	4392099.4392437.-	4392437	4392099	-	H37Ra
661195.661530.+	661195	661530	+	KZN_1435	662244.662579.+	662244	662579	+	H37Ra
3064605.3065357.+	3064605	3065357	+	KZN_1435	1348246.1348998.-	1348998	1348246	-	H37Ra
1946059.1947204.+	1946059	1947204	+	KZN_1435	2479289.2480434.-	2480434	2479289	-	H37Ra
1117238.1122100.+	1117238	1122100	+	KZN_1435	3303495.3308357.-	3308357	3303495	-	H37Ra
2099617.2100030.+	2099617	2100030	+	KZN_1435	2326581.2326994.-	2326994	2326581	-	H37Ra
678174.678581.+	678174	678581	+	KZN_1435	679232.679639.+	679232	679639	+	H37Ra
4118577.4119278.+	4118577	4119278	+	KZN_1435	4140137.4140838.+	4140137	4140838	+	H37Ra
711034.711261.+	711034	711261	+	KZN_1435	712092.712319.+	712092	712319	+	H37Ra
818531.818905.-	818905	818531	-	KZN_1435	818837.819211.-	819211	818837	-	H37Ra
700515.701441.+	700515	701441	+	KZN_1435	701573.702499.+	701573	702499	+	H37Ra
3196965.3197270.-	3197270	3196965	-	KZN_1435	1216135.1216440.+	1216135	1216440	+	H37Ra
3197149.3197583.-	3197583	3197149	-	KZN_1435	1215822.1216256.+	1215822	1216256	+	H37Ra
3297585.3297794.+	3297585	3297794	+	KZN_1435	1115481.1115690.-	1115690	1115481	-	H37Ra
151501.152529.+	151501	152529	+	KZN_1435	152546.153574.+	152546	153574	+	H37Ra
21739.23274.-	23274	21739	-	KZN_1435	22995.24530.-	24530	22995	-	H37Ra
3128105.3129178.+	3128105	3129178	+	KZN_1435	1284366.1285439.-	1285439	1284366	-	H37Ra
1056846.1057046.+	1056846	1057046	+	KZN_1435	3368902.3369102.-	3369102	3368902	-	H37Ra
4115637.4116002.-	4116002	4115637	-	KZN_1435	4137197.4137562.-	4137562	4137197	-	H37Ra
3048047.3048790.+	3048047	3048790	+	KZN_1435	1364813.1365556.-	1365556	1364813	-	H37Ra
3035456.3036061.+	3035456	3036061	+	KZN_1435	1377540.1378145.-	1378145	1377540	-	H37Ra
4304631.4304843.-	4304843	4304631	-	KZN_1435	4326131.4326343.-	4326343	4326131	-	H37Ra
2992504.2993277.+	2992504	2993277	+	KZN_1435	1420324.1421097.-	1421097	1420324	-	H37Ra
3578384.3578602.+	3578384	3578602	+	KZN_1435	3591060.3591278.+	3591060	3591278	+	H37Ra
2551358.2551888.-	2551888	2551358	-	KZN_1435	1872342.1872872.+	1872342	1872872	+	H37Ra
186434.186559.-	186559	186434	-	KZN_1435	187855.187980.-	187980	187855	-	H37Ra
2653287.2654027.-	2654027	2653287	-	KZN_1435	1760955.1761695.+	1760955	1761695	+	H37Ra
547845.549875.-	549875	547845	-	KZN_1435	548896.550926.-	550926	548896	-	H37Ra
3646008.3647501.+	3646008	3647501	+	KZN_1435	3658671.3660164.+	3658671	3660164	+	H37Ra
1041308.1042030.-	1042030	1041308	-	KZN_1435	3383918.3384640.+	3383918	3384640	+	H37Ra
1559548.1560558.-	1560558	1559548	-	KZN_1435	2865224.2866234.+	2865224	2866234	+	H37Ra
4199149.4199928.+	4199149	4199928	+	KZN_1435	4220649.4221428.+	4220649	4221428	+	H37Ra
3777371.3780667.-	3780667	3777371	-	KZN_1435	3790624.3793920.-	3793920	3790624	-	H37Ra
2159071.2159682.-	2159682	2159071	-	KZN_1435	2273290.2273901.+	2273290	2273901	+	H37Ra
4081376.4081684.-	4081684	4081376	-	KZN_1435	4103107.4103415.-	4103415	4103107	-	H37Ra
1706946.1707665.-	1707665	1706946	-	KZN_1435	2717985.2718704.+	2717985	2718704	+	H37Ra
2329230.2330666.+	2329230	2330666	+	KZN_1435	2102191.2103627.-	2103627	2102191	-	H37Ra
1433983.1434210.+	1433983	1434210	+	KZN_1435	2992931.2993158.-	2993158	2992931	-	H37Ra
3170989.3171174.-	3171174	3170989	-	KZN_1435	1242313.1242498.+	1242313	1242498	+	H37Ra
3297261.3297581.+	3297261	3297581	+	KZN_1435	1115694.1116014.-	1116014	1115694	-	H37Ra
1503608.1505989.+	1503608	1505989	+	KZN_1435	2919794.2922175.-	2922175	2919794	-	H37Ra
26015.26980.-	26980	26015	-	KZN_1435	27271.28236.-	28236	27271	-	H37Ra
2252383.2255424.+	2252383	2255424	+	KZN_1435	2177581.2180622.-	2180622	2177581	-	H37Ra
2534692.2536224.-	2536224	2534692	-	KZN_1435	1888006.1889538.+	1888006	1889538	+	H37Ra
3136261.3136593.-	3136593	3136261	-	KZN_1435	1276952.1277284.+	1276952	1277284	+	H37Ra
3128135.3129178.+	3128135	3129178	+	KZN_1435	1284366.1285409.-	1285409	1284366	-	H37Ra
4306771.4306986.+	4306771	4306986	+	KZN_1435	4328271.4328486.+	4328271	4328486	+	H37Ra
2434263.2434802.-	2434802	2434263	-	KZN_1435	1998689.1999162.+	1998689	1999162	+	H37Ra
643141.644754.+	643141	644754	+	KZN_1435	644190.645803.+	644190	645803	+	H37Ra
1663424.1666084.+	1663424	1666084	+	KZN_1435	2759563.2762223.-	2762223	2759563	-	H37Ra
521770.522426.+	521770	522426	+	KZN_1435	522821.523477.+	522821	523477	+	H37Ra
103841.104800.-	104800	103841	-	KZN_1435	105068.106027.-	106027	105068	-	H37Ra
3873775.3874734.+	3873775	3874734	+	KZN_1435	105068.106027.-	106027	105068	-	H37Ra
2633309.2634271.+	2633309	2634271	+	KZN_1435	105068.106027.-	106027	105068	-	H37Ra
1238832.1239026.-	1239026	1238832	-	KZN_1435	3186793.3186987.+	3186793	3186987	+	H37Ra
4004678.4005598.+	4004678	4005598	+	KZN_1435	4027874.4028794.+	4027874	4028794	+	H37Ra
4068233.4069441.-	4069441	4068233	-	KZN_1435	4089963.4091171.-	4091171	4089963	-	H37Ra
3458811.3459245.-	3459245	3458811	-	KZN_1435	954101.954535.+	954101	954535	+	H37Ra
475585.476001.+	475585	476001	+	KZN_1435	476636.477052.+	476636	477052	+	H37Ra
1298845.1299996.-	1299996	1298845	-	KZN_1435	3125629.3126780.+	3125629	3126780	+	H37Ra
247325.248059.-	248059	247325	-	KZN_1435	248746.249480.-	249480	248746	-	H37Ra
729579.730439.-	730439	729579	-	KZN_1435	730637.731497.-	731497	730637	-	H37Ra
3884249.3887344.+	3884249	3887344	+	KZN_1435	3904467.3907562.+	3904467	3907562	+	H37Ra
2672219.2673625.-	2673625	2672219	-	KZN_1435	1741358.1742764.+	1741358	1742764	+	H37Ra
2795614.2795847.-	2795847	2795614	-	KZN_1435	1619147.1619380.+	1619147	1619380	+	H37Ra
4028422.4028505.-	4028505	4028422	-	KZN_1435	4051617.4051700.-	4051700	4051617	-	H37Ra
3838662.3838817.-	3838817	3838662	-	KZN_1435	3857522.3857677.-	3857677	3857522	-	H37Ra
3806216.3806857.+	3806216	3806857	+	KZN_1435	3820382.3821023.+	3820382	3821023	+	H37Ra
3884096.3887344.+	3884096	3887344	+	KZN_1435	3904314.3907562.+	3904314	3907562	+	H37Ra
4058026.4058994.-	4058994	4058026	-	KZN_1435	4081114.4082082.-	4082082	4081114	-	H37Ra
1055212.1056192.-	1056192	1055212	-	KZN_1435	3369756.3370736.+	3369756	3370736	+	H37Ra
1249712.1251703.-	1251703	1249712	-	KZN_1435	3174116.3176107.+	3174116	3176107	+	H37Ra
2081415.2081858.+	2081415	2081858	+	KZN_1435	2344752.2345195.-	2345195	2344752	-	H37Ra
2135097.2135567.-	2135567	2135097	-	KZN_1435	2291047.2291517.+	2291047	2291517	+	H37Ra
1687851.1688084.+	1687851	1688084	+	KZN_1435	2737563.2737796.-	2737796	2737563	-	H37Ra
3334087.3334746.+	3334087	3334746	+	KZN_1435	1078541.1079200.-	1079200	1078541	-	H37Ra
3843033.3843521.-	3843521	3843033	-	KZN_1435	3861893.3862381.-	3862381	3861893	-	H37Ra
3716668.3717147.+	3716668	3717147	+	KZN_1435	3731600.3732079.+	3731600	3732079	+	H37Ra
2814822.2815805.-	2815805	2814822	-	KZN_1435	1599210.1600193.+	1599210	1600193	+	H37Ra
999515.1001692.+	999515	1001692	+	KZN_1435	3424255.3426432.-	3426432	3424255	-	H37Ra
602989.604695.+	602989	604695	+	KZN_1435	604120.605826.+	604120	605826	+	H37Ra
832695.833303.+	832695	833303	+	KZN_1435	833001.833609.+	833001	833609	+	H37Ra
274247.274660.-	274660	274247	-	KZN_1435	275668.276081.-	276081	275668	-	H37Ra
2400795.2403593.-	2403593	2400795	-	KZN_1435	2030566.2033364.+	2030566	2033364	+	H37Ra
932089.932925.-	932925	932089	-	KZN_1435	13665.14501.-	14501	13665	-	H37Ra
1292329.1293165.+	1292329	1293165	+	KZN_1435	13665.14501.-	14501	13665	-	H37Ra
1330496.1331332.-	1331332	1330496	-	KZN_1435	13665.14501.-	14501	13665	-	H37Ra
1605986.1606822.-	1606822	1605986	-	KZN_1435	13665.14501.-	14501	13665	-	H37Ra
1781593.1782429.+	1781593	1782429	+	KZN_1435	13665.14501.-	14501	13665	-	H37Ra
1861140.1861976.+	1861140	1861976	+	KZN_1435	13665.14501.-	14501	13665	-	H37Ra
2048612.2049448.+	2048612	2049448	+	KZN_1435	13665.14501.-	14501	13665	-	H37Ra
2050283.2051119.+	2050283	2051119	+	KZN_1435	13665.14501.-	14501	13665	-	H37Ra
2155671.2156507.-	2156507	2155671	-	KZN_1435	13665.14501.-	14501	13665	-	H37Ra
2375978.2376814.+	2375978	2376814	+	KZN_1435	13665.14501.-	14501	13665	-	H37Ra
2435226.2436062.+	2435226	2436062	+	KZN_1435	13665.14501.-	14501	13665	-	H37Ra
3480315.3481151.+	3480315	3481151	+	KZN_1435	13665.14501.-	14501	13665	-	H37Ra
3708737.3709573.-	3709573	3708737	-	KZN_1435	13665.14501.-	14501	13665	-	H37Ra
4063263.4064099.-	4064099	4063263	-	KZN_1435	13665.14501.-	14501	13665	-	H37Ra
3150801.3153110.+	3150801	3153110	+	KZN_1435	1260377.1262686.-	1262686	1260377	-	H37Ra
1018904.1019758.+	1018904	1019758	+	KZN_1435	3406189.3407043.-	3407043	3406189	-	H37Ra
181926.183149.-	183149	181926	-	KZN_1435	183347.184570.-	184570	183347	-	H37Ra
103841.104704.-	104704	103841	-	KZN_1435	3892731.3893594.+	3892731	3893594	+	H37Ra
3873871.3874734.+	3873871	3874734	+	KZN_1435	3892731.3893594.+	3892731	3893594	+	H37Ra
2633405.2634271.+	2633405	2634271	+	KZN_1435	3892731.3893594.+	3892731	3893594	+	H37Ra
1236517.1238373.+	1236517	1238373	+	KZN_1435	3187446.3189302.-	3189302	3187446	-	H37Ra
3354447.3354677.+	3354447	3354677	+	KZN_1435	1058608.1058838.-	1058838	1058608	-	H37Ra
1050093.1050470.-	1050470	1050093	-	KZN_1435	3375478.3375855.+	3375478	3375855	+	H37Ra
2394750.2395841.-	2395841	2394750	-	KZN_1435	2038318.2039409.+	2038318	2039409	+	H37Ra
2058719.2059888.+	2058719	2059888	+	KZN_1435	2366826.2367803.-	2367803	2366826	-	H37Ra
3739572.3749045.-	3749045	3739572	-	KZN_1435	3752824.3762297.-	3762297	3752824	-	H37Ra
959433.960854.-	960854	959433	-	KZN_1435	3465078.3466499.+	3465078	3466499	+	H37Ra
2483100.2483861.-	2483861	2483100	-	KZN_1435	1940359.1941120.+	1940359	1941120	+	H37Ra
543433.544989.+	543433	544989	+	KZN_1435	544484.546040.+	544484	546040	+	H37Ra
1157916.1162529.-	1162529	1157916	-	KZN_1435	3263067.3267680.+	3263067	3267680	+	H37Ra
4270945.4271277.+	4270945	4271277	+	KZN_1435	4292445.4292777.+	4292445	4292777	+	H37Ra
3806147.3806857.+	3806147	3806857	+	KZN_1435	3820313.3821023.+	3820313	3821023	+	H37Ra
2135097.2135504.-	2135504	2135097	-	KZN_1435	2291110.2291517.+	2291110	2291517	+	H37Ra
532613.533170.+	532613	533170	+	KZN_1435	533664.534221.+	533664	534221	+	H37Ra
4187301.4188272.+	4187301	4188272	+	KZN_1435	4208801.4209772.+	4208801	4209772	+	H37Ra
3236345.3236971.+	3236345	3236971	+	KZN_1435	1176304.1176930.-	1176930	1176304	-	H37Ra
1047949.1049133.-	1049133	1047949	-	KZN_1435	3376815.3377999.+	3376815	3377999	+	H37Ra
1869505.1869753.+	1869505	1869753	+	KZN_1435	2556743.2556991.-	2556991	2556743	-	H37Ra
3494423.3495016.-	3495016	3494423	-	KZN_1435	3505756.3506349.-	3506349	3505756	-	H37Ra
3416638.3416916.-	3416916	3416638	-	KZN_1435	996369.996647.+	996369	996647	+	H37Ra
3133414.3133851.-	3133851	3133414	-	KZN_1435	1279693.1280130.+	1279693	1280130	+	H37Ra
3246959.3247396.+	3246959	3247396	+	KZN_1435	1279693.1280130.+	1279693	1280130	+	H37Ra
1780315.1780614.+	1780315	1780614	+	KZN_1435	2644503.2644802.-	2644802	2644503	-	H37Ra
702981.703451.+	702981	703451	+	KZN_1435	704039.704509.+	704039	704509	+	H37Ra
3234593.3234727.-	3234727	3234593	-	KZN_1435	1178548.1178682.+	1178548	1178682	+	H37Ra
2618681.2619415.-	2619415	2618681	-	KZN_1435	1804815.1805549.+	1804815	1805549	+	H37Ra
2214575.2215384.-	2215384	2214575	-	KZN_1435	2217588.2218397.+	2217588	2218397	+	H37Ra
2736541.2737449.+	2736541	2737449	+	KZN_1435	1677534.1678442.-	1678442	1677534	-	H37Ra
1105050.1106024.+	1105050	1106024	+	KZN_1435	3319572.3320546.-	3320546	3319572	-	H37Ra
3467305.3467721.-	3467721	3467305	-	KZN_1435	945625.946041.+	945625	946041	+	H37Ra
1071697.1073922.-	1073922	1071697	-	KZN_1435	3352026.3354251.+	3352026	3354251	+	H37Ra
932089.932925.-	932925	932089	-	KZN_1435	2375792.2376628.+	2375792	2376628	+	H37Ra
1292329.1293165.+	1292329	1293165	+	KZN_1435	2375792.2376628.+	2375792	2376628	+	H37Ra
1330496.1331332.-	1331332	1330496	-	KZN_1435	2375792.2376628.+	2375792	2376628	+	H37Ra
1605986.1606822.-	1606822	1605986	-	KZN_1435	2375792.2376628.+	2375792	2376628	+	H37Ra
1781593.1782429.+	1781593	1782429	+	KZN_1435	2375792.2376628.+	2375792	2376628	+	H37Ra
1861140.1861976.+	1861140	1861976	+	KZN_1435	2375792.2376628.+	2375792	2376628	+	H37Ra
2048612.2049448.+	2048612	2049448	+	KZN_1435	2375792.2376628.+	2375792	2376628	+	H37Ra
2050283.2051119.+	2050283	2051119	+	KZN_1435	2375792.2376628.+	2375792	2376628	+	H37Ra
2155671.2156507.-	2156507	2155671	-	KZN_1435	2375792.2376628.+	2375792	2376628	+	H37Ra
2375978.2376814.+	2375978	2376814	+	KZN_1435	2375792.2376628.+	2375792	2376628	+	H37Ra
2435226.2436062.+	2435226	2436062	+	KZN_1435	2375792.2376628.+	2375792	2376628	+	H37Ra
3480315.3481151.+	3480315	3481151	+	KZN_1435	2375792.2376628.+	2375792	2376628	+	H37Ra
3708737.3709573.-	3709573	3708737	-	KZN_1435	2375792.2376628.+	2375792	2376628	+	H37Ra
4063263.4064099.-	4064099	4063263	-	KZN_1435	2375792.2376628.+	2375792	2376628	+	H37Ra
3960833.3962533.+	3960833	3962533	+	KZN_1435	3984026.3985726.+	3984026	3985726	+	H37Ra
1217612.1218283.+	1217612	1218283	+	KZN_1435	3207537.3208208.-	3208208	3207537	-	H37Ra
1031106.1032401.+	1031106	1032401	+	KZN_1435	2840524.2841819.-	2841819	2840524	-	H37Ra
1583963.1585258.+	1583963	1585258	+	KZN_1435	2840524.2841819.-	2841819	2840524	-	H37Ra
3069640.3070935.+	3069640	3070935	+	KZN_1435	2840524.2841819.-	2841819	2840524	-	H37Ra
3241296.3242591.-	3242591	3241296	-	KZN_1435	2840524.2841819.-	2841819	2840524	-	H37Ra
3482226.3483521.+	3482226	3483521	+	KZN_1435	2840524.2841819.-	2841819	2840524	-	H37Ra
3833803.3834450.-	3834450	3833803	-	KZN_1435	3847737.3848384.-	3848384	3847737	-	H37Ra
3425444.3425710.-	3425710	3425444	-	KZN_1435	987576.987842.+	987576	987842	+	H37Ra
2881137.2881373.+	2881137	2881373	+	KZN_1435	1532283.1532519.-	1532519	1532283	-	H37Ra
760574.764110.+	760574	764110	+	KZN_1435	761095.764631.+	761095	764631	+	H37Ra
578608.579378.+	578608	579378	+	KZN_1435	579715.580485.+	579715	580485	+	H37Ra
3838842.3839051.-	3839051	3838842	-	KZN_1435	3857702.3857911.-	3857911	3857702	-	H37Ra
1907198.1908157.+	1907198	1908157	+	KZN_1435	2518336.2519295.-	2519295	2518336	-	H37Ra
2155309.2155611.-	2155611	2155309	-	KZN_1435	2276003.2276305.+	2276003	2276305	+	H37Ra
4324893.4325219.+	4324893	4325219	+	KZN_1435	4346392.4346718.+	4346392	4346718	+	H37Ra
3138901.3139986.-	3139986	3138901	-	KZN_1435	1273559.1274644.+	1273559	1274644	+	H37Ra
241917.243155.-	243155	241917	-	KZN_1435	243338.244576.-	244576	243338	-	H37Ra
932089.932925.-	932925	932089	-	KZN_1435	3899932.3900768.+	3899932	3900768	+	H37Ra
1292329.1293165.+	1292329	1293165	+	KZN_1435	3899932.3900768.+	3899932	3900768	+	H37Ra
1330496.1331332.-	1331332	1330496	-	KZN_1435	3899932.3900768.+	3899932	3900768	+	H37Ra
1605986.1606822.-	1606822	1605986	-	KZN_1435	3899932.3900768.+	3899932	3900768	+	H37Ra
1781593.1782429.+	1781593	1782429	+	KZN_1435	3899932.3900768.+	3899932	3900768	+	H37Ra
1861140.1861976.+	1861140	1861976	+	KZN_1435	3899932.3900768.+	3899932	3900768	+	H37Ra
2048612.2049448.+	2048612	2049448	+	KZN_1435	3899932.3900768.+	3899932	3900768	+	H37Ra
2050283.2051119.+	2050283	2051119	+	KZN_1435	3899932.3900768.+	3899932	3900768	+	H37Ra
2155671.2156507.-	2156507	2155671	-	KZN_1435	3899932.3900768.+	3899932	3900768	+	H37Ra
2375978.2376814.+	2375978	2376814	+	KZN_1435	3899932.3900768.+	3899932	3900768	+	H37Ra
2435226.2436062.+	2435226	2436062	+	KZN_1435	3899932.3900768.+	3899932	3900768	+	H37Ra
3480315.3481151.+	3480315	3481151	+	KZN_1435	3899932.3900768.+	3899932	3900768	+	H37Ra
3708737.3709573.-	3709573	3708737	-	KZN_1435	3899932.3900768.+	3899932	3900768	+	H37Ra
4063263.4064099.-	4064099	4063263	-	KZN_1435	3899932.3900768.+	3899932	3900768	+	H37Ra
3092313.3098618.-	3098618	3092313	-	KZN_1435	1314988.1321293.+	1314988	1321293	+	H37Ra
2411641.2412147.+	2411641	2412147	+	KZN_1435	2022013.2022519.-	2022519	2022013	-	H37Ra
2848677.2849330.-	2849330	2848677	-	KZN_1435	1565684.1566337.+	1565684	1566337	+	H37Ra
1425905.1427482.-	1427482	1425905	-	KZN_1435	2999659.3001236.+	2999659	3001236	+	H37Ra
3774327.3776204.+	3774327	3776204	+	KZN_1435	3787580.3789457.+	3787580	3789457	+	H37Ra
3873342.3874010.+	3873342	3874010	+	KZN_1435	3892202.3892870.+	3892202	3892870	+	H37Ra
1853478.1854050.-	1854050	1853478	-	KZN_1435	2572446.2573018.+	2572446	2573018	+	H37Ra
627554.628549.+	627554	628549	+	KZN_1435	628603.629598.+	628603	629598	+	H37Ra
466929.467663.-	467663	466929	-	KZN_1435	467980.468714.-	468714	467980	-	H37Ra
3309418.3310131.-	3310131	3309418	-	KZN_1435	1103144.1103857.+	1103144	1103857	+	H37Ra
4198026.4198886.-	4198886	4198026	-	KZN_1435	4219526.4220386.-	4220386	4219526	-	H37Ra
2559205.2560365.+	2559205	2560365	+	KZN_1435	1863865.1865025.-	1865025	1863865	-	H37Ra
103841.104560.-	104560	103841	-	KZN_1435	3892875.3893594.+	3892875	3893594	+	H37Ra
3874015.3874734.+	3874015	3874734	+	KZN_1435	3892875.3893594.+	3892875	3893594	+	H37Ra
2633549.2634271.+	2633549	2634271	+	KZN_1435	3892875.3893594.+	3892875	3893594	+	H37Ra
586525.587559.+	586525	587559	+	KZN_1435	587656.588690.+	587656	588690	+	H37Ra
456525.457175.-	457175	456525	-	KZN_1435	457631.458281.-	458281	457631	-	H37Ra
638293.639177.-	639177	638293	-	KZN_1435	639342.640226.-	640226	639342	-	H37Ra
103841.104560.-	104560	103841	-	KZN_1435	105068.105787.-	105787	105068	-	H37Ra
3874015.3874734.+	3874015	3874734	+	KZN_1435	105068.105787.-	105787	105068	-	H37Ra
2633549.2634271.+	2633549	2634271	+	KZN_1435	105068.105787.-	105787	105068	-	H37Ra
739579.740469.-	740469	739579	-	KZN_1435	740633.741523.-	741523	740633	-	H37Ra
562982.563752.-	563752	562982	-	KZN_1435	564033.564803.-	564803	564033	-	H37Ra
2026882.2027148.+	2026882	2027148	+	KZN_1435	2397871.2398137.-	2398137	2397871	-	H37Ra
2370181.2371593.-	2371593	2370181	-	KZN_1435	2061208.2062620.+	2061208	2062620	+	H37Ra
2269677.2269907.+	2269677	2269907	+	KZN_1435	2162885.2163115.-	2163115	2162885	-	H37Ra
1822454.1823869.+	1822454	1823869	+	KZN_1435	2602627.2604042.-	2604042	2602627	-	H37Ra
1249712.1251559.-	1251559	1249712	-	KZN_1435	3174260.3176107.+	3174260	3176107	+	H37Ra
932089.932925.-	932925	932089	-	KZN_1435	3563987.3564823.+	3563987	3564823	+	H37Ra
1292329.1293165.+	1292329	1293165	+	KZN_1435	3563987.3564823.+	3563987	3564823	+	H37Ra
1330496.1331332.-	1331332	1330496	-	KZN_1435	3563987.3564823.+	3563987	3564823	+	H37Ra
1605986.1606822.-	1606822	1605986	-	KZN_1435	3563987.3564823.+	3563987	3564823	+	H37Ra
1781593.1782429.+	1781593	1782429	+	KZN_1435	3563987.3564823.+	3563987	3564823	+	H37Ra
1861140.1861976.+	1861140	1861976	+	KZN_1435	3563987.3564823.+	3563987	3564823	+	H37Ra
2048612.2049448.+	2048612	2049448	+	KZN_1435	3563987.3564823.+	3563987	3564823	+	H37Ra
2050283.2051119.+	2050283	2051119	+	KZN_1435	3563987.3564823.+	3563987	3564823	+	H37Ra
2155671.2156507.-	2156507	2155671	-	KZN_1435	3563987.3564823.+	3563987	3564823	+	H37Ra
2375978.2376814.+	2375978	2376814	+	KZN_1435	3563987.3564823.+	3563987	3564823	+	H37Ra
2435226.2436062.+	2435226	2436062	+	KZN_1435	3563987.3564823.+	3563987	3564823	+	H37Ra
3480315.3481151.+	3480315	3481151	+	KZN_1435	3563987.3564823.+	3563987	3564823	+	H37Ra
3708737.3709573.-	3709573	3708737	-	KZN_1435	3563987.3564823.+	3563987	3564823	+	H37Ra
4063263.4064099.-	4064099	4063263	-	KZN_1435	3563987.3564823.+	3563987	3564823	+	H37Ra
1784492.1786054.+	1784492	1786054	+	KZN_1435	2640441.2642003.-	2642003	2640441	-	H37Ra
3303442.3303795.+	3303442	3303795	+	KZN_1435	1109480.1109833.-	1109833	1109480	-	H37Ra
309877.310209.-	310209	309877	-	KZN_1435	311299.311631.-	311631	311299	-	H37Ra
1226216.1226806.-	1226806	1226216	-	KZN_1435	3199013.3199603.+	3199013	3199603	+	H37Ra
736550.737446.-	737446	736550	-	KZN_1435	737604.738500.-	738500	737604	-	H37Ra
2574542.2575723.+	2574542	2575723	+	KZN_1435	1848507.1849688.-	1849688	1848507	-	H37Ra
3833330.3833812.-	3833812	3833330	-	KZN_1435	3847264.3847746.-	3847746	3847264	-	H37Ra
1622540.1624021.+	1622540	1624021	+	KZN_1435	2802987.2804468.-	2804468	2802987	-	H37Ra
1013573.1014358.+	1013573	1014358	+	KZN_1435	3411589.3412374.-	3412374	3411589	-	H37Ra
2744322.2745083.-	2745083	2744322	-	KZN_1435	1669900.1670661.+	1669900	1670661	+	H37Ra
1031091.1032401.+	1031091	1032401	+	KZN_1435	3393545.3394855.-	3394855	3393545	-	H37Ra
1583948.1585258.+	1583948	1585258	+	KZN_1435	3393545.3394855.-	3394855	3393545	-	H37Ra
3069625.3070935.+	3069625	3070935	+	KZN_1435	3393545.3394855.-	3394855	3393545	-	H37Ra
3241296.3242606.-	3242606	3241296	-	KZN_1435	3393545.3394855.-	3394855	3393545	-	H37Ra
3482211.3483521.+	3482211	3483521	+	KZN_1435	3393545.3394855.-	3394855	3393545	-	H37Ra
204007.205176.+	204007	205176	+	KZN_1435	205428.206597.+	205428	206597	+	H37Ra
2926579.2927034.+	2926579	2927034	+	KZN_1435	1486623.1487078.-	1487078	1486623	-	H37Ra
2013389.2014741.+	2013389	2014741	+	KZN_1435	2410278.2411630.-	2411630	2410278	-	H37Ra
3433844.3435121.+	3433844	3435121	+	KZN_1435	978164.979441.-	979441	978164	-	H37Ra
1536837.1537238.+	1536837	1537238	+	KZN_1435	2888544.2888945.-	2888945	2888544	-	H37Ra
1341401.1341886.+	1341401	1341886	+	KZN_1435	3085098.3085583.-	3085583	3085098	-	H37Ra
1431299.1432165.-	1432165	1431299	-	KZN_1435	2994976.2995842.+	2994976	2995842	+	H37Ra
2221329.2221850.+	2221329	2221850	+	KZN_1435	2211122.2211643.-	2211643	2211122	-	H37Ra
3719565.3719951.+	3719565	3719951	+	KZN_1435	3734497.3734883.+	3734497	3734883	+	H37Ra
503405.503557.+	503405	503557	+	KZN_1435	504456.504608.+	504456	504608	+	H37Ra
3143217.3144032.+	3143217	3144032	+	KZN_1435	1269513.1270328.-	1270328	1269513	-	H37Ra
1438171.1438587.+	1438171	1438587	+	KZN_1435	2988554.2988970.-	2988970	2988554	-	H37Ra
3302718.3303389.+	3302718	3303389	+	KZN_1435	1109886.1110557.-	1110557	1109886	-	H37Ra
3510911.3512128.-	3512128	3510911	-	KZN_1435	3522244.3523461.-	3523461	3522244	-	H37Ra
560129.561007.+	560129	561007	+	KZN_1435	561180.562058.+	561180	562058	+	H37Ra
3092313.3097061.-	3097061	3092313	-	KZN_1435	1316545.1321293.+	1316545	1321293	+	H37Ra
873871.874554.-	874554	873871	-	KZN_1435	873978.874661.-	874661	873978	-	H37Ra
1438754.1439245.+	1438754	1439245	+	KZN_1435	2987896.2988387.-	2988387	2987896	-	H37Ra
2239822.2240613.+	2239822	2240613	+	KZN_1435	2192359.2193150.-	2193150	2192359	-	H37Ra
2725578.2726579.-	2726579	2725578	-	KZN_1435	1688404.1689405.+	1688404	1689405	+	H37Ra
1394505.1394693.-	1394693	1394505	-	KZN_1435	3032291.3032479.+	3032291	3032479	+	H37Ra
2710450.2710869.-	2710869	2710450	-	KZN_1435	1704114.1704533.+	1704114	1704533	+	H37Ra
3888952.3889698.-	3889698	3888952	-	KZN_1435	3909170.3909916.-	3909916	3909170	-	H37Ra
2100031.2100432.-	2100432	2100031	-	KZN_1435	2326179.2326580.+	2326179	2326580	+	H37Ra
3870249.3870599.-	3870599	3870249	-	KZN_1435	3889109.3889459.-	3889459	3889109	-	H37Ra
3357736.3358218.-	3358218	3357736	-	KZN_1435	1055067.1055549.+	1055067	1055549	+	H37Ra
1786245.1787810.+	1786245	1787810	+	KZN_1435	2638685.2640250.-	2640250	2638685	-	H37Ra
2127082.2127432.+	2127082	2127432	+	KZN_1435	2299182.2299532.-	2299532	2299182	-	H37Ra
1036922.1037287.+	1036922	1037287	+	KZN_1435	3388659.3389024.-	3389024	3388659	-	H37Ra
65115.65495.-	65495	65115	-	KZN_1435	66370.66750.-	66750	66370	-	H37Ra
877520.877912.-	877912	877520	-	KZN_1435	877625.878017.-	878017	877625	-	H37Ra
3598921.3599139.+	3598921	3599139	+	KZN_1435	3611584.3611802.+	3611584	3611802	+	H37Ra
776370.779186.-	779186	776370	-	KZN_1435	776892.779708.-	779708	776892	-	H37Ra
3291971.3293539.+	3291971	3293539	+	KZN_1435	1119736.1121304.-	1121304	1119736	-	H37Ra
1359525.1361222.-	1361222	1359525	-	KZN_1435	3065762.3067459.+	3065762	3067459	+	H37Ra
2695758.2699294.+	2695758	2699294	+	KZN_1435	1715689.1719225.-	1719225	1715689	-	H37Ra
2265540.2266154.+	2265540	2266154	+	KZN_1435	2166638.2167252.-	2167252	2166638	-	H37Ra
2397829.2398926.-	2398926	2397829	-	KZN_1435	2035233.2036330.+	2035233	2036330	+	H37Ra
1287593.1288840.+	1287593	1288840	+	KZN_1435	3136987.3138234.-	3138234	3136987	-	H37Ra
1946128.1947204.+	1946128	1947204	+	KZN_1435	2479289.2480365.-	2480365	2479289	-	H37Ra
3557667.3558131.+	3557667	3558131	+	KZN_1435	3570343.3570807.+	3570343	3570807	+	H37Ra
4233508.4236756.+	4233508	4236756	+	KZN_1435	4255008.4258256.+	4255008	4258256	+	H37Ra
1116963.1117253.+	1116963	1117253	+	KZN_1435	3308342.3308632.-	3308632	3308342	-	H37Ra
864455.865342.+	864455	865342	+	KZN_1435	864562.865449.+	864562	865449	+	H37Ra
738549.739502.-	739502	738549	-	KZN_1435	739603.740556.-	740556	739603	-	H37Ra
3071769.3072941.-	3072941	3071769	-	KZN_1435	1340663.1341679.+	1340663	1341679	+	H37Ra
2878716.2879903.+	2878716	2879903	+	KZN_1435	1340663.1341679.+	1340663	1341679	+	H37Ra
3882888.3884066.+	3882888	3884066	+	KZN_1435	1340663.1341679.+	1340663	1341679	+	H37Ra
68521.68682.+	68521	68682	+	KZN_1435	69776.69937.+	69776	69937	+	H37Ra
3706495.3707127.-	3707127	3706495	-	KZN_1435	3719279.3719911.-	3719911	3719279	-	H37Ra
552240.552809.+	552240	552809	+	KZN_1435	553291.553860.+	553291	553860	+	H37Ra
2516460.2517455.-	2517455	2516460	-	KZN_1435	1906765.1907760.+	1906765	1907760	+	H37Ra
1910436.1910855.+	1910436	1910855	+	KZN_1435	2515638.2516057.-	2516057	2515638	-	H37Ra
2081688.2081858.+	2081688	2081858	+	KZN_1435	2344752.2344922.-	2344922	2344752	-	H37Ra
4397232.4397582.-	4397582	4397232	-	KZN_1435	4418857.4419207.-	4419207	4418857	-	H37Ra
2058414.2058713.+	2058414	2058713	+	KZN_1435	2367809.2368108.-	2368108	2367809	-	H37Ra
4094190.4094384.+	4094190	4094384	+	KZN_1435	4115921.4116115.+	4115921	4116115	+	H37Ra
1549405.1550607.+	1549405	1550607	+	KZN_1435	2875175.2876377.-	2876377	2875175	-	H37Ra
1035106.1035282.+	1035106	1035282	+	KZN_1435	3390664.3390840.-	3390840	3390664	-	H37Ra
3298507.3299682.-	3299682	3298507	-	KZN_1435	1113593.1114768.+	1113593	1114768	+	H37Ra
4256786.4257319.-	4257319	4256786	-	KZN_1435	4278286.4278819.-	4278819	4278286	-	H37Ra
4182341.4182748.+	4182341	4182748	+	KZN_1435	4203841.4204248.+	4203841	4204248	+	H37Ra
3425156.3425305.-	3425305	3425156	-	KZN_1435	987981.988130.+	987981	988130	+	H37Ra
932089.932925.-	932925	932089	-	KZN_1435	1543304.1544140.-	1544140	1543304	-	H37Ra
1292329.1293165.+	1292329	1293165	+	KZN_1435	1543304.1544140.-	1544140	1543304	-	H37Ra
1330496.1331332.-	1331332	1330496	-	KZN_1435	1543304.1544140.-	1544140	1543304	-	H37Ra
1605986.1606822.-	1606822	1605986	-	KZN_1435	1543304.1544140.-	1544140	1543304	-	H37Ra
1781593.1782429.+	1781593	1782429	+	KZN_1435	1543304.1544140.-	1544140	1543304	-	H37Ra
1861140.1861976.+	1861140	1861976	+	KZN_1435	1543304.1544140.-	1544140	1543304	-	H37Ra
2048612.2049448.+	2048612	2049448	+	KZN_1435	1543304.1544140.-	1544140	1543304	-	H37Ra
2050283.2051119.+	2050283	2051119	+	KZN_1435	1543304.1544140.-	1544140	1543304	-	H37Ra
2155671.2156507.-	2156507	2155671	-	KZN_1435	1543304.1544140.-	1544140	1543304	-	H37Ra
2375978.2376814.+	2375978	2376814	+	KZN_1435	1543304.1544140.-	1544140	1543304	-	H37Ra
2435226.2436062.+	2435226	2436062	+	KZN_1435	1543304.1544140.-	1544140	1543304	-	H37Ra
3480315.3481151.+	3480315	3481151	+	KZN_1435	1543304.1544140.-	1544140	1543304	-	H37Ra
3708737.3709573.-	3709573	3708737	-	KZN_1435	1543304.1544140.-	1544140	1543304	-	H37Ra
4063263.4064099.-	4064099	4063263	-	KZN_1435	1543304.1544140.-	1544140	1543304	-	H37Ra
1730516.1731688.+	1730516	1731688	+	KZN_1435	2693983.2695155.-	2695155	2693983	-	H37Ra
476075.476443.+	476075	476443	+	KZN_1435	477126.477494.+	477126	477494	+	H37Ra
474009.474365.+	474009	474365	+	KZN_1435	477126.477494.+	477126	477494	+	H37Ra
1796575.1797009.-	1797009	1796575	-	KZN_1435	2629486.2629920.+	2629486	2629920	+	H37Ra
4047808.4048608.+	4047808	4048608	+	KZN_1435	4070896.4071696.+	4070896	4071696	+	H37Ra
984257.986539.-	986539	984257	-	KZN_1435	3439393.3441675.+	3439393	3441675	+	H37Ra
738549.739460.-	739460	738549	-	KZN_1435	739603.740514.-	740514	739603	-	H37Ra
3888952.3889662.-	3889662	3888952	-	KZN_1435	3909170.3909880.-	3909880	3909170	-	H37Ra
417930.418346.+	417930	418346	+	KZN_1435	416406.416822.+	416406	416822	+	H37Ra
3299744.3300397.-	3300397	3299744	-	KZN_1435	1112878.1113531.+	1112878	1113531	+	H37Ra
3210310.3211377.-	3211377	3210310	-	KZN_1435	1201902.1202969.+	1201902	1202969	+	H37Ra
1832184.1832780.-	1832780	1832184	-	KZN_1435	2593716.2594312.+	2593716	2594312	+	H37Ra
172141.173082.+	172141	173082	+	KZN_1435	173561.174502.+	173561	174502	+	H37Ra
1053181.1054194.+	1053181	1054194	+	KZN_1435	3371754.3372767.-	3372767	3371754	-	H37Ra
1391584.1392585.-	1392585	1391584	-	KZN_1435	3034399.3035400.+	3034399	3035400	+	H37Ra
2325281.2325601.-	2325601	2325281	-	KZN_1435	2107262.2107582.+	2107262	2107582	+	H37Ra
1174090.1175004.+	1174090	1175004	+	KZN_1435	3250593.3251507.-	3251507	3250593	-	H37Ra
709707.710600.+	709707	710600	+	KZN_1435	710765.711658.+	710765	711658	+	H37Ra
3794529.3795308.+	3794529	3795308	+	KZN_1435	3809140.3809919.+	3809140	3809919	+	H37Ra
330320.330943.+	330320	330943	+	KZN_1435	331742.332365.+	331742	332365	+	H37Ra
2797083.2797319.+	2797083	2797319	+	KZN_1435	1617675.1617911.-	1617911	1617675	-	H37Ra
141327.142277.+	141327	142277	+	KZN_1435	142553.143503.+	142553	143503	+	H37Ra
3252559.3253050.+	3252559	3253050	+	KZN_1435	1160226.1160717.-	1160717	1160226	-	H37Ra
709851.710600.+	709851	710600	+	KZN_1435	710909.711658.+	710909	711658	+	H37Ra
3140044.3140199.+	3140044	3140199	+	KZN_1435	1273346.1273501.-	1273501	1273346	-	H37Ra
4288509.4289732.-	4289732	4288509	-	KZN_1435	4310009.4311232.-	4311232	4310009	-	H37Ra
4121570.4122934.+	4121570	4122934	+	KZN_1435	4143130.4144494.+	4143130	4144494	+	H37Ra
1393151.1393468.+	1393151	1393468	+	KZN_1435	3033516.3033833.-	3033833	3033516	-	H37Ra
1706946.1707950.-	1707950	1706946	-	KZN_1435	2717700.2718704.+	2717700	2718704	+	H37Ra
