3364709.3365830.+	3364709	3365830	+	H37Rv	1047953.1049074.-	1049074	1047953	-	KZN_605
3489506.3490375.+	3489506	3490375	+	H37Rv	3491442.3492311.+	3491442	3492311	+	KZN_605
309699.310073.+	309699	310073	+	H37Rv	309638.310012.+	309638	310012	+	KZN_605
2651753.2651938.+	2651753	2651938	+	H37Rv	1761881.1762066.-	1762066	1761881	-	KZN_605
2983071.2983874.+	2983071	2983874	+	H37Rv	1431411.1432214.-	1432214	1431411	-	KZN_605
4178249.4180615.+	4178249	4180615	+	H37Rv	4166064.4168430.+	4166064	4168430	+	KZN_605
2218109.2218717.+	2218109	2218717	+	H37Rv	2204235.2204843.-	2204843	2204235	-	KZN_605
103710.104429.-	104429	103710	-	H37Rv	103839.104558.-	104558	103839	-	KZN_605
3884198.3884917.+	3884198	3884917	+	H37Rv	103839.104558.-	104558	103839	-	KZN_605
1214495.1214947.+	1214495	1214947	+	H37Rv	3196920.3197372.-	3197372	3196920	-	KZN_605
3585677.3585964.-	3585964	3585677	-	H37Rv	3584896.3585183.-	3585183	3584896	-	KZN_605
3378329.3378613.-	3378613	3378329	-	H37Rv	1035170.1035454.+	1035170	1035454	+	KZN_605
183415.183561.+	183415	183561	+	H37Rv	183352.183498.+	183352	183498	+	KZN_605
577643.578269.+	577643	578269	+	H37Rv	577903.578529.+	577903	578529	+	KZN_605
1078743.1081055.+	1078743	1081055	+	H37Rv	3330679.3332991.-	3332991	3330679	-	KZN_605
1077233.1077835.-	1077835	1077233	-	H37Rv	3333899.3334501.+	3333899	3334501	+	KZN_605
4251109.4252866.+	4251109	4252866	+	H37Rv	4238924.4240681.+	4238924	4240681	+	KZN_605
2715472.2716305.-	2716305	2715472	-	H37Rv	1697489.1698322.+	1697489	1698322	+	KZN_605
2051276.2052688.+	2051276	2052688	+	H37Rv	2370063.2371475.-	2371475	2370063	-	KZN_605
3336796.3337872.-	3337872	3336796	-	H37Rv	1075911.1076987.+	1075911	1076987	+	KZN_605
2960105.2962405.-	2962405	2960105	-	H37Rv	1451522.1453822.+	1451522	1453822	+	KZN_605
698524.698994.-	698994	698524	-	H37Rv	698835.699305.-	699305	698835	-	KZN_605
1064114.1064962.-	1064962	1064114	-	H37Rv	3346772.3347620.+	3346772	3347620	+	KZN_605
4266953.4268896.-	4268896	4266953	-	H37Rv	4254768.4256711.-	4256711	4254768	-	KZN_605
543195.544730.+	543195	544730	+	H37Rv	543455.544990.+	543455	544990	+	KZN_605
3900493.3901203.-	3901203	3900493	-	H37Rv	3890062.3890772.-	3890772	3890062	-	KZN_605
3583801.3584658.-	3584658	3583801	-	H37Rv	3583020.3583877.-	3583877	3583020	-	KZN_605
2370905.2372569.-	2372569	2370905	-	H37Rv	2042664.2044328.+	2042664	2044328	+	KZN_605
1273268.1274767.+	1273268	1274767	+	H37Rv	3137238.3138737.-	3138737	3137238	-	KZN_605
143998.145626.+	143998	145626	+	H37Rv	144129.145757.+	144129	145757	+	KZN_605
1366373.1367461.+	1366373	1367461	+	H37Rv	3044602.3045690.-	3045690	3044602	-	KZN_605
985513.985971.-	985971	985513	-	H37Rv	3425761.3426219.+	3425761	3426219	+	KZN_605
2157382.2157987.-	2157987	2157382	-	H37Rv	2264754.2265359.+	2264754	2265359	+	KZN_605
2943376.2943603.+	2943376	2943603	+	H37Rv	1470324.1470551.-	1470551	1470324	-	KZN_605
1172878.1173786.+	1172878	1173786	+	H37Rv	3237935.3238843.-	3238843	3237935	-	KZN_605
2971563.2972027.+	2971563	2972027	+	H37Rv	1441900.1442364.-	1442364	1441900	-	KZN_605
1973636.1976227.+	1973636	1976227	+	H37Rv	2446300.2448891.-	2448891	2446300	-	KZN_605
3547618.3548907.+	3547618	3548907	+	H37Rv	3549554.3550843.+	3549554	3550843	+	KZN_605
3510088.3511305.-	3511305	3510088	-	H37Rv	3512024.3513241.-	3513241	3512024	-	KZN_605
737268.738149.-	738149	737268	-	H37Rv	737579.738460.-	738460	737579	-	KZN_605
1108578.1109249.-	1109249	1108578	-	H37Rv	3302473.3303144.+	3302473	3303144	+	KZN_605
1339003.1339302.+	1339003	1339302	+	H37Rv	3072763.3073062.-	3073062	3072763	-	KZN_605
889497.890333.+	889497	890333	+	H37Rv	932094.932930.-	932930	932094	-	KZN_605
1541994.1542830.-	1542830	1541994	-	H37Rv	932094.932930.-	932930	932094	-	KZN_605
1987745.1988581.-	1988581	1987745	-	H37Rv	932094.932930.-	932930	932094	-	KZN_605
1996577.1997413.+	1996577	1997413	+	H37Rv	932094.932930.-	932930	932094	-	KZN_605
2365890.2366726.+	2365890	2366726	+	H37Rv	932094.932930.-	932930	932094	-	KZN_605
2430159.2430995.-	2430995	2430159	-	H37Rv	932094.932930.-	932930	932094	-	KZN_605
2550490.2551326.+	2550490	2551326	+	H37Rv	932094.932930.-	932930	932094	-	KZN_605
2636053.2636889.+	2636053	2636889	+	H37Rv	932094.932930.-	932930	932094	-	KZN_605
2784657.2785493.-	2785493	2784657	-	H37Rv	932094.932930.-	932930	932094	-	KZN_605
2972585.2973421.+	2972585	2973421	+	H37Rv	932094.932930.-	932930	932094	-	KZN_605
3120566.3121402.-	3121402	3120566	-	H37Rv	932094.932930.-	932930	932094	-	KZN_605
3551706.3552542.+	3551706	3552542	+	H37Rv	932094.932930.-	932930	932094	-	KZN_605
3553189.3554025.+	3553189	3554025	+	H37Rv	932094.932930.-	932930	932094	-	KZN_605
3710858.3711694.+	3710858	3711694	+	H37Rv	932094.932930.-	932930	932094	-	KZN_605
3795100.3795936.-	3795936	3795100	-	H37Rv	932094.932930.-	932930	932094	-	KZN_605
3891255.3892091.+	3891255	3892091	+	H37Rv	932094.932930.-	932930	932094	-	KZN_605
631743.632375.+	631743	632375	+	H37Rv	632063.632695.+	632063	632695	+	KZN_605
3556855.3557064.+	3556855	3557064	+	H37Rv	3556075.3556284.+	3556075	3556284	+	KZN_605
1094670.1094864.-	1094864	1094670	-	H37Rv	3316858.3317052.+	3316858	3317052	+	KZN_605
3291503.3296353.-	3296353	3291503	-	H37Rv	1117252.1122102.+	1117252	1122102	+	KZN_605
2546883.2547752.+	2546883	2547752	+	H37Rv	1868956.1869825.-	1869825	1868956	-	KZN_605
876319.876711.-	876711	876319	-	H37Rv	877525.877917.-	877917	877525	-	KZN_605
3427237.3429519.+	3427237	3429519	+	H37Rv	984262.986544.-	986544	984262	-	KZN_605
3633639.3635063.+	3633639	3635063	+	H37Rv	3632872.3634296.+	3632872	3634296	+	KZN_605
2316279.2316680.+	2316279	2316680	+	H37Rv	2099908.2100309.-	2100309	2099908	-	KZN_605
1566816.1568036.+	1566816	1568036	+	H37Rv	2845438.2846658.-	2846658	2845438	-	KZN_605
2736709.2736987.+	2736709	2736987	+	H37Rv	1676807.1677085.-	1677085	1676807	-	KZN_605
3124996.3126144.-	3126144	3124996	-	H37Rv	1287804.1288952.+	1287804	1288952	+	KZN_605
3709715.3710248.-	3710248	3709715	-	H37Rv	3708885.3709418.-	3709418	3708885	-	KZN_605
562723.563493.-	563493	562723	-	H37Rv	562983.563753.-	563753	562983	-	KZN_605
1095078.1096496.-	1096496	1095078	-	H37Rv	3315226.3316644.+	3315226	3316644	+	KZN_605
3187021.3187611.+	3187021	3187611	+	H37Rv	1226328.1226918.-	1226918	1226328	-	KZN_605
2620272.2620529.+	2620272	2620529	+	H37Rv	1796178.1796435.-	1796435	1796178	-	KZN_605
1283056.1284099.-	1284099	1283056	-	H37Rv	3127905.3128948.+	3127905	3128948	+	KZN_605
2573015.2573707.+	2573015	2573707	+	H37Rv	1843001.1843693.-	1843693	1843001	-	KZN_605
3020323.3020511.+	3020323	3020511	+	H37Rv	1394617.1394805.-	1394805	1394617	-	KZN_605
2752848.2752994.-	2752994	2752848	-	H37Rv	1660800.1660946.+	1660800	1660946	+	KZN_605
1339352.1340524.+	1339352	1340524	+	H37Rv	3071541.3072713.-	3072713	3071541	-	KZN_605
1532443.1533630.-	1533630	1532443	-	H37Rv	3071541.3072713.-	3072713	3071541	-	KZN_605
3894429.3895607.+	3894429	3895607	+	H37Rv	3071541.3072713.-	3072713	3071541	-	KZN_605
1023865.1024122.+	1023865	1024122	+	H37Rv	3387609.3387866.-	3387866	3387609	-	KZN_605
3404967.3405218.+	3404967	3405218	+	H37Rv	1008564.1008815.-	1008815	1008564	-	KZN_605
769999.770550.+	769999	770550	+	H37Rv	770842.771393.+	770842	771393	+	KZN_605
2711332.2712885.-	2712885	2711332	-	H37Rv	1700912.1702465.+	1700912	1702465	+	KZN_605
1265087.1265455.-	1265455	1265087	-	H37Rv	3146492.3146860.+	3146492	3146860	+	KZN_605
3704102.3704440.+	3704102	3704440	+	H37Rv	3703272.3703610.+	3703272	3703610	+	KZN_605
1178604.1178750.-	1178750	1178604	-	H37Rv	3232971.3233117.+	3232971	3233117	+	KZN_605
4094660.4094914.-	4094914	4094660	-	H37Rv	4082246.4082500.-	4082500	4082246	-	KZN_605
2472493.2473242.+	2472493	2473242	+	H37Rv	1943468.1944217.-	1944217	1943468	-	KZN_605
1828171.1828797.+	1828171	1828797	+	H37Rv	2593797.2594423.-	2594423	2593797	-	KZN_605
2370598.2370813.-	2370813	2370598	-	H37Rv	2044420.2044635.+	2044420	2044635	+	KZN_605
3580638.3581312.+	3580638	3581312	+	H37Rv	3579857.3580531.+	3579857	3580531	+	KZN_605
2534042.2534464.-	2534464	2534042	-	H37Rv	1882243.1882665.+	1882243	1882665	+	KZN_605
4128751.4129200.-	4129200	4128751	-	H37Rv	4116507.4116956.-	4116956	4116507	-	KZN_605
732324.732821.+	732324	732821	+	H37Rv	732635.733132.+	732635	733132	+	KZN_605
1413260.1413940.+	1413260	1413940	+	H37Rv	2998051.2998803.-	2998803	2998051	-	KZN_605
1774860.1775144.-	1775144	1774860	-	H37Rv	2638204.2638488.+	2638204	2638488	+	KZN_605
559888.560748.+	559888	560748	+	H37Rv	560148.561008.+	560148	561008	+	KZN_605
2792723.2794000.-	2794000	2792723	-	H37Rv	1621155.1622432.+	1621155	1622432	+	KZN_605
2583812.2584408.+	2583812	2584408	+	H37Rv	1832300.1832896.-	1832896	1832300	-	KZN_605
4093940.4094527.+	4093940	4094527	+	H37Rv	4081526.4082113.+	4081526	4082113	+	KZN_605
2594154.2594699.-	2594699	2594154	-	H37Rv	1822009.1822554.+	1822009	1822554	+	KZN_605
1129134.1130105.+	1129134	1130105	+	H37Rv	3281617.3282588.-	3282588	3281617	-	KZN_605
586394.587380.+	586394	587380	+	H37Rv	586630.587616.+	586630	587616	+	KZN_605
1164572.1165009.-	1165009	1164572	-	H37Rv	3133184.3133621.-	3133621	3133184	-	KZN_605
1278383.1278820.+	1278383	1278820	+	H37Rv	3133184.3133621.-	3133621	3133184	-	KZN_605
2677666.2678649.+	2677666	2678649	+	H37Rv	1735169.1736152.-	1736152	1735169	-	KZN_605
2069696.2070625.+	2069696	2070625	+	H37Rv	2352126.2353055.-	2353055	2352126	-	KZN_605
2703236.2703838.+	2703236	2703838	+	H37Rv	1709980.1710582.-	1710582	1709980	-	KZN_605
3876052.3876822.-	3876822	3876052	-	H37Rv	3866979.3867749.-	3867749	3866979	-	KZN_605
3743711.3753148.-	3753148	3743711	-	H37Rv	3740685.3750122.-	3750122	3740685	-	KZN_605
532354.532911.+	532354	532911	+	H37Rv	532614.533171.+	532614	533171	+	KZN_605
2583435.2583779.+	2583435	2583779	+	H37Rv	1832929.1833273.-	1833273	1832929	-	KZN_605
2195989.2197353.+	2195989	2197353	+	H37Rv	2225601.2226965.-	2226965	2225601	-	KZN_605
1276300.1277664.-	1277664	1276300	-	H37Rv	2225601.2226965.-	2226965	2225601	-	KZN_605
4098096.4099169.-	4099169	4098096	-	H37Rv	4085681.4086754.-	4086754	4085681	-	KZN_605
1617837.1618070.+	1617837	1618070	+	H37Rv	2795383.2795616.-	2795616	2795383	-	KZN_605
1408240.1409358.+	1408240	1409358	+	H37Rv	3002705.3003823.-	3003823	3002705	-	KZN_605
518733.519041.+	518733	519041	+	H37Rv	518993.519301.+	518993	519301	+	KZN_605
835059.835205.-	835205	835059	-	H37Rv	836064.836210.-	836210	836064	-	KZN_605
2943600.2944985.-	2944985	2943600	-	H37Rv	1468942.1470327.+	1468942	1470327	+	KZN_605
2795301.2796062.-	2796062	2795301	-	H37Rv	1619093.1619854.+	1619093	1619854	+	KZN_605
2307293.2307517.-	2307517	2307293	-	H37Rv	2109071.2109295.+	2109071	2109295	+	KZN_605
142128.143885.-	143885	142128	-	H37Rv	142259.144016.-	144016	142259	-	KZN_605
1639674.1640681.-	1640681	1639674	-	H37Rv	2772721.2773728.+	2772721	2773728	+	KZN_605
3639872.3640141.-	3640141	3639872	-	H37Rv	3639105.3639374.-	3639374	3639105	-	KZN_605
3066222.3067133.-	3067133	3066222	-	H37Rv	1347995.1348906.+	1347995	1348906	+	KZN_605
889497.890333.+	889497	890333	+	H37Rv	2048502.2049338.+	2048502	2049338	+	KZN_605
1541994.1542830.-	1542830	1541994	-	H37Rv	2048502.2049338.+	2048502	2049338	+	KZN_605
1987745.1988581.-	1988581	1987745	-	H37Rv	2048502.2049338.+	2048502	2049338	+	KZN_605
1996577.1997413.+	1996577	1997413	+	H37Rv	2048502.2049338.+	2048502	2049338	+	KZN_605
2365890.2366726.+	2365890	2366726	+	H37Rv	2048502.2049338.+	2048502	2049338	+	KZN_605
2430159.2430995.-	2430995	2430159	-	H37Rv	2048502.2049338.+	2048502	2049338	+	KZN_605
2550490.2551326.+	2550490	2551326	+	H37Rv	2048502.2049338.+	2048502	2049338	+	KZN_605
2636053.2636889.+	2636053	2636889	+	H37Rv	2048502.2049338.+	2048502	2049338	+	KZN_605
2784657.2785493.-	2785493	2784657	-	H37Rv	2048502.2049338.+	2048502	2049338	+	KZN_605
2972585.2973421.+	2972585	2973421	+	H37Rv	2048502.2049338.+	2048502	2049338	+	KZN_605
3120566.3121402.-	3121402	3120566	-	H37Rv	2048502.2049338.+	2048502	2049338	+	KZN_605
3551706.3552542.+	3551706	3552542	+	H37Rv	2048502.2049338.+	2048502	2049338	+	KZN_605
3553189.3554025.+	3553189	3554025	+	H37Rv	2048502.2049338.+	2048502	2049338	+	KZN_605
3710858.3711694.+	3710858	3711694	+	H37Rv	2048502.2049338.+	2048502	2049338	+	KZN_605
3795100.3795936.-	3795936	3795100	-	H37Rv	2048502.2049338.+	2048502	2049338	+	KZN_605
3891255.3892091.+	3891255	3892091	+	H37Rv	2048502.2049338.+	2048502	2049338	+	KZN_605
1485768.1485950.-	1485950	1485768	-	H37Rv	2926168.2926350.+	2926168	2926350	+	KZN_605
1655609.1656736.-	1656736	1655609	-	H37Rv	2756613.2757740.+	2756613	2757740	+	KZN_605
3488584.3489063.+	3488584	3489063	+	H37Rv	3490520.3490999.+	3490520	3490999	+	KZN_605
3123967.3124992.-	3124992	3123967	-	H37Rv	1288956.1289981.+	1288956	1289981	+	KZN_605
2833510.2833761.-	2833761	2833510	-	H37Rv	1580166.1580417.+	1580166	1580417	+	KZN_605
1896475.1896867.+	1896475	1896867	+	H37Rv	2525717.2526109.-	2526109	2525717	-	KZN_605
139965.140144.+	139965	140144	+	H37Rv	140096.140275.+	140096	140275	+	KZN_605
2927990.2928391.+	2927990	2928391	+	H37Rv	1485536.1485937.-	1485937	1485536	-	KZN_605
4169467.4169709.+	4169467	4169709	+	H37Rv	4157282.4157524.+	4157282	4157524	+	KZN_605
1965609.1965941.+	1965609	1965941	+	H37Rv	2456586.2456918.-	2456918	2456586	-	KZN_605
3371815.3372471.+	3371815	3372471	+	H37Rv	1041312.1041968.-	1041968	1041312	-	KZN_605
876689.876829.+	876689	876829	+	H37Rv	877895.878035.+	877895	878035	+	KZN_605
2979326.2979688.-	2979688	2979326	-	H37Rv	1435597.1435959.+	1435597	1435959	+	KZN_605
863298.864143.+	863298	864143	+	H37Rv	864502.865347.+	864502	865347	+	KZN_605
26993.27301.+	26993	27301	+	H37Rv	27094.27402.+	27094	27402	+	KZN_605
1992739.1992972.+	1992739	1992972	+	H37Rv	2430738.2430971.-	2430971	2430738	-	KZN_605
2829954.2830139.+	2829954	2830139	+	H37Rv	1583788.1583973.-	1583973	1583788	-	KZN_605
2860446.2861144.+	2860446	2861144	+	H37Rv	1552783.1553481.-	1553481	1552783	-	KZN_605
872672.873355.-	873355	872672	-	H37Rv	873876.874559.-	874559	873876	-	KZN_605
4221020.4222648.+	4221020	4222648	+	H37Rv	4208835.4210463.+	4208835	4210463	+	KZN_605
591475.591576.+	591475	591576	+	H37Rv	591711.591812.+	591711	591812	+	KZN_605
3839059.3839706.-	3839706	3839059	-	H37Rv	3834913.3835560.-	3835560	3834913	-	KZN_605
3132892.3133632.-	3133632	3132892	-	H37Rv	1280307.1281047.+	1280307	1281047	+	KZN_605
2113140.2115476.+	2113140	2115476	+	H37Rv	2307336.2309672.-	2309672	2307336	-	KZN_605
4383653.4383991.-	4383991	4383653	-	H37Rv	4371473.4371811.-	4371811	4371473	-	KZN_605
952795.953229.+	952795	953229	+	H37Rv	3458566.3459000.-	3459000	3458566	-	KZN_605
2725595.2725861.-	2725861	2725595	-	H37Rv	1687933.1688199.+	1687933	1688199	+	KZN_605
1164164.1164472.-	1164472	1164164	-	H37Rv	3247251.3247559.+	3247251	3247559	+	KZN_605
602810.604516.+	602810	604516	+	H37Rv	603046.604752.+	603046	604752	+	KZN_605
832058.832303.+	832058	832303	+	H37Rv	833063.833308.+	833063	833308	+	KZN_605
842033.842278.+	842033	842278	+	H37Rv	833063.833308.+	833063	833308	+	KZN_605
4363417.4364787.-	4364787	4363417	-	H37Rv	4351232.4352602.-	4352602	4351232	-	KZN_605
2984733.2985254.+	2984733	2985254	+	H37Rv	1430031.1430552.-	1430552	1430031	-	KZN_605
3800723.3801463.+	3800723	3801463	+	H37Rv	3796348.3797088.+	3796348	3797088	+	KZN_605
366150.372764.-	372764	366150	-	H37Rv	369007.375621.-	375621	369007	-	KZN_605
1165092.1165499.-	1165499	1165092	-	H37Rv	3246224.3246631.+	3246224	3246631	+	KZN_605
1277893.1278300.+	1277893	1278300	+	H37Rv	3246224.3246631.+	3246224	3246631	+	KZN_605
2379245.2379760.-	2379760	2379245	-	H37Rv	2035473.2035988.+	2035473	2035988	+	KZN_605
2577488.2577922.+	2577488	2577922	+	H37Rv	1838786.1839220.-	1839220	1838786	-	KZN_605
4384147.4385241.-	4385241	4384147	-	H37Rv	4371967.4373061.-	4373061	4371967	-	KZN_605
2054157.2055350.-	2055350	2054157	-	H37Rv	2367401.2368594.+	2367401	2368594	+	KZN_605
918912.919553.-	919553	918912	-	H37Rv	918759.919400.-	919400	918759	-	KZN_605
2025301.2026398.+	2025301	2026398	+	H37Rv	2397711.2398808.-	2398808	2397711	-	KZN_605
1363503.1364246.-	1364246	1363503	-	H37Rv	3047818.3048561.+	3047818	3048561	+	KZN_605
3914531.3915886.-	3915886	3914531	-	H37Rv	3904100.3905455.-	3905455	3904100	-	KZN_605
3519273.3520514.+	3519273	3520514	+	H37Rv	3521209.3522450.+	3521209	3522450	+	KZN_605
34295.36610.+	34295	36610	+	H37Rv	34396.36642.+	34396	36642	+	KZN_605
3251072.3255688.+	3251072	3255688	+	H37Rv	1157917.1162533.-	1162533	1157917	-	KZN_605
1227596.1228582.-	1228582	1227596	-	H37Rv	3183366.3184352.+	3183366	3184352	+	KZN_605
3645979.3646902.-	3646902	3645979	-	H37Rv	3645212.3646135.-	3646135	3645212	-	KZN_605
889497.890333.+	889497	890333	+	H37Rv	1292441.1293277.+	1292441	1293277	+	KZN_605
1541994.1542830.-	1542830	1541994	-	H37Rv	1292441.1293277.+	1292441	1293277	+	KZN_605
1987745.1988581.-	1988581	1987745	-	H37Rv	1292441.1293277.+	1292441	1293277	+	KZN_605
1996577.1997413.+	1996577	1997413	+	H37Rv	1292441.1293277.+	1292441	1293277	+	KZN_605
2365890.2366726.+	2365890	2366726	+	H37Rv	1292441.1293277.+	1292441	1293277	+	KZN_605
2430159.2430995.-	2430995	2430159	-	H37Rv	1292441.1293277.+	1292441	1293277	+	KZN_605
2550490.2551326.+	2550490	2551326	+	H37Rv	1292441.1293277.+	1292441	1293277	+	KZN_605
2636053.2636889.+	2636053	2636889	+	H37Rv	1292441.1293277.+	1292441	1293277	+	KZN_605
2784657.2785493.-	2785493	2784657	-	H37Rv	1292441.1293277.+	1292441	1293277	+	KZN_605
2972585.2973421.+	2972585	2973421	+	H37Rv	1292441.1293277.+	1292441	1293277	+	KZN_605
3120566.3121402.-	3121402	3120566	-	H37Rv	1292441.1293277.+	1292441	1293277	+	KZN_605
3551706.3552542.+	3551706	3552542	+	H37Rv	1292441.1293277.+	1292441	1293277	+	KZN_605
3553189.3554025.+	3553189	3554025	+	H37Rv	1292441.1293277.+	1292441	1293277	+	KZN_605
3710858.3711694.+	3710858	3711694	+	H37Rv	1292441.1293277.+	1292441	1293277	+	KZN_605
3795100.3795936.-	3795936	3795100	-	H37Rv	1292441.1293277.+	1292441	1293277	+	KZN_605
3891255.3892091.+	3891255	3892091	+	H37Rv	1292441.1293277.+	1292441	1293277	+	KZN_605
3239515.3239706.-	3239706	3239515	-	H37Rv	1173899.1174090.+	1173899	1174090	+	KZN_605
359758.361164.-	361164	359758	-	H37Rv	362624.364030.-	364030	362624	-	KZN_605
3600795.3601022.-	3601022	3600795	-	H37Rv	3600028.3600255.-	3600255	3600028	-	KZN_605
133020.133769.+	133020	133769	+	H37Rv	133151.133900.+	133151	133900	+	KZN_605
4081516.4082724.-	4082724	4081516	-	H37Rv	4069103.4070311.-	4070311	4069103	-	KZN_605
3559560.3560024.+	3559560	3560024	+	H37Rv	3558780.3559244.+	3558780	3559244	+	KZN_605
1169360.1170670.+	1169360	1170670	+	H37Rv	3481966.3483276.+	3481966	3483276	+	KZN_605
3381375.3382685.-	3382685	3381375	-	H37Rv	3481966.3483276.+	3481966	3483276	+	KZN_605
3481388.3482698.+	3481388	3482698	+	H37Rv	3481966.3483276.+	3481966	3483276	+	KZN_605
1341358.1342668.-	1342668	1341358	-	H37Rv	3481966.3483276.+	3481966	3483276	+	KZN_605
2828556.2829866.-	2829866	2828556	-	H37Rv	3481966.3483276.+	3481966	3483276	+	KZN_605
3871084.3872532.-	3872532	3871084	-	H37Rv	3862011.3863459.-	3863459	3862011	-	KZN_605
1164572.1165009.-	1165009	1164572	-	H37Rv	3246714.3247151.+	3246714	3247151	+	KZN_605
1278383.1278820.+	1278383	1278820	+	H37Rv	3246714.3247151.+	3246714	3247151	+	KZN_605
4053518.4053847.-	4053847	4053518	-	H37Rv	4039747.4040076.-	4040076	4039747	-	KZN_605
3557311.3558495.-	3558495	3557311	-	H37Rv	3556531.3557715.-	3557715	3556531	-	KZN_605
104805.105215.-	105215	104805	-	H37Rv	104934.105344.-	105344	104934	-	KZN_605
2029904.2030203.+	2029904	2030203	+	H37Rv	2393906.2394205.-	2394205	2393906	-	KZN_605
4212203.4212982.+	4212203	4212982	+	H37Rv	4200018.4200797.+	4200018	4200797	+	KZN_605
3511577.3512068.+	3511577	3512068	+	H37Rv	3513513.3514004.+	3513513	3514004	+	KZN_605
3051806.3052012.-	3052012	3051806	-	H37Rv	1363116.1363322.+	1363116	1363322	+	KZN_605
1840572.1842242.-	1842242	1840572	-	H37Rv	2580352.2582022.+	2580352	2582022	+	KZN_605
2705762.2706736.+	2705762	2706736	+	H37Rv	1707061.1708035.-	1708035	1707061	-	KZN_605
3024270.3025337.-	3025337	3024270	-	H37Rv	1389791.1390858.+	1389791	1390858	+	KZN_605
2265280.2265999.+	2265280	2265999	+	H37Rv	2156953.2157672.-	2157672	2156953	-	KZN_605
1262272.1264128.-	1264128	1262272	-	H37Rv	3147819.3149675.+	3147819	3149675	+	KZN_605
2421662.2422003.-	2422003	2421662	-	H37Rv	1993290.1993631.+	1993290	1993631	+	KZN_605
1169375.1170670.+	1169375	1170670	+	H37Rv	3241051.3242346.-	3242346	3241051	-	KZN_605
3381375.3382670.-	3382670	3381375	-	H37Rv	3241051.3242346.-	3242346	3241051	-	KZN_605
3481403.3482698.+	3481403	3482698	+	H37Rv	3241051.3242346.-	3242346	3241051	-	KZN_605
1341358.1342653.-	1342653	1341358	-	H37Rv	3241051.3242346.-	3242346	3241051	-	KZN_605
2828556.2829851.-	2829851	2828556	-	H37Rv	3241051.3242346.-	3242346	3241051	-	KZN_605
278385.278588.+	278385	278588	+	H37Rv	278325.278528.+	278325	278528	+	KZN_605
3307580.3308554.-	3308554	3307580	-	H37Rv	1105052.1106026.+	1105052	1106026	+	KZN_605
738297.739160.-	739160	738297	-	H37Rv	738608.739471.-	739471	738608	-	KZN_605
578405.579175.+	578405	579175	+	H37Rv	578665.579435.+	578665	579435	+	KZN_605
889497.890333.+	889497	890333	+	H37Rv	1781709.1782545.+	1781709	1782545	+	KZN_605
1541994.1542830.-	1542830	1541994	-	H37Rv	1781709.1782545.+	1781709	1782545	+	KZN_605
1987745.1988581.-	1988581	1987745	-	H37Rv	1781709.1782545.+	1781709	1782545	+	KZN_605
1996577.1997413.+	1996577	1997413	+	H37Rv	1781709.1782545.+	1781709	1782545	+	KZN_605
2365890.2366726.+	2365890	2366726	+	H37Rv	1781709.1782545.+	1781709	1782545	+	KZN_605
2430159.2430995.-	2430995	2430159	-	H37Rv	1781709.1782545.+	1781709	1782545	+	KZN_605
2550490.2551326.+	2550490	2551326	+	H37Rv	1781709.1782545.+	1781709	1782545	+	KZN_605
2636053.2636889.+	2636053	2636889	+	H37Rv	1781709.1782545.+	1781709	1782545	+	KZN_605
2784657.2785493.-	2785493	2784657	-	H37Rv	1781709.1782545.+	1781709	1782545	+	KZN_605
2972585.2973421.+	2972585	2973421	+	H37Rv	1781709.1782545.+	1781709	1782545	+	KZN_605
3120566.3121402.-	3121402	3120566	-	H37Rv	1781709.1782545.+	1781709	1782545	+	KZN_605
3551706.3552542.+	3551706	3552542	+	H37Rv	1781709.1782545.+	1781709	1782545	+	KZN_605
3553189.3554025.+	3553189	3554025	+	H37Rv	1781709.1782545.+	1781709	1782545	+	KZN_605
3710858.3711694.+	3710858	3711694	+	H37Rv	1781709.1782545.+	1781709	1782545	+	KZN_605
3795100.3795936.-	3795936	3795100	-	H37Rv	1781709.1782545.+	1781709	1782545	+	KZN_605
3891255.3892091.+	3891255	3892091	+	H37Rv	1781709.1782545.+	1781709	1782545	+	KZN_605
1199426.1200376.-	1200376	1199426	-	H37Rv	3211348.3212187.+	3211348	3212187	+	KZN_605
3895637.3898885.+	3895637	3898885	+	H37Rv	3885206.3888454.+	3885206	3888454	+	KZN_605
1970975.1971160.-	1971160	1970975	-	H37Rv	2451367.2451552.+	2451367	2451552	+	KZN_605
3708438.3709070.-	3709070	3708438	-	H37Rv	3707608.3708240.-	3708240	3707608	-	KZN_605
932279.932932.-	932932	932279	-	H37Rv	3478863.3479516.+	3478863	3479516	+	KZN_605
3053914.3055491.+	3053914	3055491	+	H37Rv	1359637.1361214.-	1361214	1359637	-	KZN_605
3880432.3880782.-	3880782	3880432	-	H37Rv	3871359.3871709.-	3871709	3871359	-	KZN_605
3386074.3386814.-	3386814	3386074	-	H37Rv	1026968.1027708.+	1026968	1027708	+	KZN_605
3755952.3767102.-	3767102	3755952	-	H37Rv	3752926.3764076.-	3764076	3752926	-	KZN_605
4310401.4310814.+	4310401	4310814	+	H37Rv	4298216.4298629.+	4298216	4298629	+	KZN_605
361241.363109.+	361241	363109	+	H37Rv	364107.365966.+	364107	365966	+	KZN_605
3743711.3751129.-	3751129	3743711	-	H37Rv	3740685.3748103.-	3748103	3740685	-	KZN_605
3493600.3494181.-	3494181	3493600	-	H37Rv	3495536.3496117.-	3496117	3495536	-	KZN_605
4095540.4096220.-	4096220	4095540	-	H37Rv	4083125.4083805.-	4083805	4083125	-	KZN_605
151187.152215.+	151187	152215	+	H37Rv	151499.152527.+	151499	152527	+	KZN_605
3700356.3700526.-	3700526	3700356	-	H37Rv	3699526.3699696.-	3699696	3699526	-	KZN_605
2364797.2365093.-	2365093	2364797	-	H37Rv	2051497.2051793.+	2051497	2051793	+	KZN_605
675831.676310.+	675831	676310	+	H37Rv	676142.676621.+	676142	676621	+	KZN_605
1955692.1957245.-	1957245	1955692	-	H37Rv	2465282.2466835.+	2465282	2466835	+	KZN_605
831776.832303.+	831776	832303	+	H37Rv	832781.833308.+	832781	833308	+	KZN_605
987182.988705.+	987182	988705	+	H37Rv	3423027.3424550.-	3424550	3423027	-	KZN_605
1207299.1207649.+	1207299	1207649	+	H37Rv	3204075.3204425.-	3204425	3204075	-	KZN_605
3501175.3501732.+	3501175	3501732	+	H37Rv	3503111.3503668.+	3503111	3503668	+	KZN_605
1467315.1467680.+	1467315	1467680	+	H37Rv	2944439.2944804.-	2944804	2944439	-	KZN_605
2522288.2523175.+	2522288	2523175	+	H37Rv	1893534.1894421.-	1894421	1893534	-	KZN_605
3435798.3436313.-	3436313	3435798	-	H37Rv	977468.977983.+	977468	977983	+	KZN_605
3889948.3890733.-	3890733	3889948	-	H37Rv	3880875.3881660.-	3881660	3880875	-	KZN_605
658318.659340.+	658318	659340	+	H37Rv	658638.659660.+	658638	659660	+	KZN_605
2898043.2898783.+	2898043	2898783	+	H37Rv	1515145.1515885.-	1515885	1515145	-	KZN_605
223607.223909.+	223607	223909	+	H37Rv	223544.223846.+	223544	223846	+	KZN_605
1184883.1185740.+	1184883	1185740	+	H37Rv	3225981.3226838.-	3226838	3225981	-	KZN_605
3668951.3669388.-	3669388	3668951	-	H37Rv	3668121.3668558.-	3668558	3668121	-	KZN_605
2823256.2824602.-	2824602	2823256	-	H37Rv	1589325.1590671.+	1589325	1590671	+	KZN_605
3873437.3874132.+	3873437	3874132	+	H37Rv	3864364.3865059.+	3864364	3865059	+	KZN_605
2646747.2647088.-	2647088	2646747	-	H37Rv	1766731.1767072.+	1766731	1767072	+	KZN_605
767317.767820.-	767820	767317	-	H37Rv	768161.768664.-	768664	768161	-	KZN_605
1176886.1177242.+	1176886	1177242	+	H37Rv	3234479.3234835.-	3234835	3234479	-	KZN_605
3357602.3358567.+	3357602	3358567	+	H37Rv	1055216.1056181.-	1056181	1055216	-	KZN_605
2260665.2261144.+	2260665	2261144	+	H37Rv	2161808.2162287.-	2162287	2161808	-	KZN_605
3168583.3169359.-	3169359	3168583	-	H37Rv	1244580.1245356.+	1244580	1245356	+	KZN_605
4016484.4017083.+	4016484	4017083	+	H37Rv	4002713.4003312.+	4002713	4003312	+	KZN_605
2123684.2124370.+	2123684	2124370	+	H37Rv	2298441.2299127.-	2299127	2298441	-	KZN_605
1858700.1859758.+	1858700	1859758	+	H37Rv	2562836.2563894.-	2563894	2562836	-	KZN_605
207452.208420.+	207452	208420	+	H37Rv	207389.208357.+	207389	208357	+	KZN_605
889497.890333.+	889497	890333	+	H37Rv	1330608.1331444.-	1331444	1330608	-	KZN_605
1541994.1542830.-	1542830	1541994	-	H37Rv	1330608.1331444.-	1331444	1330608	-	KZN_605
1987745.1988581.-	1988581	1987745	-	H37Rv	1330608.1331444.-	1331444	1330608	-	KZN_605
1996577.1997413.+	1996577	1997413	+	H37Rv	1330608.1331444.-	1331444	1330608	-	KZN_605
2365890.2366726.+	2365890	2366726	+	H37Rv	1330608.1331444.-	1331444	1330608	-	KZN_605
2430159.2430995.-	2430995	2430159	-	H37Rv	1330608.1331444.-	1331444	1330608	-	KZN_605
2550490.2551326.+	2550490	2551326	+	H37Rv	1330608.1331444.-	1331444	1330608	-	KZN_605
2636053.2636889.+	2636053	2636889	+	H37Rv	1330608.1331444.-	1331444	1330608	-	KZN_605
2784657.2785493.-	2785493	2784657	-	H37Rv	1330608.1331444.-	1331444	1330608	-	KZN_605
2972585.2973421.+	2972585	2973421	+	H37Rv	1330608.1331444.-	1331444	1330608	-	KZN_605
3120566.3121402.-	3121402	3120566	-	H37Rv	1330608.1331444.-	1331444	1330608	-	KZN_605
3551706.3552542.+	3551706	3552542	+	H37Rv	1330608.1331444.-	1331444	1330608	-	KZN_605
3553189.3554025.+	3553189	3554025	+	H37Rv	1330608.1331444.-	1331444	1330608	-	KZN_605
3710858.3711694.+	3710858	3711694	+	H37Rv	1330608.1331444.-	1331444	1330608	-	KZN_605
3795100.3795936.-	3795936	3795100	-	H37Rv	1330608.1331444.-	1331444	1330608	-	KZN_605
3891255.3892091.+	3891255	3892091	+	H37Rv	1330608.1331444.-	1331444	1330608	-	KZN_605
4301563.4302789.-	4302789	4301563	-	H37Rv	4289378.4290604.-	4290604	4289378	-	KZN_605
1384997.1385542.-	1385542	1384997	-	H37Rv	3026521.3027066.+	3026521	3027066	+	KZN_605
4384147.4385466.-	4385466	4384147	-	H37Rv	4371967.4373286.-	4373286	4371967	-	KZN_605
2453458.2453709.-	2453709	2453458	-	H37Rv	1962944.1963195.+	1962944	1963195	+	KZN_605
1158918.1159307.-	1159307	1158918	-	H37Rv	3252416.3252805.+	3252416	3252805	+	KZN_605
181987.183210.-	183210	181987	-	H37Rv	181924.183147.-	183147	181924	-	KZN_605
366150.373271.-	373271	366150	-	H37Rv	369007.376128.-	376128	369007	-	KZN_605
2528980.2529174.-	2529174	2528980	-	H37Rv	1887533.1887727.+	1887533	1887727	+	KZN_605
3136330.3137055.-	3137055	3136330	-	H37Rv	1276884.1277609.+	1276884	1277609	+	KZN_605
742719.746366.+	742719	746366	+	H37Rv	743563.747210.+	743563	747210	+	KZN_605
642889.644493.+	642889	644493	+	H37Rv	643209.644813.+	643209	644813	+	KZN_605
1205984.1206445.-	1206445	1205984	-	H37Rv	3205279.3205740.+	3205279	3205740	+	KZN_605
3983125.3984144.-	3984144	3983125	-	H37Rv	3969357.3970376.-	3970376	3969357	-	KZN_605
131382.132872.+	131382	132872	+	H37Rv	131513.133003.+	131513	133003	+	KZN_605
2206950.2207207.+	2206950	2207207	+	H37Rv	2215747.2216004.-	2216004	2215747	-	KZN_605
103710.104663.-	104663	103710	-	H37Rv	3874891.3875844.+	3874891	3875844	+	KZN_605
3883964.3884917.+	3883964	3884917	+	H37Rv	3874891.3875844.+	3874891	3875844	+	KZN_605
3110507.3110731.-	3110731	3110507	-	H37Rv	1303038.1303262.+	1303038	1303262	+	KZN_605
2791019.2792500.-	2792500	2791019	-	H37Rv	1622655.1624136.+	1622655	1624136	+	KZN_605
1261922.1262158.+	1261922	1262158	+	H37Rv	3149789.3150025.-	3150025	3149789	-	KZN_605
141194.142144.+	141194	142144	+	H37Rv	141325.142275.+	141325	142275	+	KZN_605
2328222.2328977.-	2328977	2328222	-	H37Rv	2087611.2088366.+	2087611	2088366	+	KZN_605
3957521.3958432.+	3957521	3958432	+	H37Rv	3943753.3944664.+	3943753	3944664	+	KZN_605
2363391.2364107.+	2363391	2364107	+	H37Rv	2052483.2053199.-	2053199	2052483	-	KZN_605
2212885.2214126.+	2212885	2214126	+	H37Rv	2208826.2210067.-	2210067	2208826	-	KZN_605
3357225.3357428.-	3357428	3357225	-	H37Rv	1056355.1056558.+	1056355	1056558	+	KZN_605
2960105.2962441.-	2962441	2960105	-	H37Rv	1451486.1453822.+	1451486	1453822	+	KZN_605
2747595.2750255.-	2750255	2747595	-	H37Rv	1663539.1666199.+	1663539	1666199	+	KZN_605
4162318.4163718.+	4162318	4163718	+	H37Rv	4150133.4151533.+	4150133	4151533	+	KZN_605
563564.564934.+	563564	564934	+	H37Rv	563824.565194.+	563824	565194	+	KZN_605
848103.850043.-	850043	848103	-	H37Rv	849307.851247.-	851247	849307	-	KZN_605
1989833.1992577.-	1992577	1989833	-	H37Rv	2431133.2433877.+	2431133	2433877	+	KZN_605
1530973.1531197.-	1531197	1530973	-	H37Rv	2880920.2881144.+	2880920	2881144	+	KZN_605
2047687.2048034.-	2048034	2047687	-	H37Rv	2374717.2375064.+	2374717	2375064	+	KZN_605
3350274.3350993.-	3350993	3350274	-	H37Rv	1062790.1063509.+	1062790	1063509	+	KZN_605
2863207.2864412.-	2864412	2863207	-	H37Rv	1549515.1550720.+	1549515	1550720	+	KZN_605
2608973.2609728.+	2608973	2609728	+	H37Rv	1806979.1807734.-	1807734	1806979	-	KZN_605
2084559.2084759.+	2084559	2084759	+	H37Rv	2338048.2338248.-	2338248	2338048	-	KZN_605
1299822.1300124.-	1300124	1299822	-	H37Rv	3111880.3112182.+	3111880	3112182	+	KZN_605
144049.145626.+	144049	145626	+	H37Rv	144180.145757.+	144180	145757	+	KZN_605
4410412.4410762.-	4410762	4410412	-	H37Rv	4398101.4398451.-	4398451	4398101	-	KZN_605
254637.255968.-	255968	254637	-	H37Rv	254577.255908.-	255908	254577	-	KZN_605
736298.737245.-	737245	736298	-	H37Rv	736609.737556.-	737556	736609	-	KZN_605
677125.677616.-	677616	677125	-	H37Rv	677436.677927.-	677927	677436	-	KZN_605
2555941.2556135.+	2555941	2556135	+	H37Rv	1860573.1860767.-	1860767	1860573	-	KZN_605
1910586.1910810.+	1910586	1910810	+	H37Rv	2511774.2511998.-	2511998	2511774	-	KZN_605
4200421.4201326.+	4200421	4201326	+	H37Rv	4188236.4189141.+	4188236	4189141	+	KZN_605
53663.55699.+	53663	55699	+	H37Rv	53765.55801.+	53765	55801	+	KZN_605
944343.944735.+	944343	944735	+	H37Rv	3467060.3467452.-	3467452	3467060	-	KZN_605
2768231.2769037.+	2768231	2769037	+	H37Rv	1644757.1645563.-	1645563	1644757	-	KZN_605
3723656.3724042.+	3723656	3724042	+	H37Rv	3720678.3721064.+	3720678	3721064	+	KZN_605
1813168.1814577.+	1813168	1814577	+	H37Rv	2608018.2609427.-	2609427	2608018	-	KZN_605
2760854.2762380.+	2760854	2762380	+	H37Rv	1651414.1652940.-	1652940	1651414	-	KZN_605
677727.678575.-	678575	677727	-	H37Rv	678038.678886.-	678886	678038	-	KZN_605
889497.890333.+	889497	890333	+	H37Rv	2375860.2376696.+	2375860	2376696	+	KZN_605
1541994.1542830.-	1542830	1541994	-	H37Rv	2375860.2376696.+	2375860	2376696	+	KZN_605
1987745.1988581.-	1988581	1987745	-	H37Rv	2375860.2376696.+	2375860	2376696	+	KZN_605
1996577.1997413.+	1996577	1997413	+	H37Rv	2375860.2376696.+	2375860	2376696	+	KZN_605
2365890.2366726.+	2365890	2366726	+	H37Rv	2375860.2376696.+	2375860	2376696	+	KZN_605
2430159.2430995.-	2430995	2430159	-	H37Rv	2375860.2376696.+	2375860	2376696	+	KZN_605
2550490.2551326.+	2550490	2551326	+	H37Rv	2375860.2376696.+	2375860	2376696	+	KZN_605
2636053.2636889.+	2636053	2636889	+	H37Rv	2375860.2376696.+	2375860	2376696	+	KZN_605
2784657.2785493.-	2785493	2784657	-	H37Rv	2375860.2376696.+	2375860	2376696	+	KZN_605
2972585.2973421.+	2972585	2973421	+	H37Rv	2375860.2376696.+	2375860	2376696	+	KZN_605
3120566.3121402.-	3121402	3120566	-	H37Rv	2375860.2376696.+	2375860	2376696	+	KZN_605
3551706.3552542.+	3551706	3552542	+	H37Rv	2375860.2376696.+	2375860	2376696	+	KZN_605
3553189.3554025.+	3553189	3554025	+	H37Rv	2375860.2376696.+	2375860	2376696	+	KZN_605
3710858.3711694.+	3710858	3711694	+	H37Rv	2375860.2376696.+	2375860	2376696	+	KZN_605
3795100.3795936.-	3795936	3795100	-	H37Rv	2375860.2376696.+	2375860	2376696	+	KZN_605
3891255.3892091.+	3891255	3892091	+	H37Rv	2375860.2376696.+	2375860	2376696	+	KZN_605
593871.594779.-	594779	593871	-	H37Rv	594107.595015.-	595015	594107	-	KZN_605
1158918.1159412.-	1159412	1158918	-	H37Rv	3252311.3252805.+	3252311	3252805	+	KZN_605
1169375.1170670.+	1169375	1170670	+	H37Rv	1031112.1032407.+	1031112	1032407	+	KZN_605
3381375.3382670.-	3382670	3381375	-	H37Rv	1031112.1032407.+	1031112	1032407	+	KZN_605
3481403.3482698.+	3481403	3482698	+	H37Rv	1031112.1032407.+	1031112	1032407	+	KZN_605
1341358.1342653.-	1342653	1341358	-	H37Rv	1031112.1032407.+	1031112	1032407	+	KZN_605
2828556.2829851.-	2829851	2828556	-	H37Rv	1031112.1032407.+	1031112	1032407	+	KZN_605
1169423.1170670.+	1169423	1170670	+	H37Rv	3482029.3483276.+	3482029	3483276	+	KZN_605
3381375.3382622.-	3382622	3381375	-	H37Rv	3482029.3483276.+	3482029	3483276	+	KZN_605
3481451.3482698.+	3481451	3482698	+	H37Rv	3482029.3483276.+	3482029	3483276	+	KZN_605
1341358.1342605.-	1342605	1341358	-	H37Rv	3482029.3483276.+	3482029	3483276	+	KZN_605
2828556.2829803.-	2829803	2828556	-	H37Rv	3482029.3483276.+	3482029	3483276	+	KZN_605
2962470.2962712.+	2962470	2962712	+	H37Rv	1451215.1451457.-	1451457	1451215	-	KZN_605
2167649.2170690.-	2170690	2167649	-	H37Rv	2252264.2255305.+	2252264	2255305	+	KZN_605
2501336.2501638.-	2501638	2501336	-	H37Rv	1915071.1915373.+	1915071	1915373	+	KZN_605
4052855.4053556.+	4052855	4053556	+	H37Rv	4039084.4039785.+	4039084	4039785	+	KZN_605
3313316.3313729.-	3313729	3313316	-	H37Rv	1099877.1100290.+	1099877	1100290	+	KZN_605
1169423.1170670.+	1169423	1170670	+	H37Rv	1584124.1585371.+	1584124	1585371	+	KZN_605
3381375.3382622.-	3382622	3381375	-	H37Rv	1584124.1585371.+	1584124	1585371	+	KZN_605
3481451.3482698.+	3481451	3482698	+	H37Rv	1584124.1585371.+	1584124	1585371	+	KZN_605
1341358.1342605.-	1342605	1341358	-	H37Rv	1584124.1585371.+	1584124	1585371	+	KZN_605
2828556.2829803.-	2829803	2828556	-	H37Rv	1584124.1585371.+	1584124	1585371	+	KZN_605
4131691.4132392.+	4131691	4132392	+	H37Rv	4119447.4120148.+	4119447	4120148	+	KZN_605
1791334.1791573.+	1791334	1791573	+	H37Rv	2631022.2631261.-	2631261	2631022	-	KZN_605
1591689.1592153.+	1591689	1592153	+	H37Rv	2821322.2821786.-	2821786	2821322	-	KZN_605
1612342.1612950.-	1612950	1612342	-	H37Rv	2800503.2801132.+	2800503	2801132	+	KZN_605
2211626.2212858.+	2211626	2212858	+	H37Rv	2210094.2211326.-	2211326	2210094	-	KZN_605
1283056.1284171.-	1284171	1283056	-	H37Rv	3127833.3128948.+	3127833	3128948	+	KZN_605
4052950.4053603.+	4052950	4053603	+	H37Rv	4039179.4039832.+	4039179	4039832	+	KZN_605
3296350.3296640.-	3296640	3296350	-	H37Rv	1116965.1117255.+	1116965	1117255	+	KZN_605
710345.710587.+	710345	710587	+	H37Rv	710656.710898.+	710656	710898	+	KZN_605
2049921.2051150.+	2049921	2051150	+	H37Rv	2371601.2372830.-	2372830	2371601	-	KZN_605
4132518.4133519.+	4132518	4133519	+	H37Rv	4120274.4121275.+	4120274	4121275	+	KZN_605
1961291.1961788.-	1961788	1961291	-	H37Rv	2460739.2461236.+	2460739	2461236	+	KZN_605
1273265.1274767.+	1273265	1274767	+	H37Rv	3137238.3138740.-	3138740	3137238	-	KZN_605
2084756.2086963.-	2086963	2084756	-	H37Rv	2335844.2338051.+	2335844	2338051	+	KZN_605
2630537.2632075.-	2632075	2630537	-	H37Rv	1784632.1786170.+	1784632	1786170	+	KZN_605
1612342.1612983.-	1612983	1612342	-	H37Rv	2800470.2801132.+	2800470	2801132	+	KZN_605
2710351.2711301.-	2711301	2710351	-	H37Rv	1702496.1703446.+	1702496	1703446	+	KZN_605
3811719.3812345.+	3811719	3812345	+	H37Rv	3807341.3807967.+	3807341	3807967	+	KZN_605
1228713.1229384.+	1228713	1229384	+	H37Rv	3182564.3183235.-	3183235	3182564	-	KZN_605
889497.890333.+	889497	890333	+	H37Rv	2435107.2435943.+	2435107	2435943	+	KZN_605
1541994.1542830.-	1542830	1541994	-	H37Rv	2435107.2435943.+	2435107	2435943	+	KZN_605
1987745.1988581.-	1988581	1987745	-	H37Rv	2435107.2435943.+	2435107	2435943	+	KZN_605
1996577.1997413.+	1996577	1997413	+	H37Rv	2435107.2435943.+	2435107	2435943	+	KZN_605
2365890.2366726.+	2365890	2366726	+	H37Rv	2435107.2435943.+	2435107	2435943	+	KZN_605
2430159.2430995.-	2430995	2430159	-	H37Rv	2435107.2435943.+	2435107	2435943	+	KZN_605
2550490.2551326.+	2550490	2551326	+	H37Rv	2435107.2435943.+	2435107	2435943	+	KZN_605
2636053.2636889.+	2636053	2636889	+	H37Rv	2435107.2435943.+	2435107	2435943	+	KZN_605
2784657.2785493.-	2785493	2784657	-	H37Rv	2435107.2435943.+	2435107	2435943	+	KZN_605
2972585.2973421.+	2972585	2973421	+	H37Rv	2435107.2435943.+	2435107	2435943	+	KZN_605
3120566.3121402.-	3121402	3120566	-	H37Rv	2435107.2435943.+	2435107	2435943	+	KZN_605
3551706.3552542.+	3551706	3552542	+	H37Rv	2435107.2435943.+	2435107	2435943	+	KZN_605
3553189.3554025.+	3553189	3554025	+	H37Rv	2435107.2435943.+	2435107	2435943	+	KZN_605
3710858.3711694.+	3710858	3711694	+	H37Rv	2435107.2435943.+	2435107	2435943	+	KZN_605
3795100.3795936.-	3795936	3795100	-	H37Rv	2435107.2435943.+	2435107	2435943	+	KZN_605
3891255.3892091.+	3891255	3892091	+	H37Rv	2435107.2435943.+	2435107	2435943	+	KZN_605
2975928.2976419.-	2976419	2975928	-	H37Rv	1438866.1439357.+	1438866	1439357	+	KZN_605
2725578.2725847.+	2725578	2725847	+	H37Rv	1687947.1688216.-	1688216	1687947	-	KZN_605
987233.988705.+	987233	988705	+	H37Rv	3423027.3424499.-	3424499	3423027	-	KZN_605
1702597.1703016.+	1702597	1703016	+	H37Rv	2710333.2710752.-	2710752	2710333	-	KZN_605
654924.656009.-	656009	654924	-	H37Rv	655244.656329.-	656329	655244	-	KZN_605
1950632.1951051.-	1951051	1950632	-	H37Rv	2471533.2471952.+	2471533	2471952	+	KZN_605
4007331.4008182.-	4008182	4007331	-	H37Rv	3993560.3994411.-	3994411	3993560	-	KZN_605
1938838.1939602.+	1938838	1939602	+	H37Rv	2482981.2483745.-	2483745	2482981	-	KZN_605
2335059.2335373.+	2335059	2335373	+	H37Rv	2081215.2081529.-	2081529	2081215	-	KZN_605
25913.26881.-	26881	25913	-	H37Rv	26014.26982.-	26982	26014	-	KZN_605
1899972.1900247.+	1899972	1900247	+	H37Rv	2522337.2522612.-	2522612	2522337	-	KZN_605
4160512.4160895.-	4160895	4160512	-	H37Rv	4148327.4148710.-	4148710	4148327	-	KZN_605
507758.508585.-	508585	507758	-	H37Rv	508018.508845.-	508845	508018	-	KZN_605
3022461.3023432.+	3022461	3023432	+	H37Rv	1391696.1392667.-	1392667	1391696	-	KZN_605
1165781.1166812.-	1166812	1165781	-	H37Rv	3244910.3245941.+	3244910	3245941	+	KZN_605
1146561.1147028.+	1146561	1147028	+	H37Rv	3264695.3265162.-	3265162	3264695	-	KZN_605
4072667.4073635.-	4073635	4072667	-	H37Rv	4058896.4059864.-	4059864	4058896	-	KZN_605
64991.65416.+	64991	65416	+	H37Rv	65092.65517.+	65092	65517	+	KZN_605
3781501.3784740.-	3784740	3781501	-	H37Rv	3778484.3781723.-	3781723	3778484	-	KZN_605
4125439.4126479.+	4125439	4126479	+	H37Rv	4113195.4114235.+	4113195	4114235	+	KZN_605
1376230.1376826.-	1376826	1376230	-	H37Rv	3035237.3035833.+	3035237	3035833	+	KZN_605
1811127.1812359.+	1811127	1812359	+	H37Rv	2610236.2611468.-	2611468	2610236	-	KZN_605
3580277.3580495.+	3580277	3580495	+	H37Rv	3579497.3579715.+	3579497	3579715	+	KZN_605
2387969.2388235.-	2388235	2387969	-	H37Rv	2027000.2027266.+	2027000	2027266	+	KZN_605
895820.898084.+	895820	898084	+	H37Rv	895667.897931.+	895667	897931	+	KZN_605
1114386.1114706.-	1114706	1114386	-	H37Rv	3297016.3297336.+	3297016	3297336	+	KZN_605
1532443.1533633.-	1533633	1532443	-	H37Rv	2878484.2879674.+	2878484	2879674	+	KZN_605
3894426.3895607.+	3894426	3895607	+	H37Rv	2878484.2879674.+	2878484	2879674	+	KZN_605
1339349.1340524.+	1339349	1340524	+	H37Rv	2878484.2879674.+	2878484	2879674	+	KZN_605
1074080.1074421.+	1074080	1074421	+	H37Rv	3337313.3337654.-	3337654	3337313	-	KZN_605
179319.180896.-	180896	179319	-	H37Rv	179256.180833.-	180833	179256	-	KZN_605
3418726.3419376.-	3419376	3418726	-	H37Rv	994420.995070.+	994420	995070	+	KZN_605
2316681.2317094.-	2317094	2316681	-	H37Rv	2099494.2099907.+	2099494	2099907	+	KZN_605
2706017.2706736.+	2706017	2706736	+	H37Rv	1707061.1707780.-	1707780	1707061	-	KZN_605
3238601.3239515.-	3239515	3238601	-	H37Rv	1174090.1175004.+	1174090	1175004	+	KZN_605
568964.569806.-	569806	568964	-	H37Rv	569224.570066.-	570066	569224	-	KZN_605
1587772.1588491.-	1588491	1587772	-	H37Rv	2824984.2825703.+	2824984	2825703	+	KZN_605
2876576.2876977.-	2876977	2876576	-	H37Rv	1536950.1537351.+	1536950	1537351	+	KZN_605
805798.806166.+	805798	806166	+	H37Rv	806803.807171.+	806803	807171	+	KZN_605
2030524.2030643.+	2030524	2030643	+	H37Rv	2393466.2393585.-	2393585	2393466	-	KZN_605
2760764.2762380.+	2760764	2762380	+	H37Rv	1651414.1653030.-	1653030	1651414	-	KZN_605
3020200.3020457.-	3020457	3020200	-	H37Rv	1394671.1394928.+	1394671	1394928	+	KZN_605
4209582.4211009.-	4211009	4209582	-	H37Rv	4197397.4198824.-	4198824	4197397	-	KZN_605
2754743.2756719.-	2756719	2754743	-	H37Rv	1657075.1659051.+	1657075	1659051	+	KZN_605
1169360.1170670.+	1169360	1170670	+	H37Rv	3241051.3242361.-	3242361	3241051	-	KZN_605
3381375.3382685.-	3382685	3381375	-	H37Rv	3241051.3242361.-	3242361	3241051	-	KZN_605
3481388.3482698.+	3481388	3482698	+	H37Rv	3241051.3242361.-	3242361	3241051	-	KZN_605
1341358.1342668.-	1342668	1341358	-	H37Rv	3241051.3242361.-	3242361	3241051	-	KZN_605
2828556.2829866.-	2829866	2828556	-	H37Rv	3241051.3242361.-	3242361	3241051	-	KZN_605
53354.55699.+	53354	55699	+	H37Rv	53456.55801.+	53456	55801	+	KZN_605
842033.842278.+	842033	842278	+	H37Rv	843237.843482.+	843237	843482	+	KZN_605
832058.832303.+	832058	832303	+	H37Rv	843237.843482.+	843237	843482	+	KZN_605
3021548.3021865.-	3021865	3021548	-	H37Rv	1393263.1393580.+	1393263	1393580	+	KZN_605
677125.677703.-	677703	677125	-	H37Rv	677436.678014.-	678014	677436	-	KZN_605
1668383.1669144.+	1668383	1669144	+	H37Rv	2744205.2744966.-	2744966	2744205	-	KZN_605
2921551.2923182.+	2921551	2923182	+	H37Rv	1490745.1492376.-	1492376	1490745	-	KZN_605
2452115.2453272.-	2453272	2452115	-	H37Rv	1963381.1964538.+	1963381	1964538	+	KZN_605
2946434.2947111.+	2946434	2947111	+	H37Rv	1466816.1467493.-	1467493	1466816	-	KZN_605
2881758.2882147.+	2881758	2882147	+	H37Rv	1531781.1532170.-	1532170	1531781	-	KZN_605
2627172.2628698.-	2628698	2627172	-	H37Rv	1788009.1789535.+	1788009	1789535	+	KZN_605
1268203.1269018.-	1269018	1268203	-	H37Rv	3142987.3143802.+	3142987	3143802	+	KZN_605
2182460.2183239.-	2183239	2182460	-	H37Rv	2239715.2240494.+	2239715	2240494	+	KZN_605
828947.829159.+	828947	829159	+	H37Rv	829952.830164.+	829952	830164	+	KZN_605
2061178.2062674.-	2062674	2061178	-	H37Rv	2360077.2361573.+	2360077	2361573	+	KZN_605
4293225.4299536.-	4299536	4293225	-	H37Rv	4281040.4287351.-	4287351	4281040	-	KZN_605
3502945.3503259.-	3503259	3502945	-	H37Rv	3504881.3505195.-	3505195	3504881	-	KZN_605
3339854.3342082.+	3339854	3342082	+	H37Rv	1071701.1073929.-	1073929	1071701	-	KZN_605
2092259.2093698.-	2093698	2092259	-	H37Rv	2329109.2330548.+	2329109	2330548	+	KZN_605
544736.545122.-	545122	544736	-	H37Rv	544996.545382.-	545382	544996	-	KZN_605
799629.799850.+	799629	799850	+	H37Rv	800472.800693.+	800472	800693	+	KZN_605
709599.710348.+	709599	710348	+	H37Rv	709910.710659.+	709910	710659	+	KZN_605
2326566.2327501.+	2326566	2327501	+	H37Rv	2089087.2090022.-	2090022	2089087	-	KZN_605
3997980.3999638.+	3997980	3999638	+	H37Rv	3984212.3985867.+	3984212	3985867	+	KZN_605
4107460.4107669.+	4107460	4107669	+	H37Rv	4095045.4095254.+	4095045	4095254	+	KZN_605
1315234.1319982.+	1315234	1319982	+	H37Rv	3092083.3096831.-	3096831	3092083	-	KZN_605
3871084.3872496.-	3872496	3871084	-	H37Rv	3862011.3863423.-	3863423	3862011	-	KZN_605
3703464.3703865.-	3703865	3703464	-	H37Rv	3702634.3703035.-	3703035	3702634	-	KZN_605
2562599.2563114.+	2562599	2563114	+	H37Rv	1853594.1854109.-	1854109	1853594	-	KZN_605
1862347.1863507.-	1863507	1862347	-	H37Rv	2559087.2560247.+	2559087	2560247	+	KZN_605
2784123.2784608.-	2784608	2784123	-	H37Rv	1629189.1629674.+	1629189	1629674	+	KZN_605
515373.515948.-	515948	515373	-	H37Rv	515633.516208.-	516208	515633	-	KZN_605
4368518.4370236.-	4370236	4368518	-	H37Rv	4356333.4358051.-	4358051	4356333	-	KZN_605
2101022.2101648.+	2101022	2101648	+	H37Rv	2321165.2321791.-	2321791	2321165	-	KZN_605
475783.476253.-	476253	475783	-	H37Rv	476043.476513.-	476513	476043	-	KZN_605
889497.890333.+	889497	890333	+	H37Rv	3480070.3480906.+	3480070	3480906	+	KZN_605
1541994.1542830.-	1542830	1541994	-	H37Rv	3480070.3480906.+	3480070	3480906	+	KZN_605
1987745.1988581.-	1988581	1987745	-	H37Rv	3480070.3480906.+	3480070	3480906	+	KZN_605
1996577.1997413.+	1996577	1997413	+	H37Rv	3480070.3480906.+	3480070	3480906	+	KZN_605
2365890.2366726.+	2365890	2366726	+	H37Rv	3480070.3480906.+	3480070	3480906	+	KZN_605
2430159.2430995.-	2430995	2430159	-	H37Rv	3480070.3480906.+	3480070	3480906	+	KZN_605
2550490.2551326.+	2550490	2551326	+	H37Rv	3480070.3480906.+	3480070	3480906	+	KZN_605
2636053.2636889.+	2636053	2636889	+	H37Rv	3480070.3480906.+	3480070	3480906	+	KZN_605
2784657.2785493.-	2785493	2784657	-	H37Rv	3480070.3480906.+	3480070	3480906	+	KZN_605
2972585.2973421.+	2972585	2973421	+	H37Rv	3480070.3480906.+	3480070	3480906	+	KZN_605
3120566.3121402.-	3121402	3120566	-	H37Rv	3480070.3480906.+	3480070	3480906	+	KZN_605
3551706.3552542.+	3551706	3552542	+	H37Rv	3480070.3480906.+	3480070	3480906	+	KZN_605
3553189.3554025.+	3553189	3554025	+	H37Rv	3480070.3480906.+	3480070	3480906	+	KZN_605
3710858.3711694.+	3710858	3711694	+	H37Rv	3480070.3480906.+	3480070	3480906	+	KZN_605
3795100.3795936.-	3795936	3795100	-	H37Rv	3480070.3480906.+	3480070	3480906	+	KZN_605
3891255.3892091.+	3891255	3892091	+	H37Rv	3480070.3480906.+	3480070	3480906	+	KZN_605
1169375.1170670.+	1169375	1170670	+	H37Rv	1584076.1585371.+	1584076	1585371	+	KZN_605
3381375.3382670.-	3382670	3381375	-	H37Rv	1584076.1585371.+	1584076	1585371	+	KZN_605
3481403.3482698.+	3481403	3482698	+	H37Rv	1584076.1585371.+	1584076	1585371	+	KZN_605
1341358.1342653.-	1342653	1341358	-	H37Rv	1584076.1585371.+	1584076	1585371	+	KZN_605
2828556.2829851.-	2829851	2828556	-	H37Rv	1584076.1585371.+	1584076	1585371	+	KZN_605
1693996.1694436.-	1694436	1693996	-	H37Rv	2718913.2719353.+	2718913	2719353	+	KZN_605
3649369.3650109.+	3649369	3650109	+	H37Rv	3648602.3649342.+	3648602	3649342	+	KZN_605
3975360.3977060.+	3975360	3977060	+	H37Rv	3961592.3963292.+	3961592	3963292	+	KZN_605
3134596.3135483.-	3135483	3134596	-	H37Rv	1278456.1279343.+	1278456	1279343	+	KZN_605
3452922.3454343.+	3452922	3454343	+	H37Rv	959438.960859.-	960859	959438	-	KZN_605
714202.715266.+	714202	715266	+	H37Rv	714513.715577.+	714513	715577	+	KZN_605
241976.243214.-	243214	241976	-	H37Rv	241915.243153.-	243153	241915	-	KZN_605
3447404.3448426.-	3448426	3447404	-	H37Rv	965355.966377.+	965355	966377	+	KZN_605
534445.534633.-	534633	534445	-	H37Rv	534705.534893.-	534893	534705	-	KZN_605
3184663.3184854.+	3184663	3184854	+	H37Rv	1229085.1229276.-	1229276	1229085	-	KZN_605
1576747.1577532.+	1576747	1577532	+	H37Rv	2835943.2836728.-	2836728	2835943	-	KZN_605
3394019.3394873.-	3394873	3394019	-	H37Rv	1018909.1019763.+	1018909	1019763	+	KZN_605
3754293.3755033.-	3755033	3754293	-	H37Rv	3751267.3752007.-	3752007	3751267	-	KZN_605
3021548.3021835.-	3021835	3021548	-	H37Rv	1393293.1393580.+	1393293	1393580	+	KZN_605
456268.456819.-	456819	456268	-	H37Rv	456526.457077.-	457077	456526	-	KZN_605
383632.384486.+	383632	384486	+	H37Rv	386518.387372.+	386518	387372	+	KZN_605
530296.530682.-	530682	530296	-	H37Rv	530556.530942.-	530942	530556	-	KZN_605
3591646.3592257.+	3591646	3592257	+	H37Rv	3590866.3591477.+	3590866	3591477	+	KZN_605
536504.537169.-	537169	536504	-	H37Rv	536764.537429.-	537429	536764	-	KZN_605
2287884.2288681.-	2288681	2287884	-	H37Rv	2127913.2128710.+	2127913	2128710	+	KZN_605
2457637.2458395.+	2457637	2458395	+	H37Rv	1958258.1959016.-	1959016	1958258	-	KZN_605
103710.104669.-	104669	103710	-	H37Rv	3874885.3875844.+	3874885	3875844	+	KZN_605
3883958.3884917.+	3883958	3884917	+	H37Rv	3874885.3875844.+	3874885	3875844	+	KZN_605
759807.763325.+	759807	763325	+	H37Rv	760651.764169.+	760651	764169	+	KZN_605
3011399.3011767.-	3011767	3011399	-	H37Rv	1403361.1403729.+	1403361	1403729	+	KZN_605
1168704.1169228.-	1169228	1168704	-	H37Rv	3242493.3243086.+	3242493	3243086	+	KZN_605
3895820.3898885.+	3895820	3898885	+	H37Rv	3885389.3888454.+	3885389	3888454	+	KZN_605
1999731.2000006.+	1999731	2000006	+	H37Rv	2424103.2424378.-	2424378	2424103	-	KZN_605
3623159.3624910.-	3624910	3623159	-	H37Rv	3622392.3624143.-	3624143	3622392	-	KZN_605
41304.41912.+	41304	41912	+	H37Rv	41406.42014.+	41406	42014	+	KZN_605
552026.552550.+	552026	552550	+	H37Rv	552286.552810.+	552286	552810	+	KZN_605
1169360.1170670.+	1169360	1170670	+	H37Rv	3069397.3070707.+	3069397	3070707	+	KZN_605
3381375.3382685.-	3382685	3381375	-	H37Rv	3069397.3070707.+	3069397	3070707	+	KZN_605
3481388.3482698.+	3481388	3482698	+	H37Rv	3069397.3070707.+	3069397	3070707	+	KZN_605
1341358.1342668.-	1342668	1341358	-	H37Rv	3069397.3070707.+	3069397	3070707	+	KZN_605
2828556.2829866.-	2829866	2828556	-	H37Rv	3069397.3070707.+	3069397	3070707	+	KZN_605
2568986.2570053.+	2568986	2570053	+	H37Rv	1846655.1847722.-	1847722	1846655	-	KZN_605
1384989.1386677.-	1386677	1384989	-	H37Rv	3025386.3027074.+	3025386	3027074	+	KZN_605
2628781.2630319.-	2630319	2628781	-	H37Rv	1786388.1787926.+	1786388	1787926	+	KZN_605
1799583.1800899.+	1799583	1800899	+	H37Rv	2621696.2623012.-	2623012	2621696	-	KZN_605
1870842.1871354.+	1870842	1871354	+	H37Rv	2551240.2551752.-	2551752	2551240	-	KZN_605
2439881.2440063.-	2440063	2439881	-	H37Rv	1976589.1976771.+	1976589	1976771	+	KZN_605
974291.975937.-	975937	974291	-	H37Rv	3435796.3437442.+	3435796	3437442	+	KZN_605
3664856.3665821.+	3664856	3665821	+	H37Rv	3664026.3664991.+	3664026	3664991	+	KZN_605
1485313.1485771.-	1485771	1485313	-	H37Rv	2926347.2926805.+	2926347	2926805	+	KZN_605
3538505.3539851.+	3538505	3539851	+	H37Rv	3540441.3541787.+	3540441	3541787	+	KZN_605
976872.978134.-	978134	976872	-	H37Rv	3433598.3434875.+	3433598	3434875	+	KZN_605
237892.238395.-	238395	237892	-	H37Rv	237831.238334.-	238334	237831	-	KZN_605
3874822.3876090.+	3874822	3876090	+	H37Rv	3865749.3867017.+	3865749	3867017	+	KZN_605
3755952.3766976.-	3766976	3755952	-	H37Rv	3752926.3763950.-	3763950	3752926	-	KZN_605
4064851.4065903.-	4065903	4064851	-	H37Rv	4051080.4052132.-	4052132	4051080	-	KZN_605
33582.33794.+	33582	33794	+	H37Rv	33683.33895.+	33683	33895	+	KZN_605
697904.698410.-	698410	697904	-	H37Rv	698215.698721.-	698721	698215	-	KZN_605
2692799.2693884.+	2692799	2693884	+	H37Rv	1719934.1721019.-	1721019	1719934	-	KZN_605
2002626.2003870.+	2002626	2003870	+	H37Rv	2420239.2421483.-	2421483	2420239	-	KZN_605
3647885.3649381.+	3647885	3649381	+	H37Rv	3647118.3648614.+	3647118	3648614	+	KZN_605
3200794.3202020.-	3202020	3200794	-	H37Rv	1211920.1213146.+	1211920	1213146	+	KZN_605
1030578.1031864.-	1031864	1030578	-	H37Rv	3379867.3381153.+	3379867	3381153	+	KZN_605
710584.710850.-	710850	710584	-	H37Rv	710895.711161.-	711161	710895	-	KZN_605
1425438.1425914.-	1425914	1425438	-	H37Rv	2986148.2986624.+	2986148	2986624	+	KZN_605
4351066.4352181.+	4351066	4352181	+	H37Rv	4338881.4339996.+	4338881	4339996	+	KZN_605
186495.186620.-	186620	186495	-	H37Rv	186432.186557.-	186557	186432	-	KZN_605
2207688.2208497.+	2207688	2208497	+	H37Rv	2214456.2215265.-	2215265	2214456	-	KZN_605
1016212.1016685.+	1016212	1016685	+	H37Rv	3395046.3395519.-	3395519	3395046	-	KZN_605
2907826.2910207.-	2910207	2907826	-	H37Rv	1503720.1506101.+	1503720	1506101	+	KZN_605
995062.995340.+	995062	995340	+	H37Rv	3416392.3416670.-	3416670	3416392	-	KZN_605
3527391.3529322.-	3529322	3527391	-	H37Rv	3529327.3531258.-	3531258	3529327	-	KZN_605
2406840.2407625.-	2407625	2406840	-	H37Rv	2007668.2008453.+	2007668	2008453	+	KZN_605
1929131.1929721.-	1929721	1929131	-	H37Rv	2492863.2493453.+	2492863	2493453	+	KZN_605
967898.968305.+	967898	968305	+	H37Rv	3443437.3443844.-	3443844	3443437	-	KZN_605
627293.628288.+	627293	628288	+	H37Rv	627613.628608.+	627613	628608	+	KZN_605
2649946.2650248.-	2650248	2649946	-	H37Rv	1763571.1763873.+	1763571	1763873	+	KZN_605
3101581.3102186.-	3102186	3101581	-	H37Rv	1311583.1312188.+	1311583	1312188	+	KZN_605
1902391.1903299.+	1902391	1903299	+	H37Rv	2519285.2520193.-	2520193	2519285	-	KZN_605
2400376.2401728.-	2401728	2400376	-	H37Rv	2013507.2014859.+	2013507	2014859	+	KZN_605
21637.23172.-	23172	21637	-	H37Rv	21738.23273.-	23273	21738	-	KZN_605
3073130.3073615.-	3073615	3073130	-	H37Rv	1341513.1341998.+	1341513	1341998	+	KZN_605
2469387.2470463.-	2470463	2469387	-	H37Rv	1946247.1947323.+	1946247	1947323	+	KZN_605
4128751.4129089.-	4129089	4128751	-	H37Rv	4116507.4116845.-	4116845	4116507	-	KZN_605
878638.879324.+	878638	879324	+	H37Rv	879844.880530.+	879844	880530	+	KZN_605
200974.202479.+	200974	202479	+	H37Rv	200911.202416.+	200911	202416	+	KZN_605
172202.173143.+	172202	173143	+	H37Rv	172139.173080.+	172139	173080	+	KZN_605
3511682.3512068.+	3511682	3512068	+	H37Rv	3513618.3514004.+	3513618	3514004	+	KZN_605
2387202.2387972.-	2387972	2387202	-	H37Rv	2027263.2028033.+	2027263	2028033	+	KZN_605
1703050.1704096.+	1703050	1704096	+	H37Rv	2709253.2710299.-	2710299	2709253	-	KZN_605
4103675.4104538.-	4104538	4103675	-	H37Rv	4091260.4092123.-	4092123	4091260	-	KZN_605
1276300.1276860.-	1276860	1276300	-	H37Rv	3135145.3135705.+	3135145	3135705	+	KZN_605
3044986.3046524.-	3046524	3044986	-	H37Rv	1368604.1370142.+	1368604	1370142	+	KZN_605
3363348.3363686.+	3363348	3363686	+	H37Rv	1050097.1050435.-	1050435	1050097	-	KZN_605
462135.463307.+	462135	463307	+	H37Rv	462393.463565.+	462393	463565	+	KZN_605
2097330.2097650.+	2097330	2097650	+	H37Rv	2325163.2325483.-	2325483	2325163	-	KZN_605
4036598.4037296.-	4037296	4036598	-	H37Rv	4022827.4023525.-	4023525	4022827	-	KZN_605
1272423.1273334.+	1272423	1273334	+	H37Rv	3138671.3139582.-	3139582	3138671	-	KZN_605
738297.739250.-	739250	738297	-	H37Rv	738608.739561.-	739561	738608	-	KZN_605
1232311.1232826.+	1232311	1232826	+	H37Rv	3179122.3179637.-	3179637	3179122	-	KZN_605
1094886.1095059.+	1094886	1095059	+	H37Rv	3316663.3316836.-	3316836	3316663	-	KZN_605
1118428.1119996.-	1119996	1118428	-	H37Rv	3291726.3293294.+	3291726	3293294	+	KZN_605
257783.258856.-	258856	257783	-	H37Rv	257723.258796.-	258796	257723	-	KZN_605
3853215.3853703.-	3853703	3853215	-	H37Rv	3844143.3844631.-	3844631	3844143	-	KZN_605
1165092.1165499.-	1165499	1165092	-	H37Rv	3133704.3134111.-	3134111	3133704	-	KZN_605
1277893.1278300.+	1277893	1278300	+	H37Rv	3133704.3134111.-	3134111	3133704	-	KZN_605
3339091.3339762.+	3339091	3339762	+	H37Rv	1074021.1074692.-	1074692	1074021	-	KZN_605
456268.456930.-	456930	456268	-	H37Rv	456526.457188.-	457188	456526	-	KZN_605
330422.331003.+	330422	331003	+	H37Rv	330361.330942.+	330361	330942	+	KZN_605
3392812.3393201.+	3392812	3393201	+	H37Rv	1020581.1020970.-	1020970	1020581	-	KZN_605
1169360.1170670.+	1169360	1170670	+	H37Rv	1031097.1032407.+	1031097	1032407	+	KZN_605
3381375.3382685.-	3382685	3381375	-	H37Rv	1031097.1032407.+	1031097	1032407	+	KZN_605
3481388.3482698.+	3481388	3482698	+	H37Rv	1031097.1032407.+	1031097	1032407	+	KZN_605
1341358.1342668.-	1342668	1341358	-	H37Rv	1031097.1032407.+	1031097	1032407	+	KZN_605
2828556.2829866.-	2829866	2828556	-	H37Rv	1031097.1032407.+	1031097	1032407	+	KZN_605
2682015.2683142.-	2683142	2682015	-	H37Rv	1730676.1731803.+	1730676	1731803	+	KZN_605
1276300.1277748.-	1277748	1276300	-	H37Rv	3134257.3135705.+	3134257	3135705	+	KZN_605
2195905.2197353.+	2195905	2197353	+	H37Rv	3134257.3135705.+	3134257	3135705	+	KZN_605
1568109.1569587.-	1569587	1568109	-	H37Rv	2843887.2845365.+	2843887	2845365	+	KZN_605
230899.231534.+	230899	231534	+	H37Rv	230836.231471.+	230836	231471	+	KZN_605
3112465.3113094.-	3113094	3112465	-	H37Rv	1300675.1301304.+	1300675	1301304	+	KZN_605
4163715.4164998.+	4163715	4164998	+	H37Rv	4151530.4152813.+	4151530	4152813	+	KZN_605
2278498.2278983.-	2278983	2278498	-	H37Rv	2137611.2138096.+	2137611	2138096	+	KZN_605
3162268.3164115.+	3162268	3164115	+	H37Rv	1249824.1251671.-	1251671	1249824	-	KZN_605
2028425.2029477.+	2028425	2029477	+	H37Rv	2394632.2395684.-	2395684	2394632	-	KZN_605
3195545.3196216.-	3196216	3195545	-	H37Rv	1217724.1218395.+	1217724	1218395	+	KZN_605
1365227.1365808.+	1365227	1365808	+	H37Rv	3046256.3046837.-	3046837	3046256	-	KZN_605
889497.890333.+	889497	890333	+	H37Rv	3709850.3710686.-	3710686	3709850	-	KZN_605
1541994.1542830.-	1542830	1541994	-	H37Rv	3709850.3710686.-	3710686	3709850	-	KZN_605
1987745.1988581.-	1988581	1987745	-	H37Rv	3709850.3710686.-	3710686	3709850	-	KZN_605
1996577.1997413.+	1996577	1997413	+	H37Rv	3709850.3710686.-	3710686	3709850	-	KZN_605
2365890.2366726.+	2365890	2366726	+	H37Rv	3709850.3710686.-	3710686	3709850	-	KZN_605
2430159.2430995.-	2430995	2430159	-	H37Rv	3709850.3710686.-	3710686	3709850	-	KZN_605
2550490.2551326.+	2550490	2551326	+	H37Rv	3709850.3710686.-	3710686	3709850	-	KZN_605
2636053.2636889.+	2636053	2636889	+	H37Rv	3709850.3710686.-	3710686	3709850	-	KZN_605
2784657.2785493.-	2785493	2784657	-	H37Rv	3709850.3710686.-	3710686	3709850	-	KZN_605
2972585.2973421.+	2972585	2973421	+	H37Rv	3709850.3710686.-	3710686	3709850	-	KZN_605
3120566.3121402.-	3121402	3120566	-	H37Rv	3709850.3710686.-	3710686	3709850	-	KZN_605
3551706.3552542.+	3551706	3552542	+	H37Rv	3709850.3710686.-	3710686	3709850	-	KZN_605
3553189.3554025.+	3553189	3554025	+	H37Rv	3709850.3710686.-	3710686	3709850	-	KZN_605
3710858.3711694.+	3710858	3711694	+	H37Rv	3709850.3710686.-	3710686	3709850	-	KZN_605
3795100.3795936.-	3795936	3795100	-	H37Rv	3709850.3710686.-	3710686	3709850	-	KZN_605
3891255.3892091.+	3891255	3892091	+	H37Rv	3709850.3710686.-	3710686	3709850	-	KZN_605
739327.740217.-	740217	739327	-	H37Rv	739638.740528.-	740528	739638	-	KZN_605
2337790.2338188.+	2337790	2338188	+	H37Rv	2078400.2078798.-	2078798	2078400	-	KZN_605
3242970.3243281.+	3242970	3243281	+	H37Rv	1170324.1170635.-	1170635	1170324	-	KZN_605
1030578.1031366.-	1031366	1030578	-	H37Rv	3380365.3381153.+	3380365	3381153	+	KZN_605
444826.445254.+	444826	445254	+	H37Rv	447690.448118.+	447690	448118	+	KZN_605
709356.710348.+	709356	710348	+	H37Rv	709667.710659.+	709667	710659	+	KZN_605
4302786.4303397.-	4303397	4302786	-	H37Rv	4290601.4291212.-	4291212	4290601	-	KZN_605
1384278.1384538.+	1384278	1384538	+	H37Rv	3027525.3027785.-	3027785	3027525	-	KZN_605
1403386.1404591.-	1404591	1403386	-	H37Rv	3007472.3008677.+	3007472	3008677	+	KZN_605
510377.510652.-	510652	510377	-	H37Rv	510637.510912.-	510912	510637	-	KZN_605
2987691.2989268.+	2987691	2989268	+	H37Rv	1426017.1427594.-	1427594	1426017	-	KZN_605
864140.864574.+	864140	864574	+	H37Rv	865344.865778.+	865344	865778	+	KZN_605
1638381.1639646.+	1638381	1639646	+	H37Rv	2773756.2775021.-	2775021	2773756	-	KZN_605
3112867.3113271.+	3112867	3113271	+	H37Rv	1300498.1300902.-	1300902	1300498	-	KZN_605
805756.806166.+	805756	806166	+	H37Rv	806761.807171.+	806761	807171	+	KZN_605
601848.602786.+	601848	602786	+	H37Rv	602084.603022.+	602084	603022	+	KZN_605
4053881.4054042.-	4054042	4053881	-	H37Rv	4040110.4040271.-	4040271	4040110	-	KZN_605
3529990.3531147.-	3531147	3529990	-	H37Rv	3531926.3533083.-	3533083	3531926	-	KZN_605
3031788.3032498.+	3031788	3032498	+	H37Rv	1382630.1383340.-	1383340	1382630	-	KZN_605
1539512.1540645.-	1540645	1539512	-	H37Rv	2871472.2872605.+	2871472	2872605	+	KZN_605
3689457.3690938.-	3690938	3689457	-	H37Rv	3688693.3690108.-	3690108	3688693	-	KZN_605
87798.88004.-	88004	87798	-	H37Rv	87927.88133.-	88133	87927	-	KZN_605
4096936.4098099.-	4098099	4096936	-	H37Rv	4084521.4085684.-	4085684	4084521	-	KZN_605
738297.739208.-	739208	738297	-	H37Rv	738608.739519.-	739519	738608	-	KZN_605
889497.890333.+	889497	890333	+	H37Rv	1861256.1862092.+	1861256	1862092	+	KZN_605
1541994.1542830.-	1542830	1541994	-	H37Rv	1861256.1862092.+	1861256	1862092	+	KZN_605
1987745.1988581.-	1988581	1987745	-	H37Rv	1861256.1862092.+	1861256	1862092	+	KZN_605
1996577.1997413.+	1996577	1997413	+	H37Rv	1861256.1862092.+	1861256	1862092	+	KZN_605
2365890.2366726.+	2365890	2366726	+	H37Rv	1861256.1862092.+	1861256	1862092	+	KZN_605
2430159.2430995.-	2430995	2430159	-	H37Rv	1861256.1862092.+	1861256	1862092	+	KZN_605
2550490.2551326.+	2550490	2551326	+	H37Rv	1861256.1862092.+	1861256	1862092	+	KZN_605
2636053.2636889.+	2636053	2636889	+	H37Rv	1861256.1862092.+	1861256	1862092	+	KZN_605
2784657.2785493.-	2785493	2784657	-	H37Rv	1861256.1862092.+	1861256	1862092	+	KZN_605
2972585.2973421.+	2972585	2973421	+	H37Rv	1861256.1862092.+	1861256	1862092	+	KZN_605
3120566.3121402.-	3121402	3120566	-	H37Rv	1861256.1862092.+	1861256	1862092	+	KZN_605
3551706.3552542.+	3551706	3552542	+	H37Rv	1861256.1862092.+	1861256	1862092	+	KZN_605
3553189.3554025.+	3553189	3554025	+	H37Rv	1861256.1862092.+	1861256	1862092	+	KZN_605
3710858.3711694.+	3710858	3711694	+	H37Rv	1861256.1862092.+	1861256	1862092	+	KZN_605
3795100.3795936.-	3795936	3795100	-	H37Rv	1861256.1862092.+	1861256	1862092	+	KZN_605
3891255.3892091.+	3891255	3892091	+	H37Rv	1861256.1862092.+	1861256	1862092	+	KZN_605
4283996.4284331.+	4283996	4284331	+	H37Rv	4271811.4272146.+	4271811	4272146	+	KZN_605
2581208.2581477.+	2581208	2581477	+	H37Rv	1835231.1835500.-	1835500	1835231	-	KZN_605
2201743.2202096.+	2201743	2202096	+	H37Rv	2220858.2221211.-	2221211	2220858	-	KZN_605
2577108.2577701.+	2577108	2577701	+	H37Rv	1839007.1839600.-	1839600	1839007	-	KZN_605
3181770.3183059.-	3183059	3181770	-	H37Rv	1230880.1232169.+	1230880	1232169	+	KZN_605
3272193.3273209.+	3272193	3273209	+	H37Rv	1140396.1141412.-	1141412	1140396	-	KZN_605
1160095.1160418.-	1160418	1160095	-	H37Rv	3251305.3251628.+	3251305	3251628	+	KZN_605
4264563.4265462.-	4265462	4264563	-	H37Rv	4252378.4253277.-	4253277	4252378	-	KZN_605
1200767.1201660.+	1200767	1201660	+	H37Rv	3210064.3210957.-	3210957	3210064	-	KZN_605
3335960.3336505.+	3335960	3336505	+	H37Rv	1077101.1077646.-	1077646	1077101	-	KZN_605
3289967.3290506.+	3289967	3290506	+	H37Rv	1123099.1123638.-	1123638	1123099	-	KZN_605
4045207.4046118.-	4046118	4045207	-	H37Rv	4031436.4032347.-	4032347	4031436	-	KZN_605
307877.309439.-	309439	307877	-	H37Rv	307816.309378.-	309378	307816	-	KZN_605
3796448.3797437.-	3797437	3796448	-	H37Rv	3792073.3793062.-	3793062	3792073	-	KZN_605
3133709.3134593.-	3134593	3133709	-	H37Rv	1279346.1280230.+	1279346	1280230	+	KZN_605
3853939.3854793.-	3854793	3853939	-	H37Rv	3844867.3845721.-	3845721	3844867	-	KZN_605
274306.274986.-	274986	274306	-	H37Rv	274246.274926.-	274926	274246	-	KZN_605
2289282.2289599.-	2289599	2289282	-	H37Rv	2126994.2127311.+	2126994	2127311	+	KZN_605
1565441.1566697.+	1565441	1566697	+	H37Rv	2846777.2848033.-	2848033	2846777	-	KZN_605
1810240.1811058.+	1810240	1811058	+	H37Rv	2611537.2612355.-	2612355	2611537	-	KZN_605
1893577.1894230.-	1894230	1893577	-	H37Rv	2528364.2529017.+	2528364	2529017	+	KZN_605
547586.549616.-	549616	547586	-	H37Rv	547846.549876.-	549876	547846	-	KZN_605
703830.704057.+	703830	704057	+	H37Rv	704141.704368.+	704141	704368	+	KZN_605
3849024.3849188.-	3849188	3849024	-	H37Rv	3839952.3840116.-	3840116	3839952	-	KZN_605
3040766.3041461.-	3041461	3040766	-	H37Rv	1373667.1374362.+	1373667	1374362	+	KZN_605
1714172.1717708.-	1717708	1714172	-	H37Rv	2695641.2699177.+	2695641	2699177	+	KZN_605
749234.750001.-	750001	749234	-	H37Rv	750078.750845.-	750845	750078	-	KZN_605
103710.104573.-	104573	103710	-	H37Rv	103839.104702.-	104702	103839	-	KZN_605
3884054.3884917.+	3884054	3884917	+	H37Rv	103839.104702.-	104702	103839	-	KZN_605
2263426.2264001.+	2263426	2264001	+	H37Rv	2158951.2159526.-	2159526	2158951	-	KZN_605
3323709.3324476.-	3324476	3323709	-	H37Rv	1089130.1089897.+	1089130	1089897	+	KZN_605
3838586.3839068.-	3839068	3838586	-	H37Rv	3834440.3834922.-	3834922	3834440	-	KZN_605
2373834.2374457.+	2373834	2374457	+	H37Rv	2040776.2041399.-	2041399	2040776	-	KZN_605
542142.542852.+	542142	542852	+	H37Rv	542402.543112.+	542402	543112	+	KZN_605
1270062.1271144.+	1270062	1271144	+	H37Rv	3140861.3141943.-	3141943	3140861	-	KZN_605
17467.18744.-	18744	17467	-	H37Rv	17568.18845.-	18845	17568	-	KZN_605
700263.701189.+	700263	701189	+	H37Rv	700574.701500.+	700574	701500	+	KZN_605
3350274.3351119.-	3351119	3350274	-	H37Rv	1062664.1063509.+	1062664	1063509	+	KZN_605
729327.730187.-	730187	729327	-	H37Rv	729638.730498.-	730498	729638	-	KZN_605
3115034.3115303.+	3115034	3115303	+	H37Rv	1298466.1298735.-	1298735	1298466	-	KZN_605
4094660.4094968.-	4094968	4094660	-	H37Rv	4082246.4082554.-	4082554	4082246	-	KZN_605
3569109.3571298.-	3571298	3569109	-	H37Rv	3568329.3570518.-	3570518	3568329	-	KZN_605
702729.703199.+	702729	703199	+	H37Rv	703040.703510.+	703040	703510	+	KZN_605
2976586.2977002.-	2977002	2976586	-	H37Rv	1438283.1438699.+	1438283	1438699	+	KZN_605
415044.415460.+	415044	415460	+	H37Rv	417931.418347.+	417931	418347	+	KZN_605
3557311.3558345.-	3558345	3557311	-	H37Rv	3556531.3557565.-	3557565	3556531	-	KZN_605
2705486.2705758.-	2705758	2705486	-	H37Rv	1708039.1708311.+	1708039	1708311	+	KZN_605
4309038.4310396.+	4309038	4310396	+	H37Rv	4296853.4298211.+	4296853	4298211	+	KZN_605
1138300.1138908.+	1138300	1138908	+	H37Rv	3272814.3273422.-	3273422	3272814	-	KZN_605
1676017.1676925.-	1676925	1676017	-	H37Rv	2736424.2737332.+	2736424	2737332	+	KZN_605
1687941.1689230.+	1687941	1689230	+	H37Rv	2724119.2725408.-	2725408	2724119	-	KZN_605
2619582.2620016.+	2619582	2620016	+	H37Rv	1796691.1797125.-	1797125	1796691	-	KZN_605
1365344.1365808.+	1365344	1365808	+	H37Rv	3046256.3046720.-	3046720	3046256	-	KZN_605
2773160.2773564.+	2773160	2773564	+	H37Rv	1640230.1640634.-	1640634	1640230	-	KZN_605
2509489.2510256.+	2509489	2510256	+	H37Rv	1906453.1907220.-	1907220	1906453	-	KZN_605
876818.878455.-	878455	876818	-	H37Rv	878024.879661.-	879661	878024	-	KZN_605
2201223.2201744.-	2201744	2201223	-	H37Rv	2221210.2221731.+	2221210	2221731	+	KZN_605
103710.104573.-	104573	103710	-	H37Rv	2633288.2634154.+	2633288	2634154	+	KZN_605
3884054.3884917.+	3884054	3884917	+	H37Rv	2633288.2634154.+	2633288	2634154	+	KZN_605
2662067.2667115.-	2667115	2662067	-	H37Rv	1746703.1751751.+	1746703	1751751	+	KZN_605
473750.474106.+	473750	474106	+	H37Rv	474010.474366.+	474010	474366	+	KZN_605
475816.476184.+	475816	476184	+	H37Rv	474010.474366.+	474010	474366	+	KZN_605
1686884.1687888.+	1686884	1687888	+	H37Rv	2725461.2726465.-	2726465	2725461	-	KZN_605
2321057.2321467.+	2321057	2321467	+	H37Rv	2095121.2095531.-	2095531	2095121	-	KZN_605
545375.545821.-	545821	545375	-	H37Rv	545635.546081.-	546081	545635	-	KZN_605
2056521.2057423.+	2056521	2057423	+	H37Rv	2365328.2366230.-	2366230	2365328	-	KZN_605
4337946.4338272.+	4337946	4338272	+	H37Rv	4325762.4326088.+	4325762	4326088	+	KZN_605
2113062.2115476.+	2113062	2115476	+	H37Rv	2307336.2309750.-	2309750	2307336	-	KZN_605
3359320.3359538.-	3359538	3359320	-	H37Rv	1054245.1054463.+	1054245	1054463	+	KZN_605
4070526.4071239.+	4070526	4071239	+	H37Rv	4056755.4057468.+	4056755	4057468	+	KZN_605
3778568.3780334.+	3778568	3780334	+	H37Rv	3775542.3777317.+	3775542	3777317	+	KZN_605
3811635.3812345.+	3811635	3812345	+	H37Rv	3807257.3807967.+	3807257	3807967	+	KZN_605
1075297.1076259.-	1076259	1075297	-	H37Rv	3335475.3336437.+	3335475	3336437	+	KZN_605
4094923.4095543.-	4095543	4094923	-	H37Rv	4082586.4083128.-	4083128	4082586	-	KZN_605
545375.545902.-	545902	545375	-	H37Rv	545635.546162.-	546162	545635	-	KZN_605
434830.435459.-	435459	434830	-	H37Rv	437694.438323.-	438323	437694	-	KZN_605
1917756.1917932.+	1917756	1917932	+	H37Rv	2504652.2504828.-	2504828	2504652	-	KZN_605
2428235.2429269.-	2429269	2428235	-	H37Rv	1986024.1987058.+	1986024	1987058	+	KZN_605
2508434.2509393.-	2509393	2508434	-	H37Rv	1907316.1908275.+	1907316	1908275	+	KZN_605
3174801.3174995.+	3174801	3174995	+	H37Rv	1238944.1239138.-	1239138	1238944	-	KZN_605
3598901.3599551.-	3599551	3598901	-	H37Rv	3598134.3598784.-	3598784	3598134	-	KZN_605
4355103.4356542.+	4355103	4356542	+	H37Rv	4342918.4344357.+	4342918	4344357	+	KZN_605
3325934.3326104.+	3325934	3326104	+	H37Rv	1087502.1087672.-	1087672	1087502	-	KZN_605
3207942.3208328.-	3208328	3207942	-	H37Rv	1205612.1205998.+	1205612	1205998	+	KZN_605
52810.53244.+	52810	53244	+	H37Rv	52912.53346.+	52912	53346	+	KZN_605
130895.131104.-	131104	130895	-	H37Rv	131025.131234.-	131234	131025	-	KZN_605
4134726.4136048.+	4134726	4136048	+	H37Rv	4122482.4123804.+	4122482	4123804	+	KZN_605
1389357.1393001.-	1393001	1389357	-	H37Rv	3019062.3022706.+	3019062	3022706	+	KZN_605
2575016.2575225.-	2575225	2575016	-	H37Rv	1841483.1841692.+	1841483	1841692	+	KZN_605
4211080.4211784.-	4211784	4211080	-	H37Rv	4198895.4199599.-	4199599	4198895	-	KZN_605
349983.351476.+	349983	351476	+	H37Rv	352849.354342.+	352849	354342	+	KZN_605
204065.205237.+	204065	205237	+	H37Rv	204002.205174.+	204002	205174	+	KZN_605
2959847.2960101.-	2960101	2959847	-	H37Rv	1453826.1454080.+	1453826	1454080	+	KZN_605
1965657.1965941.+	1965657	1965941	+	H37Rv	2456586.2456870.-	2456870	2456586	-	KZN_605
4235311.4235739.+	4235311	4235739	+	H37Rv	4223126.4223554.+	4223126	4223554	+	KZN_605
521511.522167.+	521511	522167	+	H37Rv	521771.522427.+	521771	522427	+	KZN_605
1759438.1760178.+	1759438	1760178	+	H37Rv	2653170.2653910.-	2653910	2653170	-	KZN_605
3034635.3034883.+	3034635	3034883	+	H37Rv	1380245.1380493.-	1380493	1380245	-	KZN_605
2433631.2434536.-	2434536	2433631	-	H37Rv	1982115.1983020.+	1982115	1983020	+	KZN_605
2512452.2515244.+	2512452	2515244	+	H37Rv	1901465.1904257.-	1904257	1901465	-	KZN_605
4128751.4129083.-	4129083	4128751	-	H37Rv	4116507.4116839.-	4116839	4116507	-	KZN_605
4205538.4205840.+	4205538	4205840	+	H37Rv	4193353.4193655.+	4193353	4193655	+	KZN_605
3809442.3811025.-	3811025	3809442	-	H37Rv	3805064.3806647.-	3806647	3805064	-	KZN_605
3558798.3558980.-	3558980	3558798	-	H37Rv	3558018.3558200.-	3558200	3558018	-	KZN_605
3639425.3639844.+	3639425	3639844	+	H37Rv	3638658.3639077.+	3638658	3639077	+	KZN_605
2232399.2232671.+	2232399	2232671	+	H37Rv	2190281.2190553.-	2190553	2190281	-	KZN_605
1886488.1888020.+	1886488	1888020	+	H37Rv	2534574.2536106.-	2536106	2534574	-	KZN_605
3136620.3137024.-	3137024	3136620	-	H37Rv	1276915.1277319.+	1276915	1277319	+	KZN_605
218711.219367.+	218711	219367	+	H37Rv	218648.219304.+	218648	219304	+	KZN_605
1101836.1102549.+	1101836	1102549	+	H37Rv	3309173.3309886.-	3309886	3309173	-	KZN_605
669839.671152.+	669839	671152	+	H37Rv	670159.671472.+	670159	671472	+	KZN_605
315783.316415.-	316415	315783	-	H37Rv	315722.316354.-	316354	315722	-	KZN_605
3025432.3026847.+	3025432	3026847	+	H37Rv	1388281.1389696.-	1389696	1388281	-	KZN_605
660886.661269.+	660886	661269	+	H37Rv	661206.661589.+	661206	661589	+	KZN_605
3073680.3074480.-	3074480	3073680	-	H37Rv	1340648.1341448.+	1340648	1341448	+	KZN_605
2020634.2023432.+	2020634	2023432	+	H37Rv	2400677.2403475.-	2403475	2400677	-	KZN_605
4246562.4249810.+	4246562	4249810	+	H37Rv	4234377.4237625.+	4234377	4237625	+	KZN_605
3429568.3429750.+	3429568	3429750	+	H37Rv	984031.984213.-	984213	984031	-	KZN_605
1680727.1680990.+	1680727	1680990	+	H37Rv	2732359.2732622.-	2732622	2732359	-	KZN_605
1077233.1077925.-	1077925	1077233	-	H37Rv	3333809.3334501.+	3333809	3334501	+	KZN_605
881075.881464.-	881464	881075	-	H37Rv	882281.882670.-	882670	882281	-	KZN_605
846168.847913.+	846168	847913	+	H37Rv	847372.849117.+	847372	849117	+	KZN_605
3520486.3521142.+	3520486	3521142	+	H37Rv	3522422.3523078.+	3522422	3523078	+	KZN_605
3833694.3834521.-	3834521	3833694	-	H37Rv	3829488.3830375.-	3830375	3829488	-	KZN_605
1057646.1058299.-	1058299	1057646	-	H37Rv	3353432.3354085.+	3353432	3354085	+	KZN_605
2505714.2506085.-	2506085	2505714	-	H37Rv	1910624.1910995.+	1910624	1910995	+	KZN_605
1346936.1347688.-	1347688	1346936	-	H37Rv	3064376.3065128.+	3064376	3065128	+	KZN_605
1612256.1612393.+	1612256	1612393	+	H37Rv	2801081.2801218.-	2801218	2801081	-	KZN_605
661253.663373.+	661253	663373	+	H37Rv	661573.663693.+	661573	663693	+	KZN_605
2012081.2012530.-	2012530	2012081	-	H37Rv	2411579.2412028.+	2411579	2412028	+	KZN_605
1120889.1122148.-	1122148	1120889	-	H37Rv	3289574.3290833.+	3289574	3290833	+	KZN_605
2857853.2858257.-	2858257	2857853	-	H37Rv	1555670.1556074.+	1555670	1556074	+	KZN_605
3887144.3888817.-	3888817	3887144	-	H37Rv	3878071.3879744.-	3879744	3878071	-	KZN_605
452294.453154.-	453154	452294	-	H37Rv	455158.456018.-	456018	455158	-	KZN_605
2751662.2752180.-	2752180	2751662	-	H37Rv	1661614.1662132.+	1661614	1662132	+	KZN_605
1197792.1198082.+	1197792	1198082	+	H37Rv	3213643.3213933.-	3213933	3213643	-	KZN_605
1710733.1711002.+	1710733	1711002	+	H37Rv	2702347.2702616.-	2702616	2702347	-	KZN_605
103710.104429.-	104429	103710	-	H37Rv	2633432.2634154.+	2633432	2634154	+	KZN_605
3884198.3884917.+	3884198	3884917	+	H37Rv	2633432.2634154.+	2633432	2634154	+	KZN_605
3597551.3597766.-	3597766	3597551	-	H37Rv	3596784.3596999.-	3596999	3596784	-	KZN_605
3194166.3195548.-	3195548	3194166	-	H37Rv	1218392.1219774.+	1218392	1219774	+	KZN_605
767317.767637.-	767637	767317	-	H37Rv	768161.768481.-	768481	768161	-	KZN_605
1179396.1180577.+	1179396	1180577	+	H37Rv	3231144.3232325.-	3232325	3231144	-	KZN_605
1003957.1004484.+	1003957	1004484	+	H37Rv	3407248.3407775.-	3407775	3407248	-	KZN_605
3900493.3901239.-	3901239	3900493	-	H37Rv	3890062.3890808.-	3890808	3890062	-	KZN_605
1773928.1774620.-	1774620	1773928	-	H37Rv	2638728.2639420.+	2638728	2639420	+	KZN_605
1111570.1112223.+	1111570	1112223	+	H37Rv	3299499.3300152.-	3300152	3299499	-	KZN_605
1739856.1741247.+	1739856	1741247	+	H37Rv	2672102.2673493.-	2673493	2672102	-	KZN_605
654924.655949.-	655949	654924	-	H37Rv	655244.656269.-	656269	655244	-	KZN_605
1564401.1565027.+	1564401	1565027	+	H37Rv	2848447.2849073.-	2849073	2848447	-	KZN_605
57410.57973.+	57410	57973	+	H37Rv	57512.58075.+	57512	58075	+	KZN_605
3079309.3080457.-	3080457	3079309	-	H37Rv	1334671.1335819.+	1334671	1335819	+	KZN_605
3380679.3381092.-	3381092	3380679	-	H37Rv	1032690.1033103.+	1032690	1033103	+	KZN_605
3781501.3784776.-	3784776	3781501	-	H37Rv	3778484.3781759.-	3781759	3778484	-	KZN_605
515373.515816.-	515816	515373	-	H37Rv	515633.516076.-	516076	515633	-	KZN_605
736298.737194.-	737194	736298	-	H37Rv	736609.737505.-	737505	736609	-	KZN_605
4200382.4201326.+	4200382	4201326	+	H37Rv	4188197.4189141.+	4188197	4189141	+	KZN_605
3723904.3724548.+	3723904	3724548	+	H37Rv	3720926.3721570.+	3720926	3721570	+	KZN_605
906405.907292.+	906405	907292	+	H37Rv	906252.907139.+	906252	907139	+	KZN_605
1169423.1170670.+	1169423	1170670	+	H37Rv	3069460.3070707.+	3069460	3070707	+	KZN_605
3381375.3382622.-	3382622	3381375	-	H37Rv	3069460.3070707.+	3069460	3070707	+	KZN_605
3481451.3482698.+	3481451	3482698	+	H37Rv	3069460.3070707.+	3069460	3070707	+	KZN_605
1341358.1342605.-	1342605	1341358	-	H37Rv	3069460.3070707.+	3069460	3070707	+	KZN_605
2828556.2829803.-	2829803	2828556	-	H37Rv	3069460.3070707.+	3069460	3070707	+	KZN_605
853825.854157.-	854157	853825	-	H37Rv	855029.855361.-	855361	855029	-	KZN_605
3183848.3184567.+	3183848	3184567	+	H37Rv	1229372.1230091.-	1230091	1229372	-	KZN_605
3300596.3302344.-	3302344	3300596	-	H37Rv	1111262.1113010.+	1111262	1113010	+	KZN_605
4028968.4029786.-	4029786	4028968	-	H37Rv	4015197.4016015.-	4016015	4015197	-	KZN_605
4042952.4043035.-	4043035	4042952	-	H37Rv	4029181.4029264.-	4029264	4029181	-	KZN_605
2980963.2981430.-	2981430	2980963	-	H37Rv	1433855.1434322.+	1433855	1434322	+	KZN_605
715370.716317.+	715370	716317	+	H37Rv	715681.716628.+	715681	716628	+	KZN_605
2671593.2675837.-	2675837	2671593	-	H37Rv	1737981.1742225.+	1737981	1742225	+	KZN_605
2044923.2046842.-	2046842	2044923	-	H37Rv	2377267.2379186.+	2377267	2379186	+	KZN_605
466672.467406.-	467406	466672	-	H37Rv	466930.467664.-	467664	466930	-	KZN_605
889497.890333.+	889497	890333	+	H37Rv	2050173.2051009.+	2050173	2051009	+	KZN_605
1541994.1542830.-	1542830	1541994	-	H37Rv	2050173.2051009.+	2050173	2051009	+	KZN_605
1987745.1988581.-	1988581	1987745	-	H37Rv	2050173.2051009.+	2050173	2051009	+	KZN_605
1996577.1997413.+	1996577	1997413	+	H37Rv	2050173.2051009.+	2050173	2051009	+	KZN_605
2365890.2366726.+	2365890	2366726	+	H37Rv	2050173.2051009.+	2050173	2051009	+	KZN_605
2430159.2430995.-	2430995	2430159	-	H37Rv	2050173.2051009.+	2050173	2051009	+	KZN_605
2550490.2551326.+	2550490	2551326	+	H37Rv	2050173.2051009.+	2050173	2051009	+	KZN_605
2636053.2636889.+	2636053	2636889	+	H37Rv	2050173.2051009.+	2050173	2051009	+	KZN_605
2784657.2785493.-	2785493	2784657	-	H37Rv	2050173.2051009.+	2050173	2051009	+	KZN_605
2972585.2973421.+	2972585	2973421	+	H37Rv	2050173.2051009.+	2050173	2051009	+	KZN_605
3120566.3121402.-	3121402	3120566	-	H37Rv	2050173.2051009.+	2050173	2051009	+	KZN_605
3551706.3552542.+	3551706	3552542	+	H37Rv	2050173.2051009.+	2050173	2051009	+	KZN_605
3553189.3554025.+	3553189	3554025	+	H37Rv	2050173.2051009.+	2050173	2051009	+	KZN_605
3710858.3711694.+	3710858	3711694	+	H37Rv	2050173.2051009.+	2050173	2051009	+	KZN_605
3795100.3795936.-	3795936	3795100	-	H37Rv	2050173.2051009.+	2050173	2051009	+	KZN_605
3891255.3892091.+	3891255	3892091	+	H37Rv	2050173.2051009.+	2050173	2051009	+	KZN_605
1576930.1577532.+	1576930	1577532	+	H37Rv	2835943.2836545.-	2836545	2835943	-	KZN_605
3800017.3800796.+	3800017	3800796	+	H37Rv	3795642.3796421.+	3795642	3796421	+	KZN_605
2353046.2353297.-	2353297	2353046	-	H37Rv	2063210.2063461.+	2063210	2063461	+	KZN_605
2617667.2618908.-	2618908	2617667	-	H37Rv	1797799.1799040.+	1797799	1799040	+	KZN_605
4150030.4151136.-	4151136	4150030	-	H37Rv	4137786.4138892.-	4138892	4137786	-	KZN_605
4199721.4200221.-	4200221	4199721	-	H37Rv	4187536.4188036.-	4188036	4187536	-	KZN_605
1308951.1309331.+	1308951	1309331	+	H37Rv	3102735.3103115.-	3103115	3102735	-	KZN_605
1682133.1684004.+	1682133	1684004	+	H37Rv	2729345.2731216.-	2731216	2729345	-	KZN_605
3399419.3400204.-	3400204	3399419	-	H37Rv	1013578.1014363.+	1013578	1014363	+	KZN_605
103710.104663.-	104663	103710	-	H37Rv	2633198.2634154.+	2633198	2634154	+	KZN_605
3883964.3884917.+	3883964	3884917	+	H37Rv	2633198.2634154.+	2633198	2634154	+	KZN_605
3391546.3392778.+	3391546	3392778	+	H37Rv	1021004.1022236.-	1022236	1021004	-	KZN_605
551749.551988.+	551749	551988	+	H37Rv	552009.552248.+	552009	552248	+	KZN_605
1112384.1113460.+	1112384	1113460	+	H37Rv	3298262.3299338.-	3299338	3298262	-	KZN_605
1409484.1409957.-	1409957	1409484	-	H37Rv	3002106.3002579.+	3002106	3002579	+	KZN_605
2075571.2075828.+	2075571	2075828	+	H37Rv	2346979.2347236.-	2347236	2346979	-	KZN_605
3359585.3360598.-	3360598	3359585	-	H37Rv	1053185.1054198.+	1053185	1054198	+	KZN_605
889497.890333.+	889497	890333	+	H37Rv	4064133.4064969.-	4064969	4064133	-	KZN_605
1541994.1542830.-	1542830	1541994	-	H37Rv	4064133.4064969.-	4064969	4064133	-	KZN_605
1987745.1988581.-	1988581	1987745	-	H37Rv	4064133.4064969.-	4064969	4064133	-	KZN_605
1996577.1997413.+	1996577	1997413	+	H37Rv	4064133.4064969.-	4064969	4064133	-	KZN_605
2365890.2366726.+	2365890	2366726	+	H37Rv	4064133.4064969.-	4064969	4064133	-	KZN_605
2430159.2430995.-	2430995	2430159	-	H37Rv	4064133.4064969.-	4064969	4064133	-	KZN_605
2550490.2551326.+	2550490	2551326	+	H37Rv	4064133.4064969.-	4064969	4064133	-	KZN_605
2636053.2636889.+	2636053	2636889	+	H37Rv	4064133.4064969.-	4064969	4064133	-	KZN_605
2784657.2785493.-	2785493	2784657	-	H37Rv	4064133.4064969.-	4064969	4064133	-	KZN_605
2972585.2973421.+	2972585	2973421	+	H37Rv	4064133.4064969.-	4064969	4064133	-	KZN_605
3120566.3121402.-	3121402	3120566	-	H37Rv	4064133.4064969.-	4064969	4064133	-	KZN_605
3551706.3552542.+	3551706	3552542	+	H37Rv	4064133.4064969.-	4064969	4064133	-	KZN_605
3553189.3554025.+	3553189	3554025	+	H37Rv	4064133.4064969.-	4064969	4064133	-	KZN_605
3710858.3711694.+	3710858	3711694	+	H37Rv	4064133.4064969.-	4064969	4064133	-	KZN_605
3795100.3795936.-	3795936	3795100	-	H37Rv	4064133.4064969.-	4064969	4064133	-	KZN_605
3891255.3892091.+	3891255	3892091	+	H37Rv	4064133.4064969.-	4064969	4064133	-	KZN_605
4132389.4133519.+	4132389	4133519	+	H37Rv	4120145.4121275.+	4120145	4121275	+	KZN_605
830858.831661.+	830858	831661	+	H37Rv	831863.832666.+	831863	832666	+	KZN_605
1848517.1852035.-	1852035	1848517	-	H37Rv	2570559.2574077.+	2570559	2574077	+	KZN_605
103710.104663.-	104663	103710	-	H37Rv	103839.104792.-	104792	103839	-	KZN_605
3883964.3884917.+	3883964	3884917	+	H37Rv	103839.104792.-	104792	103839	-	KZN_605
2156706.2157299.-	2157299	2156706	-	H37Rv	2265442.2266035.+	2265442	2266035	+	KZN_605
3894429.3895607.+	3894429	3895607	+	H37Rv	3883998.3885176.+	3883998	3885176	+	KZN_605
1532443.1533630.-	1533630	1532443	-	H37Rv	3883998.3885176.+	3883998	3885176	+	KZN_605
1339352.1340524.+	1339352	1340524	+	H37Rv	3883998.3885176.+	3883998	3885176	+	KZN_605
606551.608062.+	606551	608062	+	H37Rv	606787.608298.+	606787	608298	+	KZN_605
400192.401703.+	400192	401703	+	H37Rv	606787.608298.+	606787	608298	+	KZN_605
409356.410801.+	409356	410801	+	H37Rv	412243.413688.+	412243	413688	+	KZN_605
2626654.2626956.-	2626956	2626654	-	H37Rv	1789751.1790053.+	1789751	1790053	+	KZN_605
2906089.2906763.-	2906763	2906089	-	H37Rv	1507164.1507838.+	1507164	1507838	+	KZN_605
2720776.2721441.-	2721441	2720776	-	H37Rv	1692353.1693018.+	1692353	1693018	+	KZN_605
2439282.2439947.-	2439947	2439282	-	H37Rv	1692353.1693018.+	1692353	1693018	+	KZN_605
4195440.4195802.+	4195440	4195802	+	H37Rv	4183255.4183617.+	4183255	4183617	+	KZN_605
1190757.1192148.-	1192148	1190757	-	H37Rv	3219576.3220967.+	3219576	3220967	+	KZN_605
2334852.2335022.-	2335022	2334852	-	H37Rv	2081566.2081736.+	2081566	2081736	+	KZN_605
1799556.1800899.+	1799556	1800899	+	H37Rv	2621696.2623039.-	2623039	2621696	-	KZN_605
710584.710817.-	710817	710584	-	H37Rv	710895.711128.-	711128	710895	-	KZN_605
4153860.4155674.+	4153860	4155674	+	H37Rv	4141616.4143430.+	4141616	4143430	+	KZN_605
2442327.2443214.-	2443214	2442327	-	H37Rv	1973439.1974326.+	1973439	1974326	+	KZN_605
1622768.1623007.+	1622768	1623007	+	H37Rv	2790503.2790742.-	2790742	2790503	-	KZN_605
2594699.2595364.-	2595364	2594699	-	H37Rv	1821344.1822009.+	1821344	1822009	+	KZN_605
2900226.2900690.-	2900690	2900226	-	H37Rv	1513237.1513701.+	1513237	1513701	+	KZN_605
3107311.3107658.-	3107658	3107311	-	H37Rv	1306111.1306458.+	1306111	1306458	+	KZN_605
2030362.2030523.+	2030362	2030523	+	H37Rv	2393586.2393747.-	2393747	2393586	-	KZN_605
817531.817905.-	817905	817531	-	H37Rv	818536.818910.-	818910	818536	-	KZN_605
95414.96892.+	95414	96892	+	H37Rv	95543.97021.+	95543	97021	+	KZN_605
1053765.1054241.+	1053765	1054241	+	H37Rv	3357490.3357966.-	3357966	3357490	-	KZN_605
1053741.1054241.+	1053741	1054241	+	H37Rv	3357490.3357990.-	3357990	3357490	-	KZN_605
1836952.1839171.+	1836952	1839171	+	H37Rv	2583423.2585642.-	2585642	2583423	-	KZN_605
3083374.3084303.-	3084303	3083374	-	H37Rv	1329466.1330395.+	1329466	1330395	+	KZN_605
2469387.2470673.-	2470673	2469387	-	H37Rv	1946037.1947323.+	1946037	1947323	+	KZN_605
565782.566396.+	565782	566396	+	H37Rv	566042.566656.+	566042	566656	+	KZN_605
614326.614730.-	614730	614326	-	H37Rv	614562.614966.-	614966	614562	-	KZN_605
580497.580703.-	580703	580497	-	H37Rv	580757.580963.-	580963	580757	-	KZN_605
1292738.1293403.+	1292738	1293403	+	H37Rv	3118601.3119266.-	3119266	3118601	-	KZN_605
4169606.4170169.+	4169606	4170169	+	H37Rv	4157421.4157984.+	4157421	4157984	+	KZN_605
1090373.1093144.+	1090373	1093144	+	H37Rv	3318590.3321361.-	3321361	3318590	-	KZN_605
446531.447046.-	447046	446531	-	H37Rv	449395.449910.-	449910	449395	-	KZN_605
4017089.4018168.-	4018168	4017089	-	H37Rv	4003318.4004397.-	4004397	4003318	-	KZN_605
2448151.2449962.+	2448151	2449962	+	H37Rv	1966691.1968502.-	1968502	1966691	-	KZN_605
1803294.1804031.+	1803294	1804031	+	H37Rv	2618564.2619301.-	2619301	2618564	-	KZN_605
1052360.1052638.+	1052360	1052638	+	H37Rv	3359093.3359371.-	3359371	3359093	-	KZN_605
3132892.3133437.-	3133437	3132892	-	H37Rv	1280502.1281047.+	1280502	1281047	+	KZN_605
3135788.3136333.-	3136333	3135788	-	H37Rv	1280502.1281047.+	1280502	1281047	+	KZN_605
4062449.4063249.+	4062449	4063249	+	H37Rv	4048678.4049478.+	4048678	4049478	+	KZN_605
3113658.3114812.+	3113658	3114812	+	H37Rv	1298957.1300111.-	1300111	1298957	-	KZN_605
1085756.1087351.-	1087351	1085756	-	H37Rv	3324383.3325978.+	3324383	3325978	+	KZN_605
938112.939404.+	938112	939404	+	H37Rv	3472391.3473683.-	3473683	3472391	-	KZN_605
4158215.4158922.+	4158215	4158922	+	H37Rv	4146030.4146737.+	4146030	4146737	+	KZN_605
3175454.3177310.-	3177310	3175454	-	H37Rv	1236629.1238485.+	1236629	1238485	+	KZN_605
955050.956288.+	955050	956288	+	H37Rv	3455507.3456745.-	3456745	3455507	-	KZN_605
3378329.3378532.-	3378532	3378329	-	H37Rv	1035251.1035454.+	1035251	1035454	+	KZN_605
2414934.2416394.-	2416394	2414934	-	H37Rv	1998899.2000359.+	1998899	2000359	+	KZN_605
889497.890333.+	889497	890333	+	H37Rv	1606101.1606937.-	1606937	1606101	-	KZN_605
1541994.1542830.-	1542830	1541994	-	H37Rv	1606101.1606937.-	1606937	1606101	-	KZN_605
1987745.1988581.-	1988581	1987745	-	H37Rv	1606101.1606937.-	1606937	1606101	-	KZN_605
1996577.1997413.+	1996577	1997413	+	H37Rv	1606101.1606937.-	1606937	1606101	-	KZN_605
2365890.2366726.+	2365890	2366726	+	H37Rv	1606101.1606937.-	1606937	1606101	-	KZN_605
2430159.2430995.-	2430995	2430159	-	H37Rv	1606101.1606937.-	1606937	1606101	-	KZN_605
2550490.2551326.+	2550490	2551326	+	H37Rv	1606101.1606937.-	1606937	1606101	-	KZN_605
2636053.2636889.+	2636053	2636889	+	H37Rv	1606101.1606937.-	1606937	1606101	-	KZN_605
2784657.2785493.-	2785493	2784657	-	H37Rv	1606101.1606937.-	1606937	1606101	-	KZN_605
2972585.2973421.+	2972585	2973421	+	H37Rv	1606101.1606937.-	1606937	1606101	-	KZN_605
3120566.3121402.-	3121402	3120566	-	H37Rv	1606101.1606937.-	1606937	1606101	-	KZN_605
3551706.3552542.+	3551706	3552542	+	H37Rv	1606101.1606937.-	1606937	1606101	-	KZN_605
3553189.3554025.+	3553189	3554025	+	H37Rv	1606101.1606937.-	1606937	1606101	-	KZN_605
3710858.3711694.+	3710858	3711694	+	H37Rv	1606101.1606937.-	1606937	1606101	-	KZN_605
3795100.3795936.-	3795936	3795100	-	H37Rv	1606101.1606937.-	1606937	1606101	-	KZN_605
3891255.3892091.+	3891255	3892091	+	H37Rv	1606101.1606937.-	1606937	1606101	-	KZN_605
4142748.4143935.-	4143935	4142748	-	H37Rv	4130504.4131691.-	4131691	4130504	-	KZN_605
3022395.3023432.+	3022395	3023432	+	H37Rv	1391696.1392733.-	1392733	1391696	-	KZN_605
889497.890333.+	889497	890333	+	H37Rv	3488592.3489428.-	3489428	3488592	-	KZN_605
1541994.1542830.-	1542830	1541994	-	H37Rv	3488592.3489428.-	3489428	3488592	-	KZN_605
1987745.1988581.-	1988581	1987745	-	H37Rv	3488592.3489428.-	3489428	3488592	-	KZN_605
1996577.1997413.+	1996577	1997413	+	H37Rv	3488592.3489428.-	3489428	3488592	-	KZN_605
2365890.2366726.+	2365890	2366726	+	H37Rv	3488592.3489428.-	3489428	3488592	-	KZN_605
2430159.2430995.-	2430995	2430159	-	H37Rv	3488592.3489428.-	3489428	3488592	-	KZN_605
2550490.2551326.+	2550490	2551326	+	H37Rv	3488592.3489428.-	3489428	3488592	-	KZN_605
2636053.2636889.+	2636053	2636889	+	H37Rv	3488592.3489428.-	3489428	3488592	-	KZN_605
2784657.2785493.-	2785493	2784657	-	H37Rv	3488592.3489428.-	3489428	3488592	-	KZN_605
2972585.2973421.+	2972585	2973421	+	H37Rv	3488592.3489428.-	3489428	3488592	-	KZN_605
3120566.3121402.-	3121402	3120566	-	H37Rv	3488592.3489428.-	3489428	3488592	-	KZN_605
3551706.3552542.+	3551706	3552542	+	H37Rv	3488592.3489428.-	3489428	3488592	-	KZN_605
3553189.3554025.+	3553189	3554025	+	H37Rv	3488592.3489428.-	3489428	3488592	-	KZN_605
3710858.3711694.+	3710858	3711694	+	H37Rv	3488592.3489428.-	3489428	3488592	-	KZN_605
3795100.3795936.-	3795936	3795100	-	H37Rv	3488592.3489428.-	3489428	3488592	-	KZN_605
3891255.3892091.+	3891255	3892091	+	H37Rv	3488592.3489428.-	3489428	3488592	-	KZN_605
2714124.2715332.-	2715332	2714124	-	H37Rv	1698462.1699670.+	1698462	1699670	+	KZN_605
3142309.3143619.-	3143619	3142309	-	H37Rv	1270320.1271630.+	1270320	1271630	+	KZN_605
952825.953229.+	952825	953229	+	H37Rv	3458566.3458970.-	3458970	3458566	-	KZN_605
3725884.3726096.-	3726096	3725884	-	H37Rv	3722906.3723118.-	3723118	3722906	-	KZN_605
1200584.1201660.+	1200584	1201660	+	H37Rv	3210064.3211140.-	3211140	3210064	-	KZN_605
1276300.1277664.-	1277664	1276300	-	H37Rv	3134341.3135705.+	3134341	3135705	+	KZN_605
2195989.2197353.+	2195989	2197353	+	H37Rv	3134341.3135705.+	3134341	3135705	+	KZN_605
2734792.2736831.-	2736831	2734792	-	H37Rv	1676963.1679002.+	1676963	1679002	+	KZN_605
4016196.4017083.+	4016196	4017083	+	H37Rv	4002425.4003312.+	4002425	4003312	+	KZN_605
4269840.4270340.-	4270340	4269840	-	H37Rv	4257655.4258155.-	4258155	4257655	-	KZN_605
1461045.1461290.+	1461045	1461290	+	H37Rv	2950829.2951074.-	2951074	2950829	-	KZN_605
3379036.3379344.-	3379344	3379036	-	H37Rv	1034439.1034747.+	1034439	1034747	+	KZN_605
3044375.3044989.-	3044989	3044375	-	H37Rv	1370139.1370753.+	1370139	1370753	+	KZN_605
1711028.1712068.+	1711028	1712068	+	H37Rv	2701281.2702321.-	2702321	2701281	-	KZN_605
1242864.1243064.-	1243064	1242864	-	H37Rv	3168884.3169084.+	3168884	3169084	+	KZN_605
780721.781311.+	780721	781311	+	H37Rv	781564.782154.+	781564	782154	+	KZN_605
2445807.2446949.-	2446949	2445807	-	H37Rv	1969704.1970846.+	1969704	1970846	+	KZN_605
889497.890333.+	889497	890333	+	H37Rv	2155551.2156387.-	2156387	2155551	-	KZN_605
1541994.1542830.-	1542830	1541994	-	H37Rv	2155551.2156387.-	2156387	2155551	-	KZN_605
1987745.1988581.-	1988581	1987745	-	H37Rv	2155551.2156387.-	2156387	2155551	-	KZN_605
1996577.1997413.+	1996577	1997413	+	H37Rv	2155551.2156387.-	2156387	2155551	-	KZN_605
2365890.2366726.+	2365890	2366726	+	H37Rv	2155551.2156387.-	2156387	2155551	-	KZN_605
2430159.2430995.-	2430995	2430159	-	H37Rv	2155551.2156387.-	2156387	2155551	-	KZN_605
2550490.2551326.+	2550490	2551326	+	H37Rv	2155551.2156387.-	2156387	2155551	-	KZN_605
2636053.2636889.+	2636053	2636889	+	H37Rv	2155551.2156387.-	2156387	2155551	-	KZN_605
2784657.2785493.-	2785493	2784657	-	H37Rv	2155551.2156387.-	2156387	2155551	-	KZN_605
2972585.2973421.+	2972585	2973421	+	H37Rv	2155551.2156387.-	2156387	2155551	-	KZN_605
3120566.3121402.-	3121402	3120566	-	H37Rv	2155551.2156387.-	2156387	2155551	-	KZN_605
3551706.3552542.+	3551706	3552542	+	H37Rv	2155551.2156387.-	2156387	2155551	-	KZN_605
3553189.3554025.+	3553189	3554025	+	H37Rv	2155551.2156387.-	2156387	2155551	-	KZN_605
3710858.3711694.+	3710858	3711694	+	H37Rv	2155551.2156387.-	2156387	2155551	-	KZN_605
3795100.3795936.-	3795936	3795100	-	H37Rv	2155551.2156387.-	2156387	2155551	-	KZN_605
3891255.3892091.+	3891255	3892091	+	H37Rv	2155551.2156387.-	2156387	2155551	-	KZN_605
1199426.1200370.-	1200370	1199426	-	H37Rv	3211354.3212187.+	3211354	3212187	+	KZN_605
336560.339073.-	339073	336560	-	H37Rv	339426.341939.-	341939	339426	-	KZN_605
2853256.2854266.+	2853256	2854266	+	H37Rv	1559661.1560671.-	1560671	1559661	-	KZN_605
3609781.3610383.-	3610383	3609781	-	H37Rv	3609014.3609616.-	3609616	3609014	-	KZN_605
4019262.4020128.+	4019262	4020128	+	H37Rv	4005491.4006357.+	4005491	4006357	+	KZN_605
2592723.2594138.-	2594138	2592723	-	H37Rv	1822570.1823985.+	1822570	1823985	+	KZN_605
775586.778402.-	778402	775586	-	H37Rv	776429.779245.-	779245	776429	-	KZN_605
1597900.1598883.+	1597900	1598883	+	H37Rv	2814592.2815575.-	2815575	2814592	-	KZN_605
1905247.1906242.+	1905247	1906242	+	H37Rv	2516342.2517337.-	2517337	2516342	-	KZN_605
110307.117539.+	110307	117539	+	H37Rv	110436.117668.+	110436	117668	+	KZN_605
3243568.3245448.+	3243568	3245448	+	H37Rv	1168157.1170037.-	1170037	1168157	-	KZN_605
3471413.3471850.-	3471850	3471413	-	H37Rv	941931.942368.+	941931	942368	+	KZN_605
1108172.1108504.-	1108504	1108172	-	H37Rv	3303218.3303550.+	3303218	3303550	+	KZN_605
4325074.4325478.+	4325074	4325478	+	H37Rv	4312889.4313293.+	4312889	4313293	+	KZN_605
2308131.2310920.-	2310920	2308131	-	H37Rv	2105668.2108457.+	2105668	2108457	+	KZN_605
1742244.1742852.+	1742244	1742852	+	H37Rv	2670497.2671105.-	2671105	2670497	-	KZN_605
881459.882418.+	881459	882418	+	H37Rv	882665.883624.+	882665	883624	+	KZN_605
1327689.1329062.-	1329062	1327689	-	H37Rv	3083003.3084376.+	3083003	3084376	+	KZN_605
544835.545185.+	544835	545185	+	H37Rv	545095.545445.+	545095	545445	+	KZN_605
4008167.4008433.-	4008433	4008167	-	H37Rv	3994396.3994662.-	3994662	3994396	-	KZN_605
3053812.3055491.+	3053812	3055491	+	H37Rv	1359637.1361316.-	1361316	1359637	-	KZN_605
1580591.1581073.+	1580591	1581073	+	H37Rv	2832402.2832884.-	2832884	2832402	-	KZN_605
2506278.2507153.+	2506278	2507153	+	H37Rv	1909556.1910431.-	1910431	1909556	-	KZN_605
661003.661269.+	661003	661269	+	H37Rv	661323.661589.+	661323	661589	+	KZN_605
4212227.4212982.+	4212227	4212982	+	H37Rv	4200042.4200797.+	4200042	4200797	+	KZN_605
3162271.3164115.+	3162271	3164115	+	H37Rv	1249824.1251668.-	1251668	1249824	-	KZN_605
2680458.2680667.+	2680458	2680667	+	H37Rv	1733151.1733360.-	1733360	1733151	-	KZN_605
85636.86490.-	86490	85636	-	H37Rv	85765.86619.-	86619	85765	-	KZN_605
2581424.2581747.-	2581747	2581424	-	H37Rv	1834961.1835284.+	1834961	1835284	+	KZN_605
232231.234519.+	232231	234519	+	H37Rv	232168.234414.+	232168	234414	+	KZN_605
4269840.4270373.-	4270373	4269840	-	H37Rv	4257655.4258188.-	4258188	4257655	-	KZN_605
103710.104429.-	104429	103710	-	H37Rv	3875125.3875844.+	3875125	3875844	+	KZN_605
3884198.3884917.+	3884198	3884917	+	H37Rv	3875125.3875844.+	3875125	3875844	+	KZN_605
3412085.3414166.-	3414166	3412085	-	H37Rv	999616.1001697.+	999616	1001697	+	KZN_605
4303398.4305023.-	4305023	4303398	-	H37Rv	4291213.4292838.-	4292838	4291213	-	KZN_605
1338973.1339302.+	1338973	1339302	+	H37Rv	3072763.3073092.-	3073092	3072763	-	KZN_605
3363309.3363686.+	3363309	3363686	+	H37Rv	1050097.1050474.-	1050474	1050097	-	KZN_605
475326.475742.+	475326	475742	+	H37Rv	475586.476002.+	475586	476002	+	KZN_605
2281294.2281617.+	2281294	2281617	+	H37Rv	2134977.2135300.-	2135300	2134977	-	KZN_605
1114173.1114382.-	1114382	1114173	-	H37Rv	3297340.3297549.+	3297340	3297549	+	KZN_605
223999.224664.+	223999	224664	+	H37Rv	223936.224601.+	223936	224601	+	KZN_605
69541.71559.+	69541	71559	+	H37Rv	69642.71660.+	69642	71660	+	KZN_605
2533327.2533965.+	2533327	2533965	+	H37Rv	1882742.1883380.-	1883380	1882742	-	KZN_605
2916222.2916431.-	2916431	2916222	-	H37Rv	1497496.1497705.+	1497496	1497705	+	KZN_605
3376490.3376852.-	3376852	3376490	-	H37Rv	1036931.1037293.+	1036931	1037293	+	KZN_605
3908072.3908236.+	3908072	3908236	+	H37Rv	3897641.3897805.+	3897641	3897805	+	KZN_605
2281147.2281617.+	2281147	2281617	+	H37Rv	2134977.2135447.-	2135447	2134977	-	KZN_605
3289705.3290235.+	3289705	3290235	+	H37Rv	1123370.1123900.-	1123900	1123370	-	KZN_605
2968533.2968850.-	2968850	2968533	-	H37Rv	1445077.1445394.+	1445077	1445394	+	KZN_605
1419014.1419787.-	1419787	1419014	-	H37Rv	2992275.2993048.+	2992275	2993048	+	KZN_605
