882490.883194.+	882490	883194	+	F11	879926.880630.+	879926	880630	+	H37Ra
1388755.1389309.-	1389309	1388755	-	F11	1386307.1386852.-	1386852	1386307	-	H37Ra
545260.546021.+	545260	546021	+	F11	543401.544162.+	543401	544162	+	H37Ra
2036264.2036566.+	2036264	2036566	+	F11	2037943.2038245.+	2037943	2038245	+	H37Ra
1081056.1081748.-	1081748	1081056	-	F11	1078541.1079233.-	1079233	1078541	-	H37Ra
1642932.1644230.+	1642932	1644230	+	F11	1639865.1641163.+	1639865	1641163	+	H37Ra
17568.18845.-	18845	17568	-	F11	18825.20102.-	20102	18825	-	H37Ra
3580874.3583063.-	3583063	3580874	-	F11	3579892.3582081.-	3582081	3579892	-	H37Ra
333477.333650.-	333650	333477	-	F11	334522.334695.-	334695	334522	-	H37Ra
1962357.1962641.+	1962357	1962641	+	F11	1967175.1967459.+	1967175	1967459	+	H37Ra
1236183.1236593.+	1236183	1236593	+	F11	1233726.1234136.+	1233726	1234136	+	H37Ra
2379310.2380143.+	2379310	2380143	+	F11	2373176.2374009.+	2373176	2374009	+	H37Ra
41408.42013.+	41408	42013	+	F11	42665.43270.+	42665	43270	+	H37Ra
4163031.4164137.-	4164137	4163031	-	F11	4158476.4159582.-	4159582	4158476	-	H37Ra
604993.605931.+	604993	605931	+	F11	603158.604096.+	603158	604096	+	H37Ra
308194.309864.-	309864	308194	-	F11	309239.310909.-	310909	309239	-	H37Ra
4397152.4398246.-	4398246	4397152	-	F11	4392593.4393687.-	4393687	4392593	-	H37Ra
2973422.2975788.-	2975788	2973422	-	F11	2972073.2974439.-	2974439	2972073	-	H37Ra
845902.846147.+	845902	846147	+	F11	843339.843584.+	843339	843584	+	H37Ra
835927.836172.+	835927	836172	+	F11	843339.843584.+	843339	843584	+	H37Ra
3867651.3868589.-	3868589	3867651	-	F11	3862617.3863555.-	3863555	3862617	-	H37Ra
2717889.2718491.+	2717889	2718491	+	F11	2715204.2715806.+	2715204	2715806	+	H37Ra
3205695.3207074.-	3207074	3205695	-	F11	3206158.3207537.-	3207537	3206158	-	H37Ra
3347403.3347978.+	3347403	3347978	+	F11	3347922.3348497.+	3347922	3348497	+	H37Ra
339701.342235.-	342235	339701	-	F11	337922.340456.-	340456	337922	-	H37Ra
539673.540404.-	540404	539673	-	F11	537814.538545.-	538545	537814	-	H37Ra
803865.804155.-	804155	803865	-	F11	801410.801700.-	801700	801410	-	H37Ra
3533609.3534265.+	3533609	3534265	+	F11	3532642.3533298.+	3532642	3533298	+	H37Ra
479564.479812.+	479564	479812	+	F11	477704.477952.+	477704	477952	+	H37Ra
679059.679538.+	679059	679538	+	F11	677141.677620.+	677141	677620	+	H37Ra
664114.664497.+	664114	664497	+	F11	662196.662579.+	662196	662579	+	H37Ra
3551610.3552974.+	3551610	3552974	+	F11	3550643.3552007.+	3550643	3552007	+	H37Ra
3146234.3147136.-	3147136	3146234	-	F11	3146588.3147490.-	3147490	3146588	-	H37Ra
4116676.4117539.-	4117539	4116676	-	F11	4112121.4112984.-	4112984	4112121	-	H37Ra
740496.741389.-	741389	740496	-	F11	738574.739467.-	739467	738574	-	H37Ra
2209998.2210351.+	2209998	2210351	+	F11	2211642.2211995.+	2211642	2211995	+	H37Ra
4279954.4281897.-	4281897	4279954	-	F11	4275399.4277342.-	4277342	4275399	-	H37Ra
989338.989850.-	989850	989338	-	F11	986820.987332.-	987332	986820	-	H37Ra
934704.935540.-	935540	934704	-	F11	2560394.2561230.+	2560394	2561230	+	H37Ra
1485775.1486611.+	1485775	1486611	+	F11	2560394.2561230.+	2560394	2561230	+	H37Ra
1946034.1946870.-	1946870	1946034	-	F11	2560394.2561230.+	2560394	2561230	+	H37Ra
1983134.1983970.-	1983970	1983134	-	F11	2560394.2561230.+	2560394	2561230	+	H37Ra
1992399.1993235.-	1993235	1992399	-	F11	2560394.2561230.+	2560394	2561230	+	H37Ra
1997839.1998675.+	1997839	1998675	+	F11	2560394.2561230.+	2560394	2561230	+	H37Ra
2004661.2005497.+	2004661	2005497	+	F11	2560394.2561230.+	2560394	2561230	+	H37Ra
2017907.2018743.-	2018743	2017907	-	F11	2560394.2561230.+	2560394	2561230	+	H37Ra
2270484.2271320.-	2271320	2270484	-	F11	2560394.2561230.+	2560394	2561230	+	H37Ra
2349765.2350601.+	2349765	2350601	+	F11	2560394.2561230.+	2560394	2561230	+	H37Ra
2645453.2646289.+	2645453	2646289	+	F11	2560394.2561230.+	2560394	2561230	+	H37Ra
2649321.2650157.+	2649321	2650157	+	F11	2560394.2561230.+	2560394	2561230	+	H37Ra
2697370.2698206.-	2698206	2697370	-	F11	2560394.2561230.+	2560394	2561230	+	H37Ra
3132521.3133357.-	3133357	3132521	-	F11	2560394.2561230.+	2560394	2561230	+	H37Ra
3492615.3493451.+	3492615	3493451	+	F11	2560394.2561230.+	2560394	2561230	+	H37Ra
3564305.3565141.-	3565141	3564305	-	F11	2560394.2561230.+	2560394	2561230	+	H37Ra
3722337.3723173.-	3723173	3722337	-	F11	2560394.2561230.+	2560394	2561230	+	H37Ra
4225228.4225983.+	4225228	4225983	+	F11	4220673.4221428.+	4220673	4221428	+	H37Ra
1370139.1371227.+	1370139	1371227	+	F11	1367683.1368771.+	1367683	1368771	+	H37Ra
2579774.2580841.+	2579774	2580841	+	F11	2578890.2579957.+	2578890	2579957	+	H37Ra
3144530.3145075.-	3145075	3144530	-	F11	3144883.3145428.-	3145428	3144883	-	H37Ra
3147426.3147971.-	3147971	3147426	-	F11	3144883.3145428.-	3145428	3144883	-	H37Ra
510928.511755.-	511755	510928	-	F11	509068.509895.-	509895	509068	-	H37Ra
2591933.2592265.+	2591933	2592265	+	F11	2591049.2591381.+	2591049	2591381	+	H37Ra
1808559.1809968.+	1808559	1809968	+	F11	1814686.1816095.+	1814686	1816095	+	H37Ra
3793976.3797251.-	3797251	3793976	-	F11	3790624.3793899.-	3793899	3790624	-	H37Ra
2911273.2912100.+	2911273	2912100	+	F11	2909924.2910751.+	2909924	2910751	+	H37Ra
1407153.1408358.-	1408358	1407153	-	F11	1404696.1405901.-	1405901	1404696	-	H37Ra
2226363.2226971.+	2226363	2226971	+	F11	2228009.2228617.+	2228009	2228617	+	H37Ra
2383990.2384205.-	2384205	2383990	-	F11	2380500.2380715.-	2380715	2380500	-	H37Ra
2165643.2166260.-	2166260	2165643	-	F11	2167314.2167931.-	2167931	2167314	-	H37Ra
3906782.3907960.+	3906782	3907960	+	F11	3903106.3904284.+	3903106	3904284	+	H37Ra
1538142.1539329.-	1539329	1538142	-	F11	3903106.3904284.+	3903106	3904284	+	H37Ra
1343117.1344289.+	1343117	1344289	+	F11	3903106.3904284.+	3903106	3904284	+	H37Ra
1280064.1281428.-	1281428	1280064	-	F11	1277610.1278974.-	1278974	1277610	-	H37Ra
2204244.2205608.+	2204244	2205608	+	F11	1277610.1278974.-	1278974	1277610	-	H37Ra
1891701.1892096.+	1891701	1892096	+	F11	1897990.1898385.+	1897990	1898385	+	H37Ra
2712381.2712710.+	2712381	2712710	+	F11	2709696.2710025.+	2709696	2710025	+	H37Ra
2309143.2317335.-	2317335	2309143	-	F11	2304431.2312623.-	2312623	2304431	-	H37Ra
3514298.3514855.+	3514298	3514855	+	F11	3513331.3513888.+	3513331	3513888	+	H37Ra
991028.992530.+	991028	992530	+	F11	988510.990012.+	988510	990012	+	H37Ra
2730146.2730979.-	2730979	2730146	-	F11	2727440.2728273.-	2728273	2727440	-	H37Ra
2919406.2920146.-	2920146	2919406	-	F11	2918057.2918797.-	2918797	2918057	-	H37Ra
1413251.1413724.-	1413724	1413251	-	F11	1410794.1411267.-	1411267	1410794	-	H37Ra
2808617.2809378.-	2809378	2808617	-	F11	2807269.2808030.-	2808030	2807269	-	H37Ra
3135596.3136621.-	3136621	3135596	-	F11	3135958.3136983.-	3136983	3135958	-	H37Ra
71731.71970.+	71731	71970	+	F11	72947.73186.+	72947	73186	+	H37Ra
936094.936840.-	936840	936094	-	F11	933585.934331.-	934331	933585	-	H37Ra
1173130.1174440.+	1173130	1174440	+	F11	3493544.3494854.+	3493544	3494854	+	H37Ra
2841874.2843184.-	2843184	2841874	-	F11	3493544.3494854.+	3493544	3494854	+	H37Ra
3393085.3394395.-	3394395	3393085	-	F11	3493544.3494854.+	3493544	3494854	+	H37Ra
3494511.3495821.+	3494511	3495821	+	F11	3493544.3494854.+	3493544	3494854	+	H37Ra
1345122.1346432.-	1346432	1345122	-	F11	3493544.3494854.+	3493544	3494854	+	H37Ra
3543113.3544270.-	3544270	3543113	-	F11	3542146.3543303.-	3543303	3542146	-	H37Ra
53455.55803.+	53455	55803	+	F11	54712.57057.+	54712	57057	+	H37Ra
1266039.1267949.-	1267949	1266039	-	F11	1263582.1265492.-	1265492	1263582	-	H37Ra
1805601.1806449.+	1805601	1806449	+	F11	1811728.1812576.+	1811728	1812576	+	H37Ra
3255041.3256921.+	3255041	3256921	+	F11	3255560.3257440.+	3255560	3257440	+	H37Ra
3657757.3658680.-	3658680	3657757	-	F11	3656762.3657685.-	3657685	3656762	-	H37Ra
3368934.3369137.-	3369137	3368934	-	F11	3369394.3369597.-	3369597	3369394	-	H37Ra
2387379.2388020.+	2387379	2388020	+	F11	2383718.2384359.+	2383718	2384359	+	H37Ra
1660246.1661373.-	1661373	1660246	-	F11	1657126.1658253.-	1658253	1657126	-	H37Ra
3193300.3194589.-	3194589	3193300	-	F11	3193762.3195051.-	3195051	3193762	-	H37Ra
3715663.3716097.+	3715663	3716097	+	F11	3714847.3715281.+	3714847	3715281	+	H37Ra
2775438.2777054.+	2775438	2777054	+	F11	2772732.2774348.+	2772732	2774348	+	H37Ra
1173145.1174440.+	1173145	1174440	+	F11	3493559.3494854.+	3493559	3494854	+	H37Ra
2841874.2843169.-	2843169	2841874	-	F11	3493559.3494854.+	3493559	3494854	+	H37Ra
3393085.3394380.-	3394380	3393085	-	F11	3493559.3494854.+	3493559	3494854	+	H37Ra
3494526.3495821.+	3494526	3495821	+	F11	3493559.3494854.+	3493559	3494854	+	H37Ra
1345122.1346417.-	1346417	1345122	-	F11	3493559.3494854.+	3493559	3494854	+	H37Ra
2420401.2421186.-	2421186	2420401	-	F11	2416742.2417527.-	2417527	2416742	-	H37Ra
773760.774311.+	773760	774311	+	F11	771305.771856.+	771305	771856	+	H37Ra
2321905.2322267.-	2322267	2321905	-	F11	2317193.2317555.-	2317555	2317193	-	H37Ra
1970336.1972927.+	1970336	1972927	+	F11	1975154.1977745.+	1975154	1977745	+	H37Ra
880688.882325.-	882325	880688	-	F11	878124.879761.-	879761	878124	-	H37Ra
362899.364305.-	364305	362899	-	F11	361120.362526.-	362526	361120	-	H37Ra
3897669.3898628.+	3897669	3898628	+	F11	3892635.3893594.+	3892635	3893594	+	H37Ra
103843.104802.-	104802	103843	-	F11	3892635.3893594.+	3892635	3893594	+	H37Ra
1783832.1784794.-	1784794	1783832	-	F11	3892635.3893594.+	3892635	3893594	+	H37Ra
4145441.4146520.+	4145441	4146520	+	F11	4140886.4141965.+	4140886	4141965	+	H37Ra
1018223.1018381.+	1018223	1018381	+	F11	1015705.1015863.+	1015705	1015863	+	H37Ra
3501707.3502186.+	3501707	3502186	+	F11	3500740.3501219.+	3500740	3501219	+	H37Ra
802921.803568.-	803568	802921	-	F11	800466.801113.-	801113	800466	-	H37Ra
1581160.1581873.+	1581160	1581873	+	F11	1578129.1578842.+	1578129	1578842	+	H37Ra
2454530.2455468.-	2455468	2454530	-	F11	2452229.2453167.-	2453167	2452229	-	H37Ra
1592113.1592832.-	1592832	1592113	-	F11	1589082.1589801.-	1589801	1589082	-	H37Ra
548004.548354.+	548004	548354	+	F11	546145.546495.+	546145	546495	+	H37Ra
880189.880668.-	880668	880189	-	F11	877625.878104.-	878104	877625	-	H37Ra
2728798.2730024.-	2730024	2728798	-	F11	2726092.2727318.-	2727318	2726092	-	H37Ra
2594065.2594217.+	2594065	2594217	+	F11	2593181.2593333.+	2593181	2593333	+	H37Ra
1835963.1837660.-	1837660	1835963	-	F11	1842090.1843787.-	1843787	1842090	-	H37Ra
4322039.4323397.+	4322039	4323397	+	F11	4317484.4318842.+	4317484	4318842	+	H37Ra
2592212.2592538.-	2592538	2592212	-	F11	2591328.2591654.-	2591654	2591328	-	H37Ra
2806039.2807316.-	2807316	2806039	-	F11	2804691.2805968.-	2805968	2804691	-	H37Ra
1204354.1205430.+	1204354	1205430	+	F11	1201893.1202969.+	1201893	1202969	+	H37Ra
1235831.1236229.+	1235831	1236229	+	F11	1233374.1233772.+	1233374	1233772	+	H37Ra
2973422.2975758.-	2975758	2973422	-	F11	2972073.2974409.-	2974409	2972073	-	H37Ra
449699.450301.-	450301	449699	-	F11	447894.448496.-	448496	447894	-	H37Ra
2341178.2342113.+	2341178	2342113	+	F11	2336466.2337401.+	2336466	2337401	+	H37Ra
1616683.1617303.-	1617303	1616683	-	F11	1613652.1614251.-	1614251	1613652	-	H37Ra
3350800.3351471.+	3350800	3351471	+	F11	3351260.3351931.+	3351260	3351931	+	H37Ra
3085635.3086435.-	3086435	3085635	-	F11	3085648.3086448.-	3086448	3085648	-	H37Ra
3926884.3928236.-	3928236	3926884	-	F11	3923208.3924560.-	3924560	3923208	-	H37Ra
3052721.3053413.-	3053413	3052721	-	F11	3052734.3053426.-	3053426	3052734	-	H37Ra
2369085.2369432.-	2369432	2369085	-	F11	2362946.2363293.-	2363293	2362946	-	H37Ra
664481.666601.+	664481	666601	+	F11	662563.664683.+	662563	664683	+	H37Ra
3426646.3427050.-	3427050	3426646	-	F11	3427106.3427510.-	3427510	3427106	-	H37Ra
3603336.3604022.+	3603336	3604022	+	F11	3602354.3603040.+	3602354	3603040	+	H37Ra
4028977.4029864.+	4028977	4029864	+	F11	4024862.4025749.+	4024862	4025749	+	H37Ra
4397152.4398471.-	4398471	4397152	-	F11	4392593.4393912.-	4393912	4392593	-	H37Ra
1150305.1150796.+	1150305	1150796	+	F11	1147845.1148336.+	1147845	1148336	+	H37Ra
1924360.1925061.-	1925061	1924360	-	F11	1930649.1931350.-	1931350	1930649	-	H37Ra
1962180.1962641.+	1962180	1962641	+	F11	1966998.1967459.+	1966998	1967459	+	H37Ra
1203196.1204146.-	1204146	1203196	-	F11	1200735.1201685.-	1201685	1200735	-	H37Ra
3645417.3646841.+	3645417	3646841	+	F11	3644422.3645846.+	3644422	3645846	+	H37Ra
186811.186939.-	186939	186811	-	F11	187855.187983.-	187983	187855	-	H37Ra
2009575.2010810.+	2009575	2010810	+	F11	2012567.2013802.+	2012567	2013802	+	H37Ra
2637969.2639519.-	2639519	2637969	-	F11	2637076.2638626.-	2638626	2637076	-	H37Ra
934704.935540.-	935540	934704	-	F11	890803.891639.+	890803	891639	+	H37Ra
1485775.1486611.+	1485775	1486611	+	F11	890803.891639.+	890803	891639	+	H37Ra
1946034.1946870.-	1946870	1946034	-	F11	890803.891639.+	890803	891639	+	H37Ra
1983134.1983970.-	1983970	1983134	-	F11	890803.891639.+	890803	891639	+	H37Ra
1992399.1993235.-	1993235	1992399	-	F11	890803.891639.+	890803	891639	+	H37Ra
1997839.1998675.+	1997839	1998675	+	F11	890803.891639.+	890803	891639	+	H37Ra
2004661.2005497.+	2004661	2005497	+	F11	890803.891639.+	890803	891639	+	H37Ra
2017907.2018743.-	2018743	2017907	-	F11	890803.891639.+	890803	891639	+	H37Ra
2270484.2271320.-	2271320	2270484	-	F11	890803.891639.+	890803	891639	+	H37Ra
2349765.2350601.+	2349765	2350601	+	F11	890803.891639.+	890803	891639	+	H37Ra
2645453.2646289.+	2645453	2646289	+	F11	890803.891639.+	890803	891639	+	H37Ra
2649321.2650157.+	2649321	2650157	+	F11	890803.891639.+	890803	891639	+	H37Ra
2697370.2698206.-	2698206	2697370	-	F11	890803.891639.+	890803	891639	+	H37Ra
3132521.3133357.-	3133357	3132521	-	F11	890803.891639.+	890803	891639	+	H37Ra
3492615.3493451.+	3492615	3493451	+	F11	890803.891639.+	890803	891639	+	H37Ra
3564305.3565141.-	3565141	3564305	-	F11	890803.891639.+	890803	891639	+	H37Ra
3722337.3723173.-	3723173	3722337	-	F11	890803.891639.+	890803	891639	+	H37Ra
2359965.2360195.+	2359965	2360195	+	F11	2353894.2354124.+	2353894	2354124	+	H37Ra
2996647.2997213.+	2996647	2997213	+	F11	2996656.2997222.+	2996656	2997222	+	H37Ra
521759.522211.+	521759	522211	+	F11	519899.520351.+	519899	520351	+	H37Ra
3324756.3325145.+	3324756	3325145	+	F11	3325275.3325664.+	3325275	3325664	+	H37Ra
4173513.4173896.-	4173896	4173513	-	F11	4168958.4169341.-	4169341	4168958	-	H37Ra
2993146.2993535.-	2993535	2993146	-	F11	2993155.2993544.-	2993544	2993155	-	H37Ra
95550.97025.+	95550	97025	+	F11	96775.98250.+	96775	98250	+	H37Ra
3844986.3845777.-	3845777	3844986	-	F11	3842372.3843163.-	3843163	3842372	-	H37Ra
809628.810035.+	809628	810035	+	F11	807065.807472.+	807065	807472	+	H37Ra
934704.935540.-	935540	934704	-	F11	2796625.2797461.-	2797461	2796625	-	H37Ra
1485775.1486611.+	1485775	1486611	+	F11	2796625.2797461.-	2797461	2796625	-	H37Ra
1946034.1946870.-	1946870	1946034	-	F11	2796625.2797461.-	2797461	2796625	-	H37Ra
1983134.1983970.-	1983970	1983134	-	F11	2796625.2797461.-	2797461	2796625	-	H37Ra
1992399.1993235.-	1993235	1992399	-	F11	2796625.2797461.-	2797461	2796625	-	H37Ra
1997839.1998675.+	1997839	1998675	+	F11	2796625.2797461.-	2797461	2796625	-	H37Ra
2004661.2005497.+	2004661	2005497	+	F11	2796625.2797461.-	2797461	2796625	-	H37Ra
2017907.2018743.-	2018743	2017907	-	F11	2796625.2797461.-	2797461	2796625	-	H37Ra
2270484.2271320.-	2271320	2270484	-	F11	2796625.2797461.-	2797461	2796625	-	H37Ra
2349765.2350601.+	2349765	2350601	+	F11	2796625.2797461.-	2797461	2796625	-	H37Ra
2645453.2646289.+	2645453	2646289	+	F11	2796625.2797461.-	2797461	2796625	-	H37Ra
2649321.2650157.+	2649321	2650157	+	F11	2796625.2797461.-	2797461	2796625	-	H37Ra
2697370.2698206.-	2698206	2697370	-	F11	2796625.2797461.-	2797461	2796625	-	H37Ra
3132521.3133357.-	3133357	3132521	-	F11	2796625.2797461.-	2797461	2796625	-	H37Ra
3492615.3493451.+	3492615	3493451	+	F11	2796625.2797461.-	2797461	2796625	-	H37Ra
3564305.3565141.-	3565141	3564305	-	F11	2796625.2797461.-	2797461	2796625	-	H37Ra
3722337.3723173.-	3723173	3722337	-	F11	2796625.2797461.-	2797461	2796625	-	H37Ra
3416677.3416928.+	3416677	3416928	+	F11	3417137.3417388.+	3417137	3417388	+	H37Ra
258101.259222.-	259222	258101	-	F11	259145.260266.-	260266	259145	-	H37Ra
4191250.4193616.+	4191250	4193616	+	F11	4186695.4189061.+	4186695	4189061	+	H37Ra
3592291.3593076.+	3592291	3593076	+	F11	3591309.3592094.+	3591309	3592094	+	H37Ra
3065544.3065810.+	3065544	3065810	+	F11	3065557.3065823.+	3065557	3065823	+	H37Ra
1345122.1346417.-	1346417	1345122	-	F11	1342668.1343963.-	1343963	1342668	-	H37Ra
3494526.3495821.+	3494526	3495821	+	F11	1342668.1343963.-	1343963	1342668	-	H37Ra
1173145.1174440.+	1173145	1174440	+	F11	1342668.1343963.-	1343963	1342668	-	H37Ra
2841874.2843169.-	2843169	2841874	-	F11	1342668.1343963.-	1343963	1342668	-	H37Ra
3393085.3394380.-	3394380	3393085	-	F11	1342668.1343963.-	1343963	1342668	-	H37Ra
1273721.1274908.+	1273721	1274908	+	F11	1271267.1272454.+	1271267	1272454	+	H37Ra
3145347.3146237.-	3146237	3145347	-	F11	3145701.3146591.-	3146591	3145701	-	H37Ra
934704.935540.-	935540	934704	-	F11	1989483.1990319.-	1990319	1989483	-	H37Ra
1485775.1486611.+	1485775	1486611	+	F11	1989483.1990319.-	1990319	1989483	-	H37Ra
1946034.1946870.-	1946870	1946034	-	F11	1989483.1990319.-	1990319	1989483	-	H37Ra
1983134.1983970.-	1983970	1983134	-	F11	1989483.1990319.-	1990319	1989483	-	H37Ra
1992399.1993235.-	1993235	1992399	-	F11	1989483.1990319.-	1990319	1989483	-	H37Ra
1997839.1998675.+	1997839	1998675	+	F11	1989483.1990319.-	1990319	1989483	-	H37Ra
2004661.2005497.+	2004661	2005497	+	F11	1989483.1990319.-	1990319	1989483	-	H37Ra
2017907.2018743.-	2018743	2017907	-	F11	1989483.1990319.-	1990319	1989483	-	H37Ra
2270484.2271320.-	2271320	2270484	-	F11	1989483.1990319.-	1990319	1989483	-	H37Ra
2349765.2350601.+	2349765	2350601	+	F11	1989483.1990319.-	1990319	1989483	-	H37Ra
2645453.2646289.+	2645453	2646289	+	F11	1989483.1990319.-	1990319	1989483	-	H37Ra
2649321.2650157.+	2649321	2650157	+	F11	1989483.1990319.-	1990319	1989483	-	H37Ra
2697370.2698206.-	2698206	2697370	-	F11	1989483.1990319.-	1990319	1989483	-	H37Ra
3132521.3133357.-	3133357	3132521	-	F11	1989483.1990319.-	1990319	1989483	-	H37Ra
3492615.3493451.+	3492615	3493451	+	F11	1989483.1990319.-	1990319	1989483	-	H37Ra
3564305.3565141.-	3565141	3564305	-	F11	1989483.1990319.-	1990319	1989483	-	H37Ra
3722337.3723173.-	3723173	3722337	-	F11	1989483.1990319.-	1990319	1989483	-	H37Ra
537614.537802.-	537802	537614	-	F11	535755.535943.-	535943	535755	-	H37Ra
1098847.1100265.-	1100265	1098847	-	F11	1096386.1097804.-	1097804	1096386	-	H37Ra
3634937.3636700.-	3636700	3634937	-	F11	3633942.3635705.-	3635705	3633942	-	H37Ra
1644258.1645265.-	1645265	1644258	-	F11	1641191.1642198.-	1642198	1641191	-	H37Ra
1183115.1184347.+	1183115	1184347	+	F11	1180654.1181886.+	1180654	1181886	+	H37Ra
275028.275222.-	275222	275028	-	F11	276072.276266.-	276266	276072	-	H37Ra
2268071.2268319.+	2268071	2268319	+	F11	2269717.2269965.+	2269717	2269965	+	H37Ra
2836574.2837920.-	2837920	2836574	-	F11	2835224.2836570.-	2836570	2835224	-	H37Ra
223923.224225.+	223923	224225	+	F11	224967.225269.+	224967	225269	+	H37Ra
3459168.3460193.-	3460193	3459168	-	F11	3459560.3460585.-	3460585	3459560	-	H37Ra
3312069.3313817.-	3313817	3312069	-	F11	3312588.3314336.-	3314336	3312588	-	H37Ra
3651650.3652021.-	3652021	3651650	-	F11	3650655.3651026.-	3651026	3650655	-	H37Ra
3884795.3886219.-	3886219	3884795	-	F11	3879761.3881185.-	3881185	3879761	-	H37Ra
1471016.1471447.+	1471016	1471447	+	F11	1468559.1468990.+	1468559	1468990	+	H37Ra
2038139.2038456.+	2038139	2038456	+	F11	2039818.2040135.+	2039818	2040135	+	H37Ra
3569076.3570260.-	3570260	3569076	-	F11	3568109.3569293.-	3569293	3568109	-	H37Ra
1268851.1269219.-	1269219	1268851	-	F11	1266397.1266765.-	1266765	1266397	-	H37Ra
1832343.1834562.+	1832343	1834562	+	F11	1838470.1840689.+	1838470	1840689	+	H37Ra
4364066.4365181.+	4364066	4365181	+	F11	4359512.4360627.+	4359512	4360627	+	H37Ra
1692581.1693867.+	1692581	1693867	+	F11	1689461.1690747.+	1689461	1690747	+	H37Ra
4218488.4218841.+	4218488	4218841	+	F11	4213933.4214286.+	4213933	4214286	+	H37Ra
3147968.3148237.-	3148237	3147968	-	F11	3148322.3148591.-	3148591	3148322	-	H37Ra
144143.145762.+	144143	145762	+	F11	145366.146985.+	145366	146985	+	H37Ra
3756176.3763594.-	3763594	3756176	-	F11	3752824.3760242.-	3760242	3752824	-	H37Ra
713812.714045.-	714045	713812	-	F11	711894.712127.-	712127	711894	-	H37Ra
1854091.1855149.+	1854091	1855149	+	F11	1860218.1861276.+	1860218	1861276	+	H37Ra
455462.456364.-	456364	455462	-	F11	453657.454559.-	454559	453657	-	H37Ra
144134.145762.+	144134	145762	+	F11	145357.146985.+	145357	146985	+	H37Ra
4264110.4265867.+	4264110	4265867	+	F11	4259555.4261312.+	4259555	4261312	+	H37Ra
3195378.3196097.+	3195378	3196097	+	F11	3195840.3196559.+	3195840	3196559	+	H37Ra
2006671.2006946.+	2006671	2006946	+	F11	2009663.2009938.+	2009663	2009938	+	H37Ra
2766336.2766902.-	2766902	2766336	-	F11	2763630.2764196.-	2764196	2763630	-	H37Ra
835927.836172.+	835927	836172	+	F11	833364.833609.+	833364	833609	+	H37Ra
845902.846147.+	845902	846147	+	F11	833364.833609.+	833364	833609	+	H37Ra
4182547.4183170.+	4182547	4183170	+	F11	4177992.4178615.+	4177992	4178615	+	H37Ra
934704.935540.-	935540	934704	-	F11	3132534.3133370.-	3133370	3132534	-	H37Ra
1485775.1486611.+	1485775	1486611	+	F11	3132534.3133370.-	3133370	3132534	-	H37Ra
1946034.1946870.-	1946870	1946034	-	F11	3132534.3133370.-	3133370	3132534	-	H37Ra
1983134.1983970.-	1983970	1983134	-	F11	3132534.3133370.-	3133370	3132534	-	H37Ra
1992399.1993235.-	1993235	1992399	-	F11	3132534.3133370.-	3133370	3132534	-	H37Ra
1997839.1998675.+	1997839	1998675	+	F11	3132534.3133370.-	3133370	3132534	-	H37Ra
2004661.2005497.+	2004661	2005497	+	F11	3132534.3133370.-	3133370	3132534	-	H37Ra
2017907.2018743.-	2018743	2017907	-	F11	3132534.3133370.-	3133370	3132534	-	H37Ra
2270484.2271320.-	2271320	2270484	-	F11	3132534.3133370.-	3133370	3132534	-	H37Ra
2349765.2350601.+	2349765	2350601	+	F11	3132534.3133370.-	3133370	3132534	-	H37Ra
2645453.2646289.+	2645453	2646289	+	F11	3132534.3133370.-	3133370	3132534	-	H37Ra
2649321.2650157.+	2649321	2650157	+	F11	3132534.3133370.-	3133370	3132534	-	H37Ra
2697370.2698206.-	2698206	2697370	-	F11	3132534.3133370.-	3133370	3132534	-	H37Ra
3132521.3133357.-	3133357	3132521	-	F11	3132534.3133370.-	3133370	3132534	-	H37Ra
3492615.3493451.+	3492615	3493451	+	F11	3132534.3133370.-	3133370	3132534	-	H37Ra
3564305.3565141.-	3565141	3564305	-	F11	3132534.3133370.-	3133370	3132534	-	H37Ra
3722337.3723173.-	3723173	3722337	-	F11	3132534.3133370.-	3133370	3132534	-	H37Ra
3479370.3479690.+	3479370	3479690	+	F11	3479762.3480082.+	3479762	3480082	+	H37Ra
1124657.1125916.-	1125916	1124657	-	F11	1122197.1123456.-	1123456	1122197	-	H37Ra
717421.718494.+	717421	718494	+	F11	715503.716576.+	715503	716576	+	H37Ra
2775483.2777054.+	2775483	2777054	+	F11	2772777.2774348.+	2772777	2774348	+	H37Ra
459436.459987.-	459987	459436	-	F11	457631.458182.-	458182	457631	-	H37Ra
3597920.3598249.-	3598249	3597920	-	F11	3596938.3597267.-	3597267	3596938	-	H37Ra
2545475.2546113.+	2545475	2546113	+	F11	2543231.2543869.+	2543231	2543869	+	H37Ra
3524700.3525191.+	3524700	3525191	+	F11	3523733.3524224.+	3523733	3524224	+	H37Ra
4111097.4112170.-	4112170	4111097	-	F11	4106542.4107615.-	4107615	4106542	-	H37Ra
1094166.1096967.+	1094166	1096967	+	F11	1091651.1094452.+	1091651	1094452	+	H37Ra
834727.835530.+	834727	835530	+	F11	832164.832967.+	832164	832967	+	H37Ra
3609329.3609568.-	3609568	3609329	-	F11	3608334.3608573.-	3608573	3608334	-	H37Ra
465198.466475.+	465198	466475	+	F11	463338.464615.+	463338	464615	+	H37Ra
1169550.1170581.-	1170581	1169550	-	F11	1167089.1168120.-	1168120	1167089	-	H37Ra
2518541.2519299.+	2518541	2519299	+	F11	2516297.2517055.+	2516297	2517055	+	H37Ra
3361983.3362828.-	3362828	3361983	-	F11	3362443.3363288.-	3363288	3362443	-	H37Ra
2342834.2343607.-	2343607	2342834	-	F11	2338122.2338895.-	2338895	2338122	-	H37Ra
2604942.2605493.-	2605493	2604942	-	F11	2604058.2604609.-	2604609	2604058	-	H37Ra
2871171.2871575.-	2871575	2871171	-	F11	2869821.2870225.-	2870225	2869821	-	H37Ra
3888533.3889801.+	3888533	3889801	+	F11	3883499.3884767.+	3883499	3884767	+	H37Ra
3811840.3812580.+	3811840	3812580	+	F11	3809846.3810586.+	3809846	3810586	+	H37Ra
3765688.3766179.-	3766179	3765688	-	F11	3762335.3762826.-	3762826	3762335	-	H37Ra
707652.707987.+	707652	707987	+	F11	705734.706069.+	705734	706069	+	H37Ra
4131531.4131692.-	4131692	4131531	-	F11	4126976.4127137.-	4127137	4126976	-	H37Ra
3852990.3853367.-	3853367	3852990	-	F11	3855360.3855680.-	3855680	3855360	-	H37Ra
3860351.3860713.-	3860713	3860351	-	F11	3855360.3855680.-	3855680	3855360	-	H37Ra
52911.53345.+	52911	53345	+	F11	54168.54602.+	54168	54602	+	H37Ra
3091264.3092472.-	3092472	3091264	-	F11	3091277.3092485.-	3092485	3091277	-	H37Ra
3361983.3362780.-	3362780	3361983	-	F11	3362443.3363240.-	3363240	3362443	-	H37Ra
437998.438627.-	438627	437998	-	F11	436193.436822.-	436822	436193	-	H37Ra
2435204.2435839.-	2435839	2435204	-	F11	2431545.2432180.-	2432180	2431545	-	H37Ra
3862735.3862899.-	3862899	3862735	-	F11	3857702.3857866.-	3857866	3857702	-	H37Ra
1201562.1201852.+	1201562	1201852	+	F11	1199101.1199391.+	1199101	1199391	+	H37Ra
1061472.1062125.-	1062125	1061472	-	F11	1058954.1059607.-	1059607	1058954	-	H37Ra
2109194.2109838.+	2109194	2109838	+	F11	2110936.2111580.+	2110936	2111580	+	H37Ra
3676571.3677536.+	3676571	3677536	+	F11	3675639.3676604.+	3675639	3676604	+	H37Ra
1163863.1164186.-	1164186	1163863	-	F11	1161403.1161726.-	1161726	1161403	-	H37Ra
661546.662568.+	661546	662568	+	F11	659628.660650.+	659628	660650	+	H37Ra
403248.404783.+	403248	404783	+	F11	401530.403065.+	401530	403065	+	H37Ra
4171216.4171923.+	4171216	4171923	+	F11	4166661.4167368.+	4166661	4167368	+	H37Ra
1393124.1396819.-	1396819	1393124	-	F11	1390667.1394362.-	1394362	1390667	-	H37Ra
1180656.1181012.+	1180656	1181012	+	F11	1178195.1178551.+	1178195	1178551	+	H37Ra
921423.922082.-	922082	921423	-	F11	920218.920877.-	920877	920218	-	H37Ra
1941645.1941752.+	1941645	1941752	+	F11	1947935.1948042.+	1947935	1948042	+	H37Ra
4306226.4312537.-	4312537	4306226	-	F11	4301671.4307982.-	4307982	4301671	-	H37Ra
4108541.4109116.-	4109116	4108541	-	F11	4103986.4104561.-	4104561	4103986	-	H37Ra
3807565.3808560.-	3808560	3807565	-	F11	3805571.3806566.-	3806566	3805571	-	H37Ra
715477.715947.+	715477	715947	+	F11	713559.714029.+	713559	714029	+	H37Ra
3493554.3493865.+	3493554	3493865	+	F11	3492587.3492898.+	3492587	3492898	+	H37Ra
2959700.2960428.+	2959700	2960428	+	F11	2958351.2959079.+	2958351	2959079	+	H37Ra
2559365.2559898.+	2559365	2559898	+	F11	2557123.2557656.+	2557123	2557656	+	H37Ra
4083529.4084242.+	4083529	4084242	+	F11	4078973.4079686.+	4078973	4079686	+	H37Ra
3889763.3890656.-	3890656	3889763	-	F11	3884729.3885622.-	3885622	3884729	-	H37Ra
2782935.2783558.-	2783558	2782935	-	F11	2780229.2780852.-	2780852	2780229	-	H37Ra
1098304.1098828.+	1098304	1098828	+	F11	1095843.1096367.+	1095843	1096367	+	H37Ra
2411964.2412245.+	2411964	2412245	+	F11	2408305.2408586.+	2408305	2408586	+	H37Ra
4107662.4107916.-	4107916	4107662	-	F11	4103107.4103361.-	4103361	4103107	-	H37Ra
1492567.1492749.-	1492749	1492567	-	F11	1487078.1487260.-	1487260	1487078	-	H37Ra
4106942.4107529.+	4106942	4107529	+	F11	4102387.4102974.+	4102387	4102974	+	H37Ra
3736129.3736875.+	3736129	3736875	+	F11	3734643.3735389.+	3734643	3735389	+	H37Ra
207768.208736.+	207768	208736	+	F11	208812.209780.+	208812	209780	+	H37Ra
2064731.2065675.+	2064731	2065675	+	F11	2066411.2067355.+	2066411	2067355	+	H37Ra
3970212.3971216.+	3970212	3971216	+	F11	3966094.3967098.+	3966094	3967098	+	H37Ra
771078.771398.-	771398	771078	-	F11	768623.768943.-	768943	768623	-	H37Ra
1218992.1219174.+	1218992	1219174	+	F11	1216534.1216716.+	1216534	1216716	+	H37Ra
547905.548291.-	548291	547905	-	F11	546046.546432.-	546432	546046	-	H37Ra
1020038.1020511.+	1020038	1020511	+	F11	1017520.1017993.+	1017520	1017993	+	H37Ra
1180336.1180674.+	1180336	1180674	+	F11	1177875.1178213.+	1177875	1178213	+	H37Ra
1778566.1779315.-	1779315	1778566	-	F11	1775445.1776194.-	1776194	1775445	-	H37Ra
1616683.1617345.-	1617345	1616683	-	F11	1613652.1614293.-	1614293	1613652	-	H37Ra
739526.740473.-	740473	739526	-	F11	737604.738551.-	738551	737604	-	H37Ra
3219471.3219896.-	3219896	3219471	-	F11	3219934.3220359.-	3220359	3219934	-	H37Ra
1020646.1021041.-	1021041	1020646	-	F11	1018128.1018523.-	1018523	1018128	-	H37Ra
57439.58077.+	57439	58077	+	F11	58693.59331.+	58693	59331	+	H37Ra
1176648.1177556.+	1176648	1177556	+	F11	1174187.1175095.+	1174187	1175095	+	H37Ra
934704.935540.-	935540	934704	-	F11	3721699.3722535.+	3721699	3722535	+	H37Ra
1485775.1486611.+	1485775	1486611	+	F11	3721699.3722535.+	3721699	3722535	+	H37Ra
1946034.1946870.-	1946870	1946034	-	F11	3721699.3722535.+	3721699	3722535	+	H37Ra
1983134.1983970.-	1983970	1983134	-	F11	3721699.3722535.+	3721699	3722535	+	H37Ra
1992399.1993235.-	1993235	1992399	-	F11	3721699.3722535.+	3721699	3722535	+	H37Ra
1997839.1998675.+	1997839	1998675	+	F11	3721699.3722535.+	3721699	3722535	+	H37Ra
2004661.2005497.+	2004661	2005497	+	F11	3721699.3722535.+	3721699	3722535	+	H37Ra
2017907.2018743.-	2018743	2017907	-	F11	3721699.3722535.+	3721699	3722535	+	H37Ra
2270484.2271320.-	2271320	2270484	-	F11	3721699.3722535.+	3721699	3722535	+	H37Ra
2349765.2350601.+	2349765	2350601	+	F11	3721699.3722535.+	3721699	3722535	+	H37Ra
2645453.2646289.+	2645453	2646289	+	F11	3721699.3722535.+	3721699	3722535	+	H37Ra
2649321.2650157.+	2649321	2650157	+	F11	3721699.3722535.+	3721699	3722535	+	H37Ra
2697370.2698206.-	2698206	2697370	-	F11	3721699.3722535.+	3721699	3722535	+	H37Ra
3132521.3133357.-	3133357	3132521	-	F11	3721699.3722535.+	3721699	3722535	+	H37Ra
3492615.3493451.+	3492615	3493451	+	F11	3721699.3722535.+	3721699	3722535	+	H37Ra
3564305.3565141.-	3565141	3564305	-	F11	3721699.3722535.+	3721699	3722535	+	H37Ra
3722337.3723173.-	3723173	3722337	-	F11	3721699.3722535.+	3721699	3722535	+	H37Ra
1232480.1233151.+	1232480	1233151	+	F11	1230023.1230694.+	1230023	1230694	+	H37Ra
3056330.3056950.-	3056950	3056330	-	F11	3056343.3056963.-	3056963	3056343	-	H37Ra
2384297.2385934.-	2385934	2384297	-	F11	2380807.2382444.-	2382444	2380807	-	H37Ra
707213.707440.+	707213	707440	+	F11	705295.705522.+	705295	705522	+	H37Ra
1686770.1688641.+	1686770	1688641	+	F11	1683650.1685521.+	1683650	1685521	+	H37Ra
3884795.3886243.-	3886243	3884795	-	F11	3879761.3881209.-	3881209	3879761	-	H37Ra
934704.935540.-	935540	934704	-	F11	2984553.2985389.+	2984553	2985389	+	H37Ra
1485775.1486611.+	1485775	1486611	+	F11	2984553.2985389.+	2984553	2985389	+	H37Ra
1946034.1946870.-	1946870	1946034	-	F11	2984553.2985389.+	2984553	2985389	+	H37Ra
1983134.1983970.-	1983970	1983134	-	F11	2984553.2985389.+	2984553	2985389	+	H37Ra
1992399.1993235.-	1993235	1992399	-	F11	2984553.2985389.+	2984553	2985389	+	H37Ra
1997839.1998675.+	1997839	1998675	+	F11	2984553.2985389.+	2984553	2985389	+	H37Ra
2004661.2005497.+	2004661	2005497	+	F11	2984553.2985389.+	2984553	2985389	+	H37Ra
2017907.2018743.-	2018743	2017907	-	F11	2984553.2985389.+	2984553	2985389	+	H37Ra
2270484.2271320.-	2271320	2270484	-	F11	2984553.2985389.+	2984553	2985389	+	H37Ra
2349765.2350601.+	2349765	2350601	+	F11	2984553.2985389.+	2984553	2985389	+	H37Ra
2645453.2646289.+	2645453	2646289	+	F11	2984553.2985389.+	2984553	2985389	+	H37Ra
2649321.2650157.+	2649321	2650157	+	F11	2984553.2985389.+	2984553	2985389	+	H37Ra
2697370.2698206.-	2698206	2697370	-	F11	2984553.2985389.+	2984553	2985389	+	H37Ra
3132521.3133357.-	3133357	3132521	-	F11	2984553.2985389.+	2984553	2985389	+	H37Ra
3492615.3493451.+	3492615	3493451	+	F11	2984553.2985389.+	2984553	2985389	+	H37Ra
3564305.3565141.-	3565141	3564305	-	F11	2984553.2985389.+	2984553	2985389	+	H37Ra
3722337.3723173.-	3723173	3722337	-	F11	2984553.2985389.+	2984553	2985389	+	H37Ra
3560666.3562030.+	3560666	3562030	+	F11	3559699.3561063.+	3559699	3561063	+	H37Ra
238210.238707.-	238707	238210	-	F11	239254.239751.-	239751	239254	-	H37Ra
3088558.3088848.-	3088848	3088558	-	F11	3088571.3088861.-	3088861	3088571	-	H37Ra
956634.957044.+	956634	957044	+	F11	954125.954535.+	954125	954535	+	H37Ra
3887148.3887843.+	3887148	3887843	+	F11	3882114.3882809.+	3882114	3882809	+	H37Ra
427326.427877.-	427877	427326	-	F11	425506.426057.-	426057	425506	-	H37Ra
3749353.3750369.-	3750369	3749353	-	F11	3746097.3747113.-	3747113	3746097	-	H37Ra
3502605.3503498.+	3502605	3503498	+	F11	3501638.3502531.+	3501638	3502531	+	H37Ra
568951.569565.+	568951	569565	+	F11	567092.567706.+	567092	567706	+	H37Ra
1089579.1091174.-	1091174	1089579	-	F11	1087064.1088659.-	1088659	1087064	-	H37Ra
1596012.1596494.+	1596012	1596494	+	F11	1592981.1593463.+	1592981	1593463	+	H37Ra
3610679.3611446.-	3611446	3610679	-	F11	3609684.3610451.-	3610451	3609684	-	H37Ra
2991285.2991650.-	2991650	2991285	-	F11	2991294.2991659.-	2991659	2991294	-	H37Ra
2740540.2740734.-	2740734	2740540	-	F11	2737834.2738028.-	2738028	2737834	-	H37Ra
884945.885334.-	885334	884945	-	F11	882381.882770.-	882770	882381	-	H37Ra
3390038.3390241.-	3390241	3390038	-	F11	3390498.3390701.-	3390701	3390498	-	H37Ra
4331248.4331757.-	4331757	4331248	-	F11	4326693.4327202.-	4327202	4326693	-	H37Ra
1342738.1343067.+	1342738	1343067	+	F11	1340284.1340613.+	1340284	1340613	+	H37Ra
1162686.1163180.-	1163180	1162686	-	F11	1160226.1160720.-	1160720	1160226	-	H37Ra
3056941.3058578.-	3058578	3056941	-	F11	3056954.3058591.-	3058591	3056954	-	H37Ra
2400763.2401830.-	2401830	2400763	-	F11	2397104.2398171.-	2398171	2397104	-	H37Ra
2725025.2725993.-	2725993	2725025	-	F11	2722319.2723287.-	2723287	2722319	-	H37Ra
1312715.1313095.+	1312715	1313095	+	F11	1310261.1310641.+	1310261	1310641	+	H37Ra
1345122.1346432.-	1346432	1345122	-	F11	2840524.2841834.-	2841834	2840524	-	H37Ra
3494511.3495821.+	3494511	3495821	+	F11	2840524.2841834.-	2841834	2840524	-	H37Ra
1173130.1174440.+	1173130	1174440	+	F11	2840524.2841834.-	2841834	2840524	-	H37Ra
2841874.2843184.-	2843184	2841874	-	F11	2840524.2841834.-	2841834	2840524	-	H37Ra
3393085.3394395.-	3394395	3393085	-	F11	2840524.2841834.-	2841834	2840524	-	H37Ra
1057567.1058067.+	1057567	1058067	+	F11	1055049.1055549.+	1055049	1055549	+	H37Ra
4029133.4029864.+	4029133	4029864	+	F11	4025018.4025749.+	4025018	4025749	+	H37Ra
513547.513825.-	513825	513547	-	F11	511687.511965.-	511965	511687	-	H37Ra
3532396.3533637.+	3532396	3533637	+	F11	3531429.3532670.+	3531429	3532670	+	H37Ra
2521587.2522402.+	2521587	2522402	+	F11	2519343.2520158.+	2519343	2520158	+	H37Ra
2441796.2442830.-	2442830	2441796	-	F11	2438137.2439171.-	2439171	2438137	-	H37Ra
3766759.3767703.-	3767703	3766759	-	F11	3763406.3764350.-	3764350	3763406	-	H37Ra
219027.219683.+	219027	219683	+	F11	220071.220727.+	220071	220727	+	H37Ra
2956917.2958347.-	2958347	2956917	-	F11	2955568.2956998.-	2956998	2955568	-	H37Ra
316100.316753.-	316753	316100	-	F11	317145.317798.-	317798	317145	-	H37Ra
2726006.2727559.-	2727559	2726006	-	F11	2723300.2724853.-	2724853	2723300	-	H37Ra
2464318.2465499.-	2465499	2464318	-	F11	2462017.2463198.-	2463198	2462017	-	H37Ra
3560160.3560453.+	3560160	3560453	+	F11	3559193.3559486.+	3559193	3559486	+	H37Ra
2376768.2379317.+	2376768	2379317	+	F11	2370634.2373183.+	2370634	2373183	+	H37Ra
1569785.1571038.+	1569785	1571038	+	F11	1566754.1568007.+	1566754	1568007	+	H37Ra
34408.36711.+	34408	36711	+	F11	35665.37968.+	35665	37968	+	H37Ra
2092755.2092955.+	2092755	2092955	+	F11	2094491.2094691.+	2094491	2094691	+	H37Ra
2077948.2078877.+	2077948	2078877	+	F11	2079628.2080557.+	2079628	2080557	+	H37Ra
934035.934586.-	934586	934035	-	F11	932884.933435.-	933435	932884	-	H37Ra
1280064.1281563.-	1281563	1280064	-	F11	1277610.1279109.-	1279109	1277610	-	H37Ra
857694.858026.-	858026	857694	-	F11	855131.855463.-	855463	855131	-	H37Ra
1533178.1535790.+	1533178	1535790	+	F11	1528789.1531401.+	1528789	1531401	+	H37Ra
1280064.1280624.-	1280624	1280064	-	F11	1277610.1278170.-	1278170	1277610	-	H37Ra
2219868.2221112.+	2219868	2221112	+	F11	2221514.2222758.+	2221514	2222758	+	H37Ra
4106984.4107529.+	4106984	4107529	+	F11	4102429.4102974.+	4102429	4102974	+	H37Ra
3392389.3392802.-	3392802	3392389	-	F11	3392849.3393262.-	3393262	3392849	-	H37Ra
3335182.3335967.-	3335967	3335182	-	F11	3335701.3336486.-	3336486	3335701	-	H37Ra
2592212.2592535.-	2592535	2592212	-	F11	2591328.2591651.-	2591651	2591328	-	H37Ra
3375048.3375395.+	3375048	3375395	+	F11	3375508.3375855.+	3375508	3375855	+	H37Ra
1429205.1429711.-	1429711	1429205	-	F11	1426748.1427254.-	1427254	1426748	-	H37Ra
4010524.4012419.+	4010524	4012419	+	F11	4006406.4008304.+	4006406	4008304	+	H37Ra
3043743.3044453.+	3043743	3044453	+	F11	3043756.3044466.+	3043756	3044466	+	H37Ra
880559.880699.+	880559	880699	+	F11	877995.878135.+	877995	878135	+	H37Ra
3506291.3506641.-	3506641	3506291	-	F11	3505324.3505674.-	3505674	3505324	-	H37Ra
3820559.3822139.-	3822139	3820559	-	F11	3818120.3819700.-	3819700	3818120	-	H37Ra
4108325.4108531.-	4108531	4108325	-	F11	4103770.4103976.-	4103976	4103770	-	H37Ra
3621559.3622161.-	3622161	3621559	-	F11	3620564.3621166.-	3621166	3620564	-	H37Ra
3033503.3033790.-	3033790	3033503	-	F11	3033516.3033803.-	3033803	3033516	-	H37Ra
1079120.1080082.-	1080082	1079120	-	F11	1076605.1077567.-	1077567	1076605	-	H37Ra
4282841.4283341.-	4283341	4282841	-	F11	4278286.4278786.-	4278786	4278286	-	H37Ra
3483177.3483653.-	3483653	3483177	-	F11	3483569.3484045.-	3484045	3483569	-	H37Ra
634971.635603.+	634971	635603	+	F11	633053.633685.+	633053	633685	+	H37Ra
183731.183877.+	183731	183877	+	F11	184775.184921.+	184775	184921	+	H37Ra
476920.477276.+	476920	477276	+	F11	475060.475416.+	475060	475416	+	H37Ra
478986.479354.+	478986	479354	+	F11	475060.475416.+	475060	475416	+	H37Ra
617470.617874.-	617874	617470	-	F11	615636.616040.-	616040	615636	-	H37Ra
3570563.3570745.-	3570745	3570563	-	F11	3569581.3569763.-	3569763	3569581	-	H37Ra
4141752.4142201.-	4142201	4141752	-	F11	4137197.4137646.-	4137646	4137197	-	H37Ra
3595565.3596551.-	3596551	3595565	-	F11	3594583.3595569.-	3595569	3594583	-	H37Ra
3113536.3114141.-	3114141	3113536	-	F11	3113549.3114154.-	3114154	3113549	-	H37Ra
2769417.2771393.-	2771393	2769417	-	F11	2766711.2768687.-	2768687	2766711	-	H37Ra
4323414.4323815.+	4323414	4323815	+	F11	4318859.4319260.+	4318859	4319260	+	H37Ra
978115.979794.-	979794	978115	-	F11	975597.977276.-	977276	975597	-	H37Ra
2524598.2527390.+	2524598	2527390	+	F11	2522354.2525146.+	2522354	2525146	+	H37Ra
4120461.4120670.+	4120461	4120670	+	F11	4115906.4116115.+	4115906	4116115	+	H37Ra
2518353.2518529.-	2518529	2518353	-	F11	2516109.2516285.-	2516285	2516109	-	H37Ra
941891.943219.+	941891	943219	+	F11	939382.940710.+	939382	940710	+	H37Ra
1067937.1068809.-	1068809	1067937	-	F11	1065422.1066294.-	1066294	1065422	-	H37Ra
850028.851782.+	850028	851782	+	F11	847465.849219.+	847465	849219	+	H37Ra
958865.960103.+	958865	960103	+	F11	956356.957594.+	956356	957594	+	H37Ra
4368103.4369542.+	4368103	4369542	+	F11	4363549.4364988.+	4363549	4364988	+	H37Ra
2619770.2620525.+	2619770	2620525	+	F11	2618877.2619632.+	2618877	2619632	+	H37Ra
2274883.2275611.+	2274883	2275611	+	F11	2275171.2275899.+	2275171	2275899	+	H37Ra
2628464.2629801.-	2629801	2628464	-	F11	2627571.2628908.-	2628908	2627571	-	H37Ra
353076.354617.+	353076	354617	+	F11	351297.352838.+	351297	352838	+	H37Ra
1173130.1174440.+	1173130	1174440	+	F11	1170669.1171979.+	1170669	1171979	+	H37Ra
2841874.2843184.-	2843184	2841874	-	F11	1170669.1171979.+	1170669	1171979	+	H37Ra
3393085.3394395.-	3394395	3393085	-	F11	1170669.1171979.+	1170669	1171979	+	H37Ra
3494511.3495821.+	3494511	3495821	+	F11	1170669.1171979.+	1170669	1171979	+	H37Ra
1345122.1346432.-	1346432	1345122	-	F11	1170669.1171979.+	1170669	1171979	+	H37Ra
1342768.1343067.+	1342768	1343067	+	F11	1340314.1340613.+	1340314	1340613	+	H37Ra
1967675.1967860.-	1967860	1967675	-	F11	1972493.1972678.-	1972678	1972493	-	H37Ra
1417093.1417707.+	1417093	1417707	+	F11	1414636.1415250.+	1414636	1415250	+	H37Ra
4145390.4146520.+	4145390	4146520	+	F11	4140835.4141965.+	4140835	4141965	+	H37Ra
784416.785072.+	784416	785072	+	F11	781961.782617.+	781961	782617	+	H37Ra
4222583.4224103.-	4224103	4222583	-	F11	4218028.4219548.-	4219548	4218028	-	H37Ra
1034404.1035693.-	1035693	1034404	-	F11	1031886.1033175.-	1033175	1031886	-	H37Ra
572133.573155.-	573155	572133	-	F11	570274.571296.-	571296	570274	-	H37Ra
2069430.2070986.-	2070986	2069430	-	F11	2071110.2072666.-	2072666	2071110	-	H37Ra
3569076.3570134.-	3570134	3569076	-	F11	3568109.3569167.-	3569167	3568109	-	H37Ra
3301440.3301979.+	3301440	3301979	+	F11	3301959.3302498.+	3301959	3302498	+	H37Ra
1082500.1084878.+	1082500	1084878	+	F11	1079985.1082363.+	1079985	1082363	+	H37Ra
1211069.1211419.+	1211069	1211419	+	F11	1208608.1208958.+	1208608	1208958	+	H37Ra
1464770.1465057.+	1464770	1465057	+	F11	1462313.1462600.+	1462313	1462600	+	H37Ra
1303586.1303906.-	1303906	1303586	-	F11	1301132.1301452.-	1301452	1301132	-	H37Ra
3651095.3651622.+	3651095	3651622	+	F11	3650100.3650627.+	3650100	3650627	+	H37Ra
934704.935540.-	935540	934704	-	F11	2648021.2648857.+	2648021	2648857	+	H37Ra
1485775.1486611.+	1485775	1486611	+	F11	2648021.2648857.+	2648021	2648857	+	H37Ra
1946034.1946870.-	1946870	1946034	-	F11	2648021.2648857.+	2648021	2648857	+	H37Ra
1983134.1983970.-	1983970	1983134	-	F11	2648021.2648857.+	2648021	2648857	+	H37Ra
1992399.1993235.-	1993235	1992399	-	F11	2648021.2648857.+	2648021	2648857	+	H37Ra
1997839.1998675.+	1997839	1998675	+	F11	2648021.2648857.+	2648021	2648857	+	H37Ra
2004661.2005497.+	2004661	2005497	+	F11	2648021.2648857.+	2648021	2648857	+	H37Ra
2017907.2018743.-	2018743	2017907	-	F11	2648021.2648857.+	2648021	2648857	+	H37Ra
2270484.2271320.-	2271320	2270484	-	F11	2648021.2648857.+	2648021	2648857	+	H37Ra
2349765.2350601.+	2349765	2350601	+	F11	2648021.2648857.+	2648021	2648857	+	H37Ra
2645453.2646289.+	2645453	2646289	+	F11	2648021.2648857.+	2648021	2648857	+	H37Ra
2649321.2650157.+	2649321	2650157	+	F11	2648021.2648857.+	2648021	2648857	+	H37Ra
2697370.2698206.-	2698206	2697370	-	F11	2648021.2648857.+	2648021	2648857	+	H37Ra
3132521.3133357.-	3133357	3132521	-	F11	2648021.2648857.+	2648021	2648857	+	H37Ra
3492615.3493451.+	3492615	3493451	+	F11	2648021.2648857.+	2648021	2648857	+	H37Ra
3564305.3565141.-	3565141	3564305	-	F11	2648021.2648857.+	2648021	2648857	+	H37Ra
3722337.3723173.-	3723173	3722337	-	F11	2648021.2648857.+	2648021	2648857	+	H37Ra
3435026.3436828.-	3436828	3435026	-	F11	3435418.3437220.-	3437220	3435418	-	H37Ra
412436.413881.+	412436	413881	+	F11	410718.412163.+	410718	412163	+	H37Ra
838928.839074.-	839074	838928	-	F11	836365.836511.-	836511	836365	-	H37Ra
224315.224980.+	224315	224980	+	F11	225359.226024.+	225359	226024	+	H37Ra
2322743.2325532.-	2325532	2322743	-	F11	2318031.2320820.-	2320820	2318031	-	H37Ra
4109937.4111100.-	4111100	4109937	-	F11	4105382.4106545.-	4106545	4105382	-	H37Ra
2513077.2513778.+	2513077	2513778	+	F11	2510833.2511534.+	2510833	2511534	+	H37Ra
2484642.2485388.+	2484642	2485388	+	F11	2482398.2483144.+	2482398	2483144	+	H37Ra
2534434.2535321.+	2534434	2535321	+	F11	2532190.2533077.+	2532190	2533077	+	H37Ra
386712.387566.+	386712	387566	+	F11	384994.385848.+	384994	385848	+	H37Ra
2121331.2123667.+	2121331	2123667	+	F11	2123072.2125408.+	2123072	2125408	+	H37Ra
3767794.3768030.-	3768030	3767794	-	F11	3764441.3764677.-	3764677	3764441	-	H37Ra
1142068.1142676.+	1142068	1142676	+	F11	1139608.1140216.+	1139608	1140216	+	H37Ra
4381518.4383236.-	4383236	4381518	-	F11	4376964.4378682.-	4378682	4376964	-	H37Ra
1296502.1297167.+	1296502	1297167	+	F11	1294048.1294713.+	1294048	1294713	+	H37Ra
142264.144021.-	144021	142264	-	F11	143487.145244.-	145244	143487	-	H37Ra
1779498.1780070.-	1780070	1779498	-	F11	1776377.1776949.-	1776949	1776377	-	H37Ra
2428495.2429964.-	2429964	2428495	-	F11	2424836.2426305.-	2426305	2424836	-	H37Ra
3095329.3096420.-	3096420	3095329	-	F11	3095342.3096433.-	3096433	3095342	-	H37Ra
1847715.1848269.+	1847715	1848269	+	F11	1853842.1854396.+	1853842	1854396	+	H37Ra
1167932.1168204.-	1168204	1167932	-	F11	1165472.1165744.-	1165744	1165472	-	H37Ra
403248.404783.+	403248	404783	+	F11	607837.609372.+	607837	609372	+	H37Ra
4141752.4142090.-	4142090	4141752	-	F11	4137197.4137535.-	4137535	4137197	-	H37Ra
658152.659237.-	659237	658152	-	F11	656234.657319.-	657319	656234	-	H37Ra
3034350.3035387.+	3034350	3035387	+	F11	3034363.3035400.+	3034363	3035400	+	H37Ra
4020112.4021500.-	4021500	4020112	-	F11	4015997.4017385.-	4017385	4015997	-	H37Ra
1173145.1174440.+	1173145	1174440	+	F11	1170684.1171979.+	1170684	1171979	+	H37Ra
2841874.2843169.-	2843169	2841874	-	F11	1170684.1171979.+	1170684	1171979	+	H37Ra
3393085.3394380.-	3394380	3393085	-	F11	1170684.1171979.+	1170684	1171979	+	H37Ra
3494526.3495821.+	3494526	3495821	+	F11	1170684.1171979.+	1170684	1171979	+	H37Ra
1345122.1346417.-	1346417	1345122	-	F11	1170684.1171979.+	1170684	1171979	+	H37Ra
1375295.1375468.+	1375295	1375468	+	F11	1372839.1373012.+	1372839	1373012	+	H37Ra
4041749.4042567.-	4042567	4041749	-	F11	4037634.4038452.-	4038452	4037634	-	H37Ra
1794956.1796290.+	1794956	1796290	+	F11	1801083.1802417.+	1801083	1802417	+	H37Ra
1173145.1174440.+	1173145	1174440	+	F11	3393545.3394840.-	3394840	3393545	-	H37Ra
2841874.2843169.-	2843169	2841874	-	F11	3393545.3394840.-	3394840	3393545	-	H37Ra
3393085.3394380.-	3394380	3393085	-	F11	3393545.3394840.-	3394840	3393545	-	H37Ra
3494526.3495821.+	3494526	3495821	+	F11	3393545.3394840.-	3394840	3393545	-	H37Ra
1345122.1346417.-	1346417	1345122	-	F11	3393545.3394840.-	3394840	3393545	-	H37Ra
4315787.4316392.-	4316392	4315787	-	F11	4311232.4311837.-	4311837	4311232	-	H37Ra
2092952.2095159.-	2095159	2092952	-	F11	2094688.2096895.-	2096895	2094688	-	H37Ra
1172405.1173193.-	1173193	1172405	-	F11	1169944.1170732.-	1170732	1169944	-	H37Ra
1707687.1708733.+	1707687	1708733	+	F11	1704567.1705613.+	1704567	1705613	+	H37Ra
908916.909803.+	908916	909803	+	F11	907711.908598.+	907711	908598	+	H37Ra
971704.972120.+	971704	972120	+	F11	969195.969611.+	969195	969611	+	H37Ra
1584887.1585414.+	1584887	1585414	+	F11	1581856.1582383.+	1581856	1582383	+	H37Ra
679260.679538.+	679260	679538	+	F11	677342.677620.+	677342	677620	+	H37Ra
3153947.3155257.-	3155257	3153947	-	F11	3154301.3155611.-	3155611	3154301	-	H37Ra
3738211.3738423.-	3738423	3738211	-	F11	3736725.3736937.-	3736937	3736725	-	H37Ra
2465661.2465939.-	2465939	2465661	-	F11	2463360.2463638.-	2463638	2463360	-	H37Ra
548544.549071.-	549071	548544	-	F11	546685.547212.-	547212	546685	-	H37Ra
1572450.1573925.-	1573925	1572450	-	F11	1569419.1570894.-	1570894	1569419	-	H37Ra
2749466.2751682.-	2751682	2749466	-	F11	2746760.2748976.-	2748976	2746760	-	H37Ra
3712013.3712183.-	3712183	3712013	-	F11	3711197.3711367.-	3711367	3711197	-	H37Ra
594620.594721.+	594620	594721	+	F11	592785.592886.+	592785	592886	+	H37Ra
885560.886288.+	885560	886288	+	F11	882996.883724.+	882996	883724	+	H37Ra
741525.742445.-	742445	741525	-	F11	739603.740523.-	740523	739603	-	H37Ra
934704.935540.-	935540	934704	-	F11	2440061.2440897.-	2440897	2440061	-	H37Ra
1485775.1486611.+	1485775	1486611	+	F11	2440061.2440897.-	2440897	2440061	-	H37Ra
1946034.1946870.-	1946870	1946034	-	F11	2440061.2440897.-	2440897	2440061	-	H37Ra
1983134.1983970.-	1983970	1983134	-	F11	2440061.2440897.-	2440897	2440061	-	H37Ra
1992399.1993235.-	1993235	1992399	-	F11	2440061.2440897.-	2440897	2440061	-	H37Ra
1997839.1998675.+	1997839	1998675	+	F11	2440061.2440897.-	2440897	2440061	-	H37Ra
2004661.2005497.+	2004661	2005497	+	F11	2440061.2440897.-	2440897	2440061	-	H37Ra
2017907.2018743.-	2018743	2017907	-	F11	2440061.2440897.-	2440897	2440061	-	H37Ra
2270484.2271320.-	2271320	2270484	-	F11	2440061.2440897.-	2440897	2440061	-	H37Ra
2349765.2350601.+	2349765	2350601	+	F11	2440061.2440897.-	2440897	2440061	-	H37Ra
2645453.2646289.+	2645453	2646289	+	F11	2440061.2440897.-	2440897	2440061	-	H37Ra
2649321.2650157.+	2649321	2650157	+	F11	2440061.2440897.-	2440897	2440061	-	H37Ra
2697370.2698206.-	2698206	2697370	-	F11	2440061.2440897.-	2440897	2440061	-	H37Ra
3132521.3133357.-	3133357	3132521	-	F11	2440061.2440897.-	2440897	2440061	-	H37Ra
3492615.3493451.+	3492615	3493451	+	F11	2440061.2440897.-	2440897	2440061	-	H37Ra
3564305.3565141.-	3565141	3564305	-	F11	2440061.2440897.-	2440897	2440061	-	H37Ra
3722337.3723173.-	3723173	3722337	-	F11	2440061.2440897.-	2440897	2440061	-	H37Ra
533466.533852.-	533852	533466	-	F11	531606.531992.-	531992	531606	-	H37Ra
1194527.1195936.-	1195936	1194527	-	F11	1192066.1193475.-	1193475	1192066	-	H37Ra
851972.853912.-	853912	851972	-	F11	849409.851349.-	851349	849409	-	H37Ra
2038776.2038895.+	2038776	2038895	+	F11	2040456.2040575.+	2040456	2040575	+	H37Ra
4316399.4318024.-	4318024	4316399	-	F11	4311844.4313469.-	4313469	4311844	-	H37Ra
131407.133008.+	131407	133008	+	F11	132630.134231.+	132630	134231	+	H37Ra
2133021.2133239.-	2133239	2133021	-	F11	2134762.2134980.-	2134980	2134762	-	H37Ra
680353.680919.-	680919	680353	-	F11	678435.679001.-	679001	678435	-	H37Ra
1188626.1189510.+	1188626	1189510	+	F11	1186165.1187049.+	1186165	1187049	+	H37Ra
3654692.3654805.+	3654692	3654805	+	F11	3653697.3653810.+	3653697	3653810	+	H37Ra
2392808.2393323.-	2393323	2392808	-	F11	2389147.2389662.-	2389662	2389147	-	H37Ra
2221139.2222380.+	2221139	2222380	+	F11	2222785.2224026.+	2222785	2224026	+	H37Ra
1077897.1078244.+	1077897	1078244	+	F11	1075382.1075729.+	1075382	1075729	+	H37Ra
1007779.1008309.+	1007779	1008309	+	F11	1005261.1005791.+	1005261	1005791	+	H37Ra
4234021.4235649.+	4234021	4235649	+	F11	4229466.4231094.+	4229466	4231094	+	H37Ra
3124384.3124749.+	3124384	3124749	+	F11	3124397.3124762.+	3124397	3124762	+	H37Ra
1368992.1369573.+	1368992	1369573	+	F11	1366537.1367118.+	1366537	1367118	+	H37Ra
4029870.4031084.-	4031084	4029870	-	F11	4025755.4026969.-	4026969	4025755	-	H37Ra
4166861.4168675.+	4166861	4168675	+	F11	4162306.4164120.+	4162306	4164120	+	H37Ra
3397784.3398629.-	3398629	3397784	-	F11	3398244.3399089.-	3399089	3398244	-	H37Ra
3036225.3037292.-	3037292	3036225	-	F11	3036238.3037305.-	3037305	3036238	-	H37Ra
3447562.3448077.-	3448077	3447562	-	F11	3447954.3448469.-	3448469	3447954	-	H37Ra
2787834.2788238.+	2787834	2788238	+	F11	2785128.2785532.+	2785128	2785532	+	H37Ra
3328940.3329458.+	3328940	3329458	+	F11	3329459.3329977.+	3329459	3329977	+	H37Ra
1571157.1572377.+	1571157	1572377	+	F11	1568126.1569346.+	1568126	1569346	+	H37Ra
2452084.2452266.-	2452266	2452084	-	F11	2449783.2449965.-	2449965	2449783	-	H37Ra
2690961.2691944.+	2690961	2691944	+	F11	2689634.2690617.+	2689634	2690617	+	H37Ra
3661147.3661887.+	3661147	3661887	+	F11	3660152.3660892.+	3660152	3660892	+	H37Ra
2684888.2689129.-	2689129	2684888	-	F11	2683561.2687802.-	2687802	2683561	-	H37Ra
3037387.3038802.+	3037387	3038802	+	F11	3037400.3038815.+	3037400	3038815	+	H37Ra
4338054.4338479.+	4338054	4338479	+	F11	4333499.4333924.+	4333499	4333924	+	H37Ra
1981445.1982956.-	1982956	1981445	-	F11	1986497.1988008.-	1988008	1986497	-	H37Ra
1746815.1747489.+	1746815	1747489	+	F11	1743695.1744369.+	1743695	1744369	+	H37Ra
3065869.3067446.+	3065869	3067446	+	F11	3065882.3067459.+	3065882	3067459	+	H37Ra
4138374.4139480.+	4138374	4139480	+	F11	4133819.4134925.+	4133819	4134925	+	H37Ra
597016.597984.-	597984	597016	-	F11	595181.596149.-	596149	595181	-	H37Ra
1823562.1824188.+	1823562	1824188	+	F11	1829689.1830315.+	1829689	1830315	+	H37Ra
2583836.2584495.+	2583836	2584495	+	F11	2582952.2583611.+	2582952	2583611	+	H37Ra
364382.366250.+	364382	366250	+	F11	362603.364471.+	362603	364471	+	H37Ra
3701238.3702683.-	3702683	3701238	-	F11	3700240.3701751.-	3701751	3700240	-	H37Ra
3612413.3612601.+	3612413	3612601	+	F11	3611418.3611606.+	3611418	3611606	+	H37Ra
4277564.4278496.-	4278496	4277564	-	F11	4273009.4273941.-	4273941	4273009	-	H37Ra
1182374.1182586.-	1182586	1182374	-	F11	1179913.1180125.-	1180125	1179913	-	H37Ra
53338.55803.+	53338	55803	+	F11	54595.57057.+	54595	57057	+	H37Ra
3148258.3148662.-	3148662	3148258	-	F11	3148612.3149016.-	3149016	3148612	-	H37Ra
4248312.4248740.+	4248312	4248740	+	F11	4243757.4244185.+	4243757	4244185	+	H37Ra
554879.555157.+	554879	555157	+	F11	553020.553298.+	553020	553298	+	H37Ra
2053175.2055094.-	2055094	2053175	-	F11	2054855.2056774.-	2056774	2054855	-	H37Ra
4108002.4108301.-	4108301	4108002	-	F11	4103447.4103746.-	4103746	4103447	-	H37Ra
566736.568103.+	566736	568103	+	F11	564877.566244.+	564877	566244	+	H37Ra
2740269.2740535.-	2740535	2740269	-	F11	2737563.2737829.-	2737829	2737563	-	H37Ra
4213383.4214327.+	4213383	4214327	+	F11	4208828.4209772.+	4208828	4209772	+	H37Ra
1715632.1716705.+	1715632	1716705	+	F11	1712512.1713585.+	1712512	1713585	+	H37Ra
133051.133905.+	133051	133905	+	F11	134274.135128.+	134274	135128	+	H37Ra
1538142.1539329.-	1539329	1538142	-	F11	1533753.1534940.-	1534940	1533753	-	H37Ra
3906782.3907960.+	3906782	3907960	+	F11	1533753.1534940.-	1534940	1533753	-	H37Ra
1343117.1344289.+	1343117	1344289	+	F11	1533753.1534940.-	1534940	1533753	-	H37Ra
254955.256286.-	256286	254955	-	F11	255999.257330.-	257330	255999	-	H37Ra
2605487.2606176.-	2606176	2605487	-	F11	2604603.2605292.-	2605292	2604603	-	H37Ra
2707389.2708537.+	2707389	2708537	+	F11	2704704.2705852.+	2704704	2705852	+	H37Ra
2675362.2680557.-	2680557	2675362	-	F11	2674035.2679230.-	2679230	2674035	-	H37Ra
172119.172484.+	172119	172484	+	F11	173162.173527.+	173162	173527	+	H37Ra
2062409.2063602.-	2063602	2062409	-	F11	2064089.2065282.-	2065282	2064089	-	H37Ra
69646.71664.+	69646	71664	+	F11	70899.72917.+	70899	72917	+	H37Ra
1060612.1060896.-	1060896	1060612	-	F11	1058094.1058378.-	1058378	1058094	-	H37Ra
583666.583872.-	583872	583666	-	F11	581807.582013.-	582013	581807	-	H37Ra
518543.519118.-	519118	518543	-	F11	516683.517258.-	517258	516683	-	H37Ra
2058170.2059402.+	2058170	2059402	+	F11	2059850.2061082.+	2059850	2061082	+	H37Ra
3126989.3127258.+	3126989	3127258	+	F11	3127002.3127271.+	3127002	3127271	+	H37Ra
448012.448401.-	448401	448012	-	F11	446207.446596.-	446596	446207	-	H37Ra
3122462.3122692.-	3122692	3122462	-	F11	3122475.3122705.-	3122705	3122475	-	H37Ra
594536.594721.+	594536	594721	+	F11	592701.592886.+	592701	592886	+	H37Ra
752995.753762.-	753762	752995	-	F11	750540.751307.-	751307	750540	-	H37Ra
201290.202795.+	201290	202795	+	F11	202334.203839.+	202334	203839	+	H37Ra
2204244.2205608.+	2204244	2205608	+	F11	2205888.2207252.+	2205888	2207252	+	H37Ra
1280064.1281428.-	1281428	1280064	-	F11	2205888.2207252.+	2205888	2207252	+	H37Ra
2215276.2215728.-	2215728	2215276	-	F11	2216920.2217372.-	2217372	2216920	-	H37Ra
2987201.2987734.-	2987734	2987201	-	F11	1783590.1784123.-	1784123	1783590	-	H37Ra
2460354.2462165.+	2460354	2462165	+	F11	2458053.2459864.+	2458053	2459864	+	H37Ra
3124795.3125226.+	3124795	3125226	+	F11	3124808.3125239.+	3124808	3125239	+	H37Ra
2631033.2631326.+	2631033	2631326	+	F11	2630140.2630433.+	2630140	2630433	+	H37Ra
934704.935540.-	935540	934704	-	F11	1997429.1998265.-	1998265	1997429	-	H37Ra
1485775.1486611.+	1485775	1486611	+	F11	1997429.1998265.-	1998265	1997429	-	H37Ra
1946034.1946870.-	1946870	1946034	-	F11	1997429.1998265.-	1998265	1997429	-	H37Ra
1983134.1983970.-	1983970	1983134	-	F11	1997429.1998265.-	1998265	1997429	-	H37Ra
1992399.1993235.-	1993235	1992399	-	F11	1997429.1998265.-	1998265	1997429	-	H37Ra
1997839.1998675.+	1997839	1998675	+	F11	1997429.1998265.-	1998265	1997429	-	H37Ra
2004661.2005497.+	2004661	2005497	+	F11	1997429.1998265.-	1998265	1997429	-	H37Ra
2017907.2018743.-	2018743	2017907	-	F11	1997429.1998265.-	1998265	1997429	-	H37Ra
2270484.2271320.-	2271320	2270484	-	F11	1997429.1998265.-	1998265	1997429	-	H37Ra
2349765.2350601.+	2349765	2350601	+	F11	1997429.1998265.-	1998265	1997429	-	H37Ra
2645453.2646289.+	2645453	2646289	+	F11	1997429.1998265.-	1998265	1997429	-	H37Ra
2649321.2650157.+	2649321	2650157	+	F11	1997429.1998265.-	1998265	1997429	-	H37Ra
2697370.2698206.-	2698206	2697370	-	F11	1997429.1998265.-	1998265	1997429	-	H37Ra
3132521.3133357.-	3133357	3132521	-	F11	1997429.1998265.-	1998265	1997429	-	H37Ra
3492615.3493451.+	3492615	3493451	+	F11	1997429.1998265.-	1998265	1997429	-	H37Ra
3564305.3565141.-	3565141	3564305	-	F11	1997429.1998265.-	1998265	1997429	-	H37Ra
3722337.3723173.-	3723173	3722337	-	F11	1997429.1998265.-	1998265	1997429	-	H37Ra
668662.668829.-	668829	668662	-	F11	666744.666911.-	666911	666744	-	H37Ra
1794947.1796290.+	1794947	1796290	+	F11	1801074.1802417.+	1801074	1802417	+	H37Ra
1843908.1847432.-	1847432	1843908	-	F11	1850035.1853559.-	1853559	1850035	-	H37Ra
3212323.3213537.-	3213537	3212323	-	F11	3212786.3214000.-	3214000	3212786	-	H37Ra
1277029.1278531.+	1277029	1278531	+	F11	1274575.1276077.+	1274575	1276077	+	H37Ra
3390745.3391053.-	3391053	3390745	-	F11	3391205.3391513.-	3391513	3391205	-	H37Ra
2873764.2874462.+	2873764	2874462	+	F11	2872414.2873112.+	2872414	2873112	+	H37Ra
771078.771452.-	771452	771078	-	F11	768623.768997.-	768997	768623	-	H37Ra
2587982.2588608.-	2588608	2587982	-	F11	2587098.2587724.-	2587724	2587098	-	H37Ra
763055.763285.+	763055	763285	+	F11	760600.760830.+	760600	760830	+	H37Ra
3329574.3329759.+	3329574	3329759	+	F11	3330093.3330278.+	3330093	3330278	+	H37Ra
4057988.4058962.-	4058962	4057988	-	F11	4053872.4054846.-	4054846	4053872	-	H37Ra
1369109.1369573.+	1369109	1369573	+	F11	1366654.1367118.+	1366654	1367118	+	H37Ra
1806482.1807750.+	1806482	1807750	+	F11	1812609.1813877.+	1812609	1813877	+	H37Ra
3897765.3898628.+	3897765	3898628	+	F11	105068.105931.-	105931	105068	-	H37Ra
103843.104706.-	104706	103843	-	F11	105068.105931.-	105931	105068	-	H37Ra
1783832.1784698.-	1784698	1783832	-	F11	105068.105931.-	105931	105068	-	H37Ra
1209754.1210215.-	1210215	1209754	-	F11	1207293.1207754.-	1207754	1207293	-	H37Ra
2665048.2665233.+	2665048	2665233	+	F11	2663721.2663906.+	2663721	2663906	+	H37Ra
839023.839550.+	839023	839550	+	F11	836460.836987.+	836460	836987	+	H37Ra
3119266.3119613.-	3119613	3119266	-	F11	3119279.3119626.-	3119626	3119279	-	H37Ra
4212722.4213243.-	4213243	4212722	-	F11	4208167.4208688.-	4208688	4208167	-	H37Ra
924086.924376.+	924086	924376	+	F11	922881.923171.+	922881	923171	+	H37Ra
3403256.3404488.+	3403256	3404488	+	F11	3403716.3404948.+	3403716	3404948	+	H37Ra
2451485.2452150.-	2452150	2451485	-	F11	2732744.2733409.-	2733409	2732744	-	H37Ra
2735450.2736115.-	2736115	2735450	-	F11	2732744.2733409.-	2733409	2732744	-	H37Ra
2293110.2293595.-	2293595	2293110	-	F11	2288398.2288883.-	2288883	2288398	-	H37Ra
1581088.1581873.+	1581088	1581873	+	F11	1578057.1578842.+	1578057	1578842	+	H37Ra
3348505.3349581.-	3349581	3348505	-	F11	3348965.3350041.-	3350041	3348965	-	H37Ra
518543.519004.-	519004	518543	-	F11	516683.517144.-	517144	516683	-	H37Ra
1277119.1278531.+	1277119	1278531	+	F11	1274665.1276077.+	1274665	1276077	+	H37Ra
934704.935540.-	935540	934704	-	F11	2006262.2007098.+	2006262	2007098	+	H37Ra
1485775.1486611.+	1485775	1486611	+	F11	2006262.2007098.+	2006262	2007098	+	H37Ra
1946034.1946870.-	1946870	1946034	-	F11	2006262.2007098.+	2006262	2007098	+	H37Ra
1983134.1983970.-	1983970	1983134	-	F11	2006262.2007098.+	2006262	2007098	+	H37Ra
1992399.1993235.-	1993235	1992399	-	F11	2006262.2007098.+	2006262	2007098	+	H37Ra
1997839.1998675.+	1997839	1998675	+	F11	2006262.2007098.+	2006262	2007098	+	H37Ra
2004661.2005497.+	2004661	2005497	+	F11	2006262.2007098.+	2006262	2007098	+	H37Ra
2017907.2018743.-	2018743	2017907	-	F11	2006262.2007098.+	2006262	2007098	+	H37Ra
2270484.2271320.-	2271320	2270484	-	F11	2006262.2007098.+	2006262	2007098	+	H37Ra
2349765.2350601.+	2349765	2350601	+	F11	2006262.2007098.+	2006262	2007098	+	H37Ra
2645453.2646289.+	2645453	2646289	+	F11	2006262.2007098.+	2006262	2007098	+	H37Ra
2649321.2650157.+	2649321	2650157	+	F11	2006262.2007098.+	2006262	2007098	+	H37Ra
2697370.2698206.-	2698206	2697370	-	F11	2006262.2007098.+	2006262	2007098	+	H37Ra
3132521.3133357.-	3133357	3132521	-	F11	2006262.2007098.+	2006262	2007098	+	H37Ra
3492615.3493451.+	3492615	3493451	+	F11	2006262.2007098.+	2006262	2007098	+	H37Ra
3564305.3565141.-	3565141	3564305	-	F11	2006262.2007098.+	2006262	2007098	+	H37Ra
3722337.3723173.-	3723173	3722337	-	F11	2006262.2007098.+	2006262	2007098	+	H37Ra
3721372.3721926.-	3721926	3721372	-	F11	3720556.3721110.-	3721110	3720556	-	H37Ra
1168340.1168777.-	1168777	1168340	-	F11	1165880.1166317.-	1166317	1165880	-	H37Ra
1282147.1282584.+	1282147	1282584	+	F11	1165880.1166317.-	1166317	1165880	-	H37Ra
2929539.2929748.-	2929748	2929539	-	F11	2928190.2928399.-	2928399	2928190	-	H37Ra
3078177.3079088.-	3079088	3078177	-	F11	3078190.3079101.-	3079101	3078190	-	H37Ra
809667.810035.+	809667	810035	+	F11	807104.807472.+	807104	807472	+	H37Ra
3597441.3597728.-	3597728	3597441	-	F11	3596459.3596746.-	3596746	3596459	-	H37Ra
2587896.2588489.+	2587896	2588489	+	F11	2587012.2587605.+	2587012	2587605	+	H37Ra
673067.674380.+	673067	674380	+	F11	671149.672462.+	671149	672462	+	H37Ra
1701993.1702496.+	1701993	1702496	+	F11	1698873.1699376.+	1698873	1699376	+	H37Ra
2038614.2038775.+	2038614	2038775	+	F11	2040294.2040455.+	2040294	2040455	+	H37Ra
2594226.2594567.+	2594226	2594567	+	F11	2593342.2593683.+	2593342	2593683	+	H37Ra
2380833.2381129.-	2381129	2380833	-	F11	2374699.2374995.-	2374995	2374699	-	H37Ra
713576.713815.+	713576	713815	+	F11	711658.711897.+	711658	711897	+	H37Ra
232544.234793.+	232544	234793	+	F11	233588.235837.+	233588	235837	+	H37Ra
1246631.1246831.-	1246831	1246631	-	F11	1244174.1244374.-	1244374	1244174	-	H37Ra
2981850.2982167.-	2982167	2981850	-	F11	2980501.2980818.-	2980818	2980501	-	H37Ra
680353.680931.-	680931	680353	-	F11	678435.679013.-	679013	678435	-	H37Ra
4155749.4156936.-	4156936	4155749	-	F11	4151194.4152381.-	4152381	4151194	-	H37Ra
4176716.4177999.+	4176716	4177999	+	F11	4172161.4173444.+	4172161	4173444	+	H37Ra
85769.86623.-	86623	85769	-	F11	86994.87848.-	87848	86994	-	H37Ra
1685364.1685627.+	1685364	1685627	+	F11	1682244.1682507.+	1682244	1682507	+	H37Ra
1132902.1133873.+	1132902	1133873	+	F11	1130442.1131413.+	1130442	1131413	+	H37Ra
3680666.3681292.-	3681292	3680666	-	F11	3679734.3680360.-	3680360	3679734	-	H37Ra
1034404.1035192.-	1035192	1034404	-	F11	1031886.1032674.-	1032674	1031886	-	H37Ra
231152.231850.+	231152	231850	+	F11	232196.232894.+	232196	232894	+	H37Ra
3325246.3326064.-	3326064	3325246	-	F11	3325765.3326583.-	3326583	3325765	-	H37Ra
2984880.2985344.+	2984880	2985344	+	F11	2983531.2983995.+	2983531	2983995	+	H37Ra
3122462.3122686.-	3122686	3122462	-	F11	3122475.3122699.-	3122699	3122475	-	H37Ra
2121259.2123667.+	2121259	2123667	+	F11	2123000.2125408.+	2123000	2125408	+	H37Ra
1388032.1388304.+	1388032	1388304	+	F11	1385576.1385848.+	1385576	1385848	+	H37Ra
2445834.2446757.-	2446757	2445834	-	F11	2443533.2444456.-	2444456	2443533	-	H37Ra
934704.935540.-	935540	934704	-	F11	3804223.3805059.-	3805059	3804223	-	H37Ra
1485775.1486611.+	1485775	1486611	+	F11	3804223.3805059.-	3805059	3804223	-	H37Ra
1946034.1946870.-	1946870	1946034	-	F11	3804223.3805059.-	3805059	3804223	-	H37Ra
1983134.1983970.-	1983970	1983134	-	F11	3804223.3805059.-	3805059	3804223	-	H37Ra
1992399.1993235.-	1993235	1992399	-	F11	3804223.3805059.-	3805059	3804223	-	H37Ra
1997839.1998675.+	1997839	1998675	+	F11	3804223.3805059.-	3805059	3804223	-	H37Ra
2004661.2005497.+	2004661	2005497	+	F11	3804223.3805059.-	3805059	3804223	-	H37Ra
2017907.2018743.-	2018743	2017907	-	F11	3804223.3805059.-	3805059	3804223	-	H37Ra
2270484.2271320.-	2271320	2270484	-	F11	3804223.3805059.-	3805059	3804223	-	H37Ra
2349765.2350601.+	2349765	2350601	+	F11	3804223.3805059.-	3805059	3804223	-	H37Ra
2645453.2646289.+	2645453	2646289	+	F11	3804223.3805059.-	3805059	3804223	-	H37Ra
2649321.2650157.+	2649321	2650157	+	F11	3804223.3805059.-	3805059	3804223	-	H37Ra
2697370.2698206.-	2698206	2697370	-	F11	3804223.3805059.-	3805059	3804223	-	H37Ra
3132521.3133357.-	3133357	3132521	-	F11	3804223.3805059.-	3805059	3804223	-	H37Ra
3492615.3493451.+	3492615	3493451	+	F11	3804223.3805059.-	3805059	3804223	-	H37Ra
3564305.3565141.-	3565141	3564305	-	F11	3804223.3805059.-	3805059	3804223	-	H37Ra
3722337.3723173.-	3723173	3722337	-	F11	3804223.3805059.-	3805059	3804223	-	H37Ra
3900855.3902528.-	3902528	3900855	-	F11	3895821.3897494.-	3897494	3895821	-	H37Ra
2751383.2751661.+	2751383	2751661	+	F11	2748677.2748955.+	2748677	2748955	+	H37Ra
893082.893993.+	893082	893993	+	F11	891877.892788.+	891877	892788	+	H37Ra
3516068.3516400.-	3516400	3516068	-	F11	3515101.3515433.-	3515433	3515101	-	H37Ra
2131857.2132561.+	2131857	2132561	+	F11	2133598.2134302.+	2133598	2134302	+	H37Ra
3283666.3284682.+	3283666	3284682	+	F11	3284185.3285201.+	3284185	3285201	+	H37Ra
3148647.3148862.-	3148862	3148647	-	F11	3149001.3149216.-	3149216	3149001	-	H37Ra
31925.32068.-	32068	31925	-	F11	33182.33325.-	33325	33182	-	H37Ra
1957991.1958584.-	1958584	1957991	-	F11	1962809.1963402.-	1963402	1962809	-	H37Ra
3715121.3715609.-	3715609	3715121	-	F11	3714305.3714793.-	3714793	3714305	-	H37Ra
2335753.2336079.+	2335753	2336079	+	F11	2331041.2331367.+	2331041	2331367	+	H37Ra
278703.278906.+	278703	278906	+	F11	279747.279950.+	279747	279950	+	H37Ra
3430422.3431102.-	3431102	3430422	-	F11	3430882.3431562.-	3431562	3430882	-	H37Ra
2895075.2895464.+	2895075	2895464	+	F11	2893726.2894115.+	2893726	2894115	+	H37Ra
1331454.1332827.-	1332827	1331454	-	F11	1329000.1330373.-	1330373	1329000	-	H37Ra
3540514.3542445.-	3542445	3540514	-	F11	3539547.3541478.-	3541478	3539547	-	H37Ra
2799578.2799835.+	2799578	2799835	+	F11	2798230.2798487.+	2798230	2798487	+	H37Ra
3524715.3525191.+	3524715	3525191	+	F11	3523748.3524224.+	3523748	3524224	+	H37Ra
3180221.3180994.-	3180994	3180221	-	F11	3180575.3181348.-	3181348	3180575	-	H37Ra
701132.702265.-	702265	701132	-	F11	699214.700347.-	700347	699214	-	H37Ra
4376417.4377787.-	4377787	4376417	-	F11	4371863.4373233.-	4373233	4371863	-	H37Ra
1342732.1343067.+	1342732	1343067	+	F11	1340278.1340613.+	1340278	1340613	+	H37Ra
3995909.3996946.-	3996946	3995909	-	F11	3991791.3992828.-	3992828	3991791	-	H37Ra
1545211.1546416.-	1546416	1545211	-	F11	1540822.1542027.-	1542027	1540822	-	H37Ra
131030.131263.-	131263	131030	-	F11	132253.132486.-	132486	132253	-	H37Ra
1345122.1346432.-	1346432	1345122	-	F11	1342668.1343978.-	1343978	1342668	-	H37Ra
3494511.3495821.+	3494511	3495821	+	F11	1342668.1343978.-	1343978	1342668	-	H37Ra
1173130.1174440.+	1173130	1174440	+	F11	1342668.1343978.-	1343978	1342668	-	H37Ra
2841874.2843184.-	2843184	2841874	-	F11	1342668.1343978.-	1343978	1342668	-	H37Ra
3393085.3394395.-	3394395	3393085	-	F11	1342668.1343978.-	1343978	1342668	-	H37Ra
1411998.1413125.+	1411998	1413125	+	F11	1409541.1410668.+	1409541	1410668	+	H37Ra
1231363.1232415.-	1232415	1231363	-	F11	1228906.1229958.-	1229958	1228906	-	H37Ra
1576468.1576791.-	1576791	1576468	-	F11	1573437.1573760.-	1573760	1573437	-	H37Ra
2590816.2590998.-	2590998	2590816	-	F11	2589932.2590114.-	2590114	2589932	-	H37Ra
1952392.1954011.-	1954011	1952392	-	F11	1957210.1958829.-	1958829	1957210	-	H37Ra
2469840.2470598.+	2469840	2470598	+	F11	2467539.2468297.+	2467539	2468297	+	H37Ra
2458010.2459152.-	2459152	2458010	-	F11	2455709.2456851.-	2456851	2455709	-	H37Ra
2637451.2637753.-	2637753	2637451	-	F11	2636558.2636860.-	2636860	2636558	-	H37Ra
2956693.2956920.+	2956693	2956920	+	F11	2955344.2955571.+	2955344	2955571	+	H37Ra
4175319.4176719.+	4175319	4176719	+	F11	4170764.4172164.+	4170764	4172164	+	H37Ra
991007.992530.+	991007	992530	+	F11	988489.990012.+	988489	990012	+	H37Ra
868011.868442.+	868011	868442	+	F11	865449.865880.+	865449	865880	+	H37Ra
4077854.4078915.-	4078915	4077854	-	F11	4073298.4074359.-	4074359	4073298	-	H37Ra
718520.719545.+	718520	719545	+	F11	716602.717627.+	716602	717627	+	H37Ra
179635.181236.-	181236	179635	-	F11	180679.182280.-	182280	180679	-	H37Ra
580812.581438.+	580812	581438	+	F11	578953.579579.+	578953	579579	+	H37Ra
1262834.1265218.-	1265218	1262834	-	F11	1260377.1262761.-	1262761	1260377	-	H37Ra
3148258.3148650.-	3148650	3148258	-	F11	3148612.3149004.-	3149004	3148612	-	H37Ra
2660042.2660380.-	2660380	2660042	-	F11	2658715.2659053.-	2659053	2658715	-	H37Ra
2934868.2936499.+	2934868	2936499	+	F11	2933519.2935150.+	2933519	2935150	+	H37Ra
1897620.1898528.+	1897620	1898528	+	F11	1903909.1904817.+	1903909	1904817	+	H37Ra
1622571.1624046.-	1624046	1622571	-	F11	1619519.1620994.-	1620994	1619519	-	H37Ra
4396658.4396996.-	4396996	4396658	-	F11	4392099.4392437.-	4392437	4392099	-	H37Ra
664162.664497.+	664162	664497	+	F11	662244.662579.+	662244	662579	+	H37Ra
1350700.1351452.-	1351452	1350700	-	F11	1348246.1348998.-	1348998	1348246	-	H37Ra
2481533.2482678.-	2482678	2481533	-	F11	2479289.2480434.-	2480434	2479289	-	H37Ra
3302976.3307838.-	3307838	3302976	-	F11	3303495.3308357.-	3308357	3303495	-	H37Ra
2331293.2331706.-	2331706	2331293	-	F11	2326581.2326994.-	2326994	2326581	-	H37Ra
681150.681557.+	681150	681557	+	F11	679232.679639.+	679232	679639	+	H37Ra
4144692.4145393.+	4144692	4145393	+	F11	4140137.4140838.+	4140137	4140838	+	H37Ra
714010.714237.+	714010	714237	+	F11	712092.712319.+	712092	712319	+	H37Ra
821400.821774.-	821774	821400	-	F11	818837.819211.-	819211	818837	-	H37Ra
703491.704417.+	703491	704417	+	F11	701573.702499.+	701573	702499	+	H37Ra
1218593.1218898.+	1218593	1218898	+	F11	1216135.1216440.+	1216135	1216440	+	H37Ra
1218280.1218714.+	1218280	1218714	+	F11	1215822.1216256.+	1215822	1216256	+	H37Ra
149627.151312.+	149627	151312	+	F11	150850.152355.+	150850	152355	+	H37Ra
1117941.1118150.-	1118150	1117941	-	F11	1115481.1115690.-	1115690	1115481	-	H37Ra
151503.152531.+	151503	152531	+	F11	152546.153574.+	152546	153574	+	H37Ra
21738.23273.-	23273	21738	-	F11	22995.24530.-	24530	22995	-	H37Ra
1286820.1287893.-	1287893	1286820	-	F11	1284366.1285439.-	1285439	1284366	-	H37Ra
3368442.3368642.-	3368642	3368442	-	F11	3368902.3369102.-	3369102	3368902	-	H37Ra
4141752.4142117.-	4142117	4141752	-	F11	4137197.4137562.-	4137562	4137197	-	H37Ra
1367268.1368011.-	1368011	1367268	-	F11	1364813.1365556.-	1365556	1364813	-	H37Ra
1379996.1380601.-	1380601	1379996	-	F11	1377540.1378145.-	1378145	1377540	-	H37Ra
4330686.4330898.-	4330898	4330686	-	F11	4326131.4326343.-	4326343	4326131	-	H37Ra
1422781.1423554.-	1423554	1422781	-	F11	1420324.1421097.-	1421097	1420324	-	H37Ra
3592042.3592260.+	3592042	3592260	+	F11	3591060.3591278.+	3591060	3591278	+	H37Ra
1866214.1866744.+	1866214	1866744	+	F11	1872342.1872872.+	1872342	1872872	+	H37Ra
186811.186936.-	186936	186811	-	F11	187855.187980.-	187980	187855	-	H37Ra
1764076.1764816.+	1764076	1764816	+	F11	1760955.1761695.+	1760955	1761695	+	H37Ra
550755.552785.-	552785	550755	-	F11	548896.550926.-	550926	548896	-	H37Ra
3659666.3661159.+	3659666	3661159	+	F11	3658671.3660164.+	3658671	3660164	+	H37Ra
3383458.3384180.+	3383458	3384180	+	F11	3383918.3384640.+	3383918	3384640	+	H37Ra
2866574.2867584.+	2866574	2867584	+	F11	2865224.2866234.+	2865224	2866234	+	H37Ra
4225204.4225983.+	4225204	4225983	+	F11	4220649.4221428.+	4220649	4221428	+	H37Ra
3793976.3797272.-	3797272	3793976	-	F11	3790624.3793920.-	3793920	3790624	-	H37Ra
2273002.2273613.+	2273002	2273613	+	F11	2273290.2273901.+	2273290	2273901	+	H37Ra
4107662.4107970.-	4107970	4107662	-	F11	4103107.4103415.-	4103415	4103107	-	H37Ra
2720691.2721410.+	2720691	2721410	+	F11	2717985.2718704.+	2717985	2718704	+	H37Ra
2100455.2101891.-	2101891	2100455	-	F11	2102191.2103627.-	2103627	2102191	-	H37Ra
2992922.2993149.-	2993149	2992922	-	F11	2992931.2993158.-	2993158	2992931	-	H37Ra
1244770.1244955.+	1244770	1244955	+	F11	1242313.1242498.+	1242313	1242498	+	H37Ra
1118154.1118474.-	1118474	1118154	-	F11	1115694.1116014.-	1116014	1115694	-	H37Ra
2921143.2923524.-	2923524	2921143	-	F11	2919794.2922175.-	2922175	2919794	-	H37Ra
26014.26979.-	26979	26014	-	F11	27271.28236.-	28236	27271	-	H37Ra
2175904.2178945.-	2178945	2175904	-	F11	2177581.2180622.-	2180622	2177581	-	H37Ra
1881878.1883410.+	1881878	1883410	+	F11	1888006.1889538.+	1888006	1889538	+	H37Ra
1279406.1279738.+	1279406	1279738	+	F11	1276952.1277284.+	1276952	1277284	+	H37Ra
1286820.1287863.-	1287863	1286820	-	F11	1284366.1285409.-	1285409	1284366	-	H37Ra
4332826.4333041.+	4332826	4333041	+	F11	4328271.4328486.+	4328271	4328486	+	H37Ra
1993659.1994198.+	1993659	1994198	+	F11	1998689.1999162.+	1998689	1999162	+	H37Ra
646108.647721.+	646108	647721	+	F11	644190.645803.+	644190	645803	+	H37Ra
2762269.2764929.-	2764929	2762269	-	F11	2759563.2762223.-	2762223	2759563	-	H37Ra
524681.525337.+	524681	525337	+	F11	522821.523477.+	522821	523477	+	H37Ra
3897669.3898628.+	3897669	3898628	+	F11	105068.106027.-	106027	105068	-	H37Ra
103843.104802.-	104802	103843	-	F11	105068.106027.-	106027	105068	-	H37Ra
1783832.1784794.-	1784794	1783832	-	F11	105068.106027.-	106027	105068	-	H37Ra
3186331.3186525.+	3186331	3186525	+	F11	3186793.3186987.+	3186793	3186987	+	H37Ra
1576468.1578198.-	1578198	1576468	-	F11	1573437.1575167.-	1575167	1573437	-	H37Ra
4031989.4032909.+	4031989	4032909	+	F11	4027874.4028794.+	4027874	4028794	+	H37Ra
4094519.4095727.-	4095727	4094519	-	F11	4089963.4091171.-	4091171	4089963	-	H37Ra
956610.957044.+	956610	957044	+	F11	954101.954535.+	954101	954535	+	H37Ra
478496.478912.+	478496	478912	+	F11	476636.477052.+	476636	477052	+	H37Ra
3125616.3126767.+	3125616	3126767	+	F11	3125629.3126780.+	3125629	3126780	+	H37Ra
247702.248436.-	248436	247702	-	F11	248746.249480.-	249480	248746	-	H37Ra
732555.733415.-	733415	732555	-	F11	730637.731497.-	731497	730637	-	H37Ra
3908143.3911238.+	3908143	3911238	+	F11	3904467.3907562.+	3904467	3907562	+	H37Ra
1744478.1745884.+	1744478	1745884	+	F11	1741358.1742764.+	1741358	1742764	+	H37Ra
1622199.1622432.+	1622199	1622432	+	F11	1619147.1619380.+	1619147	1619380	+	H37Ra
4055733.4055816.-	4055816	4055733	-	F11	4051617.4051700.-	4051700	4051617	-	H37Ra
3862555.3862710.-	3862710	3862555	-	F11	3857522.3857677.-	3857677	3857522	-	H37Ra
3822821.3823462.+	3822821	3823462	+	F11	3820382.3821023.+	3820382	3821023	+	H37Ra
3907990.3911238.+	3907990	3911238	+	F11	3904314.3907562.+	3904314	3907562	+	H37Ra
4085670.4086638.-	4086638	4085670	-	F11	4081114.4082082.-	4082082	4081114	-	H37Ra
3369296.3370276.+	3369296	3370276	+	F11	3369756.3370736.+	3369756	3370736	+	H37Ra
3173762.3175753.+	3173762	3175753	+	F11	3174116.3176107.+	3174116	3176107	+	H37Ra
2350822.2351265.-	2351265	2350822	-	F11	2344752.2345195.-	2345195	2344752	-	H37Ra
2295759.2296229.+	2295759	2296229	+	F11	2291047.2291517.+	2291047	2291517	+	H37Ra
2740269.2740502.-	2740502	2740269	-	F11	2737563.2737796.-	2737796	2737563	-	H37Ra
1081056.1081715.-	1081715	1081056	-	F11	1078541.1079200.-	1079200	1078541	-	H37Ra
3866926.3867414.-	3867414	3866926	-	F11	3861893.3862381.-	3862381	3861893	-	H37Ra
3733086.3733565.+	3733086	3733565	+	F11	3731600.3732079.+	3731600	3732079	+	H37Ra
1602241.1603224.+	1602241	1603224	+	F11	1599210.1600193.+	1599210	1600193	+	H37Ra
3423795.3425972.-	3425972	3423795	-	F11	3424255.3426432.-	3426432	3424255	-	H37Ra
605955.607661.+	605955	607661	+	F11	604120.605826.+	604120	605826	+	H37Ra
835564.836172.+	835564	836172	+	F11	833001.833609.+	833001	833609	+	H37Ra
274624.275037.-	275037	274624	-	F11	275668.276081.-	276081	275668	-	H37Ra
2028932.2031730.+	2028932	2031730	+	F11	2030566.2033364.+	2030566	2033364	+	H37Ra
934704.935540.-	935540	934704	-	F11	13665.14501.-	14501	13665	-	H37Ra
1485775.1486611.+	1485775	1486611	+	F11	13665.14501.-	14501	13665	-	H37Ra
1946034.1946870.-	1946870	1946034	-	F11	13665.14501.-	14501	13665	-	H37Ra
1983134.1983970.-	1983970	1983134	-	F11	13665.14501.-	14501	13665	-	H37Ra
1992399.1993235.-	1993235	1992399	-	F11	13665.14501.-	14501	13665	-	H37Ra
1997839.1998675.+	1997839	1998675	+	F11	13665.14501.-	14501	13665	-	H37Ra
2004661.2005497.+	2004661	2005497	+	F11	13665.14501.-	14501	13665	-	H37Ra
2017907.2018743.-	2018743	2017907	-	F11	13665.14501.-	14501	13665	-	H37Ra
2270484.2271320.-	2271320	2270484	-	F11	13665.14501.-	14501	13665	-	H37Ra
2349765.2350601.+	2349765	2350601	+	F11	13665.14501.-	14501	13665	-	H37Ra
2645453.2646289.+	2645453	2646289	+	F11	13665.14501.-	14501	13665	-	H37Ra
2649321.2650157.+	2649321	2650157	+	F11	13665.14501.-	14501	13665	-	H37Ra
2697370.2698206.-	2698206	2697370	-	F11	13665.14501.-	14501	13665	-	H37Ra
3132521.3133357.-	3133357	3132521	-	F11	13665.14501.-	14501	13665	-	H37Ra
3492615.3493451.+	3492615	3493451	+	F11	13665.14501.-	14501	13665	-	H37Ra
3564305.3565141.-	3565141	3564305	-	F11	13665.14501.-	14501	13665	-	H37Ra
3722337.3723173.-	3723173	3722337	-	F11	13665.14501.-	14501	13665	-	H37Ra
1262834.1265143.-	1265143	1262834	-	F11	1260377.1262686.-	1262686	1260377	-	H37Ra
3405729.3406583.-	3406583	3405729	-	F11	3406189.3407043.-	3407043	3406189	-	H37Ra
182303.183526.-	183526	182303	-	F11	183347.184570.-	184570	183347	-	H37Ra
3897765.3898628.+	3897765	3898628	+	F11	3892731.3893594.+	3892731	3893594	+	H37Ra
103843.104706.-	104706	103843	-	F11	3892731.3893594.+	3892731	3893594	+	H37Ra
1783832.1784698.-	1784698	1783832	-	F11	3892731.3893594.+	3892731	3893594	+	H37Ra
3186984.3188840.-	3188840	3186984	-	F11	3187446.3189302.-	3189302	3187446	-	H37Ra
1061126.1061356.-	1061356	1061126	-	F11	1058608.1058838.-	1058838	1058608	-	H37Ra
3375018.3375395.+	3375018	3375395	+	F11	3375478.3375855.+	3375478	3375855	+	H37Ra
2036639.2037730.+	2036639	2037730	+	F11	2038318.2039409.+	2038318	2039409	+	H37Ra
2372768.2373937.-	2373937	2372768	-	F11	2366826.2367803.-	2367803	2366826	-	H37Ra
3464686.3466107.+	3464686	3466107	+	F11	3465078.3466499.+	3465078	3466499	+	H37Ra
1934070.1934831.+	1934070	1934831	+	F11	1940359.1941120.+	1940359	1941120	+	H37Ra
546343.547899.+	546343	547899	+	F11	544484.546040.+	544484	546040	+	H37Ra
3262548.3267161.+	3262548	3267161	+	F11	3263067.3267680.+	3263067	3267680	+	H37Ra
4297000.4297332.+	4297000	4297332	+	F11	4292445.4292777.+	4292445	4292777	+	H37Ra
3822752.3823462.+	3822752	3823462	+	F11	3820313.3821023.+	3820313	3821023	+	H37Ra
2295822.2296229.+	2295822	2296229	+	F11	2291110.2291517.+	2291110	2291517	+	H37Ra
535523.536080.+	535523	536080	+	F11	533664.534221.+	533664	534221	+	H37Ra
4213356.4214327.+	4213356	4214327	+	F11	4208801.4209772.+	4208801	4209772	+	H37Ra
1178765.1179391.-	1179391	1178765	-	F11	1176304.1176930.-	1176930	1176304	-	H37Ra
3376355.3377539.+	3376355	3377539	+	F11	3376815.3377999.+	3376815	3377999	+	H37Ra
2558985.2559233.-	2559233	2558985	-	F11	2556743.2556991.-	2556991	2556743	-	H37Ra
3506723.3507316.-	3507316	3506723	-	F11	3505756.3506349.-	3506349	3505756	-	H37Ra
998887.999165.+	998887	999165	+	F11	996369.996647.+	996369	996647	+	H37Ra
1168340.1168777.-	1168777	1168340	-	F11	1279693.1280130.+	1279693	1280130	+	H37Ra
1282147.1282584.+	1282147	1282584	+	F11	1279693.1280130.+	1279693	1280130	+	H37Ra
705957.706427.+	705957	706427	+	F11	704039.704509.+	704039	704509	+	H37Ra
1181009.1181143.+	1181009	1181143	+	F11	1178548.1178682.+	1178548	1178682	+	H37Ra
1798688.1799422.+	1798688	1799422	+	F11	1804815.1805549.+	1804815	1805549	+	H37Ra
3724259.3725788.+	3724259	3725788	+	F11	3722773.3724302.+	3722773	3724302	+	H37Ra
1680654.1681562.-	1681562	1680654	-	F11	1677534.1678442.-	1678442	1677534	-	H37Ra
3319053.3320027.-	3320027	3319053	-	F11	3319572.3320546.-	3320546	3319572	-	H37Ra
948134.948550.+	948134	948550	+	F11	945625.946041.+	945625	946041	+	H37Ra
3351566.3353791.+	3351566	3353791	+	F11	3352026.3354251.+	3352026	3354251	+	H37Ra
934704.935540.-	935540	934704	-	F11	2375792.2376628.+	2375792	2376628	+	H37Ra
1485775.1486611.+	1485775	1486611	+	F11	2375792.2376628.+	2375792	2376628	+	H37Ra
1946034.1946870.-	1946870	1946034	-	F11	2375792.2376628.+	2375792	2376628	+	H37Ra
1983134.1983970.-	1983970	1983134	-	F11	2375792.2376628.+	2375792	2376628	+	H37Ra
1992399.1993235.-	1993235	1992399	-	F11	2375792.2376628.+	2375792	2376628	+	H37Ra
1997839.1998675.+	1997839	1998675	+	F11	2375792.2376628.+	2375792	2376628	+	H37Ra
2004661.2005497.+	2004661	2005497	+	F11	2375792.2376628.+	2375792	2376628	+	H37Ra
2017907.2018743.-	2018743	2017907	-	F11	2375792.2376628.+	2375792	2376628	+	H37Ra
2270484.2271320.-	2271320	2270484	-	F11	2375792.2376628.+	2375792	2376628	+	H37Ra
2349765.2350601.+	2349765	2350601	+	F11	2375792.2376628.+	2375792	2376628	+	H37Ra
2645453.2646289.+	2645453	2646289	+	F11	2375792.2376628.+	2375792	2376628	+	H37Ra
2649321.2650157.+	2649321	2650157	+	F11	2375792.2376628.+	2375792	2376628	+	H37Ra
2697370.2698206.-	2698206	2697370	-	F11	2375792.2376628.+	2375792	2376628	+	H37Ra
3132521.3133357.-	3133357	3132521	-	F11	2375792.2376628.+	2375792	2376628	+	H37Ra
3492615.3493451.+	3492615	3493451	+	F11	2375792.2376628.+	2375792	2376628	+	H37Ra
3564305.3565141.-	3565141	3564305	-	F11	2375792.2376628.+	2375792	2376628	+	H37Ra
3722337.3723173.-	3723173	3722337	-	F11	2375792.2376628.+	2375792	2376628	+	H37Ra
3988144.3989844.+	3988144	3989844	+	F11	3984026.3985726.+	3984026	3985726	+	H37Ra
3207074.3207745.-	3207745	3207074	-	F11	3207537.3208208.-	3208208	3207537	-	H37Ra
1345122.1346417.-	1346417	1345122	-	F11	2840524.2841819.-	2841819	2840524	-	H37Ra
3494526.3495821.+	3494526	3495821	+	F11	2840524.2841819.-	2841819	2840524	-	H37Ra
1173145.1174440.+	1173145	1174440	+	F11	2840524.2841819.-	2841819	2840524	-	H37Ra
2841874.2843169.-	2843169	2841874	-	F11	2840524.2841819.-	2841819	2840524	-	H37Ra
3393085.3394380.-	3394380	3393085	-	F11	2840524.2841819.-	2841819	2840524	-	H37Ra
3850351.3850998.-	3850998	3850351	-	F11	3847737.3848384.-	3848384	3847737	-	H37Ra
990094.990360.+	990094	990360	+	F11	987576.987842.+	987576	987842	+	H37Ra
1536672.1536908.-	1536908	1536672	-	F11	1532283.1532519.-	1532519	1532283	-	H37Ra
763550.767086.+	763550	767086	+	F11	761095.764631.+	761095	764631	+	H37Ra
581574.582344.+	581574	582344	+	F11	579715.580485.+	579715	580485	+	H37Ra
3862735.3862944.-	3862944	3862735	-	F11	3857702.3857911.-	3857911	3857702	-	H37Ra
2520580.2521539.-	2521539	2520580	-	F11	2518336.2519295.-	2519295	2518336	-	H37Ra
2275715.2276017.+	2275715	2276017	+	F11	2276003.2276305.+	2276003	2276305	+	H37Ra
4350947.4351273.+	4350947	4351273	+	F11	4346392.4346718.+	4346392	4346718	+	H37Ra
1276013.1277098.+	1276013	1277098	+	F11	1273559.1274644.+	1273559	1274644	+	H37Ra
242294.243532.-	243532	242294	-	F11	243338.244576.-	244576	243338	-	H37Ra
934704.935540.-	935540	934704	-	F11	3899932.3900768.+	3899932	3900768	+	H37Ra
1485775.1486611.+	1485775	1486611	+	F11	3899932.3900768.+	3899932	3900768	+	H37Ra
1946034.1946870.-	1946870	1946034	-	F11	3899932.3900768.+	3899932	3900768	+	H37Ra
1983134.1983970.-	1983970	1983134	-	F11	3899932.3900768.+	3899932	3900768	+	H37Ra
1992399.1993235.-	1993235	1992399	-	F11	3899932.3900768.+	3899932	3900768	+	H37Ra
1997839.1998675.+	1997839	1998675	+	F11	3899932.3900768.+	3899932	3900768	+	H37Ra
2004661.2005497.+	2004661	2005497	+	F11	3899932.3900768.+	3899932	3900768	+	H37Ra
2017907.2018743.-	2018743	2017907	-	F11	3899932.3900768.+	3899932	3900768	+	H37Ra
2270484.2271320.-	2271320	2270484	-	F11	3899932.3900768.+	3899932	3900768	+	H37Ra
2349765.2350601.+	2349765	2350601	+	F11	3899932.3900768.+	3899932	3900768	+	H37Ra
2645453.2646289.+	2645453	2646289	+	F11	3899932.3900768.+	3899932	3900768	+	H37Ra
2649321.2650157.+	2649321	2650157	+	F11	3899932.3900768.+	3899932	3900768	+	H37Ra
2697370.2698206.-	2698206	2697370	-	F11	3899932.3900768.+	3899932	3900768	+	H37Ra
3132521.3133357.-	3133357	3132521	-	F11	3899932.3900768.+	3899932	3900768	+	H37Ra
3492615.3493451.+	3492615	3493451	+	F11	3899932.3900768.+	3899932	3900768	+	H37Ra
3564305.3565141.-	3565141	3564305	-	F11	3899932.3900768.+	3899932	3900768	+	H37Ra
3722337.3723173.-	3723173	3722337	-	F11	3899932.3900768.+	3899932	3900768	+	H37Ra
1317442.1323747.+	1317442	1323747	+	F11	1314988.1321293.+	1314988	1321293	+	H37Ra
2020379.2020885.-	2020885	2020379	-	F11	2022013.2022519.-	2022519	2022013	-	H37Ra
1568715.1569368.+	1568715	1569368	+	F11	1565684.1566337.+	1565684	1566337	+	H37Ra
2999650.3001227.+	2999650	3001227	+	F11	2999659.3001236.+	2999659	3001236	+	H37Ra
3790932.3792809.+	3790932	3792809	+	F11	3787580.3789457.+	3787580	3789457	+	H37Ra
3897236.3897904.+	3897236	3897904	+	F11	3892202.3892870.+	3892202	3892870	+	H37Ra
2573330.2573902.+	2573330	2573902	+	F11	2572446.2573018.+	2572446	2573018	+	H37Ra
630521.631516.+	630521	631516	+	F11	628603.629598.+	628603	629598	+	H37Ra
469840.470574.-	470574	469840	-	F11	467980.468714.-	468714	467980	-	H37Ra
1105604.1106317.+	1105604	1106317	+	F11	1103144.1103857.+	1103144	1103857	+	H37Ra
4224081.4224941.-	4224941	4224081	-	F11	4219526.4220386.-	4220386	4219526	-	H37Ra
1857738.1858898.-	1858898	1857738	-	F11	1863865.1865025.-	1865025	1863865	-	H37Ra
3897909.3898628.+	3897909	3898628	+	F11	3892875.3893594.+	3892875	3893594	+	H37Ra
103843.104562.-	104562	103843	-	F11	3892875.3893594.+	3892875	3893594	+	H37Ra
1783832.1784554.-	1784554	1783832	-	F11	3892875.3893594.+	3892875	3893594	+	H37Ra
589491.590525.+	589491	590525	+	F11	587656.588690.+	587656	588690	+	H37Ra
459436.460086.-	460086	459436	-	F11	457631.458281.-	458281	457631	-	H37Ra
641260.642144.-	642144	641260	-	F11	639342.640226.-	640226	639342	-	H37Ra
3897909.3898628.+	3897909	3898628	+	F11	105068.105787.-	105787	105068	-	H37Ra
103843.104562.-	104562	103843	-	F11	105068.105787.-	105787	105068	-	H37Ra
1783832.1784554.-	1784554	1783832	-	F11	105068.105787.-	105787	105068	-	H37Ra
742555.743445.-	743445	742555	-	F11	740633.741523.-	741523	740633	-	H37Ra
565892.566662.-	566662	565892	-	F11	564033.564803.-	564803	564033	-	H37Ra
2401530.2401796.-	2401796	2401530	-	F11	2397871.2398137.-	2398137	2397871	-	H37Ra
2059528.2060940.+	2059528	2060940	+	F11	2061208.2062620.+	2061208	2062620	+	H37Ra
2161214.2161444.-	2161444	2161214	-	F11	2162885.2163115.-	2163115	2162885	-	H37Ra
2603511.2604926.-	2604926	2603511	-	F11	2602627.2604042.-	2604042	2602627	-	H37Ra
3173906.3175753.+	3173906	3175753	+	F11	3174260.3176107.+	3174260	3176107	+	H37Ra
934704.935540.-	935540	934704	-	F11	3563987.3564823.+	3563987	3564823	+	H37Ra
1485775.1486611.+	1485775	1486611	+	F11	3563987.3564823.+	3563987	3564823	+	H37Ra
1946034.1946870.-	1946870	1946034	-	F11	3563987.3564823.+	3563987	3564823	+	H37Ra
1983134.1983970.-	1983970	1983134	-	F11	3563987.3564823.+	3563987	3564823	+	H37Ra
1992399.1993235.-	1993235	1992399	-	F11	3563987.3564823.+	3563987	3564823	+	H37Ra
1997839.1998675.+	1997839	1998675	+	F11	3563987.3564823.+	3563987	3564823	+	H37Ra
2004661.2005497.+	2004661	2005497	+	F11	3563987.3564823.+	3563987	3564823	+	H37Ra
2017907.2018743.-	2018743	2017907	-	F11	3563987.3564823.+	3563987	3564823	+	H37Ra
2270484.2271320.-	2271320	2270484	-	F11	3563987.3564823.+	3563987	3564823	+	H37Ra
2349765.2350601.+	2349765	2350601	+	F11	3563987.3564823.+	3563987	3564823	+	H37Ra
2645453.2646289.+	2645453	2646289	+	F11	3563987.3564823.+	3563987	3564823	+	H37Ra
2649321.2650157.+	2649321	2650157	+	F11	3563987.3564823.+	3563987	3564823	+	H37Ra
2697370.2698206.-	2698206	2697370	-	F11	3563987.3564823.+	3563987	3564823	+	H37Ra
3132521.3133357.-	3133357	3132521	-	F11	3563987.3564823.+	3563987	3564823	+	H37Ra
3492615.3493451.+	3492615	3493451	+	F11	3563987.3564823.+	3563987	3564823	+	H37Ra
3564305.3565141.-	3565141	3564305	-	F11	3563987.3564823.+	3563987	3564823	+	H37Ra
3722337.3723173.-	3723173	3722337	-	F11	3563987.3564823.+	3563987	3564823	+	H37Ra
2641334.2642896.-	2642896	2641334	-	F11	2640441.2642003.-	2642003	2640441	-	H37Ra
1111940.1112293.-	1112293	1111940	-	F11	1109480.1109833.-	1109833	1109480	-	H37Ra
310254.310586.-	310586	310254	-	F11	311299.311631.-	311631	311299	-	H37Ra
3198551.3199141.+	3198551	3199141	+	F11	3199013.3199603.+	3199013	3199603	+	H37Ra
739526.740422.-	740422	739526	-	F11	737604.738500.-	738500	737604	-	H37Ra
1842380.1843561.-	1843561	1842380	-	F11	1848507.1849688.-	1849688	1848507	-	H37Ra
3849878.3850360.-	3850360	3849878	-	F11	3847264.3847746.-	3847746	3847264	-	H37Ra
2804335.2805816.-	2805816	2804335	-	F11	2802987.2804468.-	2804468	2802987	-	H37Ra
3411129.3411914.-	3411914	3411129	-	F11	3411589.3412374.-	3412374	3411589	-	H37Ra
1673020.1673781.+	1673020	1673781	+	F11	1669900.1670661.+	1669900	1670661	+	H37Ra
1173130.1174440.+	1173130	1174440	+	F11	3393545.3394855.-	3394855	3393545	-	H37Ra
2841874.2843184.-	2843184	2841874	-	F11	3393545.3394855.-	3394855	3393545	-	H37Ra
3393085.3394395.-	3394395	3393085	-	F11	3393545.3394855.-	3394855	3393545	-	H37Ra
3494511.3495821.+	3494511	3495821	+	F11	3393545.3394855.-	3394855	3393545	-	H37Ra
1345122.1346432.-	1346432	1345122	-	F11	3393545.3394855.-	3394855	3393545	-	H37Ra
204384.205553.+	204384	205553	+	F11	205428.206597.+	205428	206597	+	H37Ra
1492112.1492567.-	1492567	1492112	-	F11	1486623.1487078.-	1487078	1486623	-	H37Ra
2413937.2415289.-	2415289	2413937	-	F11	2410278.2411630.-	2411630	2410278	-	H37Ra
980682.981959.-	981959	980682	-	F11	978164.979441.-	979441	978164	-	H37Ra
2889894.2890295.-	2890295	2889894	-	F11	2888544.2888945.-	2888945	2888544	-	H37Ra
3085085.3085570.-	3085570	3085085	-	F11	3085098.3085583.-	3085583	3085098	-	H37Ra
2994967.2995833.+	2994967	2995833	+	F11	2994976.2995842.+	2994976	2995842	+	H37Ra
2209478.2209999.-	2209999	2209478	-	F11	2211122.2211643.-	2211643	2211122	-	H37Ra
3735983.3736369.+	3735983	3736369	+	F11	3734497.3734883.+	3734497	3734883	+	H37Ra
506316.506468.+	506316	506468	+	F11	504456.504608.+	504456	504608	+	H37Ra
1271967.1272782.-	1272782	1271967	-	F11	1269513.1270328.-	1270328	1269513	-	H37Ra
2988545.2988961.-	2988961	2988545	-	F11	2988554.2988970.-	2988970	2988554	-	H37Ra
1112346.1113017.-	1113017	1112346	-	F11	1109886.1110557.-	1110557	1109886	-	H37Ra
3523211.3524428.-	3524428	3523211	-	F11	3522244.3523461.-	3523461	3522244	-	H37Ra
563039.563917.+	563039	563917	+	F11	561180.562058.+	561180	562058	+	H37Ra
1318999.1323747.+	1318999	1323747	+	F11	1316545.1321293.+	1316545	1321293	+	H37Ra
876540.877223.-	877223	876540	-	F11	873978.874661.-	874661	873978	-	H37Ra
2987887.2988378.-	2988378	2987887	-	F11	2987896.2988387.-	2988387	2987896	-	H37Ra
2190715.2191506.-	2191506	2190715	-	F11	2192359.2193150.-	2193150	2192359	-	H37Ra
1691524.1692525.+	1691524	1692525	+	F11	1688404.1689405.+	1688404	1689405	+	H37Ra
3032278.3032466.+	3032278	3032466	+	F11	3032291.3032479.+	3032291	3032479	+	H37Ra
1707234.1707653.+	1707234	1707653	+	F11	1704114.1704533.+	1704114	1704533	+	H37Ra
3912846.3913592.-	3913592	3912846	-	F11	3909170.3909916.-	3909916	3909170	-	H37Ra
2330891.2331292.+	2330891	2331292	+	F11	2326179.2326580.+	2326179	2326580	+	H37Ra
3894143.3894493.-	3894493	3894143	-	F11	3889109.3889459.-	3889459	3889109	-	H37Ra
1057585.1058067.+	1057585	1058067	+	F11	1055067.1055549.+	1055067	1055549	+	H37Ra
3094768.3095325.+	3094768	3095325	+	F11	3094781.3095338.+	3094781	3095338	+	H37Ra
2639578.2641143.-	2641143	2639578	-	F11	2638685.2640250.-	2640250	2638685	-	H37Ra
2303894.2304244.-	2304244	2303894	-	F11	2299182.2299532.-	2299532	2299182	-	H37Ra
3388199.3388564.-	3388564	3388199	-	F11	3388659.3389024.-	3389024	3388659	-	H37Ra
65116.65496.-	65496	65116	-	F11	66370.66750.-	66750	66370	-	H37Ra
880189.880581.-	880581	880189	-	F11	877625.878017.-	878017	877625	-	H37Ra
3612579.3612797.+	3612579	3612797	+	F11	3611584.3611802.+	3611584	3611802	+	H37Ra
779347.782163.-	782163	779347	-	F11	776892.779708.-	779708	776892	-	H37Ra
1122196.1123764.-	1123764	1122196	-	F11	1119736.1121304.-	1121304	1119736	-	H37Ra
2275667.2276017.+	2275667	2276017	+	F11	2275955.2276305.+	2275955	2276305	+	H37Ra
3065749.3067446.+	3065749	3067446	+	F11	3065762.3067459.+	3065762	3067459	+	H37Ra
1718809.1722345.-	1722345	1718809	-	F11	1715689.1719225.-	1719225	1715689	-	H37Ra
2164967.2165581.-	2165581	2164967	-	F11	2166638.2167252.-	2167252	2166638	-	H37Ra
3136625.3137872.-	3137872	3136625	-	F11	3136987.3138234.-	3138234	3136987	-	H37Ra
2481533.2482609.-	2482609	2481533	-	F11	2479289.2480365.-	2480365	2479289	-	H37Ra
3571325.3571789.+	3571325	3571789	+	F11	3570343.3570807.+	3570343	3570807	+	H37Ra
4259563.4262811.+	4259563	4262811	+	F11	4255008.4258256.+	4255008	4258256	+	H37Ra
3307823.3308113.-	3308113	3307823	-	F11	3308342.3308632.-	3308632	3308342	-	H37Ra
867124.868011.+	867124	868011	+	F11	864562.865449.+	864562	865449	+	H37Ra
741525.742478.-	742478	741525	-	F11	739603.740556.-	740556	739603	-	H37Ra
1343117.1344289.+	1343117	1344289	+	F11	1340663.1341679.+	1340663	1341679	+	H37Ra
1538142.1539329.-	1539329	1538142	-	F11	1340663.1341679.+	1340663	1341679	+	H37Ra
3906782.3907960.+	3906782	3907960	+	F11	1340663.1341679.+	1340663	1341679	+	H37Ra
68522.68683.+	68522	68683	+	F11	69776.69937.+	69776	69937	+	H37Ra
3720095.3720727.-	3720727	3720095	-	F11	3719279.3719911.-	3719911	3719279	-	H37Ra
555150.555719.+	555150	555719	+	F11	553291.553860.+	553291	553860	+	H37Ra
1900476.1901471.+	1900476	1901471	+	F11	1906765.1907760.+	1906765	1907760	+	H37Ra
2517882.2518301.-	2518301	2517882	-	F11	2515638.2516057.-	2516057	2515638	-	H37Ra
2350822.2350992.-	2350992	2350822	-	F11	2344752.2344922.-	2344922	2344752	-	H37Ra
4423416.4423766.-	4423766	4423416	-	F11	4418857.4419207.-	4419207	4418857	-	H37Ra
2373943.2374242.-	2374242	2373943	-	F11	2367809.2368108.-	2368108	2367809	-	H37Ra
4120476.4120670.+	4120476	4120670	+	F11	4115921.4116115.+	4115921	4116115	+	H37Ra
2876525.2877727.-	2877727	2876525	-	F11	2875175.2876377.-	2876377	2875175	-	H37Ra
3390204.3390380.-	3390380	3390204	-	F11	3390664.3390840.-	3390840	3390664	-	H37Ra
1116053.1117228.+	1116053	1117228	+	F11	1113593.1114768.+	1113593	1114768	+	H37Ra
4282841.4283374.-	4283374	4282841	-	F11	4278286.4278819.-	4278819	4278286	-	H37Ra
1987722.1988825.+	1987722	1988825	+	F11	1992774.1993877.+	1992774	1993877	+	H37Ra
4208396.4208803.+	4208396	4208803	+	F11	4203841.4204248.+	4203841	4204248	+	H37Ra
990499.990648.+	990499	990648	+	F11	987981.988130.+	987981	988130	+	H37Ra
934704.935540.-	935540	934704	-	F11	1543304.1544140.-	1544140	1543304	-	H37Ra
1485775.1486611.+	1485775	1486611	+	F11	1543304.1544140.-	1544140	1543304	-	H37Ra
1946034.1946870.-	1946870	1946034	-	F11	1543304.1544140.-	1544140	1543304	-	H37Ra
1983134.1983970.-	1983970	1983134	-	F11	1543304.1544140.-	1544140	1543304	-	H37Ra
1992399.1993235.-	1993235	1992399	-	F11	1543304.1544140.-	1544140	1543304	-	H37Ra
1997839.1998675.+	1997839	1998675	+	F11	1543304.1544140.-	1544140	1543304	-	H37Ra
2004661.2005497.+	2004661	2005497	+	F11	1543304.1544140.-	1544140	1543304	-	H37Ra
2017907.2018743.-	2018743	2017907	-	F11	1543304.1544140.-	1544140	1543304	-	H37Ra
2270484.2271320.-	2271320	2270484	-	F11	1543304.1544140.-	1544140	1543304	-	H37Ra
2349765.2350601.+	2349765	2350601	+	F11	1543304.1544140.-	1544140	1543304	-	H37Ra
2645453.2646289.+	2645453	2646289	+	F11	1543304.1544140.-	1544140	1543304	-	H37Ra
2649321.2650157.+	2649321	2650157	+	F11	1543304.1544140.-	1544140	1543304	-	H37Ra
2697370.2698206.-	2698206	2697370	-	F11	1543304.1544140.-	1544140	1543304	-	H37Ra
3132521.3133357.-	3133357	3132521	-	F11	1543304.1544140.-	1544140	1543304	-	H37Ra
3492615.3493451.+	3492615	3493451	+	F11	1543304.1544140.-	1544140	1543304	-	H37Ra
3564305.3565141.-	3565141	3564305	-	F11	1543304.1544140.-	1544140	1543304	-	H37Ra
3722337.3723173.-	3723173	3722337	-	F11	1543304.1544140.-	1544140	1543304	-	H37Ra
2695310.2696482.-	2696482	2695310	-	F11	2693983.2695155.-	2695155	2693983	-	H37Ra
478986.479354.+	478986	479354	+	F11	477126.477494.+	477126	477494	+	H37Ra
476920.477276.+	476920	477276	+	F11	477126.477494.+	477126	477494	+	H37Ra
2630379.2630813.+	2630379	2630813	+	F11	2629486.2629920.+	2629486	2629920	+	H37Ra
4075452.4076252.+	4075452	4076252	+	F11	4070896.4071696.+	4070896	4071696	+	H37Ra
3439001.3441283.+	3439001	3441283	+	F11	3439393.3441675.+	3439393	3441675	+	H37Ra
741525.742436.-	742436	741525	-	F11	739603.740514.-	740514	739603	-	H37Ra
3912846.3913556.-	3913556	3912846	-	F11	3909170.3909880.-	3909880	3909170	-	H37Ra
418124.418540.+	418124	418540	+	F11	416406.416822.+	416406	416822	+	H37Ra
1115338.1115991.+	1115338	1115991	+	F11	1112878.1113531.+	1112878	1113531	+	H37Ra
1204363.1205430.+	1204363	1205430	+	F11	1201902.1202969.+	1201902	1202969	+	H37Ra
2594600.2595196.+	2594600	2595196	+	F11	2593716.2594312.+	2593716	2594312	+	H37Ra
172518.173459.+	172518	173459	+	F11	173561.174502.+	173561	174502	+	H37Ra
3371294.3372307.-	3372307	3371294	-	F11	3371754.3372767.-	3372767	3371754	-	H37Ra
3034386.3035387.+	3034386	3035387	+	F11	3034399.3035400.+	3034399	3035400	+	H37Ra
2105520.2105840.+	2105520	2105840	+	F11	2107262.2107582.+	2107262	2107582	+	H37Ra
3250074.3250988.-	3250988	3250074	-	F11	3250593.3251507.-	3251507	3250593	-	H37Ra
712683.713576.+	712683	713576	+	F11	710765.711658.+	710765	711658	+	H37Ra
3811134.3811913.+	3811134	3811913	+	F11	3809140.3809919.+	3809140	3809919	+	H37Ra
330697.331320.+	330697	331320	+	F11	331742.332365.+	331742	332365	+	H37Ra
1620727.1620963.-	1620963	1620727	-	F11	1617675.1617911.-	1617911	1617675	-	H37Ra
141330.142280.+	141330	142280	+	F11	142553.143503.+	142553	143503	+	H37Ra
1162686.1163177.-	1163177	1162686	-	F11	1160226.1160717.-	1160717	1160226	-	H37Ra
712827.713576.+	712827	713576	+	F11	710909.711658.+	710909	711658	+	H37Ra
1275800.1275955.-	1275955	1275800	-	F11	1273346.1273501.-	1273501	1273346	-	H37Ra
4314564.4315787.-	4315787	4314564	-	F11	4310009.4311232.-	4311232	4310009	-	H37Ra
4147685.4149049.+	4147685	4149049	+	F11	4143130.4144494.+	4143130	4144494	+	H37Ra
3033503.3033820.-	3033820	3033503	-	F11	3033516.3033833.-	3033833	3033516	-	H37Ra
2720406.2721410.+	2720406	2721410	+	F11	2717700.2718704.+	2717700	2718704	+	H37Ra
