889497.890333.+	889497	890333	+	H37Rv	2004661.2005497.+	2004661	2005497	+	F11
1541994.1542830.-	1542830	1541994	-	H37Rv	2004661.2005497.+	2004661	2005497	+	F11
1987745.1988581.-	1988581	1987745	-	H37Rv	2004661.2005497.+	2004661	2005497	+	F11
1996577.1997413.+	1996577	1997413	+	H37Rv	2004661.2005497.+	2004661	2005497	+	F11
2365890.2366726.+	2365890	2366726	+	H37Rv	2004661.2005497.+	2004661	2005497	+	F11
2430159.2430995.-	2430995	2430159	-	H37Rv	2004661.2005497.+	2004661	2005497	+	F11
2550490.2551326.+	2550490	2551326	+	H37Rv	2004661.2005497.+	2004661	2005497	+	F11
2636053.2636889.+	2636053	2636889	+	H37Rv	2004661.2005497.+	2004661	2005497	+	F11
2784657.2785493.-	2785493	2784657	-	H37Rv	2004661.2005497.+	2004661	2005497	+	F11
2972585.2973421.+	2972585	2973421	+	H37Rv	2004661.2005497.+	2004661	2005497	+	F11
3120566.3121402.-	3121402	3120566	-	H37Rv	2004661.2005497.+	2004661	2005497	+	F11
3551706.3552542.+	3551706	3552542	+	H37Rv	2004661.2005497.+	2004661	2005497	+	F11
3553189.3554025.+	3553189	3554025	+	H37Rv	2004661.2005497.+	2004661	2005497	+	F11
3710858.3711694.+	3710858	3711694	+	H37Rv	2004661.2005497.+	2004661	2005497	+	F11
3795100.3795936.-	3795936	3795100	-	H37Rv	2004661.2005497.+	2004661	2005497	+	F11
3891255.3892091.+	3891255	3892091	+	H37Rv	2004661.2005497.+	2004661	2005497	+	F11
889497.890333.+	889497	890333	+	H37Rv	934704.935540.-	935540	934704	-	F11
1541994.1542830.-	1542830	1541994	-	H37Rv	934704.935540.-	935540	934704	-	F11
1987745.1988581.-	1988581	1987745	-	H37Rv	934704.935540.-	935540	934704	-	F11
1996577.1997413.+	1996577	1997413	+	H37Rv	934704.935540.-	935540	934704	-	F11
2365890.2366726.+	2365890	2366726	+	H37Rv	934704.935540.-	935540	934704	-	F11
2430159.2430995.-	2430995	2430159	-	H37Rv	934704.935540.-	935540	934704	-	F11
2550490.2551326.+	2550490	2551326	+	H37Rv	934704.935540.-	935540	934704	-	F11
2636053.2636889.+	2636053	2636889	+	H37Rv	934704.935540.-	935540	934704	-	F11
2784657.2785493.-	2785493	2784657	-	H37Rv	934704.935540.-	935540	934704	-	F11
2972585.2973421.+	2972585	2973421	+	H37Rv	934704.935540.-	935540	934704	-	F11
3120566.3121402.-	3121402	3120566	-	H37Rv	934704.935540.-	935540	934704	-	F11
3551706.3552542.+	3551706	3552542	+	H37Rv	934704.935540.-	935540	934704	-	F11
3553189.3554025.+	3553189	3554025	+	H37Rv	934704.935540.-	935540	934704	-	F11
3710858.3711694.+	3710858	3711694	+	H37Rv	934704.935540.-	935540	934704	-	F11
3795100.3795936.-	3795936	3795100	-	H37Rv	934704.935540.-	935540	934704	-	F11
3891255.3892091.+	3891255	3892091	+	H37Rv	934704.935540.-	935540	934704	-	F11
889497.890333.+	889497	890333	+	H37Rv	3132521.3133357.-	3133357	3132521	-	F11
1541994.1542830.-	1542830	1541994	-	H37Rv	3132521.3133357.-	3133357	3132521	-	F11
1987745.1988581.-	1988581	1987745	-	H37Rv	3132521.3133357.-	3133357	3132521	-	F11
1996577.1997413.+	1996577	1997413	+	H37Rv	3132521.3133357.-	3133357	3132521	-	F11
2365890.2366726.+	2365890	2366726	+	H37Rv	3132521.3133357.-	3133357	3132521	-	F11
2430159.2430995.-	2430995	2430159	-	H37Rv	3132521.3133357.-	3133357	3132521	-	F11
2550490.2551326.+	2550490	2551326	+	H37Rv	3132521.3133357.-	3133357	3132521	-	F11
2636053.2636889.+	2636053	2636889	+	H37Rv	3132521.3133357.-	3133357	3132521	-	F11
2784657.2785493.-	2785493	2784657	-	H37Rv	3132521.3133357.-	3133357	3132521	-	F11
2972585.2973421.+	2972585	2973421	+	H37Rv	3132521.3133357.-	3133357	3132521	-	F11
3120566.3121402.-	3121402	3120566	-	H37Rv	3132521.3133357.-	3133357	3132521	-	F11
3551706.3552542.+	3551706	3552542	+	H37Rv	3132521.3133357.-	3133357	3132521	-	F11
3553189.3554025.+	3553189	3554025	+	H37Rv	3132521.3133357.-	3133357	3132521	-	F11
3710858.3711694.+	3710858	3711694	+	H37Rv	3132521.3133357.-	3133357	3132521	-	F11
3795100.3795936.-	3795936	3795100	-	H37Rv	3132521.3133357.-	3133357	3132521	-	F11
3891255.3892091.+	3891255	3892091	+	H37Rv	3132521.3133357.-	3133357	3132521	-	F11
889497.890333.+	889497	890333	+	H37Rv	2697370.2698206.-	2698206	2697370	-	F11
1541994.1542830.-	1542830	1541994	-	H37Rv	2697370.2698206.-	2698206	2697370	-	F11
1987745.1988581.-	1988581	1987745	-	H37Rv	2697370.2698206.-	2698206	2697370	-	F11
1996577.1997413.+	1996577	1997413	+	H37Rv	2697370.2698206.-	2698206	2697370	-	F11
2365890.2366726.+	2365890	2366726	+	H37Rv	2697370.2698206.-	2698206	2697370	-	F11
2430159.2430995.-	2430995	2430159	-	H37Rv	2697370.2698206.-	2698206	2697370	-	F11
2550490.2551326.+	2550490	2551326	+	H37Rv	2697370.2698206.-	2698206	2697370	-	F11
2636053.2636889.+	2636053	2636889	+	H37Rv	2697370.2698206.-	2698206	2697370	-	F11
2784657.2785493.-	2785493	2784657	-	H37Rv	2697370.2698206.-	2698206	2697370	-	F11
2972585.2973421.+	2972585	2973421	+	H37Rv	2697370.2698206.-	2698206	2697370	-	F11
3120566.3121402.-	3121402	3120566	-	H37Rv	2697370.2698206.-	2698206	2697370	-	F11
3551706.3552542.+	3551706	3552542	+	H37Rv	2697370.2698206.-	2698206	2697370	-	F11
3553189.3554025.+	3553189	3554025	+	H37Rv	2697370.2698206.-	2698206	2697370	-	F11
3710858.3711694.+	3710858	3711694	+	H37Rv	2697370.2698206.-	2698206	2697370	-	F11
3795100.3795936.-	3795936	3795100	-	H37Rv	2697370.2698206.-	2698206	2697370	-	F11
3891255.3892091.+	3891255	3892091	+	H37Rv	2697370.2698206.-	2698206	2697370	-	F11
889497.890333.+	889497	890333	+	H37Rv	3722337.3723173.-	3723173	3722337	-	F11
1541994.1542830.-	1542830	1541994	-	H37Rv	3722337.3723173.-	3723173	3722337	-	F11
1987745.1988581.-	1988581	1987745	-	H37Rv	3722337.3723173.-	3723173	3722337	-	F11
1996577.1997413.+	1996577	1997413	+	H37Rv	3722337.3723173.-	3723173	3722337	-	F11
2365890.2366726.+	2365890	2366726	+	H37Rv	3722337.3723173.-	3723173	3722337	-	F11
2430159.2430995.-	2430995	2430159	-	H37Rv	3722337.3723173.-	3723173	3722337	-	F11
2550490.2551326.+	2550490	2551326	+	H37Rv	3722337.3723173.-	3723173	3722337	-	F11
2636053.2636889.+	2636053	2636889	+	H37Rv	3722337.3723173.-	3723173	3722337	-	F11
2784657.2785493.-	2785493	2784657	-	H37Rv	3722337.3723173.-	3723173	3722337	-	F11
2972585.2973421.+	2972585	2973421	+	H37Rv	3722337.3723173.-	3723173	3722337	-	F11
3120566.3121402.-	3121402	3120566	-	H37Rv	3722337.3723173.-	3723173	3722337	-	F11
3551706.3552542.+	3551706	3552542	+	H37Rv	3722337.3723173.-	3723173	3722337	-	F11
3553189.3554025.+	3553189	3554025	+	H37Rv	3722337.3723173.-	3723173	3722337	-	F11
3710858.3711694.+	3710858	3711694	+	H37Rv	3722337.3723173.-	3723173	3722337	-	F11
3795100.3795936.-	3795936	3795100	-	H37Rv	3722337.3723173.-	3723173	3722337	-	F11
3891255.3892091.+	3891255	3892091	+	H37Rv	3722337.3723173.-	3723173	3722337	-	F11
889497.890333.+	889497	890333	+	H37Rv	2645453.2646289.+	2645453	2646289	+	F11
1541994.1542830.-	1542830	1541994	-	H37Rv	2645453.2646289.+	2645453	2646289	+	F11
1987745.1988581.-	1988581	1987745	-	H37Rv	2645453.2646289.+	2645453	2646289	+	F11
1996577.1997413.+	1996577	1997413	+	H37Rv	2645453.2646289.+	2645453	2646289	+	F11
2365890.2366726.+	2365890	2366726	+	H37Rv	2645453.2646289.+	2645453	2646289	+	F11
2430159.2430995.-	2430995	2430159	-	H37Rv	2645453.2646289.+	2645453	2646289	+	F11
2550490.2551326.+	2550490	2551326	+	H37Rv	2645453.2646289.+	2645453	2646289	+	F11
2636053.2636889.+	2636053	2636889	+	H37Rv	2645453.2646289.+	2645453	2646289	+	F11
2784657.2785493.-	2785493	2784657	-	H37Rv	2645453.2646289.+	2645453	2646289	+	F11
2972585.2973421.+	2972585	2973421	+	H37Rv	2645453.2646289.+	2645453	2646289	+	F11
3120566.3121402.-	3121402	3120566	-	H37Rv	2645453.2646289.+	2645453	2646289	+	F11
3551706.3552542.+	3551706	3552542	+	H37Rv	2645453.2646289.+	2645453	2646289	+	F11
3553189.3554025.+	3553189	3554025	+	H37Rv	2645453.2646289.+	2645453	2646289	+	F11
3710858.3711694.+	3710858	3711694	+	H37Rv	2645453.2646289.+	2645453	2646289	+	F11
3795100.3795936.-	3795936	3795100	-	H37Rv	2645453.2646289.+	2645453	2646289	+	F11
3891255.3892091.+	3891255	3892091	+	H37Rv	2645453.2646289.+	2645453	2646289	+	F11
889497.890333.+	889497	890333	+	H37Rv	3492615.3493451.+	3492615	3493451	+	F11
1541994.1542830.-	1542830	1541994	-	H37Rv	3492615.3493451.+	3492615	3493451	+	F11
1987745.1988581.-	1988581	1987745	-	H37Rv	3492615.3493451.+	3492615	3493451	+	F11
1996577.1997413.+	1996577	1997413	+	H37Rv	3492615.3493451.+	3492615	3493451	+	F11
2365890.2366726.+	2365890	2366726	+	H37Rv	3492615.3493451.+	3492615	3493451	+	F11
2430159.2430995.-	2430995	2430159	-	H37Rv	3492615.3493451.+	3492615	3493451	+	F11
2550490.2551326.+	2550490	2551326	+	H37Rv	3492615.3493451.+	3492615	3493451	+	F11
2636053.2636889.+	2636053	2636889	+	H37Rv	3492615.3493451.+	3492615	3493451	+	F11
2784657.2785493.-	2785493	2784657	-	H37Rv	3492615.3493451.+	3492615	3493451	+	F11
2972585.2973421.+	2972585	2973421	+	H37Rv	3492615.3493451.+	3492615	3493451	+	F11
3120566.3121402.-	3121402	3120566	-	H37Rv	3492615.3493451.+	3492615	3493451	+	F11
3551706.3552542.+	3551706	3552542	+	H37Rv	3492615.3493451.+	3492615	3493451	+	F11
3553189.3554025.+	3553189	3554025	+	H37Rv	3492615.3493451.+	3492615	3493451	+	F11
3710858.3711694.+	3710858	3711694	+	H37Rv	3492615.3493451.+	3492615	3493451	+	F11
3795100.3795936.-	3795936	3795100	-	H37Rv	3492615.3493451.+	3492615	3493451	+	F11
3891255.3892091.+	3891255	3892091	+	H37Rv	3492615.3493451.+	3492615	3493451	+	F11
889497.890333.+	889497	890333	+	H37Rv	1983134.1983970.-	1983970	1983134	-	F11
1541994.1542830.-	1542830	1541994	-	H37Rv	1983134.1983970.-	1983970	1983134	-	F11
1987745.1988581.-	1988581	1987745	-	H37Rv	1983134.1983970.-	1983970	1983134	-	F11
1996577.1997413.+	1996577	1997413	+	H37Rv	1983134.1983970.-	1983970	1983134	-	F11
2365890.2366726.+	2365890	2366726	+	H37Rv	1983134.1983970.-	1983970	1983134	-	F11
2430159.2430995.-	2430995	2430159	-	H37Rv	1983134.1983970.-	1983970	1983134	-	F11
2550490.2551326.+	2550490	2551326	+	H37Rv	1983134.1983970.-	1983970	1983134	-	F11
2636053.2636889.+	2636053	2636889	+	H37Rv	1983134.1983970.-	1983970	1983134	-	F11
2784657.2785493.-	2785493	2784657	-	H37Rv	1983134.1983970.-	1983970	1983134	-	F11
2972585.2973421.+	2972585	2973421	+	H37Rv	1983134.1983970.-	1983970	1983134	-	F11
3120566.3121402.-	3121402	3120566	-	H37Rv	1983134.1983970.-	1983970	1983134	-	F11
3551706.3552542.+	3551706	3552542	+	H37Rv	1983134.1983970.-	1983970	1983134	-	F11
3553189.3554025.+	3553189	3554025	+	H37Rv	1983134.1983970.-	1983970	1983134	-	F11
3710858.3711694.+	3710858	3711694	+	H37Rv	1983134.1983970.-	1983970	1983134	-	F11
3795100.3795936.-	3795936	3795100	-	H37Rv	1983134.1983970.-	1983970	1983134	-	F11
3891255.3892091.+	3891255	3892091	+	H37Rv	1983134.1983970.-	1983970	1983134	-	F11
889497.890333.+	889497	890333	+	H37Rv	2649321.2650157.+	2649321	2650157	+	F11
1541994.1542830.-	1542830	1541994	-	H37Rv	2649321.2650157.+	2649321	2650157	+	F11
1987745.1988581.-	1988581	1987745	-	H37Rv	2649321.2650157.+	2649321	2650157	+	F11
1996577.1997413.+	1996577	1997413	+	H37Rv	2649321.2650157.+	2649321	2650157	+	F11
2365890.2366726.+	2365890	2366726	+	H37Rv	2649321.2650157.+	2649321	2650157	+	F11
2430159.2430995.-	2430995	2430159	-	H37Rv	2649321.2650157.+	2649321	2650157	+	F11
2550490.2551326.+	2550490	2551326	+	H37Rv	2649321.2650157.+	2649321	2650157	+	F11
2636053.2636889.+	2636053	2636889	+	H37Rv	2649321.2650157.+	2649321	2650157	+	F11
2784657.2785493.-	2785493	2784657	-	H37Rv	2649321.2650157.+	2649321	2650157	+	F11
2972585.2973421.+	2972585	2973421	+	H37Rv	2649321.2650157.+	2649321	2650157	+	F11
3120566.3121402.-	3121402	3120566	-	H37Rv	2649321.2650157.+	2649321	2650157	+	F11
3551706.3552542.+	3551706	3552542	+	H37Rv	2649321.2650157.+	2649321	2650157	+	F11
3553189.3554025.+	3553189	3554025	+	H37Rv	2649321.2650157.+	2649321	2650157	+	F11
3710858.3711694.+	3710858	3711694	+	H37Rv	2649321.2650157.+	2649321	2650157	+	F11
3795100.3795936.-	3795936	3795100	-	H37Rv	2649321.2650157.+	2649321	2650157	+	F11
3891255.3892091.+	3891255	3892091	+	H37Rv	2649321.2650157.+	2649321	2650157	+	F11
889497.890333.+	889497	890333	+	H37Rv	1946034.1946870.-	1946870	1946034	-	F11
1541994.1542830.-	1542830	1541994	-	H37Rv	1946034.1946870.-	1946870	1946034	-	F11
1987745.1988581.-	1988581	1987745	-	H37Rv	1946034.1946870.-	1946870	1946034	-	F11
1996577.1997413.+	1996577	1997413	+	H37Rv	1946034.1946870.-	1946870	1946034	-	F11
2365890.2366726.+	2365890	2366726	+	H37Rv	1946034.1946870.-	1946870	1946034	-	F11
2430159.2430995.-	2430995	2430159	-	H37Rv	1946034.1946870.-	1946870	1946034	-	F11
2550490.2551326.+	2550490	2551326	+	H37Rv	1946034.1946870.-	1946870	1946034	-	F11
2636053.2636889.+	2636053	2636889	+	H37Rv	1946034.1946870.-	1946870	1946034	-	F11
2784657.2785493.-	2785493	2784657	-	H37Rv	1946034.1946870.-	1946870	1946034	-	F11
2972585.2973421.+	2972585	2973421	+	H37Rv	1946034.1946870.-	1946870	1946034	-	F11
3120566.3121402.-	3121402	3120566	-	H37Rv	1946034.1946870.-	1946870	1946034	-	F11
3551706.3552542.+	3551706	3552542	+	H37Rv	1946034.1946870.-	1946870	1946034	-	F11
3553189.3554025.+	3553189	3554025	+	H37Rv	1946034.1946870.-	1946870	1946034	-	F11
3710858.3711694.+	3710858	3711694	+	H37Rv	1946034.1946870.-	1946870	1946034	-	F11
3795100.3795936.-	3795936	3795100	-	H37Rv	1946034.1946870.-	1946870	1946034	-	F11
3891255.3892091.+	3891255	3892091	+	H37Rv	1946034.1946870.-	1946870	1946034	-	F11
889497.890333.+	889497	890333	+	H37Rv	2349765.2350601.+	2349765	2350601	+	F11
1541994.1542830.-	1542830	1541994	-	H37Rv	2349765.2350601.+	2349765	2350601	+	F11
1987745.1988581.-	1988581	1987745	-	H37Rv	2349765.2350601.+	2349765	2350601	+	F11
1996577.1997413.+	1996577	1997413	+	H37Rv	2349765.2350601.+	2349765	2350601	+	F11
2365890.2366726.+	2365890	2366726	+	H37Rv	2349765.2350601.+	2349765	2350601	+	F11
2430159.2430995.-	2430995	2430159	-	H37Rv	2349765.2350601.+	2349765	2350601	+	F11
2550490.2551326.+	2550490	2551326	+	H37Rv	2349765.2350601.+	2349765	2350601	+	F11
2636053.2636889.+	2636053	2636889	+	H37Rv	2349765.2350601.+	2349765	2350601	+	F11
2784657.2785493.-	2785493	2784657	-	H37Rv	2349765.2350601.+	2349765	2350601	+	F11
2972585.2973421.+	2972585	2973421	+	H37Rv	2349765.2350601.+	2349765	2350601	+	F11
3120566.3121402.-	3121402	3120566	-	H37Rv	2349765.2350601.+	2349765	2350601	+	F11
3551706.3552542.+	3551706	3552542	+	H37Rv	2349765.2350601.+	2349765	2350601	+	F11
3553189.3554025.+	3553189	3554025	+	H37Rv	2349765.2350601.+	2349765	2350601	+	F11
3710858.3711694.+	3710858	3711694	+	H37Rv	2349765.2350601.+	2349765	2350601	+	F11
3795100.3795936.-	3795936	3795100	-	H37Rv	2349765.2350601.+	2349765	2350601	+	F11
3891255.3892091.+	3891255	3892091	+	H37Rv	2349765.2350601.+	2349765	2350601	+	F11
889497.890333.+	889497	890333	+	H37Rv	1992399.1993235.-	1993235	1992399	-	F11
1541994.1542830.-	1542830	1541994	-	H37Rv	1992399.1993235.-	1993235	1992399	-	F11
1987745.1988581.-	1988581	1987745	-	H37Rv	1992399.1993235.-	1993235	1992399	-	F11
1996577.1997413.+	1996577	1997413	+	H37Rv	1992399.1993235.-	1993235	1992399	-	F11
2365890.2366726.+	2365890	2366726	+	H37Rv	1992399.1993235.-	1993235	1992399	-	F11
2430159.2430995.-	2430995	2430159	-	H37Rv	1992399.1993235.-	1993235	1992399	-	F11
2550490.2551326.+	2550490	2551326	+	H37Rv	1992399.1993235.-	1993235	1992399	-	F11
2636053.2636889.+	2636053	2636889	+	H37Rv	1992399.1993235.-	1993235	1992399	-	F11
2784657.2785493.-	2785493	2784657	-	H37Rv	1992399.1993235.-	1993235	1992399	-	F11
2972585.2973421.+	2972585	2973421	+	H37Rv	1992399.1993235.-	1993235	1992399	-	F11
3120566.3121402.-	3121402	3120566	-	H37Rv	1992399.1993235.-	1993235	1992399	-	F11
3551706.3552542.+	3551706	3552542	+	H37Rv	1992399.1993235.-	1993235	1992399	-	F11
3553189.3554025.+	3553189	3554025	+	H37Rv	1992399.1993235.-	1993235	1992399	-	F11
3710858.3711694.+	3710858	3711694	+	H37Rv	1992399.1993235.-	1993235	1992399	-	F11
3795100.3795936.-	3795936	3795100	-	H37Rv	1992399.1993235.-	1993235	1992399	-	F11
3891255.3892091.+	3891255	3892091	+	H37Rv	1992399.1993235.-	1993235	1992399	-	F11
889497.890333.+	889497	890333	+	H37Rv	3564305.3565141.-	3565141	3564305	-	F11
1541994.1542830.-	1542830	1541994	-	H37Rv	3564305.3565141.-	3565141	3564305	-	F11
1987745.1988581.-	1988581	1987745	-	H37Rv	3564305.3565141.-	3565141	3564305	-	F11
1996577.1997413.+	1996577	1997413	+	H37Rv	3564305.3565141.-	3565141	3564305	-	F11
2365890.2366726.+	2365890	2366726	+	H37Rv	3564305.3565141.-	3565141	3564305	-	F11
2430159.2430995.-	2430995	2430159	-	H37Rv	3564305.3565141.-	3565141	3564305	-	F11
2550490.2551326.+	2550490	2551326	+	H37Rv	3564305.3565141.-	3565141	3564305	-	F11
2636053.2636889.+	2636053	2636889	+	H37Rv	3564305.3565141.-	3565141	3564305	-	F11
2784657.2785493.-	2785493	2784657	-	H37Rv	3564305.3565141.-	3565141	3564305	-	F11
2972585.2973421.+	2972585	2973421	+	H37Rv	3564305.3565141.-	3565141	3564305	-	F11
3120566.3121402.-	3121402	3120566	-	H37Rv	3564305.3565141.-	3565141	3564305	-	F11
3551706.3552542.+	3551706	3552542	+	H37Rv	3564305.3565141.-	3565141	3564305	-	F11
3553189.3554025.+	3553189	3554025	+	H37Rv	3564305.3565141.-	3565141	3564305	-	F11
3710858.3711694.+	3710858	3711694	+	H37Rv	3564305.3565141.-	3565141	3564305	-	F11
3795100.3795936.-	3795936	3795100	-	H37Rv	3564305.3565141.-	3565141	3564305	-	F11
3891255.3892091.+	3891255	3892091	+	H37Rv	3564305.3565141.-	3565141	3564305	-	F11
889497.890333.+	889497	890333	+	H37Rv	2270484.2271320.-	2271320	2270484	-	F11
1541994.1542830.-	1542830	1541994	-	H37Rv	2270484.2271320.-	2271320	2270484	-	F11
1987745.1988581.-	1988581	1987745	-	H37Rv	2270484.2271320.-	2271320	2270484	-	F11
1996577.1997413.+	1996577	1997413	+	H37Rv	2270484.2271320.-	2271320	2270484	-	F11
2365890.2366726.+	2365890	2366726	+	H37Rv	2270484.2271320.-	2271320	2270484	-	F11
2430159.2430995.-	2430995	2430159	-	H37Rv	2270484.2271320.-	2271320	2270484	-	F11
2550490.2551326.+	2550490	2551326	+	H37Rv	2270484.2271320.-	2271320	2270484	-	F11
2636053.2636889.+	2636053	2636889	+	H37Rv	2270484.2271320.-	2271320	2270484	-	F11
2784657.2785493.-	2785493	2784657	-	H37Rv	2270484.2271320.-	2271320	2270484	-	F11
2972585.2973421.+	2972585	2973421	+	H37Rv	2270484.2271320.-	2271320	2270484	-	F11
3120566.3121402.-	3121402	3120566	-	H37Rv	2270484.2271320.-	2271320	2270484	-	F11
3551706.3552542.+	3551706	3552542	+	H37Rv	2270484.2271320.-	2271320	2270484	-	F11
3553189.3554025.+	3553189	3554025	+	H37Rv	2270484.2271320.-	2271320	2270484	-	F11
3710858.3711694.+	3710858	3711694	+	H37Rv	2270484.2271320.-	2271320	2270484	-	F11
3795100.3795936.-	3795936	3795100	-	H37Rv	2270484.2271320.-	2271320	2270484	-	F11
3891255.3892091.+	3891255	3892091	+	H37Rv	2270484.2271320.-	2271320	2270484	-	F11
889497.890333.+	889497	890333	+	H37Rv	2017907.2018743.-	2018743	2017907	-	F11
1541994.1542830.-	1542830	1541994	-	H37Rv	2017907.2018743.-	2018743	2017907	-	F11
1987745.1988581.-	1988581	1987745	-	H37Rv	2017907.2018743.-	2018743	2017907	-	F11
1996577.1997413.+	1996577	1997413	+	H37Rv	2017907.2018743.-	2018743	2017907	-	F11
2365890.2366726.+	2365890	2366726	+	H37Rv	2017907.2018743.-	2018743	2017907	-	F11
2430159.2430995.-	2430995	2430159	-	H37Rv	2017907.2018743.-	2018743	2017907	-	F11
2550490.2551326.+	2550490	2551326	+	H37Rv	2017907.2018743.-	2018743	2017907	-	F11
2636053.2636889.+	2636053	2636889	+	H37Rv	2017907.2018743.-	2018743	2017907	-	F11
2784657.2785493.-	2785493	2784657	-	H37Rv	2017907.2018743.-	2018743	2017907	-	F11
2972585.2973421.+	2972585	2973421	+	H37Rv	2017907.2018743.-	2018743	2017907	-	F11
3120566.3121402.-	3121402	3120566	-	H37Rv	2017907.2018743.-	2018743	2017907	-	F11
3551706.3552542.+	3551706	3552542	+	H37Rv	2017907.2018743.-	2018743	2017907	-	F11
3553189.3554025.+	3553189	3554025	+	H37Rv	2017907.2018743.-	2018743	2017907	-	F11
3710858.3711694.+	3710858	3711694	+	H37Rv	2017907.2018743.-	2018743	2017907	-	F11
3795100.3795936.-	3795936	3795100	-	H37Rv	2017907.2018743.-	2018743	2017907	-	F11
3891255.3892091.+	3891255	3892091	+	H37Rv	2017907.2018743.-	2018743	2017907	-	F11
889497.890333.+	889497	890333	+	H37Rv	1997839.1998675.+	1997839	1998675	+	F11
1541994.1542830.-	1542830	1541994	-	H37Rv	1997839.1998675.+	1997839	1998675	+	F11
1987745.1988581.-	1988581	1987745	-	H37Rv	1997839.1998675.+	1997839	1998675	+	F11
1996577.1997413.+	1996577	1997413	+	H37Rv	1997839.1998675.+	1997839	1998675	+	F11
2365890.2366726.+	2365890	2366726	+	H37Rv	1997839.1998675.+	1997839	1998675	+	F11
2430159.2430995.-	2430995	2430159	-	H37Rv	1997839.1998675.+	1997839	1998675	+	F11
2550490.2551326.+	2550490	2551326	+	H37Rv	1997839.1998675.+	1997839	1998675	+	F11
2636053.2636889.+	2636053	2636889	+	H37Rv	1997839.1998675.+	1997839	1998675	+	F11
2784657.2785493.-	2785493	2784657	-	H37Rv	1997839.1998675.+	1997839	1998675	+	F11
2972585.2973421.+	2972585	2973421	+	H37Rv	1997839.1998675.+	1997839	1998675	+	F11
3120566.3121402.-	3121402	3120566	-	H37Rv	1997839.1998675.+	1997839	1998675	+	F11
3551706.3552542.+	3551706	3552542	+	H37Rv	1997839.1998675.+	1997839	1998675	+	F11
3553189.3554025.+	3553189	3554025	+	H37Rv	1997839.1998675.+	1997839	1998675	+	F11
3710858.3711694.+	3710858	3711694	+	H37Rv	1997839.1998675.+	1997839	1998675	+	F11
3795100.3795936.-	3795936	3795100	-	H37Rv	1997839.1998675.+	1997839	1998675	+	F11
3891255.3892091.+	3891255	3892091	+	H37Rv	1997839.1998675.+	1997839	1998675	+	F11
