3095342.3096271.-	3096271	3095342	-	H37Ra	1329298.1330227.+	1329298	1330227	+	KZN_4207-B
2452229.2453116.-	2453116	2452229	-	H37Ra	1973208.1974095.+	1973208	1974095	+	KZN_4207-B
3861893.3862381.-	3862381	3861893	-	H37Ra	3839535.3840023.-	3840023	3839535	-	KZN_4207-B
4301671.4308051.-	4308051	4301671	-	H37Ra	4276775.4283155.-	4283155	4276775	-	KZN_4207-B
907711.908598.+	907711	908598	+	H37Ra	906250.907137.+	906250	907137	+	KZN_4207-B
2276003.2276305.+	2276003	2276305	+	H37Ra	2153398.2153700.-	2153700	2153398	-	KZN_4207-B
1269513.1270328.-	1270328	1269513	-	H37Ra	3139950.3140765.+	3139950	3140765	+	KZN_4207-B
1095978.1096172.-	1096172	1095978	-	H37Ra	3313837.3314031.+	3313837	3314031	+	KZN_4207-B
3052734.3053429.-	3053429	3052734	-	H37Ra	1373499.1374194.+	1373499	1374194	+	KZN_4207-B
2039836.2040135.+	2039836	2040135	+	H37Ra	2390755.2391054.-	2391054	2390755	-	KZN_4207-B
2511238.2511540.-	2511540	2511238	-	H37Ra	1914841.1915143.+	1914841	1915143	+	KZN_4207-B
656234.657319.-	657319	656234	-	H37Ra	655243.656328.-	656328	655243	-	KZN_4207-B
1076605.1077567.-	1077567	1076605	-	H37Ra	3332454.3333416.+	3332454	3333416	+	KZN_4207-B
105068.105787.-	105787	105068	-	H37Ra	2630222.2630944.+	2630222	2630944	+	KZN_4207-B
3892875.3893594.+	3892875	3893594	+	H37Ra	2630222.2630944.+	2630222	2630944	+	KZN_4207-B
4016833.4017099.-	4017099	4016833	-	H37Ra	3990130.3990396.-	3990396	3990130	-	KZN_4207-B
750540.751307.-	751307	750540	-	H37Ra	750077.750844.-	750844	750077	-	KZN_4207-B
1669900.1670661.+	1669900	1670661	+	H37Ra	2740995.2741756.-	2741756	2740995	-	KZN_4207-B
2288398.2288832.-	2288832	2288398	-	H37Ra	2135871.2136305.+	2135871	2136305	+	KZN_4207-B
4006646.4008304.+	4006646	4008304	+	H37Ra	3979946.3981601.+	3979946	3981601	+	KZN_4207-B
2085503.2085760.+	2085503	2085760	+	H37Ra	2343828.2344085.-	2344085	2343828	-	KZN_4207-B
807062.807472.+	807062	807472	+	H37Ra	806760.807170.+	806760	807170	+	KZN_4207-B
1115694.1116014.-	1116014	1115694	-	H37Ra	3293995.3294315.+	3293995	3294315	+	KZN_4207-B
4015997.4016848.-	4016848	4015997	-	H37Ra	3989294.3990145.-	3990145	3989294	-	KZN_4207-B
546685.547131.-	547131	546685	-	H37Ra	545634.546080.-	546080	545634	-	KZN_4207-B
145357.146985.+	145357	146985	+	H37Ra	144130.145758.+	144130	145758	+	KZN_4207-B
1426748.1427224.-	1427224	1426748	-	H37Ra	2983050.2983526.+	2983050	2983526	+	KZN_4207-B
882381.883019.-	883019	882381	-	H37Ra	882279.882917.-	882917	882279	-	KZN_4207-B
520043.520351.+	520043	520351	+	H37Ra	518992.519300.+	518992	519300	+	KZN_4207-B
4255008.4258256.+	4255008	4258256	+	H37Ra	4230111.4233359.+	4230111	4233359	+	KZN_4207-B
2722319.2723269.-	2723269	2722319	-	H37Ra	1702325.1703275.+	1702325	1703275	+	KZN_4207-B
4105382.4106545.-	4106545	4105382	-	H37Ra	4080255.4081418.-	4081418	4080255	-	KZN_4207-B
1952150.1952569.-	1952569	1952150	-	H37Ra	2468382.2468801.+	2468382	2468801	+	KZN_4207-B
1386299.1387987.-	1387987	1386299	-	H37Ra	3022287.3023975.+	3022287	3023975	+	KZN_4207-B
3515101.3515415.-	3515415	3515101	-	H37Ra	3500502.3500816.-	3500816	3500502	-	KZN_4207-B
3459560.3460582.-	3460582	3459560	-	H37Ra	965353.966375.+	965353	966375	+	KZN_4207-B
564874.566244.+	564874	566244	+	H37Ra	563823.565193.+	563823	565193	+	KZN_4207-B
2785128.2785532.+	2785128	2785532	+	H37Ra	1640059.1640463.-	1640463	1640059	-	KZN_4207-B
367512.374633.-	374633	367512	-	H37Ra	369007.376128.-	376128	369007	-	KZN_4207-B
679037.679885.-	679885	679037	-	H37Ra	678037.678885.-	678885	678037	-	KZN_4207-B
537814.538545.-	538545	537814	-	H37Ra	536763.537494.-	537494	536763	-	KZN_4207-B
3903106.3904284.+	3903106	3904284	+	H37Ra	3879390.3880568.+	3879390	3880568	+	KZN_4207-B
1533753.1534940.-	1534940	1533753	-	H37Ra	3879390.3880568.+	3879390	3880568	+	KZN_4207-B
1340663.1341679.+	1340663	1341679	+	H37Ra	3879390.3880568.+	3879390	3880568	+	KZN_4207-B
3611578.3611805.-	3611805	3611578	-	H37Ra	3595649.3595876.-	3595876	3595649	-	KZN_4207-B
1897993.1898385.+	1897993	1898385	+	H37Ra	2522565.2522957.-	2522957	2522565	-	KZN_4207-B
2123072.2125408.+	2123072	2125408	+	H37Ra	2304185.2306521.-	2306521	2304185	-	KZN_4207-B
239254.239757.-	239757	239254	-	H37Ra	237832.238335.-	238335	237832	-	KZN_4207-B
1581901.1582383.+	1581901	1582383	+	H37Ra	2829305.2829787.-	2829787	2829305	-	KZN_4207-B
1186192.1187049.+	1186192	1187049	+	H37Ra	3222959.3223816.-	3223816	3222959	-	KZN_4207-B
4213984.4214286.+	4213984	4214286	+	H37Ra	4189087.4189389.+	4189087	4189389	+	KZN_4207-B
659628.660650.+	659628	660650	+	H37Ra	658637.659659.+	658637	659659	+	KZN_4207-B
1919274.1919450.+	1919274	1919450	+	H37Ra	2501500.2501676.-	2501676	2501500	-	KZN_4207-B
1165880.1166317.-	1166317	1165880	-	H37Ra	3130146.3130583.-	3130583	3130146	-	KZN_4207-B
1279693.1280130.+	1279693	1280130	+	H37Ra	3130146.3130583.-	3130583	3130146	-	KZN_4207-B
143487.145244.-	145244	143487	-	H37Ra	142260.144017.-	144017	142260	-	KZN_4207-B
1613652.1614293.-	1614293	1613652	-	H37Ra	2797374.2798036.+	2797374	2798036	+	KZN_4207-B
3371489.3371707.-	3371707	3371489	-	H37Ra	1054243.1054461.+	1054243	1054461	+	KZN_4207-B
776892.779786.-	779786	776892	-	H37Ra	776428.779322.-	779322	776428	-	KZN_4207-B
1599210.1600193.+	1599210	1600193	+	H37Ra	2811495.2812478.-	2812478	2811495	-	KZN_4207-B
4025755.4026834.-	4026834	4025755	-	H37Ra	3999052.4000131.-	4000131	3999052	-	KZN_4207-B
975597.977243.-	977243	975597	-	H37Ra	3432775.3434421.+	3432775	3434421	+	KZN_4207-B
2780199.2781005.+	2780199	2781005	+	H37Ra	1644586.1645392.-	1645392	1644586	-	KZN_4207-B
1161403.1161726.-	1161726	1161403	-	H37Ra	3248283.3248606.+	3248283	3248606	+	KZN_4207-B
1160226.1160615.-	1160615	1160226	-	H37Ra	3249394.3249783.+	3249394	3249783	+	KZN_4207-B
2532190.2533077.+	2532190	2533077	+	H37Ra	1893304.1894191.-	1894191	1893304	-	KZN_4207-B
1385588.1385848.+	1385588	1385848	+	H37Ra	3024426.3024686.-	3024686	3024426	-	KZN_4207-B
1704567.1705613.+	1704567	1705613	+	H37Ra	2706043.2707089.-	2707089	2706043	-	KZN_4207-B
3046603.3046851.+	3046603	3046851	+	H37Ra	1380077.1380325.-	1380325	1380077	-	KZN_4207-B
152546.153574.+	152546	153574	+	H37Ra	151500.152528.+	151500	152528	+	KZN_4207-B
3250593.3251462.-	3251462	3250593	-	H37Ra	1174133.1175002.+	1174133	1175002	+	KZN_4207-B
3660152.3660892.+	3660152	3660892	+	H37Ra	3644223.3644963.+	3644223	3644963	+	KZN_4207-B
3303495.3308345.-	3308345	3303495	-	H37Ra	1117250.1122100.+	1117250	1122100	+	KZN_4207-B
2380807.2382444.-	2382444	2380807	-	H37Ra	2042575.2044212.+	2042575	2044212	+	KZN_4207-B
180679.182256.-	182256	180679	-	H37Ra	179257.180834.-	180834	179257	-	KZN_4207-B
132253.132486.-	132486	132253	-	H37Ra	131026.131259.-	131259	131026	-	KZN_4207-B
1284366.1285409.-	1285409	1284366	-	H37Ra	3124867.3125910.+	3124867	3125910	+	KZN_4207-B
2543231.2543869.+	2543231	2543869	+	H37Ra	1882512.1883150.-	1883150	1882512	-	KZN_4207-B
711655.711897.+	711655	711897	+	H37Ra	710655.710897.+	710655	710897	+	KZN_4207-B
662313.662579.+	662313	662579	+	H37Ra	661322.661588.+	661322	661588	+	KZN_4207-B
2807269.2808030.-	2808030	2807269	-	H37Ra	1618922.1619683.+	1618922	1619683	+	KZN_4207-B
4177913.4178155.+	4177913	4178155	+	H37Ra	4153016.4153258.+	4153016	4153258	+	KZN_4207-B
740633.741523.-	741523	740633	-	H37Ra	739637.740527.-	740527	739637	-	KZN_4207-B
2759563.2762223.-	2762223	2759563	-	H37Ra	1663368.1666028.+	1663368	1666028	+	KZN_4207-B
4273009.4273908.-	4273908	4273009	-	H37Ra	4248113.4249012.-	4249012	4248113	-	KZN_4207-B
142553.143503.+	142553	143503	+	H37Ra	141326.142276.+	141326	142276	+	KZN_4207-B
939418.940710.+	939418	940710	+	H37Ra	3469370.3470662.-	3470662	3469370	-	KZN_4207-B
3362443.3363240.-	3363240	3362443	-	H37Ra	1062710.1063507.+	1062710	1063507	+	KZN_4207-B
2661914.2662216.-	2662216	2661914	-	H37Ra	1763342.1763644.+	1763342	1763644	+	KZN_4207-B
1613652.1614260.-	1614260	1613652	-	H37Ra	2797407.2798036.+	2797407	2798036	+	KZN_4207-B
3375508.3375855.+	3375508	3375855	+	H37Ra	1050095.1050442.-	1050442	1050095	-	KZN_4207-B
715512.716576.+	715512	716576	+	H37Ra	714512.715576.+	714512	715576	+	KZN_4207-B
592785.592886.+	592785	592886	+	H37Ra	591710.591811.+	591710	591811	+	KZN_4207-B
208812.209780.+	208812	209780	+	H37Ra	207390.208358.+	207390	208358	+	KZN_4207-B
533664.534221.+	533664	534221	+	H37Ra	532613.533170.+	532613	533170	+	KZN_4207-B
1592999.1593463.+	1592999	1593463	+	H37Ra	2818225.2818689.-	2818689	2818225	-	KZN_4207-B
2727440.2728273.-	2728273	2727440	-	H37Ra	1697318.1698151.+	1697318	1698151	+	KZN_4207-B
986820.987278.-	987278	986820	-	H37Ra	3422740.3423198.+	3422740	3423198	+	KZN_4207-B
2627571.2628812.-	2628812	2627571	-	H37Ra	1797570.1798811.+	1797570	1798811	+	KZN_4207-B
13665.14501.-	14501	13665	-	H37Ra	1605930.1606766.-	1606766	1605930	-	KZN_4207-B
890803.891639.+	890803	891639	+	H37Ra	1605930.1606766.-	1606766	1605930	-	KZN_4207-B
1543304.1544140.-	1544140	1543304	-	H37Ra	1605930.1606766.-	1606766	1605930	-	KZN_4207-B
1989483.1990319.-	1990319	1989483	-	H37Ra	1605930.1606766.-	1606766	1605930	-	KZN_4207-B
1997429.1998265.-	1998265	1997429	-	H37Ra	1605930.1606766.-	1606766	1605930	-	KZN_4207-B
2006262.2007098.+	2006262	2007098	+	H37Ra	1605930.1606766.-	1606766	1605930	-	KZN_4207-B
2375792.2376628.+	2375792	2376628	+	H37Ra	1605930.1606766.-	1606766	1605930	-	KZN_4207-B
2440061.2440897.-	2440897	2440061	-	H37Ra	1605930.1606766.-	1606766	1605930	-	KZN_4207-B
2560394.2561230.+	2560394	2561230	+	H37Ra	1605930.1606766.-	1606766	1605930	-	KZN_4207-B
2648021.2648857.+	2648021	2648857	+	H37Ra	1605930.1606766.-	1606766	1605930	-	KZN_4207-B
2796625.2797461.-	2797461	2796625	-	H37Ra	1605930.1606766.-	1606766	1605930	-	KZN_4207-B
3132534.3133370.-	3133370	3132534	-	H37Ra	1605930.1606766.-	1606766	1605930	-	KZN_4207-B
3563987.3564823.+	3563987	3564823	+	H37Ra	1605930.1606766.-	1606766	1605930	-	KZN_4207-B
3721699.3722535.+	3721699	3722535	+	H37Ra	1605930.1606766.-	1606766	1605930	-	KZN_4207-B
3804223.3805059.-	3805059	3804223	-	H37Ra	1605930.1606766.-	1606766	1605930	-	KZN_4207-B
3899932.3900768.+	3899932	3900768	+	H37Ra	1605930.1606766.-	1606766	1605930	-	KZN_4207-B
2984553.2985389.+	2984553	2985389	+	H37Ra	1605930.1606766.-	1606766	1605930	-	KZN_4207-B
4103986.4104561.-	4104561	4103986	-	H37Ra	4078859.4079434.-	4079434	4078859	-	KZN_4207-B
4218028.4219455.-	4219455	4218028	-	H37Ra	4193131.4194558.-	4194558	4193131	-	KZN_4207-B
1741373.1742764.+	1741373	1742764	+	H37Ra	2668892.2670283.-	2670283	2668892	-	KZN_4207-B
2338122.2338877.-	2338877	2338122	-	H37Ra	2085823.2086578.+	2085823	2086578	+	KZN_4207-B
1540822.1541955.-	1541955	1540822	-	H37Ra	2868374.2869507.+	2868374	2869507	+	KZN_4207-B
3513331.3513888.+	3513331	3513888	+	H37Ra	3498732.3499289.+	3498732	3499289	+	KZN_4207-B
3376878.3377999.+	3376878	3377999	+	H37Ra	1047951.1049072.-	1049072	1047951	-	KZN_4207-B
13665.14501.-	14501	13665	-	H37Ra	3705471.3706307.-	3706307	3705471	-	KZN_4207-B
890803.891639.+	890803	891639	+	H37Ra	3705471.3706307.-	3706307	3705471	-	KZN_4207-B
1543304.1544140.-	1544140	1543304	-	H37Ra	3705471.3706307.-	3706307	3705471	-	KZN_4207-B
1989483.1990319.-	1990319	1989483	-	H37Ra	3705471.3706307.-	3706307	3705471	-	KZN_4207-B
1997429.1998265.-	1998265	1997429	-	H37Ra	3705471.3706307.-	3706307	3705471	-	KZN_4207-B
2006262.2007098.+	2006262	2007098	+	H37Ra	3705471.3706307.-	3706307	3705471	-	KZN_4207-B
2375792.2376628.+	2375792	2376628	+	H37Ra	3705471.3706307.-	3706307	3705471	-	KZN_4207-B
2440061.2440897.-	2440897	2440061	-	H37Ra	3705471.3706307.-	3706307	3705471	-	KZN_4207-B
2560394.2561230.+	2560394	2561230	+	H37Ra	3705471.3706307.-	3706307	3705471	-	KZN_4207-B
2648021.2648857.+	2648021	2648857	+	H37Ra	3705471.3706307.-	3706307	3705471	-	KZN_4207-B
2796625.2797461.-	2797461	2796625	-	H37Ra	3705471.3706307.-	3706307	3705471	-	KZN_4207-B
3132534.3133370.-	3133370	3132534	-	H37Ra	3705471.3706307.-	3706307	3705471	-	KZN_4207-B
3563987.3564823.+	3563987	3564823	+	H37Ra	3705471.3706307.-	3706307	3705471	-	KZN_4207-B
3721699.3722535.+	3721699	3722535	+	H37Ra	3705471.3706307.-	3706307	3705471	-	KZN_4207-B
3804223.3805059.-	3805059	3804223	-	H37Ra	3705471.3706307.-	3706307	3705471	-	KZN_4207-B
3899932.3900768.+	3899932	3900768	+	H37Ra	3705471.3706307.-	3706307	3705471	-	KZN_4207-B
2984553.2985389.+	2984553	2985389	+	H37Ra	3705471.3706307.-	3706307	3705471	-	KZN_4207-B
3036238.3037305.-	3037305	3036238	-	H37Ra	1389623.1390690.+	1389623	1390690	+	KZN_4207-B
2291194.2291517.+	2291194	2291517	+	H37Ra	2133186.2133509.-	2133509	2133186	-	KZN_4207-B
1404696.1405901.-	1405901	1404696	-	H37Ra	3004373.3005578.+	3004373	3005578	+	KZN_4207-B
2373293.2374009.+	2373293	2374009	+	H37Ra	2050696.2051412.-	2051412	2050696	-	KZN_4207-B
3720556.3721089.-	3721089	3720556	-	H37Ra	3704506.3705039.-	3705039	3704506	-	KZN_4207-B
2326581.2326994.-	2326994	2326581	-	H37Ra	2097706.2098119.+	2097706	2098119	+	KZN_4207-B
3763406.3764146.-	3764146	3763406	-	H37Ra	3746888.3747628.-	3747628	3746888	-	KZN_4207-B
628603.629598.+	628603	629598	+	H37Ra	627612.628607.+	627612	628607	+	KZN_4207-B
1273733.1274644.+	1273733	1274644	+	H37Ra	3135634.3136545.-	3136545	3135634	-	KZN_4207-B
1967127.1967459.+	1967127	1967459	+	H37Ra	2453435.2453767.-	2453767	2453435	-	KZN_4207-B
3325308.3325721.-	3325721	3325308	-	H37Ra	1099875.1100288.+	1099875	1100288	+	KZN_4207-B
3765065.3776089.-	3776089	3765065	-	H37Ra	3748547.3759571.-	3759571	3748547	-	KZN_4207-B
1178237.1178551.+	1178237	1178551	+	H37Ra	3231457.3231771.-	3231771	3231457	-	KZN_4207-B
4158476.4159582.-	4159582	4158476	-	H37Ra	4133520.4134626.-	4134626	4133520	-	KZN_4207-B
2380500.2380694.-	2380694	2380500	-	H37Ra	2044325.2044519.+	2044325	2044519	+	KZN_4207-B
544505.546040.+	544505	546040	+	H37Ra	543454.544989.+	543454	544989	+	KZN_4207-B
1967175.1967459.+	1967175	1967459	+	H37Ra	2453435.2453719.-	2453719	2453435	-	KZN_4207-B
1170732.1171979.+	1170732	1171979	+	H37Ra	3066360.3067607.+	3066360	3067607	+	KZN_4207-B
3393545.3394792.-	3394792	3393545	-	H37Ra	3066360.3067607.+	3066360	3067607	+	KZN_4207-B
3493607.3494854.+	3493607	3494854	+	H37Ra	3066360.3067607.+	3066360	3067607	+	KZN_4207-B
1342668.1343915.-	1343915	1342668	-	H37Ra	3066360.3067607.+	3066360	3067607	+	KZN_4207-B
2840524.2841771.-	2841771	2840524	-	H37Ra	3066360.3067607.+	3066360	3067607	+	KZN_4207-B
2572503.2573018.+	2572503	2573018	+	H37Ra	1853365.1853880.-	1853880	1853365	-	KZN_4207-B
579715.580485.+	579715	580485	+	H37Ra	578664.579434.+	578664	579434	+	KZN_4207-B
2079628.2080557.+	2079628	2080557	+	H37Ra	2348975.2349904.-	2349904	2348975	-	KZN_4207-B
956356.957594.+	956356	957594	+	H37Ra	3452486.3453724.-	3453724	3452486	-	KZN_4207-B
865446.865880.+	865446	865880	+	H37Ra	865342.865776.+	865342	865776	+	KZN_4207-B
205425.206597.+	205425	206597	+	H37Ra	204003.205175.+	204003	205175	+	KZN_4207-B
3620564.3621154.-	3621154	3620564	-	H37Ra	3604635.3605225.-	3605225	3604635	-	KZN_4207-B
4208167.4208667.-	4208667	4208167	-	H37Ra	4183270.4183770.-	4183770	4183270	-	KZN_4207-B
141324.141503.+	141324	141503	+	H37Ra	140097.140276.+	140097	140276	+	KZN_4207-B
3033516.3033803.-	3033803	3033516	-	H37Ra	1393125.1393412.+	1393125	1393412	+	KZN_4207-B
1315036.1321293.+	1315036	1321293	+	H37Ra	3088983.3095240.-	3095240	3088983	-	KZN_4207-B
2221526.2222758.+	2221526	2222758	+	H37Ra	2206945.2208177.-	2208177	2206945	-	KZN_4207-B
54595.57057.+	54595	57057	+	H37Ra	53339.55801.+	53339	55801	+	KZN_4207-B
2061208.2062620.+	2061208	2062620	+	H37Ra	2366912.2368324.-	2368324	2366912	-	KZN_4207-B
3352023.3354251.+	3352023	3354251	+	H37Ra	1071699.1073927.-	1073927	1071699	-	KZN_4207-B
2955344.2955571.+	2955344	2955571	+	H37Ra	1470156.1470383.-	1470383	1470156	-	KZN_4207-B
224967.225269.+	224967	225269	+	H37Ra	223545.223847.+	223545	223847	+	KZN_4207-B
28351.28659.+	28351	28659	+	H37Ra	27094.27402.+	27094	27402	+	KZN_4207-B
3368902.3369102.-	3369102	3368902	-	H37Ra	1056848.1057048.+	1056848	1057048	+	KZN_4207-B
3034429.3035400.+	3034429	3035400	+	H37Ra	1391528.1392499.-	1392499	1391528	-	KZN_4207-B
3609684.3610334.-	3610334	3609684	-	H37Ra	3593755.3594405.-	3594405	3593755	-	KZN_4207-B
2094688.2096913.-	2096913	2094688	-	H37Ra	2332675.2334900.+	2332675	2334900	+	KZN_4207-B
1838470.1840689.+	1838470	1840689	+	H37Ra	2580214.2582433.-	2582433	2580214	-	KZN_4207-B
2383736.2384359.+	2383736	2384359	+	H37Ra	2040546.2041169.-	2041169	2040546	-	KZN_4207-B
105068.105787.-	105787	105068	-	H37Ra	3870517.3871236.+	3870517	3871236	+	KZN_4207-B
3892875.3893594.+	3892875	3893594	+	H37Ra	3870517.3871236.+	3870517	3871236	+	KZN_4207-B
553059.553298.+	553059	553298	+	H37Ra	552008.552247.+	552008	552247	+	KZN_4207-B
3196655.3196846.+	3196655	3196846	+	H37Ra	1228971.1229162.-	1229162	1228971	-	KZN_4207-B
309239.310801.-	310801	309239	-	H37Ra	307817.309379.-	309379	307817	-	KZN_4207-B
1975154.1977745.+	1975154	1977745	+	H37Ra	2443149.2445740.-	2445740	2443149	-	KZN_4207-B
3251507.3251698.-	3251698	3251507	-	H37Ra	1173897.1174088.+	1173897	1174088	+	KZN_4207-B
3034363.3035400.+	3034363	3035400	+	H37Ra	1391528.1392565.-	1392565	1391528	-	KZN_4207-B
3136987.3138135.-	3138135	3136987	-	H37Ra	1287636.1288784.+	1287636	1288784	+	KZN_4207-B
1565711.1566337.+	1565711	1566337	+	H37Ra	2845350.2845976.-	2845976	2845350	-	KZN_4207-B
3570343.3570807.+	3570343	3570807	+	H37Ra	3554401.3554865.+	3554401	3554865	+	KZN_4207-B
2658715.2659056.-	2659056	2658715	-	H37Ra	1766502.1766843.+	1766502	1766843	+	KZN_4207-B
367512.374126.-	374126	367512	-	H37Ra	369007.375621.-	375621	369007	-	KZN_4207-B
1589082.1589801.-	1589801	1589082	-	H37Ra	2821887.2822606.+	2821887	2822606	+	KZN_4207-B
4143172.4144494.+	4143172	4144494	+	H37Ra	4118216.4119538.+	4118216	4119538	+	KZN_4207-B
1200735.1201685.-	1201685	1200735	-	H37Ra	3208327.3209277.+	3208327	3209277	+	KZN_4207-B
1947935.1948042.+	1947935	1948042	+	H37Ra	2472909.2473016.-	2473016	2472909	-	KZN_4207-B
2347690.2348088.+	2347690	2348088	+	H37Ra	2076612.2077010.-	2077010	2076612	-	KZN_4207-B
243338.244576.-	244576	243338	-	H37Ra	241916.243154.-	243154	241916	-	KZN_4207-B
738574.739455.-	739455	738574	-	H37Ra	737578.738459.-	738459	737578	-	KZN_4207-B
3219934.3220320.-	3220320	3219934	-	H37Ra	1205498.1205884.+	1205498	1205884	+	KZN_4207-B
3505756.3506337.-	3506337	3505756	-	H37Ra	3491157.3491738.-	3491738	3491157	-	KZN_4207-B
2737546.2737815.+	2737546	2737815	+	H37Ra	1687776.1688045.-	1688045	1687776	-	KZN_4207-B
1202076.1202969.+	1202076	1202969	+	H37Ra	3207043.3207936.-	3207936	3207043	-	KZN_4207-B
2275955.2276305.+	2275955	2276305	+	H37Ra	2153398.2153748.-	2153748	2153398	-	KZN_4207-B
644199.645803.+	644199	645803	+	H37Ra	643208.644812.+	643208	644812	+	KZN_4207-B
2692426.2692635.+	2692426	2692635	+	H37Ra	1732923.1733132.-	1733132	1732923	-	KZN_4207-B
3056954.3058492.-	3058492	3056954	-	H37Ra	1368436.1369974.+	1368436	1369974	+	KZN_4207-B
3568109.3569293.-	3569293	3568109	-	H37Ra	3552152.3553336.-	3553336	3552152	-	KZN_4207-B
1366654.1367118.+	1366654	1367118	+	H37Ra	3043157.3043621.-	3043621	3043157	-	KZN_4207-B
807104.807472.+	807104	807472	+	H37Ra	806802.807170.+	806802	807170	+	KZN_4207-B
2543946.2544368.-	2544368	2543946	-	H37Ra	1882013.1882435.+	1882013	1882435	+	KZN_4207-B
35653.37968.+	35653	37968	+	H37Ra	34396.36642.+	34396	36642	+	KZN_4207-B
3330093.3330278.+	3330093	3330278	+	H37Ra	1095318.1095503.-	1095503	1095318	-	KZN_4207-B
2971815.2972069.-	2972069	2971815	-	H37Ra	1453658.1453912.+	1453658	1453912	+	KZN_4207-B
3174260.3176107.+	3174260	3176107	+	H37Ra	1249656.1251503.-	1251503	1249656	-	KZN_4207-B
361120.362526.-	362526	361120	-	H37Ra	362624.364030.-	364030	362624	-	KZN_4207-B
4140137.4140838.+	4140137	4140838	+	H37Ra	4115181.4115882.+	4115181	4115882	+	KZN_4207-B
1386307.1386852.-	1386852	1386307	-	H37Ra	3023422.3023967.+	3023422	3023967	+	KZN_4207-B
2030566.2033364.+	2030566	2033364	+	H37Ra	2397526.2400324.-	2400324	2397526	-	KZN_4207-B
511687.511965.-	511965	511687	-	H37Ra	510636.510914.-	510914	510636	-	KZN_4207-B
3145701.3146591.-	3146591	3145701	-	H37Ra	1279172.1280062.+	1279172	1280062	+	KZN_4207-B
1801074.1802417.+	1801074	1802417	+	H37Ra	2618486.2619829.-	2619829	2618486	-	KZN_4207-B
1948934.1949161.-	1949161	1948934	-	H37Ra	2471790.2472017.+	2471790	2472017	+	KZN_4207-B
3375478.3375855.+	3375478	3375855	+	H37Ra	1050095.1050472.-	1050472	1050095	-	KZN_4207-B
2538998.2539216.+	2538998	2539216	+	H37Ra	1887165.1887383.-	1887383	1887165	-	KZN_4207-B
2715204.2715806.+	2715204	2715806	+	H37Ra	1709752.1710354.-	1710354	1709752	-	KZN_4207-B
2726092.2727300.-	2727300	2726092	-	H37Ra	1698291.1699499.+	1698291	1699499	+	KZN_4207-B
187855.187983.-	187983	187855	-	H37Ra	186433.186561.-	186561	186433	-	KZN_4207-B
317145.317777.-	317777	317145	-	H37Ra	315723.316355.-	316355	315723	-	KZN_4207-B
969204.969611.+	969204	969611	+	H37Ra	3440416.3440823.-	3440823	3440416	-	KZN_4207-B
1366537.1367118.+	1366537	1367118	+	H37Ra	3043157.3043738.-	3043738	3043157	-	KZN_4207-B
3500740.3501219.+	3500740	3501219	+	H37Ra	3486141.3486620.+	3486141	3486620	+	KZN_4207-B
410718.412163.+	410718	412163	+	H37Ra	412242.413687.+	412242	413687	+	KZN_4207-B
4172161.4173444.+	4172161	4173444	+	H37Ra	4147264.4148547.+	4147264	4148547	+	KZN_4207-B
4208801.4209772.+	4208801	4209772	+	H37Ra	4183904.4184875.+	4183904	4184875	+	KZN_4207-B
1752814.1754850.-	1754850	1752814	-	H37Ra	2656806.2658842.+	2656806	2658842	+	KZN_4207-B
3895821.3897494.-	3897494	3895821	-	H37Ra	3873463.3875136.-	3875136	3873463	-	KZN_4207-B
2059853.2061082.+	2059853	2061082	+	H37Ra	2368450.2369679.-	2369679	2368450	-	KZN_4207-B
833364.833609.+	833364	833609	+	H37Ra	833062.833307.+	833062	833307	+	KZN_4207-B
843339.843584.+	843339	843584	+	H37Ra	833062.833307.+	833062	833307	+	KZN_4207-B
3559774.3561063.+	3559774	3561063	+	H37Ra	3545175.3546464.+	3545175	3546464	+	KZN_4207-B
2584920.2585129.-	2585129	2584920	-	H37Ra	1841254.1841463.+	1841254	1841463	+	KZN_4207-B
3847737.3848372.-	3848372	3847737	-	H37Ra	3830305.3830940.-	3830940	3830305	-	KZN_4207-B
3842372.3843199.-	3843199	3842372	-	H37Ra	3824880.3825767.-	3825767	3824880	-	KZN_4207-B
3424255.3426336.-	3426336	3424255	-	H37Ra	999614.1001695.+	999614	1001695	+	KZN_4207-B
3633942.3635693.-	3635693	3633942	-	H37Ra	3618013.3619764.-	3619764	3618013	-	KZN_4207-B
1340314.1340613.+	1340314	1340613	+	H37Ra	3069663.3069962.-	3069962	3069663	-	KZN_4207-B
362603.364471.+	362603	364471	+	H37Ra	364107.365966.+	364107	365966	+	KZN_4207-B
2519391.2520158.+	2519391	2520158	+	H37Ra	1906223.1906990.-	1906990	1906223	-	KZN_4207-B
1912104.1912328.+	1912104	1912328	+	H37Ra	2508622.2508846.-	2508846	2508622	-	KZN_4207-B
4392593.4393687.-	4393687	4392593	-	H37Ra	4367702.4368796.-	4368796	4367702	-	KZN_4207-B
4089963.4091171.-	4091171	4089963	-	H37Ra	4064837.4066045.-	4066045	4064837	-	KZN_4207-B
3337926.3338096.+	3337926	3338096	+	H37Ra	1087500.1087670.-	1087670	1087500	-	KZN_4207-B
2166638.2167231.-	2167231	2166638	-	H37Ra	2262292.2262885.+	2262292	2262885	+	KZN_4207-B
3383984.3384640.+	3383984	3384640	+	H37Ra	1041310.1041966.-	1041966	1041310	-	KZN_4207-B
3522244.3523461.-	3523461	3522244	-	H37Ra	3507645.3508862.-	3508862	3507645	-	KZN_4207-B
2462017.2463174.-	2463174	2462017	-	H37Ra	1963150.1964307.+	1963150	1964307	+	KZN_4207-B
1167089.1168120.-	1168120	1167089	-	H37Ra	3241888.3242919.+	3241888	3242919	+	KZN_4207-B
3207537.3208424.-	3208424	3207537	-	H37Ra	1217394.1218281.+	1217394	1218281	+	KZN_4207-B
2397871.2398137.-	2398137	2397871	-	H37Ra	2026770.2027036.+	2026770	2027036	+	KZN_4207-B
3146588.3147475.-	3147475	3146588	-	H37Ra	1278288.1279175.+	1278288	1279175	+	KZN_4207-B
1139608.1140216.+	1139608	1140216	+	H37Ra	3269793.3270401.-	3270401	3269793	-	KZN_4207-B
711894.712160.-	712160	711894	-	H37Ra	710894.711160.-	711160	710894	-	KZN_4207-B
3447954.3448469.-	3448469	3447954	-	H37Ra	977466.977981.+	977466	977981	+	KZN_4207-B
1233621.1234136.+	1233621	1234136	+	H37Ra	3176084.3176599.-	3176599	3176084	-	KZN_4207-B
1160226.1160717.-	1160717	1160226	-	H37Ra	3249292.3249783.+	3249292	3249783	+	KZN_4207-B
1165880.1166743.-	1166743	1165880	-	H37Ra	3243266.3244129.+	3243266	3244129	+	KZN_4207-B
1279267.1280130.+	1279267	1280130	+	H37Ra	3243266.3244129.+	3243266	3244129	+	KZN_4207-B
96772.98250.+	96772	98250	+	H37Ra	95544.97022.+	95544	97022	+	KZN_4207-B
1414636.1415250.+	1414636	1415250	+	H37Ra	2995024.2995638.-	2995638	2995024	-	KZN_4207-B
22995.24530.-	24530	22995	-	H37Ra	21738.23273.-	23273	21738	-	KZN_4207-B
1170684.1171979.+	1170684	1171979	+	H37Ra	1583907.1585202.+	1583907	1585202	+	KZN_4207-B
1342668.1343963.-	1343963	1342668	-	H37Ra	1583907.1585202.+	1583907	1585202	+	KZN_4207-B
2840524.2841819.-	2841819	2840524	-	H37Ra	1583907.1585202.+	1583907	1585202	+	KZN_4207-B
3393545.3394840.-	3394840	3393545	-	H37Ra	1583907.1585202.+	1583907	1585202	+	KZN_4207-B
3493559.3494854.+	3493559	3494854	+	H37Ra	1583907.1585202.+	1583907	1585202	+	KZN_4207-B
4137197.4137529.-	4137529	4137197	-	H37Ra	4112241.4112573.-	4112573	4112241	-	KZN_4207-B
4418857.4419207.-	4419207	4418857	-	H37Ra	4393966.4394316.-	4394316	4393966	-	KZN_4207-B
2102191.2103630.-	2103630	2102191	-	H37Ra	2325958.2327397.+	2325958	2327397	+	KZN_4207-B
3734497.3734883.+	3734497	3734883	+	H37Ra	3716299.3716685.+	3716299	3716685	+	KZN_4207-B
678435.679001.-	679001	678435	-	H37Ra	677435.678001.-	678001	677435	-	KZN_4207-B
1170684.1171979.+	1170684	1171979	+	H37Ra	3238029.3239324.-	3239324	3238029	-	KZN_4207-B
3393545.3394840.-	3394840	3393545	-	H37Ra	3238029.3239324.-	3239324	3238029	-	KZN_4207-B
3493559.3494854.+	3493559	3494854	+	H37Ra	3238029.3239324.-	3239324	3238029	-	KZN_4207-B
1342668.1343963.-	1343963	1342668	-	H37Ra	3238029.3239324.-	3239324	3238029	-	KZN_4207-B
2840524.2841819.-	2841819	2840524	-	H37Ra	3238029.3239324.-	3239324	3238029	-	KZN_4207-B
3065780.3067459.+	3065780	3067459	+	H37Ra	1359469.1361148.-	1361148	1359469	-	KZN_4207-B
2587392.2587826.+	2587392	2587826	+	H37Ra	1838557.1838991.-	1838991	1838557	-	KZN_4207-B
546145.546495.+	546145	546495	+	H37Ra	545094.545444.+	545094	545444	+	KZN_4207-B
1578240.1578842.+	1578240	1578842	+	H37Ra	2832846.2833448.-	2833448	2832846	-	KZN_4207-B
4310009.4311235.-	4311235	4310009	-	H37Ra	4285113.4286339.-	4286339	4285113	-	KZN_4207-B
3255560.3257440.+	3255560	3257440	+	H37Ra	1168155.1170035.-	1170035	1168155	-	KZN_4207-B
2133616.2134302.+	2133616	2134302	+	H37Ra	2295291.2295977.-	2295977	2295291	-	KZN_4207-B
1284366.1285481.-	1285481	1284366	-	H37Ra	3124795.3125910.+	3124795	3125910	+	KZN_4207-B
2630176.2630433.+	2630176	2630433	+	H37Ra	1795949.1796206.-	1796206	1795949	-	KZN_4207-B
836365.836511.-	836511	836365	-	H37Ra	836063.836209.-	836209	836063	-	KZN_4207-B
4070896.4071696.+	4070896	4071696	+	H37Ra	4044412.4045212.+	4044412	4045212	+	KZN_4207-B
2066453.2067355.+	2066453	2067355	+	H37Ra	2362177.2363079.-	2363079	2362177	-	KZN_4207-B
818837.819211.-	819211	818837	-	H37Ra	818535.818909.-	818909	818535	-	KZN_4207-B
855131.855463.-	855463	855131	-	H37Ra	855027.855359.-	855359	855027	-	KZN_4207-B
4137197.4137535.-	4137535	4137197	-	H37Ra	4112241.4112579.-	4112579	4112241	-	KZN_4207-B
2732744.2733409.-	2733409	2732744	-	H37Ra	1692182.1692847.+	1692182	1692847	+	KZN_4207-B
2449184.2449849.-	2449849	2449184	-	H37Ra	1692182.1692847.+	1692182	1692847	+	KZN_4207-B
2217588.2218397.+	2217588	2218397	+	H37Ra	2211306.2212115.-	2212115	2211306	-	KZN_4207-B
1109886.1110557.-	1110557	1109886	-	H37Ra	3299452.3300123.+	3299452	3300123	+	KZN_4207-B
1613566.1613703.+	1613566	1613703	+	H37Ra	2797985.2798122.-	2798122	2797985	-	KZN_4207-B
1274665.1276077.+	1274665	1276077	+	H37Ra	3134201.3135613.-	3135613	3134201	-	KZN_4207-B
2054855.2056774.-	2056774	2054855	-	H37Ra	2374116.2376035.+	2374116	2376035	+	KZN_4207-B
3569581.3569763.-	3569763	3569581	-	H37Ra	3553639.3553821.-	3553821	3553639	-	KZN_4207-B
255999.257330.-	257330	255999	-	H37Ra	254577.255908.-	255908	254577	-	KZN_4207-B
2764816.2764962.-	2764962	2764816	-	H37Ra	1660629.1660775.+	1660629	1660775	+	KZN_4207-B
2636558.2636860.-	2636860	2636558	-	H37Ra	1789522.1789824.+	1789522	1789824	+	KZN_4207-B
4203886.4204248.+	4203886	4204248	+	H37Ra	4178989.4179351.+	4178989	4179351	+	KZN_4207-B
4062328.4062489.-	4062489	4062328	-	H37Ra	4035844.4036005.-	4036005	4035844	-	KZN_4207-B
1080051.1082363.+	1080051	1082363	+	H37Ra	3327658.3329970.-	3329970	3327658	-	KZN_4207-B
587704.588690.+	587704	588690	+	H37Ra	586629.587615.+	586629	587615	+	KZN_4207-B
3991791.3992810.-	3992810	3991791	-	H37Ra	3965091.3966110.-	3966110	3965091	-	KZN_4207-B
1860218.1861276.+	1860218	1861276	+	H37Ra	2559627.2560685.-	2560685	2559627	-	KZN_4207-B
55021.57057.+	55021	57057	+	H37Ra	53765.55801.+	53765	55801	+	KZN_4207-B
70899.72917.+	70899	72917	+	H37Ra	69643.71661.+	69643	71661	+	KZN_4207-B
768623.769126.-	769126	768623	-	H37Ra	768160.768663.-	768663	768160	-	KZN_4207-B
2802987.2804468.-	2804468	2802987	-	H37Ra	1622484.1623965.+	1622484	1623965	+	KZN_4207-B
1689458.1690747.+	1689458	1690747	+	H37Ra	2720909.2722198.-	2722198	2720909	-	KZN_4207-B
1112878.1113531.+	1112878	1113531	+	H37Ra	3296478.3297131.-	3297131	3296478	-	KZN_4207-B
4133885.4134925.+	4133885	4134925	+	H37Ra	4108929.4109969.+	4108929	4109969	+	KZN_4207-B
873978.874598.-	874598	873978	-	H37Ra	873874.874494.-	874494	873874	-	KZN_4207-B
1263232.1263468.+	1263232	1263468	+	H37Ra	3146752.3146988.-	3146988	3146752	-	KZN_4207-B
3388659.3389024.-	3389024	3388659	-	H37Ra	1036926.1037291.+	1036926	1037291	+	KZN_4207-B
3427106.3427510.-	3427510	3427106	-	H37Ra	998440.998844.+	998440	998844	+	KZN_4207-B
3752824.3762261.-	3762261	3752824	-	H37Ra	3736306.3745743.-	3745743	3736306	-	KZN_4207-B
457631.458182.-	458182	457631	-	H37Ra	456525.457076.-	457076	456525	-	KZN_4207-B
3542146.3543303.-	3543303	3542146	-	H37Ra	3527547.3528704.-	3528704	3527547	-	KZN_4207-B
13665.14501.-	14501	13665	-	H37Ra	4059867.4060703.-	4060703	4059867	-	KZN_4207-B
890803.891639.+	890803	891639	+	H37Ra	4059867.4060703.-	4060703	4059867	-	KZN_4207-B
1543304.1544140.-	1544140	1543304	-	H37Ra	4059867.4060703.-	4060703	4059867	-	KZN_4207-B
1989483.1990319.-	1990319	1989483	-	H37Ra	4059867.4060703.-	4060703	4059867	-	KZN_4207-B
1997429.1998265.-	1998265	1997429	-	H37Ra	4059867.4060703.-	4060703	4059867	-	KZN_4207-B
2006262.2007098.+	2006262	2007098	+	H37Ra	4059867.4060703.-	4060703	4059867	-	KZN_4207-B
2375792.2376628.+	2375792	2376628	+	H37Ra	4059867.4060703.-	4060703	4059867	-	KZN_4207-B
2440061.2440897.-	2440897	2440061	-	H37Ra	4059867.4060703.-	4060703	4059867	-	KZN_4207-B
2560394.2561230.+	2560394	2561230	+	H37Ra	4059867.4060703.-	4060703	4059867	-	KZN_4207-B
2648021.2648857.+	2648021	2648857	+	H37Ra	4059867.4060703.-	4060703	4059867	-	KZN_4207-B
2796625.2797461.-	2797461	2796625	-	H37Ra	4059867.4060703.-	4060703	4059867	-	KZN_4207-B
3132534.3133370.-	3133370	3132534	-	H37Ra	4059867.4060703.-	4060703	4059867	-	KZN_4207-B
3563987.3564823.+	3563987	3564823	+	H37Ra	4059867.4060703.-	4060703	4059867	-	KZN_4207-B
3721699.3722535.+	3721699	3722535	+	H37Ra	4059867.4060703.-	4060703	4059867	-	KZN_4207-B
3804223.3805059.-	3805059	3804223	-	H37Ra	4059867.4060703.-	4060703	4059867	-	KZN_4207-B
3899932.3900768.+	3899932	3900768	+	H37Ra	4059867.4060703.-	4060703	4059867	-	KZN_4207-B
2984553.2985389.+	2984553	2985389	+	H37Ra	4059867.4060703.-	4060703	4059867	-	KZN_4207-B
2556787.2557656.+	2556787	2557656	+	H37Ra	1868727.1869596.-	1869596	1868727	-	KZN_4207-B
4162306.4164120.+	4162306	4164120	+	H37Ra	4137350.4139164.+	4137350	4139164	+	KZN_4207-B
2869821.2870225.-	2870225	2869821	-	H37Ra	1555501.1555905.+	1555501	1555905	+	KZN_4207-B
604120.605826.+	604120	605826	+	H37Ra	603045.604751.+	603045	604751	+	KZN_4207-B
1688401.1689405.+	1688401	1689405	+	H37Ra	2722251.2723255.-	2723255	2722251	-	KZN_4207-B
1367683.1368771.+	1367683	1368771	+	H37Ra	3041503.3042591.-	3042591	3041503	-	KZN_4207-B
2273326.2273901.+	2273326	2273901	+	H37Ra	2155802.2156377.-	2156377	2155802	-	KZN_4207-B
4318847.4319260.+	4318847	4319260	+	H37Ra	4293951.4294364.+	4293951	4294364	+	KZN_4207-B
2582919.2583611.+	2582919	2583611	+	H37Ra	1842772.1843464.-	1843464	1842772	-	KZN_4207-B
744025.747672.+	744025	747672	+	H37Ra	743562.747209.+	743562	747209	+	KZN_4207-B
739603.740514.-	740514	739603	-	H37Ra	738607.739518.-	739518	738607	-	KZN_4207-B
699214.699720.-	699720	699214	-	H37Ra	698214.698720.-	698720	698214	-	KZN_4207-B
1340663.1341679.+	1340663	1341679	+	H37Ra	3068441.3069613.-	3069613	3068441	-	KZN_4207-B
1533753.1534940.-	1534940	1533753	-	H37Ra	3068441.3069613.-	3069613	3068441	-	KZN_4207-B
3903106.3904284.+	3903106	3904284	+	H37Ra	3068441.3069613.-	3069613	3068441	-	KZN_4207-B
3193762.3195051.-	3195051	3193762	-	H37Ra	1230766.1232055.+	1230766	1232055	+	KZN_4207-B
2996701.2997222.+	2996701	2997222	+	H37Ra	1429863.1430384.-	1430384	1429863	-	KZN_4207-B
1760952.1761695.+	1760952	1761695	+	H37Ra	2649960.2650703.-	2650703	2649960	-	KZN_4207-B
3254962.3255273.+	3254962	3255273	+	H37Ra	1170322.1170633.-	1170633	1170322	-	KZN_4207-B
3591060.3591278.+	3591060	3591278	+	H37Ra	3575118.3575336.+	3575118	3575336	+	KZN_4207-B
3195840.3196559.+	3195840	3196559	+	H37Ra	1229258.1229977.-	1229977	1229258	-	KZN_4207-B
3923208.3924563.-	3924563	3923208	-	H37Ra	3899492.3900847.-	3900847	3899492	-	KZN_4207-B
2009663.2009938.+	2009663	2009938	+	H37Ra	2420952.2421227.-	2421227	2420952	-	KZN_4207-B
864604.865449.+	864604	865449	+	H37Ra	864500.865345.+	864500	865345	+	KZN_4207-B
877995.878135.+	877995	878135	+	H37Ra	877893.878033.+	877893	878033	+	KZN_4207-B
3135958.3136983.-	3136983	3135958	-	H37Ra	1288788.1289813.+	1288788	1289813	+	KZN_4207-B
2835224.2836570.-	2836570	2835224	-	H37Ra	1589156.1590502.+	1589156	1590502	+	KZN_4207-B
27271.28239.-	28239	27271	-	H37Ra	26014.26982.-	26982	26014	-	KZN_4207-B
2326179.2326580.+	2326179	2326580	+	H37Ra	2098120.2098521.-	2098521	2098120	-	KZN_4207-B
2863059.2863286.+	2863059	2863286	+	H37Ra	1562440.1562667.-	1562667	1562440	-	KZN_4207-B
1657126.1658253.-	1658253	1657126	-	H37Ra	2753403.2754530.+	2753403	2754530	+	KZN_4207-B
3523838.3524224.+	3523838	3524224	+	H37Ra	3509239.3509625.+	3509239	3509625	+	KZN_4207-B
3820313.3821023.+	3820313	3821023	+	H37Ra	3802881.3803591.+	3802881	3803591	+	KZN_4207-B
3550661.3552007.+	3550661	3552007	+	H37Ra	3536062.3537408.+	3536062	3537408	+	KZN_4207-B
1031886.1032674.-	1032674	1031886	-	H37Ra	3377344.3378132.+	3377344	3378132	+	KZN_4207-B
1316545.1321293.+	1316545	1321293	+	H37Ra	3088983.3093731.-	3093731	3088983	-	KZN_4207-B
3591420.3592094.+	3591420	3592094	+	H37Ra	3575478.3576152.+	3575478	3576152	+	KZN_4207-B
2995039.2995842.+	2995039	2995842	+	H37Ra	1431243.1432046.-	1432046	1431243	-	KZN_4207-B
3714305.3714706.-	3714706	3714305	-	H37Ra	3698255.3698656.-	3698656	3698255	-	KZN_4207-B
832164.832967.+	832164	832967	+	H37Ra	831862.832665.+	831862	832665	+	KZN_4207-B
4170764.4172164.+	4170764	4172164	+	H37Ra	4145867.4147267.+	4145867	4147267	+	KZN_4207-B
4140835.4141965.+	4140835	4141965	+	H37Ra	4115879.4117009.+	4115879	4117009	+	KZN_4207-B
2431545.2432180.-	2432180	2431545	-	H37Ra	1992785.1993420.+	1992785	1993420	+	KZN_4207-B
843339.843584.+	843339	843584	+	H37Ra	843235.843480.+	843235	843480	+	KZN_4207-B
833364.833609.+	833364	833609	+	H37Ra	843235.843480.+	843235	843480	+	KZN_4207-B
1122197.1123456.-	1123456	1122197	-	H37Ra	3286553.3287812.+	3286553	3287812	+	KZN_4207-B
570274.571116.-	571116	570274	-	H37Ra	569223.570065.-	570065	569223	-	KZN_4207-B
3515101.3515433.-	3515433	3515101	-	H37Ra	3500502.3500834.-	3500834	3500502	-	KZN_4207-B
233591.235837.+	233591	235837	+	H37Ra	232169.234415.+	232169	234415	+	KZN_4207-B
1540490.1540750.+	1540490	1540750	+	H37Ra	2869579.2869839.-	2869839	2869579	-	KZN_4207-B
3263064.3267680.+	3263064	3267680	+	H37Ra	1157915.1162531.-	1162531	1157915	-	KZN_4207-B
1274578.1276077.+	1274578	1276077	+	H37Ra	3134201.3135700.-	3135700	3134201	-	KZN_4207-B
1695513.1695953.-	1695953	1695513	-	H37Ra	2715703.2716143.+	2715703	2716143	+	KZN_4207-B
1166400.1166807.-	1166807	1166400	-	H37Ra	3130666.3131073.-	3131073	3130666	-	KZN_4207-B
1279203.1279610.+	1279203	1279610	+	H37Ra	3130666.3131073.-	3131073	3130666	-	KZN_4207-B
13665.14501.-	14501	13665	-	H37Ra	1781480.1782316.+	1781480	1782316	+	KZN_4207-B
890803.891639.+	890803	891639	+	H37Ra	1781480.1782316.+	1781480	1782316	+	KZN_4207-B
1543304.1544140.-	1544140	1543304	-	H37Ra	1781480.1782316.+	1781480	1782316	+	KZN_4207-B
1989483.1990319.-	1990319	1989483	-	H37Ra	1781480.1782316.+	1781480	1782316	+	KZN_4207-B
1997429.1998265.-	1998265	1997429	-	H37Ra	1781480.1782316.+	1781480	1782316	+	KZN_4207-B
2006262.2007098.+	2006262	2007098	+	H37Ra	1781480.1782316.+	1781480	1782316	+	KZN_4207-B
2375792.2376628.+	2375792	2376628	+	H37Ra	1781480.1782316.+	1781480	1782316	+	KZN_4207-B
2440061.2440897.-	2440897	2440061	-	H37Ra	1781480.1782316.+	1781480	1782316	+	KZN_4207-B
2560394.2561230.+	2560394	2561230	+	H37Ra	1781480.1782316.+	1781480	1782316	+	KZN_4207-B
2648021.2648857.+	2648021	2648857	+	H37Ra	1781480.1782316.+	1781480	1782316	+	KZN_4207-B
2796625.2797461.-	2797461	2796625	-	H37Ra	1781480.1782316.+	1781480	1782316	+	KZN_4207-B
3132534.3133370.-	3133370	3132534	-	H37Ra	1781480.1782316.+	1781480	1782316	+	KZN_4207-B
3563987.3564823.+	3563987	3564823	+	H37Ra	1781480.1782316.+	1781480	1782316	+	KZN_4207-B
3721699.3722535.+	3721699	3722535	+	H37Ra	1781480.1782316.+	1781480	1782316	+	KZN_4207-B
3804223.3805059.-	3805059	3804223	-	H37Ra	1781480.1782316.+	1781480	1782316	+	KZN_4207-B
3899932.3900768.+	3899932	3900768	+	H37Ra	1781480.1782316.+	1781480	1782316	+	KZN_4207-B
2984553.2985389.+	2984553	2985389	+	H37Ra	1781480.1782316.+	1781480	1782316	+	KZN_4207-B
3658668.3660164.+	3658668	3660164	+	H37Ra	3642739.3644235.+	3642739	3644235	+	KZN_4207-B
13665.14501.-	14501	13665	-	H37Ra	932092.932928.-	932928	932092	-	KZN_4207-B
890803.891639.+	890803	891639	+	H37Ra	932092.932928.-	932928	932092	-	KZN_4207-B
1543304.1544140.-	1544140	1543304	-	H37Ra	932092.932928.-	932928	932092	-	KZN_4207-B
1989483.1990319.-	1990319	1989483	-	H37Ra	932092.932928.-	932928	932092	-	KZN_4207-B
1997429.1998265.-	1998265	1997429	-	H37Ra	932092.932928.-	932928	932092	-	KZN_4207-B
2006262.2007098.+	2006262	2007098	+	H37Ra	932092.932928.-	932928	932092	-	KZN_4207-B
2375792.2376628.+	2375792	2376628	+	H37Ra	932092.932928.-	932928	932092	-	KZN_4207-B
2440061.2440897.-	2440897	2440061	-	H37Ra	932092.932928.-	932928	932092	-	KZN_4207-B
2560394.2561230.+	2560394	2561230	+	H37Ra	932092.932928.-	932928	932092	-	KZN_4207-B
2648021.2648857.+	2648021	2648857	+	H37Ra	932092.932928.-	932928	932092	-	KZN_4207-B
2796625.2797461.-	2797461	2796625	-	H37Ra	932092.932928.-	932928	932092	-	KZN_4207-B
3132534.3133370.-	3133370	3132534	-	H37Ra	932092.932928.-	932928	932092	-	KZN_4207-B
3563987.3564823.+	3563987	3564823	+	H37Ra	932092.932928.-	932928	932092	-	KZN_4207-B
3721699.3722535.+	3721699	3722535	+	H37Ra	932092.932928.-	932928	932092	-	KZN_4207-B
3804223.3805059.-	3805059	3804223	-	H37Ra	932092.932928.-	932928	932092	-	KZN_4207-B
3899932.3900768.+	3899932	3900768	+	H37Ra	932092.932928.-	932928	932092	-	KZN_4207-B
2984553.2985389.+	2984553	2985389	+	H37Ra	932092.932928.-	932928	932092	-	KZN_4207-B
879944.880630.+	879944	880630	+	H37Ra	879842.880528.+	879842	880528	+	KZN_4207-B
3909170.3909880.-	3909880	3909170	-	H37Ra	3885454.3886164.-	3886164	3885454	-	KZN_4207-B
4140964.4141965.+	4140964	4141965	+	H37Ra	4116008.4117009.+	4116008	4117009	+	KZN_4207-B
2012558.2013802.+	2012558	2013802	+	H37Ra	2417088.2418332.-	2418332	2417088	-	KZN_4207-B
2228009.2228617.+	2228009	2228617	+	H37Ra	2201086.2201694.-	2201694	2201086	-	KZN_4207-B
2637076.2638602.-	2638602	2637076	-	H37Ra	1787780.1789306.+	1787780	1789306	+	KZN_4207-B
2479289.2480575.-	2480575	2479289	-	H37Ra	1945806.1947092.+	1945806	1947092	+	KZN_4207-B
1906765.1907760.+	1906765	1907760	+	H37Ra	2513190.2514185.-	2514185	2513190	-	KZN_4207-B
1294048.1294713.+	1294048	1294713	+	H37Ra	3115563.3116228.-	3116228	3115563	-	KZN_4207-B
2397104.2397874.-	2397874	2397104	-	H37Ra	2027033.2027803.+	2027033	2027803	+	KZN_4207-B
2192359.2193138.-	2193138	2192359	-	H37Ra	2236565.2237344.+	2236565	2237344	+	KZN_4207-B
1215804.1216256.+	1215804	1216256	+	H37Ra	3193882.3194334.-	3194334	3193882	-	KZN_4207-B
737604.738509.-	738509	737604	-	H37Ra	736608.737513.-	737513	736608	-	KZN_4207-B
3127002.3127271.+	3127002	3127271	+	H37Ra	1298298.1298567.-	1298567	1298298	-	KZN_4207-B
4311844.4313469.-	4313469	4311844	-	H37Ra	4286948.4288573.-	4288573	4286948	-	KZN_4207-B
2443533.2444438.-	2444438	2443533	-	H37Ra	1981885.1982790.+	1981885	1982790	+	KZN_4207-B
1957210.1958763.-	1958763	1957210	-	H37Ra	2462131.2463684.+	2462131	2463684	+	KZN_4207-B
2933519.2935150.+	2933519	2935150	+	H37Ra	1490577.1492208.-	1492208	1490577	-	KZN_4207-B
641948.642214.-	642214	641948	-	H37Ra	640957.641223.-	641223	640957	-	KZN_4207-B
710909.711658.+	710909	711658	+	H37Ra	709909.710658.+	709909	710658	+	KZN_4207-B
2845478.2845729.-	2845729	2845478	-	H37Ra	1579997.1580248.+	1579997	1580248	+	KZN_4207-B
4243757.4244185.+	4243757	4244185	+	H37Ra	4218860.4219288.+	4218860	4219288	+	KZN_4207-B
1340284.1340613.+	1340284	1340613	+	H37Ra	3069663.3069992.-	3069992	3069663	-	KZN_4207-B
401554.403065.+	401554	403065	+	H37Ra	403078.404589.+	403078	404589	+	KZN_4207-B
607861.609372.+	607861	609372	+	H37Ra	403078.404589.+	403078	404589	+	KZN_4207-B
705140.705367.+	705140	705367	+	H37Ra	704140.704367.+	704140	704367	+	KZN_4207-B
3883499.3884767.+	3883499	3884767	+	H37Ra	3861141.3862409.+	3861141	3862409	+	KZN_4207-B
2987896.2988387.-	2988387	2987896	-	H37Ra	1438698.1439189.+	1438698	1439189	+	KZN_4207-B
2299182.2299499.-	2299499	2299182	-	H37Ra	2125204.2125521.+	2125204	2125521	+	KZN_4207-B
1624078.1624317.+	1624078	1624317	+	H37Ra	2787407.2787646.-	2787646	2787407	-	KZN_4207-B
4168958.4169341.-	4169341	4168958	-	H37Ra	4144061.4144444.-	4144444	4144061	-	KZN_4207-B
2556392.2556709.-	2556709	2556392	-	H37Ra	1869674.1869991.+	1869674	1869991	+	KZN_4207-B
3809140.3809919.+	3809140	3809919	+	H37Ra	3791263.3792042.+	3791263	3792042	+	KZN_4207-B
945649.946041.+	945649	946041	+	H37Ra	3464039.3464431.-	3464431	3464039	-	KZN_4207-B
3404982.3405371.+	3404982	3405371	+	H37Ra	1020579.1020968.-	1020968	1020579	-	KZN_4207-B
3904314.3907562.+	3904314	3907562	+	H37Ra	3880598.3883846.+	3880598	3883846	+	KZN_4207-B
2438137.2439171.-	2439171	2438137	-	H37Ra	1985794.1986828.+	1985794	1986828	+	KZN_4207-B
2841922.2842107.+	2841922	2842107	+	H37Ra	1583619.1583804.-	1583804	1583619	-	KZN_4207-B
3820397.3821023.+	3820397	3821023	+	H37Ra	3802965.3803591.+	3802965	3803591	+	KZN_4207-B
3369771.3370736.+	3369771	3370736	+	H37Ra	1055214.1056179.-	1056179	1055214	-	KZN_4207-B
2122994.2125408.+	2122994	2125408	+	H37Ra	2304185.2306599.-	2306599	2304185	-	KZN_4207-B
3752824.3760242.-	3760242	3752824	-	H37Ra	3736306.3743724.-	3743724	3736306	-	KZN_4207-B
1420324.1421097.-	1421097	1420324	-	H37Ra	2989177.2989950.+	2989177	2989950	+	KZN_4207-B
1712545.1713585.+	1712545	1713585	+	H37Ra	2698071.2699111.-	2699111	2698071	-	KZN_4207-B
2955568.2956953.-	2956953	2955568	-	H37Ra	1468774.1470159.+	1468774	1470159	+	KZN_4207-B
933585.934238.-	934238	933585	-	H37Ra	3475842.3476495.+	3475842	3476495	+	KZN_4207-B
1179913.1180059.-	1180059	1179913	-	H37Ra	3229949.3230095.+	3229949	3230095	+	KZN_4207-B
3644422.3645846.+	3644422	3645846	+	H37Ra	3628493.3629917.+	3628493	3629917	+	KZN_4207-B
384994.385848.+	384994	385848	+	H37Ra	386518.387372.+	386518	387372	+	KZN_4207-B
3679734.3680171.-	3680171	3679734	-	H37Ra	3663742.3664179.-	3664179	3663742	-	KZN_4207-B
4166661.4167368.+	4166661	4167368	+	H37Ra	4141764.4142471.+	4141764	4142471	+	KZN_4207-B
2455709.2456851.-	2456851	2455709	-	H37Ra	1969473.1970615.+	1969473	1970615	+	KZN_4207-B
4037634.4038452.-	4038452	4037634	-	H37Ra	4010931.4011749.-	4011749	4010931	-	KZN_4207-B
1863865.1865025.-	1865025	1863865	-	H37Ra	2555878.2557038.+	2555878	2557038	+	KZN_4207-B
1814686.1816095.+	1814686	1816095	+	H37Ra	2604808.2606217.-	2606217	2604808	-	KZN_4207-B
1715689.1719225.-	1719225	1715689	-	H37Ra	2692431.2695967.+	2692431	2695967	+	KZN_4207-B
3351260.3351931.+	3351260	3351931	+	H37Ra	1074019.1074690.-	1074690	1074019	-	KZN_4207-B
2766711.2768687.-	2768687	2766711	-	H37Ra	1656904.1658880.+	1656904	1658880	+	KZN_4207-B
1192066.1193457.-	1193457	1192066	-	H37Ra	3216554.3217945.+	3216554	3217945	+	KZN_4207-B
105068.106021.-	106021	105068	-	H37Ra	2629988.2630944.+	2629988	2630944	+	KZN_4207-B
3892641.3893594.+	3892641	3893594	+	H37Ra	2629988.2630944.+	2629988	2630944	+	KZN_4207-B
105068.105931.-	105931	105068	-	H37Ra	103840.104703.-	104703	103840	-	KZN_4207-B
3892731.3893594.+	3892731	3893594	+	H37Ra	103840.104703.-	104703	103840	-	KZN_4207-B
42662.43270.+	42662	43270	+	H37Ra	41406.42014.+	41406	42014	+	KZN_4207-B
2910011.2910751.+	2910011	2910751	+	H37Ra	1514976.1515716.-	1515716	1514976	-	KZN_4207-B
4311232.4311843.-	4311843	4311232	-	H37Ra	4286336.4286947.-	4286947	4286336	-	KZN_4207-B
3889109.3889459.-	3889459	3889109	-	H37Ra	3866751.3867101.-	3867101	3866751	-	KZN_4207-B
2693983.2695110.-	2695110	2693983	-	H37Ra	1730448.1731575.+	1730448	1731575	+	KZN_4207-B
1096194.1096367.+	1096194	1096367	+	H37Ra	3313642.3313815.-	3313815	3313642	-	KZN_4207-B
564033.564803.-	564803	564033	-	H37Ra	562982.563752.-	563752	562982	-	KZN_4207-B
3037400.3038815.+	3037400	3038815	+	H37Ra	1388113.1389528.-	1389528	1388113	-	KZN_4207-B
1704114.1704533.+	1704114	1704533	+	H37Ra	2707123.2707542.-	2707542	2707123	-	KZN_4207-B
3119279.3119626.-	3119626	3119279	-	H37Ra	1305943.1306290.+	1305943	1306290	+	KZN_4207-B
1260377.1262761.-	1262761	1260377	-	H37Ra	3147459.3149843.+	3147459	3149843	+	KZN_4207-B
2893726.2894115.+	2893726	2894115	+	H37Ra	1531612.1532001.-	1532001	1531612	-	KZN_4207-B
1811758.1812576.+	1811758	1812576	+	H37Ra	2608327.2609145.-	2609145	2608327	-	KZN_4207-B
4024862.4025749.+	4024862	4025749	+	H37Ra	3998159.3999046.+	3998159	3999046	+	KZN_4207-B
2587012.2587605.+	2587012	2587605	+	H37Ra	1838778.1839371.-	1839371	1838778	-	KZN_4207-B
3567653.3567862.+	3567653	3567862	+	H37Ra	3551696.3551905.+	3551696	3551905	+	KZN_4207-B
3650655.3650924.-	3650924	3650655	-	H37Ra	3634726.3634995.-	3634995	3634726	-	KZN_4207-B
2538884.2539078.-	2539078	2538884	-	H37Ra	1887303.1887497.+	1887303	1887497	+	KZN_4207-B
2591328.2591651.-	2591651	2591328	-	H37Ra	1834732.1835055.+	1834732	1835055	+	KZN_4207-B
1078541.1079143.-	1079143	1078541	-	H37Ra	3330878.3331480.+	3330878	3331480	+	KZN_4207-B
34940.35152.+	34940	35152	+	H37Ra	33683.33895.+	33683	33895	+	KZN_4207-B
89156.89362.-	89362	89156	-	H37Ra	87928.88134.-	88134	87928	-	KZN_4207-B
4102387.4102974.+	4102387	4102974	+	H37Ra	4077260.4077847.+	4077260	4077847	+	KZN_4207-B
1486623.1487081.-	1487081	1486623	-	H37Ra	2923250.2923708.+	2923250	2923708	+	KZN_4207-B
1015705.1015863.+	1015705	1015863	+	H37Ra	3394155.3394313.-	3394313	3394155	-	KZN_4207-B
4106542.4107615.-	4107615	4106542	-	H37Ra	4081415.4082488.-	4082488	4081415	-	KZN_4207-B
2134762.2134980.-	2134980	2134762	-	H37Ra	2294613.2294831.+	2294613	2294831	+	KZN_4207-B
2704767.2705852.+	2704767	2705852	+	H37Ra	1719706.1720791.-	1720791	1719706	-	KZN_4207-B
830253.830465.+	830253	830465	+	H37Ra	829951.830163.+	829951	830163	+	KZN_4207-B
504456.504608.+	504456	504608	+	H37Ra	503405.503557.+	503405	503557	+	KZN_4207-B
457631.458293.-	458293	457631	-	H37Ra	456525.457187.-	457187	456525	-	KZN_4207-B
1377540.1378136.-	1378136	1377540	-	H37Ra	3032138.3032734.+	3032138	3032734	+	KZN_4207-B
4220673.4221428.+	4220673	4221428	+	H37Ra	4195776.4196531.+	4195776	4196531	+	KZN_4207-B
3085648.3086448.-	3086448	3085648	-	H37Ra	1340480.1341280.+	1340480	1341280	+	KZN_4207-B
3879761.3881209.-	3881209	3879761	-	H37Ra	3857403.3858851.-	3858851	3857403	-	KZN_4207-B
2865224.2866234.+	2865224	2866234	+	H37Ra	1559492.1560502.-	1560502	1559492	-	KZN_4207-B
662605.664683.+	662605	664683	+	H37Ra	661614.663692.+	661614	663692	+	KZN_4207-B
184775.184921.+	184775	184921	+	H37Ra	183353.183499.+	183353	183499	+	KZN_4207-B
2518336.2519295.-	2519295	2518336	-	H37Ra	1907086.1908045.+	1907086	1908045	+	KZN_4207-B
3608334.3608549.-	3608549	3608334	-	H37Ra	3592405.3592620.-	3592620	3592405	-	KZN_4207-B
954101.954535.+	954101	954535	+	H37Ra	3455545.3455979.-	3455979	3455545	-	KZN_4207-B
2717454.2717726.-	2717726	2717454	-	H37Ra	1707868.1708140.+	1707868	1708140	+	KZN_4207-B
2520253.2520489.-	2520489	2520253	-	H37Ra	1905892.1906128.+	1905892	1906128	+	KZN_4207-B
1018128.1018523.-	1018523	1018128	-	H37Ra	3391495.3391890.+	3391495	3391890	+	KZN_4207-B
2772822.2774348.+	2772822	2774348	+	H37Ra	1651243.1652769.-	1652769	1651243	-	KZN_4207-B
1348246.1348998.-	1348998	1348246	-	H37Ra	3061277.3062029.+	3061277	3062029	+	KZN_4207-B
2872414.2873112.+	2872414	2873112	+	H37Ra	1552614.1553312.-	1553312	1552614	-	KZN_4207-B
4126976.4127137.-	4127137	4126976	-	H37Ra	4101849.4102010.-	4102010	4101849	-	KZN_4207-B
1087064.1088659.-	1088659	1087064	-	H37Ra	3321362.3322957.+	3321362	3322957	+	KZN_4207-B
3909170.3909916.-	3909916	3909170	-	H37Ra	3885454.3886200.-	3886200	3885454	-	KZN_4207-B
2972073.2974409.-	2974409	2972073	-	H37Ra	1451318.1453654.+	1451318	1453654	+	KZN_4207-B
4275399.4277342.-	4277342	4275399	-	H37Ra	4250503.4252446.-	4252446	4250503	-	KZN_4207-B
276072.276266.-	276266	276072	-	H37Ra	274650.274844.-	274844	274650	-	KZN_4207-B
704123.704509.+	704123	704509	+	H37Ra	703123.703509.+	703123	703509	+	KZN_4207-B
1055073.1055549.+	1055073	1055549	+	H37Ra	3354469.3354945.-	3354945	3354469	-	KZN_4207-B
3125626.3126780.+	3125626	3126780	+	H37Ra	1298789.1299943.-	1299943	1298789	-	KZN_4207-B
2602627.2604042.-	2604042	2602627	-	H37Ra	1822341.1823756.+	1822341	1823756	+	KZN_4207-B
768623.768943.-	768943	768623	-	H37Ra	768160.768480.-	768480	768160	-	KZN_4207-B
3882114.3882809.+	3882114	3882809	+	H37Ra	3859756.3860451.+	3859756	3860451	+	KZN_4207-B
1812645.1813877.+	1812645	1813877	+	H37Ra	2607026.2608258.-	2608258	2607026	-	KZN_4207-B
1165472.1165744.-	1165744	1165472	-	H37Ra	3244265.3244537.+	3244265	3244537	+	KZN_4207-B
2796091.2796576.-	2796576	2796091	-	H37Ra	1629018.1629503.+	1629018	1629503	+	KZN_4207-B
3711197.3711367.-	3711367	3711197	-	H37Ra	3695147.3695317.-	3695317	3695147	-	KZN_4207-B
3579892.3582081.-	3582081	3579892	-	H37Ra	3563950.3566139.-	3566139	3563950	-	KZN_4207-B
3319572.3320546.-	3320546	3319572	-	H37Ra	1105050.1106024.+	1105050	1106024	+	KZN_4207-B
3483569.3484006.-	3484006	3483569	-	H37Ra	941929.942366.+	941929	942366	+	KZN_4207-B
3056343.3056957.-	3056957	3056343	-	H37Ra	1369971.1370585.+	1369971	1370585	+	KZN_4207-B
259145.260218.-	260218	259145	-	H37Ra	257723.258796.-	258796	257723	-	KZN_4207-B
2988554.2988970.-	2988970	2988554	-	H37Ra	1438115.1438531.+	1438115	1438531	+	KZN_4207-B
3032291.3032479.+	3032291	3032479	+	H37Ra	1394449.1394637.-	1394637	1394449	-	KZN_4207-B
3154301.3155611.-	3155611	3154301	-	H37Ra	1270152.1271462.+	1270152	1271462	+	KZN_4207-B
1055049.1055549.+	1055049	1055549	+	H37Ra	3354469.3354969.-	3354969	3354469	-	KZN_4207-B
1850035.1853553.-	1853553	1850035	-	H37Ra	2567350.2570868.+	2567350	2570868	+	KZN_4207-B
3411589.3412374.-	3412374	3411589	-	H37Ra	1013576.1014361.+	1013576	1014361	+	KZN_4207-B
2640441.2641979.-	2641979	2640441	-	H37Ra	1784403.1785941.+	1784403	1785941	+	KZN_4207-B
1179913.1180125.-	1180125	1179913	-	H37Ra	3229883.3230095.+	3229883	3230095	+	KZN_4207-B
453657.454517.-	454517	453657	-	H37Ra	455157.456017.-	456017	455157	-	KZN_4207-B
202334.203839.+	202334	203839	+	H37Ra	200912.202417.+	200912	202417	+	KZN_4207-B
2593181.2593333.+	2593181	2593333	+	H37Ra	1833050.1833202.-	1833202	1833050	-	KZN_4207-B
2663721.2663906.+	2663721	2663906	+	H37Ra	1761652.1761837.-	1761837	1761652	-	KZN_4207-B
2177581.2180622.-	2180622	2177581	-	H37Ra	2249114.2252155.+	2249114	2252155	+	KZN_4207-B
1266397.1266765.-	1266765	1266397	-	H37Ra	3143455.3143823.+	3143455	3143823	+	KZN_4207-B
2482395.2483144.+	2482395	2483144	+	H37Ra	1943237.1943986.-	1943986	1943237	-	KZN_4207-B
4333520.4333924.+	4333520	4333924	+	H37Ra	4308624.4309028.+	4308624	4309028	+	KZN_4207-B
2479289.2480365.-	2480365	2479289	-	H37Ra	1946016.1947092.+	1946016	1947092	+	KZN_4207-B
3809846.3810586.+	3809846	3810586	+	H37Ra	3791969.3792709.+	3791969	3792709	+	KZN_4207-B
2642469.2642696.+	2642469	2642696	+	H37Ra	1783686.1783913.-	1783913	1783686	-	KZN_4207-B
800935.801156.+	800935	801156	+	H37Ra	800471.800692.+	800471	800692	+	KZN_4207-B
4359512.4360627.+	4359512	4360627	+	H37Ra	4334616.4335731.+	4334616	4335731	+	KZN_4207-B
1569419.1570897.-	1570897	1569419	-	H37Ra	2840790.2842268.+	2840790	2842268	+	KZN_4207-B
2888544.2888945.-	2888945	2888544	-	H37Ra	1536781.1537182.+	1536781	1537182	+	KZN_4207-B
3501662.3502531.+	3501662	3502531	+	H37Ra	3487063.3487932.+	3487063	3487932	+	KZN_4207-B
106163.106459.-	106459	106163	-	H37Ra	104935.105231.-	105231	104935	-	KZN_4207-B
2593716.2594312.+	2593716	2594312	+	H37Ra	1832071.1832667.-	1832667	1832071	-	KZN_4207-B
447894.448409.-	448409	447894	-	H37Ra	449394.449909.-	449909	449394	-	KZN_4207-B
187855.187980.-	187980	187855	-	H37Ra	186433.186558.-	186558	186433	-	KZN_4207-B
2211122.2211643.-	2211643	2211122	-	H37Ra	2218060.2218581.+	2218060	2218581	+	KZN_4207-B
1940356.1941120.+	1940356	1941120	+	H37Ra	2479830.2480594.-	2480594	2479830	-	KZN_4207-B
978164.979441.-	979441	978164	-	H37Ra	3430577.3431854.+	3430577	3431854	+	KZN_4207-B
86994.87848.-	87848	86994	-	H37Ra	85766.86620.-	86620	85766	-	KZN_4207-B
3714943.3715281.+	3714943	3715281	+	H37Ra	3698893.3699231.+	3698893	3699231	+	KZN_4207-B
105068.105787.-	105787	105068	-	H37Ra	103840.104559.-	104559	103840	-	KZN_4207-B
3892875.3893594.+	3892875	3893594	+	H37Ra	103840.104559.-	104559	103840	-	KZN_4207-B
701573.702499.+	701573	702499	+	H37Ra	700573.701499.+	700573	701499	+	KZN_4207-B
2578890.2579957.+	2578890	2579957	+	H37Ra	1846426.1847493.-	1847493	1846426	-	KZN_4207-B
365188.365409.+	365188	365409	+	H37Ra	366683.366904.+	366683	366904	+	KZN_4207-B
2992931.2993398.-	2993398	2992931	-	H37Ra	1433687.1434154.+	1433687	1434154	+	KZN_4207-B
3392849.3393163.-	3393163	3392849	-	H37Ra	1032787.1033101.+	1032787	1033101	+	KZN_4207-B
69776.69937.+	69776	69937	+	H37Ra	68520.68681.+	68520	68681	+	KZN_4207-B
954131.954535.+	954131	954535	+	H37Ra	3455545.3455949.-	3455949	3455545	-	KZN_4207-B
615636.616040.-	616040	615636	-	H37Ra	614561.614965.-	614965	614561	-	KZN_4207-B
3199013.3199603.+	3199013	3199603	+	H37Ra	1226214.1226804.-	1226804	1226214	-	KZN_4207-B
522821.523477.+	522821	523477	+	H37Ra	521770.522426.+	521770	522426	+	KZN_4207-B
3916749.3916913.+	3916749	3916913	+	H37Ra	3893033.3893197.+	3893033	3893197	+	KZN_4207-B
2408305.2408586.+	2408305	2408586	+	H37Ra	2016321.2016602.-	2016602	2016321	-	KZN_4207-B
3212786.3214012.-	3214012	3212786	-	H37Ra	1211806.1213032.+	1211806	1213032	+	KZN_4207-B
3862617.3863471.-	3863471	3862617	-	H37Ra	3840259.3841113.-	3841113	3840259	-	KZN_4207-B
1578057.1578842.+	1578057	1578842	+	H37Ra	2832846.2833631.-	2833631	2832846	-	KZN_4207-B
2772732.2774348.+	2772732	2774348	+	H37Ra	1651243.1652859.-	1652859	1651243	-	KZN_4207-B
3284185.3285201.+	3284185	3285201	+	H37Ra	1140394.1141410.-	1141410	1140394	-	KZN_4207-B
4051617.4051700.-	4051700	4051617	-	H37Ra	4024915.4024998.-	4024998	4024915	-	KZN_4207-B
3904497.3907562.+	3904497	3907562	+	H37Ra	3880781.3883846.+	3880781	3883846	+	KZN_4207-B
2410278.2411630.-	2411630	2410278	-	H37Ra	2013277.2014629.+	2013277	2014629	+	KZN_4207-B
3148612.3149004.-	3149004	3148612	-	H37Ra	1276759.1277151.+	1276759	1277151	+	KZN_4207-B
2110954.2111580.+	2110954	2111580	+	H37Ra	2318014.2318640.-	2318640	2318014	-	KZN_4207-B
1058954.1059271.-	1059271	1058954	-	H37Ra	3350747.3351064.+	3350747	3351064	+	KZN_4207-B
2002424.2002657.+	2002424	2002657	+	H37Ra	2427587.2427820.-	2427820	2427587	-	KZN_4207-B
2717730.2718704.+	2717730	2718704	+	H37Ra	1706890.1707864.-	1707864	1706890	-	KZN_4207-B
2270565.2271044.+	2270565	2271044	+	H37Ra	2158659.2159138.-	2159138	2158659	-	KZN_4207-B
3347952.3348497.+	3347952	3348497	+	H37Ra	1077099.1077644.-	1077644	1077099	-	KZN_4207-B
2344752.2344922.-	2344922	2344752	-	H37Ra	2079778.2079948.+	2079778	2079948	+	KZN_4207-B
1180705.1181886.+	1180705	1181886	+	H37Ra	3228122.3229303.-	3229303	3228122	-	KZN_4207-B
425506.426063.-	426063	425506	-	H37Ra	427081.427638.-	427638	427081	-	KZN_4207-B
3787682.3789457.+	3787682	3789457	+	H37Ra	3771163.3772938.+	3771163	3772938	+	KZN_4207-B
173561.174502.+	173561	174502	+	H37Ra	172140.173081.+	172140	173081	+	KZN_4207-B
1930649.1931239.-	1931239	1930649	-	H37Ra	2489711.2490301.+	2489711	2490301	+	KZN_4207-B
3301697.3302227.+	3301697	3302227	+	H37Ra	1123368.1123898.-	1123898	1123368	-	KZN_4207-B
3439393.3441675.+	3439393	3441675	+	H37Ra	984260.986542.-	986542	984260	-	KZN_4207-B
4103107.4103415.-	4103415	4103107	-	H37Ra	4077980.4078288.-	4078288	4077980	-	KZN_4207-B
849409.851346.-	851346	849409	-	H37Ra	849305.851242.-	851242	849305	-	KZN_4207-B
567092.567706.+	567092	567706	+	H37Ra	566041.566655.+	566041	566655	+	KZN_4207-B
111665.118897.+	111665	118897	+	H37Ra	110437.117669.+	110437	117669	+	KZN_4207-B
3398244.3399089.-	3399089	3398244	-	H37Ra	1026861.1027706.+	1026861	1027706	+	KZN_4207-B
2211642.2211995.+	2211642	2211995	+	H37Ra	2217708.2218061.-	2218061	2217708	-	KZN_4207-B
13665.14501.-	14501	13665	-	H37Ra	2372709.2373545.+	2372709	2373545	+	KZN_4207-B
890803.891639.+	890803	891639	+	H37Ra	2372709.2373545.+	2372709	2373545	+	KZN_4207-B
1543304.1544140.-	1544140	1543304	-	H37Ra	2372709.2373545.+	2372709	2373545	+	KZN_4207-B
1989483.1990319.-	1990319	1989483	-	H37Ra	2372709.2373545.+	2372709	2373545	+	KZN_4207-B
1997429.1998265.-	1998265	1997429	-	H37Ra	2372709.2373545.+	2372709	2373545	+	KZN_4207-B
2006262.2007098.+	2006262	2007098	+	H37Ra	2372709.2373545.+	2372709	2373545	+	KZN_4207-B
2375792.2376628.+	2375792	2376628	+	H37Ra	2372709.2373545.+	2372709	2373545	+	KZN_4207-B
2440061.2440897.-	2440897	2440061	-	H37Ra	2372709.2373545.+	2372709	2373545	+	KZN_4207-B
2560394.2561230.+	2560394	2561230	+	H37Ra	2372709.2373545.+	2372709	2373545	+	KZN_4207-B
2648021.2648857.+	2648021	2648857	+	H37Ra	2372709.2373545.+	2372709	2373545	+	KZN_4207-B
2796625.2797461.-	2797461	2796625	-	H37Ra	2372709.2373545.+	2372709	2373545	+	KZN_4207-B
3132534.3133370.-	3133370	3132534	-	H37Ra	2372709.2373545.+	2372709	2373545	+	KZN_4207-B
3563987.3564823.+	3563987	3564823	+	H37Ra	2372709.2373545.+	2372709	2373545	+	KZN_4207-B
3721699.3722535.+	3721699	3722535	+	H37Ra	2372709.2373545.+	2372709	2373545	+	KZN_4207-B
3804223.3805059.-	3805059	3804223	-	H37Ra	2372709.2373545.+	2372709	2373545	+	KZN_4207-B
3899932.3900768.+	3899932	3900768	+	H37Ra	2372709.2373545.+	2372709	2373545	+	KZN_4207-B
2984553.2985389.+	2984553	2985389	+	H37Ra	2372709.2373545.+	2372709	2373545	+	KZN_4207-B
275668.276081.-	276081	275668	-	H37Ra	274246.274659.-	274659	274246	-	KZN_4207-B
666744.666911.-	666911	666744	-	H37Ra	665753.665920.-	665920	665753	-	KZN_4207-B
2723300.2724853.-	2724853	2723300	-	H37Ra	1700741.1702294.+	1700741	1702294	+	KZN_4207-B
1743761.1744369.+	1743761	1744369	+	H37Ra	2667287.2667895.-	2667895	2667287	-	KZN_4207-B
1901490.1901765.+	1901490	1901765	+	H37Ra	2519185.2519460.-	2519460	2519185	-	KZN_4207-B
1078541.1079233.-	1079233	1078541	-	H37Ra	3330788.3331480.+	3330788	3331480	+	KZN_4207-B
1113692.1114768.+	1113692	1114768	+	H37Ra	3295241.3296317.-	3296317	3295241	-	KZN_4207-B
2522354.2525146.+	2522354	2525146	+	H37Ra	1901235.1904027.-	1904027	1901235	-	KZN_4207-B
134379.135128.+	134379	135128	+	H37Ra	133152.133901.+	133152	133901	+	KZN_4207-B
4278286.4278819.-	4278819	4278286	-	H37Ra	4253390.4253923.-	4253923	4253390	-	KZN_4207-B
546046.546432.-	546432	546046	-	H37Ra	544995.545381.-	545381	544995	-	KZN_4207-B
1639898.1641163.+	1639898	1641163	+	H37Ra	2770546.2771811.-	2771811	2770546	-	KZN_4207-B
2804691.2805968.-	2805968	2804691	-	H37Ra	1620984.1622261.+	1620984	1622261	+	KZN_4207-B
3430882.3431532.-	3431532	3430882	-	H37Ra	994418.995068.+	994418	995068	+	KZN_4207-B
2875175.2876377.-	2876377	2875175	-	H37Ra	1549349.1550551.+	1549349	1550551	+	KZN_4207-B
2353894.2354124.+	2353894	2354124	+	H37Ra	2070564.2070794.-	2070794	2070564	-	KZN_4207-B
2991294.2991659.-	2991659	2991294	-	H37Ra	1435426.1435791.+	1435426	1435791	+	KZN_4207-B
2416742.2417527.-	2417527	2416742	-	H37Ra	2007438.2008223.+	2007438	2008223	+	KZN_4207-B
1263582.1265438.-	1265438	1263582	-	H37Ra	3144782.3146638.+	3144782	3146638	+	KZN_4207-B
2638685.2640223.-	2640223	2638685	-	H37Ra	1786159.1787697.+	1786159	1787697	+	KZN_4207-B
1641191.1642198.-	1642198	1641191	-	H37Ra	2769511.2770518.+	2769511	2770518	+	KZN_4207-B
463443.464615.+	463443	464615	+	H37Ra	462392.463564.+	462392	463564	+	KZN_4207-B
18825.20102.-	20102	18825	-	H37Ra	17568.18845.-	18845	17568	-	KZN_4207-B
1776377.1776661.-	1776661	1776377	-	H37Ra	2634994.2635278.+	2634994	2635278	+	KZN_4207-B
2591112.2591381.+	2591112	2591381	+	H37Ra	1835002.1835271.-	1835271	1835002	-	KZN_4207-B
1208692.1208958.+	1208692	1208958	+	H37Ra	3201054.3201320.-	3201320	3201054	-	KZN_4207-B
2064089.2065282.-	2065282	2064089	-	H37Ra	2364250.2365443.+	2364250	2365443	+	KZN_4207-B
3187446.3189302.-	3189302	3187446	-	H37Ra	1236515.1238371.+	1236515	1238371	+	KZN_4207-B
561198.562058.+	561198	562058	+	H37Ra	560147.561007.+	560147	561007	+	KZN_4207-B
13665.14501.-	14501	13665	-	H37Ra	1292273.1293109.+	1292273	1293109	+	KZN_4207-B
890803.891639.+	890803	891639	+	H37Ra	1292273.1293109.+	1292273	1293109	+	KZN_4207-B
1543304.1544140.-	1544140	1543304	-	H37Ra	1292273.1293109.+	1292273	1293109	+	KZN_4207-B
1989483.1990319.-	1990319	1989483	-	H37Ra	1292273.1293109.+	1292273	1293109	+	KZN_4207-B
1997429.1998265.-	1998265	1997429	-	H37Ra	1292273.1293109.+	1292273	1293109	+	KZN_4207-B
2006262.2007098.+	2006262	2007098	+	H37Ra	1292273.1293109.+	1292273	1293109	+	KZN_4207-B
2375792.2376628.+	2375792	2376628	+	H37Ra	1292273.1293109.+	1292273	1293109	+	KZN_4207-B
2440061.2440897.-	2440897	2440061	-	H37Ra	1292273.1293109.+	1292273	1293109	+	KZN_4207-B
2560394.2561230.+	2560394	2561230	+	H37Ra	1292273.1293109.+	1292273	1293109	+	KZN_4207-B
2648021.2648857.+	2648021	2648857	+	H37Ra	1292273.1293109.+	1292273	1293109	+	KZN_4207-B
2796625.2797461.-	2797461	2796625	-	H37Ra	1292273.1293109.+	1292273	1293109	+	KZN_4207-B
3132534.3133370.-	3133370	3132534	-	H37Ra	1292273.1293109.+	1292273	1293109	+	KZN_4207-B
3563987.3564823.+	3563987	3564823	+	H37Ra	1292273.1293109.+	1292273	1293109	+	KZN_4207-B
3721699.3722535.+	3721699	3722535	+	H37Ra	1292273.1293109.+	1292273	1293109	+	KZN_4207-B
3804223.3805059.-	3805059	3804223	-	H37Ra	1292273.1293109.+	1292273	1293109	+	KZN_4207-B
3899932.3900768.+	3899932	3900768	+	H37Ra	1292273.1293109.+	1292273	1293109	+	KZN_4207-B
2984553.2985389.+	2984553	2985389	+	H37Ra	1292273.1293109.+	1292273	1293109	+	KZN_4207-B
105068.106027.-	106027	105068	-	H37Ra	3870277.3871236.+	3870277	3871236	+	KZN_4207-B
3892635.3893594.+	3892635	3893594	+	H37Ra	3870277.3871236.+	3870277	3871236	+	KZN_4207-B
2972073.2974373.-	2974373	2972073	-	H37Ra	1451354.1453654.+	1451354	1453654	+	KZN_4207-B
2565845.2566039.+	2565845	2566039	+	H37Ra	1860344.1860538.-	1860538	1860344	-	KZN_4207-B
3736725.3736937.-	3736937	3736725	-	H37Ra	3718527.3718739.-	3718739	3718527	-	KZN_4207-B
739603.740466.-	740466	739603	-	H37Ra	738607.739470.-	739470	738607	-	KZN_4207-B
782027.782617.+	782027	782617	+	H37Ra	781563.782153.+	781563	782153	+	KZN_4207-B
2516180.2517055.+	2516180	2517055	+	H37Ra	1909326.1910201.-	1910201	1909326	-	KZN_4207-B
4278286.4278786.-	4278786	4278286	-	H37Ra	4253390.4253890.-	4253890	4253390	-	KZN_4207-B
1228906.1229892.-	1229892	1228906	-	H37Ra	3180328.3181314.+	3180328	3181314	+	KZN_4207-B
1260377.1262656.-	1262656	1260377	-	H37Ra	3147564.3149843.+	3147564	3149843	+	KZN_4207-B
2022013.2022462.-	2022462	2022013	-	H37Ra	2408428.2408877.+	2408428	2408877	+	KZN_4207-B
4115921.4116115.+	4115921	4116115	+	H37Ra	4090794.4090988.+	4090794	4090988	+	KZN_4207-B
833082.833609.+	833082	833609	+	H37Ra	832780.833307.+	832780	833307	+	KZN_4207-B
677342.677620.+	677342	677620	+	H37Ra	676342.676620.+	676342	676620	+	KZN_4207-B
531606.531992.-	531992	531606	-	H37Ra	530555.530941.-	530941	530555	-	KZN_4207-B
2604603.2605268.-	2605268	2604603	-	H37Ra	1821115.1821780.+	1821115	1821780	+	KZN_4207-B
3124835.3125239.+	3124835	3125239	+	H37Ra	1300330.1300734.-	1300734	1300330	-	KZN_4207-B
2983531.2983995.+	2983531	2983995	+	H37Ra	1441732.1442196.-	1442196	1441732	-	KZN_4207-B
1842090.1843760.-	1843760	1842090	-	H37Ra	2577143.2578813.+	2577143	2578813	+	KZN_4207-B
446189.446617.+	446189	446617	+	H37Ra	447689.448117.+	447689	448117	+	KZN_4207-B
1207293.1207754.-	1207754	1207293	-	H37Ra	3202258.3202719.+	3202258	3202719	+	KZN_4207-B
475060.475416.+	475060	475416	+	H37Ra	474009.474365.+	474009	474365	+	KZN_4207-B
477126.477494.+	477126	477494	+	H37Ra	474009.474365.+	474009	474365	+	KZN_4207-B
2737563.2737829.-	2737829	2737563	-	H37Ra	1687762.1688028.+	1687762	1688028	+	KZN_4207-B
3085098.3085583.-	3085583	3085098	-	H37Ra	1341345.1341830.+	1341345	1341830	+	KZN_4207-B
509068.509895.-	509895	509068	-	H37Ra	508017.508844.-	508844	508017	-	KZN_4207-B
1170669.1171979.+	1170669	1171979	+	H37Ra	3478945.3480255.+	3478945	3480255	+	KZN_4207-B
3393545.3394855.-	3394855	3393545	-	H37Ra	3478945.3480255.+	3478945	3480255	+	KZN_4207-B
3493544.3494854.+	3493544	3494854	+	H37Ra	3478945.3480255.+	3478945	3480255	+	KZN_4207-B
1342668.1343978.-	1343978	1342668	-	H37Ra	3478945.3480255.+	3478945	3480255	+	KZN_4207-B
2840524.2841834.-	2841834	2840524	-	H37Ra	3478945.3480255.+	3478945	3480255	+	KZN_4207-B
4220649.4221428.+	4220649	4221428	+	H37Ra	4195752.4196531.+	4195752	4196531	+	KZN_4207-B
3023367.3023735.-	3023735	3023367	-	H37Ra	1403193.1403561.+	1403193	1403561	+	KZN_4207-B
3063774.3063980.-	3063980	3063774	-	H37Ra	1362948.1363154.+	1362948	1363154	+	KZN_4207-B
847474.849219.+	847474	849219	+	H37Ra	847370.849115.+	847370	849115	+	KZN_4207-B
3348965.3350041.-	3350041	3348965	-	H37Ra	1075909.1076985.+	1075909	1076985	+	KZN_4207-B
3879761.3881173.-	3881173	3879761	-	H37Ra	3857403.3858815.-	3858815	3857403	-	KZN_4207-B
1792852.1793091.+	1792852	1793091	+	H37Ra	2627812.2628051.-	2628051	2627812	-	KZN_4207-B
3078190.3079101.-	3079101	3078190	-	H37Ra	1347827.1348738.+	1347827	1348738	+	KZN_4207-B
3148322.3149047.-	3149047	3148322	-	H37Ra	1276716.1277441.+	1276716	1277441	+	KZN_4207-B
13665.14501.-	14501	13665	-	H37Ra	1861027.1861863.+	1861027	1861863	+	KZN_4207-B
890803.891639.+	890803	891639	+	H37Ra	1861027.1861863.+	1861027	1861863	+	KZN_4207-B
1543304.1544140.-	1544140	1543304	-	H37Ra	1861027.1861863.+	1861027	1861863	+	KZN_4207-B
1989483.1990319.-	1990319	1989483	-	H37Ra	1861027.1861863.+	1861027	1861863	+	KZN_4207-B
1997429.1998265.-	1998265	1997429	-	H37Ra	1861027.1861863.+	1861027	1861863	+	KZN_4207-B
2006262.2007098.+	2006262	2007098	+	H37Ra	1861027.1861863.+	1861027	1861863	+	KZN_4207-B
2375792.2376628.+	2375792	2376628	+	H37Ra	1861027.1861863.+	1861027	1861863	+	KZN_4207-B
2440061.2440897.-	2440897	2440061	-	H37Ra	1861027.1861863.+	1861027	1861863	+	KZN_4207-B
2560394.2561230.+	2560394	2561230	+	H37Ra	1861027.1861863.+	1861027	1861863	+	KZN_4207-B
2648021.2648857.+	2648021	2648857	+	H37Ra	1861027.1861863.+	1861027	1861863	+	KZN_4207-B
2796625.2797461.-	2797461	2796625	-	H37Ra	1861027.1861863.+	1861027	1861863	+	KZN_4207-B
3132534.3133370.-	3133370	3132534	-	H37Ra	1861027.1861863.+	1861027	1861863	+	KZN_4207-B
3563987.3564823.+	3563987	3564823	+	H37Ra	1861027.1861863.+	1861027	1861863	+	KZN_4207-B
3721699.3722535.+	3721699	3722535	+	H37Ra	1861027.1861863.+	1861027	1861863	+	KZN_4207-B
3804223.3805059.-	3805059	3804223	-	H37Ra	1861027.1861863.+	1861027	1861863	+	KZN_4207-B
3899932.3900768.+	3899932	3900768	+	H37Ra	1861027.1861863.+	1861027	1861863	+	KZN_4207-B
2984553.2985389.+	2984553	2985389	+	H37Ra	1861027.1861863.+	1861027	1861863	+	KZN_4207-B
1801101.1802417.+	1801101	1802417	+	H37Ra	2618486.2619802.-	2619802	2618486	-	KZN_4207-B
2593339.2593683.+	2593339	2593683	+	H37Ra	1832700.1833044.-	1833044	1832700	-	KZN_4207-B
13665.14501.-	14501	13665	-	H37Ra	2431956.2432792.+	2431956	2432792	+	KZN_4207-B
890803.891639.+	890803	891639	+	H37Ra	2431956.2432792.+	2431956	2432792	+	KZN_4207-B
1543304.1544140.-	1544140	1543304	-	H37Ra	2431956.2432792.+	2431956	2432792	+	KZN_4207-B
1989483.1990319.-	1990319	1989483	-	H37Ra	2431956.2432792.+	2431956	2432792	+	KZN_4207-B
1997429.1998265.-	1998265	1997429	-	H37Ra	2431956.2432792.+	2431956	2432792	+	KZN_4207-B
2006262.2007098.+	2006262	2007098	+	H37Ra	2431956.2432792.+	2431956	2432792	+	KZN_4207-B
2375792.2376628.+	2375792	2376628	+	H37Ra	2431956.2432792.+	2431956	2432792	+	KZN_4207-B
2440061.2440897.-	2440897	2440061	-	H37Ra	2431956.2432792.+	2431956	2432792	+	KZN_4207-B
2560394.2561230.+	2560394	2561230	+	H37Ra	2431956.2432792.+	2431956	2432792	+	KZN_4207-B
2648021.2648857.+	2648021	2648857	+	H37Ra	2431956.2432792.+	2431956	2432792	+	KZN_4207-B
2796625.2797461.-	2797461	2796625	-	H37Ra	2431956.2432792.+	2431956	2432792	+	KZN_4207-B
3132534.3133370.-	3133370	3132534	-	H37Ra	2431956.2432792.+	2431956	2432792	+	KZN_4207-B
3563987.3564823.+	3563987	3564823	+	H37Ra	2431956.2432792.+	2431956	2432792	+	KZN_4207-B
3721699.3722535.+	3721699	3722535	+	H37Ra	2431956.2432792.+	2431956	2432792	+	KZN_4207-B
3804223.3805059.-	3805059	3804223	-	H37Ra	2431956.2432792.+	2431956	2432792	+	KZN_4207-B
3899932.3900768.+	3899932	3900768	+	H37Ra	2431956.2432792.+	2431956	2432792	+	KZN_4207-B
2984553.2985389.+	2984553	2985389	+	H37Ra	2431956.2432792.+	2431956	2432792	+	KZN_4207-B
2242299.2242571.+	2242299	2242571	+	H37Ra	2187132.2187404.-	2187404	2187132	-	KZN_4207-B
548896.550926.-	550926	548896	-	H37Ra	547845.549875.-	549875	547845	-	KZN_4207-B
1075388.1075729.+	1075388	1075729	+	H37Ra	3334292.3334633.-	3334633	3334292	-	KZN_4207-B
3984026.3985726.+	3984026	3985726	+	H37Ra	3957326.3959026.+	3957326	3959026	+	KZN_4207-B
3465078.3466499.+	3465078	3466499	+	H37Ra	959436.960857.-	960857	959436	-	KZN_4207-B
516683.517144.-	517144	516683	-	H37Ra	515632.516093.-	516093	515632	-	KZN_4207-B
3650208.3650627.+	3650208	3650627	+	H37Ra	3634279.3634698.+	3634279	3634698	+	KZN_4207-B
2304431.2312623.-	2312623	2304431	-	H37Ra	2112080.2120272.+	2112080	2120272	+	KZN_4207-B
1677534.1678442.-	1678442	1677534	-	H37Ra	2733214.2734122.+	2733214	2734122	+	KZN_4207-B
3675639.3676604.+	3675639	3676604	+	H37Ra	3659647.3660612.+	3659647	3660612	+	KZN_4207-B
183347.184570.-	184570	183347	-	H37Ra	181925.183148.-	183148	181925	-	KZN_4207-B
54168.54602.+	54168	54602	+	H37Ra	52912.53346.+	52912	53346	+	KZN_4207-B
3653697.3653810.+	3653697	3653810	+	H37Ra	3637768.3637881.+	3637768	3637881	+	KZN_4207-B
705295.705522.+	705295	705522	+	H37Ra	704295.704522.+	704295	704522	+	KZN_4207-B
4376964.4378682.-	4378682	4376964	-	H37Ra	4352068.4353786.-	4353786	4352068	-	KZN_4207-B
1532283.1532507.-	1532507	1532283	-	H37Ra	2877823.2878047.+	2877823	2878047	+	KZN_4207-B
1301132.1301434.-	1301434	1301132	-	H37Ra	3108842.3109144.+	3108842	3109144	+	KZN_4207-B
1568126.1569346.+	1568126	1569346	+	H37Ra	2842341.2843561.-	2843561	2842341	-	KZN_4207-B
351345.352838.+	351345	352838	+	H37Ra	352849.354342.+	352849	354342	+	KZN_4207-B
1566751.1568007.+	1566751	1568007	+	H37Ra	2843680.2844936.-	2844936	2843680	-	KZN_4207-B
3805571.3806560.-	3806560	3805571	-	H37Ra	3787694.3788683.-	3788683	3787694	-	KZN_4207-B
2291047.2291517.+	2291047	2291517	+	H37Ra	2133186.2133656.-	2133656	2133186	-	KZN_4207-B
1712250.1712519.+	1712250	1712519	+	H37Ra	2699137.2699406.-	2699406	2699137	-	KZN_4207-B
1103144.1103857.+	1103144	1103857	+	H37Ra	3306152.3306865.-	3306865	3306152	-	KZN_4207-B
2674035.2679083.-	2679083	2674035	-	H37Ra	1746475.1751523.+	1746475	1751523	+	KZN_4207-B
1888030.1889538.+	1888030	1889538	+	H37Ra	2531365.2532873.-	2532873	2531365	-	KZN_4207-B
699834.700304.-	700304	699834	-	H37Ra	698834.699304.-	699304	698834	-	KZN_4207-B
4392593.4393825.-	4393825	4392593	-	H37Ra	4367702.4368934.-	4368934	4367702	-	KZN_4207-B
2374699.2374995.-	2374995	2374699	-	H37Ra	2049710.2050006.+	2049710	2050006	+	KZN_4207-B
436193.436822.-	436822	436193	-	H37Ra	437693.438322.-	438322	437693	-	KZN_4207-B
4219526.4220230.-	4220230	4219526	-	H37Ra	4194629.4195333.-	4195333	4194629	-	KZN_4207-B
3180575.3181351.-	3181351	3180575	-	H37Ra	1244412.1245188.+	1244412	1245188	+	KZN_4207-B
1165472.1165780.-	1165780	1165472	-	H37Ra	3244229.3244537.+	3244229	3244537	+	KZN_4207-B
1244174.1244323.-	1244323	1244174	-	H37Ra	3165897.3166046.+	3165897	3166046	+	KZN_4207-B
3065882.3067459.+	3065882	3067459	+	H37Ra	1359469.1361046.-	1361046	1359469	-	KZN_4207-B
2167314.2167919.-	2167919	2167314	-	H37Ra	2261604.2262209.+	2261604	2262209	+	KZN_4207-B
3790624.3793899.-	3793899	3790624	-	H37Ra	3774105.3777380.-	3777380	3774105	-	KZN_4207-B
1005264.1005791.+	1005264	1005791	+	H37Ra	3404227.3404754.-	3404754	3404227	-	KZN_4207-B
3531429.3532670.+	3531429	3532670	+	H37Ra	3516830.3518071.+	3516830	3518071	+	KZN_4207-B
2919794.2922175.-	2922175	2919794	-	H37Ra	1503552.1505933.+	1503552	1505933	+	KZN_4207-B
1533753.1534940.-	1534940	1533753	-	H37Ra	2875389.2876492.+	2875389	2876492	+	KZN_4207-B
3903106.3904284.+	3903106	3904284	+	H37Ra	2875389.2876492.+	2875389	2876492	+	KZN_4207-B
1340663.1341679.+	1340663	1341679	+	H37Ra	2875389.2876492.+	2875389	2876492	+	KZN_4207-B
3032168.3032425.-	3032425	3032168	-	H37Ra	1394503.1394760.+	1394503	1394760	+	KZN_4207-B
3174263.3176107.+	3174263	3176107	+	H37Ra	1249656.1251500.-	1251500	1249656	-	KZN_4207-B
1201893.1202969.+	1201893	1202969	+	H37Ra	3207043.3208119.-	3208119	3207043	-	KZN_4207-B
3596459.3596746.-	3596746	3596459	-	H37Ra	3580517.3580804.-	3580804	3580517	-	KZN_4207-B
4061965.4062294.-	4062294	4061965	-	H37Ra	4035481.4035810.-	4035810	4035481	-	KZN_4207-B
1130442.1131413.+	1130442	1131413	+	H37Ra	3278596.3279567.-	3279567	3278596	-	KZN_4207-B
4371863.4373233.-	4373233	4371863	-	H37Ra	4346967.4348337.-	4348337	4346967	-	KZN_4207-B
4346392.4346718.+	4346392	4346718	+	H37Ra	4321497.4321823.+	4321497	4321823	+	KZN_4207-B
13665.14501.-	14501	13665	-	H37Ra	2048386.2049222.+	2048386	2049222	+	KZN_4207-B
890803.891639.+	890803	891639	+	H37Ra	2048386.2049222.+	2048386	2049222	+	KZN_4207-B
1543304.1544140.-	1544140	1543304	-	H37Ra	2048386.2049222.+	2048386	2049222	+	KZN_4207-B
1989483.1990319.-	1990319	1989483	-	H37Ra	2048386.2049222.+	2048386	2049222	+	KZN_4207-B
1997429.1998265.-	1998265	1997429	-	H37Ra	2048386.2049222.+	2048386	2049222	+	KZN_4207-B
2006262.2007098.+	2006262	2007098	+	H37Ra	2048386.2049222.+	2048386	2049222	+	KZN_4207-B
2375792.2376628.+	2375792	2376628	+	H37Ra	2048386.2049222.+	2048386	2049222	+	KZN_4207-B
2440061.2440897.-	2440897	2440061	-	H37Ra	2048386.2049222.+	2048386	2049222	+	KZN_4207-B
2560394.2561230.+	2560394	2561230	+	H37Ra	2048386.2049222.+	2048386	2049222	+	KZN_4207-B
2648021.2648857.+	2648021	2648857	+	H37Ra	2048386.2049222.+	2048386	2049222	+	KZN_4207-B
2796625.2797461.-	2797461	2796625	-	H37Ra	2048386.2049222.+	2048386	2049222	+	KZN_4207-B
3132534.3133370.-	3133370	3132534	-	H37Ra	2048386.2049222.+	2048386	2049222	+	KZN_4207-B
3563987.3564823.+	3563987	3564823	+	H37Ra	2048386.2049222.+	2048386	2049222	+	KZN_4207-B
3721699.3722535.+	3721699	3722535	+	H37Ra	2048386.2049222.+	2048386	2049222	+	KZN_4207-B
3804223.3805059.-	3805059	3804223	-	H37Ra	2048386.2049222.+	2048386	2049222	+	KZN_4207-B
3899932.3900768.+	3899932	3900768	+	H37Ra	2048386.2049222.+	2048386	2049222	+	KZN_4207-B
2984553.2985389.+	2984553	2985389	+	H37Ra	2048386.2049222.+	2048386	2049222	+	KZN_4207-B
4178052.4178615.+	4178052	4178615	+	H37Ra	4153155.4153718.+	4153155	4153718	+	KZN_4207-B
105068.106021.-	106021	105068	-	H37Ra	103840.104793.-	104793	103840	-	KZN_4207-B
3892641.3893594.+	3892641	3893594	+	H37Ra	103840.104793.-	104793	103840	-	KZN_4207-B
3122475.3122699.-	3122699	3122475	-	H37Ra	1302870.1303094.+	1302870	1303094	+	KZN_4207-B
1031886.1033172.-	1033172	1031886	-	H37Ra	3376846.3378132.+	3376846	3378132	+	KZN_4207-B
3362443.3363288.-	3363288	3362443	-	H37Ra	1062662.1063507.+	1062662	1063507	+	KZN_4207-B
1972507.1972908.-	1972908	1972507	-	H37Ra	2447986.2448387.+	2447986	2448387	+	KZN_4207-B
1170732.1171979.+	1170732	1171979	+	H37Ra	1583955.1585202.+	1583955	1585202	+	KZN_4207-B
1342668.1343915.-	1343915	1342668	-	H37Ra	1583955.1585202.+	1583955	1585202	+	KZN_4207-B
2840524.2841771.-	2841771	2840524	-	H37Ra	1583955.1585202.+	1583955	1585202	+	KZN_4207-B
3393545.3394792.-	3394792	3393545	-	H37Ra	1583955.1585202.+	1583955	1585202	+	KZN_4207-B
3493607.3494854.+	3493607	3494854	+	H37Ra	1583955.1585202.+	1583955	1585202	+	KZN_4207-B
1065422.1066270.-	1066270	1065422	-	H37Ra	3343751.3344599.+	3343751	3344599	+	KZN_4207-B
3700240.3701721.-	3701721	3700240	-	H37Ra	3684314.3685729.-	3685729	3684314	-	KZN_4207-B
553336.553860.+	553336	553860	+	H37Ra	552285.552809.+	552285	552809	+	KZN_4207-B
2717985.2718704.+	2717985	2718704	+	H37Ra	1706890.1707609.-	1707609	1706890	-	KZN_4207-B
4292442.4292777.+	4292442	4292777	+	H37Ra	4267546.4267881.+	4267546	4267881	+	KZN_4207-B
3033516.3033833.-	3033833	3033516	-	H37Ra	1393095.1393412.+	1393095	1393412	+	KZN_4207-B
4103447.4103989.-	4103989	4103447	-	H37Ra	4078320.4078862.-	4078862	4078320	-	KZN_4207-B
1962809.1963306.-	1963306	1962809	-	H37Ra	2457588.2458085.+	2457588	2458085	+	KZN_4207-B
1683650.1685521.+	1683650	1685521	+	H37Ra	2726135.2728006.-	2728006	2726135	-	KZN_4207-B
1617675.1617911.-	1617911	1617675	-	H37Ra	2793756.2793992.+	2793756	2793992	+	KZN_4207-B
1903909.1904817.+	1903909	1904817	+	H37Ra	2516133.2517041.-	2517041	2516133	-	KZN_4207-B
3301959.3302498.+	3301959	3302498	+	H37Ra	1123097.1123636.-	1123636	1123097	-	KZN_4207-B
1169944.1170537.-	1170537	1169944	-	H37Ra	3239471.3240064.+	3239471	3240064	+	KZN_4207-B
710666.711658.+	710666	711658	+	H37Ra	709666.710658.+	709666	710658	+	KZN_4207-B
516683.517126.-	517126	516683	-	H37Ra	515632.516075.-	516075	515632	-	KZN_4207-B
4073298.4074350.-	4074350	4073298	-	H37Ra	4046814.4047866.-	4047866	4046814	-	KZN_4207-B
2689634.2690617.+	2689634	2690617	+	H37Ra	1734941.1735924.-	1735924	1734941	-	KZN_4207-B
1310261.1310641.+	1310261	1310641	+	H37Ra	3099635.3100015.-	3100015	3099635	-	KZN_4207-B
4081114.4082082.-	4082082	4081114	-	H37Ra	4054630.4055598.-	4055598	4054630	-	KZN_4207-B
1410794.1411267.-	1411267	1410794	-	H37Ra	2999007.2999480.+	2999007	2999480	+	KZN_4207-B
761113.764631.+	761113	764631	+	H37Ra	760650.764168.+	760650	764168	+	KZN_4207-B
2275180.2275899.+	2275180	2275899	+	H37Ra	2153804.2154523.-	2154523	2153804	-	KZN_4207-B
4025150.4025749.+	4025150	4025749	+	H37Ra	3998447.3999046.+	3998447	3999046	+	KZN_4207-B
2980501.2980818.-	2980818	2980501	-	H37Ra	1444909.1445226.+	1444909	1445226	+	KZN_4207-B
4078973.4079686.+	4078973	4079686	+	H37Ra	4052489.4053202.+	4052489	4053202	+	KZN_4207-B
2344959.2345273.+	2344959	2345273	+	H37Ra	2079427.2079741.-	2079741	2079427	-	KZN_4207-B
2318031.2320820.-	2320820	2318031	-	H37Ra	2103880.2106669.+	2103880	2106669	+	KZN_4207-B
1230023.1230694.+	1230023	1230694	+	H37Ra	3179526.3180197.-	3180197	3179526	-	KZN_4207-B
1682244.1682507.+	1682244	1682507	+	H37Ra	2729149.2729412.-	2729412	2729149	-	KZN_4207-B
3441724.3441906.+	3441724	3441906	+	H37Ra	984029.984211.-	984211	984029	-	KZN_4207-B
1170732.1171979.+	1170732	1171979	+	H37Ra	3238029.3239276.-	3239276	3238029	-	KZN_4207-B
3393545.3394792.-	3394792	3393545	-	H37Ra	3238029.3239276.-	3239276	3238029	-	KZN_4207-B
3493607.3494854.+	3493607	3494854	+	H37Ra	3238029.3239276.-	3239276	3238029	-	KZN_4207-B
1342668.1343915.-	1343915	1342668	-	H37Ra	3238029.3239276.-	3239276	3238029	-	KZN_4207-B
2840524.2841771.-	2841771	2840524	-	H37Ra	3238029.3239276.-	3239276	3238029	-	KZN_4207-B
4137197.4137646.-	4137646	4137197	-	H37Ra	4112241.4112690.-	4112690	4112241	-	KZN_4207-B
2222785.2224026.+	2222785	2224026	+	H37Ra	2205677.2206918.-	2206918	2205677	-	KZN_4207-B
1109480.1109812.-	1109812	1109480	-	H37Ra	3300197.3300529.+	3300197	3300529	+	KZN_4207-B
1462355.1462600.+	1462355	1462600	+	H37Ra	2947731.2947976.-	2947976	2947731	-	KZN_4207-B
1115481.1115690.-	1115690	1115481	-	H37Ra	3294319.3294528.+	3294319	3294528	+	KZN_4207-B
1005112.1005264.+	1005112	1005264	+	H37Ra	3404754.3404906.-	3404906	3404754	-	KZN_4207-B
1170669.1171979.+	1170669	1171979	+	H37Ra	3066297.3067607.+	3066297	3067607	+	KZN_4207-B
3393545.3394855.-	3394855	3393545	-	H37Ra	3066297.3067607.+	3066297	3067607	+	KZN_4207-B
3493544.3494854.+	3493544	3494854	+	H37Ra	3066297.3067607.+	3066297	3067607	+	KZN_4207-B
1342668.1343978.-	1343978	1342668	-	H37Ra	3066297.3067607.+	3066297	3067607	+	KZN_4207-B
2840524.2841834.-	2841834	2840524	-	H37Ra	3066297.3067607.+	3066297	3067607	+	KZN_4207-B
1619147.1619380.+	1619147	1619380	+	H37Ra	2792287.2792520.-	2792520	2792287	-	KZN_4207-B
66349.66774.+	66349	66774	+	H37Ra	65093.65518.+	65093	65518	+	KZN_4207-B
3734745.3735389.+	3734745	3735389	+	H37Ra	3716547.3717191.+	3716547	3717191	+	KZN_4207-B
671149.672462.+	671149	672462	+	H37Ra	670158.671471.+	670158	671471	+	KZN_4207-B
1147869.1148336.+	1147869	1148336	+	H37Ra	3261673.3262140.-	3262140	3261673	-	KZN_4207-B
3043756.3044466.+	3043756	3044466	+	H37Ra	1382462.1383172.-	1383172	1382462	-	KZN_4207-B
2629486.2629920.+	2629486	2629920	+	H37Ra	1796462.1796896.-	1796896	1796462	-	KZN_4207-B
3539547.3541319.-	3541319	3539547	-	H37Ra	3524948.3526720.-	3526720	3524948	-	KZN_4207-B
2389147.2389662.-	2389662	2389147	-	H37Ra	2035243.2035758.+	2035243	2035758	+	KZN_4207-B
4027928.4028794.+	4027928	4028794	+	H37Ra	4001225.4002091.+	4001225	4002091	+	KZN_4207-B
733698.734126.+	733698	734126	+	H37Ra	732703.733131.+	732703	733131	+	KZN_4207-B
13665.14501.-	14501	13665	-	H37Ra	1330440.1331276.-	1331276	1330440	-	KZN_4207-B
890803.891639.+	890803	891639	+	H37Ra	1330440.1331276.-	1331276	1330440	-	KZN_4207-B
1543304.1544140.-	1544140	1543304	-	H37Ra	1330440.1331276.-	1331276	1330440	-	KZN_4207-B
1989483.1990319.-	1990319	1989483	-	H37Ra	1330440.1331276.-	1331276	1330440	-	KZN_4207-B
1997429.1998265.-	1998265	1997429	-	H37Ra	1330440.1331276.-	1331276	1330440	-	KZN_4207-B
2006262.2007098.+	2006262	2007098	+	H37Ra	1330440.1331276.-	1331276	1330440	-	KZN_4207-B
2375792.2376628.+	2375792	2376628	+	H37Ra	1330440.1331276.-	1331276	1330440	-	KZN_4207-B
2440061.2440897.-	2440897	2440061	-	H37Ra	1330440.1331276.-	1331276	1330440	-	KZN_4207-B
2560394.2561230.+	2560394	2561230	+	H37Ra	1330440.1331276.-	1331276	1330440	-	KZN_4207-B
2648021.2648857.+	2648021	2648857	+	H37Ra	1330440.1331276.-	1331276	1330440	-	KZN_4207-B
2796625.2797461.-	2797461	2796625	-	H37Ra	1330440.1331276.-	1331276	1330440	-	KZN_4207-B
3132534.3133370.-	3133370	3132534	-	H37Ra	1330440.1331276.-	1331276	1330440	-	KZN_4207-B
3563987.3564823.+	3563987	3564823	+	H37Ra	1330440.1331276.-	1331276	1330440	-	KZN_4207-B
3721699.3722535.+	3721699	3722535	+	H37Ra	1330440.1331276.-	1331276	1330440	-	KZN_4207-B
3804223.3805059.-	3805059	3804223	-	H37Ra	1330440.1331276.-	1331276	1330440	-	KZN_4207-B
3899932.3900768.+	3899932	3900768	+	H37Ra	1330440.1331276.-	1331276	1330440	-	KZN_4207-B
2984553.2985389.+	2984553	2985389	+	H37Ra	1330440.1331276.-	1331276	1330440	-	KZN_4207-B
4229535.4231094.+	4229535	4231094	+	H37Ra	4204638.4206197.+	4204638	4206197	+	KZN_4207-B
3406189.3407043.-	3407043	3406189	-	H37Ra	1018907.1019761.+	1018907	1019761	+	KZN_4207-B
3857522.3857677.-	3857677	3857522	-	H37Ra	3835164.3835319.-	3835319	3835164	-	KZN_4207-B
2589932.2590114.-	2590114	2589932	-	H37Ra	1836269.1836451.+	1836269	1836451	+	KZN_4207-B
132741.134231.+	132741	134231	+	H37Ra	131514.133004.+	131514	133004	+	KZN_4207-B
476636.477052.+	476636	477052	+	H37Ra	475585.476001.+	475585	476001	+	KZN_4207-B
3818120.3819703.-	3819703	3818120	-	H37Ra	3800688.3802271.-	3802271	3800688	-	KZN_4207-B
2866651.2866875.-	2866875	2866651	-	H37Ra	1558851.1559075.+	1558851	1559075	+	KZN_4207-B
248746.249480.-	249480	248746	-	H37Ra	247324.248058.-	248058	247324	-	KZN_4207-B
2974438.2974680.+	2974438	2974680	+	H37Ra	1451047.1451289.-	1451289	1451047	-	KZN_4207-B
2336844.2337401.+	2336844	2337401	+	H37Ra	2087299.2087856.-	2087856	2087299	-	KZN_4207-B
3857702.3857866.-	3857866	3857702	-	H37Ra	3835344.3835508.-	3835508	3835344	-	KZN_4207-B
2071110.2072606.-	2072606	2071110	-	H37Ra	2356926.2358422.+	2356926	2358422	+	KZN_4207-B
2362946.2363197.-	2363197	2362946	-	H37Ra	2061423.2061674.+	2061423	2061674	+	KZN_4207-B
3898625.3899410.-	3899410	3898625	-	H37Ra	3876267.3877052.-	3877052	3876267	-	KZN_4207-B
988489.990012.+	988489	990012	+	H37Ra	3420006.3421529.-	3421529	3420006	-	KZN_4207-B
2424836.2426296.-	2426296	2424836	-	H37Ra	1998669.2000129.+	1998669	2000129	+	KZN_4207-B
3124433.3125062.-	3125062	3124433	-	H37Ra	1300507.1301136.+	1300507	1301136	+	KZN_4207-B
1025173.1025430.+	1025173	1025430	+	H37Ra	3384588.3384845.-	3384845	3384588	-	KZN_4207-B
1409550.1410668.+	1409550	1410668	+	H37Ra	2999606.3000724.-	3000724	2999606	-	KZN_4207-B
4151194.4152381.-	4152381	4151194	-	H37Ra	4126238.4127425.-	4127425	4126238	-	KZN_4207-B
3602429.3603040.+	3602429	3603040	+	H37Ra	3586487.3587098.+	3586487	3587098	+	KZN_4207-B
3195130.3195387.+	3195130	3195387	+	H37Ra	1230430.1230687.-	1230687	1230430	-	KZN_4207-B
4317484.4318842.+	4317484	4318842	+	H37Ra	4292588.4293946.+	4292588	4293946	+	KZN_4207-B
3390498.3390782.-	3390782	3390498	-	H37Ra	1035168.1035452.+	1035168	1035452	+	KZN_4207-B
2035233.2036330.+	2035233	2036330	+	H37Ra	2394560.2395657.-	2395657	2394560	-	KZN_4207-B
2763630.2764148.-	2764148	2763630	-	H37Ra	1661443.1661961.+	1661443	1661961	+	KZN_4207-B
2038357.2039409.+	2038357	2039409	+	H37Ra	2391481.2392533.-	2392533	2391481	-	KZN_4207-B
737604.738551.-	738551	737604	-	H37Ra	736608.737555.-	737555	736608	-	KZN_4207-B
225359.226024.+	225359	226024	+	H37Ra	223937.224602.+	223937	224602	+	KZN_4207-B
4053872.4054783.-	4054783	4053872	-	H37Ra	4027170.4028081.-	4028081	4027170	-	KZN_4207-B
1017520.1017993.+	1017520	1017993	+	H37Ra	3392025.3392498.-	3392498	3392025	-	KZN_4207-B
677141.677620.+	677141	677620	+	H37Ra	676141.676620.+	676141	676620	+	KZN_4207-B
2918057.2918731.-	2918731	2918057	-	H37Ra	1506996.1507670.+	1506996	1507670	+	KZN_4207-B
105068.106021.-	106021	105068	-	H37Ra	3870283.3871236.+	3870283	3871236	+	KZN_4207-B
3892641.3893594.+	3892641	3893594	+	H37Ra	3870283.3871236.+	3870283	3871236	+	KZN_4207-B
1364813.1365556.-	1365556	1364813	-	H37Ra	3044719.3045462.+	3044719	3045462	+	KZN_4207-B
2515616.2515987.-	2515987	2515616	-	H37Ra	1910394.1910765.+	1910394	1910765	+	KZN_4207-B
1170684.1171979.+	1170684	1171979	+	H37Ra	1031110.1032405.+	1031110	1032405	+	KZN_4207-B
3393545.3394840.-	3394840	3393545	-	H37Ra	1031110.1032405.+	1031110	1032405	+	KZN_4207-B
3493559.3494854.+	3493559	3494854	+	H37Ra	1031110.1032405.+	1031110	1032405	+	KZN_4207-B
1342668.1343963.-	1343963	1342668	-	H37Ra	1031110.1032405.+	1031110	1032405	+	KZN_4207-B
2840524.2841819.-	2841819	2840524	-	H37Ra	1031110.1032405.+	1031110	1032405	+	KZN_4207-B
4259555.4261312.+	4259555	4261312	+	H37Ra	4234658.4236415.+	4234658	4236415	+	KZN_4207-B
2604058.2604603.-	2604603	2604058	-	H37Ra	1821780.1822325.+	1821780	1822325	+	KZN_4207-B
1329000.1330373.-	1330373	1329000	-	H37Ra	3079903.3081276.+	3079903	3081276	+	KZN_4207-B
3966187.3967098.+	3966187	3967098	+	H37Ra	3939487.3940398.+	3939487	3940398	+	KZN_4207-B
3884729.3885499.-	3885499	3884729	-	H37Ra	3862371.3863141.-	3863141	3862371	-	KZN_4207-B
3847264.3847740.-	3847740	3847264	-	H37Ra	3829832.3830308.-	3830308	3829832	-	KZN_4207-B
3113549.3114130.-	3114130	3113549	-	H37Ra	1311439.1312020.+	1311439	1312020	+	KZN_4207-B
232259.232894.+	232259	232894	+	H37Ra	230837.231472.+	230837	231472	+	KZN_4207-B
4208867.4209772.+	4208867	4209772	+	H37Ra	4183970.4184875.+	4183970	4184875	+	KZN_4207-B
3719279.3719911.-	3719911	3719279	-	H37Ra	3703229.3703861.-	3703861	3703229	-	KZN_4207-B
4392099.4392431.-	4392431	4392099	-	H37Ra	4367208.4367540.-	4367540	4367208	-	KZN_4207-B
4112121.4112984.-	4112984	4112121	-	H37Ra	4086994.4087857.-	4087857	4086994	-	KZN_4207-B
1091681.1094452.+	1091681	1094452	+	H37Ra	3315569.3318340.-	3318340	3315569	-	KZN_4207-B
1390667.1394311.-	1394311	1390667	-	H37Ra	3015963.3019607.+	3015963	3019607	+	KZN_4207-B
220071.220727.+	220071	220727	+	H37Ra	218649.219305.+	218649	219305	+	KZN_4207-B
1804812.1805549.+	1804812	1805549	+	H37Ra	2615354.2616091.-	2616091	2615354	-	KZN_4207-B
1170732.1171979.+	1170732	1171979	+	H37Ra	3479008.3480255.+	3479008	3480255	+	KZN_4207-B
3393545.3394792.-	3394792	3393545	-	H37Ra	3479008.3480255.+	3479008	3480255	+	KZN_4207-B
3493607.3494854.+	3493607	3494854	+	H37Ra	3479008.3480255.+	3479008	3480255	+	KZN_4207-B
1342668.1343915.-	1343915	1342668	-	H37Ra	3479008.3480255.+	3479008	3480255	+	KZN_4207-B
2840524.2841771.-	2841771	2840524	-	H37Ra	3479008.3480255.+	3479008	3480255	+	KZN_4207-B
3206158.3207540.-	3207540	3206158	-	H37Ra	1218278.1219660.+	1218278	1219660	+	KZN_4207-B
633053.633685.+	633053	633685	+	H37Ra	632062.632694.+	632062	632694	+	KZN_4207-B
3369394.3369597.-	3369597	3369394	-	H37Ra	1056353.1056556.+	1056353	1056556	+	KZN_4207-B
3594583.3595440.-	3595440	3594583	-	H37Ra	3578641.3579498.-	3579498	3578641	-	KZN_4207-B
33182.33325.-	33325	33182	-	H37Ra	31925.32068.-	32068	31925	-	KZN_4207-B
477093.477563.-	477563	477093	-	H37Ra	476042.476512.-	476512	476042	-	KZN_4207-B
331784.332365.+	331784	332365	+	H37Ra	330362.330943.+	330362	330943	+	KZN_4207-B
3532663.3533298.+	3532663	3533298	+	H37Ra	3518064.3518699.+	3518064	3518699	+	KZN_4207-B
4103107.4103361.-	4103361	4103107	-	H37Ra	4077980.4078234.-	4078234	4077980	-	KZN_4207-B
878124.879761.-	879761	878124	-	H37Ra	878022.879659.-	879659	878022	-	KZN_4207-B
920218.920859.-	920859	920218	-	H37Ra	918757.919398.-	919398	918757	-	KZN_4207-B
4045264.4045962.-	4045962	4045264	-	H37Ra	4018561.4019259.-	4019259	4018561	-	KZN_4207-B
3790624.3793863.-	3793863	3790624	-	H37Ra	3774105.3777344.-	3777344	3774105	-	KZN_4207-B
4363549.4364988.+	4363549	4364988	+	H37Ra	4338653.4340092.+	4338653	4340092	+	KZN_4207-B
3523733.3524224.+	3523733	3524224	+	H37Ra	3509134.3509625.+	3509134	3509625	+	KZN_4207-B
1895095.1895748.-	1895748	1895095	-	H37Ra	2525155.2525808.+	2525155	2525808	+	KZN_4207-B
3568109.3569143.-	3569143	3568109	-	H37Ra	3552152.3553186.-	3553186	3552152	-	KZN_4207-B
543452.544162.+	543452	544162	+	H37Ra	542401.543111.+	542401	543111	+	KZN_4207-B
730637.731497.-	731497	730637	-	H37Ra	729637.730497.-	730497	729637	-	KZN_4207-B
2683561.2687805.-	2687805	2683561	-	H37Ra	1737753.1741997.+	1737753	1741997	+	KZN_4207-B
1170732.1171979.+	1170732	1171979	+	H37Ra	1031158.1032405.+	1031158	1032405	+	KZN_4207-B
3393545.3394792.-	3394792	3393545	-	H37Ra	1031158.1032405.+	1031158	1032405	+	KZN_4207-B
3493607.3494854.+	3493607	3494854	+	H37Ra	1031158.1032405.+	1031158	1032405	+	KZN_4207-B
1342668.1343915.-	1343915	1342668	-	H37Ra	1031158.1032405.+	1031158	1032405	+	KZN_4207-B
2840524.2841771.-	2841771	2840524	-	H37Ra	1031158.1032405.+	1031158	1032405	+	KZN_4207-B
877625.878017.-	878017	877625	-	H37Ra	877523.877915.-	877915	877523	-	KZN_4207-B
1775445.1776137.-	1776137	1775445	-	H37Ra	2635518.2636210.+	2635518	2636210	+	KZN_4207-B
2458053.2459864.+	2458053	2459864	+	H37Ra	1966460.1968271.-	1968271	1966460	-	KZN_4207-B
678435.678926.-	678926	678435	-	H37Ra	677435.677926.-	677926	677435	-	KZN_4207-B
416406.416822.+	416406	416822	+	H37Ra	417930.418346.+	417930	418346	+	KZN_4207-B
1468625.1468990.+	1468625	1468990	+	H37Ra	2941341.2941706.-	2941706	2941341	-	KZN_4207-B
337922.340435.-	340435	337922	-	H37Ra	339426.341939.-	341939	339426	-	KZN_4207-B
2330957.2331367.+	2330957	2331367	+	H37Ra	2093333.2093743.-	2093743	2093333	-	KZN_4207-B
578953.579579.+	578953	579579	+	H37Ra	577902.578528.+	577902	578528	+	KZN_4207-B
2317193.2317417.-	2317417	2317193	-	H37Ra	2107283.2107507.+	2107283	2107507	+	KZN_4207-B
595181.596089.-	596089	595181	-	H37Ra	594106.595014.-	595014	594106	-	KZN_4207-B
603158.604096.+	603158	604096	+	H37Ra	602083.603021.+	602083	603021	+	KZN_4207-B
3403716.3404948.+	3403716	3404948	+	H37Ra	1021002.1022234.-	1022234	1021002	-	KZN_4207-B
2205888.2207252.+	2205888	2207252	+	H37Ra	2222451.2223815.-	2223815	2222451	-	KZN_4207-B
1277610.1278974.-	1278974	1277610	-	H37Ra	2222451.2223815.-	2223815	2222451	-	KZN_4207-B
105068.105931.-	105931	105068	-	H37Ra	2630078.2630944.+	2630078	2630944	+	KZN_4207-B
3892731.3893594.+	3892731	3893594	+	H37Ra	2630078.2630944.+	2630078	2630944	+	KZN_4207-B
13665.14501.-	14501	13665	-	H37Ra	3477049.3477885.+	3477049	3477885	+	KZN_4207-B
890803.891639.+	890803	891639	+	H37Ra	3477049.3477885.+	3477049	3477885	+	KZN_4207-B
1543304.1544140.-	1544140	1543304	-	H37Ra	3477049.3477885.+	3477049	3477885	+	KZN_4207-B
1989483.1990319.-	1990319	1989483	-	H37Ra	3477049.3477885.+	3477049	3477885	+	KZN_4207-B
1997429.1998265.-	1998265	1997429	-	H37Ra	3477049.3477885.+	3477049	3477885	+	KZN_4207-B
2006262.2007098.+	2006262	2007098	+	H37Ra	3477049.3477885.+	3477049	3477885	+	KZN_4207-B
2375792.2376628.+	2375792	2376628	+	H37Ra	3477049.3477885.+	3477049	3477885	+	KZN_4207-B
2440061.2440897.-	2440897	2440061	-	H37Ra	3477049.3477885.+	3477049	3477885	+	KZN_4207-B
2560394.2561230.+	2560394	2561230	+	H37Ra	3477049.3477885.+	3477049	3477885	+	KZN_4207-B
2648021.2648857.+	2648021	2648857	+	H37Ra	3477049.3477885.+	3477049	3477885	+	KZN_4207-B
2796625.2797461.-	2797461	2796625	-	H37Ra	3477049.3477885.+	3477049	3477885	+	KZN_4207-B
3132534.3133370.-	3133370	3132534	-	H37Ra	3477049.3477885.+	3477049	3477885	+	KZN_4207-B
3563987.3564823.+	3563987	3564823	+	H37Ra	3477049.3477885.+	3477049	3477885	+	KZN_4207-B
3721699.3722535.+	3721699	3722535	+	H37Ra	3477049.3477885.+	3477049	3477885	+	KZN_4207-B
3804223.3805059.-	3805059	3804223	-	H37Ra	3477049.3477885.+	3477049	3477885	+	KZN_4207-B
3899932.3900768.+	3899932	3900768	+	H37Ra	3477049.3477885.+	3477049	3477885	+	KZN_4207-B
2984553.2985389.+	2984553	2985389	+	H37Ra	3477049.3477885.+	3477049	3477885	+	KZN_4207-B
3656762.3657685.-	3657685	3656762	-	H37Ra	3640833.3641756.-	3641756	3640833	-	KZN_4207-B
607861.609372.+	607861	609372	+	H37Ra	606786.608297.+	606786	608297	+	KZN_4207-B
401554.403065.+	401554	403065	+	H37Ra	606786.608297.+	606786	608297	+	KZN_4207-B
2107280.2107582.+	2107280	2107582	+	H37Ra	2322012.2322314.-	2322314	2322012	-	KZN_4207-B
2467539.2468297.+	2467539	2468297	+	H37Ra	1958027.1958785.-	1958785	1958027	-	KZN_4207-B
2958402.2959079.+	2958402	2959079	+	H37Ra	1466648.1467325.-	1467325	1466648	-	KZN_4207-B
3335701.3336468.-	3336468	3335701	-	H37Ra	1089128.1089895.+	1089128	1089895	+	KZN_4207-B
996369.996647.+	996369	996647	+	H37Ra	3413371.3413649.-	3413649	3413371	-	KZN_4207-B
58693.59331.+	58693	59331	+	H37Ra	57437.58075.+	57437	58075	+	KZN_4207-B
467980.468714.-	468714	467980	-	H37Ra	466929.467663.-	467663	466929	-	KZN_4207-B
1872360.1872872.+	1872360	1872872	+	H37Ra	2548031.2548543.-	2548543	2548031	-	KZN_4207-B
2999659.3001236.+	2999659	3001236	+	H37Ra	1425849.1427426.-	1427426	1425849	-	KZN_4207-B
716680.717627.+	716680	717627	+	H37Ra	715680.716627.+	715680	716627	+	KZN_4207-B
1174187.1175095.+	1174187	1175095	+	H37Ra	3234913.3235821.-	3235821	3234913	-	KZN_4207-B
2216849.2217106.+	2216849	2217106	+	H37Ra	2212597.2212854.-	2212854	2212597	-	KZN_4207-B
1271372.1272454.+	1271372	1272454	+	H37Ra	3137824.3138906.-	3138906	3137824	-	KZN_4207-B
739603.740523.-	740523	739603	-	H37Ra	738607.739527.-	739527	738607	-	KZN_4207-B
3371754.3372767.-	3372767	3371754	-	H37Ra	1053183.1054196.+	1053183	1054196	+	KZN_4207-B
1119736.1121304.-	1121304	1119736	-	H37Ra	3288705.3290273.+	3288705	3290273	+	KZN_4207-B
662244.662579.+	662244	662579	+	H37Ra	661253.661588.+	661253	661588	+	KZN_4207-B
3391205.3391513.-	3391513	3391205	-	H37Ra	1034437.1034745.+	1034437	1034745	+	KZN_4207-B
988540.990012.+	988540	990012	+	H37Ra	3420006.3421478.-	3421478	3420006	-	KZN_4207-B
1829689.1830315.+	1829689	1830315	+	H37Ra	2590588.2591214.-	2591214	2590588	-	KZN_4207-B
1532283.1532519.-	1532519	1532283	-	H37Ra	2877811.2878047.+	2877811	2878047	+	KZN_4207-B
2463360.2463611.-	2463611	2463360	-	H37Ra	1962713.1962964.+	1962713	1962964	+	KZN_4207-B
3091277.3092425.-	3092425	3091277	-	H37Ra	1334503.1335651.+	1334503	1335651	+	KZN_4207-B
882996.883724.+	882996	883724	+	H37Ra	882894.883622.+	882894	883622	+	KZN_4207-B
145408.146985.+	145408	146985	+	H37Ra	144181.145758.+	144181	145758	+	KZN_4207-B
2746760.2748799.-	2748799	2746760	-	H37Ra	1676792.1678831.+	1676792	1678831	+	KZN_4207-B
2748677.2748955.+	2748677	2748955	+	H37Ra	1676636.1676914.-	1676914	1676636	-	KZN_4207-B
3144883.3145428.-	3145428	3144883	-	H37Ra	1280334.1280879.+	1280334	1280879	+	KZN_4207-B
3147780.3148325.-	3148325	3147780	-	H37Ra	1280334.1280879.+	1280334	1280879	+	KZN_4207-B
2939958.2940359.+	2939958	2940359	+	H37Ra	1485368.1485769.-	1485769	1485368	-	KZN_4207-B
1053668.1053946.+	1053668	1053946	+	H37Ra	3356072.3356350.-	3356350	3356072	-	KZN_4207-B
3312588.3314336.-	3314336	3312588	-	H37Ra	1111260.1113008.+	1111260	1113008	+	KZN_4207-B
4186695.4189061.+	4186695	4189061	+	H37Ra	4161798.4164164.+	4161798	4164164	+	KZN_4207-B
1096386.1097759.-	1097759	1096386	-	H37Ra	3312250.3313623.+	3312250	3313623	+	KZN_4207-B
