3112867.3113271.+	3112867	3113271	+	H37Rv	1300386.1300790.-	1300790	1300386	-	KZN_1435
985513.985971.-	985971	985513	-	H37Rv	3426008.3426466.+	3426008	3426466	+	KZN_1435
2051282.2052688.+	2051282	2052688	+	H37Rv	2370181.2371587.-	2371587	2370181	-	KZN_1435
1053765.1054241.+	1053765	1054241	+	H37Rv	3357736.3358212.-	3358212	3357736	-	KZN_1435
1262272.1264128.-	1264128	1262272	-	H37Rv	3148049.3149905.+	3148049	3149905	+	KZN_1435
4246562.4249810.+	4246562	4249810	+	H37Rv	4233508.4236756.+	4233508	4236756	+	KZN_1435
1617837.1618070.+	1617837	1618070	+	H37Rv	2795614.2795847.-	2795847	2795614	-	KZN_1435
3997980.3999638.+	3997980	3999638	+	H37Rv	3983453.3985108.+	3983453	3985108	+	KZN_1435
2651753.2651938.+	2651753	2651938	+	H37Rv	1761765.1761950.-	1761950	1761765	-	KZN_1435
1169360.1170670.+	1169360	1170670	+	H37Rv	3069625.3070935.+	3069625	3070935	+	KZN_1435
3381375.3382685.-	3382685	3381375	-	H37Rv	3069625.3070935.+	3069625	3070935	+	KZN_1435
3481388.3482698.+	3481388	3482698	+	H37Rv	3069625.3070935.+	3069625	3070935	+	KZN_1435
1341358.1342668.-	1342668	1341358	-	H37Rv	3069625.3070935.+	3069625	3070935	+	KZN_1435
2828556.2829866.-	2829866	2828556	-	H37Rv	3069625.3070935.+	3069625	3070935	+	KZN_1435
1339352.1340524.+	1339352	1340524	+	H37Rv	3071769.3072941.-	3072941	3071769	-	KZN_1435
1532443.1533630.-	1533630	1532443	-	H37Rv	3071769.3072941.-	3072941	3071769	-	KZN_1435
3894429.3895607.+	3894429	3895607	+	H37Rv	3071769.3072941.-	3072941	3071769	-	KZN_1435
3983125.3984144.-	3984144	3983125	-	H37Rv	3968598.3969617.-	3969617	3968598	-	KZN_1435
1108578.1109171.-	1109171	1108578	-	H37Rv	3302796.3303389.+	3302796	3303389	+	KZN_1435
1938841.1939602.+	1938841	1939602	+	H37Rv	2483100.2483861.-	2483861	2483100	-	KZN_1435
2370905.2372542.-	2372542	2370905	-	H37Rv	2042801.2044438.+	2042801	2044438	+	KZN_1435
2594154.2594699.-	2594699	2594154	-	H37Rv	1821893.1822438.+	1821893	1822438	+	KZN_1435
2508434.2509375.-	2509375	2508434	-	H37Rv	1907216.1908157.+	1907216	1908157	+	KZN_1435
2646747.2647085.-	2647085	2646747	-	H37Rv	1766618.1766956.+	1766618	1766956	+	KZN_1435
1564401.1565027.+	1564401	1565027	+	H37Rv	2848677.2849303.-	2849303	2848677	-	KZN_1435
2562599.2563114.+	2562599	2563114	+	H37Rv	1853478.1853993.-	1853993	1853478	-	KZN_1435
2682015.2683142.-	2683142	2682015	-	H37Rv	1730561.1731688.+	1730561	1731688	+	KZN_1435
3639425.3639844.+	3639425	3639844	+	H37Rv	3637545.3637964.+	3637545	3637964	+	KZN_1435
677125.677691.-	677691	677125	-	H37Rv	677377.677943.-	677943	677377	-	KZN_1435
1053759.1054241.+	1053759	1054241	+	H37Rv	3357736.3358218.-	3358218	3357736	-	KZN_1435
876818.878440.-	878440	876818	-	H37Rv	878019.879641.-	879641	878019	-	KZN_1435
3957521.3958432.+	3957521	3958432	+	H37Rv	3942994.3943905.+	3942994	3943905	+	KZN_1435
545375.545821.-	545821	545375	-	H37Rv	545634.546080.-	546080	545634	-	KZN_1435
172211.173143.+	172211	173143	+	H37Rv	172150.173082.+	172150	173082	+	KZN_1435
3520507.3521142.+	3520507	3521142	+	H37Rv	3521330.3521965.+	3521330	3521965	+	KZN_1435
4310413.4310814.+	4310413	4310814	+	H37Rv	4297359.4297760.+	4297359	4297760	+	KZN_1435
3195545.3196216.-	3196216	3195545	-	H37Rv	1217612.1218283.+	1217612	1218283	+	KZN_1435
518733.519041.+	518733	519041	+	H37Rv	518992.519300.+	518992	519300	+	KZN_1435
274306.274986.-	274986	274306	-	H37Rv	274247.274927.-	274927	274247	-	KZN_1435
4103675.4104475.-	4104475	4103675	-	H37Rv	4090390.4091190.-	4091190	4090390	-	KZN_1435
4096936.4097994.-	4097994	4096936	-	H37Rv	4083651.4084709.-	4084709	4083651	-	KZN_1435
2857853.2858254.-	2858254	2857853	-	H37Rv	1555560.1555961.+	1555560	1555961	+	KZN_1435
103710.104573.-	104573	103710	-	H37Rv	103841.104704.-	104704	103841	-	KZN_1435
3884054.3884917.+	3884054	3884917	+	H37Rv	103841.104704.-	104704	103841	-	KZN_1435
1158918.1159409.-	1159409	1158918	-	H37Rv	3252559.3253050.+	3252559	3253050	+	KZN_1435
366150.373271.-	373271	366150	-	H37Rv	369007.376128.-	376128	369007	-	KZN_1435
1668419.1669144.+	1668419	1669144	+	H37Rv	2744322.2745047.-	2745047	2744322	-	KZN_1435
536504.537235.-	537235	536504	-	H37Rv	536763.537494.-	537494	536763	-	KZN_1435
3647888.3649381.+	3647888	3649381	+	H37Rv	3646008.3647501.+	3646008	3647501	+	KZN_1435
2097348.2097650.+	2097348	2097650	+	H37Rv	2325281.2325583.-	2325583	2325281	-	KZN_1435
2921551.2923182.+	2921551	2923182	+	H37Rv	1490633.1492264.-	1492264	1490633	-	KZN_1435
1199426.1200370.-	1200370	1199426	-	H37Rv	3211600.3212544.+	3211600	3212544	+	KZN_1435
2364797.2365054.-	2365054	2364797	-	H37Rv	2051646.2051903.+	2051646	2051903	+	KZN_1435
95417.96892.+	95417	96892	+	H37Rv	95548.97023.+	95548	97023	+	KZN_1435
2049921.2051150.+	2049921	2051150	+	H37Rv	2371719.2372948.-	2372948	2371719	-	KZN_1435
1179396.1180577.+	1179396	1180577	+	H37Rv	3231389.3232570.-	3232570	3231389	-	KZN_1435
230899.231534.+	230899	231534	+	H37Rv	230838.231473.+	230838	231473	+	KZN_1435
4019262.4020128.+	4019262	4020128	+	H37Rv	4004732.4005598.+	4004732	4005598	+	KZN_1435
4036598.4037296.-	4037296	4036598	-	H37Rv	4022068.4022766.-	4022766	4022068	-	KZN_1435
17467.18762.-	18762	17467	-	H37Rv	17569.18864.-	18864	17569	-	KZN_1435
4195440.4195802.+	4195440	4195802	+	H37Rv	4182386.4182748.+	4182386	4182748	+	KZN_1435
69541.71559.+	69541	71559	+	H37Rv	69644.71662.+	69644	71662	+	KZN_1435
2577194.2577820.-	2577820	2577194	-	H37Rv	1838772.1839398.+	1838772	1839398	+	KZN_1435
3664928.3665821.+	3664928	3665821	+	H37Rv	3662985.3663878.+	3662985	3663878	+	KZN_1435
3796448.3797437.-	3797437	3796448	-	H37Rv	3790960.3791949.-	3791949	3790960	-	KZN_1435
675831.676310.+	675831	676310	+	H37Rv	676083.676562.+	676083	676562	+	KZN_1435
3853215.3853703.-	3853703	3853215	-	H37Rv	3843033.3843521.-	3843521	3843033	-	KZN_1435
237892.238395.-	238395	237892	-	H37Rv	237833.238336.-	238336	237833	-	KZN_1435
3418726.3419376.-	3419376	3418726	-	H37Rv	994415.995065.+	994415	995065	+	KZN_1435
1276300.1276860.-	1276860	1276300	-	H37Rv	3135375.3135935.+	3135375	3135935	+	KZN_1435
3291503.3296353.-	3296353	3291503	-	H37Rv	1117250.1122100.+	1117250	1122100	+	KZN_1435
3357602.3358567.+	3357602	3358567	+	H37Rv	1055212.1056177.-	1056177	1055212	-	KZN_1435
2594699.2595364.-	2595364	2594699	-	H37Rv	1821228.1821893.+	1821228	1821893	+	KZN_1435
4293225.4299536.-	4299536	4293225	-	H37Rv	4280171.4286482.-	4286482	4280171	-	KZN_1435
2630537.2632075.-	2632075	2630537	-	H37Rv	1784516.1786054.+	1784516	1786054	+	KZN_1435
3251075.3255688.+	3251075	3255688	+	H37Rv	1157916.1162529.-	1162529	1157916	-	KZN_1435
1164572.1165435.-	1165435	1164572	-	H37Rv	3246533.3247396.+	3246533	3247396	+	KZN_1435
1277957.1278820.+	1277957	1278820	+	H37Rv	3246533.3247396.+	3246533	3247396	+	KZN_1435
3755952.3767102.-	3767102	3755952	-	H37Rv	3751813.3762963.-	3762963	3751813	-	KZN_1435
1682157.1684004.+	1682157	1684004	+	H37Rv	2729462.2731309.-	2731309	2729462	-	KZN_1435
4368518.4370170.-	4370170	4368518	-	H37Rv	4355464.4357116.-	4357116	4355464	-	KZN_1435
3871084.3872496.-	3872496	3871084	-	H37Rv	3860901.3862313.-	3862313	3860901	-	KZN_1435
889497.890333.+	889497	890333	+	H37Rv	1781593.1782429.+	1781593	1782429	+	KZN_1435
1541994.1542830.-	1542830	1541994	-	H37Rv	1781593.1782429.+	1781593	1782429	+	KZN_1435
1987745.1988581.-	1988581	1987745	-	H37Rv	1781593.1782429.+	1781593	1782429	+	KZN_1435
1996577.1997413.+	1996577	1997413	+	H37Rv	1781593.1782429.+	1781593	1782429	+	KZN_1435
2365890.2366726.+	2365890	2366726	+	H37Rv	1781593.1782429.+	1781593	1782429	+	KZN_1435
2430159.2430995.-	2430995	2430159	-	H37Rv	1781593.1782429.+	1781593	1782429	+	KZN_1435
2550490.2551326.+	2550490	2551326	+	H37Rv	1781593.1782429.+	1781593	1782429	+	KZN_1435
2636053.2636889.+	2636053	2636889	+	H37Rv	1781593.1782429.+	1781593	1782429	+	KZN_1435
2784657.2785493.-	2785493	2784657	-	H37Rv	1781593.1782429.+	1781593	1782429	+	KZN_1435
2972585.2973421.+	2972585	2973421	+	H37Rv	1781593.1782429.+	1781593	1782429	+	KZN_1435
3120566.3121402.-	3121402	3120566	-	H37Rv	1781593.1782429.+	1781593	1782429	+	KZN_1435
3551706.3552542.+	3551706	3552542	+	H37Rv	1781593.1782429.+	1781593	1782429	+	KZN_1435
3553189.3554025.+	3553189	3554025	+	H37Rv	1781593.1782429.+	1781593	1782429	+	KZN_1435
3710858.3711694.+	3710858	3711694	+	H37Rv	1781593.1782429.+	1781593	1782429	+	KZN_1435
3795100.3795936.-	3795936	3795100	-	H37Rv	1781593.1782429.+	1781593	1782429	+	KZN_1435
3891255.3892091.+	3891255	3892091	+	H37Rv	1781593.1782429.+	1781593	1782429	+	KZN_1435
1799583.1800899.+	1799583	1800899	+	H37Rv	2621813.2623129.-	2623129	2621813	-	KZN_1435
2433631.2434536.-	2434536	2433631	-	H37Rv	1981997.1982902.+	1981997	1982902	+	KZN_1435
1118428.1119939.-	1119939	1118428	-	H37Rv	3292028.3293539.+	3292028	3293539	+	KZN_1435
563567.564934.+	563567	564934	+	H37Rv	563826.565193.+	563826	565193	+	KZN_1435
3110507.3110737.-	3110737	3110507	-	H37Rv	1302920.1303150.+	1302920	1303150	+	KZN_1435
4158227.4158922.+	4158227	4158922	+	H37Rv	4145172.4145867.+	4145172	4145867	+	KZN_1435
3194166.3195545.-	3195545	3194166	-	H37Rv	1218283.1219662.+	1218283	1219662	+	KZN_1435
842033.842278.+	842033	842278	+	H37Rv	843231.843476.+	843231	843476	+	KZN_1435
832058.832303.+	832058	832303	+	H37Rv	843231.843476.+	843231	843476	+	KZN_1435
3871084.3872508.-	3872508	3871084	-	H37Rv	3860901.3862325.-	3862325	3860901	-	KZN_1435
669848.671152.+	669848	671152	+	H37Rv	670109.671413.+	670109	671413	+	KZN_1435
881075.881464.-	881464	881075	-	H37Rv	882276.882665.-	882665	882276	-	KZN_1435
3527391.3529163.-	3529163	3527391	-	H37Rv	3528214.3529986.-	3529986	3528214	-	KZN_1435
3363339.3363686.+	3363339	3363686	+	H37Rv	1050093.1050440.-	1050440	1050093	-	KZN_1435
2823256.2824593.-	2824593	2823256	-	H37Rv	1589221.1590558.+	1589221	1590558	+	KZN_1435
1169423.1170670.+	1169423	1170670	+	H37Rv	3241296.3242543.-	3242543	3241296	-	KZN_1435
3381375.3382622.-	3382622	3381375	-	H37Rv	3241296.3242543.-	3242543	3241296	-	KZN_1435
3481451.3482698.+	3481451	3482698	+	H37Rv	3241296.3242543.-	3242543	3241296	-	KZN_1435
1341358.1342605.-	1342605	1341358	-	H37Rv	3241296.3242543.-	3242543	3241296	-	KZN_1435
2828556.2829803.-	2829803	2828556	-	H37Rv	3241296.3242543.-	3242543	3241296	-	KZN_1435
3511682.3512068.+	3511682	3512068	+	H37Rv	3512505.3512891.+	3512505	3512891	+	KZN_1435
4212227.4212982.+	4212227	4212982	+	H37Rv	4199173.4199928.+	4199173	4199928	+	KZN_1435
2056521.2057423.+	2056521	2057423	+	H37Rv	2365446.2366348.-	2366348	2365446	-	KZN_1435
660886.661269.+	660886	661269	+	H37Rv	661147.661530.+	661147	661530	+	KZN_1435
142128.143876.-	143876	142128	-	H37Rv	142261.144009.-	144009	142261	-	KZN_1435
3376490.3376852.-	3376852	3376490	-	H37Rv	1036925.1037287.+	1036925	1037287	+	KZN_1435
361241.363109.+	361241	363109	+	H37Rv	364108.366039.+	364108	366039	+	KZN_1435
2353046.2353297.-	2353297	2353046	-	H37Rv	2063320.2063571.+	2063320	2063571	+	KZN_1435
53354.55699.+	53354	55699	+	H37Rv	53457.55802.+	53457	55802	+	KZN_1435
3708438.3709052.-	3709052	3708438	-	H37Rv	3706495.3707109.-	3707109	3706495	-	KZN_1435
3379036.3379329.-	3379329	3379036	-	H37Rv	1034448.1034741.+	1034448	1034741	+	KZN_1435
1799565.1800899.+	1799565	1800899	+	H37Rv	2621813.2623147.-	2623147	2621813	-	KZN_1435
3363309.3363686.+	3363309	3363686	+	H37Rv	1050093.1050470.-	1050470	1050093	-	KZN_1435
3123967.3124983.-	3124983	3123967	-	H37Rv	1288853.1289869.+	1288853	1289869	+	KZN_1435
2278498.2278932.-	2278932	2278498	-	H37Rv	2137782.2138216.+	2137782	2138216	+	KZN_1435
2943600.2944985.-	2944985	2943600	-	H37Rv	1468830.1470215.+	1468830	1470215	+	KZN_1435
3313316.3313729.-	3313729	3313316	-	H37Rv	1099875.1100288.+	1099875	1100288	+	KZN_1435
4355103.4356542.+	4355103	4356542	+	H37Rv	4342049.4343488.+	4342049	4343488	+	KZN_1435
1384989.1386677.-	1386677	1384989	-	H37Rv	3025614.3027302.+	3025614	3027302	+	KZN_1435
1273265.1274767.+	1273265	1274767	+	H37Rv	3137468.3138970.-	3138970	3137468	-	KZN_1435
2583438.2583779.+	2583438	2583779	+	H37Rv	1832813.1833154.-	1833154	1832813	-	KZN_1435
2720776.2721441.-	2721441	2720776	-	H37Rv	1692238.1692903.+	1692238	1692903	+	KZN_1435
2439282.2439947.-	2439947	2439282	-	H37Rv	1692238.1692903.+	1692238	1692903	+	KZN_1435
3022431.3023432.+	3022431	3023432	+	H37Rv	1391584.1392585.-	1392585	1391584	-	KZN_1435
830858.831661.+	830858	831661	+	H37Rv	831858.832661.+	831858	832661	+	KZN_1435
3839059.3839694.-	3839694	3839059	-	H37Rv	3833803.3834438.-	3834438	3833803	-	KZN_1435
543195.544730.+	543195	544730	+	H37Rv	543454.544989.+	543454	544989	+	KZN_1435
110307.117539.+	110307	117539	+	H37Rv	110438.117670.+	110438	117670	+	KZN_1435
241976.243214.-	243214	241976	-	H37Rv	241917.243155.-	243155	241917	-	KZN_1435
144007.145626.+	144007	145626	+	H37Rv	144140.145759.+	144140	145759	+	KZN_1435
2406840.2407616.-	2407616	2406840	-	H37Rv	2007559.2008335.+	2007559	2008335	+	KZN_1435
661295.663373.+	661295	663373	+	H37Rv	661556.663634.+	661556	663634	+	KZN_1435
3598901.3599551.-	3599551	3598901	-	H37Rv	3597021.3597671.-	3597671	3597021	-	KZN_1435
889497.890333.+	889497	890333	+	H37Rv	1605986.1606822.-	1606822	1605986	-	KZN_1435
1541994.1542830.-	1542830	1541994	-	H37Rv	1605986.1606822.-	1606822	1605986	-	KZN_1435
1987745.1988581.-	1988581	1987745	-	H37Rv	1605986.1606822.-	1606822	1605986	-	KZN_1435
1996577.1997413.+	1996577	1997413	+	H37Rv	1605986.1606822.-	1606822	1605986	-	KZN_1435
2365890.2366726.+	2365890	2366726	+	H37Rv	1605986.1606822.-	1606822	1605986	-	KZN_1435
2430159.2430995.-	2430995	2430159	-	H37Rv	1605986.1606822.-	1606822	1605986	-	KZN_1435
2550490.2551326.+	2550490	2551326	+	H37Rv	1605986.1606822.-	1606822	1605986	-	KZN_1435
2636053.2636889.+	2636053	2636889	+	H37Rv	1605986.1606822.-	1606822	1605986	-	KZN_1435
2784657.2785493.-	2785493	2784657	-	H37Rv	1605986.1606822.-	1606822	1605986	-	KZN_1435
2972585.2973421.+	2972585	2973421	+	H37Rv	1605986.1606822.-	1606822	1605986	-	KZN_1435
3120566.3121402.-	3121402	3120566	-	H37Rv	1605986.1606822.-	1606822	1605986	-	KZN_1435
3551706.3552542.+	3551706	3552542	+	H37Rv	1605986.1606822.-	1606822	1605986	-	KZN_1435
3553189.3554025.+	3553189	3554025	+	H37Rv	1605986.1606822.-	1606822	1605986	-	KZN_1435
3710858.3711694.+	3710858	3711694	+	H37Rv	1605986.1606822.-	1606822	1605986	-	KZN_1435
3795100.3795936.-	3795936	3795100	-	H37Rv	1605986.1606822.-	1606822	1605986	-	KZN_1435
3891255.3892091.+	3891255	3892091	+	H37Rv	1605986.1606822.-	1606822	1605986	-	KZN_1435
547586.549607.-	549607	547586	-	H37Rv	547845.549866.-	549866	547845	-	KZN_1435
2987691.2989268.+	2987691	2989268	+	H37Rv	1425905.1427482.-	1427482	1425905	-	KZN_1435
330422.331003.+	330422	331003	+	H37Rv	330362.330943.+	330362	330943	+	KZN_1435
34295.36610.+	34295	36610	+	H37Rv	34397.36643.+	34397	36643	+	KZN_1435
736298.737203.-	737203	736298	-	H37Rv	736550.737455.-	737455	736550	-	KZN_1435
889497.890333.+	889497	890333	+	H37Rv	3480315.3481151.+	3480315	3481151	+	KZN_1435
1541994.1542830.-	1542830	1541994	-	H37Rv	3480315.3481151.+	3480315	3481151	+	KZN_1435
1987745.1988581.-	1988581	1987745	-	H37Rv	3480315.3481151.+	3480315	3481151	+	KZN_1435
1996577.1997413.+	1996577	1997413	+	H37Rv	3480315.3481151.+	3480315	3481151	+	KZN_1435
2365890.2366726.+	2365890	2366726	+	H37Rv	3480315.3481151.+	3480315	3481151	+	KZN_1435
2430159.2430995.-	2430995	2430159	-	H37Rv	3480315.3481151.+	3480315	3481151	+	KZN_1435
2550490.2551326.+	2550490	2551326	+	H37Rv	3480315.3481151.+	3480315	3481151	+	KZN_1435
2636053.2636889.+	2636053	2636889	+	H37Rv	3480315.3481151.+	3480315	3481151	+	KZN_1435
2784657.2785493.-	2785493	2784657	-	H37Rv	3480315.3481151.+	3480315	3481151	+	KZN_1435
2972585.2973421.+	2972585	2973421	+	H37Rv	3480315.3481151.+	3480315	3481151	+	KZN_1435
3120566.3121402.-	3121402	3120566	-	H37Rv	3480315.3481151.+	3480315	3481151	+	KZN_1435
3551706.3552542.+	3551706	3552542	+	H37Rv	3480315.3481151.+	3480315	3481151	+	KZN_1435
3553189.3554025.+	3553189	3554025	+	H37Rv	3480315.3481151.+	3480315	3481151	+	KZN_1435
3710858.3711694.+	3710858	3711694	+	H37Rv	3480315.3481151.+	3480315	3481151	+	KZN_1435
3795100.3795936.-	3795936	3795100	-	H37Rv	3480315.3481151.+	3480315	3481151	+	KZN_1435
3891255.3892091.+	3891255	3892091	+	H37Rv	3480315.3481151.+	3480315	3481151	+	KZN_1435
133020.133769.+	133020	133769	+	H37Rv	133153.133902.+	133153	133902	+	KZN_1435
3168583.3169356.-	3169356	3168583	-	H37Rv	1244471.1245244.+	1244471	1245244	+	KZN_1435
2265280.2265999.+	2265280	2265999	+	H37Rv	2157073.2157792.-	2157792	2157073	-	KZN_1435
3339118.3339762.+	3339118	3339762	+	H37Rv	1074017.1074661.-	1074661	1074017	-	KZN_1435
2760809.2762380.+	2760809	2762380	+	H37Rv	1651299.1652870.-	1652870	1651299	-	KZN_1435
4160512.4160895.-	4160895	4160512	-	H37Rv	4147457.4147840.-	4147840	4147457	-	KZN_1435
1384997.1385542.-	1385542	1384997	-	H37Rv	3026749.3027294.+	3026749	3027294	+	KZN_1435
987233.988705.+	987233	988705	+	H37Rv	3423274.3424746.-	3424746	3423274	-	KZN_1435
1686887.1687888.+	1686887	1687888	+	H37Rv	2725578.2726579.-	2726579	2725578	-	KZN_1435
551749.551988.+	551749	551988	+	H37Rv	552008.552247.+	552008	552247	+	KZN_1435
661003.661269.+	661003	661269	+	H37Rv	661264.661530.+	661264	661530	+	KZN_1435
307877.309439.-	309439	307877	-	H37Rv	307817.309379.-	309379	307817	-	KZN_1435
2680458.2680667.+	2680458	2680667	+	H37Rv	1733036.1733245.-	1733245	1733036	-	KZN_1435
2881758.2882147.+	2881758	2882147	+	H37Rv	1531668.1532057.-	1532057	1531668	-	KZN_1435
349983.351476.+	349983	351476	+	H37Rv	352850.354343.+	352850	354343	+	KZN_1435
4283999.4284331.+	4283999	4284331	+	H37Rv	4270945.4271277.+	4270945	4271277	+	KZN_1435
1955692.1957245.-	1957245	1955692	-	H37Rv	2465401.2466954.+	2465401	2466954	+	KZN_1435
2232399.2232671.+	2232399	2232671	+	H37Rv	2190401.2190673.-	2190673	2190401	-	KZN_1435
366150.372764.-	372764	366150	-	H37Rv	369007.375621.-	375621	369007	-	KZN_1435
1902397.1903299.+	1902397	1903299	+	H37Rv	2519403.2520305.-	2520305	2519403	-	KZN_1435
4264563.4265462.-	4265462	4264563	-	H37Rv	4251509.4252408.-	4252408	4251509	-	KZN_1435
729327.730166.-	730166	729327	-	H37Rv	729579.730418.-	730418	729579	-	KZN_1435
2943376.2943603.+	2943376	2943603	+	H37Rv	1470212.1470439.-	1470439	1470212	-	KZN_1435
3101581.3102186.-	3102186	3101581	-	H37Rv	1311471.1312076.+	1311471	1312076	+	KZN_1435
4128751.4129116.-	4129116	4128751	-	H37Rv	4115637.4116002.-	4116002	4115637	-	KZN_1435
2453458.2453709.-	2453709	2453458	-	H37Rv	1962825.1963076.+	1962825	1963076	+	KZN_1435
3447404.3448426.-	3448426	3447404	-	H37Rv	965350.966372.+	965350	966372	+	KZN_1435
1687944.1689230.+	1687944	1689230	+	H37Rv	2724236.2725522.-	2725522	2724236	-	KZN_1435
3394019.3394921.-	3394921	3394019	-	H37Rv	1018856.1019758.+	1018856	1019758	+	KZN_1435
1094886.1095059.+	1094886	1095059	+	H37Rv	3316908.3317081.-	3317081	3316908	-	KZN_1435
3709715.3710248.-	3710248	3709715	-	H37Rv	3707772.3708305.-	3708305	3707772	-	KZN_1435
2976586.2976909.-	2976909	2976586	-	H37Rv	1438264.1438587.+	1438264	1438587	+	KZN_1435
3429568.3429750.+	3429568	3429750	+	H37Rv	984026.984208.-	984208	984026	-	KZN_1435
4251109.4252866.+	4251109	4252866	+	H37Rv	4238055.4239812.+	4238055	4239812	+	KZN_1435
2092259.2093695.-	2093695	2092259	-	H37Rv	2329230.2330666.+	2329230	2330666	+	KZN_1435
2662067.2667115.-	2667115	2662067	-	H37Rv	1746588.1751636.+	1746588	1751636	+	KZN_1435
257783.258856.-	258856	257783	-	H37Rv	257724.258797.-	258797	257724	-	KZN_1435
1074080.1074421.+	1074080	1074421	+	H37Rv	3337558.3337899.-	3337899	3337558	-	KZN_1435
2833510.2833761.-	2833761	2833510	-	H37Rv	1580053.1580304.+	1580053	1580304	+	KZN_1435
3239515.3239706.-	3239706	3239515	-	H37Rv	1173899.1174090.+	1173899	1174090	+	KZN_1435
1886512.1888020.+	1886512	1888020	+	H37Rv	2534692.2536200.-	2536200	2534692	-	KZN_1435
103710.104663.-	104663	103710	-	H37Rv	2633315.2634271.+	2633315	2634271	+	KZN_1435
3883964.3884917.+	3883964	3884917	+	H37Rv	2633315.2634271.+	2633315	2634271	+	KZN_1435
1268203.1269009.-	1269009	1268203	-	H37Rv	3143226.3144032.+	3143226	3144032	+	KZN_1435
1158918.1159307.-	1159307	1158918	-	H37Rv	3252661.3253050.+	3252661	3253050	+	KZN_1435
1403386.1404603.-	1404603	1403386	-	H37Rv	3007688.3008905.+	3007688	3008905	+	KZN_1435
1168704.1169228.-	1169228	1168704	-	H37Rv	3242738.3243331.+	3242738	3243331	+	KZN_1435
3386074.3386814.-	3386814	3386074	-	H37Rv	1026962.1027702.+	1026962	1027702	+	KZN_1435
64991.65416.+	64991	65416	+	H37Rv	65094.65519.+	65094	65519	+	KZN_1435
25913.26881.-	26881	25913	-	H37Rv	26015.26983.-	26983	26015	-	KZN_1435
315783.316415.-	316415	315783	-	H37Rv	315723.316355.-	316355	315723	-	KZN_1435
1965609.1965941.+	1965609	1965941	+	H37Rv	2456705.2457037.-	2457037	2456705	-	KZN_1435
2968533.2968850.-	2968850	2968533	-	H37Rv	1444965.1445282.+	1444965	1445282	+	KZN_1435
1259067.1261346.-	1261346	1259067	-	H37Rv	3150831.3153110.+	3150831	3153110	+	KZN_1435
1739856.1741247.+	1739856	1741247	+	H37Rv	2672219.2673610.-	2673610	2672219	-	KZN_1435
3703464.3703865.-	3703865	3703464	-	H37Rv	3701521.3701922.-	3701922	3701521	-	KZN_1435
4062527.4063249.+	4062527	4063249	+	H37Rv	4047886.4048608.+	4047886	4048608	+	KZN_1435
3053812.3055491.+	3053812	3055491	+	H37Rv	1359525.1361204.-	1361204	1359525	-	KZN_1435
3887144.3888802.-	3888802	3887144	-	H37Rv	3876961.3878619.-	3878619	3876961	-	KZN_1435
1791334.1791573.+	1791334	1791573	+	H37Rv	2631139.2631378.-	2631378	2631139	-	KZN_1435
876319.876798.-	876798	876319	-	H37Rv	877520.877999.-	877999	877520	-	KZN_1435
631743.632375.+	631743	632375	+	H37Rv	632004.632636.+	632004	632636	+	KZN_1435
1973636.1976227.+	1973636	1976227	+	H37Rv	2446419.2449010.-	2449010	2446419	-	KZN_1435
2211626.2212858.+	2211626	2212858	+	H37Rv	2210214.2211446.-	2211446	2210214	-	KZN_1435
1597906.1598883.+	1597906	1598883	+	H37Rv	2814822.2815799.-	2815799	2814822	-	KZN_1435
889497.890333.+	889497	890333	+	H37Rv	4063263.4064099.-	4064099	4063263	-	KZN_1435
1541994.1542830.-	1542830	1541994	-	H37Rv	4063263.4064099.-	4064099	4063263	-	KZN_1435
1987745.1988581.-	1988581	1987745	-	H37Rv	4063263.4064099.-	4064099	4063263	-	KZN_1435
1996577.1997413.+	1996577	1997413	+	H37Rv	4063263.4064099.-	4064099	4063263	-	KZN_1435
2365890.2366726.+	2365890	2366726	+	H37Rv	4063263.4064099.-	4064099	4063263	-	KZN_1435
2430159.2430995.-	2430995	2430159	-	H37Rv	4063263.4064099.-	4064099	4063263	-	KZN_1435
2550490.2551326.+	2550490	2551326	+	H37Rv	4063263.4064099.-	4064099	4063263	-	KZN_1435
2636053.2636889.+	2636053	2636889	+	H37Rv	4063263.4064099.-	4064099	4063263	-	KZN_1435
2784657.2785493.-	2785493	2784657	-	H37Rv	4063263.4064099.-	4064099	4063263	-	KZN_1435
2972585.2973421.+	2972585	2973421	+	H37Rv	4063263.4064099.-	4064099	4063263	-	KZN_1435
3120566.3121402.-	3121402	3120566	-	H37Rv	4063263.4064099.-	4064099	4063263	-	KZN_1435
3551706.3552542.+	3551706	3552542	+	H37Rv	4063263.4064099.-	4064099	4063263	-	KZN_1435
3553189.3554025.+	3553189	3554025	+	H37Rv	4063263.4064099.-	4064099	4063263	-	KZN_1435
3710858.3711694.+	3710858	3711694	+	H37Rv	4063263.4064099.-	4064099	4063263	-	KZN_1435
3795100.3795936.-	3795936	3795100	-	H37Rv	4063263.4064099.-	4064099	4063263	-	KZN_1435
3891255.3892091.+	3891255	3892091	+	H37Rv	4063263.4064099.-	4064099	4063263	-	KZN_1435
702813.703199.+	702813	703199	+	H37Rv	703065.703451.+	703065	703451	+	KZN_1435
2710351.2711301.-	2711301	2710351	-	H37Rv	1702381.1703331.+	1702381	1703331	+	KZN_1435
3378329.3378532.-	3378532	3378329	-	H37Rv	1035245.1035448.+	1035245	1035448	+	KZN_1435
1965657.1965941.+	1965657	1965941	+	H37Rv	2456705.2456989.-	2456989	2456705	-	KZN_1435
2379245.2379727.-	2379727	2379245	-	H37Rv	2035388.2035870.+	2035388	2035870	+	KZN_1435
2706017.2706736.+	2706017	2706736	+	H37Rv	1706946.1707665.-	1707665	1706946	-	KZN_1435
2747595.2750225.-	2750225	2747595	-	H37Rv	1663454.1666084.+	1663454	1666084	+	KZN_1435
4028968.4029762.-	4029762	4028968	-	H37Rv	4014438.4015232.-	4015232	4014438	-	KZN_1435
3557311.3558345.-	3558345	3557311	-	H37Rv	3555418.3556452.-	3556452	3555418	-	KZN_1435
2281294.2281617.+	2281294	2281617	+	H37Rv	2135097.2135420.-	2135420	2135097	-	KZN_1435
1172881.1173786.+	1172881	1173786	+	H37Rv	3238180.3239085.-	3239085	3238180	-	KZN_1435
2852875.2854266.+	2852875	2854266	+	H37Rv	1559548.1560939.-	1560939	1559548	-	KZN_1435
2428235.2429269.-	2429269	2428235	-	H37Rv	1985906.1986940.+	1985906	1986940	+	KZN_1435
3325934.3326104.+	3325934	3326104	+	H37Rv	1087500.1087670.-	1087670	1087500	-	KZN_1435
1917756.1917932.+	1917756	1917932	+	H37Rv	2504770.2504946.-	2504946	2504770	-	KZN_1435
2370598.2370792.-	2370792	2370598	-	H37Rv	2044551.2044745.+	2044551	2044745	+	KZN_1435
204065.205237.+	204065	205237	+	H37Rv	204004.205176.+	204004	205176	+	KZN_1435
1129152.1130105.+	1129152	1130105	+	H37Rv	3281862.3282815.-	3282815	3281862	-	KZN_1435
1616365.1616601.-	1616601	1616365	-	H37Rv	2797083.2797319.+	2797083	2797319	+	KZN_1435
181987.183198.-	183198	181987	-	H37Rv	181926.183137.-	183137	181926	-	KZN_1435
1077233.1077835.-	1077835	1077233	-	H37Rv	3334144.3334746.+	3334144	3334746	+	KZN_1435
3034635.3034883.+	3034635	3034883	+	H37Rv	1380133.1380381.-	1380381	1380133	-	KZN_1435
4351075.4352181.+	4351075	4352181	+	H37Rv	4338021.4339127.+	4338021	4339127	+	KZN_1435
3031845.3032498.+	3031845	3032498	+	H37Rv	1382518.1383171.-	1383171	1382518	-	KZN_1435
1693996.1694436.-	1694436	1693996	-	H37Rv	2719030.2719470.+	2719030	2719470	+	KZN_1435
2445807.2446946.-	2446946	2445807	-	H37Rv	1969588.1970727.+	1969588	1970727	+	KZN_1435
2084756.2086981.-	2086981	2084756	-	H37Rv	2335944.2338169.+	2335944	2338169	+	KZN_1435
2705486.2705758.-	2705758	2705486	-	H37Rv	1707924.1708196.+	1707924	1708196	+	KZN_1435
3569109.3571211.-	3571211	3569109	-	H37Rv	3567216.3569318.-	3569318	3567216	-	KZN_1435
3364709.3365830.+	3364709	3365830	+	H37Rv	1047949.1049070.-	1049070	1047949	-	KZN_1435
3162268.3164115.+	3162268	3164115	+	H37Rv	1249712.1251559.-	1251559	1249712	-	KZN_1435
987203.988705.+	987203	988705	+	H37Rv	3423274.3424776.-	3424776	3423274	-	KZN_1435
3174801.3174995.+	3174801	3174995	+	H37Rv	1238832.1239026.-	1239026	1238832	-	KZN_1435
3743711.3753148.-	3753148	3743711	-	H37Rv	3739572.3749009.-	3749009	3739572	-	KZN_1435
2980963.2981430.-	2981430	2980963	-	H37Rv	1433743.1434210.+	1433743	1434210	+	KZN_1435
2212855.2214126.+	2212855	2214126	+	H37Rv	2208946.2210217.-	2210217	2208946	-	KZN_1435
57410.57973.+	57410	57973	+	H37Rv	57513.58076.+	57513	58076	+	KZN_1435
3011399.3011767.-	3011767	3011399	-	H37Rv	1403249.1403617.+	1403249	1403617	+	KZN_1435
1075297.1076097.-	1076097	1075297	-	H37Rv	3335882.3336682.+	3335882	3336682	+	KZN_1435
3134596.3135483.-	3135483	3134596	-	H37Rv	1278344.1279231.+	1278344	1279231	+	KZN_1435
1587772.1588482.-	1588482	1587772	-	H37Rv	2825223.2825933.+	2825223	2825933	+	KZN_1435
2167649.2170690.-	2170690	2167649	-	H37Rv	2252383.2255424.+	2252383	2255424	+	KZN_1435
2580028.2580210.-	2580210	2580028	-	H37Rv	1836382.1836564.+	1836382	1836564	+	KZN_1435
3754293.3755033.-	3755033	3754293	-	H37Rv	3750154.3750894.-	3750894	3750154	-	KZN_1435
3350274.3351071.-	3351071	3350274	-	H37Rv	1062708.1063505.+	1062708	1063505	+	KZN_1435
709599.710348.+	709599	710348	+	H37Rv	709851.710600.+	709851	710600	+	KZN_1435
739327.740187.-	740187	739327	-	H37Rv	739579.740439.-	740439	739579	-	KZN_1435
1467315.1467680.+	1467315	1467680	+	H37Rv	2944668.2945033.-	2945033	2944668	-	KZN_1435
1207299.1207649.+	1207299	1207649	+	H37Rv	3204321.3204671.-	3204671	3204321	-	KZN_1435
3811719.3812345.+	3811719	3812345	+	H37Rv	3806231.3806857.+	3806231	3806857	+	KZN_1435
544835.545185.+	544835	545185	+	H37Rv	545094.545444.+	545094	545444	+	KZN_1435
1276300.1277748.-	1277748	1276300	-	H37Rv	3134487.3135935.+	3134487	3135935	+	KZN_1435
2195905.2197353.+	2195905	2197353	+	H37Rv	3134487.3135935.+	3134487	3135935	+	KZN_1435
278385.278588.+	278385	278588	+	H37Rv	278326.278529.+	278326	278529	+	KZN_1435
799629.799850.+	799629	799850	+	H37Rv	800413.800634.+	800413	800634	+	KZN_1435
3044375.3044989.-	3044989	3044375	-	H37Rv	1370027.1370641.+	1370027	1370641	+	KZN_1435
4098096.4099148.-	4099148	4098096	-	H37Rv	4084811.4085863.-	4085863	4084811	-	KZN_1435
1419014.1419748.-	1419748	1419014	-	H37Rv	2992543.2993277.+	2992543	2993277	+	KZN_1435
601857.602786.+	601857	602786	+	H37Rv	602036.602965.+	602036	602965	+	KZN_1435
456268.456918.-	456918	456268	-	H37Rv	456525.457175.-	457175	456525	-	KZN_1435
1858733.1859758.+	1858733	1859758	+	H37Rv	2562954.2563979.-	2563979	2562954	-	KZN_1435
359758.361155.-	361155	359758	-	H37Rv	362625.364022.-	364022	362625	-	KZN_1435
2649946.2650248.-	2650248	2649946	-	H37Rv	1763455.1763757.+	1763455	1763757	+	KZN_1435
103710.104669.-	104669	103710	-	H37Rv	3873775.3874734.+	3873775	3874734	+	KZN_1435
3883958.3884917.+	3883958	3884917	+	H37Rv	3873775.3874734.+	3873775	3874734	+	KZN_1435
1425438.1425914.-	1425914	1425438	-	H37Rv	2986377.2986853.+	2986377	2986853	+	KZN_1435
3639872.3640141.-	3640141	3639872	-	H37Rv	3637992.3638261.-	3638261	3637992	-	KZN_1435
3529990.3531138.-	3531138	3529990	-	H37Rv	3530813.3531961.-	3531961	3530813	-	KZN_1435
828947.829159.+	828947	829159	+	H37Rv	829947.830159.+	829947	830159	+	KZN_1435
2725578.2725847.+	2725578	2725847	+	H37Rv	1687832.1688101.-	1688101	1687832	-	KZN_1435
2294531.2302723.-	2302723	2294531	-	H37Rv	2113991.2122183.+	2113991	2122183	+	KZN_1435
4072667.4073611.-	4073611	4072667	-	H37Rv	4058026.4058970.-	4058970	4058026	-	KZN_1435
2555941.2556135.+	2555941	2556135	+	H37Rv	1860457.1860651.-	1860651	1860457	-	KZN_1435
131382.132872.+	131382	132872	+	H37Rv	131515.133005.+	131515	133005	+	KZN_1435
2784123.2784608.-	2784608	2784123	-	H37Rv	1629074.1629559.+	1629074	1629559	+	KZN_1435
1870842.1871354.+	1870842	1871354	+	H37Rv	2551358.2551870.-	2551870	2551358	-	KZN_1435
1200767.1201660.+	1200767	1201660	+	H37Rv	3210310.3211203.-	3211203	3210310	-	KZN_1435
2387202.2388269.-	2388269	2387202	-	H37Rv	2026848.2027915.+	2026848	2027915	+	KZN_1435
3132892.3133437.-	3133437	3132892	-	H37Rv	1280390.1280935.+	1280390	1280935	+	KZN_1435
3135788.3136333.-	3136333	3135788	-	H37Rv	1280390.1280935.+	1280390	1280935	+	KZN_1435
2546883.2547752.+	2546883	2547752	+	H37Rv	1868840.1869709.-	1869709	1868840	-	KZN_1435
3725884.3726096.-	3726096	3725884	-	H37Rv	3721793.3722005.-	3722005	3721793	-	KZN_1435
955050.956288.+	955050	956288	+	H37Rv	3455752.3456990.-	3456990	3455752	-	KZN_1435
1165092.1165499.-	1165499	1165092	-	H37Rv	3133934.3134341.-	3134341	3133934	-	KZN_1435
1277893.1278300.+	1277893	1278300	+	H37Rv	3133934.3134341.-	3134341	3133934	-	KZN_1435
738297.739160.-	739160	738297	-	H37Rv	738549.739412.-	739412	738549	-	KZN_1435
52831.53244.+	52831	53244	+	H37Rv	52934.53347.+	52934	53347	+	KZN_1435
1265087.1265455.-	1265455	1265087	-	H37Rv	3146722.3147090.+	3146722	3147090	+	KZN_1435
1108172.1108504.-	1108504	1108172	-	H37Rv	3303463.3303795.+	3303463	3303795	+	KZN_1435
889497.890333.+	889497	890333	+	H37Rv	1292329.1293165.+	1292329	1293165	+	KZN_1435
1541994.1542830.-	1542830	1541994	-	H37Rv	1292329.1293165.+	1292329	1293165	+	KZN_1435
1987745.1988581.-	1988581	1987745	-	H37Rv	1292329.1293165.+	1292329	1293165	+	KZN_1435
1996577.1997413.+	1996577	1997413	+	H37Rv	1292329.1293165.+	1292329	1293165	+	KZN_1435
2365890.2366726.+	2365890	2366726	+	H37Rv	1292329.1293165.+	1292329	1293165	+	KZN_1435
2430159.2430995.-	2430995	2430159	-	H37Rv	1292329.1293165.+	1292329	1293165	+	KZN_1435
2550490.2551326.+	2550490	2551326	+	H37Rv	1292329.1293165.+	1292329	1293165	+	KZN_1435
2636053.2636889.+	2636053	2636889	+	H37Rv	1292329.1293165.+	1292329	1293165	+	KZN_1435
2784657.2785493.-	2785493	2784657	-	H37Rv	1292329.1293165.+	1292329	1293165	+	KZN_1435
2972585.2973421.+	2972585	2973421	+	H37Rv	1292329.1293165.+	1292329	1293165	+	KZN_1435
3120566.3121402.-	3121402	3120566	-	H37Rv	1292329.1293165.+	1292329	1293165	+	KZN_1435
3551706.3552542.+	3551706	3552542	+	H37Rv	1292329.1293165.+	1292329	1293165	+	KZN_1435
3553189.3554025.+	3553189	3554025	+	H37Rv	1292329.1293165.+	1292329	1293165	+	KZN_1435
3710858.3711694.+	3710858	3711694	+	H37Rv	1292329.1293165.+	1292329	1293165	+	KZN_1435
3795100.3795936.-	3795936	3795100	-	H37Rv	1292329.1293165.+	1292329	1293165	+	KZN_1435
3891255.3892091.+	3891255	3892091	+	H37Rv	1292329.1293165.+	1292329	1293165	+	KZN_1435
456268.456819.-	456819	456268	-	H37Rv	456525.457076.-	457076	456525	-	KZN_1435
4052855.4053556.+	4052855	4053556	+	H37Rv	4038325.4038915.+	4038325	4038915	+	KZN_1435
3313773.3314591.-	3314591	3313773	-	H37Rv	1099013.1099831.+	1099013	1099831	+	KZN_1435
4302786.4303391.-	4303391	4302786	-	H37Rv	4289732.4290337.-	4290337	4289732	-	KZN_1435
4309047.4310396.+	4309047	4310396	+	H37Rv	4295993.4297342.+	4295993	4297342	+	KZN_1435
1905250.1906242.+	1905250	1906242	+	H37Rv	2516460.2517452.-	2517452	2516460	-	KZN_1435
1992739.1992972.+	1992739	1992972	+	H37Rv	2430857.2431090.-	2431090	2430857	-	KZN_1435
3895820.3898885.+	3895820	3898885	+	H37Rv	3884279.3887344.+	3884279	3887344	+	KZN_1435
872672.873292.-	873292	872672	-	H37Rv	873871.874491.-	874491	873871	-	KZN_1435
1095078.1096496.-	1096496	1095078	-	H37Rv	3315471.3316889.+	3315471	3316889	+	KZN_1435
805756.806166.+	805756	806166	+	H37Rv	806756.807166.+	806756	807166	+	KZN_1435
151148.152215.+	151148	152215	+	H37Rv	151462.152529.+	151462	152529	+	KZN_1435
104805.105101.-	105101	104805	-	H37Rv	104936.105232.-	105232	104936	-	KZN_1435
846168.847913.+	846168	847913	+	H37Rv	847366.849111.+	847366	849111	+	KZN_1435
2029904.2030203.+	2029904	2030203	+	H37Rv	2394024.2394323.-	2394323	2394024	-	KZN_1435
2528980.2529174.-	2529174	2528980	-	H37Rv	1887416.1887610.+	1887416	1887610	+	KZN_1435
3435798.3436313.-	3436313	3435798	-	H37Rv	977463.977978.+	977463	977978	+	KZN_1435
932279.932932.-	932932	932279	-	H37Rv	3479108.3479761.+	3479108	3479761	+	KZN_1435
1169423.1170670.+	1169423	1170670	+	H37Rv	3482274.3483521.+	3482274	3483521	+	KZN_1435
3381375.3382622.-	3382622	3381375	-	H37Rv	3482274.3483521.+	3482274	3483521	+	KZN_1435
3481451.3482698.+	3481451	3482698	+	H37Rv	3482274.3483521.+	3482274	3483521	+	KZN_1435
1341358.1342605.-	1342605	1341358	-	H37Rv	3482274.3483521.+	3482274	3483521	+	KZN_1435
2828556.2829803.-	2829803	2828556	-	H37Rv	3482274.3483521.+	3482274	3483521	+	KZN_1435
1413326.1413940.+	1413326	1413940	+	H37Rv	2998351.2998965.-	2998965	2998351	-	KZN_1435
1169375.1170670.+	1169375	1170670	+	H37Rv	3482226.3483521.+	3482226	3483521	+	KZN_1435
3381375.3382670.-	3382670	3381375	-	H37Rv	3482226.3483521.+	3482226	3483521	+	KZN_1435
3481403.3482698.+	3481403	3482698	+	H37Rv	3482226.3483521.+	3482226	3483521	+	KZN_1435
1341358.1342653.-	1342653	1341358	-	H37Rv	3482226.3483521.+	3482226	3483521	+	KZN_1435
2828556.2829851.-	2829851	2828556	-	H37Rv	3482226.3483521.+	3482226	3483521	+	KZN_1435
2860452.2861144.+	2860452	2861144	+	H37Rv	1552670.1553362.-	1553362	1552670	-	KZN_1435
2627172.2628698.-	2628698	2627172	-	H37Rv	1787893.1789419.+	1787893	1789419	+	KZN_1435
1169375.1170670.+	1169375	1170670	+	H37Rv	3241296.3242591.-	3242591	3241296	-	KZN_1435
3381375.3382670.-	3382670	3381375	-	H37Rv	3241296.3242591.-	3242591	3241296	-	KZN_1435
3481403.3482698.+	3481403	3482698	+	H37Rv	3241296.3242591.-	3242591	3241296	-	KZN_1435
1341358.1342653.-	1342653	1341358	-	H37Rv	3241296.3242591.-	3242591	3241296	-	KZN_1435
2828556.2829851.-	2829851	2828556	-	H37Rv	3241296.3242591.-	3242591	3241296	-	KZN_1435
3538505.3539851.+	3538505	3539851	+	H37Rv	3539328.3540674.+	3539328	3540674	+	KZN_1435
139965.140144.+	139965	140144	+	H37Rv	140098.140277.+	140098	140277	+	KZN_1435
3876052.3876822.-	3876822	3876052	-	H37Rv	3865869.3866639.-	3866639	3865869	-	KZN_1435
3781501.3784776.-	3784776	3781501	-	H37Rv	3777371.3780646.-	3780646	3777371	-	KZN_1435
2534042.2534464.-	2534464	2534042	-	H37Rv	1882126.1882548.+	1882126	1882548	+	KZN_1435
3339857.3342082.+	3339857	3342082	+	H37Rv	1071697.1073922.-	1073922	1071697	-	KZN_1435
1283056.1284129.-	1284129	1283056	-	H37Rv	3128105.3129178.+	3128105	3129178	+	KZN_1435
144049.145626.+	144049	145626	+	H37Rv	144182.145759.+	144182	145759	+	KZN_1435
2400376.2401722.-	2401722	2400376	-	H37Rv	2013395.2014741.+	2013395	2014741	+	KZN_1435
1259067.1261451.-	1261451	1259067	-	H37Rv	3150726.3153110.+	3150726	3153110	+	KZN_1435
586394.587380.+	586394	587380	+	H37Rv	586573.587559.+	586573	587559	+	KZN_1435
769999.770550.+	769999	770550	+	H37Rv	770783.771334.+	770783	771334	+	KZN_1435
3404967.3405218.+	3404967	3405218	+	H37Rv	1008559.1008810.-	1008810	1008559	-	KZN_1435
1114293.1114724.+	1114293	1114724	+	H37Rv	3297243.3297674.-	3297674	3297243	-	KZN_1435
1299822.1300124.-	1300124	1299822	-	H37Rv	3112110.3112412.+	3112110	3112412	+	KZN_1435
33582.33794.+	33582	33794	+	H37Rv	33684.33896.+	33684	33896	+	KZN_1435
3488584.3489063.+	3488584	3489063	+	H37Rv	3489407.3489886.+	3489407	3489886	+	KZN_1435
3238601.3239515.-	3239515	3238601	-	H37Rv	1174090.1175004.+	1174090	1175004	+	KZN_1435
1622768.1623007.+	1622768	1623007	+	H37Rv	2790734.2790973.-	2790973	2790734	-	KZN_1435
3623159.3624910.-	3624910	3623159	-	H37Rv	3621279.3623030.-	3623030	3621279	-	KZN_1435
3359320.3359538.-	3359538	3359320	-	H37Rv	1054241.1054459.+	1054241	1054459	+	KZN_1435
3811704.3812345.+	3811704	3812345	+	H37Rv	3806216.3806857.+	3806216	3806857	+	KZN_1435
2583884.2584408.+	2583884	2584408	+	H37Rv	1832184.1832708.-	1832708	1832184	-	KZN_1435
4205538.4205840.+	4205538	4205840	+	H37Rv	4192484.4192786.+	4192484	4192786	+	KZN_1435
2260665.2261144.+	2260665	2261144	+	H37Rv	2161928.2162407.-	2162407	2161928	-	KZN_1435
889497.890333.+	889497	890333	+	H37Rv	2375978.2376814.+	2375978	2376814	+	KZN_1435
1541994.1542830.-	1542830	1541994	-	H37Rv	2375978.2376814.+	2375978	2376814	+	KZN_1435
1987745.1988581.-	1988581	1987745	-	H37Rv	2375978.2376814.+	2375978	2376814	+	KZN_1435
1996577.1997413.+	1996577	1997413	+	H37Rv	2375978.2376814.+	2375978	2376814	+	KZN_1435
2365890.2366726.+	2365890	2366726	+	H37Rv	2375978.2376814.+	2375978	2376814	+	KZN_1435
2430159.2430995.-	2430995	2430159	-	H37Rv	2375978.2376814.+	2375978	2376814	+	KZN_1435
2550490.2551326.+	2550490	2551326	+	H37Rv	2375978.2376814.+	2375978	2376814	+	KZN_1435
2636053.2636889.+	2636053	2636889	+	H37Rv	2375978.2376814.+	2375978	2376814	+	KZN_1435
2784657.2785493.-	2785493	2784657	-	H37Rv	2375978.2376814.+	2375978	2376814	+	KZN_1435
2972585.2973421.+	2972585	2973421	+	H37Rv	2375978.2376814.+	2375978	2376814	+	KZN_1435
3120566.3121402.-	3121402	3120566	-	H37Rv	2375978.2376814.+	2375978	2376814	+	KZN_1435
3551706.3552542.+	3551706	3552542	+	H37Rv	2375978.2376814.+	2375978	2376814	+	KZN_1435
3553189.3554025.+	3553189	3554025	+	H37Rv	2375978.2376814.+	2375978	2376814	+	KZN_1435
3710858.3711694.+	3710858	3711694	+	H37Rv	2375978.2376814.+	2375978	2376814	+	KZN_1435
3795100.3795936.-	3795936	3795100	-	H37Rv	2375978.2376814.+	2375978	2376814	+	KZN_1435
3891255.3892091.+	3891255	3892091	+	H37Rv	2375978.2376814.+	2375978	2376814	+	KZN_1435
3704102.3704440.+	3704102	3704440	+	H37Rv	3702159.3702497.+	3702159	3702497	+	KZN_1435
2469387.2470673.-	2470673	2469387	-	H37Rv	1945918.1947204.+	1945918	1947204	+	KZN_1435
4017089.4018168.-	4018168	4017089	-	H37Rv	4002559.4003638.-	4003638	4002559	-	KZN_1435
1228713.1229384.+	1228713	1229384	+	H37Rv	3182793.3183464.-	3183464	3182793	-	KZN_1435
3184663.3184854.+	3184663	3184854	+	H37Rv	1228973.1229164.-	1229164	1228973	-	KZN_1435
3044986.3046524.-	3046524	3044986	-	H37Rv	1368492.1370030.+	1368492	1370030	+	KZN_1435
3073680.3074471.-	3074471	3073680	-	H37Rv	1340545.1341336.+	1340545	1341336	+	KZN_1435
938112.939404.+	938112	939404	+	H37Rv	3472636.3473928.-	3473928	3472636	-	KZN_1435
1090373.1093144.+	1090373	1093144	+	H37Rv	3318835.3321606.-	3321606	3318835	-	KZN_1435
3743711.3751129.-	3751129	3743711	-	H37Rv	3739572.3746990.-	3746990	3739572	-	KZN_1435
4211080.4211784.-	4211784	4211080	-	H37Rv	4198026.4198730.-	4198730	4198026	-	KZN_1435
3380679.3381092.-	3381092	3380679	-	H37Rv	1032684.1033097.+	1032684	1033097	+	KZN_1435
2308131.2310755.-	2310755	2308131	-	H37Rv	2105956.2108580.+	2105956	2108580	+	KZN_1435
2448160.2449962.+	2448160	2449962	+	H37Rv	1966572.1968374.-	1968374	1966572	-	KZN_1435
415050.415460.+	415050	415460	+	H37Rv	417936.418346.+	417936	418346	+	KZN_1435
1461045.1461290.+	1461045	1461290	+	H37Rv	2951058.2951303.-	2951303	2951058	-	KZN_1435
714202.715266.+	714202	715266	+	H37Rv	714454.715518.+	714454	715518	+	KZN_1435
254637.255950.-	255950	254637	-	H37Rv	254578.255891.-	255891	254578	-	KZN_1435
3427243.3429519.+	3427243	3429519	+	H37Rv	984257.986533.-	986533	984257	-	KZN_1435
3668951.3669388.-	3669388	3668951	-	H37Rv	3667008.3667445.-	3667445	3667008	-	KZN_1435
1566825.1568036.+	1566825	1568036	+	H37Rv	2845668.2846879.-	2846879	2845668	-	KZN_1435
889497.890333.+	889497	890333	+	H37Rv	2155671.2156507.-	2156507	2155671	-	KZN_1435
1541994.1542830.-	1542830	1541994	-	H37Rv	2155671.2156507.-	2156507	2155671	-	KZN_1435
1987745.1988581.-	1988581	1987745	-	H37Rv	2155671.2156507.-	2156507	2155671	-	KZN_1435
1996577.1997413.+	1996577	1997413	+	H37Rv	2155671.2156507.-	2156507	2155671	-	KZN_1435
2365890.2366726.+	2365890	2366726	+	H37Rv	2155671.2156507.-	2156507	2155671	-	KZN_1435
2430159.2430995.-	2430995	2430159	-	H37Rv	2155671.2156507.-	2156507	2155671	-	KZN_1435
2550490.2551326.+	2550490	2551326	+	H37Rv	2155671.2156507.-	2156507	2155671	-	KZN_1435
2636053.2636889.+	2636053	2636889	+	H37Rv	2155671.2156507.-	2156507	2155671	-	KZN_1435
2784657.2785493.-	2785493	2784657	-	H37Rv	2155671.2156507.-	2156507	2155671	-	KZN_1435
2972585.2973421.+	2972585	2973421	+	H37Rv	2155671.2156507.-	2156507	2155671	-	KZN_1435
3120566.3121402.-	3121402	3120566	-	H37Rv	2155671.2156507.-	2156507	2155671	-	KZN_1435
3551706.3552542.+	3551706	3552542	+	H37Rv	2155671.2156507.-	2156507	2155671	-	KZN_1435
3553189.3554025.+	3553189	3554025	+	H37Rv	2155671.2156507.-	2156507	2155671	-	KZN_1435
3710858.3711694.+	3710858	3711694	+	H37Rv	2155671.2156507.-	2156507	2155671	-	KZN_1435
3795100.3795936.-	3795936	3795100	-	H37Rv	2155671.2156507.-	2156507	2155671	-	KZN_1435
3891255.3892091.+	3891255	3892091	+	H37Rv	2155671.2156507.-	2156507	2155671	-	KZN_1435
4325074.4325478.+	4325074	4325478	+	H37Rv	4312020.4312424.+	4312020	4312424	+	KZN_1435
2829954.2830139.+	2829954	2830139	+	H37Rv	1583675.1583860.-	1583860	1583675	-	KZN_1435
1232311.1232826.+	1232311	1232826	+	H37Rv	3179351.3179866.-	3179866	3179351	-	KZN_1435
1315234.1319982.+	1315234	1319982	+	H37Rv	3092313.3097061.-	3097061	3092313	-	KZN_1435
4107460.4107669.+	4107460	4107669	+	H37Rv	4094175.4094384.+	4094175	4094384	+	KZN_1435
2472496.2473242.+	2472496	2473242	+	H37Rv	1943349.1944095.-	1944095	1943349	-	KZN_1435
889497.890333.+	889497	890333	+	H37Rv	2050283.2051119.+	2050283	2051119	+	KZN_1435
1541994.1542830.-	1542830	1541994	-	H37Rv	2050283.2051119.+	2050283	2051119	+	KZN_1435
1987745.1988581.-	1988581	1987745	-	H37Rv	2050283.2051119.+	2050283	2051119	+	KZN_1435
1996577.1997413.+	1996577	1997413	+	H37Rv	2050283.2051119.+	2050283	2051119	+	KZN_1435
2365890.2366726.+	2365890	2366726	+	H37Rv	2050283.2051119.+	2050283	2051119	+	KZN_1435
2430159.2430995.-	2430995	2430159	-	H37Rv	2050283.2051119.+	2050283	2051119	+	KZN_1435
2550490.2551326.+	2550490	2551326	+	H37Rv	2050283.2051119.+	2050283	2051119	+	KZN_1435
2636053.2636889.+	2636053	2636889	+	H37Rv	2050283.2051119.+	2050283	2051119	+	KZN_1435
2784657.2785493.-	2785493	2784657	-	H37Rv	2050283.2051119.+	2050283	2051119	+	KZN_1435
2972585.2973421.+	2972585	2973421	+	H37Rv	2050283.2051119.+	2050283	2051119	+	KZN_1435
3120566.3121402.-	3121402	3120566	-	H37Rv	2050283.2051119.+	2050283	2051119	+	KZN_1435
3551706.3552542.+	3551706	3552542	+	H37Rv	2050283.2051119.+	2050283	2051119	+	KZN_1435
3553189.3554025.+	3553189	3554025	+	H37Rv	2050283.2051119.+	2050283	2051119	+	KZN_1435
3710858.3711694.+	3710858	3711694	+	H37Rv	2050283.2051119.+	2050283	2051119	+	KZN_1435
3795100.3795936.-	3795936	3795100	-	H37Rv	2050283.2051119.+	2050283	2051119	+	KZN_1435
3891255.3892091.+	3891255	3892091	+	H37Rv	2050283.2051119.+	2050283	2051119	+	KZN_1435
2506278.2507153.+	2506278	2507153	+	H37Rv	1909438.1910313.-	1910313	1909438	-	KZN_1435
223999.224664.+	223999	224664	+	H37Rv	223938.224603.+	223938	224603	+	KZN_1435
2044923.2046842.-	2046842	2044923	-	H37Rv	2377385.2379304.+	2377385	2379304	+	KZN_1435
1899972.1900247.+	1899972	1900247	+	H37Rv	2522455.2522730.-	2522730	2522455	-	KZN_1435
2421643.2422278.-	2422278	2421643	-	H37Rv	1992897.1993532.+	1992897	1993532	+	KZN_1435
400192.401703.+	400192	401703	+	H37Rv	403078.404589.+	403078	404589	+	KZN_1435
606551.608062.+	606551	608062	+	H37Rv	403078.404589.+	403078	404589	+	KZN_1435
1365227.1365808.+	1365227	1365808	+	H37Rv	3046485.3047066.-	3047066	3046485	-	KZN_1435
2533330.2533965.+	2533330	2533965	+	H37Rv	1882625.1883260.-	1883260	1882625	-	KZN_1435
4221020.4222648.+	4221020	4222648	+	H37Rv	4207966.4209594.+	4207966	4209594	+	KZN_1435
4095540.4096220.-	4096220	4095540	-	H37Rv	4082255.4082935.-	4082935	4082255	-	KZN_1435
2373834.2374457.+	2373834	2374457	+	H37Rv	2040658.2041281.-	2041281	2040658	-	KZN_1435
200932.202479.+	200932	202479	+	H37Rv	200871.202418.+	200871	202418	+	KZN_1435
3399419.3400183.-	3400183	3399419	-	H37Rv	1013594.1014358.+	1013594	1014358	+	KZN_1435
1003805.1003957.+	1003805	1003957	+	H37Rv	3408021.3408173.-	3408173	3408021	-	KZN_1435
700239.701189.+	700239	701189	+	H37Rv	700491.701441.+	700491	701441	+	KZN_1435
409362.410801.+	409362	410801	+	H37Rv	412248.413687.+	412248	413687	+	KZN_1435
2206950.2207207.+	2206950	2207207	+	H37Rv	2215866.2216123.-	2216123	2215866	-	KZN_1435
207452.208420.+	207452	208420	+	H37Rv	207391.208359.+	207391	208359	+	KZN_1435
918912.919553.-	919553	918912	-	H37Rv	918754.919395.-	919395	918754	-	KZN_1435
3583801.3584658.-	3584658	3583801	-	H37Rv	3581907.3582764.-	3582764	3581907	-	KZN_1435
3307580.3308545.-	3308545	3307580	-	H37Rv	1105059.1106024.+	1105059	1106024	+	KZN_1435
1813171.1814577.+	1813171	1814577	+	H37Rv	2608135.2609541.-	2609541	2608135	-	KZN_1435
4269840.4270337.-	4270337	4269840	-	H37Rv	4256786.4257283.-	4257283	4256786	-	KZN_1435
4016352.4017083.+	4016352	4017083	+	H37Rv	4001822.4002553.+	4001822	4002553	+	KZN_1435
2321141.2321467.+	2321141	2321467	+	H37Rv	2095243.2095569.-	2095569	2095243	-	KZN_1435
1638381.1639646.+	1638381	1639646	+	H37Rv	2773873.2775138.-	2775138	2773873	-	KZN_1435
1639674.1640660.-	1640660	1639674	-	H37Rv	2772859.2773845.+	2772859	2773845	+	KZN_1435
3021548.3021796.-	3021796	3021548	-	H37Rv	1393220.1393468.+	1393220	1393468	+	KZN_1435
2714124.2715332.-	2715332	2714124	-	H37Rv	1698347.1699555.+	1698347	1699555	+	KZN_1435
738297.739208.-	739208	738297	-	H37Rv	738549.739460.-	739460	738549	-	KZN_1435
1077233.1077892.-	1077892	1077233	-	H37Rv	3334087.3334746.+	3334087	3334746	+	KZN_1435
1169423.1170670.+	1169423	1170670	+	H37Rv	1584011.1585258.+	1584011	1585258	+	KZN_1435
3381375.3382622.-	3382622	3381375	-	H37Rv	1584011.1585258.+	1584011	1585258	+	KZN_1435
3481451.3482698.+	3481451	3482698	+	H37Rv	1584011.1585258.+	1584011	1585258	+	KZN_1435
1341358.1342605.-	1342605	1341358	-	H37Rv	1584011.1585258.+	1584011	1585258	+	KZN_1435
2828556.2829803.-	2829803	2828556	-	H37Rv	1584011.1585258.+	1584011	1585258	+	KZN_1435
4221089.4222648.+	4221089	4222648	+	H37Rv	4208035.4209594.+	4208035	4209594	+	KZN_1435
53663.55699.+	53663	55699	+	H37Rv	53766.55802.+	53766	55802	+	KZN_1435
3040766.3041458.-	3041458	3040766	-	H37Rv	1373558.1374250.+	1373558	1374250	+	KZN_1435
906423.907292.+	906423	907292	+	H37Rv	906265.907134.+	906265	907134	+	KZN_1435
1057646.1058299.-	1058299	1057646	-	H37Rv	3353678.3354331.+	3353678	3354331	+	KZN_1435
2752848.2752994.-	2752994	2752848	-	H37Rv	1660685.1660831.+	1660685	1660831	+	KZN_1435
952819.953229.+	952819	953229	+	H37Rv	3458811.3459221.-	3459221	3458811	-	KZN_1435
3809442.3811022.-	3811022	3809442	-	H37Rv	3803954.3805534.-	3805534	3803954	-	KZN_1435
2573015.2573707.+	2573015	2573707	+	H37Rv	1842885.1843577.-	1843577	1842885	-	KZN_1435
2061178.2062674.-	2062674	2061178	-	H37Rv	2360195.2361691.+	2360195	2361691	+	KZN_1435
2979326.2979688.-	2979688	2979326	-	H37Rv	1435485.1435847.+	1435485	1435847	+	KZN_1435
863298.864143.+	863298	864143	+	H37Rv	864497.865342.+	864497	865342	+	KZN_1435
232231.234519.+	232231	234519	+	H37Rv	232170.234416.+	232170	234416	+	KZN_1435
4045207.4046118.-	4046118	4045207	-	H37Rv	4030677.4031588.-	4031588	4030677	-	KZN_1435
602819.604516.+	602819	604516	+	H37Rv	602998.604695.+	602998	604695	+	KZN_1435
3336796.3337917.-	3337917	3336796	-	H37Rv	1075862.1076983.+	1075862	1076983	+	KZN_1435
759789.763325.+	759789	763325	+	H37Rv	760574.764110.+	760574	764110	+	KZN_1435
591475.591576.+	591475	591576	+	H37Rv	591654.591755.+	591654	591755	+	KZN_1435
3183905.3184567.+	3183905	3184567	+	H37Rv	1229260.1229922.-	1229922	1229260	-	KZN_1435
1164572.1165009.-	1165009	1164572	-	H37Rv	3133414.3133851.-	3133851	3133414	-	KZN_1435
1278383.1278820.+	1278383	1278820	+	H37Rv	3133414.3133851.-	3133851	3133414	-	KZN_1435
1970975.1971160.-	1971160	1970975	-	H37Rv	2451486.2451671.+	2451486	2451671	+	KZN_1435
3133709.3134593.-	3134593	3133709	-	H37Rv	1279234.1280118.+	1279234	1280118	+	KZN_1435
1848517.1852035.-	1852035	1848517	-	H37Rv	2570677.2574195.+	2570677	2574195	+	KZN_1435
614326.614721.-	614721	614326	-	H37Rv	614505.614900.-	614900	614505	-	KZN_1435
889497.890333.+	889497	890333	+	H37Rv	2048612.2049448.+	2048612	2049448	+	KZN_1435
1541994.1542830.-	1542830	1541994	-	H37Rv	2048612.2049448.+	2048612	2049448	+	KZN_1435
1987745.1988581.-	1988581	1987745	-	H37Rv	2048612.2049448.+	2048612	2049448	+	KZN_1435
1996577.1997413.+	1996577	1997413	+	H37Rv	2048612.2049448.+	2048612	2049448	+	KZN_1435
2365890.2366726.+	2365890	2366726	+	H37Rv	2048612.2049448.+	2048612	2049448	+	KZN_1435
2430159.2430995.-	2430995	2430159	-	H37Rv	2048612.2049448.+	2048612	2049448	+	KZN_1435
2550490.2551326.+	2550490	2551326	+	H37Rv	2048612.2049448.+	2048612	2049448	+	KZN_1435
2636053.2636889.+	2636053	2636889	+	H37Rv	2048612.2049448.+	2048612	2049448	+	KZN_1435
2784657.2785493.-	2785493	2784657	-	H37Rv	2048612.2049448.+	2048612	2049448	+	KZN_1435
2972585.2973421.+	2972585	2973421	+	H37Rv	2048612.2049448.+	2048612	2049448	+	KZN_1435
3120566.3121402.-	3121402	3120566	-	H37Rv	2048612.2049448.+	2048612	2049448	+	KZN_1435
3551706.3552542.+	3551706	3552542	+	H37Rv	2048612.2049448.+	2048612	2049448	+	KZN_1435
3553189.3554025.+	3553189	3554025	+	H37Rv	2048612.2049448.+	2048612	2049448	+	KZN_1435
3710858.3711694.+	3710858	3711694	+	H37Rv	2048612.2049448.+	2048612	2049448	+	KZN_1435
3795100.3795936.-	3795936	3795100	-	H37Rv	2048612.2049448.+	2048612	2049448	+	KZN_1435
3891255.3892091.+	3891255	3892091	+	H37Rv	2048612.2049448.+	2048612	2049448	+	KZN_1435
2768231.2769037.+	2768231	2769037	+	H37Rv	1644642.1645448.-	1645448	1644642	-	KZN_1435
2442327.2443214.-	2443214	2442327	-	H37Rv	1973320.1974207.+	1973320	1974207	+	KZN_1435
4007331.4008182.-	4008182	4007331	-	H37Rv	3992801.3993652.-	3993652	3992801	-	KZN_1435
2124830.2125048.-	2125048	2124830	-	H37Rv	2297882.2298100.+	2297882	2298100	+	KZN_1435
1169375.1170670.+	1169375	1170670	+	H37Rv	1583963.1585258.+	1583963	1585258	+	KZN_1435
3381375.3382670.-	3382670	3381375	-	H37Rv	1583963.1585258.+	1583963	1585258	+	KZN_1435
3481403.3482698.+	3481403	3482698	+	H37Rv	1583963.1585258.+	1583963	1585258	+	KZN_1435
1341358.1342653.-	1342653	1341358	-	H37Rv	1583963.1585258.+	1583963	1585258	+	KZN_1435
2828556.2829851.-	2829851	2828556	-	H37Rv	1583963.1585258.+	1583963	1585258	+	KZN_1435
1164164.1164472.-	1164472	1164164	-	H37Rv	3247496.3247804.+	3247496	3247804	+	KZN_1435
3359585.3360586.-	3360586	3359585	-	H37Rv	1053193.1054194.+	1053193	1054194	+	KZN_1435
2725595.2725828.-	2725828	2725595	-	H37Rv	1687851.1688084.+	1687851	1688084	+	KZN_1435
3066222.3067124.-	3067124	3066222	-	H37Rv	1347892.1348794.+	1347892	1348794	+	KZN_1435
3849024.3849188.-	3849188	3849024	-	H37Rv	3838842.3839006.-	3839006	3838842	-	KZN_1435
1146561.1147028.+	1146561	1147028	+	H37Rv	3264939.3265406.-	3265406	3264939	-	KZN_1435
562723.563427.-	563427	562723	-	H37Rv	562982.563686.-	563686	562982	-	KZN_1435
3025441.3026847.+	3025441	3026847	+	H37Rv	1388169.1389575.-	1389575	1388169	-	KZN_1435
831776.832303.+	831776	832303	+	H37Rv	832776.833303.+	832776	833303	+	KZN_1435
2754743.2756704.-	2756704	2754743	-	H37Rv	1656975.1658936.+	1656975	1658936	+	KZN_1435
2569082.2570053.+	2569082	2570053	+	H37Rv	1846539.1847510.-	1847510	1846539	-	KZN_1435
3350274.3350993.-	3350993	3350274	-	H37Rv	1062786.1063505.+	1062786	1063505	+	KZN_1435
2195989.2197353.+	2195989	2197353	+	H37Rv	2225720.2227084.-	2227084	2225720	-	KZN_1435
1276300.1277664.-	1277664	1276300	-	H37Rv	2225720.2227084.-	2227084	2225720	-	KZN_1435
3136330.3137055.-	3137055	3136330	-	H37Rv	1276772.1277497.+	1276772	1277497	+	KZN_1435
3778568.3780334.+	3778568	3780334	+	H37Rv	3774429.3776204.+	3774429	3776204	+	KZN_1435
3378329.3378613.-	3378613	3378329	-	H37Rv	1035164.1035448.+	1035164	1035448	+	KZN_1435
2054157.2055350.-	2055350	2054157	-	H37Rv	2367519.2368712.+	2367519	2368712	+	KZN_1435
4301563.4302786.-	4302786	4301563	-	H37Rv	4288509.4289732.-	4289732	4288509	-	KZN_1435
2113140.2115476.+	2113140	2115476	+	H37Rv	2307454.2309790.-	2309790	2307454	-	KZN_1435
805759.806166.+	805759	806166	+	H37Rv	806759.807166.+	806759	807166	+	KZN_1435
1803297.1804031.+	1803297	1804031	+	H37Rv	2618681.2619415.-	2619415	2618681	-	KZN_1435
2703269.2703838.+	2703269	2703838	+	H37Rv	1709865.1710434.-	1710434	1709865	-	KZN_1435
2960105.2962441.-	2962441	2960105	-	H37Rv	1451374.1453710.+	1451374	1453710	+	KZN_1435
1376230.1376826.-	1376826	1376230	-	H37Rv	3035465.3036061.+	3035465	3036061	+	KZN_1435
952825.953229.+	952825	953229	+	H37Rv	3458811.3459215.-	3459215	3458811	-	KZN_1435
1094670.1094864.-	1094864	1094670	-	H37Rv	3317103.3317297.+	3317103	3317297	+	KZN_1435
2509489.2510256.+	2509489	2510256	+	H37Rv	1906335.1907102.-	1907102	1906335	-	KZN_1435
2792723.2793988.-	2793988	2792723	-	H37Rv	1621052.1622317.+	1621052	1622317	+	KZN_1435
3412085.3414166.-	3414166	3412085	-	H37Rv	999611.1001692.+	999611	1001692	+	KZN_1435
3800786.3801463.+	3800786	3801463	+	H37Rv	3795298.3795975.+	3795298	3795975	+	KZN_1435
2626654.2626980.-	2626980	2626654	-	H37Rv	1789611.1789937.+	1789611	1789937	+	KZN_1435
732393.732821.+	732393	732821	+	H37Rv	732645.733073.+	732645	733073	+	KZN_1435
1242864.1243013.-	1243013	1242864	-	H37Rv	3169164.3169313.+	3169164	3169313	+	KZN_1435
1714172.1717612.-	1717612	1714172	-	H37Rv	2695854.2699294.+	2695854	2699294	+	KZN_1435
3914531.3915883.-	3915883	3914531	-	H37Rv	3902990.3904342.-	3904342	3902990	-	KZN_1435
3597551.3597766.-	3597766	3597551	-	H37Rv	3595671.3595886.-	3595886	3595671	-	KZN_1435
1774860.1775144.-	1775144	1774860	-	H37Rv	2638321.2638605.+	2638321	2638605	+	KZN_1435
141200.142144.+	141200	142144	+	H37Rv	141333.142277.+	141333	142277	+	KZN_1435
878638.879324.+	878638	879324	+	H37Rv	879839.880525.+	879839	880525	+	KZN_1435
1409484.1409933.-	1409933	1409484	-	H37Rv	3002358.3002807.+	3002358	3002807	+	KZN_1435
2201584.2202096.+	2201584	2202096	+	H37Rv	2220977.2221489.-	2221489	2220977	-	KZN_1435
103710.104663.-	104663	103710	-	H37Rv	103841.104794.-	104794	103841	-	KZN_1435
3883964.3884917.+	3883964	3884917	+	H37Rv	103841.104794.-	104794	103841	-	KZN_1435
2020634.2023432.+	2020634	2023432	+	H37Rv	2400795.2403593.-	2403593	2400795	-	KZN_1435
749234.749929.-	749929	749234	-	H37Rv	750019.750714.-	750714	750019	-	KZN_1435
2971659.2972027.+	2971659	2972027	+	H37Rv	1441788.1442156.-	1442156	1441788	-	KZN_1435
1111612.1112223.+	1111612	1112223	+	H37Rv	3299744.3300355.-	3300355	3299744	-	KZN_1435
452294.453154.-	453154	452294	-	H37Rv	455157.456017.-	456017	455157	-	KZN_1435
2337790.2338188.+	2337790	2338188	+	H37Rv	2078522.2078920.-	2078920	2078522	-	KZN_1435
2263426.2264001.+	2263426	2264001	+	H37Rv	2159071.2159646.-	2159646	2159071	-	KZN_1435
2522360.2523175.+	2522360	2523175	+	H37Rv	1893417.1894232.-	1894232	1893417	-	KZN_1435
1929131.1929721.-	1929721	1929131	-	H37Rv	2492981.2493571.+	2492981	2493571	+	KZN_1435
3289790.3290506.+	3289790	3290506	+	H37Rv	1123097.1123813.-	1123813	1123097	-	KZN_1435
2334852.2335295.-	2335295	2334852	-	H37Rv	2081415.2081858.+	2081415	2081858	+	KZN_1435
737268.738149.-	738149	737268	-	H37Rv	737520.738401.-	738401	737520	-	KZN_1435
2316279.2316680.+	2316279	2316680	+	H37Rv	2100031.2100432.-	2100432	2100031	-	KZN_1435
2876576.2876965.-	2876965	2876576	-	H37Rv	1536849.1537238.+	1536849	1537238	+	KZN_1435
3800092.3800796.+	3800092	3800796	+	H37Rv	3794604.3795308.+	3794604	3795308	+	KZN_1435
3242970.3243281.+	3242970	3243281	+	H37Rv	1170324.1170635.-	1170635	1170324	-	KZN_1435
697904.698410.-	698410	697904	-	H37Rv	698156.698662.-	698662	698156	-	KZN_1435
677727.678575.-	678575	677727	-	H37Rv	677979.678827.-	678827	677979	-	KZN_1435
510377.510652.-	510652	510377	-	H37Rv	510636.510911.-	510911	510636	-	KZN_1435
1338973.1339302.+	1338973	1339302	+	H37Rv	3072991.3073320.-	3073320	3072991	-	KZN_1435
446531.447046.-	447046	446531	-	H37Rv	449394.449909.-	449909	449394	-	KZN_1435
1064114.1064962.-	1064962	1064114	-	H37Rv	3347017.3347865.+	3347017	3347865	+	KZN_1435
578426.579175.+	578426	579175	+	H37Rv	578629.579378.+	578629	579378	+	KZN_1435
4094923.4095543.-	4095543	4094923	-	H37Rv	4081716.4082258.-	4082258	4081716	-	KZN_1435
1676017.1676883.-	1676883	1676017	-	H37Rv	2736583.2737449.+	2736583	2737449	+	KZN_1435
2363391.2364107.+	2363391	2364107	+	H37Rv	2052593.2053309.-	2053309	2052593	-	KZN_1435
1999737.2000006.+	1999737	2000006	+	H37Rv	2424222.2424491.-	2424491	2424222	-	KZN_1435
3649420.3650109.+	3649420	3650109	+	H37Rv	3647540.3648229.+	3647540	3648229	+	KZN_1435
2289282.2289599.-	2289599	2289282	-	H37Rv	2127115.2127432.+	2127115	2127432	+	KZN_1435
3873452.3874132.+	3873452	3874132	+	H37Rv	3863269.3863949.+	3863269	3863949	+	KZN_1435
2791019.2792494.-	2792494	2791019	-	H37Rv	1622546.1624021.+	1622546	1624021	+	KZN_1435
103710.104573.-	104573	103710	-	H37Rv	2633405.2634271.+	2633405	2634271	+	KZN_1435
3884054.3884917.+	3884054	3884917	+	H37Rv	2633405.2634271.+	2633405	2634271	+	KZN_1435
2575016.2575225.-	2575225	2575016	-	H37Rv	1841367.1841576.+	1841367	1841576	+	KZN_1435
864143.864574.+	864143	864574	+	H37Rv	865342.865773.+	865342	865773	+	KZN_1435
3853939.3854793.-	3854793	3853939	-	H37Rv	3843757.3844611.-	3844611	3843757	-	KZN_1435
2156706.2157299.-	2157299	2156706	-	H37Rv	2265561.2266154.+	2265561	2266154	+	KZN_1435
3975369.3977060.+	3975369	3977060	+	H37Rv	3960842.3962533.+	3960842	3962533	+	KZN_1435
889497.890333.+	889497	890333	+	H37Rv	3708737.3709573.-	3709573	3708737	-	KZN_1435
1541994.1542830.-	1542830	1541994	-	H37Rv	3708737.3709573.-	3709573	3708737	-	KZN_1435
1987745.1988581.-	1988581	1987745	-	H37Rv	3708737.3709573.-	3709573	3708737	-	KZN_1435
1996577.1997413.+	1996577	1997413	+	H37Rv	3708737.3709573.-	3709573	3708737	-	KZN_1435
2365890.2366726.+	2365890	2366726	+	H37Rv	3708737.3709573.-	3709573	3708737	-	KZN_1435
2430159.2430995.-	2430995	2430159	-	H37Rv	3708737.3709573.-	3709573	3708737	-	KZN_1435
2550490.2551326.+	2550490	2551326	+	H37Rv	3708737.3709573.-	3709573	3708737	-	KZN_1435
2636053.2636889.+	2636053	2636889	+	H37Rv	3708737.3709573.-	3709573	3708737	-	KZN_1435
2784657.2785493.-	2785493	2784657	-	H37Rv	3708737.3709573.-	3709573	3708737	-	KZN_1435
2972585.2973421.+	2972585	2973421	+	H37Rv	3708737.3709573.-	3709573	3708737	-	KZN_1435
3120566.3121402.-	3121402	3120566	-	H37Rv	3708737.3709573.-	3709573	3708737	-	KZN_1435
3551706.3552542.+	3551706	3552542	+	H37Rv	3708737.3709573.-	3709573	3708737	-	KZN_1435
3553189.3554025.+	3553189	3554025	+	H37Rv	3708737.3709573.-	3709573	3708737	-	KZN_1435
3710858.3711694.+	3710858	3711694	+	H37Rv	3708737.3709573.-	3709573	3708737	-	KZN_1435
3795100.3795936.-	3795936	3795100	-	H37Rv	3708737.3709573.-	3709573	3708737	-	KZN_1435
3891255.3892091.+	3891255	3892091	+	H37Rv	3708737.3709573.-	3709573	3708737	-	KZN_1435
103710.104663.-	104663	103710	-	H37Rv	3873781.3874734.+	3873781	3874734	+	KZN_1435
3883964.3884917.+	3883964	3884917	+	H37Rv	3873781.3874734.+	3873781	3874734	+	KZN_1435
1365344.1365808.+	1365344	1365808	+	H37Rv	3046485.3046949.-	3046949	3046485	-	KZN_1435
4209582.4211009.-	4211009	4209582	-	H37Rv	4196528.4197955.-	4197955	4196528	-	KZN_1435
577664.578269.+	577664	578269	+	H37Rv	577867.578472.+	577867	578472	+	KZN_1435
3874822.3876090.+	3874822	3876090	+	H37Rv	3864639.3865907.+	3864639	3865907	+	KZN_1435
2946434.2947111.+	2946434	2947111	+	H37Rv	1466704.1467381.-	1467381	1466704	-	KZN_1435
2025301.2026398.+	2025301	2026398	+	H37Rv	2397829.2398926.-	2398926	2397829	-	KZN_1435
1101836.1102549.+	1101836	1102549	+	H37Rv	3309418.3310131.-	3310131	3309418	-	KZN_1435
3207942.3208328.-	3208328	3207942	-	H37Rv	1205500.1205886.+	1205500	1205886	+	KZN_1435
3335960.3336505.+	3335960	3336505	+	H37Rv	1077099.1077644.-	1077644	1077099	-	KZN_1435
3580638.3581312.+	3580638	3581312	+	H37Rv	3578744.3579418.+	3578744	3579418	+	KZN_1435
85636.86466.-	86466	85636	-	H37Rv	85767.86597.-	86597	85767	-	KZN_1435
889497.890333.+	889497	890333	+	H37Rv	932089.932925.-	932925	932089	-	KZN_1435
1541994.1542830.-	1542830	1541994	-	H37Rv	932089.932925.-	932925	932089	-	KZN_1435
1987745.1988581.-	1988581	1987745	-	H37Rv	932089.932925.-	932925	932089	-	KZN_1435
1996577.1997413.+	1996577	1997413	+	H37Rv	932089.932925.-	932925	932089	-	KZN_1435
2365890.2366726.+	2365890	2366726	+	H37Rv	932089.932925.-	932925	932089	-	KZN_1435
2430159.2430995.-	2430995	2430159	-	H37Rv	932089.932925.-	932925	932089	-	KZN_1435
2550490.2551326.+	2550490	2551326	+	H37Rv	932089.932925.-	932925	932089	-	KZN_1435
2636053.2636889.+	2636053	2636889	+	H37Rv	932089.932925.-	932925	932089	-	KZN_1435
2784657.2785493.-	2785493	2784657	-	H37Rv	932089.932925.-	932925	932089	-	KZN_1435
2972585.2973421.+	2972585	2973421	+	H37Rv	932089.932925.-	932925	932089	-	KZN_1435
3120566.3121402.-	3121402	3120566	-	H37Rv	932089.932925.-	932925	932089	-	KZN_1435
3551706.3552542.+	3551706	3552542	+	H37Rv	932089.932925.-	932925	932089	-	KZN_1435
3553189.3554025.+	3553189	3554025	+	H37Rv	932089.932925.-	932925	932089	-	KZN_1435
3710858.3711694.+	3710858	3711694	+	H37Rv	932089.932925.-	932925	932089	-	KZN_1435
3795100.3795936.-	3795936	3795100	-	H37Rv	932089.932925.-	932925	932089	-	KZN_1435
3891255.3892091.+	3891255	3892091	+	H37Rv	932089.932925.-	932925	932089	-	KZN_1435
2960105.2962405.-	2962405	2960105	-	H37Rv	1451410.1453710.+	1451410	1453710	+	KZN_1435
2581424.2581750.-	2581750	2581424	-	H37Rv	1834842.1835168.+	1834842	1835168	+	KZN_1435
3200794.3202020.-	3202020	3200794	-	H37Rv	1211808.1213034.+	1211808	1213034	+	KZN_1435
336560.339073.-	339073	336560	-	H37Rv	339427.341940.-	341940	339427	-	KZN_1435
1893577.1894230.-	1894230	1893577	-	H37Rv	2528482.2529135.+	2528482	2529135	+	KZN_1435
710584.710817.-	710817	710584	-	H37Rv	710836.711069.-	711069	710836	-	KZN_1435
4070526.4071239.+	4070526	4071239	+	H37Rv	4055885.4056598.+	4055885	4056598	+	KZN_1435
1112384.1113460.+	1112384	1113460	+	H37Rv	3298507.3299583.-	3299583	3298507	-	KZN_1435
3889948.3890733.-	3890733	3889948	-	H37Rv	3879765.3880550.-	3880550	3879765	-	KZN_1435
4131739.4132392.+	4131739	4132392	+	H37Rv	4118625.4119278.+	4118625	4119278	+	KZN_1435
2795301.2796062.-	2796062	2795301	-	H37Rv	1618978.1619739.+	1618978	1619739	+	KZN_1435
3633675.3635063.+	3633675	3635063	+	H37Rv	3631795.3633183.+	3631795	3633183	+	KZN_1435
3591646.3592257.+	3591646	3592257	+	H37Rv	3589753.3590364.+	3589753	3590364	+	KZN_1435
186495.186623.-	186623	186495	-	H37Rv	186434.186562.-	186562	186434	-	KZN_1435
3051806.3052012.-	3052012	3051806	-	H37Rv	1363004.1363210.+	1363004	1363210	+	KZN_1435
1052360.1052638.+	1052360	1052638	+	H37Rv	3359338.3359616.-	3359616	3359338	-	KZN_1435
4008167.4008433.-	4008433	4008167	-	H37Rv	3993637.3993903.-	3993903	3993637	-	KZN_1435
544736.545122.-	545122	544736	-	H37Rv	544995.545381.-	545381	544995	-	KZN_1435
1016236.1016685.+	1016236	1016685	+	H37Rv	3395292.3395741.-	3395741	3395292	-	KZN_1435
1950632.1951048.-	1951048	1950632	-	H37Rv	2471655.2472071.+	2471655	2472071	+	KZN_1435
3838586.3839062.-	3839062	3838586	-	H37Rv	3833330.3833806.-	3833806	3833330	-	KZN_1435
2620272.2620529.+	2620272	2620529	+	H37Rv	1796062.1796319.-	1796319	1796062	-	KZN_1435
2619597.2620016.+	2619597	2620016	+	H37Rv	1796575.1796994.-	1796994	1796575	-	KZN_1435
4094660.4094914.-	4094914	4094660	-	H37Rv	4081376.4081630.-	4081630	4081376	-	KZN_1435
2113062.2115476.+	2113062	2115476	+	H37Rv	2307454.2309868.-	2309868	2307454	-	KZN_1435
2863207.2864409.-	2864409	2863207	-	H37Rv	1549405.1550607.+	1549405	1550607	+	KZN_1435
21637.23172.-	23172	21637	-	H37Rv	21739.23274.-	23274	21739	-	KZN_1435
2692799.2693884.+	2692799	2693884	+	H37Rv	1719819.1720904.-	1720904	1719819	-	KZN_1435
1532443.1533630.-	1533630	1532443	-	H37Rv	2878716.2879903.+	2878716	2879903	+	KZN_1435
3894429.3895607.+	3894429	3895607	+	H37Rv	2878716.2879903.+	2878716	2879903	+	KZN_1435
1339352.1340524.+	1339352	1340524	+	H37Rv	2878716.2879903.+	2878716	2879903	+	KZN_1435
462135.463307.+	462135	463307	+	H37Rv	462392.463564.+	462392	463564	+	KZN_1435
3556855.3557064.+	3556855	3557064	+	H37Rv	3554962.3555171.+	3554962	3555171	+	KZN_1435
4081516.4082721.-	4082721	4081516	-	H37Rv	4068233.4069438.-	4069438	4068233	-	KZN_1435
3107311.3107637.-	3107637	3107311	-	H37Rv	1306020.1306346.+	1306020	1306346	+	KZN_1435
2101022.2101648.+	2101022	2101648	+	H37Rv	2321283.2321909.-	2321909	2321283	-	KZN_1435
2512539.2515244.+	2512539	2515244	+	H37Rv	1901347.1904052.-	1904052	1901347	-	KZN_1435
3073130.3073609.-	3073609	3073130	-	H37Rv	1341407.1341886.+	1341407	1341886	+	KZN_1435
3580277.3580495.+	3580277	3580495	+	H37Rv	3578384.3578602.+	3578384	3578602	+	KZN_1435
559888.560748.+	559888	560748	+	H37Rv	560147.561007.+	560147	561007	+	KZN_1435
889497.890333.+	889497	890333	+	H37Rv	1330496.1331332.-	1331332	1330496	-	KZN_1435
1541994.1542830.-	1542830	1541994	-	H37Rv	1330496.1331332.-	1331332	1330496	-	KZN_1435
1987745.1988581.-	1988581	1987745	-	H37Rv	1330496.1331332.-	1331332	1330496	-	KZN_1435
1996577.1997413.+	1996577	1997413	+	H37Rv	1330496.1331332.-	1331332	1330496	-	KZN_1435
2365890.2366726.+	2365890	2366726	+	H37Rv	1330496.1331332.-	1331332	1330496	-	KZN_1435
2430159.2430995.-	2430995	2430159	-	H37Rv	1330496.1331332.-	1331332	1330496	-	KZN_1435
2550490.2551326.+	2550490	2551326	+	H37Rv	1330496.1331332.-	1331332	1330496	-	KZN_1435
2636053.2636889.+	2636053	2636889	+	H37Rv	1330496.1331332.-	1331332	1330496	-	KZN_1435
2784657.2785493.-	2785493	2784657	-	H37Rv	1330496.1331332.-	1331332	1330496	-	KZN_1435
2972585.2973421.+	2972585	2973421	+	H37Rv	1330496.1331332.-	1331332	1330496	-	KZN_1435
3120566.3121402.-	3121402	3120566	-	H37Rv	1330496.1331332.-	1331332	1330496	-	KZN_1435
3551706.3552542.+	3551706	3552542	+	H37Rv	1330496.1331332.-	1331332	1330496	-	KZN_1435
3553189.3554025.+	3553189	3554025	+	H37Rv	1330496.1331332.-	1331332	1330496	-	KZN_1435
3710858.3711694.+	3710858	3711694	+	H37Rv	1330496.1331332.-	1331332	1330496	-	KZN_1435
3795100.3795936.-	3795936	3795100	-	H37Rv	1330496.1331332.-	1331332	1330496	-	KZN_1435
3891255.3892091.+	3891255	3892091	+	H37Rv	1330496.1331332.-	1331332	1330496	-	KZN_1435
179319.180896.-	180896	179319	-	H37Rv	179258.180835.-	180835	179258	-	KZN_1435
4162318.4163718.+	4162318	4163718	+	H37Rv	4149263.4150663.+	4149263	4150663	+	KZN_1435
507758.508555.-	508555	507758	-	H37Rv	508017.508814.-	508814	508017	-	KZN_1435
4064851.4065903.-	4065903	4064851	-	H37Rv	4050210.4051262.-	4051262	4050210	-	KZN_1435
736298.737194.-	737194	736298	-	H37Rv	736550.737446.-	737446	736550	-	KZN_1435
2975928.2976419.-	2976419	2975928	-	H37Rv	1438754.1439245.+	1438754	1439245	+	KZN_1435
3175454.3177265.-	3177265	3175454	-	H37Rv	1236562.1238373.+	1236562	1238373	+	KZN_1435
1085756.1087345.-	1087345	1085756	-	H37Rv	3324634.3326223.+	3324634	3326223	+	KZN_1435
4128751.4129083.-	4129083	4128751	-	H37Rv	4115637.4115969.-	4115969	4115637	-	KZN_1435
3781501.3784740.-	3784740	3781501	-	H37Rv	3777371.3780610.-	3780610	3777371	-	KZN_1435
26993.27301.+	26993	27301	+	H37Rv	27095.27403.+	27095	27403	+	KZN_1435
4093982.4094527.+	4093982	4094527	+	H37Rv	4080698.4081243.+	4080698	4081243	+	KZN_1435
3079309.3080457.-	3080457	3079309	-	H37Rv	1334559.1335707.+	1334559	1335707	+	KZN_1435
1176928.1177242.+	1176928	1177242	+	H37Rv	3234724.3235038.-	3235038	3234724	-	KZN_1435
3112465.3113094.-	3113094	3112465	-	H37Rv	1300563.1301192.+	1300563	1301192	+	KZN_1435
4199721.4200221.-	4200221	4199721	-	H37Rv	4186667.4187167.-	4187167	4186667	-	KZN_1435
103710.104429.-	104429	103710	-	H37Rv	3874015.3874734.+	3874015	3874734	+	KZN_1435
3884198.3884917.+	3884198	3884917	+	H37Rv	3874015.3874734.+	3874015	3874734	+	KZN_1435
444826.445254.+	444826	445254	+	H37Rv	447689.448117.+	447689	448117	+	KZN_1435
473750.474106.+	473750	474106	+	H37Rv	474009.474365.+	474009	474365	+	KZN_1435
475816.476184.+	475816	476184	+	H37Rv	474009.474365.+	474009	474365	+	KZN_1435
2157382.2157987.-	2157987	2157382	-	H37Rv	2264873.2265478.+	2264873	2265478	+	KZN_1435
1811127.1812359.+	1811127	1812359	+	H37Rv	2610353.2611585.-	2611585	2610353	-	KZN_1435
1408240.1409358.+	1408240	1409358	+	H37Rv	3002933.3004051.-	3004051	3002933	-	KZN_1435
780721.781311.+	780721	781311	+	H37Rv	781505.782095.+	781505	782095	+	KZN_1435
1200593.1201660.+	1200593	1201660	+	H37Rv	3210310.3211377.-	3211377	3210310	-	KZN_1435
1580591.1581073.+	1580591	1581073	+	H37Rv	2832632.2833114.-	2833114	2832632	-	KZN_1435
3489506.3490375.+	3489506	3490375	+	H37Rv	3490329.3491198.+	3490329	3491198	+	KZN_1435
532396.532911.+	532396	532911	+	H37Rv	532655.533170.+	532655	533170	+	KZN_1435
2898043.2898783.+	2898043	2898783	+	H37Rv	1515032.1515772.-	1515772	1515032	-	KZN_1435
3493600.3494181.-	3494181	3493600	-	H37Rv	3494423.3495004.-	3495004	3494423	-	KZN_1435
853825.854157.-	854157	853825	-	H37Rv	855023.855355.-	855355	855023	-	KZN_1435
2457553.2458395.+	2457553	2458395	+	H37Rv	1958139.1958981.-	1958981	1958139	-	KZN_1435
515373.515834.-	515834	515373	-	H37Rv	515632.516093.-	516093	515632	-	KZN_1435
2734792.2736831.-	2736831	2734792	-	H37Rv	1676848.1678887.+	1676848	1678887	+	KZN_1435
2316681.2317085.-	2317085	2316681	-	H37Rv	2099626.2100030.+	2099626	2100030	+	KZN_1435
3585677.3585949.-	3585949	3585677	-	H37Rv	3583783.3584055.-	3584055	3583783	-	KZN_1435
475350.475742.+	475350	475742	+	H37Rv	475609.476001.+	475609	476001	+	KZN_1435
2760854.2762380.+	2760854	2762380	+	H37Rv	1651299.1652825.-	1652825	1651299	-	KZN_1435
2012081.2012530.-	2012530	2012081	-	H37Rv	2411698.2412147.+	2411698	2412147	+	KZN_1435
1292798.1293403.+	1292798	1293403	+	H37Rv	3118831.3119436.-	3119436	3118831	-	KZN_1435
3020200.3020457.-	3020457	3020200	-	H37Rv	1394559.1394816.+	1394559	1394816	+	KZN_1435
87798.88004.-	88004	87798	-	H37Rv	87929.88135.-	88135	87929	-	KZN_1435
1363503.1364150.-	1364150	1363503	-	H37Rv	3048143.3048790.+	3048143	3048790	+	KZN_1435
974291.975937.-	975937	974291	-	H37Rv	3436042.3437688.+	3436042	3437688	+	KZN_1435
1485313.1485768.-	1485768	1485313	-	H37Rv	2926579.2927034.+	2926579	2927034	+	KZN_1435
1711028.1712068.+	1711028	1712068	+	H37Rv	2701398.2702438.-	2702438	2701398	-	KZN_1435
1384266.1384538.+	1384266	1384538	+	H37Rv	3027753.3028025.-	3028025	3027753	-	KZN_1435
4134726.4136048.+	4134726	4136048	+	H37Rv	4121612.4122934.+	4121612	4122934	+	KZN_1435
2307293.2307517.-	2307517	2307293	-	H37Rv	2109194.2109418.+	2109194	2109418	+	KZN_1435
1591689.1592153.+	1591689	1592153	+	H37Rv	2821552.2822016.-	2822016	2821552	-	KZN_1435
3502945.3503259.-	3503259	3502945	-	H37Rv	3503768.3504082.-	3504082	3503768	-	KZN_1435
2671593.2675834.-	2675834	2671593	-	H37Rv	1737869.1742110.+	1737869	1742110	+	KZN_1435
1576819.1577532.+	1576819	1577532	+	H37Rv	2836173.2836886.-	2836886	2836173	-	KZN_1435
1169423.1170670.+	1169423	1170670	+	H37Rv	3069688.3070935.+	3069688	3070935	+	KZN_1435
3381375.3382622.-	3382622	3381375	-	H37Rv	3069688.3070935.+	3069688	3070935	+	KZN_1435
3481451.3482698.+	3481451	3482698	+	H37Rv	3069688.3070935.+	3069688	3070935	+	KZN_1435
1341358.1342605.-	1342605	1341358	-	H37Rv	3069688.3070935.+	3069688	3070935	+	KZN_1435
2828556.2829803.-	2829803	2828556	-	H37Rv	3069688.3070935.+	3069688	3070935	+	KZN_1435
1030578.1031867.-	1031867	1030578	-	H37Rv	3380109.3381356.+	3380109	3381356	+	KZN_1435
247384.248112.-	248112	247384	-	H37Rv	247325.248053.-	248053	247325	-	KZN_1435
434830.435459.-	435459	434830	-	H37Rv	437693.438322.-	438322	437693	-	KZN_1435
2218052.2218717.+	2218052	2218717	+	H37Rv	2204355.2205020.-	2205020	2204355	-	KZN_1435
715370.716317.+	715370	716317	+	H37Rv	715622.716569.+	715622	716569	+	KZN_1435
1896475.1896867.+	1896475	1896867	+	H37Rv	2525835.2526227.-	2526227	2525835	-	KZN_1435
2906089.2906763.-	2906763	2906089	-	H37Rv	1507052.1507726.+	1507052	1507726	+	KZN_1435
767317.767820.-	767820	767317	-	H37Rv	768102.768605.-	768605	768102	-	KZN_1435
642889.644493.+	642889	644493	+	H37Rv	643150.644754.+	643150	644754	+	KZN_1435
4383653.4383985.-	4383985	4383653	-	H37Rv	4370604.4370936.-	4370936	4370604	-	KZN_1435
2715472.2716314.-	2716314	2715472	-	H37Rv	1697365.1698207.+	1697365	1698207	+	KZN_1435
698524.698994.-	698994	698524	-	H37Rv	698776.699246.-	699246	698776	-	KZN_1435
4132440.4133519.+	4132440	4133519	+	H37Rv	4119326.4120405.+	4119326	4120405	+	KZN_1435
4303398.4305008.-	4305008	4303398	-	H37Rv	4290344.4291954.-	4291954	4290344	-	KZN_1435
627248.628288.+	627248	628288	+	H37Rv	627510.628586.+	627510	628586	+	KZN_1435
3559563.3560024.+	3559563	3560024	+	H37Rv	3557670.3558131.+	3557670	3558131	+	KZN_1435
4153860.4155674.+	4153860	4155674	+	H37Rv	4140746.4142560.+	4140746	4142560	+	KZN_1435
2182460.2183239.-	2183239	2182460	-	H37Rv	2239834.2240613.+	2239834	2240613	+	KZN_1435
103710.104429.-	104429	103710	-	H37Rv	103841.104560.-	104560	103841	-	KZN_1435
3884198.3884917.+	3884198	3884917	+	H37Rv	103841.104560.-	104560	103841	-	KZN_1435
4016484.4017083.+	4016484	4017083	+	H37Rv	4001954.4002553.+	4001954	4002553	+	KZN_1435
3132892.3133614.-	3133614	3132892	-	H37Rv	1280213.1280935.+	1280213	1280935	+	KZN_1435
944343.944735.+	944343	944735	+	H37Rv	3467305.3467697.-	3467697	3467305	-	KZN_1435
3880432.3880782.-	3880782	3880432	-	H37Rv	3870249.3870599.-	3870599	3870249	-	KZN_1435
2751662.2752180.-	2752180	2751662	-	H37Rv	1661499.1662017.+	1661499	1662017	+	KZN_1435
515373.515816.-	515816	515373	-	H37Rv	515632.516075.-	516075	515632	-	KZN_1435
3053914.3055491.+	3053914	3055491	+	H37Rv	1359525.1361102.-	1361102	1359525	-	KZN_1435
3900493.3901203.-	3901203	3900493	-	H37Rv	3888952.3889662.-	3889662	3888952	-	KZN_1435
593871.594779.-	594779	593871	-	H37Rv	594050.594958.-	594958	594050	-	KZN_1435
1184883.1185740.+	1184883	1185740	+	H37Rv	3226226.3227083.-	3227083	3226226	-	KZN_1435
1961291.1961788.-	1961788	1961291	-	H37Rv	2460858.2461355.+	2460858	2461355	+	KZN_1435
552026.552550.+	552026	552550	+	H37Rv	552285.552809.+	552285	552809	+	KZN_1435
1655609.1656721.-	1656721	1655609	-	H37Rv	2756745.2757857.+	2756745	2757857	+	KZN_1435
1568109.1569584.-	1569584	1568109	-	H37Rv	2844120.2845595.+	2844120	2845595	+	KZN_1435
1138315.1138908.+	1138315	1138908	+	H37Rv	3273059.3273652.-	3273652	3273059	-	KZN_1435
3471413.3471850.-	3471850	3471413	-	H37Rv	941926.942363.+	941926	942363	+	KZN_1435
1862347.1863507.-	1863507	1862347	-	H37Rv	2559205.2560365.+	2559205	2560365	+	KZN_1435
775586.778402.-	778402	775586	-	H37Rv	776370.779186.-	779186	776370	-	KZN_1435
742719.746366.+	742719	746366	+	H37Rv	743504.747151.+	743504	747151	+	KZN_1435
4384147.4385466.-	4385466	4384147	-	H37Rv	4371098.4372417.-	4372417	4371098	-	KZN_1435
3547618.3548907.+	3547618	3548907	+	H37Rv	3548441.3549730.+	3548441	3549730	+	KZN_1435
2711332.2712876.-	2712876	2711332	-	H37Rv	1700806.1702350.+	1700806	1702350	+	KZN_1435
1810240.1811058.+	1810240	1811058	+	H37Rv	2611654.2612472.-	2612472	2611654	-	KZN_1435
654924.655949.-	655949	654924	-	H37Rv	655185.656210.-	656210	655185	-	KZN_1435
3162271.3164115.+	3162271	3164115	+	H37Rv	1249712.1251556.-	1251556	1249712	-	KZN_1435
3511592.3512068.+	3511592	3512068	+	H37Rv	3512415.3512891.+	3512415	3512891	+	KZN_1435
3894429.3895607.+	3894429	3895607	+	H37Rv	3882888.3884066.+	3882888	3884066	+	KZN_1435
1532443.1533630.-	1533630	1532443	-	H37Rv	3882888.3884066.+	3882888	3884066	+	KZN_1435
1339352.1340524.+	1339352	1340524	+	H37Rv	3882888.3884066.+	3882888	3884066	+	KZN_1435
3187030.3187611.+	3187030	3187611	+	H37Rv	1226216.1226797.-	1226797	1226216	-	KZN_1435
1190757.1192148.-	1192148	1190757	-	H37Rv	3219821.3221212.+	3219821	3221212	+	KZN_1435
1160095.1160418.-	1160418	1160095	-	H37Rv	3251550.3251873.+	3251550	3251873	+	KZN_1435
3391534.3392778.+	3391534	3392778	+	H37Rv	1020962.1022242.-	1022242	1020962	-	KZN_1435
4200421.4201326.+	4200421	4201326	+	H37Rv	4187367.4188272.+	4187367	4188272	+	KZN_1435
1308951.1309331.+	1308951	1309331	+	H37Rv	3102965.3103345.-	3103345	3102965	-	KZN_1435
889497.890333.+	889497	890333	+	H37Rv	2435226.2436062.+	2435226	2436062	+	KZN_1435
1541994.1542830.-	1542830	1541994	-	H37Rv	2435226.2436062.+	2435226	2436062	+	KZN_1435
1987745.1988581.-	1988581	1987745	-	H37Rv	2435226.2436062.+	2435226	2436062	+	KZN_1435
1996577.1997413.+	1996577	1997413	+	H37Rv	2435226.2436062.+	2435226	2436062	+	KZN_1435
2365890.2366726.+	2365890	2366726	+	H37Rv	2435226.2436062.+	2435226	2436062	+	KZN_1435
2430159.2430995.-	2430995	2430159	-	H37Rv	2435226.2436062.+	2435226	2436062	+	KZN_1435
2550490.2551326.+	2550490	2551326	+	H37Rv	2435226.2436062.+	2435226	2436062	+	KZN_1435
2636053.2636889.+	2636053	2636889	+	H37Rv	2435226.2436062.+	2435226	2436062	+	KZN_1435
2784657.2785493.-	2785493	2784657	-	H37Rv	2435226.2436062.+	2435226	2436062	+	KZN_1435
2972585.2973421.+	2972585	2973421	+	H37Rv	2435226.2436062.+	2435226	2436062	+	KZN_1435
3120566.3121402.-	3121402	3120566	-	H37Rv	2435226.2436062.+	2435226	2436062	+	KZN_1435
3551706.3552542.+	3551706	3552542	+	H37Rv	2435226.2436062.+	2435226	2436062	+	KZN_1435
3553189.3554025.+	3553189	3554025	+	H37Rv	2435226.2436062.+	2435226	2436062	+	KZN_1435
3710858.3711694.+	3710858	3711694	+	H37Rv	2435226.2436062.+	2435226	2436062	+	KZN_1435
3795100.3795936.-	3795936	3795100	-	H37Rv	2435226.2436062.+	2435226	2436062	+	KZN_1435
3891255.3892091.+	3891255	3892091	+	H37Rv	2435226.2436062.+	2435226	2436062	+	KZN_1435
1227596.1228582.-	1228582	1227596	-	H37Rv	3183595.3184581.+	3183595	3184581	+	KZN_1435
3645979.3646884.-	3646884	3645979	-	H37Rv	3644099.3645004.-	3645004	3644099	-	KZN_1435
832058.832303.+	832058	832303	+	H37Rv	833058.833303.+	833058	833303	+	KZN_1435
842033.842278.+	842033	842278	+	H37Rv	833058.833303.+	833058	833303	+	KZN_1435
2201223.2201744.-	2201744	2201223	-	H37Rv	2221329.2221850.+	2221329	2221850	+	KZN_1435
4200382.4201326.+	4200382	4201326	+	H37Rv	4187328.4188272.+	4187328	4188272	+	KZN_1435
2608973.2609728.+	2608973	2609728	+	H37Rv	1806863.1807618.-	1807618	1806863	-	KZN_1435
4363417.4364757.-	4364757	4363417	-	H37Rv	4350363.4351703.-	4351703	4350363	-	KZN_1435
218711.219367.+	218711	219367	+	H37Rv	218650.219306.+	218650	219306	+	KZN_1435
4178285.4180615.+	4178285	4180615	+	H37Rv	4165230.4167560.+	4165230	4167560	+	KZN_1435
1576930.1577532.+	1576930	1577532	+	H37Rv	2836173.2836775.-	2836775	2836173	-	KZN_1435
2328222.2328995.-	2328995	2328222	-	H37Rv	2087715.2088488.+	2087715	2088488	+	KZN_1435
4266953.4268836.-	4268836	4266953	-	H37Rv	4253899.4255782.-	4255782	4253899	-	KZN_1435
2581208.2581477.+	2581208	2581477	+	H37Rv	1835115.1835384.-	1835384	1835115	-	KZN_1435
3519273.3520514.+	3519273	3520514	+	H37Rv	3520096.3521337.+	3520096	3521337	+	KZN_1435
4163736.4164998.+	4163736	4164998	+	H37Rv	4150681.4151943.+	4150681	4151943	+	KZN_1435
1169375.1170670.+	1169375	1170670	+	H37Rv	1031106.1032401.+	1031106	1032401	+	KZN_1435
3381375.3382670.-	3382670	3381375	-	H37Rv	1031106.1032401.+	1031106	1032401	+	KZN_1435
3481403.3482698.+	3481403	3482698	+	H37Rv	1031106.1032401.+	1031106	1032401	+	KZN_1435
1341358.1342653.-	1342653	1341358	-	H37Rv	1031106.1032401.+	1031106	1032401	+	KZN_1435
2828556.2829851.-	2829851	2828556	-	H37Rv	1031106.1032401.+	1031106	1032401	+	KZN_1435
2736709.2736987.+	2736709	2736987	+	H37Rv	1676692.1676970.-	1676970	1676692	-	KZN_1435
3833694.3834521.-	3834521	3833694	-	H37Rv	3828378.3829265.-	3829265	3828378	-	KZN_1435
1272423.1273334.+	1272423	1273334	+	H37Rv	3138901.3139812.-	3139812	3138901	-	KZN_1435
1612256.1612393.+	1612256	1612393	+	H37Rv	2801312.2801449.-	2801449	2801312	-	KZN_1435
2628781.2630319.-	2630319	2628781	-	H37Rv	1786272.1787810.+	1786272	1787810	+	KZN_1435
4125439.4126479.+	4125439	4126479	+	H37Rv	4112325.4113365.+	4112325	4113365	+	KZN_1435
1710733.1711002.+	1710733	1711002	+	H37Rv	2702464.2702733.-	2702733	2702464	-	KZN_1435
4053881.4054042.-	4054042	4053881	-	H37Rv	4039240.4039401.-	4039401	4039240	-	KZN_1435
3900493.3901182.-	3901182	3900493	-	H37Rv	3888952.3889641.-	3889641	3888952	-	KZN_1435
103710.104429.-	104429	103710	-	H37Rv	2633549.2634271.+	2633549	2634271	+	KZN_1435
3884198.3884917.+	3884198	3884917	+	H37Rv	2633549.2634271.+	2633549	2634271	+	KZN_1435
1276300.1277664.-	1277664	1276300	-	H37Rv	3134571.3135935.+	3134571	3135935	+	KZN_1435
2195989.2197353.+	2195989	2197353	+	H37Rv	3134571.3135935.+	3134571	3135935	+	KZN_1435
1030578.1031864.-	1031864	1030578	-	H37Rv	3380112.3381356.+	3380112	3381356	+	KZN_1435
1078743.1081055.+	1078743	1081055	+	H37Rv	3330924.3333236.-	3333236	3330924	-	KZN_1435
2505714.2506085.-	2506085	2505714	-	H37Rv	1910506.1910877.+	1910506	1910877	+	KZN_1435
3371815.3372471.+	3371815	3372471	+	H37Rv	1041308.1041964.-	1041964	1041308	-	KZN_1435
881690.882418.+	881690	882418	+	H37Rv	882891.883619.+	882891	883619	+	KZN_1435
2983071.2983874.+	2983071	2983874	+	H37Rv	1431299.1432102.-	1432102	1431299	-	KZN_1435
1828180.1828797.+	1828180	1828797	+	H37Rv	2593915.2594532.-	2594532	2593915	-	KZN_1435
1205984.1206418.-	1206418	1205984	-	H37Rv	3205552.3205986.+	3205552	3205986	+	KZN_1435
2281210.2281617.+	2281210	2281617	+	H37Rv	2135097.2135504.-	2135504	2135097	-	KZN_1435
3600795.3601022.-	3601022	3600795	-	H37Rv	3598915.3599142.-	3599142	3598915	-	KZN_1435
1759438.1760178.+	1759438	1760178	+	H37Rv	2653287.2654027.-	2654027	2653287	-	KZN_1435
1214495.1214947.+	1214495	1214947	+	H37Rv	3197149.3197601.-	3197601	3197149	-	KZN_1435
4042952.4043035.-	4043035	4042952	-	H37Rv	4028422.4028505.-	4028505	4028422	-	KZN_1435
2002626.2003870.+	2002626	2003870	+	H37Rv	2420358.2421602.-	2421602	2420358	-	KZN_1435
1270062.1271144.+	1270062	1271144	+	H37Rv	3141091.3142173.-	3142173	3141091	-	KZN_1435
3895790.3898885.+	3895790	3898885	+	H37Rv	3884249.3887344.+	3884249	3887344	+	KZN_1435
3181770.3183011.-	3183011	3181770	-	H37Rv	1230816.1232057.+	1230816	1232057	+	KZN_1435
1165781.1166806.-	1166806	1165781	-	H37Rv	3245161.3246186.+	3245161	3246186	+	KZN_1435
3755952.3766976.-	3766976	3755952	-	H37Rv	3751813.3762837.-	3762837	3751813	-	KZN_1435
1612342.1612983.-	1612983	1612342	-	H37Rv	2800701.2801363.+	2800701	2801363	+	KZN_1435
1003954.1004484.+	1003954	1004484	+	H37Rv	3407494.3408024.-	3408024	3407494	-	KZN_1435
606551.608062.+	606551	608062	+	H37Rv	606730.608241.+	606730	608241	+	KZN_1435
400192.401703.+	400192	401703	+	H37Rv	606730.608241.+	606730	608241	+	KZN_1435
3115046.3115303.+	3115046	3115303	+	H37Rv	1298354.1298611.-	1298611	1298354	-	KZN_1435
2773178.2773564.+	2773178	2773564	+	H37Rv	1640115.1640501.-	1640501	1640115	-	KZN_1435
2207700.2208497.+	2207700	2208497	+	H37Rv	2214575.2215372.-	2215372	2214575	-	KZN_1435
4128751.4129089.-	4129089	4128751	-	H37Rv	4115637.4115975.-	4115975	4115637	-	KZN_1435
4150030.4151040.-	4151040	4150030	-	H37Rv	4136916.4137926.-	4137926	4136916	-	KZN_1435
2028425.2029477.+	2028425	2029477	+	H37Rv	2394750.2395802.-	2395802	2394750	-	KZN_1435
41307.41912.+	41307	41912	+	H37Rv	41410.42015.+	41410	42015	+	KZN_1435
3024270.3025328.-	3025328	3024270	-	H37Rv	1389688.1390746.+	1389688	1390746	+	KZN_1435
1773928.1774620.-	1774620	1773928	-	H37Rv	2638845.2639537.+	2638845	2639537	+	KZN_1435
3723904.3724548.+	3723904	3724548	+	H37Rv	3719813.3720457.+	3719813	3720457	+	KZN_1435
4142748.4143920.-	4143920	4142748	-	H37Rv	4129634.4130806.-	4130806	4129634	-	KZN_1435
1565444.1566697.+	1565444	1566697	+	H37Rv	2847007.2848260.-	2848260	2847007	-	KZN_1435
4410412.4410762.-	4410762	4410412	-	H37Rv	4397232.4397582.-	4397582	4397232	-	KZN_1435
710348.710587.+	710348	710587	+	H37Rv	710600.710839.+	710600	710839	+	KZN_1435
2677729.2678649.+	2677729	2678649	+	H37Rv	1735054.1735974.-	1735974	1735054	-	KZN_1435
1169423.1170670.+	1169423	1170670	+	H37Rv	1031154.1032401.+	1031154	1032401	+	KZN_1435
3381375.3382622.-	3382622	3381375	-	H37Rv	1031154.1032401.+	1031154	1032401	+	KZN_1435
3481451.3482698.+	3481451	3482698	+	H37Rv	1031154.1032401.+	1031154	1032401	+	KZN_1435
1341358.1342605.-	1342605	1341358	-	H37Rv	1031154.1032401.+	1031154	1032401	+	KZN_1435
2828556.2829803.-	2829803	2828556	-	H37Rv	1031154.1032401.+	1031154	1032401	+	KZN_1435
889497.890333.+	889497	890333	+	H37Rv	1861140.1861976.+	1861140	1861976	+	KZN_1435
1541994.1542830.-	1542830	1541994	-	H37Rv	1861140.1861976.+	1861140	1861976	+	KZN_1435
1987745.1988581.-	1988581	1987745	-	H37Rv	1861140.1861976.+	1861140	1861976	+	KZN_1435
1996577.1997413.+	1996577	1997413	+	H37Rv	1861140.1861976.+	1861140	1861976	+	KZN_1435
2365890.2366726.+	2365890	2366726	+	H37Rv	1861140.1861976.+	1861140	1861976	+	KZN_1435
2430159.2430995.-	2430995	2430159	-	H37Rv	1861140.1861976.+	1861140	1861976	+	KZN_1435
2550490.2551326.+	2550490	2551326	+	H37Rv	1861140.1861976.+	1861140	1861976	+	KZN_1435
2636053.2636889.+	2636053	2636889	+	H37Rv	1861140.1861976.+	1861140	1861976	+	KZN_1435
2784657.2785493.-	2785493	2784657	-	H37Rv	1861140.1861976.+	1861140	1861976	+	KZN_1435
2972585.2973421.+	2972585	2973421	+	H37Rv	1861140.1861976.+	1861140	1861976	+	KZN_1435
3120566.3121402.-	3121402	3120566	-	H37Rv	1861140.1861976.+	1861140	1861976	+	KZN_1435
3551706.3552542.+	3551706	3552542	+	H37Rv	1861140.1861976.+	1861140	1861976	+	KZN_1435
3553189.3554025.+	3553189	3554025	+	H37Rv	1861140.1861976.+	1861140	1861976	+	KZN_1435
3710858.3711694.+	3710858	3711694	+	H37Rv	1861140.1861976.+	1861140	1861976	+	KZN_1435
3795100.3795936.-	3795936	3795100	-	H37Rv	1861140.1861976.+	1861140	1861976	+	KZN_1435
3891255.3892091.+	3891255	3892091	+	H37Rv	1861140.1861976.+	1861140	1861976	+	KZN_1435
2927990.2928391.+	2927990	2928391	+	H37Rv	1485424.1485825.-	1485825	1485424	-	KZN_1435
475783.476253.-	476253	475783	-	H37Rv	476042.476512.-	476512	476042	-	KZN_1435
383602.384486.+	383602	384486	+	H37Rv	386488.387372.+	386488	387372	+	KZN_1435
521514.522167.+	521514	522167	+	H37Rv	521773.522426.+	521773	522426	+	KZN_1435
658321.659340.+	658321	659340	+	H37Rv	658582.659601.+	658582	659601	+	KZN_1435
4235374.4235739.+	4235374	4235739	+	H37Rv	4222320.4222685.+	4222320	4222685	+	KZN_1435
1339003.1339302.+	1339003	1339302	+	H37Rv	3072991.3073290.-	3073290	3072991	-	KZN_1435
1120889.1122148.-	1122148	1120889	-	H37Rv	3289819.3291078.+	3289819	3291078	+	KZN_1435
3689457.3690938.-	3690938	3689457	-	H37Rv	3687580.3688995.-	3688995	3687580	-	KZN_1435
3113658.3114812.+	3113658	3114812	+	H37Rv	1298845.1299999.-	1299999	1298845	-	KZN_1435
1840572.1842242.-	1842242	1840572	-	H37Rv	2580470.2582140.+	2580470	2582140	+	KZN_1435
2414934.2416394.-	2416394	2414934	-	H37Rv	1998781.2000241.+	1998781	2000241	+	KZN_1435
3243697.3245448.+	3243697	3245448	+	H37Rv	1168157.1169908.-	1169908	1168157	-	KZN_1435
2907826.2910198.-	2910198	2907826	-	H37Rv	1503617.1505989.+	1503617	1505989	+	KZN_1435
4132518.4133519.+	4132518	4133519	+	H37Rv	4119404.4120405.+	4119404	4120405	+	KZN_1435
542142.542852.+	542142	542852	+	H37Rv	542401.543111.+	542401	543111	+	KZN_1435
3723656.3724042.+	3723656	3724042	+	H37Rv	3719565.3719951.+	3719565	3719951	+	KZN_1435
3142309.3143619.-	3143619	3142309	-	H37Rv	1270208.1271518.+	1270208	1271518	+	KZN_1435
4269840.4270340.-	4270340	4269840	-	H37Rv	4256786.4257286.-	4257286	4256786	-	KZN_1435
3021548.3021865.-	3021865	3021548	-	H37Rv	1393151.1393468.+	1393151	1393468	+	KZN_1435
1197792.1198082.+	1197792	1198082	+	H37Rv	3213888.3214178.-	3214178	3213888	-	KZN_1435
1539512.1540645.-	1540645	1539512	-	H37Rv	2871701.2872834.+	2871701	2872834	+	KZN_1435
2075571.2075828.+	2075571	2075828	+	H37Rv	2347097.2347354.-	2347354	2347097	-	KZN_1435
709356.710348.+	709356	710348	+	H37Rv	709608.710600.+	709608	710600	+	KZN_1435
4337946.4338272.+	4337946	4338272	+	H37Rv	4324893.4325219.+	4324893	4325219	+	KZN_1435
2617667.2618908.-	2618908	2617667	-	H37Rv	1797683.1798924.+	1797683	1798924	+	KZN_1435
1283056.1284171.-	1284171	1283056	-	H37Rv	3128063.3129178.+	3128063	3129178	+	KZN_1435
3510088.3511317.-	3511317	3510088	-	H37Rv	3510911.3512140.-	3512140	3510911	-	KZN_1435
530296.530682.-	530682	530296	-	H37Rv	530555.530941.-	530941	530555	-	KZN_1435
2592723.2594138.-	2594138	2592723	-	H37Rv	1822454.1823869.+	1822454	1823869	+	KZN_1435
1178604.1178750.-	1178750	1178604	-	H37Rv	3233216.3233362.+	3233216	3233362	+	KZN_1435
3557311.3558369.-	3558369	3557311	-	H37Rv	3555418.3556476.-	3556476	3555418	-	KZN_1435
2984733.2985254.+	2984733	2985254	+	H37Rv	1429919.1430440.-	1430440	1429919	-	KZN_1435
130895.131104.-	131104	130895	-	H37Rv	131027.131236.-	131236	131027	-	KZN_1435
223607.223909.+	223607	223909	+	H37Rv	223546.223848.+	223546	223848	+	KZN_1435
2501336.2501638.-	2501638	2501336	-	H37Rv	1914953.1915255.+	1914953	1915255	+	KZN_1435
677125.677616.-	677616	677125	-	H37Rv	677377.677868.-	677868	677377	-	KZN_1435
848103.850040.-	850040	848103	-	H37Rv	849301.851238.-	851238	849301	-	KZN_1435
4384147.4385241.-	4385241	4384147	-	H37Rv	4371098.4372192.-	4372192	4371098	-	KZN_1435
1703074.1704096.+	1703074	1704096	+	H37Rv	2709370.2710392.-	2710392	2709370	-	KZN_1435
3323709.3324476.-	3324476	3323709	-	H37Rv	1089128.1089895.+	1089128	1089895	+	KZN_1435
2123684.2124370.+	2123684	2124370	+	H37Rv	2298560.2299246.-	2299246	2298560	-	KZN_1435
967898.968305.+	967898	968305	+	H37Rv	3443683.3444090.-	3444090	3443683	-	KZN_1435
466672.467406.-	467406	466672	-	H37Rv	466929.467663.-	467663	466929	-	KZN_1435
1742244.1742852.+	1742244	1742852	+	H37Rv	2670614.2671222.-	2671222	2670614	-	KZN_1435
3501175.3501732.+	3501175	3501732	+	H37Rv	3501998.3502555.+	3501998	3502555	+	KZN_1435
1612342.1612950.-	1612950	1612342	-	H37Rv	2800734.2801363.+	2800734	2801363	+	KZN_1435
3022461.3023432.+	3022461	3023432	+	H37Rv	1391584.1392555.-	1392555	1391584	-	KZN_1435
2469387.2470463.-	2470463	2469387	-	H37Rv	1946128.1947204.+	1946128	1947204	+	KZN_1435
1530973.1531197.-	1531197	1530973	-	H37Rv	2881149.2881373.+	2881149	2881373	+	KZN_1435
2069702.2070625.+	2069702	2070625	+	H37Rv	2352244.2353167.-	2353167	2352244	-	KZN_1435
565797.566396.+	565797	566396	+	H37Rv	566056.566655.+	566056	566655	+	KZN_1435
1837075.1839171.+	1837075	1839171	+	H37Rv	2583541.2585637.-	2585637	2583541	-	KZN_1435
738297.739217.-	739217	738297	-	H37Rv	738549.739469.-	739469	738549	-	KZN_1435
4212293.4212982.+	4212293	4212982	+	H37Rv	4199239.4199928.+	4199239	4199928	+	KZN_1435
2326944.2327501.+	2326944	2327501	+	H37Rv	2089209.2089766.-	2089766	2089209	-	KZN_1435
3083374.3084303.-	3084303	3083374	-	H37Rv	1329354.1330283.+	1329354	1330283	+	KZN_1435
4094660.4094968.-	4094968	4094660	-	H37Rv	4081376.4081684.-	4081684	4081376	-	KZN_1435
1989833.1992577.-	1992577	1989833	-	H37Rv	2431252.2433996.+	2431252	2433996	+	KZN_1435
3124996.3126144.-	3126144	3124996	-	H37Rv	1287692.1288840.+	1287692	1288840	+	KZN_1435
1389357.1393001.-	1393001	1389357	-	H37Rv	3019290.3022934.+	3019290	3022934	+	KZN_1435
3452925.3454343.+	3452925	3454343	+	H37Rv	959433.960851.-	960851	959433	-	KZN_1435
3609781.3610371.-	3610371	3609781	-	H37Rv	3607901.3608491.-	3608491	3607901	-	KZN_1435
3272214.3273209.+	3272214	3273209	+	H37Rv	1140394.1141389.-	1141389	1140394	-	KZN_1435
1273268.1274767.+	1273268	1274767	+	H37Rv	3137468.3138967.-	3138967	3137468	-	KZN_1435
2705762.2706736.+	2705762	2706736	+	H37Rv	1706946.1707920.-	1707920	1706946	-	KZN_1435
3908072.3908236.+	3908072	3908236	+	H37Rv	3896531.3896695.+	3896531	3896695	+	KZN_1435
4169606.4170169.+	4169606	4170169	+	H37Rv	4156551.4157114.+	4156551	4157114	+	KZN_1435
3136620.3137024.-	3137024	3136620	-	H37Rv	1276803.1277207.+	1276803	1277207	+	KZN_1435
3300596.3302344.-	3302344	3300596	-	H37Rv	1111260.1113008.+	1111260	1113008	+	KZN_1435
767317.767691.-	767691	767317	-	H37Rv	768102.768476.-	768476	768102	-	KZN_1435
2452115.2453272.-	2453272	2452115	-	H37Rv	1963262.1964419.+	1963262	1964419	+	KZN_1435
