879826.880530.+	879826	880530	+	KZN_605	879926.880630.+	879926	880630	+	H37Ra
3026521.3027066.+	3026521	3027066	+	KZN_605	1386307.1386852.-	1386852	1386307	-	H37Ra
542351.543112.+	542351	543112	+	KZN_605	543401.544162.+	543401	544162	+	H37Ra
2395796.2396098.-	2396098	2395796	-	KZN_605	2037943.2038245.+	2037943	2038245	+	H37Ra
3333809.3334501.+	3333809	3334501	+	KZN_605	1078541.1079233.-	1079233	1078541	-	H37Ra
2773756.2775054.-	2775054	2773756	-	KZN_605	1639865.1641163.+	1639865	1641163	+	H37Ra
17568.18845.-	18845	17568	-	KZN_605	18825.20102.-	20102	18825	-	H37Ra
3568329.3570518.-	3570518	3568329	-	KZN_605	3579892.3582081.-	3582081	3579892	-	H37Ra
333099.333272.-	333272	333099	-	KZN_605	334522.334695.-	334695	334522	-	H37Ra
2456586.2456870.-	2456870	2456586	-	KZN_605	1967175.1967459.+	1967175	1967459	+	H37Ra
3179122.3179532.-	3179532	3179122	-	KZN_605	1233726.1234136.+	1233726	1234136	+	H37Ra
2052483.2053316.-	2053316	2052483	-	KZN_605	2373176.2374009.+	2373176	2374009	+	H37Ra
41409.42014.+	41409	42014	+	KZN_605	42665.43270.+	42665	43270	+	H37Ra
4137786.4138892.-	4138892	4137786	-	KZN_605	4158476.4159582.-	4159582	4158476	-	H37Ra
602084.603022.+	602084	603022	+	KZN_605	603158.604096.+	603158	604096	+	H37Ra
307816.309486.-	309486	307816	-	KZN_605	309239.310909.-	310909	309239	-	H37Ra
4371967.4373061.-	4373061	4371967	-	KZN_605	4392593.4393687.-	4393687	4392593	-	H37Ra
1451456.1453822.+	1451456	1453822	+	KZN_605	2972073.2974439.-	2974439	2972073	-	H37Ra
843237.843482.+	843237	843482	+	KZN_605	843339.843584.+	843339	843584	+	H37Ra
833063.833308.+	833063	833308	+	KZN_605	843339.843584.+	843339	843584	+	H37Ra
3844867.3845805.-	3845805	3844867	-	KZN_605	3862617.3863555.-	3863555	3862617	-	H37Ra
1709980.1710582.-	1710582	1709980	-	KZN_605	2715204.2715806.+	2715204	2715806	+	H37Ra
1218395.1219774.+	1218395	1219774	+	KZN_605	3206158.3207537.-	3207537	3206158	-	H37Ra
1077101.1077676.-	1077676	1077101	-	KZN_605	3347922.3348497.+	3347922	3348497	+	H37Ra
339426.341960.-	341960	339426	-	KZN_605	337922.340456.-	340456	337922	-	H37Ra
536764.537495.-	537495	536764	-	KZN_605	537814.538545.-	538545	537814	-	H37Ra
800947.801237.-	801237	800947	-	KZN_605	801410.801700.-	801700	801410	-	H37Ra
3522422.3523078.+	3522422	3523078	+	KZN_605	3532642.3533298.+	3532642	3533298	+	H37Ra
476654.476902.+	476654	476902	+	KZN_605	477704.477952.+	477704	477952	+	H37Ra
676142.676621.+	676142	676621	+	KZN_605	677141.677620.+	677141	677620	+	H37Ra
661206.661589.+	661206	661589	+	KZN_605	662196.662579.+	662196	662579	+	H37Ra
3540423.3541787.+	3540423	3541787	+	KZN_605	3550643.3552007.+	3550643	3552007	+	H37Ra
1278441.1279343.+	1278441	1279343	+	KZN_605	3146588.3147490.-	3147490	3146588	-	H37Ra
4091260.4092123.-	4092123	4091260	-	KZN_605	4112121.4112984.-	4112984	4112121	-	H37Ra
737579.738472.-	738472	737579	-	KZN_605	738574.739467.-	739467	738574	-	H37Ra
2220858.2221211.-	2221211	2220858	-	KZN_605	2211642.2211995.+	2211642	2211995	+	H37Ra
4254768.4256711.-	4256711	4254768	-	KZN_605	4275399.4277342.-	4277342	4275399	-	H37Ra
3425707.3426219.+	3425707	3426219	+	KZN_605	986820.987332.-	987332	986820	-	H37Ra
932094.932930.-	932930	932094	-	KZN_605	2560394.2561230.+	2560394	2561230	+	H37Ra
1292441.1293277.+	1292441	1293277	+	KZN_605	2560394.2561230.+	2560394	2561230	+	H37Ra
1330608.1331444.-	1331444	1330608	-	KZN_605	2560394.2561230.+	2560394	2561230	+	H37Ra
1606101.1606937.-	1606937	1606101	-	KZN_605	2560394.2561230.+	2560394	2561230	+	H37Ra
1781709.1782545.+	1781709	1782545	+	KZN_605	2560394.2561230.+	2560394	2561230	+	H37Ra
1861256.1862092.+	1861256	1862092	+	KZN_605	2560394.2561230.+	2560394	2561230	+	H37Ra
2048502.2049338.+	2048502	2049338	+	KZN_605	2560394.2561230.+	2560394	2561230	+	H37Ra
2050173.2051009.+	2050173	2051009	+	KZN_605	2560394.2561230.+	2560394	2561230	+	H37Ra
2155551.2156387.-	2156387	2155551	-	KZN_605	2560394.2561230.+	2560394	2561230	+	H37Ra
2375860.2376696.+	2375860	2376696	+	KZN_605	2560394.2561230.+	2560394	2561230	+	H37Ra
2435107.2435943.+	2435107	2435943	+	KZN_605	2560394.2561230.+	2560394	2561230	+	H37Ra
3480070.3480906.+	3480070	3480906	+	KZN_605	2560394.2561230.+	2560394	2561230	+	H37Ra
3488592.3489428.-	3489428	3488592	-	KZN_605	2560394.2561230.+	2560394	2561230	+	H37Ra
3709850.3710686.-	3710686	3709850	-	KZN_605	2560394.2561230.+	2560394	2561230	+	H37Ra
4064133.4064969.-	4064969	4064133	-	KZN_605	2560394.2561230.+	2560394	2561230	+	H37Ra
4200042.4200797.+	4200042	4200797	+	KZN_605	4220673.4221428.+	4220673	4221428	+	H37Ra
3044602.3045690.-	3045690	3044602	-	KZN_605	1367683.1368771.+	1367683	1368771	+	H37Ra
1846655.1847722.-	1847722	1846655	-	KZN_605	2578890.2579957.+	2578890	2579957	+	H37Ra
1280502.1281047.+	1280502	1281047	+	KZN_605	3144883.3145428.-	3145428	3144883	-	H37Ra
1277606.1278151.+	1277606	1278151	+	KZN_605	3144883.3145428.-	3145428	3144883	-	H37Ra
508018.508845.-	508845	508018	-	KZN_605	509068.509895.-	509895	509068	-	H37Ra
1835231.1835563.-	1835563	1835231	-	KZN_605	2591049.2591381.+	2591049	2591381	+	H37Ra
2608018.2609427.-	2609427	2608018	-	KZN_605	1814686.1816095.+	1814686	1816095	+	H37Ra
3778484.3781759.-	3781759	3778484	-	KZN_605	3790624.3793899.-	3793899	3790624	-	H37Ra
1515145.1515972.-	1515972	1515145	-	KZN_605	2909924.2910751.+	2909924	2910751	+	H37Ra
3007472.3008677.+	3007472	3008677	+	KZN_605	1404696.1405901.-	1405901	1404696	-	H37Ra
2204235.2204843.-	2204843	2204235	-	KZN_605	2228009.2228617.+	2228009	2228617	+	H37Ra
2044420.2044635.+	2044420	2044635	+	KZN_605	2380500.2380715.-	2380715	2380500	-	H37Ra
369007.375621.-	375621	369007	-	KZN_605	367512.374126.-	374126	367512	-	H37Ra
2264742.2265359.+	2264742	2265359	+	KZN_605	2167314.2167931.-	2167931	2167314	-	H37Ra
3883998.3885176.+	3883998	3885176	+	KZN_605	3903106.3904284.+	3903106	3904284	+	H37Ra
2878487.2879674.+	2878487	2879674	+	KZN_605	3903106.3904284.+	3903106	3904284	+	H37Ra
3071541.3072713.-	3072713	3071541	-	KZN_605	3903106.3904284.+	3903106	3904284	+	H37Ra
3134341.3135705.+	3134341	3135705	+	KZN_605	1277610.1278974.-	1278974	1277610	-	H37Ra
2225601.2226965.-	2226965	2225601	-	KZN_605	1277610.1278974.-	1278974	1277610	-	H37Ra
2525717.2526112.-	2526112	2525717	-	KZN_605	1897990.1898385.+	1897990	1898385	+	H37Ra
1715761.1716090.-	1716090	1715761	-	KZN_605	2709696.2710025.+	2709696	2710025	+	H37Ra
2113869.2122061.+	2113869	2122061	+	KZN_605	2304431.2312623.-	2312623	2304431	-	H37Ra
3503111.3503668.+	3503111	3503668	+	KZN_605	3513331.3513888.+	3513331	3513888	+	H37Ra
3423027.3424529.-	3424529	3423027	-	KZN_605	988510.990012.+	988510	990012	+	H37Ra
1697489.1698322.+	1697489	1698322	+	KZN_605	2727440.2728273.-	2728273	2727440	-	H37Ra
1507098.1507838.+	1507098	1507838	+	KZN_605	2918057.2918797.-	2918797	2918057	-	H37Ra
2471536.2471952.+	2471536	2471952	+	KZN_605	1952150.1952566.-	1952566	1952150	-	H37Ra
3002106.3002579.+	3002106	3002579	+	KZN_605	1410794.1411267.-	1411267	1410794	-	H37Ra
1619093.1619854.+	1619093	1619854	+	KZN_605	2807269.2808030.-	2808030	2807269	-	H37Ra
1288956.1289981.+	1288956	1289981	+	KZN_605	3135958.3136983.-	3136983	3135958	-	H37Ra
71727.71966.+	71727	71966	+	KZN_605	72947.73186.+	72947	73186	+	H37Ra
3478770.3479516.+	3478770	3479516	+	KZN_605	933585.934331.-	934331	933585	-	H37Ra
1031097.1032407.+	1031097	1032407	+	KZN_605	3493544.3494854.+	3493544	3494854	+	H37Ra
1584061.1585371.+	1584061	1585371	+	KZN_605	3493544.3494854.+	3493544	3494854	+	H37Ra
3069397.3070707.+	3069397	3070707	+	KZN_605	3493544.3494854.+	3493544	3494854	+	H37Ra
3241051.3242361.-	3242361	3241051	-	KZN_605	3493544.3494854.+	3493544	3494854	+	H37Ra
3481966.3483276.+	3481966	3483276	+	KZN_605	3493544.3494854.+	3493544	3494854	+	H37Ra
3531926.3533083.-	3533083	3531926	-	KZN_605	3542146.3543303.-	3543303	3542146	-	H37Ra
53456.55801.+	53456	55801	+	KZN_605	54712.57057.+	54712	57057	+	H37Ra
3147765.3149675.+	3147765	3149675	+	KZN_605	1263582.1265492.-	1265492	1263582	-	H37Ra
2611537.2612385.-	2612385	2611537	-	KZN_605	1811728.1812576.+	1811728	1812576	+	H37Ra
1168157.1170037.-	1170037	1168157	-	KZN_605	3255560.3257440.+	3255560	3257440	+	H37Ra
3645212.3646135.-	3646135	3645212	-	KZN_605	3656762.3657685.-	3657685	3656762	-	H37Ra
1056355.1056558.+	1056355	1056558	+	KZN_605	3369394.3369597.-	3369597	3369394	-	H37Ra
2040776.2041417.-	2041417	2040776	-	KZN_605	2383718.2384359.+	2383718	2384359	+	H37Ra
2756613.2757740.+	2756613	2757740	+	KZN_605	1657126.1658253.-	1658253	1657126	-	H37Ra
1230880.1232169.+	1230880	1232169	+	KZN_605	3193762.3195051.-	3195051	3193762	-	H37Ra
3703176.3703610.+	3703176	3703610	+	KZN_605	3714847.3715281.+	3714847	3715281	+	H37Ra
1651414.1653030.-	1653030	1651414	-	KZN_605	2772732.2774348.+	2772732	2774348	+	H37Ra
1031112.1032407.+	1031112	1032407	+	KZN_605	3493559.3494854.+	3493559	3494854	+	H37Ra
1584076.1585371.+	1584076	1585371	+	KZN_605	3493559.3494854.+	3493559	3494854	+	H37Ra
3069412.3070707.+	3069412	3070707	+	KZN_605	3493559.3494854.+	3493559	3494854	+	H37Ra
3241051.3242346.-	3242346	3241051	-	KZN_605	3493559.3494854.+	3493559	3494854	+	H37Ra
3481981.3483276.+	3481981	3483276	+	KZN_605	3493559.3494854.+	3493559	3494854	+	H37Ra
2007668.2008453.+	2007668	2008453	+	KZN_605	2416742.2417527.-	2417527	2416742	-	H37Ra
770842.771393.+	770842	771393	+	KZN_605	771305.771856.+	771305	771856	+	H37Ra
2108933.2109295.+	2108933	2109295	+	KZN_605	2317193.2317555.-	2317555	2317193	-	H37Ra
2446300.2448891.-	2448891	2446300	-	KZN_605	1975154.1977745.+	1975154	1977745	+	H37Ra
878024.879661.-	879661	878024	-	KZN_605	878124.879761.-	879761	878124	-	H37Ra
362624.364030.-	364030	362624	-	KZN_605	361120.362526.-	362526	361120	-	H37Ra
103839.104798.-	104798	103839	-	KZN_605	3892635.3893594.+	3892635	3893594	+	H37Ra
3874885.3875844.+	3874885	3875844	+	KZN_605	3892635.3893594.+	3892635	3893594	+	H37Ra
2633192.2634154.+	2633192	2634154	+	KZN_605	3892635.3893594.+	3892635	3893594	+	H37Ra
4120196.4121275.+	4120196	4121275	+	KZN_605	4140886.4141965.+	4140886	4141965	+	H37Ra
3397176.3397334.-	3397334	3397176	-	KZN_605	1015705.1015863.+	1015705	1015863	+	H37Ra
3490520.3490999.+	3490520	3490999	+	KZN_605	3500740.3501219.+	3500740	3501219	+	H37Ra
800003.800650.-	800650	800003	-	KZN_605	800466.801113.-	801113	800466	-	H37Ra
2835943.2836656.-	2836656	2835943	-	KZN_605	1578129.1578842.+	1578129	1578842	+	H37Ra
1973388.1974326.+	1973388	1974326	+	KZN_605	2452229.2453167.-	2453167	2452229	-	H37Ra
2824984.2825703.+	2824984	2825703	+	KZN_605	1589082.1589801.-	1589801	1589082	-	H37Ra
545095.545445.+	545095	545445	+	KZN_605	546145.546495.+	546145	546495	+	H37Ra
877525.878004.-	878004	877525	-	KZN_605	877625.878104.-	878104	877625	-	H37Ra
1698444.1699670.+	1698444	1699670	+	KZN_605	2726092.2727318.-	2727318	2726092	-	H37Ra
1833279.1833431.-	1833431	1833279	-	KZN_605	2593181.2593333.+	2593181	2593333	+	H37Ra
2580325.2582022.+	2580325	2582022	+	KZN_605	1842090.1843787.-	1843787	1842090	-	H37Ra
4296853.4298211.+	4296853	4298211	+	KZN_605	4317484.4318842.+	4317484	4318842	+	H37Ra
1834958.1835284.+	1834958	1835284	+	KZN_605	2591328.2591654.-	2591654	2591328	-	H37Ra
1621155.1622432.+	1621155	1622432	+	KZN_605	2804691.2805968.-	2805968	2804691	-	H37Ra
3210064.3211140.-	3211140	3210064	-	KZN_605	1201893.1202969.+	1201893	1202969	+	H37Ra
3179486.3179884.-	3179884	3179486	-	KZN_605	1233374.1233772.+	1233374	1233772	+	H37Ra
1451486.1453822.+	1451486	1453822	+	KZN_605	2972073.2974409.-	2974409	2972073	-	H37Ra
449395.449997.-	449997	449395	-	KZN_605	447894.448496.-	448496	447894	-	H37Ra
2089087.2090022.-	2090022	2089087	-	KZN_605	2336466.2337401.+	2336466	2337401	+	H37Ra
2800512.2801132.+	2800512	2801132	+	KZN_605	1613652.1614251.-	1614251	1613652	-	H37Ra
1074021.1074692.-	1074692	1074021	-	KZN_605	3351260.3351931.+	3351260	3351931	+	H37Ra
1340648.1341448.+	1340648	1341448	+	KZN_605	3085648.3086448.-	3086448	3085648	-	H37Ra
3904100.3905452.-	3905452	3904100	-	KZN_605	3923208.3924560.-	3924560	3923208	-	H37Ra
1373670.1374362.+	1373670	1374362	+	KZN_605	3052734.3053426.-	3053426	3052734	-	H37Ra
2063114.2063461.+	2063114	2063461	+	KZN_605	2362946.2363293.-	2363293	2362946	-	H37Ra
661573.663693.+	661573	663693	+	KZN_605	662563.664683.+	662563	664683	+	H37Ra
998442.998846.+	998442	998846	+	KZN_605	3427106.3427510.-	3427510	3427106	-	H37Ra
3590791.3591477.+	3590791	3591477	+	KZN_605	3602354.3603040.+	3602354	3603040	+	H37Ra
4002425.4003312.+	4002425	4003312	+	KZN_605	4024862.4025749.+	4024862	4025749	+	H37Ra
4371967.4373286.-	4373286	4371967	-	KZN_605	4392593.4393912.-	4393912	4392593	-	H37Ra
3264695.3265186.-	3265186	3264695	-	KZN_605	1147845.1148336.+	1147845	1148336	+	H37Ra
2492752.2493453.+	2492752	2493453	+	KZN_605	1930649.1931350.-	1931350	1930649	-	H37Ra
2456586.2457047.-	2457047	2456586	-	KZN_605	1966998.1967459.+	1966998	1967459	+	H37Ra
3211348.3212187.+	3211348	3212187	+	KZN_605	1200735.1201685.-	1201685	1200735	-	H37Ra
3632872.3634296.+	3632872	3634296	+	KZN_605	3644422.3645846.+	3644422	3645846	+	H37Ra
186432.186560.-	186560	186432	-	KZN_605	187855.187983.-	187983	187855	-	H37Ra
2420239.2421474.-	2421474	2420239	-	KZN_605	2012567.2013802.+	2012567	2013802	+	H37Ra
1787985.1789535.+	1787985	1789535	+	KZN_605	2637076.2638626.-	2638626	2637076	-	H37Ra
932094.932930.-	932930	932094	-	KZN_605	890803.891639.+	890803	891639	+	H37Ra
1292441.1293277.+	1292441	1293277	+	KZN_605	890803.891639.+	890803	891639	+	H37Ra
1330608.1331444.-	1331444	1330608	-	KZN_605	890803.891639.+	890803	891639	+	H37Ra
1606101.1606937.-	1606937	1606101	-	KZN_605	890803.891639.+	890803	891639	+	H37Ra
1781709.1782545.+	1781709	1782545	+	KZN_605	890803.891639.+	890803	891639	+	H37Ra
1861256.1862092.+	1861256	1862092	+	KZN_605	890803.891639.+	890803	891639	+	H37Ra
2048502.2049338.+	2048502	2049338	+	KZN_605	890803.891639.+	890803	891639	+	H37Ra
2050173.2051009.+	2050173	2051009	+	KZN_605	890803.891639.+	890803	891639	+	H37Ra
2155551.2156387.-	2156387	2155551	-	KZN_605	890803.891639.+	890803	891639	+	H37Ra
2375860.2376696.+	2375860	2376696	+	KZN_605	890803.891639.+	890803	891639	+	H37Ra
2435107.2435943.+	2435107	2435943	+	KZN_605	890803.891639.+	890803	891639	+	H37Ra
3480070.3480906.+	3480070	3480906	+	KZN_605	890803.891639.+	890803	891639	+	H37Ra
3488592.3489428.-	3489428	3488592	-	KZN_605	890803.891639.+	890803	891639	+	H37Ra
3709850.3710686.-	3710686	3709850	-	KZN_605	890803.891639.+	890803	891639	+	H37Ra
4064133.4064969.-	4064969	4064133	-	KZN_605	890803.891639.+	890803	891639	+	H37Ra
2072351.2072581.-	2072581	2072351	-	KZN_605	2353894.2354124.+	2353894	2354124	+	H37Ra
1430031.1430597.-	1430597	1430031	-	KZN_605	2996656.2997222.+	2996656	2997222	+	H37Ra
518849.519301.+	518849	519301	+	KZN_605	519899.520351.+	519899	520351	+	H37Ra
1099934.1100323.-	1100323	1099934	-	KZN_605	3325275.3325664.+	3325275	3325664	+	H37Ra
4148327.4148710.-	4148710	4148327	-	KZN_605	4168958.4169341.-	4169341	4168958	-	H37Ra
1433709.1434098.+	1433709	1434098	+	KZN_605	2993155.2993544.-	2993544	2993155	-	H37Ra
95546.97021.+	95546	97021	+	KZN_605	96775.98250.+	96775	98250	+	H37Ra
3829488.3830339.-	3830339	3829488	-	KZN_605	3842372.3843163.-	3843163	3842372	-	H37Ra
806764.807171.+	806764	807171	+	KZN_605	807065.807472.+	807065	807472	+	H37Ra
932094.932930.-	932930	932094	-	KZN_605	2796625.2797461.-	2797461	2796625	-	H37Ra
1292441.1293277.+	1292441	1293277	+	KZN_605	2796625.2797461.-	2797461	2796625	-	H37Ra
1330608.1331444.-	1331444	1330608	-	KZN_605	2796625.2797461.-	2797461	2796625	-	H37Ra
1606101.1606937.-	1606937	1606101	-	KZN_605	2796625.2797461.-	2797461	2796625	-	H37Ra
1781709.1782545.+	1781709	1782545	+	KZN_605	2796625.2797461.-	2797461	2796625	-	H37Ra
1861256.1862092.+	1861256	1862092	+	KZN_605	2796625.2797461.-	2797461	2796625	-	H37Ra
2048502.2049338.+	2048502	2049338	+	KZN_605	2796625.2797461.-	2797461	2796625	-	H37Ra
2050173.2051009.+	2050173	2051009	+	KZN_605	2796625.2797461.-	2797461	2796625	-	H37Ra
2155551.2156387.-	2156387	2155551	-	KZN_605	2796625.2797461.-	2797461	2796625	-	H37Ra
2375860.2376696.+	2375860	2376696	+	KZN_605	2796625.2797461.-	2797461	2796625	-	H37Ra
2435107.2435943.+	2435107	2435943	+	KZN_605	2796625.2797461.-	2797461	2796625	-	H37Ra
3480070.3480906.+	3480070	3480906	+	KZN_605	2796625.2797461.-	2797461	2796625	-	H37Ra
3488592.3489428.-	3489428	3488592	-	KZN_605	2796625.2797461.-	2797461	2796625	-	H37Ra
3709850.3710686.-	3710686	3709850	-	KZN_605	2796625.2797461.-	2797461	2796625	-	H37Ra
4064133.4064969.-	4064969	4064133	-	KZN_605	2796625.2797461.-	2797461	2796625	-	H37Ra
1008564.1008815.-	1008815	1008564	-	KZN_605	3417137.3417388.+	3417137	3417388	+	H37Ra
257723.258844.-	258844	257723	-	KZN_605	259145.260266.-	260266	259145	-	H37Ra
4166064.4168430.+	4166064	4168430	+	KZN_605	4186695.4189061.+	4186695	4189061	+	H37Ra
3579746.3580531.+	3579746	3580531	+	KZN_605	3591309.3592094.+	3591309	3592094	+	H37Ra
1361273.1361539.-	1361539	1361273	-	KZN_605	3065557.3065823.+	3065557	3065823	+	H37Ra
1031112.1032407.+	1031112	1032407	+	KZN_605	1342668.1343963.-	1343963	1342668	-	H37Ra
1584076.1585371.+	1584076	1585371	+	KZN_605	1342668.1343963.-	1343963	1342668	-	H37Ra
3069412.3070707.+	3069412	3070707	+	KZN_605	1342668.1343963.-	1343963	1342668	-	H37Ra
3241051.3242346.-	3242346	3241051	-	KZN_605	1342668.1343963.-	1343963	1342668	-	H37Ra
3481981.3483276.+	3481981	3483276	+	KZN_605	1342668.1343963.-	1343963	1342668	-	H37Ra
3140861.3142048.-	3142048	3140861	-	KZN_605	1271267.1272454.+	1271267	1272454	+	H37Ra
1279340.1280230.+	1279340	1280230	+	KZN_605	3145701.3146591.-	3146591	3145701	-	H37Ra
932094.932930.-	932930	932094	-	KZN_605	1989483.1990319.-	1990319	1989483	-	H37Ra
1292441.1293277.+	1292441	1293277	+	KZN_605	1989483.1990319.-	1990319	1989483	-	H37Ra
1330608.1331444.-	1331444	1330608	-	KZN_605	1989483.1990319.-	1990319	1989483	-	H37Ra
1606101.1606937.-	1606937	1606101	-	KZN_605	1989483.1990319.-	1990319	1989483	-	H37Ra
1781709.1782545.+	1781709	1782545	+	KZN_605	1989483.1990319.-	1990319	1989483	-	H37Ra
1861256.1862092.+	1861256	1862092	+	KZN_605	1989483.1990319.-	1990319	1989483	-	H37Ra
2048502.2049338.+	2048502	2049338	+	KZN_605	1989483.1990319.-	1990319	1989483	-	H37Ra
2050173.2051009.+	2050173	2051009	+	KZN_605	1989483.1990319.-	1990319	1989483	-	H37Ra
2155551.2156387.-	2156387	2155551	-	KZN_605	1989483.1990319.-	1990319	1989483	-	H37Ra
2375860.2376696.+	2375860	2376696	+	KZN_605	1989483.1990319.-	1990319	1989483	-	H37Ra
2435107.2435943.+	2435107	2435943	+	KZN_605	1989483.1990319.-	1990319	1989483	-	H37Ra
3480070.3480906.+	3480070	3480906	+	KZN_605	1989483.1990319.-	1990319	1989483	-	H37Ra
3488592.3489428.-	3489428	3488592	-	KZN_605	1989483.1990319.-	1990319	1989483	-	H37Ra
3709850.3710686.-	3710686	3709850	-	KZN_605	1989483.1990319.-	1990319	1989483	-	H37Ra
4064133.4064969.-	4064969	4064133	-	KZN_605	1989483.1990319.-	1990319	1989483	-	H37Ra
534705.534893.-	534893	534705	-	KZN_605	535755.535943.-	535943	535755	-	H37Ra
3315226.3316644.+	3315226	3316644	+	KZN_605	1096386.1097804.-	1097804	1096386	-	H37Ra
3622392.3624155.-	3624155	3622392	-	KZN_605	3633942.3635705.-	3635705	3633942	-	H37Ra
2772721.2773728.+	2772721	2773728	+	KZN_605	1641191.1642198.-	1642198	1641191	-	H37Ra
3231144.3232376.-	3232376	3231144	-	KZN_605	1180654.1181886.+	1180654	1181886	+	H37Ra
274650.274844.-	274844	274650	-	KZN_605	276072.276266.-	276266	276072	-	H37Ra
2162887.2163135.-	2163135	2162887	-	KZN_605	2269717.2269965.+	2269717	2269965	+	H37Ra
1589325.1590671.+	1589325	1590671	+	KZN_605	2835224.2836570.-	2836570	2835224	-	H37Ra
223544.223846.+	223544	223846	+	KZN_605	224967.225269.+	224967	225269	+	H37Ra
965352.966377.+	965352	966377	+	KZN_605	3459560.3460585.-	3460585	3459560	-	H37Ra
1111262.1113010.+	1111262	1113010	+	KZN_605	3312588.3314336.-	3314336	3312588	-	H37Ra
3639105.3639476.-	3639476	3639105	-	KZN_605	3650655.3651026.-	3651026	3650655	-	H37Ra
3862011.3863435.-	3863435	3862011	-	KZN_605	3879761.3881185.-	3881185	3879761	-	H37Ra
2944439.2944870.-	2944870	2944439	-	KZN_605	1468559.1468990.+	1468559	1468990	+	H37Ra
2393906.2394223.-	2394223	2393906	-	KZN_605	2039818.2040135.+	2039818	2040135	+	H37Ra
3556531.3557715.-	3557715	3556531	-	KZN_605	3568109.3569293.-	3569293	3568109	-	H37Ra
3146492.3146860.+	3146492	3146860	+	KZN_605	1266397.1266765.-	1266765	1266397	-	H37Ra
2583423.2585642.-	2585642	2583423	-	KZN_605	1838470.1840689.+	1838470	1840689	+	H37Ra
4338881.4339996.+	4338881	4339996	+	KZN_605	4359512.4360627.+	4359512	4360627	+	H37Ra
2724119.2725405.-	2725405	2724119	-	KZN_605	1689461.1690747.+	1689461	1690747	+	H37Ra
4193302.4193655.+	4193302	4193655	+	KZN_605	4213933.4214286.+	4213933	4214286	+	H37Ra
1277340.1277609.+	1277340	1277609	+	KZN_605	3148322.3148591.-	3148591	3148322	-	H37Ra
144138.145757.+	144138	145757	+	KZN_605	145366.146985.+	145366	146985	+	H37Ra
3740685.3748103.-	3748103	3740685	-	KZN_605	3752824.3760242.-	3760242	3752824	-	H37Ra
710895.711128.-	711128	710895	-	KZN_605	711894.712127.-	712127	711894	-	H37Ra
2562836.2563894.-	2563894	2562836	-	KZN_605	1860218.1861276.+	1860218	1861276	+	H37Ra
455158.456060.-	456060	455158	-	KZN_605	453657.454559.-	454559	453657	-	H37Ra
144129.145757.+	144129	145757	+	KZN_605	145357.146985.+	145357	146985	+	H37Ra
4238924.4240681.+	4238924	4240681	+	KZN_605	4259555.4261312.+	4259555	4261312	+	H37Ra
1229372.1230091.-	1230091	1229372	-	KZN_605	3195840.3196559.+	3195840	3196559	+	H37Ra
2424103.2424378.-	2424378	2424103	-	KZN_605	2009663.2009938.+	2009663	2009938	+	H37Ra
1661566.1662132.+	1661566	1662132	+	KZN_605	2763630.2764196.-	2764196	2763630	-	H37Ra
833063.833308.+	833063	833308	+	KZN_605	833364.833609.+	833364	833609	+	H37Ra
843237.843482.+	843237	843482	+	KZN_605	833364.833609.+	833364	833609	+	H37Ra
4157361.4157984.+	4157361	4157984	+	KZN_605	4177992.4178615.+	4177992	4178615	+	H37Ra
932094.932930.-	932930	932094	-	KZN_605	3132534.3133370.-	3133370	3132534	-	H37Ra
1292441.1293277.+	1292441	1293277	+	KZN_605	3132534.3133370.-	3133370	3132534	-	H37Ra
1330608.1331444.-	1331444	1330608	-	KZN_605	3132534.3133370.-	3133370	3132534	-	H37Ra
1606101.1606937.-	1606937	1606101	-	KZN_605	3132534.3133370.-	3133370	3132534	-	H37Ra
1781709.1782545.+	1781709	1782545	+	KZN_605	3132534.3133370.-	3133370	3132534	-	H37Ra
1861256.1862092.+	1861256	1862092	+	KZN_605	3132534.3133370.-	3133370	3132534	-	H37Ra
2048502.2049338.+	2048502	2049338	+	KZN_605	3132534.3133370.-	3133370	3132534	-	H37Ra
2050173.2051009.+	2050173	2051009	+	KZN_605	3132534.3133370.-	3133370	3132534	-	H37Ra
2155551.2156387.-	2156387	2155551	-	KZN_605	3132534.3133370.-	3133370	3132534	-	H37Ra
2375860.2376696.+	2375860	2376696	+	KZN_605	3132534.3133370.-	3133370	3132534	-	H37Ra
2435107.2435943.+	2435107	2435943	+	KZN_605	3132534.3133370.-	3133370	3132534	-	H37Ra
3480070.3480906.+	3480070	3480906	+	KZN_605	3132534.3133370.-	3133370	3132534	-	H37Ra
3488592.3489428.-	3489428	3488592	-	KZN_605	3132534.3133370.-	3133370	3132534	-	H37Ra
3709850.3710686.-	3710686	3709850	-	KZN_605	3132534.3133370.-	3133370	3132534	-	H37Ra
4064133.4064969.-	4064969	4064133	-	KZN_605	3132534.3133370.-	3133370	3132534	-	H37Ra
945855.946175.-	946175	945855	-	KZN_605	3479762.3480082.+	3479762	3480082	+	H37Ra
3289574.3290833.+	3289574	3290833	+	KZN_605	1122197.1123456.-	1123456	1122197	-	H37Ra
714504.715577.+	714504	715577	+	KZN_605	715503.716576.+	715503	716576	+	H37Ra
1651414.1652985.-	1652985	1651414	-	KZN_605	2772777.2774348.+	2772777	2774348	+	H37Ra
456526.457077.-	457077	456526	-	KZN_605	457631.458182.-	458182	457631	-	H37Ra
3585375.3585704.-	3585704	3585375	-	KZN_605	3596938.3597267.-	3597267	3596938	-	H37Ra
1882742.1883380.-	1883380	1882742	-	KZN_605	2543231.2543869.+	2543231	2543869	+	H37Ra
3513513.3514004.+	3513513	3514004	+	KZN_605	3523733.3524224.+	3523733	3524224	+	H37Ra
4085681.4086754.-	4086754	4085681	-	KZN_605	4106542.4107615.-	4107615	4106542	-	H37Ra
3318590.3321391.-	3321391	3318590	-	KZN_605	1091651.1094452.+	1091651	1094452	+	H37Ra
831863.832666.+	831863	832666	+	KZN_605	832164.832967.+	832164	832967	+	H37Ra
3596784.3597023.-	3597023	3596784	-	KZN_605	3608334.3608573.-	3608573	3608334	-	H37Ra
462288.463565.+	462288	463565	+	KZN_605	463338.464615.+	463338	464615	+	H37Ra
3244910.3245941.+	3244910	3245941	+	KZN_605	1167089.1168120.-	1168120	1167089	-	H37Ra
1909556.1910314.-	1910314	1909556	-	KZN_605	2516297.2517055.+	2516297	2517055	+	H37Ra
1062664.1063509.+	1062664	1063509	+	KZN_605	3362443.3363288.-	3363288	3362443	-	H37Ra
2087593.2088366.+	2087593	2088366	+	KZN_605	2338122.2338895.-	2338895	2338122	-	H37Ra
1822003.1822554.+	1822003	1822554	+	KZN_605	2604058.2604609.-	2604609	2604058	-	H37Ra
1403256.1403729.+	1403256	1403729	+	KZN_605	3023367.3023840.-	3023840	3023367	-	H37Ra
1555670.1556074.+	1555670	1556074	+	KZN_605	2869821.2870225.-	2870225	2869821	-	H37Ra
3865749.3867017.+	3865749	3867017	+	KZN_605	3883499.3884767.+	3883499	3884767	+	H37Ra
3796348.3797088.+	3796348	3797088	+	KZN_605	3809846.3810586.+	3809846	3810586	+	H37Ra
3750196.3750687.-	3750687	3750196	-	KZN_605	3762335.3762826.-	3762826	3762335	-	H37Ra
704735.705070.+	704735	705070	+	KZN_605	705734.706069.+	705734	706069	+	H37Ra
4106115.4106276.-	4106276	4106115	-	KZN_605	4126976.4127137.-	4127137	4126976	-	H37Ra
3837568.3837930.-	3837930	3837568	-	KZN_605	3855360.3855680.-	3855680	3855360	-	H37Ra
52912.53346.+	52912	53346	+	KZN_605	54168.54602.+	54168	54602	+	H37Ra
1334611.1335819.+	1334611	1335819	+	KZN_605	3091277.3092485.-	3092485	3091277	-	H37Ra
1062712.1063509.+	1062712	1063509	+	KZN_605	3362443.3363240.-	3363240	3362443	-	H37Ra
437694.438323.-	438323	437694	-	KZN_605	436193.436822.-	436822	436193	-	H37Ra
1993015.1993650.+	1993015	1993650	+	KZN_605	2431545.2432180.-	2432180	2431545	-	H37Ra
3839952.3840116.-	3840116	3839952	-	KZN_605	3857702.3857866.-	3857866	3857702	-	H37Ra
3213643.3213933.-	3213933	3213643	-	KZN_605	1199101.1199391.+	1199101	1199391	+	H37Ra
3353432.3354085.+	3353432	3354085	+	KZN_605	1058954.1059607.-	1059607	1058954	-	H37Ra
2321165.2321809.-	2321809	2321165	-	KZN_605	2110936.2111580.+	2110936	2111580	+	H37Ra
3664026.3664991.+	3664026	3664991	+	KZN_605	3675639.3676604.+	3675639	3676604	+	H37Ra
3251305.3251628.+	3251305	3251628	+	KZN_605	1161403.1161726.-	1161726	1161403	-	H37Ra
658638.659660.+	658638	659660	+	KZN_605	659628.660650.+	659628	660650	+	H37Ra
606763.608298.+	606763	608298	+	KZN_605	401530.403065.+	401530	403065	+	H37Ra
4146030.4146737.+	4146030	4146737	+	KZN_605	4166661.4167368.+	4166661	4167368	+	H37Ra
3019011.3022706.+	3019011	3022706	+	KZN_605	1390667.1394362.-	1394362	1390667	-	H37Ra
3234479.3234835.-	3234835	3234479	-	KZN_605	1178195.1178551.+	1178195	1178551	+	H37Ra
918759.919418.-	919418	918759	-	KZN_605	920218.920877.-	920877	920218	-	H37Ra
2476060.2476167.-	2476167	2476060	-	KZN_605	1947935.1948042.+	1947935	1948042	+	H37Ra
4281040.4287351.-	4287351	4281040	-	KZN_605	4301671.4307982.-	4307982	4301671	-	H37Ra
4083125.4083700.-	4083700	4083125	-	KZN_605	4103986.4104561.-	4104561	4103986	-	H37Ra
3792073.3793068.-	3793068	3792073	-	KZN_605	3805571.3806566.-	3806566	3805571	-	H37Ra
712560.713030.+	712560	713030	+	KZN_605	713559.714029.+	713559	714029	+	H37Ra
3481009.3481320.+	3481009	3481320	+	KZN_605	3492587.3492898.+	3492587	3492898	+	H37Ra
1466816.1467544.-	1467544	1466816	-	KZN_605	2958351.2959079.+	2958351	2959079	+	H37Ra
1868956.1869489.-	1869489	1868956	-	KZN_605	2557123.2557656.+	2557123	2557656	+	H37Ra
4056755.4057468.+	4056755	4057468	+	KZN_605	4078973.4079686.+	4078973	4079686	+	H37Ra
3866979.3867872.-	3867872	3866979	-	KZN_605	3884729.3885622.-	3885622	3884729	-	H37Ra
1644910.1645533.+	1644910	1645533	+	KZN_605	2780229.2780852.-	2780852	2780229	-	H37Ra
3316663.3317187.-	3317187	3316663	-	KZN_605	1095843.1096367.+	1095843	1096367	+	H37Ra
2016551.2016832.-	2016832	2016551	-	KZN_605	2408305.2408586.+	2408305	2408586	+	H37Ra
4082246.4082500.-	4082500	4082246	-	KZN_605	4103107.4103361.-	4103361	4103107	-	H37Ra
2926168.2926350.+	2926168	2926350	+	KZN_605	1487078.1487260.-	1487260	1487078	-	H37Ra
4081526.4082113.+	4081526	4082113	+	KZN_605	4102387.4102974.+	4102387	4102974	+	H37Ra
3720824.3721570.+	3720824	3721570	+	KZN_605	3734643.3735389.+	3734643	3735389	+	H37Ra
207389.208357.+	207389	208357	+	KZN_605	208812.209780.+	208812	209780	+	H37Ra
2365328.2366272.-	2366272	2365328	-	KZN_605	2066411.2067355.+	2066411	2067355	+	H37Ra
3943660.3944664.+	3943660	3944664	+	KZN_605	3966094.3967098.+	3966094	3967098	+	H37Ra
768161.768481.-	768481	768161	-	KZN_605	768623.768943.-	768943	768623	-	H37Ra
3196460.3196642.-	3196642	3196460	-	KZN_605	1216534.1216716.+	1216534	1216716	+	H37Ra
544996.545382.-	545382	544996	-	KZN_605	546046.546432.-	546432	546046	-	H37Ra
3395046.3395519.-	3395519	3395046	-	KZN_605	1017520.1017993.+	1017520	1017993	+	H37Ra
3234817.3235155.-	3235155	3234817	-	KZN_605	1177875.1178213.+	1177875	1178213	+	H37Ra
2638671.2639420.+	2638671	2639420	+	KZN_605	1775445.1776194.-	1776194	1775445	-	H37Ra
2800470.2801132.+	2800470	2801132	+	KZN_605	1613652.1614293.-	1614293	1613652	-	H37Ra
736609.737556.-	737556	736609	-	KZN_605	737604.738551.-	738551	737604	-	H37Ra
1205573.1205998.+	1205573	1205998	+	KZN_605	3219934.3220359.-	3220359	3219934	-	H37Ra
3394516.3394911.+	3394516	3394911	+	KZN_605	1018128.1018523.-	1018523	1018128	-	H37Ra
57437.58075.+	57437	58075	+	KZN_605	58693.59331.+	58693	59331	+	H37Ra
3237935.3238843.-	3238843	3237935	-	KZN_605	1174187.1175095.+	1174187	1175095	+	H37Ra
932094.932930.-	932930	932094	-	KZN_605	3721699.3722535.+	3721699	3722535	+	H37Ra
1292441.1293277.+	1292441	1293277	+	KZN_605	3721699.3722535.+	3721699	3722535	+	H37Ra
1330608.1331444.-	1331444	1330608	-	KZN_605	3721699.3722535.+	3721699	3722535	+	H37Ra
1606101.1606937.-	1606937	1606101	-	KZN_605	3721699.3722535.+	3721699	3722535	+	H37Ra
1781709.1782545.+	1781709	1782545	+	KZN_605	3721699.3722535.+	3721699	3722535	+	H37Ra
1861256.1862092.+	1861256	1862092	+	KZN_605	3721699.3722535.+	3721699	3722535	+	H37Ra
2048502.2049338.+	2048502	2049338	+	KZN_605	3721699.3722535.+	3721699	3722535	+	H37Ra
2050173.2051009.+	2050173	2051009	+	KZN_605	3721699.3722535.+	3721699	3722535	+	H37Ra
2155551.2156387.-	2156387	2155551	-	KZN_605	3721699.3722535.+	3721699	3722535	+	H37Ra
2375860.2376696.+	2375860	2376696	+	KZN_605	3721699.3722535.+	3721699	3722535	+	H37Ra
2435107.2435943.+	2435107	2435943	+	KZN_605	3721699.3722535.+	3721699	3722535	+	H37Ra
3480070.3480906.+	3480070	3480906	+	KZN_605	3721699.3722535.+	3721699	3722535	+	H37Ra
3488592.3489428.-	3489428	3488592	-	KZN_605	3721699.3722535.+	3721699	3722535	+	H37Ra
3709850.3710686.-	3710686	3709850	-	KZN_605	3721699.3722535.+	3721699	3722535	+	H37Ra
4064133.4064969.-	4064969	4064133	-	KZN_605	3721699.3722535.+	3721699	3722535	+	H37Ra
3182564.3183235.-	3183235	3182564	-	KZN_605	1230023.1230694.+	1230023	1230694	+	H37Ra
1370133.1370753.+	1370133	1370753	+	KZN_605	3056343.3056963.-	3056963	3056343	-	H37Ra
2042691.2044328.+	2042691	2044328	+	KZN_605	2380807.2382444.-	2382444	2380807	-	H37Ra
704296.704523.+	704296	704523	+	KZN_605	705295.705522.+	705295	705522	+	H37Ra
2729345.2731216.-	2731216	2729345	-	KZN_605	1683650.1685521.+	1683650	1685521	+	H37Ra
3862011.3863459.-	3863459	3862011	-	KZN_605	3879761.3881209.-	3881209	3879761	-	H37Ra
932094.932930.-	932930	932094	-	KZN_605	2984553.2985389.+	2984553	2985389	+	H37Ra
1292441.1293277.+	1292441	1293277	+	KZN_605	2984553.2985389.+	2984553	2985389	+	H37Ra
1330608.1331444.-	1331444	1330608	-	KZN_605	2984553.2985389.+	2984553	2985389	+	H37Ra
1606101.1606937.-	1606937	1606101	-	KZN_605	2984553.2985389.+	2984553	2985389	+	H37Ra
1781709.1782545.+	1781709	1782545	+	KZN_605	2984553.2985389.+	2984553	2985389	+	H37Ra
1861256.1862092.+	1861256	1862092	+	KZN_605	2984553.2985389.+	2984553	2985389	+	H37Ra
2048502.2049338.+	2048502	2049338	+	KZN_605	2984553.2985389.+	2984553	2985389	+	H37Ra
2050173.2051009.+	2050173	2051009	+	KZN_605	2984553.2985389.+	2984553	2985389	+	H37Ra
2155551.2156387.-	2156387	2155551	-	KZN_605	2984553.2985389.+	2984553	2985389	+	H37Ra
2375860.2376696.+	2375860	2376696	+	KZN_605	2984553.2985389.+	2984553	2985389	+	H37Ra
2435107.2435943.+	2435107	2435943	+	KZN_605	2984553.2985389.+	2984553	2985389	+	H37Ra
3480070.3480906.+	3480070	3480906	+	KZN_605	2984553.2985389.+	2984553	2985389	+	H37Ra
3488592.3489428.-	3489428	3488592	-	KZN_605	2984553.2985389.+	2984553	2985389	+	H37Ra
3709850.3710686.-	3710686	3709850	-	KZN_605	2984553.2985389.+	2984553	2985389	+	H37Ra
4064133.4064969.-	4064969	4064133	-	KZN_605	2984553.2985389.+	2984553	2985389	+	H37Ra
3549479.3550843.+	3549479	3550843	+	KZN_605	3559699.3561063.+	3559699	3561063	+	H37Ra
237831.238328.-	238328	237831	-	KZN_605	239254.239751.-	239751	239254	-	H37Ra
1338235.1338525.+	1338235	1338525	+	KZN_605	3088571.3088861.-	3088861	3088571	-	H37Ra
3458566.3458976.-	3458976	3458566	-	KZN_605	954125.954535.+	954125	954535	+	H37Ra
3864364.3865059.+	3864364	3865059	+	KZN_605	3882114.3882809.+	3882114	3882809	+	H37Ra
427082.427633.-	427633	427082	-	KZN_605	425506.426057.-	426057	425506	-	H37Ra
3734048.3735064.-	3735064	3734048	-	KZN_605	3746097.3747113.-	3747113	3746097	-	H37Ra
3491418.3492311.+	3491418	3492311	+	KZN_605	3501638.3502531.+	3501638	3502531	+	H37Ra
566042.566656.+	566042	566656	+	KZN_605	567092.567706.+	567092	567706	+	H37Ra
3324383.3325978.+	3324383	3325978	+	KZN_605	1087064.1088659.-	1088659	1087064	-	H37Ra
2821322.2821804.-	2821804	2821322	-	KZN_605	1592981.1593463.+	1592981	1593463	+	H37Ra
3598134.3598901.-	3598901	3598134	-	KZN_605	3609684.3610451.-	3610451	3609684	-	H37Ra
1435594.1435959.+	1435594	1435959	+	KZN_605	2991294.2991659.-	2991659	2991294	-	H37Ra
1687734.1687928.+	1687734	1687928	+	KZN_605	2737834.2738028.-	2738028	2737834	-	H37Ra
882281.882670.-	882670	882281	-	KZN_605	882381.882770.-	882770	882381	-	H37Ra
1035251.1035454.+	1035251	1035454	+	KZN_605	3390498.3390701.-	3390701	3390498	-	H37Ra
4306062.4306571.-	4306571	4306062	-	KZN_605	4326693.4327202.-	4327202	4326693	-	H37Ra
3072763.3073092.-	3073092	3072763	-	KZN_605	1340284.1340613.+	1340284	1340613	+	H37Ra
3252311.3252805.+	3252311	3252805	+	KZN_605	1160226.1160720.-	1160720	1160226	-	H37Ra
1368505.1370142.+	1368505	1370142	+	KZN_605	3056954.3058591.-	3058591	3056954	-	H37Ra
2026966.2028033.+	2026966	2028033	+	KZN_605	2397104.2398171.-	2398171	2397104	-	H37Ra
1702478.1703446.+	1702478	1703446	+	KZN_605	2722319.2723287.-	2723287	2722319	-	H37Ra
3102735.3103115.-	3103115	3102735	-	KZN_605	1310261.1310641.+	1310261	1310641	+	H37Ra
1031097.1032407.+	1031097	1032407	+	KZN_605	2840524.2841834.-	2841834	2840524	-	H37Ra
1584061.1585371.+	1584061	1585371	+	KZN_605	2840524.2841834.-	2841834	2840524	-	H37Ra
3069397.3070707.+	3069397	3070707	+	KZN_605	2840524.2841834.-	2841834	2840524	-	H37Ra
3241051.3242361.-	3242361	3241051	-	KZN_605	2840524.2841834.-	2841834	2840524	-	H37Ra
3481966.3483276.+	3481966	3483276	+	KZN_605	2840524.2841834.-	2841834	2840524	-	H37Ra
3357490.3357990.-	3357990	3357490	-	KZN_605	1055049.1055549.+	1055049	1055549	+	H37Ra
4002581.4003312.+	4002581	4003312	+	KZN_605	4025018.4025749.+	4025018	4025749	+	H37Ra
510637.510915.-	510915	510637	-	KZN_605	511687.511965.-	511965	511687	-	H37Ra
3521209.3522450.+	3521209	3522450	+	KZN_605	3531429.3532670.+	3531429	3532670	+	H37Ra
1906453.1907268.-	1907268	1906453	-	KZN_605	2519343.2520158.+	2519343	2520158	+	H37Ra
1986024.1987058.+	1986024	1987058	+	KZN_605	2438137.2439171.-	2439171	2438137	-	H37Ra
3751267.3752211.-	3752211	3751267	-	KZN_605	3763406.3764350.-	3764350	3763406	-	H37Ra
218648.219304.+	218648	219304	+	KZN_605	220071.220727.+	220071	220727	+	H37Ra
1468897.1470327.+	1468897	1470327	+	KZN_605	2955568.2956998.-	2956998	2955568	-	H37Ra
315722.316375.-	316375	315722	-	KZN_605	317145.317798.-	317798	317145	-	H37Ra
1700912.1702465.+	1700912	1702465	+	KZN_605	2723300.2724853.-	2724853	2723300	-	H37Ra
1963357.1964538.+	1963357	1964538	+	KZN_605	2462017.2463198.-	2463198	2462017	-	H37Ra
3548973.3549266.+	3548973	3549266	+	KZN_605	3559193.3559486.+	3559193	3559486	+	H37Ra
2053309.2055858.-	2055858	2053309	-	KZN_605	2370634.2373183.+	2370634	2373183	+	H37Ra
2846777.2848030.-	2848030	2846777	-	KZN_605	1566754.1568007.+	1566754	1568007	+	H37Ra
34408.36642.+	34408	36642	+	KZN_605	35665.37968.+	35665	37968	+	H37Ra
2338048.2338248.-	2338248	2338048	-	KZN_605	2094491.2094691.+	2094491	2094691	+	H37Ra
2352126.2353055.-	2353055	2352126	-	KZN_605	2079628.2080557.+	2079628	2080557	+	H37Ra
931425.931976.-	931976	931425	-	KZN_605	932884.933435.-	933435	932884	-	H37Ra
3134206.3135705.+	3134206	3135705	+	KZN_605	1277610.1279109.-	1279109	1277610	-	H37Ra
855029.855361.-	855361	855029	-	KZN_605	855131.855463.-	855463	855131	-	H37Ra
2882026.2884638.-	2884638	2882026	-	KZN_605	1528789.1531401.+	1528789	1531401	+	H37Ra
3135145.3135705.+	3135145	3135705	+	KZN_605	1277610.1278170.-	1278170	1277610	-	H37Ra
2210094.2211338.-	2211338	2210094	-	KZN_605	2221514.2222758.+	2221514	2222758	+	H37Ra
4081568.4082113.+	4081568	4082113	+	KZN_605	4102429.4102974.+	4102429	4102974	+	H37Ra
1032690.1033103.+	1032690	1033103	+	KZN_605	3392849.3393262.-	3393262	3392849	-	H37Ra
1089112.1089897.+	1089112	1089897	+	KZN_605	3335701.3336486.-	3336486	3335701	-	H37Ra
1834961.1835284.+	1834961	1835284	+	KZN_605	2591328.2591651.-	2591651	2591328	-	H37Ra
1050097.1050444.-	1050444	1050097	-	KZN_605	3375508.3375855.+	3375508	3375855	+	H37Ra
2986118.2986624.+	2986118	2986624	+	KZN_605	1426748.1427254.-	1427254	1426748	-	H37Ra
3983972.3985867.+	3983972	3985867	+	KZN_605	4006406.4008304.+	4006406	4008304	+	H37Ra
1382630.1383340.-	1383340	1382630	-	KZN_605	3043756.3044466.+	3043756	3044466	+	H37Ra
877895.878035.+	877895	878035	+	KZN_605	877995.878135.+	877995	878135	+	H37Ra
3495104.3495454.-	3495454	3495104	-	KZN_605	3505324.3505674.-	3505674	3505324	-	H37Ra
3805064.3806644.-	3806644	3805064	-	KZN_605	3818120.3819700.-	3819700	3818120	-	H37Ra
4082909.4083115.-	4083115	4082909	-	KZN_605	4103770.4103976.-	4103976	4103770	-	H37Ra
3609014.3609616.-	3609616	3609014	-	KZN_605	3620564.3621166.-	3621166	3620564	-	H37Ra
1393293.1393580.+	1393293	1393580	+	KZN_605	3033516.3033803.-	3033803	3033516	-	H37Ra
3335475.3336437.+	3335475	3336437	+	KZN_605	1076605.1077567.-	1077567	1076605	-	H37Ra
4257655.4258155.-	4258155	4257655	-	KZN_605	4278286.4278786.-	4278786	4278286	-	H37Ra
941892.942368.+	941892	942368	+	KZN_605	3483569.3484045.-	3484045	3483569	-	H37Ra
632063.632695.+	632063	632695	+	KZN_605	633053.633685.+	633053	633685	+	H37Ra
183352.183498.+	183352	183498	+	KZN_605	184775.184921.+	184775	184921	+	H37Ra
474010.474366.+	474010	474366	+	KZN_605	475060.475416.+	475060	475416	+	H37Ra
476076.476444.+	476076	476444	+	KZN_605	475060.475416.+	475060	475416	+	H37Ra
614562.614966.-	614966	614562	-	KZN_605	615636.616040.-	616040	615636	-	H37Ra
3558018.3558200.-	3558200	3558018	-	KZN_605	3569581.3569763.-	3569763	3569581	-	H37Ra
4116507.4116956.-	4116956	4116507	-	KZN_605	4137197.4137646.-	4137646	4137197	-	H37Ra
3583020.3584006.-	3584006	3583020	-	KZN_605	3594583.3595569.-	3595569	3594583	-	H37Ra
104934.105230.-	105230	104934	-	KZN_605	106163.106459.-	106459	106163	-	H37Ra
1311583.1312188.+	1311583	1312188	+	KZN_605	3113549.3114154.-	3114154	3113549	-	H37Ra
1657075.1659051.+	1657075	1659051	+	KZN_605	2766711.2768687.-	2768687	2766711	-	H37Ra
4298228.4298629.+	4298228	4298629	+	KZN_605	4318859.4319260.+	4318859	4319260	+	H37Ra
3435763.3437442.+	3435763	3437442	+	KZN_605	975597.977276.-	977276	975597	-	H37Ra
1901465.1904257.-	1904257	1901465	-	KZN_605	2522354.2525146.+	2522354	2525146	+	H37Ra
4095045.4095254.+	4095045	4095254	+	KZN_605	4115906.4116115.+	4115906	4116115	+	H37Ra
1910326.1910502.+	1910326	1910502	+	KZN_605	2516109.2516285.-	2516285	2516109	-	H37Ra
3472391.3473719.-	3473719	3472391	-	KZN_605	939382.940710.+	939382	940710	+	H37Ra
3346748.3347620.+	3346748	3347620	+	KZN_605	1065422.1066294.-	1066294	1065422	-	H37Ra
847363.849117.+	847363	849117	+	KZN_605	847465.849219.+	847465	849219	+	H37Ra
3455507.3456745.-	3456745	3455507	-	KZN_605	956356.957594.+	956356	957594	+	H37Ra
4342918.4344357.+	4342918	4344357	+	KZN_605	4363549.4364988.+	4363549	4364988	+	H37Ra
1806979.1807734.-	1807734	1806979	-	KZN_605	2618877.2619632.+	2618877	2619632	+	H37Ra
2156953.2157681.-	2157681	2156953	-	KZN_605	2275171.2275899.+	2275171	2275899	+	H37Ra
1797703.1799040.+	1797703	1799040	+	KZN_605	2627571.2628908.-	2628908	2627571	-	H37Ra
352801.354342.+	352801	354342	+	KZN_605	351297.352838.+	351297	352838	+	H37Ra
1031097.1032407.+	1031097	1032407	+	KZN_605	1170669.1171979.+	1170669	1171979	+	H37Ra
1584061.1585371.+	1584061	1585371	+	KZN_605	1170669.1171979.+	1170669	1171979	+	H37Ra
3069397.3070707.+	3069397	3070707	+	KZN_605	1170669.1171979.+	1170669	1171979	+	H37Ra
3241051.3242361.-	3242361	3241051	-	KZN_605	1170669.1171979.+	1170669	1171979	+	H37Ra
3481966.3483276.+	3481966	3483276	+	KZN_605	1170669.1171979.+	1170669	1171979	+	H37Ra
3072763.3073062.-	3073062	3072763	-	KZN_605	1340314.1340613.+	1340314	1340613	+	H37Ra
2451367.2451552.+	2451367	2451552	+	KZN_605	1972493.1972678.-	1972678	1972493	-	H37Ra
2998051.2998737.-	2998737	2998051	-	KZN_605	1414636.1415250.+	1414636	1415250	+	H37Ra
4120145.4121275.+	4120145	4121275	+	KZN_605	4140835.4141965.+	4140835	4141965	+	H37Ra
781498.782154.+	781498	782154	+	KZN_605	781961.782617.+	781961	782617	+	H37Ra
4197397.4198917.-	4198917	4197397	-	KZN_605	4218028.4219548.-	4219548	4218028	-	H37Ra
3379864.3381153.+	3379864	3381153	+	KZN_605	1031886.1033175.-	1033175	1031886	-	H37Ra
569224.570246.-	570246	569224	-	KZN_605	570274.571296.-	571296	570274	-	H37Ra
2360017.2361573.+	2360017	2361573	+	KZN_605	2071110.2072666.-	2072666	2071110	-	H37Ra
3556531.3557589.-	3557589	3556531	-	KZN_605	3568109.3569167.-	3569167	3568109	-	H37Ra
1123099.1123638.-	1123638	1123099	-	KZN_605	3301959.3302498.+	3301959	3302498	+	H37Ra
3330679.3333057.-	3333057	3330679	-	KZN_605	1079985.1082363.+	1079985	1082363	+	H37Ra
3204075.3204425.-	3204425	3204075	-	KZN_605	1208608.1208958.+	1208608	1208958	+	H37Ra
2950829.2951116.-	2951116	2950829	-	KZN_605	1462313.1462600.+	1462313	1462600	+	H37Ra
3111862.3112182.+	3111862	3112182	+	KZN_605	1301132.1301452.-	1301452	1301132	-	H37Ra
3638550.3639077.+	3638550	3639077	+	KZN_605	3650100.3650627.+	3650100	3650627	+	H37Ra
932094.932930.-	932930	932094	-	KZN_605	2648021.2648857.+	2648021	2648857	+	H37Ra
1292441.1293277.+	1292441	1293277	+	KZN_605	2648021.2648857.+	2648021	2648857	+	H37Ra
1330608.1331444.-	1331444	1330608	-	KZN_605	2648021.2648857.+	2648021	2648857	+	H37Ra
1606101.1606937.-	1606937	1606101	-	KZN_605	2648021.2648857.+	2648021	2648857	+	H37Ra
1781709.1782545.+	1781709	1782545	+	KZN_605	2648021.2648857.+	2648021	2648857	+	H37Ra
1861256.1862092.+	1861256	1862092	+	KZN_605	2648021.2648857.+	2648021	2648857	+	H37Ra
2048502.2049338.+	2048502	2049338	+	KZN_605	2648021.2648857.+	2648021	2648857	+	H37Ra
2050173.2051009.+	2050173	2051009	+	KZN_605	2648021.2648857.+	2648021	2648857	+	H37Ra
2155551.2156387.-	2156387	2155551	-	KZN_605	2648021.2648857.+	2648021	2648857	+	H37Ra
2375860.2376696.+	2375860	2376696	+	KZN_605	2648021.2648857.+	2648021	2648857	+	H37Ra
2435107.2435943.+	2435107	2435943	+	KZN_605	2648021.2648857.+	2648021	2648857	+	H37Ra
3480070.3480906.+	3480070	3480906	+	KZN_605	2648021.2648857.+	2648021	2648857	+	H37Ra
3488592.3489428.-	3489428	3488592	-	KZN_605	2648021.2648857.+	2648021	2648857	+	H37Ra
3709850.3710686.-	3710686	3709850	-	KZN_605	2648021.2648857.+	2648021	2648857	+	H37Ra
4064133.4064969.-	4064969	4064133	-	KZN_605	2648021.2648857.+	2648021	2648857	+	H37Ra
988664.990466.+	988664	990466	+	KZN_605	3435418.3437220.-	3437220	3435418	-	H37Ra
412243.413688.+	412243	413688	+	KZN_605	410718.412163.+	410718	412163	+	H37Ra
836064.836210.-	836210	836064	-	KZN_605	836365.836511.-	836511	836365	-	H37Ra
223936.224601.+	223936	224601	+	KZN_605	225359.226024.+	225359	226024	+	H37Ra
2105668.2108457.+	2105668	2108457	+	KZN_605	2318031.2320820.-	2320820	2318031	-	H37Ra
4084521.4085684.-	4085684	4084521	-	KZN_605	4105382.4106545.-	4106545	4105382	-	H37Ra
1915077.1915778.-	1915778	1915077	-	KZN_605	2510833.2511534.+	2510833	2511534	+	H37Ra
1943468.1944214.-	1944214	1943468	-	KZN_605	2482398.2483144.+	2482398	2483144	+	H37Ra
1893534.1894421.-	1894421	1893534	-	KZN_605	2532190.2533077.+	2532190	2533077	+	H37Ra
386518.387372.+	386518	387372	+	KZN_605	384994.385848.+	384994	385848	+	H37Ra
2307336.2309672.-	2309672	2307336	-	KZN_605	2123072.2125408.+	2123072	2125408	+	H37Ra
3752302.3752538.-	3752538	3752302	-	KZN_605	3764441.3764677.-	3764677	3764441	-	H37Ra
3272814.3273422.-	3273422	3272814	-	KZN_605	1139608.1140216.+	1139608	1140216	+	H37Ra
4356333.4358051.-	4358051	4356333	-	KZN_605	4376964.4378682.-	4378682	4376964	-	H37Ra
3118601.3119266.-	3119266	3118601	-	KZN_605	1294048.1294713.+	1294048	1294713	+	H37Ra
142259.144016.-	144016	142259	-	KZN_605	143487.145244.-	145244	143487	-	H37Ra
2637916.2638488.+	2637916	2638488	+	KZN_605	1776377.1776949.-	1776949	1776377	-	H37Ra
1998890.2000359.+	1998890	2000359	+	KZN_605	2424836.2426305.-	2426305	2424836	-	H37Ra
1329304.1330395.+	1329304	1330395	+	KZN_605	3095342.3096433.-	3096433	3095342	-	H37Ra
2569716.2570270.-	2570270	2569716	-	KZN_605	1853842.1854396.+	1853842	1854396	+	H37Ra
3247287.3247559.+	3247287	3247559	+	KZN_605	1165472.1165744.-	1165744	1165472	-	H37Ra
606763.608298.+	606763	608298	+	KZN_605	607837.609372.+	607837	609372	+	H37Ra
4116507.4116845.-	4116845	4116507	-	KZN_605	4137197.4137535.-	4137535	4137197	-	H37Ra
655244.656329.-	656329	655244	-	KZN_605	656234.657319.-	657319	656234	-	H37Ra
1391696.1392733.-	1392733	1391696	-	KZN_605	3034363.3035400.+	3034363	3035400	+	H37Ra
3993560.3994948.-	3994948	3993560	-	KZN_605	4015997.4017385.-	4017385	4015997	-	H37Ra
1031112.1032407.+	1031112	1032407	+	KZN_605	1170684.1171979.+	1170684	1171979	+	H37Ra
1584076.1585371.+	1584076	1585371	+	KZN_605	1170684.1171979.+	1170684	1171979	+	H37Ra
3069412.3070707.+	3069412	3070707	+	KZN_605	1170684.1171979.+	1170684	1171979	+	H37Ra
3241051.3242346.-	3242346	3241051	-	KZN_605	1170684.1171979.+	1170684	1171979	+	H37Ra
3481981.3483276.+	3481981	3483276	+	KZN_605	1170684.1171979.+	1170684	1171979	+	H37Ra
3040361.3040534.-	3040534	3040361	-	KZN_605	1372839.1373012.+	1372839	1373012	+	H37Ra
4015197.4016015.-	4016015	4015197	-	KZN_605	4037634.4038452.-	4038452	4037634	-	H37Ra
2621696.2623030.-	2623030	2621696	-	KZN_605	1801083.1802417.+	1801083	1802417	+	H37Ra
1031112.1032407.+	1031112	1032407	+	KZN_605	3393545.3394840.-	3394840	3393545	-	H37Ra
1584076.1585371.+	1584076	1585371	+	KZN_605	3393545.3394840.-	3394840	3393545	-	H37Ra
3069412.3070707.+	3069412	3070707	+	KZN_605	3393545.3394840.-	3394840	3393545	-	H37Ra
3241051.3242346.-	3242346	3241051	-	KZN_605	3393545.3394840.-	3394840	3393545	-	H37Ra
3481981.3483276.+	3481981	3483276	+	KZN_605	3393545.3394840.-	3394840	3393545	-	H37Ra
4290601.4291206.-	4291206	4290601	-	KZN_605	4311232.4311837.-	4311837	4311232	-	H37Ra
2335844.2338051.+	2335844	2338051	+	KZN_605	2094688.2096895.-	2096895	2094688	-	H37Ra
3242298.3243086.+	3242298	3243086	+	KZN_605	1169944.1170732.-	1170732	1169944	-	H37Ra
2709253.2710299.-	2710299	2709253	-	KZN_605	1704567.1705613.+	1704567	1705613	+	H37Ra
906252.907139.+	906252	907139	+	KZN_605	907711.908598.+	907711	908598	+	H37Ra
3443437.3443853.-	3443853	3443437	-	KZN_605	969195.969611.+	969195	969611	+	H37Ra
2832402.2832929.-	2832929	2832402	-	KZN_605	1581856.1582383.+	1581856	1582383	+	H37Ra
676343.676621.+	676343	676621	+	KZN_605	677342.677620.+	677342	677620	+	H37Ra
1270320.1271630.+	1270320	1271630	+	KZN_605	3154301.3155611.-	3155611	3154301	-	H37Ra
3722906.3723118.-	3723118	3722906	-	KZN_605	3736725.3736937.-	3736937	3736725	-	H37Ra
1962917.1963195.+	1962917	1963195	+	KZN_605	2463360.2463638.-	2463638	2463360	-	H37Ra
545635.546162.-	546162	545635	-	KZN_605	546685.547212.-	547212	546685	-	H37Ra
2843890.2845365.+	2843890	2845365	+	KZN_605	1569419.1570894.-	1570894	1569419	-	H37Ra
1676786.1679002.+	1676786	1679002	+	KZN_605	2746760.2748976.-	2748976	2746760	-	H37Ra
3699526.3699696.-	3699696	3699526	-	KZN_605	3711197.3711367.-	3711367	3711197	-	H37Ra
591711.591812.+	591711	591812	+	KZN_605	592785.592886.+	592785	592886	+	H37Ra
882896.883624.+	882896	883624	+	KZN_605	882996.883724.+	882996	883724	+	H37Ra
738608.739528.-	739528	738608	-	KZN_605	739603.740523.-	740523	739603	-	H37Ra
932094.932930.-	932930	932094	-	KZN_605	2440061.2440897.-	2440897	2440061	-	H37Ra
1292441.1293277.+	1292441	1293277	+	KZN_605	2440061.2440897.-	2440897	2440061	-	H37Ra
1330608.1331444.-	1331444	1330608	-	KZN_605	2440061.2440897.-	2440897	2440061	-	H37Ra
1606101.1606937.-	1606937	1606101	-	KZN_605	2440061.2440897.-	2440897	2440061	-	H37Ra
1781709.1782545.+	1781709	1782545	+	KZN_605	2440061.2440897.-	2440897	2440061	-	H37Ra
1861256.1862092.+	1861256	1862092	+	KZN_605	2440061.2440897.-	2440897	2440061	-	H37Ra
2048502.2049338.+	2048502	2049338	+	KZN_605	2440061.2440897.-	2440897	2440061	-	H37Ra
2050173.2051009.+	2050173	2051009	+	KZN_605	2440061.2440897.-	2440897	2440061	-	H37Ra
2155551.2156387.-	2156387	2155551	-	KZN_605	2440061.2440897.-	2440897	2440061	-	H37Ra
2375860.2376696.+	2375860	2376696	+	KZN_605	2440061.2440897.-	2440897	2440061	-	H37Ra
2435107.2435943.+	2435107	2435943	+	KZN_605	2440061.2440897.-	2440897	2440061	-	H37Ra
3480070.3480906.+	3480070	3480906	+	KZN_605	2440061.2440897.-	2440897	2440061	-	H37Ra
3488592.3489428.-	3489428	3488592	-	KZN_605	2440061.2440897.-	2440897	2440061	-	H37Ra
3709850.3710686.-	3710686	3709850	-	KZN_605	2440061.2440897.-	2440897	2440061	-	H37Ra
4064133.4064969.-	4064969	4064133	-	KZN_605	2440061.2440897.-	2440897	2440061	-	H37Ra
530556.530942.-	530942	530556	-	KZN_605	531606.531992.-	531992	531606	-	H37Ra
3219558.3220967.+	3219558	3220967	+	KZN_605	1192066.1193475.-	1193475	1192066	-	H37Ra
849307.851247.-	851247	849307	-	KZN_605	849409.851349.-	851349	849409	-	H37Ra
2393466.2393585.-	2393585	2393466	-	KZN_605	2040456.2040575.+	2040456	2040575	+	H37Ra
4291213.4292838.-	4292838	4291213	-	KZN_605	4311844.4313469.-	4313469	4311844	-	H37Ra
131402.133003.+	131402	133003	+	KZN_605	132630.134231.+	132630	134231	+	H37Ra
2297763.2297981.+	2297763	2297981	+	KZN_605	2134762.2134980.-	2134980	2134762	-	H37Ra
677436.678002.-	678002	677436	-	KZN_605	678435.679001.-	679001	678435	-	H37Ra
3225981.3226865.-	3226865	3225981	-	KZN_605	1186165.1187049.+	1186165	1187049	+	H37Ra
3642147.3642260.+	3642147	3642260	+	KZN_605	3653697.3653810.+	3653697	3653810	+	H37Ra
2035473.2035988.+	2035473	2035988	+	KZN_605	2389147.2389662.-	2389662	2389147	-	H37Ra
2208826.2210067.-	2210067	2208826	-	KZN_605	2222785.2224026.+	2222785	2224026	+	H37Ra
3337313.3337660.-	3337660	3337313	-	KZN_605	1075382.1075729.+	1075382	1075729	+	H37Ra
3407248.3407778.-	3407778	3407248	-	KZN_605	1005261.1005791.+	1005261	1005791	+	H37Ra
4208835.4210463.+	4208835	4210463	+	KZN_605	4229466.4231094.+	4229466	4231094	+	H37Ra
1300975.1301340.-	1301340	1300975	-	KZN_605	3124397.3124762.+	3124397	3124762	+	H37Ra
3046256.3046837.-	3046837	3046256	-	KZN_605	1366537.1367118.+	1366537	1367118	+	H37Ra
4003318.4004532.-	4004532	4003318	-	KZN_605	4025755.4026969.-	4026969	4025755	-	H37Ra
4141616.4143430.+	4141616	4143430	+	KZN_605	4162306.4164120.+	4162306	4164120	+	H37Ra
1026863.1027708.+	1026863	1027708	+	KZN_605	3398244.3399089.-	3399089	3398244	-	H37Ra
1389791.1390858.+	1389791	1390858	+	KZN_605	3036238.3037305.-	3037305	3036238	-	H37Ra
977468.977983.+	977468	977983	+	KZN_605	3447954.3448469.-	3448469	3447954	-	H37Ra
1640230.1640634.-	1640634	1640230	-	KZN_605	2785128.2785532.+	2785128	2785532	+	H37Ra
1095621.1096139.-	1096139	1095621	-	KZN_605	3329459.3329977.+	3329459	3329977	+	H37Ra
2845438.2846658.-	2846658	2845438	-	KZN_605	1568126.1569346.+	1568126	1569346	+	H37Ra
1976589.1976771.+	1976589	1976771	+	KZN_605	2449783.2449965.-	2449965	2449783	-	H37Ra
1735169.1736152.-	1736152	1735169	-	KZN_605	2689634.2690617.+	2689634	2690617	+	H37Ra
3648602.3649342.+	3648602	3649342	+	KZN_605	3660152.3660892.+	3660152	3660892	+	H37Ra
1737984.1742225.+	1737984	1742225	+	KZN_605	2683561.2687802.-	2687802	2683561	-	H37Ra
1388281.1389696.-	1389696	1388281	-	KZN_605	3037400.3038815.+	3037400	3038815	+	H37Ra
4312868.4313293.+	4312868	4313293	+	KZN_605	4333499.4333924.+	4333499	4333924	+	H37Ra
2436121.2437632.+	2436121	2437632	+	KZN_605	1986497.1988008.-	1988008	1986497	-	H37Ra
2670497.2671171.-	2671171	2670497	-	KZN_605	1743695.1744369.+	1743695	1744369	+	H37Ra
1359637.1361214.-	1361214	1359637	-	KZN_605	3065882.3067459.+	3065882	3067459	+	H37Ra
4113129.4114235.+	4113129	4114235	+	KZN_605	4133819.4134925.+	4133819	4134925	+	H37Ra
594107.595075.-	595075	594107	-	KZN_605	595181.596149.-	596149	595181	-	H37Ra
2593797.2594423.-	2594423	2593797	-	KZN_605	1829689.1830315.+	1829689	1830315	+	H37Ra
1843001.1843660.-	1843660	1843001	-	KZN_605	2582952.2583611.+	2582952	2583611	+	H37Ra
364107.365966.+	364107	365966	+	KZN_605	362603.364471.+	362603	364471	+	H37Ra
3688693.3690138.-	3690138	3688693	-	KZN_605	3700240.3701751.-	3701751	3700240	-	H37Ra
3599868.3600056.+	3599868	3600056	+	KZN_605	3611418.3611606.+	3611418	3611606	+	H37Ra
4252378.4253310.-	4253310	4252378	-	KZN_605	4273009.4273941.-	4273941	4273009	-	H37Ra
3232905.3233117.+	3232905	3233117	+	KZN_605	1179913.1180125.-	1180125	1179913	-	H37Ra
53339.55801.+	53339	55801	+	KZN_605	54595.57057.+	54595	57057	+	H37Ra
1276915.1277319.+	1276915	1277319	+	KZN_605	3148612.3149016.-	3149016	3148612	-	H37Ra
4223126.4223554.+	4223126	4223554	+	KZN_605	4243757.4244185.+	4243757	4244185	+	H37Ra
551970.552248.+	551970	552248	+	KZN_605	553020.553298.+	553020	553298	+	H37Ra
2377267.2379186.+	2377267	2379186	+	KZN_605	2054855.2056774.-	2056774	2054855	-	H37Ra
4082586.4082885.-	4082885	4082586	-	KZN_605	4103447.4103746.-	4103746	4103447	-	H37Ra
563827.565194.+	563827	565194	+	KZN_605	564877.566244.+	564877	566244	+	H37Ra
1687933.1688199.+	1687933	1688199	+	KZN_605	2737563.2737829.-	2737829	2737563	-	H37Ra
4188197.4189141.+	4188197	4189141	+	KZN_605	4208828.4209772.+	4208828	4209772	+	H37Ra
2701281.2702354.-	2702354	2701281	-	KZN_605	1712512.1713585.+	1712512	1713585	+	H37Ra
133046.133900.+	133046	133900	+	KZN_605	134274.135128.+	134274	135128	+	H37Ra
2878487.2879674.+	2878487	2879674	+	KZN_605	1533753.1534940.-	1534940	1533753	-	H37Ra
3883998.3885176.+	3883998	3885176	+	KZN_605	1533753.1534940.-	1534940	1533753	-	H37Ra
3071541.3072713.-	3072713	3071541	-	KZN_605	1533753.1534940.-	1534940	1533753	-	H37Ra
254577.255908.-	255908	254577	-	KZN_605	255999.257330.-	257330	255999	-	H37Ra
1821320.1822009.+	1821320	1822009	+	KZN_605	2604603.2605292.-	2605292	2604603	-	H37Ra
1719934.1721082.-	1721082	1719934	-	KZN_605	2704704.2705852.+	2704704	2705852	+	H37Ra
3025314.3027074.+	3025314	3027074	+	KZN_605	1386299.1388059.-	1388059	1386299	-	H37Ra
1746556.1751751.+	1746556	1751751	+	KZN_605	2674035.2679230.-	2679230	2674035	-	H37Ra
171740.172105.+	171740	172105	+	KZN_605	173162.173527.+	173162	173527	+	H37Ra
2367401.2368594.+	2367401	2368594	+	KZN_605	2064089.2065282.-	2065282	2064089	-	H37Ra
69642.71660.+	69642	71660	+	KZN_605	70899.72917.+	70899	72917	+	H37Ra
3354661.3354945.+	3354661	3354945	+	KZN_605	1058094.1058378.-	1058378	1058094	-	H37Ra
580757.580963.-	580963	580757	-	KZN_605	581807.582013.-	582013	581807	-	H37Ra
515633.516208.-	516208	515633	-	KZN_605	516683.517258.-	517258	516683	-	H37Ra
2371601.2372833.-	2372833	2371601	-	KZN_605	2059850.2061082.+	2059850	2061082	+	H37Ra
1298466.1298735.-	1298735	1298466	-	KZN_605	3127002.3127271.+	3127002	3127271	+	H37Ra
447708.448097.-	448097	447708	-	KZN_605	446207.446596.-	446596	446207	-	H37Ra
1303032.1303262.+	1303032	1303262	+	KZN_605	3122475.3122705.-	3122705	3122475	-	H37Ra
591627.591812.+	591627	591812	+	KZN_605	592701.592886.+	592701	592886	+	H37Ra
750078.750845.-	750845	750078	-	KZN_605	750540.751307.-	751307	750540	-	H37Ra
200911.202416.+	200911	202416	+	KZN_605	202334.203839.+	202334	203839	+	H37Ra
2225601.2226965.-	2226965	2225601	-	KZN_605	2205888.2207252.+	2205888	2207252	+	H37Ra
3134341.3135705.+	3134341	3135705	+	KZN_605	2205888.2207252.+	2205888	2207252	+	H37Ra
2215481.2215933.+	2215481	2215933	+	KZN_605	2216920.2217372.-	2217372	2216920	-	H37Ra
1439510.1440043.+	1439510	1440043	+	KZN_605	1783590.1784123.-	1784123	1783590	-	H37Ra
1966691.1968502.-	1968502	1966691	-	KZN_605	2458053.2459864.+	2458053	2459864	+	H37Ra
1300498.1300929.-	1300929	1300498	-	KZN_605	3124808.3125239.+	3124808	3125239	+	H37Ra
1796178.1796471.-	1796471	1796178	-	KZN_605	2630140.2630433.+	2630140	2630433	+	H37Ra
932094.932930.-	932930	932094	-	KZN_605	1997429.1998265.-	1998265	1997429	-	H37Ra
1292441.1293277.+	1292441	1293277	+	KZN_605	1997429.1998265.-	1998265	1997429	-	H37Ra
1330608.1331444.-	1331444	1330608	-	KZN_605	1997429.1998265.-	1998265	1997429	-	H37Ra
1606101.1606937.-	1606937	1606101	-	KZN_605	1997429.1998265.-	1998265	1997429	-	H37Ra
1781709.1782545.+	1781709	1782545	+	KZN_605	1997429.1998265.-	1998265	1997429	-	H37Ra
1861256.1862092.+	1861256	1862092	+	KZN_605	1997429.1998265.-	1998265	1997429	-	H37Ra
2048502.2049338.+	2048502	2049338	+	KZN_605	1997429.1998265.-	1998265	1997429	-	H37Ra
2050173.2051009.+	2050173	2051009	+	KZN_605	1997429.1998265.-	1998265	1997429	-	H37Ra
2155551.2156387.-	2156387	2155551	-	KZN_605	1997429.1998265.-	1998265	1997429	-	H37Ra
2375860.2376696.+	2375860	2376696	+	KZN_605	1997429.1998265.-	1998265	1997429	-	H37Ra
2435107.2435943.+	2435107	2435943	+	KZN_605	1997429.1998265.-	1998265	1997429	-	H37Ra
3480070.3480906.+	3480070	3480906	+	KZN_605	1997429.1998265.-	1998265	1997429	-	H37Ra
3488592.3489428.-	3489428	3488592	-	KZN_605	1997429.1998265.-	1998265	1997429	-	H37Ra
3709850.3710686.-	3710686	3709850	-	KZN_605	1997429.1998265.-	1998265	1997429	-	H37Ra
4064133.4064969.-	4064969	4064133	-	KZN_605	1997429.1998265.-	1998265	1997429	-	H37Ra
665754.665921.-	665921	665754	-	KZN_605	666744.666911.-	666911	666744	-	H37Ra
2621696.2623039.-	2623039	2621696	-	KZN_605	1801074.1802417.+	1801074	1802417	+	H37Ra
2570553.2574077.+	2570553	2574077	+	KZN_605	1850035.1853559.-	1853559	1850035	-	H37Ra
1211932.1213146.+	1211932	1213146	+	KZN_605	3212786.3214000.-	3214000	3212786	-	H37Ra
3137238.3138740.-	3138740	3137238	-	KZN_605	1274575.1276077.+	1274575	1276077	+	H37Ra
1034439.1034747.+	1034439	1034747	+	KZN_605	3391205.3391513.-	3391513	3391205	-	H37Ra
1552783.1553481.-	1553481	1552783	-	KZN_605	2872414.2873112.+	2872414	2873112	+	H37Ra
768161.768535.-	768535	768161	-	KZN_605	768623.768997.-	768997	768623	-	H37Ra
1838888.1839514.+	1838888	1839514	+	KZN_605	2587098.2587724.-	2587724	2587098	-	H37Ra
760138.760368.+	760138	760368	+	KZN_605	760600.760830.+	760600	760830	+	H37Ra
1095320.1095505.-	1095505	1095320	-	KZN_605	3330093.3330278.+	3330093	3330278	+	H37Ra
4031436.4032410.-	4032410	4031436	-	KZN_605	4053872.4054846.-	4054846	4053872	-	H37Ra
3046256.3046720.-	3046720	3046256	-	KZN_605	1366654.1367118.+	1366654	1367118	+	H37Ra
2610236.2611504.-	2611504	2610236	-	KZN_605	1812609.1813877.+	1812609	1813877	+	H37Ra
103839.104702.-	104702	103839	-	KZN_605	105068.105931.-	105931	105068	-	H37Ra
3874981.3875844.+	3874981	3875844	+	KZN_605	105068.105931.-	105931	105068	-	H37Ra
2633288.2634154.+	2633288	2634154	+	KZN_605	105068.105931.-	105931	105068	-	H37Ra
3205279.3205740.+	3205279	3205740	+	KZN_605	1207293.1207754.-	1207754	1207293	-	H37Ra
1761881.1762066.-	1762066	1761881	-	KZN_605	2663721.2663906.+	2663721	2663906	+	H37Ra
836159.836686.+	836159	836686	+	KZN_605	836460.836987.+	836460	836987	+	H37Ra
1306111.1306458.+	1306111	1306458	+	KZN_605	3119279.3119626.-	3119626	3119279	-	H37Ra
4187536.4188057.-	4188057	4187536	-	KZN_605	4208167.4208688.-	4208688	4208167	-	H37Ra
921422.921712.+	921422	921712	+	KZN_605	922881.923171.+	922881	923171	+	H37Ra
1021004.1022236.-	1022236	1021004	-	KZN_605	3403716.3404948.+	3403716	3404948	+	H37Ra
1692353.1693018.+	1692353	1693018	+	KZN_605	2732744.2733409.-	2733409	2732744	-	H37Ra
1976705.1977370.+	1976705	1977370	+	KZN_605	2732744.2733409.-	2733409	2732744	-	H37Ra
2137611.2138096.+	2137611	2138096	+	KZN_605	2288398.2288883.-	2288883	2288398	-	H37Ra
2835943.2836728.-	2836728	2835943	-	KZN_605	1578057.1578842.+	1578057	1578842	+	H37Ra
1075911.1076987.+	1075911	1076987	+	KZN_605	3348965.3350041.-	3350041	3348965	-	H37Ra
515633.516094.-	516094	515633	-	KZN_605	516683.517144.-	517144	516683	-	H37Ra
3137238.3138650.-	3138650	3137238	-	KZN_605	1274665.1276077.+	1274665	1276077	+	H37Ra
932094.932930.-	932930	932094	-	KZN_605	2006262.2007098.+	2006262	2007098	+	H37Ra
1292441.1293277.+	1292441	1293277	+	KZN_605	2006262.2007098.+	2006262	2007098	+	H37Ra
1330608.1331444.-	1331444	1330608	-	KZN_605	2006262.2007098.+	2006262	2007098	+	H37Ra
1606101.1606937.-	1606937	1606101	-	KZN_605	2006262.2007098.+	2006262	2007098	+	H37Ra
1781709.1782545.+	1781709	1782545	+	KZN_605	2006262.2007098.+	2006262	2007098	+	H37Ra
1861256.1862092.+	1861256	1862092	+	KZN_605	2006262.2007098.+	2006262	2007098	+	H37Ra
2048502.2049338.+	2048502	2049338	+	KZN_605	2006262.2007098.+	2006262	2007098	+	H37Ra
2050173.2051009.+	2050173	2051009	+	KZN_605	2006262.2007098.+	2006262	2007098	+	H37Ra
2155551.2156387.-	2156387	2155551	-	KZN_605	2006262.2007098.+	2006262	2007098	+	H37Ra
2375860.2376696.+	2375860	2376696	+	KZN_605	2006262.2007098.+	2006262	2007098	+	H37Ra
2435107.2435943.+	2435107	2435943	+	KZN_605	2006262.2007098.+	2006262	2007098	+	H37Ra
3480070.3480906.+	3480070	3480906	+	KZN_605	2006262.2007098.+	2006262	2007098	+	H37Ra
3488592.3489428.-	3489428	3488592	-	KZN_605	2006262.2007098.+	2006262	2007098	+	H37Ra
3709850.3710686.-	3710686	3709850	-	KZN_605	2006262.2007098.+	2006262	2007098	+	H37Ra
4064133.4064969.-	4064969	4064133	-	KZN_605	2006262.2007098.+	2006262	2007098	+	H37Ra
3708885.3709439.-	3709439	3708885	-	KZN_605	3720556.3721110.-	3721110	3720556	-	H37Ra
3133184.3133621.-	3133621	3133184	-	KZN_605	1165880.1166317.-	1166317	1165880	-	H37Ra
3246714.3247151.+	3246714	3247151	+	KZN_605	1165880.1166317.-	1166317	1165880	-	H37Ra
1497496.1497705.+	1497496	1497705	+	KZN_605	2928190.2928399.-	2928399	2928190	-	H37Ra
1347995.1348906.+	1347995	1348906	+	KZN_605	3078190.3079101.-	3079101	3078190	-	H37Ra
806803.807171.+	806803	807171	+	KZN_605	807104.807472.+	807104	807472	+	H37Ra
3584896.3585183.-	3585183	3584896	-	KZN_605	3596459.3596746.-	3596746	3596459	-	H37Ra
1839007.1839600.-	1839600	1839007	-	KZN_605	2587012.2587605.+	2587012	2587605	+	H37Ra
670159.671472.+	670159	671472	+	KZN_605	671149.672462.+	671149	672462	+	H37Ra
2715490.2715993.-	2715993	2715490	-	KZN_605	1698873.1699376.+	1698873	1699376	+	H37Ra
2393586.2393747.-	2393747	2393586	-	KZN_605	2040294.2040455.+	2040294	2040455	+	H37Ra
1832929.1833270.-	1833270	1832929	-	KZN_605	2593342.2593683.+	2593342	2593683	+	H37Ra
2051497.2051793.+	2051497	2051793	+	KZN_605	2374699.2374995.-	2374995	2374699	-	H37Ra
710659.710898.+	710659	710898	+	KZN_605	711658.711897.+	711658	711897	+	H37Ra
232165.234414.+	232165	234414	+	KZN_605	233588.235837.+	233588	235837	+	H37Ra
3168884.3169084.+	3168884	3169084	+	KZN_605	1244174.1244374.-	1244374	1244174	-	H37Ra
1445077.1445394.+	1445077	1445394	+	KZN_605	2980501.2980818.-	2980818	2980501	-	H37Ra
677436.678014.-	678014	677436	-	KZN_605	678435.679013.-	679013	678435	-	H37Ra
4130504.4131691.-	4131691	4130504	-	KZN_605	4151194.4152381.-	4152381	4151194	-	H37Ra
4151530.4152813.+	4151530	4152813	+	KZN_605	4172161.4173444.+	4172161	4173444	+	H37Ra
85765.86619.-	86619	85765	-	KZN_605	86994.87848.-	87848	86994	-	H37Ra
2732359.2732622.-	2732622	2732359	-	KZN_605	1682244.1682507.+	1682244	1682507	+	H37Ra
3281617.3282588.-	3282588	3281617	-	KZN_605	1130442.1131413.+	1130442	1131413	+	H37Ra
3668121.3668747.-	3668747	3668121	-	KZN_605	3679734.3680360.-	3680360	3679734	-	H37Ra
3380365.3381153.+	3380365	3381153	+	KZN_605	1031886.1032674.-	1032674	1031886	-	H37Ra
230773.231471.+	230773	231471	+	KZN_605	232196.232894.+	232196	232894	+	H37Ra
1099015.1099833.+	1099015	1099833	+	KZN_605	3325765.3326583.-	3326583	3325765	-	H37Ra
1441900.1442364.-	1442364	1441900	-	KZN_605	2983531.2983995.+	2983531	2983995	+	H37Ra
1303038.1303262.+	1303038	1303262	+	KZN_605	3122475.3122699.-	3122699	3122475	-	H37Ra
2307336.2309744.-	2309744	2307336	-	KZN_605	2123000.2125408.+	2123000	2125408	+	H37Ra
3027525.3027797.-	3027797	3027525	-	KZN_605	1385576.1385848.+	1385576	1385848	+	H37Ra
1982097.1983020.+	1982097	1983020	+	KZN_605	2443533.2444456.-	2444456	2443533	-	H37Ra
932094.932930.-	932930	932094	-	KZN_605	3804223.3805059.-	3805059	3804223	-	H37Ra
1292441.1293277.+	1292441	1293277	+	KZN_605	3804223.3805059.-	3805059	3804223	-	H37Ra
1330608.1331444.-	1331444	1330608	-	KZN_605	3804223.3805059.-	3805059	3804223	-	H37Ra
1606101.1606937.-	1606937	1606101	-	KZN_605	3804223.3805059.-	3805059	3804223	-	H37Ra
1781709.1782545.+	1781709	1782545	+	KZN_605	3804223.3805059.-	3805059	3804223	-	H37Ra
1861256.1862092.+	1861256	1862092	+	KZN_605	3804223.3805059.-	3805059	3804223	-	H37Ra
2048502.2049338.+	2048502	2049338	+	KZN_605	3804223.3805059.-	3805059	3804223	-	H37Ra
2050173.2051009.+	2050173	2051009	+	KZN_605	3804223.3805059.-	3805059	3804223	-	H37Ra
2155551.2156387.-	2156387	2155551	-	KZN_605	3804223.3805059.-	3805059	3804223	-	H37Ra
2375860.2376696.+	2375860	2376696	+	KZN_605	3804223.3805059.-	3805059	3804223	-	H37Ra
2435107.2435943.+	2435107	2435943	+	KZN_605	3804223.3805059.-	3805059	3804223	-	H37Ra
3480070.3480906.+	3480070	3480906	+	KZN_605	3804223.3805059.-	3805059	3804223	-	H37Ra
3488592.3489428.-	3489428	3488592	-	KZN_605	3804223.3805059.-	3805059	3804223	-	H37Ra
3709850.3710686.-	3710686	3709850	-	KZN_605	3804223.3805059.-	3805059	3804223	-	H37Ra
4064133.4064969.-	4064969	4064133	-	KZN_605	3804223.3805059.-	3805059	3804223	-	H37Ra
3878071.3879744.-	3879744	3878071	-	KZN_605	3895821.3897494.-	3897494	3895821	-	H37Ra
1676807.1677085.-	1677085	1676807	-	KZN_605	2748677.2748955.+	2748677	2748955	+	H37Ra
890418.891329.+	890418	891329	+	KZN_605	891877.892788.+	891877	892788	+	H37Ra
3504881.3505213.-	3505213	3504881	-	KZN_605	3515101.3515433.-	3515433	3515101	-	H37Ra
2298441.2299145.-	2299145	2298441	-	KZN_605	2133598.2134302.+	2133598	2134302	+	H37Ra
1140396.1141412.-	1141412	1140396	-	KZN_605	3284185.3285201.+	3284185	3285201	+	H37Ra
1276715.1276930.+	1276715	1276930	+	KZN_605	3149001.3149216.-	3149216	3149001	-	H37Ra
31925.32068.-	32068	31925	-	KZN_605	33182.33325.-	33325	33182	-	H37Ra
2460643.2461236.+	2460643	2461236	+	KZN_605	1962809.1963402.-	1963402	1962809	-	H37Ra
3702634.3703122.-	3703122	3702634	-	KZN_605	3714305.3714793.-	3714793	3714305	-	H37Ra
2095121.2095447.-	2095447	2095121	-	KZN_605	2331041.2331367.+	2331041	2331367	+	H37Ra
278325.278528.+	278325	278528	+	KZN_605	279747.279950.+	279747	279950	+	H37Ra
994390.995070.+	994390	995070	+	KZN_605	3430882.3431562.-	3431562	3430882	-	H37Ra
1531781.1532170.-	1532170	1531781	-	KZN_605	2893726.2894115.+	2893726	2894115	+	H37Ra
3083003.3084376.+	3083003	3084376	+	KZN_605	1329000.1330373.-	1330373	1329000	-	H37Ra
3529327.3531258.-	3531258	3529327	-	KZN_605	3539547.3541478.-	3541478	3539547	-	H37Ra
1628636.1628893.-	1628893	1628636	-	KZN_605	2798230.2798487.+	2798230	2798487	+	H37Ra
3513528.3514004.+	3513528	3514004	+	KZN_605	3523748.3524224.+	3523748	3524224	+	H37Ra
1244583.1245356.+	1244583	1245356	+	KZN_605	3180575.3181348.-	3181348	3180575	-	H37Ra
698215.699348.-	699348	698215	-	KZN_605	699214.700347.-	700347	699214	-	H37Ra
4351232.4352602.-	4352602	4351232	-	KZN_605	4371863.4373233.-	4373233	4371863	-	H37Ra
3072763.3073098.-	3073098	3072763	-	KZN_605	1340278.1340613.+	1340278	1340613	+	H37Ra
3969357.3970394.-	3970394	3969357	-	KZN_605	3991791.3992828.-	3992828	3991791	-	H37Ra
2871400.2872605.+	2871400	2872605	+	KZN_605	1540822.1542027.-	1542027	1540822	-	H37Ra
131025.131258.-	131258	131025	-	KZN_605	132253.132486.-	132486	132253	-	H37Ra
1031097.1032407.+	1031097	1032407	+	KZN_605	1342668.1343978.-	1343978	1342668	-	H37Ra
1584061.1585371.+	1584061	1585371	+	KZN_605	1342668.1343978.-	1343978	1342668	-	H37Ra
3069397.3070707.+	3069397	3070707	+	KZN_605	1342668.1343978.-	1343978	1342668	-	H37Ra
3241051.3242361.-	3242361	3241051	-	KZN_605	1342668.1343978.-	1343978	1342668	-	H37Ra
3481966.3483276.+	3481966	3483276	+	KZN_605	1342668.1343978.-	1343978	1342668	-	H37Ra
3002705.3003832.-	3003832	3002705	-	KZN_605	1409541.1410668.+	1409541	1410668	+	H37Ra
3183300.3184352.+	3183300	3184352	+	KZN_605	1228906.1229958.-	1229958	1228906	-	H37Ra
2841024.2841347.+	2841024	2841347	+	KZN_605	1573437.1573760.-	1573760	1573437	-	H37Ra
1836498.1836680.+	1836498	1836680	+	KZN_605	2589932.2590114.-	2590114	2589932	-	H37Ra
2465216.2466835.+	2465216	2466835	+	KZN_605	1957210.1958829.-	1958829	1957210	-	H37Ra
1958258.1959016.-	1959016	1958258	-	KZN_605	2467539.2468297.+	2467539	2468297	+	H37Ra
1969704.1970846.+	1969704	1970846	+	KZN_605	2455709.2456851.-	2456851	2455709	-	H37Ra
1789751.1790053.+	1789751	1790053	+	KZN_605	2636558.2636860.-	2636860	2636558	-	H37Ra
1470324.1470551.-	1470551	1470324	-	KZN_605	2955344.2955571.+	2955344	2955571	+	H37Ra
4150133.4151533.+	4150133	4151533	+	KZN_605	4170764.4172164.+	4170764	4172164	+	H37Ra
3423027.3424550.-	3424550	3423027	-	KZN_605	988489.990012.+	988489	990012	+	H37Ra
865347.865778.+	865347	865778	+	KZN_605	865449.865880.+	865449	865880	+	H37Ra
4051080.4052141.-	4052141	4051080	-	KZN_605	4073298.4074359.-	4074359	4073298	-	H37Ra
715603.716628.+	715603	716628	+	KZN_605	716602.717627.+	716602	717627	+	H37Ra
179256.180857.-	180857	179256	-	KZN_605	180679.182280.-	182280	180679	-	H37Ra
577903.578529.+	577903	578529	+	KZN_605	578953.579579.+	578953	579579	+	H37Ra
1276927.1277319.+	1276927	1277319	+	KZN_605	3148612.3149004.-	3149004	3148612	-	H37Ra
1766734.1767072.+	1766734	1767072	+	KZN_605	2658715.2659053.-	2659053	2658715	-	H37Ra
1490745.1492376.-	1492376	1490745	-	KZN_605	2933519.2935150.+	2933519	2935150	+	H37Ra
2519285.2520193.-	2520193	2519285	-	KZN_605	1903909.1904817.+	1903909	1904817	+	H37Ra
4371473.4371811.-	4371811	4371473	-	KZN_605	4392099.4392437.-	4392437	4392099	-	H37Ra
661254.661589.+	661254	661589	+	KZN_605	662244.662579.+	662244	662579	+	H37Ra
3064376.3065128.+	3064376	3065128	+	KZN_605	1348246.1348998.-	1348998	1348246	-	H37Ra
1946178.1947323.+	1946178	1947323	+	KZN_605	2479289.2480434.-	2480434	2479289	-	H37Ra
1117240.1122102.+	1117240	1122102	+	KZN_605	3303495.3308357.-	3308357	3303495	-	H37Ra
2099494.2099907.+	2099494	2099907	+	KZN_605	2326581.2326994.-	2326994	2326581	-	H37Ra
678233.678640.+	678233	678640	+	KZN_605	679232.679639.+	679232	679639	+	H37Ra
4119447.4120148.+	4119447	4120148	+	KZN_605	4140137.4140838.+	4140137	4140838	+	H37Ra
711093.711320.+	711093	711320	+	KZN_605	712092.712319.+	712092	712319	+	H37Ra
818536.818910.-	818910	818536	-	KZN_605	818837.819211.-	819211	818837	-	H37Ra
700574.701500.+	700574	701500	+	KZN_605	701573.702499.+	701573	702499	+	H37Ra
3196736.3197041.-	3197041	3196736	-	KZN_605	1216135.1216440.+	1216135	1216440	+	H37Ra
3196920.3197354.-	3197354	3196920	-	KZN_605	1215822.1216256.+	1215822	1216256	+	H37Ra
3297340.3297549.+	3297340	3297549	+	KZN_605	1115481.1115690.-	1115690	1115481	-	H37Ra
151499.152527.+	151499	152527	+	KZN_605	152546.153574.+	152546	153574	+	H37Ra
21738.23273.-	23273	21738	-	KZN_605	22995.24530.-	24530	22995	-	H37Ra
3127875.3128948.+	3127875	3128948	+	KZN_605	1284366.1285439.-	1285439	1284366	-	H37Ra
1056850.1057050.+	1056850	1057050	+	KZN_605	3368902.3369102.-	3369102	3368902	-	H37Ra
4116507.4116872.-	4116872	4116507	-	KZN_605	4137197.4137562.-	4137562	4137197	-	H37Ra
3047818.3048561.+	3047818	3048561	+	KZN_605	1364813.1365556.-	1365556	1364813	-	H37Ra
3035228.3035833.+	3035228	3035833	+	KZN_605	1377540.1378145.-	1378145	1377540	-	H37Ra
4305500.4305712.-	4305712	4305500	-	KZN_605	4326131.4326343.-	4326343	4326131	-	H37Ra
2992275.2993048.+	2992275	2993048	+	KZN_605	1420324.1421097.-	1421097	1420324	-	H37Ra
3579497.3579715.+	3579497	3579715	+	KZN_605	3591060.3591278.+	3591060	3591278	+	H37Ra
2551240.2551770.-	2551770	2551240	-	KZN_605	1872342.1872872.+	1872342	1872872	+	H37Ra
186432.186557.-	186557	186432	-	KZN_605	187855.187980.-	187980	187855	-	H37Ra
2653170.2653910.-	2653910	2653170	-	KZN_605	1760955.1761695.+	1760955	1761695	+	H37Ra
547846.549876.-	549876	547846	-	KZN_605	548896.550926.-	550926	548896	-	H37Ra
3647121.3648614.+	3647121	3648614	+	KZN_605	3658671.3660164.+	3658671	3660164	+	H37Ra
1041312.1042034.-	1042034	1041312	-	KZN_605	3383918.3384640.+	3383918	3384640	+	H37Ra
1559661.1560671.-	1560671	1559661	-	KZN_605	2865224.2866234.+	2865224	2866234	+	H37Ra
4200018.4200797.+	4200018	4200797	+	KZN_605	4220649.4221428.+	4220649	4221428	+	H37Ra
3778484.3781780.-	3781780	3778484	-	KZN_605	3790624.3793920.-	3793920	3790624	-	H37Ra
2158951.2159562.-	2159562	2158951	-	KZN_605	2273290.2273901.+	2273290	2273901	+	H37Ra
4082246.4082554.-	4082554	4082246	-	KZN_605	4103107.4103415.-	4103415	4103107	-	H37Ra
1707061.1707780.-	1707780	1707061	-	KZN_605	2717985.2718704.+	2717985	2718704	+	H37Ra
2329112.2330548.+	2329112	2330548	+	KZN_605	2102191.2103627.-	2103627	2102191	-	H37Ra
1434095.1434322.+	1434095	1434322	+	KZN_605	2992931.2993158.-	2993158	2992931	-	H37Ra
3170760.3170945.-	3170945	3170760	-	KZN_605	1242313.1242498.+	1242313	1242498	+	H37Ra
3297016.3297336.+	3297016	3297336	+	KZN_605	1115694.1116014.-	1116014	1115694	-	H37Ra
1503720.1506101.+	1503720	1506101	+	KZN_605	2919794.2922175.-	2922175	2919794	-	H37Ra
26014.26979.-	26979	26014	-	KZN_605	27271.28236.-	28236	27271	-	H37Ra
2252264.2255305.+	2252264	2255305	+	KZN_605	2177581.2180622.-	2180622	2177581	-	H37Ra
2534574.2536106.-	2536106	2534574	-	KZN_605	1888006.1889538.+	1888006	1889538	+	H37Ra
3136031.3136363.-	3136363	3136031	-	KZN_605	1276952.1277284.+	1276952	1277284	+	H37Ra
3127905.3128948.+	3127905	3128948	+	KZN_605	1284366.1285409.-	1285409	1284366	-	H37Ra
4307640.4307855.+	4307640	4307855	+	KZN_605	4328271.4328486.+	4328271	4328486	+	H37Ra
2434144.2434683.-	2434683	2434144	-	KZN_605	1998689.1999162.+	1998689	1999162	+	H37Ra
643200.644813.+	643200	644813	+	KZN_605	644190.645803.+	644190	645803	+	H37Ra
1663539.1666199.+	1663539	1666199	+	KZN_605	2759563.2762223.-	2762223	2759563	-	H37Ra
521771.522427.+	521771	522427	+	KZN_605	522821.523477.+	522821	523477	+	H37Ra
103839.104798.-	104798	103839	-	KZN_605	105068.106027.-	106027	105068	-	H37Ra
3874885.3875844.+	3874885	3875844	+	KZN_605	105068.106027.-	106027	105068	-	H37Ra
2633192.2634154.+	2633192	2634154	+	KZN_605	105068.106027.-	106027	105068	-	H37Ra
1238944.1239138.-	1239138	1238944	-	KZN_605	3186793.3186987.+	3186793	3186987	+	H37Ra
4005437.4006357.+	4005437	4006357	+	KZN_605	4027874.4028794.+	4027874	4028794	+	H37Ra
4069103.4070311.-	4070311	4069103	-	KZN_605	4089963.4091171.-	4091171	4089963	-	H37Ra
3458566.3459000.-	3459000	3458566	-	KZN_605	954101.954535.+	954101	954535	+	H37Ra
475586.476002.+	475586	476002	+	KZN_605	476636.477052.+	476636	477052	+	H37Ra
1298957.1300108.-	1300108	1298957	-	KZN_605	3125629.3126780.+	3125629	3126780	+	H37Ra
729638.730498.-	730498	729638	-	KZN_605	730637.731497.-	731497	730637	-	H37Ra
3885359.3888454.+	3885359	3888454	+	KZN_605	3904467.3907562.+	3904467	3907562	+	H37Ra
2672102.2673508.-	2673508	2672102	-	KZN_605	1741358.1742764.+	1741358	1742764	+	H37Ra
2795383.2795616.-	2795616	2795383	-	KZN_605	1619147.1619380.+	1619147	1619380	+	H37Ra
4029181.4029264.-	4029264	4029181	-	KZN_605	4051617.4051700.-	4051700	4051617	-	H37Ra
3839772.3839927.-	3839927	3839772	-	KZN_605	3857522.3857677.-	3857677	3857522	-	H37Ra
3807326.3807967.+	3807326	3807967	+	KZN_605	3820382.3821023.+	3820382	3821023	+	H37Ra
3885206.3888454.+	3885206	3888454	+	KZN_605	3904314.3907562.+	3904314	3907562	+	H37Ra
4058896.4059864.-	4059864	4058896	-	KZN_605	4081114.4082082.-	4082082	4081114	-	H37Ra
1055216.1056196.-	1056196	1055216	-	KZN_605	3369756.3370736.+	3369756	3370736	+	H37Ra
1249824.1251815.-	1251815	1249824	-	KZN_605	3174116.3176107.+	3174116	3176107	+	H37Ra
2081293.2081736.+	2081293	2081736	+	KZN_605	2344752.2345195.-	2345195	2344752	-	H37Ra
2134977.2135447.-	2135447	2134977	-	KZN_605	2291047.2291517.+	2291047	2291517	+	H37Ra
1687966.1688199.+	1687966	1688199	+	KZN_605	2737563.2737796.-	2737796	2737563	-	H37Ra
3333842.3334501.+	3333842	3334501	+	KZN_605	1078541.1079200.-	1079200	1078541	-	H37Ra
3844143.3844631.-	3844631	3844143	-	KZN_605	3861893.3862381.-	3862381	3861893	-	H37Ra
3717781.3718260.+	3717781	3718260	+	KZN_605	3731600.3732079.+	3731600	3732079	+	H37Ra
2814592.2815575.-	2815575	2814592	-	KZN_605	1599210.1600193.+	1599210	1600193	+	H37Ra
999520.1001697.+	999520	1001697	+	KZN_605	3424255.3426432.-	3426432	3424255	-	H37Ra
603046.604752.+	603046	604752	+	KZN_605	604120.605826.+	604120	605826	+	H37Ra
832700.833308.+	832700	833308	+	KZN_605	833001.833609.+	833001	833609	+	H37Ra
274246.274659.-	274659	274246	-	KZN_605	275668.276081.-	276081	275668	-	H37Ra
2400677.2403475.-	2403475	2400677	-	KZN_605	2030566.2033364.+	2030566	2033364	+	H37Ra
932094.932930.-	932930	932094	-	KZN_605	13665.14501.-	14501	13665	-	H37Ra
1292441.1293277.+	1292441	1293277	+	KZN_605	13665.14501.-	14501	13665	-	H37Ra
1330608.1331444.-	1331444	1330608	-	KZN_605	13665.14501.-	14501	13665	-	H37Ra
1606101.1606937.-	1606937	1606101	-	KZN_605	13665.14501.-	14501	13665	-	H37Ra
1781709.1782545.+	1781709	1782545	+	KZN_605	13665.14501.-	14501	13665	-	H37Ra
1861256.1862092.+	1861256	1862092	+	KZN_605	13665.14501.-	14501	13665	-	H37Ra
2048502.2049338.+	2048502	2049338	+	KZN_605	13665.14501.-	14501	13665	-	H37Ra
2050173.2051009.+	2050173	2051009	+	KZN_605	13665.14501.-	14501	13665	-	H37Ra
2155551.2156387.-	2156387	2155551	-	KZN_605	13665.14501.-	14501	13665	-	H37Ra
2375860.2376696.+	2375860	2376696	+	KZN_605	13665.14501.-	14501	13665	-	H37Ra
2435107.2435943.+	2435107	2435943	+	KZN_605	13665.14501.-	14501	13665	-	H37Ra
3480070.3480906.+	3480070	3480906	+	KZN_605	13665.14501.-	14501	13665	-	H37Ra
3488592.3489428.-	3489428	3488592	-	KZN_605	13665.14501.-	14501	13665	-	H37Ra
3709850.3710686.-	3710686	3709850	-	KZN_605	13665.14501.-	14501	13665	-	H37Ra
4064133.4064969.-	4064969	4064133	-	KZN_605	13665.14501.-	14501	13665	-	H37Ra
1018909.1019763.+	1018909	1019763	+	KZN_605	3406189.3407043.-	3407043	3406189	-	H37Ra
181924.183147.-	183147	181924	-	KZN_605	183347.184570.-	184570	183347	-	H37Ra
103839.104702.-	104702	103839	-	KZN_605	3892731.3893594.+	3892731	3893594	+	H37Ra
3874981.3875844.+	3874981	3875844	+	KZN_605	3892731.3893594.+	3892731	3893594	+	H37Ra
2633288.2634154.+	2633288	2634154	+	KZN_605	3892731.3893594.+	3892731	3893594	+	H37Ra
1236629.1238485.+	1236629	1238485	+	KZN_605	3187446.3189302.-	3189302	3187446	-	H37Ra
3354201.3354431.+	3354201	3354431	+	KZN_605	1058608.1058838.-	1058838	1058608	-	H37Ra
1050097.1050474.-	1050474	1050097	-	KZN_605	3375478.3375855.+	3375478	3375855	+	H37Ra
2394632.2395723.-	2395723	2394632	-	KZN_605	2038318.2039409.+	2038318	2039409	+	H37Ra
2058609.2059778.+	2058609	2059778	+	KZN_605	2366826.2367803.-	2367803	2366826	-	H37Ra
3740685.3750158.-	3750158	3740685	-	KZN_605	3752824.3762297.-	3762297	3752824	-	H37Ra
959438.960859.-	960859	959438	-	KZN_605	3465078.3466499.+	3465078	3466499	+	H37Ra
2482981.2483742.-	2483742	2482981	-	KZN_605	1940359.1941120.+	1940359	1941120	+	H37Ra
543434.544990.+	543434	544990	+	KZN_605	544484.546040.+	544484	546040	+	H37Ra
1157917.1162530.-	1162530	1157917	-	KZN_605	3263067.3267680.+	3263067	3267680	+	H37Ra
4271814.4272146.+	4271814	4272146	+	KZN_605	4292445.4292777.+	4292445	4292777	+	H37Ra
3807257.3807967.+	3807257	3807967	+	KZN_605	3820313.3821023.+	3820313	3821023	+	H37Ra
2134977.2135384.-	2135384	2134977	-	KZN_605	2291110.2291517.+	2291110	2291517	+	H37Ra
532614.533171.+	532614	533171	+	KZN_605	533664.534221.+	533664	534221	+	H37Ra
4188170.4189141.+	4188170	4189141	+	KZN_605	4208801.4209772.+	4208801	4209772	+	H37Ra
3236100.3236726.+	3236100	3236726	+	KZN_605	1176304.1176930.-	1176930	1176304	-	H37Ra
1047953.1049137.-	1049137	1047953	-	KZN_605	3376815.3377999.+	3376815	3377999	+	H37Ra
1869621.1869869.+	1869621	1869869	+	KZN_605	2556743.2556991.-	2556991	2556743	-	H37Ra
3495536.3496129.-	3496129	3495536	-	KZN_605	3505756.3506349.-	3506349	3505756	-	H37Ra
3416392.3416670.-	3416670	3416392	-	KZN_605	996369.996647.+	996369	996647	+	H37Ra
3133184.3133621.-	3133621	3133184	-	KZN_605	1279693.1280130.+	1279693	1280130	+	H37Ra
3246714.3247151.+	3246714	3247151	+	KZN_605	1279693.1280130.+	1279693	1280130	+	H37Ra
1780431.1780730.+	1780431	1780730	+	KZN_605	2644503.2644802.-	2644802	2644503	-	H37Ra
703040.703510.+	703040	703510	+	KZN_605	704039.704509.+	704039	704509	+	H37Ra
3234348.3234482.-	3234482	3234348	-	KZN_605	1178548.1178682.+	1178548	1178682	+	H37Ra
2618564.2619298.-	2619298	2618564	-	KZN_605	1804815.1805549.+	1804815	1805549	+	H37Ra
2214456.2215265.-	2215265	2214456	-	KZN_605	2217588.2218397.+	2217588	2218397	+	H37Ra
2736424.2737332.+	2736424	2737332	+	KZN_605	1677534.1678442.-	1678442	1677534	-	H37Ra
1105052.1106026.+	1105052	1106026	+	KZN_605	3319572.3320546.-	3320546	3319572	-	H37Ra
3467060.3467476.-	3467476	3467060	-	KZN_605	945625.946041.+	945625	946041	+	H37Ra
1071701.1073926.-	1073926	1071701	-	KZN_605	3352026.3354251.+	3352026	3354251	+	H37Ra
932094.932930.-	932930	932094	-	KZN_605	2375792.2376628.+	2375792	2376628	+	H37Ra
1292441.1293277.+	1292441	1293277	+	KZN_605	2375792.2376628.+	2375792	2376628	+	H37Ra
1330608.1331444.-	1331444	1330608	-	KZN_605	2375792.2376628.+	2375792	2376628	+	H37Ra
1606101.1606937.-	1606937	1606101	-	KZN_605	2375792.2376628.+	2375792	2376628	+	H37Ra
1781709.1782545.+	1781709	1782545	+	KZN_605	2375792.2376628.+	2375792	2376628	+	H37Ra
1861256.1862092.+	1861256	1862092	+	KZN_605	2375792.2376628.+	2375792	2376628	+	H37Ra
2048502.2049338.+	2048502	2049338	+	KZN_605	2375792.2376628.+	2375792	2376628	+	H37Ra
2050173.2051009.+	2050173	2051009	+	KZN_605	2375792.2376628.+	2375792	2376628	+	H37Ra
2155551.2156387.-	2156387	2155551	-	KZN_605	2375792.2376628.+	2375792	2376628	+	H37Ra
2375860.2376696.+	2375860	2376696	+	KZN_605	2375792.2376628.+	2375792	2376628	+	H37Ra
2435107.2435943.+	2435107	2435943	+	KZN_605	2375792.2376628.+	2375792	2376628	+	H37Ra
3480070.3480906.+	3480070	3480906	+	KZN_605	2375792.2376628.+	2375792	2376628	+	H37Ra
3488592.3489428.-	3489428	3488592	-	KZN_605	2375792.2376628.+	2375792	2376628	+	H37Ra
3709850.3710686.-	3710686	3709850	-	KZN_605	2375792.2376628.+	2375792	2376628	+	H37Ra
4064133.4064969.-	4064969	4064133	-	KZN_605	2375792.2376628.+	2375792	2376628	+	H37Ra
3961592.3963292.+	3961592	3963292	+	KZN_605	3984026.3985726.+	3984026	3985726	+	H37Ra
1217724.1218395.+	1217724	1218395	+	KZN_605	3207537.3208208.-	3208208	3207537	-	H37Ra
1031112.1032407.+	1031112	1032407	+	KZN_605	2840524.2841819.-	2841819	2840524	-	H37Ra
1584076.1585371.+	1584076	1585371	+	KZN_605	2840524.2841819.-	2841819	2840524	-	H37Ra
3069412.3070707.+	3069412	3070707	+	KZN_605	2840524.2841819.-	2841819	2840524	-	H37Ra
3241051.3242346.-	3242346	3241051	-	KZN_605	2840524.2841819.-	2841819	2840524	-	H37Ra
3481981.3483276.+	3481981	3483276	+	KZN_605	2840524.2841819.-	2841819	2840524	-	H37Ra
3834913.3835560.-	3835560	3834913	-	KZN_605	3847737.3848384.-	3848384	3847737	-	H37Ra
3425197.3425463.-	3425463	3425197	-	KZN_605	987576.987842.+	987576	987842	+	H37Ra
2880908.2881144.+	2880908	2881144	+	KZN_605	1532283.1532519.-	1532519	1532283	-	H37Ra
760633.764169.+	760633	764169	+	KZN_605	761095.764631.+	761095	764631	+	H37Ra
578665.579435.+	578665	579435	+	KZN_605	579715.580485.+	579715	580485	+	H37Ra
3839952.3840161.-	3840161	3839952	-	KZN_605	3857702.3857911.-	3857911	3857702	-	H37Ra
1907316.1908275.+	1907316	1908275	+	KZN_605	2518336.2519295.-	2519295	2518336	-	H37Ra
2155189.2155491.-	2155491	2155189	-	KZN_605	2276003.2276305.+	2276003	2276305	+	H37Ra
4325762.4326088.+	4325762	4326088	+	KZN_605	4346392.4346718.+	4346392	4346718	+	H37Ra
3138671.3139756.-	3139756	3138671	-	KZN_605	1273559.1274644.+	1273559	1274644	+	H37Ra
241915.243153.-	243153	241915	-	KZN_605	243338.244576.-	244576	243338	-	H37Ra
932094.932930.-	932930	932094	-	KZN_605	3899932.3900768.+	3899932	3900768	+	H37Ra
1292441.1293277.+	1292441	1293277	+	KZN_605	3899932.3900768.+	3899932	3900768	+	H37Ra
1330608.1331444.-	1331444	1330608	-	KZN_605	3899932.3900768.+	3899932	3900768	+	H37Ra
1606101.1606937.-	1606937	1606101	-	KZN_605	3899932.3900768.+	3899932	3900768	+	H37Ra
1781709.1782545.+	1781709	1782545	+	KZN_605	3899932.3900768.+	3899932	3900768	+	H37Ra
1861256.1862092.+	1861256	1862092	+	KZN_605	3899932.3900768.+	3899932	3900768	+	H37Ra
2048502.2049338.+	2048502	2049338	+	KZN_605	3899932.3900768.+	3899932	3900768	+	H37Ra
2050173.2051009.+	2050173	2051009	+	KZN_605	3899932.3900768.+	3899932	3900768	+	H37Ra
2155551.2156387.-	2156387	2155551	-	KZN_605	3899932.3900768.+	3899932	3900768	+	H37Ra
2375860.2376696.+	2375860	2376696	+	KZN_605	3899932.3900768.+	3899932	3900768	+	H37Ra
2435107.2435943.+	2435107	2435943	+	KZN_605	3899932.3900768.+	3899932	3900768	+	H37Ra
3480070.3480906.+	3480070	3480906	+	KZN_605	3899932.3900768.+	3899932	3900768	+	H37Ra
3488592.3489428.-	3489428	3488592	-	KZN_605	3899932.3900768.+	3899932	3900768	+	H37Ra
3709850.3710686.-	3710686	3709850	-	KZN_605	3899932.3900768.+	3899932	3900768	+	H37Ra
4064133.4064969.-	4064969	4064133	-	KZN_605	3899932.3900768.+	3899932	3900768	+	H37Ra
3092083.3098388.-	3098388	3092083	-	KZN_605	1314988.1321293.+	1314988	1321293	+	H37Ra
2411522.2412028.+	2411522	2412028	+	KZN_605	2022013.2022519.-	2022519	2022013	-	H37Ra
2848447.2849100.-	2849100	2848447	-	KZN_605	1565684.1566337.+	1565684	1566337	+	H37Ra
1426017.1427594.-	1427594	1426017	-	KZN_605	2999659.3001236.+	2999659	3001236	+	H37Ra
3775440.3777317.+	3775440	3777317	+	KZN_605	3787580.3789457.+	3787580	3789457	+	H37Ra
3874452.3875120.+	3874452	3875120	+	KZN_605	3892202.3892870.+	3892202	3892870	+	H37Ra
1853594.1854166.-	1854166	1853594	-	KZN_605	2572446.2573018.+	2572446	2573018	+	H37Ra
627613.628608.+	627613	628608	+	KZN_605	628603.629598.+	628603	629598	+	H37Ra
466930.467664.-	467664	466930	-	KZN_605	467980.468714.-	468714	467980	-	H37Ra
3309173.3309886.-	3309886	3309173	-	KZN_605	1103144.1103857.+	1103144	1103857	+	H37Ra
4198895.4199755.-	4199755	4198895	-	KZN_605	4219526.4220386.-	4220386	4219526	-	H37Ra
2559087.2560247.+	2559087	2560247	+	KZN_605	1863865.1865025.-	1865025	1863865	-	H37Ra
103839.104558.-	104558	103839	-	KZN_605	3892875.3893594.+	3892875	3893594	+	H37Ra
3875125.3875844.+	3875125	3875844	+	KZN_605	3892875.3893594.+	3892875	3893594	+	H37Ra
2633432.2634154.+	2633432	2634154	+	KZN_605	3892875.3893594.+	3892875	3893594	+	H37Ra
586582.587616.+	586582	587616	+	KZN_605	587656.588690.+	587656	588690	+	H37Ra
456526.457176.-	457176	456526	-	KZN_605	457631.458281.-	458281	457631	-	H37Ra
638352.639236.-	639236	638352	-	KZN_605	639342.640226.-	640226	639342	-	H37Ra
103839.104558.-	104558	103839	-	KZN_605	105068.105787.-	105787	105068	-	H37Ra
3875125.3875844.+	3875125	3875844	+	KZN_605	105068.105787.-	105787	105068	-	H37Ra
2633432.2634154.+	2633432	2634154	+	KZN_605	105068.105787.-	105787	105068	-	H37Ra
739638.740528.-	740528	739638	-	KZN_605	740633.741523.-	741523	740633	-	H37Ra
562983.563753.-	563753	562983	-	KZN_605	564033.564803.-	564803	564033	-	H37Ra
2027000.2027266.+	2027000	2027266	+	KZN_605	2397871.2398137.-	2398137	2397871	-	H37Ra
2370063.2371475.-	2371475	2370063	-	KZN_605	2061208.2062620.+	2061208	2062620	+	H37Ra
2269558.2269788.+	2269558	2269788	+	KZN_605	2162885.2163115.-	2163115	2162885	-	H37Ra
1822570.1823985.+	1822570	1823985	+	KZN_605	2602627.2604042.-	2604042	2602627	-	H37Ra
1249824.1251671.-	1251671	1249824	-	KZN_605	3174260.3176107.+	3174260	3176107	+	H37Ra
932094.932930.-	932930	932094	-	KZN_605	3563987.3564823.+	3563987	3564823	+	H37Ra
1292441.1293277.+	1292441	1293277	+	KZN_605	3563987.3564823.+	3563987	3564823	+	H37Ra
1330608.1331444.-	1331444	1330608	-	KZN_605	3563987.3564823.+	3563987	3564823	+	H37Ra
1606101.1606937.-	1606937	1606101	-	KZN_605	3563987.3564823.+	3563987	3564823	+	H37Ra
1781709.1782545.+	1781709	1782545	+	KZN_605	3563987.3564823.+	3563987	3564823	+	H37Ra
1861256.1862092.+	1861256	1862092	+	KZN_605	3563987.3564823.+	3563987	3564823	+	H37Ra
2048502.2049338.+	2048502	2049338	+	KZN_605	3563987.3564823.+	3563987	3564823	+	H37Ra
2050173.2051009.+	2050173	2051009	+	KZN_605	3563987.3564823.+	3563987	3564823	+	H37Ra
2155551.2156387.-	2156387	2155551	-	KZN_605	3563987.3564823.+	3563987	3564823	+	H37Ra
2375860.2376696.+	2375860	2376696	+	KZN_605	3563987.3564823.+	3563987	3564823	+	H37Ra
2435107.2435943.+	2435107	2435943	+	KZN_605	3563987.3564823.+	3563987	3564823	+	H37Ra
3480070.3480906.+	3480070	3480906	+	KZN_605	3563987.3564823.+	3563987	3564823	+	H37Ra
3488592.3489428.-	3489428	3488592	-	KZN_605	3563987.3564823.+	3563987	3564823	+	H37Ra
3709850.3710686.-	3710686	3709850	-	KZN_605	3563987.3564823.+	3563987	3564823	+	H37Ra
4064133.4064969.-	4064969	4064133	-	KZN_605	3563987.3564823.+	3563987	3564823	+	H37Ra
1784608.1786170.+	1784608	1786170	+	KZN_605	2640441.2642003.-	2642003	2640441	-	H37Ra
3303197.3303550.+	3303197	3303550	+	KZN_605	1109480.1109833.-	1109833	1109480	-	H37Ra
309876.310208.-	310208	309876	-	KZN_605	311299.311631.-	311631	311299	-	H37Ra
1226328.1226918.-	1226918	1226328	-	KZN_605	3199013.3199603.+	3199013	3199603	+	H37Ra
736609.737505.-	737505	736609	-	KZN_605	737604.738500.-	738500	737604	-	H37Ra
2574424.2575605.+	2574424	2575605	+	KZN_605	1848507.1849688.-	1849688	1848507	-	H37Ra
3834440.3834922.-	3834922	3834440	-	KZN_605	3847264.3847746.-	3847746	3847264	-	H37Ra
1622655.1624136.+	1622655	1624136	+	KZN_605	2802987.2804468.-	2804468	2802987	-	H37Ra
1013578.1014363.+	1013578	1014363	+	KZN_605	3411589.3412374.-	3412374	3411589	-	H37Ra
2744205.2744966.-	2744966	2744205	-	KZN_605	1669900.1670661.+	1669900	1670661	+	H37Ra
1031097.1032407.+	1031097	1032407	+	KZN_605	3393545.3394855.-	3394855	3393545	-	H37Ra
1584061.1585371.+	1584061	1585371	+	KZN_605	3393545.3394855.-	3394855	3393545	-	H37Ra
3069397.3070707.+	3069397	3070707	+	KZN_605	3393545.3394855.-	3394855	3393545	-	H37Ra
3241051.3242361.-	3242361	3241051	-	KZN_605	3393545.3394855.-	3394855	3393545	-	H37Ra
3481966.3483276.+	3481966	3483276	+	KZN_605	3393545.3394855.-	3394855	3393545	-	H37Ra
204005.205174.+	204005	205174	+	KZN_605	205428.206597.+	205428	206597	+	H37Ra
2926350.2926805.+	2926350	2926805	+	KZN_605	1486623.1487078.-	1487078	1486623	-	H37Ra
2013507.2014859.+	2013507	2014859	+	KZN_605	2410278.2411630.-	2411630	2410278	-	H37Ra
3433598.3434875.+	3433598	3434875	+	KZN_605	978164.979441.-	979441	978164	-	H37Ra
1536950.1537351.+	1536950	1537351	+	KZN_605	2888544.2888945.-	2888945	2888544	-	H37Ra
1341513.1341998.+	1341513	1341998	+	KZN_605	3085098.3085583.-	3085583	3085098	-	H37Ra
1431411.1432277.-	1432277	1431411	-	KZN_605	2994976.2995842.+	2994976	2995842	+	H37Ra
2221210.2221731.+	2221210	2221731	+	KZN_605	2211122.2211643.-	2211643	2211122	-	H37Ra
3720678.3721064.+	3720678	3721064	+	KZN_605	3734497.3734883.+	3734497	3734883	+	H37Ra
503406.503558.+	503406	503558	+	KZN_605	504456.504608.+	504456	504608	+	H37Ra
3142987.3143802.+	3142987	3143802	+	KZN_605	1269513.1270328.-	1270328	1269513	-	H37Ra
1438283.1438699.+	1438283	1438699	+	KZN_605	2988554.2988970.-	2988970	2988554	-	H37Ra
3302473.3303144.+	3302473	3303144	+	KZN_605	1109886.1110557.-	1110557	1109886	-	H37Ra
3512024.3513241.-	3513241	3512024	-	KZN_605	3522244.3523461.-	3523461	3522244	-	H37Ra
560130.561008.+	560130	561008	+	KZN_605	561180.562058.+	561180	562058	+	H37Ra
3092083.3096831.-	3096831	3092083	-	KZN_605	1316545.1321293.+	1316545	1321293	+	H37Ra
873876.874559.-	874559	873876	-	KZN_605	873978.874661.-	874661	873978	-	H37Ra
1438866.1439357.+	1438866	1439357	+	KZN_605	2987896.2988387.-	2988387	2987896	-	H37Ra
2239703.2240494.+	2239703	2240494	+	KZN_605	2192359.2193150.-	2193150	2192359	-	H37Ra
2725461.2726462.-	2726462	2725461	-	KZN_605	1688404.1689405.+	1688404	1689405	+	H37Ra
1394617.1394805.-	1394805	1394617	-	KZN_605	3032291.3032479.+	3032291	3032479	+	H37Ra
2710333.2710752.-	2710752	2710333	-	KZN_605	1704114.1704533.+	1704114	1704533	+	H37Ra
3890062.3890808.-	3890808	3890062	-	KZN_605	3909170.3909916.-	3909916	3909170	-	H37Ra
2099908.2100309.-	2100309	2099908	-	KZN_605	2326179.2326580.+	2326179	2326580	+	H37Ra
3871359.3871709.-	3871709	3871359	-	KZN_605	3889109.3889459.-	3889459	3889109	-	H37Ra
3357490.3357972.-	3357972	3357490	-	KZN_605	1055067.1055549.+	1055067	1055549	+	H37Ra
1786361.1787926.+	1786361	1787926	+	KZN_605	2638685.2640250.-	2640250	2638685	-	H37Ra
2126961.2127311.+	2126961	2127311	+	KZN_605	2299182.2299532.-	2299532	2299182	-	H37Ra
1036928.1037293.+	1036928	1037293	+	KZN_605	3388659.3389024.-	3389024	3388659	-	H37Ra
65113.65493.-	65493	65113	-	KZN_605	66370.66750.-	66750	66370	-	H37Ra
877525.877917.-	877917	877525	-	KZN_605	877625.878017.-	878017	877625	-	H37Ra
3600034.3600252.+	3600034	3600252	+	KZN_605	3611584.3611802.+	3611584	3611802	+	H37Ra
776429.779245.-	779245	776429	-	KZN_605	776892.779708.-	779708	776892	-	H37Ra
3291726.3293294.+	3291726	3293294	+	KZN_605	1119736.1121304.-	1121304	1119736	-	H37Ra
1359637.1361334.-	1361334	1359637	-	KZN_605	3065762.3067459.+	3065762	3067459	+	H37Ra
2695641.2699177.+	2695641	2699177	+	KZN_605	1715689.1719225.-	1719225	1715689	-	H37Ra
2265421.2266035.+	2265421	2266035	+	KZN_605	2166638.2167252.-	2167252	2166638	-	H37Ra
2397711.2398808.-	2398808	2397711	-	KZN_605	2035233.2036330.+	2035233	2036330	+	H37Ra
1287705.1288952.+	1287705	1288952	+	KZN_605	3136987.3138234.-	3138234	3136987	-	H37Ra
1946247.1947323.+	1946247	1947323	+	KZN_605	2479289.2480365.-	2480365	2479289	-	H37Ra
3558780.3559244.+	3558780	3559244	+	KZN_605	3570343.3570807.+	3570343	3570807	+	H37Ra
4234377.4237625.+	4234377	4237625	+	KZN_605	4255008.4258256.+	4255008	4258256	+	H37Ra
1116965.1117255.+	1116965	1117255	+	KZN_605	3308342.3308632.-	3308632	3308342	-	H37Ra
864460.865347.+	864460	865347	+	KZN_605	864562.865449.+	864562	865449	+	H37Ra
738608.739561.-	739561	738608	-	KZN_605	739603.740556.-	740556	739603	-	H37Ra
3071541.3072713.-	3072713	3071541	-	KZN_605	1340663.1341679.+	1340663	1341679	+	H37Ra
2878487.2879674.+	2878487	2879674	+	KZN_605	1340663.1341679.+	1340663	1341679	+	H37Ra
3883998.3885176.+	3883998	3885176	+	KZN_605	1340663.1341679.+	1340663	1341679	+	H37Ra
68519.68680.+	68519	68680	+	KZN_605	69776.69937.+	69776	69937	+	H37Ra
3707608.3708240.-	3708240	3707608	-	KZN_605	3719279.3719911.-	3719911	3719279	-	H37Ra
552241.552810.+	552241	552810	+	KZN_605	553291.553860.+	553291	553860	+	H37Ra
2516342.2517337.-	2517337	2516342	-	KZN_605	1906765.1907760.+	1906765	1907760	+	H37Ra
1910554.1910973.+	1910554	1910973	+	KZN_605	2515638.2516057.-	2516057	2515638	-	H37Ra
2081566.2081736.+	2081566	2081736	+	KZN_605	2344752.2344922.-	2344922	2344752	-	H37Ra
4398101.4398451.-	4398451	4398101	-	KZN_605	4418857.4419207.-	4419207	4418857	-	H37Ra
2058304.2058603.+	2058304	2058603	+	KZN_605	2367809.2368108.-	2368108	2367809	-	H37Ra
4095060.4095254.+	4095060	4095254	+	KZN_605	4115921.4116115.+	4115921	4116115	+	H37Ra
1549518.1550720.+	1549518	1550720	+	KZN_605	2875175.2876377.-	2876377	2875175	-	H37Ra
1035112.1035288.+	1035112	1035288	+	KZN_605	3390664.3390840.-	3390840	3390664	-	H37Ra
3298262.3299437.-	3299437	3298262	-	KZN_605	1113593.1114768.+	1113593	1114768	+	H37Ra
4257655.4258188.-	4258188	4257655	-	KZN_605	4278286.4278819.-	4278819	4278286	-	H37Ra
4183210.4183617.+	4183210	4183617	+	KZN_605	4203841.4204248.+	4203841	4204248	+	H37Ra
3424909.3425058.-	3425058	3424909	-	KZN_605	987981.988130.+	987981	988130	+	H37Ra
932094.932930.-	932930	932094	-	KZN_605	1543304.1544140.-	1544140	1543304	-	H37Ra
1292441.1293277.+	1292441	1293277	+	KZN_605	1543304.1544140.-	1544140	1543304	-	H37Ra
1330608.1331444.-	1331444	1330608	-	KZN_605	1543304.1544140.-	1544140	1543304	-	H37Ra
1606101.1606937.-	1606937	1606101	-	KZN_605	1543304.1544140.-	1544140	1543304	-	H37Ra
1781709.1782545.+	1781709	1782545	+	KZN_605	1543304.1544140.-	1544140	1543304	-	H37Ra
1861256.1862092.+	1861256	1862092	+	KZN_605	1543304.1544140.-	1544140	1543304	-	H37Ra
2048502.2049338.+	2048502	2049338	+	KZN_605	1543304.1544140.-	1544140	1543304	-	H37Ra
2050173.2051009.+	2050173	2051009	+	KZN_605	1543304.1544140.-	1544140	1543304	-	H37Ra
2155551.2156387.-	2156387	2155551	-	KZN_605	1543304.1544140.-	1544140	1543304	-	H37Ra
2375860.2376696.+	2375860	2376696	+	KZN_605	1543304.1544140.-	1544140	1543304	-	H37Ra
2435107.2435943.+	2435107	2435943	+	KZN_605	1543304.1544140.-	1544140	1543304	-	H37Ra
3480070.3480906.+	3480070	3480906	+	KZN_605	1543304.1544140.-	1544140	1543304	-	H37Ra
3488592.3489428.-	3489428	3488592	-	KZN_605	1543304.1544140.-	1544140	1543304	-	H37Ra
3709850.3710686.-	3710686	3709850	-	KZN_605	1543304.1544140.-	1544140	1543304	-	H37Ra
4064133.4064969.-	4064969	4064133	-	KZN_605	1543304.1544140.-	1544140	1543304	-	H37Ra
1730631.1731803.+	1730631	1731803	+	KZN_605	2693983.2695155.-	2695155	2693983	-	H37Ra
476076.476444.+	476076	476444	+	KZN_605	477126.477494.+	477126	477494	+	H37Ra
474010.474366.+	474010	474366	+	KZN_605	477126.477494.+	477126	477494	+	H37Ra
1796691.1797125.-	1797125	1796691	-	KZN_605	2629486.2629920.+	2629486	2629920	+	H37Ra
4048678.4049478.+	4048678	4049478	+	KZN_605	4070896.4071696.+	4070896	4071696	+	H37Ra
984262.986544.-	986544	984262	-	KZN_605	3439393.3441675.+	3439393	3441675	+	H37Ra
738608.739519.-	739519	738608	-	KZN_605	739603.740514.-	740514	739603	-	H37Ra
3890062.3890772.-	3890772	3890062	-	KZN_605	3909170.3909880.-	3909880	3909170	-	H37Ra
417931.418347.+	417931	418347	+	KZN_605	416406.416822.+	416406	416822	+	H37Ra
3299499.3300152.-	3300152	3299499	-	KZN_605	1112878.1113531.+	1112878	1113531	+	H37Ra
3210064.3211131.-	3211131	3210064	-	KZN_605	1201902.1202969.+	1201902	1202969	+	H37Ra
1832300.1832896.-	1832896	1832300	-	KZN_605	2593716.2594312.+	2593716	2594312	+	H37Ra
172139.173080.+	172139	173080	+	KZN_605	173561.174502.+	173561	174502	+	H37Ra
1053185.1054198.+	1053185	1054198	+	KZN_605	3371754.3372767.-	3372767	3371754	-	H37Ra
1391696.1392697.-	1392697	1391696	-	KZN_605	3034399.3035400.+	3034399	3035400	+	H37Ra
2325163.2325483.-	2325483	2325163	-	KZN_605	2107262.2107582.+	2107262	2107582	+	H37Ra
1174090.1175004.+	1174090	1175004	+	KZN_605	3250593.3251507.-	3251507	3250593	-	H37Ra
709766.710659.+	709766	710659	+	KZN_605	710765.711658.+	710765	711658	+	H37Ra
3795642.3796421.+	3795642	3796421	+	KZN_605	3809140.3809919.+	3809140	3809919	+	H37Ra
330319.330942.+	330319	330942	+	KZN_605	331742.332365.+	331742	332365	+	H37Ra
2796852.2797088.+	2796852	2797088	+	KZN_605	1617675.1617911.-	1617911	1617675	-	H37Ra
141325.142275.+	141325	142275	+	KZN_605	142553.143503.+	142553	143503	+	H37Ra
3252314.3252805.+	3252314	3252805	+	KZN_605	1160226.1160717.-	1160717	1160226	-	H37Ra
709910.710659.+	709910	710659	+	KZN_605	710909.711658.+	710909	711658	+	H37Ra
3139814.3139969.+	3139814	3139969	+	KZN_605	1273346.1273501.-	1273501	1273346	-	H37Ra
4289378.4290601.-	4290601	4289378	-	KZN_605	4310009.4311232.-	4311232	4310009	-	H37Ra
4122440.4123804.+	4122440	4123804	+	KZN_605	4143130.4144494.+	4143130	4144494	+	H37Ra
1393263.1393580.+	1393263	1393580	+	KZN_605	3033516.3033833.-	3033833	3033516	-	H37Ra
1707061.1708065.-	1708065	1707061	-	KZN_605	2717700.2718704.+	2717700	2718704	+	H37Ra
