3359972.3361093.+	3359972	3361093	+	KZN_V2475	1047953.1049074.-	1049074	1047953	-	KZN_605
3486130.3486999.+	3486130	3486999	+	KZN_V2475	3491442.3492311.+	3491442	3492311	+	KZN_605
309637.310011.+	309637	310011	+	KZN_V2475	309638.310012.+	309638	310012	+	KZN_605
2647761.2647946.+	2647761	2647946	+	KZN_V2475	1761881.1762066.-	1762066	1761881	-	KZN_605
2977552.2978355.+	2977552	2978355	+	KZN_V2475	1431411.1432214.-	1432214	1431411	-	KZN_605
4164187.4166553.+	4164187	4166553	+	KZN_V2475	4166064.4168430.+	4166064	4168430	+	KZN_605
2207849.2208457.+	2207849	2208457	+	KZN_V2475	2204235.2204843.-	2204843	2204235	-	KZN_605
103840.104559.-	104559	103840	-	KZN_V2475	103839.104558.-	104558	103839	-	KZN_605
3869701.3870420.+	3869701	3870420	+	KZN_V2475	103839.104558.-	104558	103839	-	KZN_605
1778871.1779593.-	1779593	1778871	-	KZN_V2475	103839.104558.-	104558	103839	-	KZN_605
1215288.1215740.+	1215288	1215740	+	KZN_V2475	3196920.3197372.-	3197372	3196920	-	KZN_605
3579584.3579871.-	3579871	3579584	-	KZN_V2475	3584896.3585183.-	3585183	3584896	-	KZN_605
3373592.3373876.-	3373876	3373592	-	KZN_V2475	1035170.1035454.+	1035170	1035454	+	KZN_605
183352.183498.+	183352	183498	+	KZN_V2475	183352.183498.+	183352	183498	+	KZN_605
577828.578454.+	577828	578454	+	KZN_V2475	577903.578529.+	577903	578529	+	KZN_605
1079592.1081904.+	1079592	1081904	+	KZN_V2475	3330679.3332991.-	3332991	3330679	-	KZN_605
1078082.1078684.-	1078684	1078082	-	KZN_V2475	3333899.3334501.+	3333899	3334501	+	KZN_605
4237047.4238804.+	4237047	4238804	+	KZN_V2475	4238924.4240681.+	4238924	4240681	+	KZN_605
2711447.2712280.-	2712280	2711447	-	KZN_V2475	1697489.1698322.+	1697489	1698322	+	KZN_605
2041275.2042687.+	2041275	2042687	+	KZN_V2475	2370063.2371475.-	2371475	2370063	-	KZN_605
3332059.3333135.-	3333135	3332059	-	KZN_V2475	1075911.1076987.+	1075911	1076987	+	KZN_605
2955944.2958244.-	2958244	2955944	-	KZN_V2475	1451522.1453822.+	1451522	1453822	+	KZN_605
698769.699239.-	699239	698769	-	KZN_V2475	698835.699305.-	699305	698835	-	KZN_605
1064963.1065811.-	1065811	1064963	-	KZN_V2475	3346772.3347620.+	3346772	3347620	+	KZN_605
4252891.4254834.-	4254834	4252891	-	KZN_V2475	4254768.4256711.-	4256711	4254768	-	KZN_605
543380.544915.+	543380	544915	+	KZN_V2475	543455.544990.+	543455	544990	+	KZN_605
3884638.3885348.-	3885348	3884638	-	KZN_V2475	3890062.3890772.-	3890772	3890062	-	KZN_605
3577708.3578565.-	3578565	3577708	-	KZN_V2475	3583020.3583877.-	3583877	3583020	-	KZN_605
1274003.1275502.+	1274003	1275502	+	KZN_V2475	3137238.3138737.-	3138737	3137238	-	KZN_605
144130.145758.+	144130	145758	+	KZN_V2475	144129.145757.+	144129	145757	+	KZN_605
1367111.1368199.+	1367111	1368199	+	KZN_V2475	3044602.3045690.-	3045690	3044602	-	KZN_605
986364.986822.-	986822	986364	-	KZN_V2475	3425761.3426219.+	3425761	3426219	+	KZN_605
2147334.2147939.-	2147939	2147334	-	KZN_V2475	2264754.2265359.+	2264754	2265359	+	KZN_605
2939215.2939442.+	2939215	2939442	+	KZN_V2475	1470324.1470551.-	1470551	1470324	-	KZN_605
1173675.1174583.+	1173675	1174583	+	KZN_V2475	3237935.3238843.-	3238843	3237935	-	KZN_605
2967402.2967866.+	2967402	2967866	+	KZN_V2475	1441900.1442364.-	1442364	1441900	-	KZN_605
1964018.1966609.+	1964018	1966609	+	KZN_V2475	2446300.2448891.-	2448891	2446300	-	KZN_605
3544242.3545531.+	3544242	3545531	+	KZN_V2475	3549554.3550843.+	3549554	3550843	+	KZN_605
3506712.3507929.-	3507929	3506712	-	KZN_V2475	3512024.3513241.-	3513241	3512024	-	KZN_605
737513.738394.-	738394	737513	-	KZN_V2475	737579.738460.-	738460	737579	-	KZN_605
1109373.1110044.-	1110044	1109373	-	KZN_V2475	3302473.3303144.+	3302473	3303144	+	KZN_605
1339740.1340039.+	1339740	1340039	+	KZN_V2475	3072763.3073062.-	3073062	3072763	-	KZN_605
931730.932566.-	932566	931730	-	KZN_V2475	932094.932930.-	932930	932094	-	KZN_605
1976816.1977652.-	1977652	1976816	-	KZN_V2475	932094.932930.-	932930	932094	-	KZN_605
2036054.2036890.-	2036890	2036054	-	KZN_V2475	932094.932930.-	932930	932094	-	KZN_605
2360310.2361146.-	2361146	2360310	-	KZN_V2475	932094.932930.-	932930	932094	-	KZN_605
2547726.2548562.-	2548562	2547726	-	KZN_V2475	932094.932930.-	932930	932094	-	KZN_605
2627282.2628118.-	2628118	2627282	-	KZN_V2475	932094.932930.-	932930	932094	-	KZN_605
2802832.2803668.+	2802832	2803668	+	KZN_V2475	932094.932930.-	932930	932094	-	KZN_605
3078161.3078997.+	3078161	3078997	+	KZN_V2475	932094.932930.-	932930	932094	-	KZN_605
3116328.3117164.-	3117164	3116328	-	KZN_V2475	932094.932930.-	932930	932094	-	KZN_605
3476116.3476952.+	3476116	3476952	+	KZN_V2475	932094.932930.-	932930	932094	-	KZN_605
3704480.3705316.-	3705316	3704480	-	KZN_V2475	932094.932930.-	932930	932094	-	KZN_605
4062486.4063322.-	4063322	4062486	-	KZN_V2475	932094.932930.-	932930	932094	-	KZN_605
631988.632620.+	631988	632620	+	KZN_V2475	632063.632695.+	632063	632695	+	KZN_605
2990429.2991214.+	2990429	2991214	+	KZN_V2475	1418391.1419176.-	1419176	1418391	-	KZN_605
3550763.3550972.+	3550763	3550972	+	KZN_V2475	3556075.3556284.+	3556075	3556284	+	KZN_605
1095465.1095659.-	1095659	1095465	-	KZN_V2475	3316858.3317052.+	3316858	3317052	+	KZN_605
3287003.3291853.-	3291853	3287003	-	KZN_V2475	1117252.1122102.+	1117252	1122102	+	KZN_605
2539993.2540862.+	2539993	2540862	+	KZN_V2475	1868956.1869825.-	1869825	1868956	-	KZN_605
877206.877598.-	877598	877206	-	KZN_V2475	877525.877917.-	877917	877525	-	KZN_605
3422502.3424784.+	3422502	3424784	+	KZN_V2475	984262.986544.-	986544	984262	-	KZN_605
3627560.3628984.+	3627560	3628984	+	KZN_V2475	3632872.3634296.+	3632872	3634296	+	KZN_605
2311022.2311423.+	2311022	2311423	+	KZN_V2475	2099908.2100309.-	2100309	2099908	-	KZN_605
1566197.1567417.+	1566197	1567417	+	KZN_V2475	2845438.2846658.-	2846658	2845438	-	KZN_605
2732684.2732962.+	2732684	2732962	+	KZN_V2475	1676807.1677085.-	1677085	1676807	-	KZN_605
3120653.3121801.-	3121801	3120653	-	KZN_V2475	1287804.1288952.+	1287804	1288952	+	KZN_605
3224800.3226236.-	3226236	3224800	-	KZN_V2475	1183261.1184697.+	1183261	1184697	+	KZN_605
3703515.3704048.-	3704048	3703515	-	KZN_V2475	3708885.3709418.-	3709418	3708885	-	KZN_605
562908.563678.-	563678	562908	-	KZN_V2475	562983.563753.-	563753	562983	-	KZN_605
1095873.1097291.-	1097291	1095873	-	KZN_V2475	3315226.3316644.+	3315226	3316644	+	KZN_605
3182579.3183169.+	3182579	3183169	+	KZN_V2475	1226328.1226918.-	1226918	1226328	-	KZN_605
2613392.2613649.+	2613392	2613649	+	KZN_V2475	1796178.1796435.-	1796435	1796178	-	KZN_605
1283792.1284835.-	1284835	1283792	-	KZN_V2475	3127905.3128948.+	3127905	3128948	+	KZN_605
2566125.2566817.+	2566125	2566817	+	KZN_V2475	1843001.1843693.-	1843693	1843001	-	KZN_605
3014800.3014988.+	3014800	3014988	+	KZN_V2475	1394617.1394805.-	1394805	1394617	-	KZN_605
2748823.2748969.-	2748969	2748823	-	KZN_V2475	1660800.1660946.+	1660800	1660946	+	KZN_605
1340089.1341261.+	1340089	1341261	+	KZN_V2475	3071541.3072713.-	3072713	3071541	-	KZN_605
1533182.1534369.-	1534369	1533182	-	KZN_V2475	3071541.3072713.-	3072713	3071541	-	KZN_605
3878574.3879752.+	3878574	3879752	+	KZN_V2475	3071541.3072713.-	3072713	3071541	-	KZN_605
1024717.1024974.+	1024717	1024974	+	KZN_V2475	3387609.3387866.-	3387866	3387609	-	KZN_605
3400231.3400482.+	3400231	3400482	+	KZN_V2475	1008564.1008815.-	1008815	1008564	-	KZN_605
770776.771327.+	770776	771327	+	KZN_V2475	770842.771393.+	770842	771393	+	KZN_605
2707304.2708857.-	2708857	2707304	-	KZN_V2475	1700912.1702465.+	1700912	1702465	+	KZN_605
1265880.1266248.-	1266248	1265880	-	KZN_V2475	3146492.3146860.+	3146492	3146860	+	KZN_605
3697902.3698240.+	3697902	3698240	+	KZN_V2475	3703272.3703610.+	3703272	3703610	+	KZN_605
1179401.1179547.-	1179547	1179401	-	KZN_V2475	3232971.3233117.+	3232971	3233117	+	KZN_605
4080599.4080853.-	4080853	4080599	-	KZN_V2475	4082246.4082500.-	4082500	4082246	-	KZN_605
2465603.2466352.+	2465603	2466352	+	KZN_V2475	1943468.1944217.-	1944217	1943468	-	KZN_605
1818601.1819227.+	1818601	1819227	+	KZN_V2475	2593797.2594423.-	2594423	2593797	-	KZN_605
2365013.2365228.-	2365228	2365013	-	KZN_V2475	2044420.2044635.+	2044420	2044635	+	KZN_605
3574545.3575219.+	3574545	3575219	+	KZN_V2475	3579857.3580531.+	3579857	3580531	+	KZN_605
2527154.2527576.-	2527576	2527154	-	KZN_V2475	1882243.1882665.+	1882243	1882665	+	KZN_605
4114689.4115138.-	4115138	4114689	-	KZN_V2475	4116507.4116956.-	4116956	4116507	-	KZN_605
732569.733066.+	732569	733066	+	KZN_V2475	732635.733132.+	732635	733132	+	KZN_605
1413998.1414678.+	1413998	1414678	+	KZN_V2475	2998051.2998803.-	2998803	2998051	-	KZN_605
1774537.1774821.-	1774821	1774537	-	KZN_V2475	2638204.2638488.+	2638204	2638488	+	KZN_605
560073.560933.+	560073	560933	+	KZN_V2475	560148.561008.+	560148	561008	+	KZN_605
2787337.2788614.-	2788614	2787337	-	KZN_V2475	1621155.1622432.+	1621155	1622432	+	KZN_605
2576922.2577518.+	2576922	2577518	+	KZN_V2475	1832300.1832896.-	1832896	1832300	-	KZN_605
4079879.4080466.+	4079879	4080466	+	KZN_V2475	4081526.4082113.+	4081526	4082113	+	KZN_605
2587264.2587809.-	2587809	2587264	-	KZN_V2475	1822009.1822554.+	1822009	1822554	+	KZN_605
1129929.1130900.+	1129929	1130900	+	KZN_V2475	3281617.3282588.-	3282588	3281617	-	KZN_605
586555.587541.+	586555	587541	+	KZN_V2475	586630.587616.+	586630	587616	+	KZN_605
1165367.1165804.-	1165804	1165367	-	KZN_V2475	3133184.3133621.-	3133621	3133184	-	KZN_605
1279119.1279556.+	1279119	1279556	+	KZN_V2475	3133184.3133621.-	3133621	3133184	-	KZN_605
2673674.2674657.+	2673674	2674657	+	KZN_V2475	1735169.1736152.-	1736152	1735169	-	KZN_605
2059695.2060624.+	2059695	2060624	+	KZN_V2475	2352126.2353055.-	2353055	2352126	-	KZN_605
2699244.2699846.+	2699244	2699846	+	KZN_V2475	1709980.1710582.-	1710582	1709980	-	KZN_605
3861555.3862325.-	3862325	3861555	-	KZN_V2475	3866979.3867749.-	3867749	3866979	-	KZN_605
3735315.3744752.-	3744752	3735315	-	KZN_V2475	3740685.3750122.-	3750122	3740685	-	KZN_605
532539.533096.+	532539	533096	+	KZN_V2475	532614.533171.+	532614	533171	+	KZN_605
2576545.2576889.+	2576545	2576889	+	KZN_V2475	1832929.1833273.-	1833273	1832929	-	KZN_605
2185728.2187092.+	2185728	2187092	+	KZN_V2475	2225601.2226965.-	2226965	2225601	-	KZN_605
1277035.1278399.-	1278399	1277035	-	KZN_V2475	2225601.2226965.-	2226965	2225601	-	KZN_605
4084034.4085107.-	4085107	4084034	-	KZN_V2475	4085681.4086754.-	4086754	4085681	-	KZN_605
1617238.1617471.+	1617238	1617471	+	KZN_V2475	2795383.2795616.-	2795616	2795383	-	KZN_605
1408978.1410096.+	1408978	1410096	+	KZN_V2475	3002705.3003823.-	3003823	3002705	-	KZN_605
518918.519226.+	518918	519226	+	KZN_V2475	518993.519301.+	518993	519301	+	KZN_605
835944.836090.-	836090	835944	-	KZN_V2475	836064.836210.-	836210	836064	-	KZN_605
2939439.2940824.-	2940824	2939439	-	KZN_V2475	1468942.1470327.+	1468942	1470327	+	KZN_605
2789915.2790676.-	2790676	2789915	-	KZN_V2475	1619093.1619854.+	1619093	1619854	+	KZN_605
2302036.2302260.-	2302260	2302036	-	KZN_V2475	2109071.2109295.+	2109071	2109295	+	KZN_605
142260.144017.-	144017	142260	-	KZN_V2475	142259.144016.-	144016	142259	-	KZN_605
1639297.1640304.-	1640304	1639297	-	KZN_V2475	2772721.2773728.+	2772721	2773728	+	KZN_605
3633793.3634062.-	3634062	3633793	-	KZN_V2475	3639105.3639374.-	3639374	3639105	-	KZN_605
3060699.3061610.-	3061610	3060699	-	KZN_V2475	1347995.1348906.+	1347995	1348906	+	KZN_605
931730.932566.-	932566	931730	-	KZN_V2475	2048502.2049338.+	2048502	2049338	+	KZN_605
1976816.1977652.-	1977652	1976816	-	KZN_V2475	2048502.2049338.+	2048502	2049338	+	KZN_605
2036054.2036890.-	2036890	2036054	-	KZN_V2475	2048502.2049338.+	2048502	2049338	+	KZN_605
2360310.2361146.-	2361146	2360310	-	KZN_V2475	2048502.2049338.+	2048502	2049338	+	KZN_605
2547726.2548562.-	2548562	2547726	-	KZN_V2475	2048502.2049338.+	2048502	2049338	+	KZN_605
2627282.2628118.-	2628118	2627282	-	KZN_V2475	2048502.2049338.+	2048502	2049338	+	KZN_605
2802832.2803668.+	2802832	2803668	+	KZN_V2475	2048502.2049338.+	2048502	2049338	+	KZN_605
3078161.3078997.+	3078161	3078997	+	KZN_V2475	2048502.2049338.+	2048502	2049338	+	KZN_605
3116328.3117164.-	3117164	3116328	-	KZN_V2475	2048502.2049338.+	2048502	2049338	+	KZN_605
3476116.3476952.+	3476116	3476952	+	KZN_V2475	2048502.2049338.+	2048502	2049338	+	KZN_605
3704480.3705316.-	3705316	3704480	-	KZN_V2475	2048502.2049338.+	2048502	2049338	+	KZN_605
4062486.4063322.-	4063322	4062486	-	KZN_V2475	2048502.2049338.+	2048502	2049338	+	KZN_605
1486506.1486688.-	1486688	1486506	-	KZN_V2475	2926168.2926350.+	2926168	2926350	+	KZN_605
3657610.3658080.+	3657610	3658080	+	KZN_V2475	3662922.3663392.+	3662922	3663392	+	KZN_605
1655285.1656412.-	1656412	1655285	-	KZN_V2475	2756613.2757740.+	2756613	2757740	+	KZN_605
3485208.3485687.+	3485208	3485687	+	KZN_V2475	3490520.3490999.+	3490520	3490999	+	KZN_605
3119624.3120649.-	3120649	3119624	-	KZN_V2475	1288956.1289981.+	1288956	1289981	+	KZN_605
2829350.2829601.-	2829601	2829350	-	KZN_V2475	1580166.1580417.+	1580166	1580417	+	KZN_605
1886744.1887136.+	1886744	1887136	+	KZN_V2475	2525717.2526109.-	2526109	2525717	-	KZN_605
140097.140276.+	140097	140276	+	KZN_V2475	140096.140275.+	140096	140275	+	KZN_605
2923829.2924230.+	2923829	2924230	+	KZN_V2475	1485536.1485937.-	1485937	1485536	-	KZN_605
4155405.4155647.+	4155405	4155647	+	KZN_V2475	4157282.4157524.+	4157282	4157524	+	KZN_605
1955991.1956323.+	1955991	1956323	+	KZN_V2475	2456586.2456918.-	2456918	2456586	-	KZN_605
3367078.3367734.+	3367078	3367734	+	KZN_V2475	1041312.1041968.-	1041968	1041312	-	KZN_605
877576.877716.+	877576	877716	+	KZN_V2475	877895.878035.+	877895	878035	+	KZN_605
2973807.2974169.-	2974169	2973807	-	KZN_V2475	1435597.1435959.+	1435597	1435959	+	KZN_605
864183.865028.+	864183	865028	+	KZN_V2475	864502.865347.+	864502	865347	+	KZN_605
27094.27402.+	27094	27402	+	KZN_V2475	27094.27402.+	27094	27402	+	KZN_605
1981779.1982012.+	1981779	1982012	+	KZN_V2475	2430738.2430971.-	2430971	2430738	-	KZN_605
2825794.2825979.+	2825794	2825979	+	KZN_V2475	1583788.1583973.-	1583973	1583788	-	KZN_605
2856286.2856984.+	2856286	2856984	+	KZN_V2475	1552783.1553481.-	1553481	1552783	-	KZN_605
873557.874240.-	874240	873557	-	KZN_V2475	873876.874559.-	874559	873876	-	KZN_605
4206958.4208586.+	4206958	4208586	+	KZN_V2475	4208835.4210463.+	4208835	4210463	+	KZN_605
591636.591737.+	591636	591737	+	KZN_V2475	591711.591812.+	591711	591812	+	KZN_605
3829489.3830136.-	3830136	3829489	-	KZN_V2475	3834913.3835560.-	3835560	3834913	-	KZN_605
3128558.3129298.-	3129298	3128558	-	KZN_V2475	1280307.1281047.+	1280307	1281047	+	KZN_605
2103022.2105358.+	2103022	2105358	+	KZN_V2475	2307336.2309672.-	2309672	2307336	-	KZN_605
4369596.4369934.-	4369934	4369596	-	KZN_V2475	4371473.4371811.-	4371811	4371473	-	KZN_605
953636.954070.+	953636	954070	+	KZN_V2475	3458566.3459000.-	3459000	3458566	-	KZN_605
2721570.2721836.-	2721836	2721570	-	KZN_V2475	1687933.1688199.+	1687933	1688199	+	KZN_605
1164959.1165267.-	1165267	1164959	-	KZN_V2475	3247251.3247559.+	3247251	3247559	+	KZN_605
602971.604677.+	602971	604677	+	KZN_V2475	603046.604752.+	603046	604752	+	KZN_605
832943.833188.+	832943	833188	+	KZN_V2475	833063.833308.+	833063	833308	+	KZN_605
842918.843163.+	842918	843163	+	KZN_V2475	833063.833308.+	833063	833308	+	KZN_605
4349355.4350725.-	4350725	4349355	-	KZN_V2475	4351232.4352602.-	4352602	4351232	-	KZN_605
2979214.2979735.+	2979214	2979735	+	KZN_V2475	1430031.1430552.-	1430552	1430031	-	KZN_605
3790978.3791718.+	3790978	3791718	+	KZN_V2475	3796348.3797088.+	3796348	3797088	+	KZN_605
368912.375526.-	375526	368912	-	KZN_V2475	369007.375621.-	375621	369007	-	KZN_605
1165887.1166294.-	1166294	1165887	-	KZN_V2475	3246224.3246631.+	3246224	3246631	+	KZN_605
1278629.1279036.+	1278629	1279036	+	KZN_V2475	3246224.3246631.+	3246224	3246631	+	KZN_605
2373831.2374346.-	2374346	2373831	-	KZN_V2475	2035473.2035988.+	2035473	2035988	+	KZN_605
2570598.2571032.+	2570598	2571032	+	KZN_V2475	1838786.1839220.-	1839220	1838786	-	KZN_605
4370090.4371184.-	4371184	4370090	-	KZN_V2475	4371967.4373061.-	4373061	4371967	-	KZN_605
2044156.2045349.-	2045349	2044156	-	KZN_V2475	2367401.2368594.+	2367401	2368594	+	KZN_605
918440.919081.-	919081	918440	-	KZN_V2475	918759.919400.-	919400	918759	-	KZN_605
2013942.2015039.+	2013942	2015039	+	KZN_V2475	2397711.2398808.-	2398808	2397711	-	KZN_605
1364240.1364983.-	1364983	1364240	-	KZN_V2475	3047818.3048561.+	3047818	3048561	+	KZN_605
3898676.3900031.-	3900031	3898676	-	KZN_V2475	3904100.3905455.-	3905455	3904100	-	KZN_605
3515897.3517138.+	3515897	3517138	+	KZN_V2475	3521209.3522450.+	3521209	3522450	+	KZN_605
34396.36642.+	34396	36642	+	KZN_V2475	34396.36642.+	34396	36642	+	KZN_605
3246572.3251188.+	3246572	3251188	+	KZN_V2475	1157917.1162533.-	1162533	1157917	-	KZN_605
1228389.1229375.-	1229375	1228389	-	KZN_V2475	3183366.3184352.+	3183366	3184352	+	KZN_605
3639900.3640823.-	3640823	3639900	-	KZN_V2475	3645212.3646135.-	3646135	3645212	-	KZN_605
931730.932566.-	932566	931730	-	KZN_V2475	1292441.1293277.+	1292441	1293277	+	KZN_605
1976816.1977652.-	1977652	1976816	-	KZN_V2475	1292441.1293277.+	1292441	1293277	+	KZN_605
2036054.2036890.-	2036890	2036054	-	KZN_V2475	1292441.1293277.+	1292441	1293277	+	KZN_605
2360310.2361146.-	2361146	2360310	-	KZN_V2475	1292441.1293277.+	1292441	1293277	+	KZN_605
2547726.2548562.-	2548562	2547726	-	KZN_V2475	1292441.1293277.+	1292441	1293277	+	KZN_605
2627282.2628118.-	2628118	2627282	-	KZN_V2475	1292441.1293277.+	1292441	1293277	+	KZN_605
2802832.2803668.+	2802832	2803668	+	KZN_V2475	1292441.1293277.+	1292441	1293277	+	KZN_605
3078161.3078997.+	3078161	3078997	+	KZN_V2475	1292441.1293277.+	1292441	1293277	+	KZN_605
3116328.3117164.-	3117164	3116328	-	KZN_V2475	1292441.1293277.+	1292441	1293277	+	KZN_605
3476116.3476952.+	3476116	3476952	+	KZN_V2475	1292441.1293277.+	1292441	1293277	+	KZN_605
3704480.3705316.-	3705316	3704480	-	KZN_V2475	1292441.1293277.+	1292441	1293277	+	KZN_605
4062486.4063322.-	4063322	4062486	-	KZN_V2475	1292441.1293277.+	1292441	1293277	+	KZN_605
3235015.3235206.-	3235206	3235015	-	KZN_V2475	1173899.1174090.+	1173899	1174090	+	KZN_605
362520.363926.-	363926	362520	-	KZN_V2475	362624.364030.-	364030	362624	-	KZN_605
3594716.3594943.-	3594943	3594716	-	KZN_V2475	3600028.3600255.-	3600255	3600028	-	KZN_605
133152.133901.+	133152	133901	+	KZN_V2475	133151.133900.+	133151	133900	+	KZN_605
4067456.4068664.-	4068664	4067456	-	KZN_V2475	4069103.4070311.-	4070311	4069103	-	KZN_605
3553468.3553932.+	3553468	3553932	+	KZN_V2475	3558780.3559244.+	3558780	3559244	+	KZN_605
1170157.1171467.+	1170157	1171467	+	KZN_V2475	3481966.3483276.+	3481966	3483276	+	KZN_605
1342095.1343405.-	1343405	1342095	-	KZN_V2475	3481966.3483276.+	3481966	3483276	+	KZN_605
2824396.2825706.-	2825706	2824396	-	KZN_V2475	3481966.3483276.+	3481966	3483276	+	KZN_605
3376639.3377949.-	3377949	3376639	-	KZN_V2475	3481966.3483276.+	3481966	3483276	+	KZN_605
3478012.3479322.+	3478012	3479322	+	KZN_V2475	3481966.3483276.+	3481966	3483276	+	KZN_605
3856587.3858035.-	3858035	3856587	-	KZN_V2475	3862011.3863459.-	3863459	3862011	-	KZN_605
1165367.1165804.-	1165804	1165367	-	KZN_V2475	3246714.3247151.+	3246714	3247151	+	KZN_605
1279119.1279556.+	1279119	1279556	+	KZN_V2475	3246714.3247151.+	3246714	3247151	+	KZN_605
4038100.4038429.-	4038429	4038100	-	KZN_V2475	4039747.4040076.-	4040076	4039747	-	KZN_605
3551219.3552403.-	3552403	3551219	-	KZN_V2475	3556531.3557715.-	3557715	3556531	-	KZN_605
104935.105345.-	105345	104935	-	KZN_V2475	104934.105344.-	105344	104934	-	KZN_605
2018545.2018844.+	2018545	2018844	+	KZN_V2475	2393906.2394205.-	2394205	2393906	-	KZN_605
4198141.4198920.+	4198141	4198920	+	KZN_V2475	4200018.4200797.+	4200018	4200797	+	KZN_605
3508201.3508692.+	3508201	3508692	+	KZN_V2475	3513513.3514004.+	3513513	3514004	+	KZN_605
3046283.3046489.-	3046489	3046283	-	KZN_V2475	1363116.1363322.+	1363116	1363322	+	KZN_605
1831002.1832672.-	1832672	1831002	-	KZN_V2475	2580352.2582022.+	2580352	2582022	+	KZN_605
2701734.2702708.+	2701734	2702708	+	KZN_V2475	1707061.1708035.-	1708035	1707061	-	KZN_605
3018747.3019814.-	3019814	3018747	-	KZN_V2475	1389791.1390858.+	1389791	1390858	+	KZN_605
2255020.2255739.+	2255020	2255739	+	KZN_V2475	2156953.2157672.-	2157672	2156953	-	KZN_605
1263065.1264921.-	1264921	1263065	-	KZN_V2475	3147819.3149675.+	3147819	3149675	+	KZN_605
2416188.2416529.-	2416529	2416188	-	KZN_V2475	1993290.1993631.+	1993290	1993631	+	KZN_605
1170172.1171467.+	1170172	1171467	+	KZN_V2475	3241051.3242346.-	3242346	3241051	-	KZN_605
1342095.1343390.-	1343390	1342095	-	KZN_V2475	3241051.3242346.-	3242346	3241051	-	KZN_605
2824396.2825691.-	2825691	2824396	-	KZN_V2475	3241051.3242346.-	3242346	3241051	-	KZN_605
3376639.3377934.-	3377934	3376639	-	KZN_V2475	3241051.3242346.-	3242346	3241051	-	KZN_605
3478027.3479322.+	3478027	3479322	+	KZN_V2475	3241051.3242346.-	3242346	3241051	-	KZN_605
278324.278527.+	278324	278527	+	KZN_V2475	278325.278528.+	278325	278528	+	KZN_605
3303079.3304053.-	3304053	3303079	-	KZN_V2475	1105052.1106026.+	1105052	1106026	+	KZN_605
738542.739405.-	739405	738542	-	KZN_V2475	738608.739471.-	739471	738608	-	KZN_605
578590.579360.+	578590	579360	+	KZN_V2475	578665.579435.+	578665	579435	+	KZN_605
931730.932566.-	932566	931730	-	KZN_V2475	1781709.1782545.+	1781709	1782545	+	KZN_605
1976816.1977652.-	1977652	1976816	-	KZN_V2475	1781709.1782545.+	1781709	1782545	+	KZN_605
2036054.2036890.-	2036890	2036054	-	KZN_V2475	1781709.1782545.+	1781709	1782545	+	KZN_605
2360310.2361146.-	2361146	2360310	-	KZN_V2475	1781709.1782545.+	1781709	1782545	+	KZN_605
2547726.2548562.-	2548562	2547726	-	KZN_V2475	1781709.1782545.+	1781709	1782545	+	KZN_605
2627282.2628118.-	2628118	2627282	-	KZN_V2475	1781709.1782545.+	1781709	1782545	+	KZN_605
2802832.2803668.+	2802832	2803668	+	KZN_V2475	1781709.1782545.+	1781709	1782545	+	KZN_605
3078161.3078997.+	3078161	3078997	+	KZN_V2475	1781709.1782545.+	1781709	1782545	+	KZN_605
3116328.3117164.-	3117164	3116328	-	KZN_V2475	1781709.1782545.+	1781709	1782545	+	KZN_605
3476116.3476952.+	3476116	3476952	+	KZN_V2475	1781709.1782545.+	1781709	1782545	+	KZN_605
3704480.3705316.-	3705316	3704480	-	KZN_V2475	1781709.1782545.+	1781709	1782545	+	KZN_605
4062486.4063322.-	4063322	4062486	-	KZN_V2475	1781709.1782545.+	1781709	1782545	+	KZN_605
1200222.1201172.-	1201172	1200222	-	KZN_V2475	3211348.3212187.+	3211348	3212187	+	KZN_605
3879782.3883030.+	3879782	3883030	+	KZN_V2475	3885206.3888454.+	3885206	3888454	+	KZN_605
1961357.1961542.-	1961542	1961357	-	KZN_V2475	2451367.2451552.+	2451367	2451552	+	KZN_605
3702238.3702870.-	3702870	3702238	-	KZN_V2475	3707608.3708240.-	3708240	3707608	-	KZN_605
933120.933773.-	933773	933120	-	KZN_V2475	3478863.3479516.+	3478863	3479516	+	KZN_605
3048391.3049968.+	3048391	3049968	+	KZN_V2475	1359637.1361214.-	1361214	1359637	-	KZN_605
3865935.3866285.-	3866285	3865935	-	KZN_V2475	3871359.3871709.-	3871709	3871359	-	KZN_605
3381338.3382078.-	3382078	3381338	-	KZN_V2475	1026968.1027708.+	1026968	1027708	+	KZN_605
3747556.3758706.-	3758706	3747556	-	KZN_V2475	3752926.3764076.-	3764076	3752926	-	KZN_605
4296339.4296752.+	4296339	4296752	+	KZN_V2475	4298216.4298629.+	4298216	4298629	+	KZN_605
364003.365871.+	364003	365871	+	KZN_V2475	364107.365966.+	364107	365966	+	KZN_605
3735315.3742733.-	3742733	3735315	-	KZN_V2475	3740685.3748103.-	3748103	3740685	-	KZN_605
3490224.3490805.-	3490805	3490224	-	KZN_V2475	3495536.3496117.-	3496117	3495536	-	KZN_605
4081478.4082158.-	4082158	4081478	-	KZN_V2475	4083125.4083805.-	4083805	4083125	-	KZN_605
151499.152527.+	151499	152527	+	KZN_V2475	151499.152527.+	151499	152527	+	KZN_605
3694156.3694326.-	3694326	3694156	-	KZN_V2475	3699526.3699696.-	3699696	3699526	-	KZN_605
2359526.2359822.-	2359822	2359526	-	KZN_V2475	2051497.2051793.+	2051497	2051793	+	KZN_605
676076.676555.+	676076	676555	+	KZN_V2475	676142.676621.+	676142	676621	+	KZN_605
1946074.1947627.-	1947627	1946074	-	KZN_V2475	2465282.2466835.+	2465282	2466835	+	KZN_605
832661.833188.+	832661	833188	+	KZN_V2475	832781.833308.+	832781	833308	+	KZN_605
988033.989556.+	988033	989556	+	KZN_V2475	3423027.3424550.-	3424550	3423027	-	KZN_605
1208095.1208445.+	1208095	1208445	+	KZN_V2475	3204075.3204425.-	3204425	3204075	-	KZN_605
3497799.3498356.+	3497799	3498356	+	KZN_V2475	3503111.3503668.+	3503111	3503668	+	KZN_605
1314414.1320719.+	1314414	1320719	+	KZN_V2475	3092083.3098388.-	3098388	3092083	-	KZN_605
1468053.1468418.+	1468053	1468418	+	KZN_V2475	2944439.2944804.-	2944804	2944439	-	KZN_605
2515398.2516285.+	2515398	2516285	+	KZN_V2475	1893534.1894421.-	1894421	1893534	-	KZN_605
3431063.3431578.-	3431578	3431063	-	KZN_V2475	977468.977983.+	977468	977983	+	KZN_605
3875451.3876236.-	3876236	3875451	-	KZN_V2475	3880875.3881660.-	3881660	3880875	-	KZN_605
658563.659585.+	658563	659585	+	KZN_V2475	658638.659660.+	658638	659660	+	KZN_605
2893882.2894622.+	2893882	2894622	+	KZN_V2475	1515145.1515885.-	1515885	1515145	-	KZN_605
223544.223846.+	223544	223846	+	KZN_V2475	223544.223846.+	223544	223846	+	KZN_605
1185680.1186537.+	1185680	1186537	+	KZN_V2475	3225981.3226838.-	3226838	3225981	-	KZN_605
3662809.3663246.-	3663246	3662809	-	KZN_V2475	3668121.3668558.-	3668558	3668121	-	KZN_605
2819096.2820442.-	2820442	2819096	-	KZN_V2475	1589325.1590671.+	1589325	1590671	+	KZN_605
3858940.3859635.+	3858940	3859635	+	KZN_V2475	3864364.3865059.+	3864364	3865059	+	KZN_605
2642755.2643096.-	2643096	2642755	-	KZN_V2475	1766731.1767072.+	1766731	1767072	+	KZN_605
768095.768598.-	768598	768095	-	KZN_V2475	768161.768664.-	768664	768161	-	KZN_605
1177683.1178039.+	1177683	1178039	+	KZN_V2475	3234479.3234835.-	3234835	3234479	-	KZN_605
3352865.3353830.+	3352865	3353830	+	KZN_V2475	1055216.1056181.-	1056181	1055216	-	KZN_605
2250405.2250884.+	2250405	2250884	+	KZN_V2475	2161808.2162287.-	2162287	2161808	-	KZN_605
3164249.3165025.-	3165025	3164249	-	KZN_V2475	1244580.1245356.+	1244580	1245356	+	KZN_605
4001066.4001665.+	4001066	4001665	+	KZN_V2475	4002713.4003312.+	4002713	4003312	+	KZN_605
2113566.2114252.+	2113566	2114252	+	KZN_V2475	2298441.2299127.-	2299127	2298441	-	KZN_605
1849130.1850188.+	1849130	1850188	+	KZN_V2475	2562836.2563894.-	2563894	2562836	-	KZN_605
207389.208357.+	207389	208357	+	KZN_V2475	207389.208357.+	207389	208357	+	KZN_605
931730.932566.-	932566	931730	-	KZN_V2475	1330608.1331444.-	1331444	1330608	-	KZN_605
1976816.1977652.-	1977652	1976816	-	KZN_V2475	1330608.1331444.-	1331444	1330608	-	KZN_605
2036054.2036890.-	2036890	2036054	-	KZN_V2475	1330608.1331444.-	1331444	1330608	-	KZN_605
2360310.2361146.-	2361146	2360310	-	KZN_V2475	1330608.1331444.-	1331444	1330608	-	KZN_605
2547726.2548562.-	2548562	2547726	-	KZN_V2475	1330608.1331444.-	1331444	1330608	-	KZN_605
2627282.2628118.-	2628118	2627282	-	KZN_V2475	1330608.1331444.-	1331444	1330608	-	KZN_605
2802832.2803668.+	2802832	2803668	+	KZN_V2475	1330608.1331444.-	1331444	1330608	-	KZN_605
3078161.3078997.+	3078161	3078997	+	KZN_V2475	1330608.1331444.-	1331444	1330608	-	KZN_605
3116328.3117164.-	3117164	3116328	-	KZN_V2475	1330608.1331444.-	1331444	1330608	-	KZN_605
3476116.3476952.+	3476116	3476952	+	KZN_V2475	1330608.1331444.-	1331444	1330608	-	KZN_605
3704480.3705316.-	3705316	3704480	-	KZN_V2475	1330608.1331444.-	1331444	1330608	-	KZN_605
4062486.4063322.-	4063322	4062486	-	KZN_V2475	1330608.1331444.-	1331444	1330608	-	KZN_605
4287501.4288727.-	4288727	4287501	-	KZN_V2475	4289378.4290604.-	4290604	4289378	-	KZN_605
333375.335054.-	335054	333375	-	KZN_V2475	333376.335046.-	335046	333376	-	KZN_605
1385735.1386280.-	1386280	1385735	-	KZN_V2475	3026521.3027066.+	3026521	3027066	+	KZN_605
4370090.4371409.-	4371409	4370090	-	KZN_V2475	4371967.4373286.-	4373286	4371967	-	KZN_605
2446625.2446876.-	2446876	2446625	-	KZN_V2475	1962944.1963195.+	1962944	1963195	+	KZN_605
1159713.1160102.-	1160102	1159713	-	KZN_V2475	3252416.3252805.+	3252416	3252805	+	KZN_605
181924.183147.-	183147	181924	-	KZN_V2475	181924.183147.-	183147	181924	-	KZN_605
368912.376033.-	376033	368912	-	KZN_V2475	369007.376128.-	376128	369007	-	KZN_605
2522092.2522286.-	2522286	2522092	-	KZN_V2475	1887533.1887727.+	1887533	1887727	+	KZN_605
3131996.3132721.-	3132721	3131996	-	KZN_V2475	1276884.1277609.+	1276884	1277609	+	KZN_605
743497.747144.+	743497	747144	+	KZN_V2475	743563.747210.+	743563	747210	+	KZN_605
643134.644738.+	643134	644738	+	KZN_V2475	643209.644813.+	643209	644813	+	KZN_605
1206780.1207241.-	1207241	1206780	-	KZN_V2475	3205279.3205740.+	3205279	3205740	+	KZN_605
3967710.3968729.-	3968729	3967710	-	KZN_V2475	3969357.3970376.-	3970376	3969357	-	KZN_605
131514.133004.+	131514	133004	+	KZN_V2475	131513.133003.+	131513	133003	+	KZN_605
2196689.2196946.+	2196689	2196946	+	KZN_V2475	2215747.2216004.-	2216004	2215747	-	KZN_605
3869467.3870420.+	3869467	3870420	+	KZN_V2475	3874891.3875844.+	3874891	3875844	+	KZN_605
103840.104793.-	104793	103840	-	KZN_V2475	3874891.3875844.+	3874891	3875844	+	KZN_605
1778871.1779827.-	1779827	1778871	-	KZN_V2475	3874891.3875844.+	3874891	3875844	+	KZN_605
3106343.3106567.-	3106567	3106343	-	KZN_V2475	1303038.1303262.+	1303038	1303262	+	KZN_605
2785633.2787114.-	2787114	2785633	-	KZN_V2475	1622655.1624136.+	1622655	1624136	+	KZN_605
1262715.1262951.+	1262715	1262951	+	KZN_V2475	3149789.3150025.-	3150025	3149789	-	KZN_605
141326.142276.+	141326	142276	+	KZN_V2475	141325.142275.+	141325	142275	+	KZN_605
2322965.2323720.-	2323720	2322965	-	KZN_V2475	2087611.2088366.+	2087611	2088366	+	KZN_605
3942106.3943017.+	3942106	3943017	+	KZN_V2475	3943753.3944664.+	3943753	3944664	+	KZN_605
2358120.2358836.+	2358120	2358836	+	KZN_V2475	2052483.2053199.-	2053199	2052483	-	KZN_605
2202625.2203866.+	2202625	2203866	+	KZN_V2475	2208826.2210067.-	2210067	2208826	-	KZN_605
3352488.3352691.-	3352691	3352488	-	KZN_V2475	1056355.1056558.+	1056355	1056558	+	KZN_605
2955944.2958280.-	2958280	2955944	-	KZN_V2475	1451486.1453822.+	1451486	1453822	+	KZN_605
2743570.2746230.-	2746230	2743570	-	KZN_V2475	1663539.1666199.+	1663539	1666199	+	KZN_605
4148256.4149656.+	4148256	4149656	+	KZN_V2475	4150133.4151533.+	4150133	4151533	+	KZN_605
563749.565119.+	563749	565119	+	KZN_V2475	563824.565194.+	563824	565194	+	KZN_605
848988.850928.-	850928	848988	-	KZN_V2475	849307.851247.-	851247	849307	-	KZN_605
1635639.1637852.-	1637852	1635639	-	KZN_V2475	2775173.2777386.+	2775173	2777386	+	KZN_605
1978882.1981617.-	1981617	1978882	-	KZN_V2475	2431133.2433877.+	2431133	2433877	+	KZN_605
1531712.1531936.-	1531936	1531712	-	KZN_V2475	2880920.2881144.+	2880920	2881144	+	KZN_605
2037686.2038033.-	2038033	2037686	-	KZN_V2475	2374717.2375064.+	2374717	2375064	+	KZN_605
3345537.3346256.-	3346256	3345537	-	KZN_V2475	1062790.1063509.+	1062790	1063509	+	KZN_605
2859047.2860252.-	2860252	2859047	-	KZN_V2475	1549515.1550720.+	1549515	1550720	+	KZN_605
2602093.2602848.+	2602093	2602848	+	KZN_V2475	1806979.1807734.-	1807734	1806979	-	KZN_605
2074446.2074646.+	2074446	2074646	+	KZN_V2475	2338048.2338248.-	2338248	2338048	-	KZN_605
1300558.1300860.-	1300860	1300558	-	KZN_V2475	3111880.3112182.+	3111880	3112182	+	KZN_605
144181.145758.+	144181	145758	+	KZN_V2475	144180.145757.+	144180	145757	+	KZN_605
4396224.4396574.-	4396574	4396224	-	KZN_V2475	4398101.4398451.-	4398451	4398101	-	KZN_605
254576.255907.-	255907	254576	-	KZN_V2475	254577.255908.-	255908	254577	-	KZN_605
736543.737490.-	737490	736543	-	KZN_V2475	736609.737556.-	737556	736609	-	KZN_605
677370.677861.-	677861	677370	-	KZN_V2475	677436.677927.-	677927	677436	-	KZN_605
2549051.2549245.+	2549051	2549245	+	KZN_V2475	1860573.1860767.-	1860767	1860573	-	KZN_605
1900855.1901079.+	1900855	1901079	+	KZN_V2475	2511774.2511998.-	2511998	2511774	-	KZN_605
4186359.4187264.+	4186359	4187264	+	KZN_V2475	4188236.4189141.+	4188236	4189141	+	KZN_605
53765.55801.+	53765	55801	+	KZN_V2475	53765.55801.+	53765	55801	+	KZN_605
945184.945576.+	945184	945576	+	KZN_V2475	3467060.3467452.-	3467452	3467060	-	KZN_605
2764206.2765012.+	2764206	2765012	+	KZN_V2475	1644757.1645563.-	1645563	1644757	-	KZN_605
3715308.3715694.+	3715308	3715694	+	KZN_V2475	3720678.3721064.+	3720678	3721064	+	KZN_605
1803598.1805007.+	1803598	1805007	+	KZN_V2475	2608018.2609427.-	2609427	2608018	-	KZN_605
2756829.2758355.+	2756829	2758355	+	KZN_V2475	1651414.1652940.-	1652940	1651414	-	KZN_605
677972.678820.-	678820	677972	-	KZN_V2475	678038.678886.-	678886	678038	-	KZN_605
931730.932566.-	932566	931730	-	KZN_V2475	2375860.2376696.+	2375860	2376696	+	KZN_605
1976816.1977652.-	1977652	1976816	-	KZN_V2475	2375860.2376696.+	2375860	2376696	+	KZN_605
2036054.2036890.-	2036890	2036054	-	KZN_V2475	2375860.2376696.+	2375860	2376696	+	KZN_605
2360310.2361146.-	2361146	2360310	-	KZN_V2475	2375860.2376696.+	2375860	2376696	+	KZN_605
2547726.2548562.-	2548562	2547726	-	KZN_V2475	2375860.2376696.+	2375860	2376696	+	KZN_605
2627282.2628118.-	2628118	2627282	-	KZN_V2475	2375860.2376696.+	2375860	2376696	+	KZN_605
2802832.2803668.+	2802832	2803668	+	KZN_V2475	2375860.2376696.+	2375860	2376696	+	KZN_605
3078161.3078997.+	3078161	3078997	+	KZN_V2475	2375860.2376696.+	2375860	2376696	+	KZN_605
3116328.3117164.-	3117164	3116328	-	KZN_V2475	2375860.2376696.+	2375860	2376696	+	KZN_605
3476116.3476952.+	3476116	3476952	+	KZN_V2475	2375860.2376696.+	2375860	2376696	+	KZN_605
3704480.3705316.-	3705316	3704480	-	KZN_V2475	2375860.2376696.+	2375860	2376696	+	KZN_605
4062486.4063322.-	4063322	4062486	-	KZN_V2475	2375860.2376696.+	2375860	2376696	+	KZN_605
2127267.2127986.-	2127986	2127267	-	KZN_V2475	2284707.2285426.+	2284707	2285426	+	KZN_605
594032.594940.-	594940	594032	-	KZN_V2475	594107.595015.-	595015	594107	-	KZN_605
1159713.1160207.-	1160207	1159713	-	KZN_V2475	3252311.3252805.+	3252311	3252805	+	KZN_605
1170172.1171467.+	1170172	1171467	+	KZN_V2475	1031112.1032407.+	1031112	1032407	+	KZN_605
1342095.1343390.-	1343390	1342095	-	KZN_V2475	1031112.1032407.+	1031112	1032407	+	KZN_605
2824396.2825691.-	2825691	2824396	-	KZN_V2475	1031112.1032407.+	1031112	1032407	+	KZN_605
3376639.3377934.-	3377934	3376639	-	KZN_V2475	1031112.1032407.+	1031112	1032407	+	KZN_605
3478027.3479322.+	3478027	3479322	+	KZN_V2475	1031112.1032407.+	1031112	1032407	+	KZN_605
1170220.1171467.+	1170220	1171467	+	KZN_V2475	3482029.3483276.+	3482029	3483276	+	KZN_605
1342095.1343342.-	1343342	1342095	-	KZN_V2475	3482029.3483276.+	3482029	3483276	+	KZN_605
2824396.2825643.-	2825643	2824396	-	KZN_V2475	3482029.3483276.+	3482029	3483276	+	KZN_605
3376639.3377886.-	3377886	3376639	-	KZN_V2475	3482029.3483276.+	3482029	3483276	+	KZN_605
3478075.3479322.+	3478075	3479322	+	KZN_V2475	3482029.3483276.+	3482029	3483276	+	KZN_605
2958309.2958551.+	2958309	2958551	+	KZN_V2475	1451215.1451457.-	1451457	1451215	-	KZN_605
2157388.2160429.-	2160429	2157388	-	KZN_V2475	2252264.2255305.+	2252264	2255305	+	KZN_605
2494446.2494748.-	2494748	2494446	-	KZN_V2475	1915071.1915373.+	1915071	1915373	+	KZN_605
4037437.4038138.+	4037437	4038138	+	KZN_V2475	4039084.4039785.+	4039084	4039785	+	KZN_605
3308815.3309228.-	3309228	3308815	-	KZN_V2475	1099877.1100290.+	1099877	1100290	+	KZN_605
1170220.1171467.+	1170220	1171467	+	KZN_V2475	1584124.1585371.+	1584124	1585371	+	KZN_605
1342095.1343342.-	1343342	1342095	-	KZN_V2475	1584124.1585371.+	1584124	1585371	+	KZN_605
2824396.2825643.-	2825643	2824396	-	KZN_V2475	1584124.1585371.+	1584124	1585371	+	KZN_605
3376639.3377886.-	3377886	3376639	-	KZN_V2475	1584124.1585371.+	1584124	1585371	+	KZN_605
3478075.3479322.+	3478075	3479322	+	KZN_V2475	1584124.1585371.+	1584124	1585371	+	KZN_605
4117629.4118330.+	4117629	4118330	+	KZN_V2475	4119447.4120148.+	4119447	4120148	+	KZN_605
1781764.1782003.+	1781764	1782003	+	KZN_V2475	2631022.2631261.-	2631261	2631022	-	KZN_605
1591069.1591533.+	1591069	1591533	+	KZN_V2475	2821322.2821786.-	2821786	2821322	-	KZN_605
1611722.1612351.-	1612351	1611722	-	KZN_V2475	2800503.2801132.+	2800503	2801132	+	KZN_605
2201366.2202598.+	2201366	2202598	+	KZN_V2475	2210094.2211326.-	2211326	2210094	-	KZN_605
1283792.1284907.-	1284907	1283792	-	KZN_V2475	3127833.3128948.+	3127833	3128948	+	KZN_605
4037532.4038185.+	4037532	4038185	+	KZN_V2475	4039179.4039832.+	4039179	4039832	+	KZN_605
3291850.3292140.-	3292140	3291850	-	KZN_V2475	1116965.1117255.+	1116965	1117255	+	KZN_605
710590.710832.+	710590	710832	+	KZN_V2475	710656.710898.+	710656	710898	+	KZN_605
2039920.2041149.+	2039920	2041149	+	KZN_V2475	2371601.2372830.-	2372830	2371601	-	KZN_605
4118456.4119457.+	4118456	4119457	+	KZN_V2475	4120274.4121275.+	4120274	4121275	+	KZN_605
1951673.1952170.-	1952170	1951673	-	KZN_V2475	2460739.2461236.+	2460739	2461236	+	KZN_605
1274000.1275502.+	1274000	1275502	+	KZN_V2475	3137238.3138740.-	3138740	3137238	-	KZN_605
2074643.2076850.-	2076850	2074643	-	KZN_V2475	2335844.2338051.+	2335844	2338051	+	KZN_605
2623657.2625195.-	2625195	2623657	-	KZN_V2475	1784632.1786170.+	1784632	1786170	+	KZN_605
1611722.1612384.-	1612384	1611722	-	KZN_V2475	2800470.2801132.+	2800470	2801132	+	KZN_605
2527154.2528752.-	2528752	2527154	-	KZN_V2475	1881067.1882665.+	1881067	1882665	+	KZN_605
2706323.2707273.-	2707273	2706323	-	KZN_V2475	1702496.1703446.+	1702496	1703446	+	KZN_605
3801974.3802600.+	3801974	3802600	+	KZN_V2475	3807341.3807967.+	3807341	3807967	+	KZN_605
1229506.1230177.+	1229506	1230177	+	KZN_V2475	3182564.3183235.-	3183235	3182564	-	KZN_605
931730.932566.-	932566	931730	-	KZN_V2475	2435107.2435943.+	2435107	2435943	+	KZN_605
1976816.1977652.-	1977652	1976816	-	KZN_V2475	2435107.2435943.+	2435107	2435943	+	KZN_605
2036054.2036890.-	2036890	2036054	-	KZN_V2475	2435107.2435943.+	2435107	2435943	+	KZN_605
2360310.2361146.-	2361146	2360310	-	KZN_V2475	2435107.2435943.+	2435107	2435943	+	KZN_605
2547726.2548562.-	2548562	2547726	-	KZN_V2475	2435107.2435943.+	2435107	2435943	+	KZN_605
2627282.2628118.-	2628118	2627282	-	KZN_V2475	2435107.2435943.+	2435107	2435943	+	KZN_605
2802832.2803668.+	2802832	2803668	+	KZN_V2475	2435107.2435943.+	2435107	2435943	+	KZN_605
3078161.3078997.+	3078161	3078997	+	KZN_V2475	2435107.2435943.+	2435107	2435943	+	KZN_605
3116328.3117164.-	3117164	3116328	-	KZN_V2475	2435107.2435943.+	2435107	2435943	+	KZN_605
3476116.3476952.+	3476116	3476952	+	KZN_V2475	2435107.2435943.+	2435107	2435943	+	KZN_605
3704480.3705316.-	3705316	3704480	-	KZN_V2475	2435107.2435943.+	2435107	2435943	+	KZN_605
4062486.4063322.-	4063322	4062486	-	KZN_V2475	2435107.2435943.+	2435107	2435943	+	KZN_605
2970409.2970900.-	2970900	2970409	-	KZN_V2475	1438866.1439357.+	1438866	1439357	+	KZN_605
2721553.2721822.+	2721553	2721822	+	KZN_V2475	1687947.1688216.-	1688216	1687947	-	KZN_605
988084.989556.+	988084	989556	+	KZN_V2475	3423027.3424499.-	3424499	3423027	-	KZN_605
1702273.1702692.+	1702273	1702692	+	KZN_V2475	2710333.2710752.-	2710752	2710333	-	KZN_605
655169.656254.-	656254	655169	-	KZN_V2475	655244.656329.-	656329	655244	-	KZN_605
3786425.3786706.-	3786706	3786425	-	KZN_V2475	3791795.3792076.-	3792076	3791795	-	KZN_605
1940900.1941319.-	1941319	1940900	-	KZN_V2475	2471533.2471952.+	2471533	2471952	+	KZN_605
3991913.3992764.-	3992764	3991913	-	KZN_V2475	3993560.3994411.-	3994411	3993560	-	KZN_605
1929107.1929871.+	1929107	1929871	+	KZN_V2475	2482981.2483745.-	2483745	2482981	-	KZN_605
2329802.2330116.+	2329802	2330116	+	KZN_V2475	2081215.2081529.-	2081529	2081215	-	KZN_605
26014.26982.-	26982	26014	-	KZN_V2475	26014.26982.-	26982	26014	-	KZN_605
1890241.1890516.+	1890241	1890516	+	KZN_V2475	2522337.2522612.-	2522612	2522337	-	KZN_605
4146450.4146833.-	4146833	4146450	-	KZN_V2475	4148327.4148710.-	4148710	4148327	-	KZN_605
507943.508770.-	508770	507943	-	KZN_V2475	508018.508845.-	508845	508018	-	KZN_605
3016938.3017909.+	3016938	3017909	+	KZN_V2475	1391696.1392667.-	1392667	1391696	-	KZN_605
1166577.1167608.-	1167608	1166577	-	KZN_V2475	3244910.3245941.+	3244910	3245941	+	KZN_605
1147356.1147823.+	1147356	1147823	+	KZN_V2475	3264695.3265162.-	3265162	3264695	-	KZN_605
4057249.4058217.-	4058217	4057249	-	KZN_V2475	4058896.4059864.-	4059864	4058896	-	KZN_605
65093.65518.+	65093	65518	+	KZN_V2475	65092.65517.+	65092	65517	+	KZN_605
3773114.3776353.-	3776353	3773114	-	KZN_V2475	3778484.3781723.-	3781723	3778484	-	KZN_605
4111377.4112417.+	4111377	4112417	+	KZN_V2475	4113195.4114235.+	4113195	4114235	+	KZN_605
1376968.1377564.-	1377564	1376968	-	KZN_V2475	3035237.3035833.+	3035237	3035833	+	KZN_605
1801557.1802789.+	1801557	1802789	+	KZN_V2475	2610236.2611468.-	2611468	2610236	-	KZN_605
3574185.3574403.+	3574185	3574403	+	KZN_V2475	3579497.3579715.+	3579497	3579715	+	KZN_605
2382553.2382819.-	2382819	2382553	-	KZN_V2475	2027000.2027266.+	2027000	2027266	+	KZN_605
895348.897612.+	895348	897612	+	KZN_V2475	895667.897931.+	895667	897931	+	KZN_605
1115181.1115501.-	1115501	1115181	-	KZN_V2475	3297016.3297336.+	3297016	3297336	+	KZN_605
1533182.1534372.-	1534372	1533182	-	KZN_V2475	2878484.2879674.+	2878484	2879674	+	KZN_605
3878571.3879752.+	3878571	3879752	+	KZN_V2475	2878484.2879674.+	2878484	2879674	+	KZN_605
1340086.1341261.+	1340086	1341261	+	KZN_V2475	2878484.2879674.+	2878484	2879674	+	KZN_605
1074929.1075270.+	1074929	1075270	+	KZN_V2475	3337313.3337654.-	3337654	3337313	-	KZN_605
179256.180833.-	180833	179256	-	KZN_V2475	179256.180833.-	180833	179256	-	KZN_605
3413976.3414626.-	3414626	3413976	-	KZN_V2475	994420.995070.+	994420	995070	+	KZN_605
2311424.2311837.-	2311837	2311424	-	KZN_V2475	2099494.2099907.+	2099494	2099907	+	KZN_605
2701989.2702708.+	2701989	2702708	+	KZN_V2475	1707061.1707780.-	1707780	1707061	-	KZN_605
3234101.3235015.-	3235015	3234101	-	KZN_V2475	1174090.1175004.+	1174090	1175004	+	KZN_605
569149.569991.-	569991	569149	-	KZN_V2475	569224.570066.-	570066	569224	-	KZN_605
1587152.1587871.-	1587871	1587152	-	KZN_V2475	2824984.2825703.+	2824984	2825703	+	KZN_605
2872416.2872817.-	2872817	2872416	-	KZN_V2475	1536950.1537351.+	1536950	1537351	+	KZN_605
806683.807051.+	806683	807051	+	KZN_V2475	806803.807171.+	806803	807171	+	KZN_605
2019165.2019284.+	2019165	2019284	+	KZN_V2475	2393466.2393585.-	2393585	2393466	-	KZN_605
2756739.2758355.+	2756739	2758355	+	KZN_V2475	1651414.1653030.-	1653030	1651414	-	KZN_605
3014677.3014934.-	3014934	3014677	-	KZN_V2475	1394671.1394928.+	1394671	1394928	+	KZN_605
4195520.4196947.-	4196947	4195520	-	KZN_V2475	4197397.4198824.-	4198824	4197397	-	KZN_605
2750718.2752694.-	2752694	2750718	-	KZN_V2475	1657075.1659051.+	1657075	1659051	+	KZN_605
1170157.1171467.+	1170157	1171467	+	KZN_V2475	3241051.3242361.-	3242361	3241051	-	KZN_605
1342095.1343405.-	1343405	1342095	-	KZN_V2475	3241051.3242361.-	3242361	3241051	-	KZN_605
2824396.2825706.-	2825706	2824396	-	KZN_V2475	3241051.3242361.-	3242361	3241051	-	KZN_605
3376639.3377949.-	3377949	3376639	-	KZN_V2475	3241051.3242361.-	3242361	3241051	-	KZN_605
3478012.3479322.+	3478012	3479322	+	KZN_V2475	3241051.3242361.-	3242361	3241051	-	KZN_605
53456.55801.+	53456	55801	+	KZN_V2475	53456.55801.+	53456	55801	+	KZN_605
842918.843163.+	842918	843163	+	KZN_V2475	843237.843482.+	843237	843482	+	KZN_605
832943.833188.+	832943	833188	+	KZN_V2475	843237.843482.+	843237	843482	+	KZN_605
3016025.3016342.-	3016342	3016025	-	KZN_V2475	1393263.1393580.+	1393263	1393580	+	KZN_605
677370.677948.-	677948	677370	-	KZN_V2475	677436.678014.-	678014	677436	-	KZN_605
1668059.1668820.+	1668059	1668820	+	KZN_V2475	2744205.2744966.-	2744966	2744205	-	KZN_605
2917390.2919021.+	2917390	2919021	+	KZN_V2475	1490745.1492376.-	1492376	1490745	-	KZN_605
2445282.2446439.-	2446439	2445282	-	KZN_V2475	1963381.1964538.+	1963381	1964538	+	KZN_605
2942273.2942950.+	2942273	2942950	+	KZN_V2475	1466816.1467493.-	1467493	1466816	-	KZN_605
2877597.2877986.+	2877597	2877986	+	KZN_V2475	1531781.1532170.-	1532170	1531781	-	KZN_605
2620292.2621818.-	2621818	2620292	-	KZN_V2475	1788009.1789535.+	1788009	1789535	+	KZN_605
1268938.1269753.-	1269753	1268938	-	KZN_V2475	3142987.3143802.+	3142987	3143802	+	KZN_605
2172199.2172978.-	2172978	2172199	-	KZN_V2475	2239715.2240494.+	2239715	2240494	+	KZN_605
829832.830044.+	829832	830044	+	KZN_V2475	829952.830164.+	829952	830164	+	KZN_605
2051177.2052673.-	2052673	2051177	-	KZN_V2475	2360077.2361573.+	2360077	2361573	+	KZN_605
4279163.4285474.-	4285474	4279163	-	KZN_V2475	4281040.4287351.-	4287351	4281040	-	KZN_605
3499569.3499883.-	3499883	3499569	-	KZN_V2475	3504881.3505195.-	3505195	3504881	-	KZN_605
3335117.3337345.+	3335117	3337345	+	KZN_V2475	1071701.1073929.-	1073929	1071701	-	KZN_605
2082146.2083585.-	2083585	2082146	-	KZN_V2475	2329109.2330548.+	2329109	2330548	+	KZN_605
544921.545307.-	545307	544921	-	KZN_V2475	544996.545382.-	545382	544996	-	KZN_605
800406.800627.+	800406	800627	+	KZN_V2475	800472.800693.+	800472	800693	+	KZN_605
709844.710593.+	709844	710593	+	KZN_V2475	709910.710659.+	709910	710659	+	KZN_605
2321309.2322244.+	2321309	2322244	+	KZN_V2475	2089087.2090022.-	2090022	2089087	-	KZN_605
3982565.3984220.+	3982565	3984220	+	KZN_V2475	3984212.3985867.+	3984212	3985867	+	KZN_605
4093398.4093607.+	4093398	4093607	+	KZN_V2475	4095045.4095254.+	4095045	4095254	+	KZN_605
1315971.1320719.+	1315971	1320719	+	KZN_V2475	3092083.3096831.-	3096831	3092083	-	KZN_605
3856587.3857999.-	3857999	3856587	-	KZN_V2475	3862011.3863423.-	3863423	3862011	-	KZN_605
3697264.3697665.-	3697665	3697264	-	KZN_V2475	3702634.3703035.-	3703035	3702634	-	KZN_605
2555709.2556224.+	2555709	2556224	+	KZN_V2475	1853594.1854109.-	1854109	1853594	-	KZN_605
1314462.1320719.+	1314462	1320719	+	KZN_V2475	3092083.3098340.-	3098340	3092083	-	KZN_605
1852777.1853937.-	1853937	1852777	-	KZN_V2475	2559087.2560247.+	2559087	2560247	+	KZN_605
2780095.2780580.-	2780580	2780095	-	KZN_V2475	1629189.1629674.+	1629189	1629674	+	KZN_605
515558.516133.-	516133	515558	-	KZN_V2475	515633.516208.-	516208	515633	-	KZN_605
4354456.4356174.-	4356174	4354456	-	KZN_V2475	4356333.4358051.-	4358051	4356333	-	KZN_605
2090903.2091529.+	2090903	2091529	+	KZN_V2475	2321165.2321791.-	2321791	2321165	-	KZN_605
475968.476438.-	476438	475968	-	KZN_V2475	476043.476513.-	476513	476043	-	KZN_605
931730.932566.-	932566	931730	-	KZN_V2475	3480070.3480906.+	3480070	3480906	+	KZN_605
1976816.1977652.-	1977652	1976816	-	KZN_V2475	3480070.3480906.+	3480070	3480906	+	KZN_605
2036054.2036890.-	2036890	2036054	-	KZN_V2475	3480070.3480906.+	3480070	3480906	+	KZN_605
2360310.2361146.-	2361146	2360310	-	KZN_V2475	3480070.3480906.+	3480070	3480906	+	KZN_605
2547726.2548562.-	2548562	2547726	-	KZN_V2475	3480070.3480906.+	3480070	3480906	+	KZN_605
2627282.2628118.-	2628118	2627282	-	KZN_V2475	3480070.3480906.+	3480070	3480906	+	KZN_605
2802832.2803668.+	2802832	2803668	+	KZN_V2475	3480070.3480906.+	3480070	3480906	+	KZN_605
3078161.3078997.+	3078161	3078997	+	KZN_V2475	3480070.3480906.+	3480070	3480906	+	KZN_605
3116328.3117164.-	3117164	3116328	-	KZN_V2475	3480070.3480906.+	3480070	3480906	+	KZN_605
3476116.3476952.+	3476116	3476952	+	KZN_V2475	3480070.3480906.+	3480070	3480906	+	KZN_605
3704480.3705316.-	3705316	3704480	-	KZN_V2475	3480070.3480906.+	3480070	3480906	+	KZN_605
4062486.4063322.-	4063322	4062486	-	KZN_V2475	3480070.3480906.+	3480070	3480906	+	KZN_605
1170172.1171467.+	1170172	1171467	+	KZN_V2475	1584076.1585371.+	1584076	1585371	+	KZN_605
1342095.1343390.-	1343390	1342095	-	KZN_V2475	1584076.1585371.+	1584076	1585371	+	KZN_605
2824396.2825691.-	2825691	2824396	-	KZN_V2475	1584076.1585371.+	1584076	1585371	+	KZN_605
3376639.3377934.-	3377934	3376639	-	KZN_V2475	1584076.1585371.+	1584076	1585371	+	KZN_605
3478027.3479322.+	3478027	3479322	+	KZN_V2475	1584076.1585371.+	1584076	1585371	+	KZN_605
1693672.1694112.-	1694112	1693672	-	KZN_V2475	2718913.2719353.+	2718913	2719353	+	KZN_605
3643290.3644030.+	3643290	3644030	+	KZN_V2475	3648602.3649342.+	3648602	3649342	+	KZN_605
3959945.3961645.+	3959945	3961645	+	KZN_V2475	3961592.3963292.+	3961592	3963292	+	KZN_605
3130262.3131149.-	3131149	3130262	-	KZN_V2475	1278456.1279343.+	1278456	1279343	+	KZN_605
3448187.3449608.+	3448187	3449608	+	KZN_V2475	959438.960859.-	960859	959438	-	KZN_605
714447.715511.+	714447	715511	+	KZN_V2475	714513.715577.+	714513	715577	+	KZN_605
241915.243153.-	243153	241915	-	KZN_V2475	241915.243153.-	243153	241915	-	KZN_605
3442669.3443691.-	3443691	3442669	-	KZN_V2475	965355.966377.+	965355	966377	+	KZN_605
534630.534818.-	534818	534630	-	KZN_V2475	534705.534893.-	534893	534705	-	KZN_605
3180221.3180412.+	3180221	3180412	+	KZN_V2475	1229085.1229276.-	1229276	1229085	-	KZN_605
3705790.3705993.-	3705993	3705790	-	KZN_V2475	3711160.3711363.-	3711363	3711160	-	KZN_605
1576127.1576912.+	1576127	1576912	+	KZN_V2475	2835943.2836728.-	2836728	2835943	-	KZN_605
3389283.3390137.-	3390137	3389283	-	KZN_V2475	1018909.1019763.+	1018909	1019763	+	KZN_605
3745897.3746637.-	3746637	3745897	-	KZN_V2475	3751267.3752007.-	3752007	3751267	-	KZN_605
3016025.3016312.-	3016312	3016025	-	KZN_V2475	1393293.1393580.+	1393293	1393580	+	KZN_605
456451.457002.-	457002	456451	-	KZN_V2475	456526.457077.-	457077	456526	-	KZN_605
386393.387247.+	386393	387247	+	KZN_V2475	386518.387372.+	386518	387372	+	KZN_605
530481.530867.-	530867	530481	-	KZN_V2475	530556.530942.-	530942	530556	-	KZN_605
3585554.3586165.+	3585554	3586165	+	KZN_V2475	3590866.3591477.+	3590866	3591477	+	KZN_605
536689.537354.-	537354	536689	-	KZN_V2475	536764.537429.-	537429	536764	-	KZN_605
2282624.2283421.-	2283421	2282624	-	KZN_V2475	2127913.2128710.+	2127913	2128710	+	KZN_605
2450804.2451562.+	2450804	2451562	+	KZN_V2475	1958258.1959016.-	1959016	1958258	-	KZN_605
3869461.3870420.+	3869461	3870420	+	KZN_V2475	3874885.3875844.+	3874885	3875844	+	KZN_605
103840.104799.-	104799	103840	-	KZN_V2475	3874885.3875844.+	3874885	3875844	+	KZN_605
1778871.1779833.-	1779833	1778871	-	KZN_V2475	3874885.3875844.+	3874885	3875844	+	KZN_605
760585.764103.+	760585	764103	+	KZN_V2475	760651.764169.+	760651	764169	+	KZN_605
3005876.3006244.-	3006244	3005876	-	KZN_V2475	1403361.1403729.+	1403361	1403729	+	KZN_605
1169432.1170025.-	1170025	1169432	-	KZN_V2475	3242493.3243086.+	3242493	3243086	+	KZN_605
3879965.3883030.+	3879965	3883030	+	KZN_V2475	3885389.3888454.+	3885389	3888454	+	KZN_605
1988372.1988647.+	1988372	1988647	+	KZN_V2475	2424103.2424378.-	2424378	2424103	-	KZN_605
3617080.3618831.-	3618831	3617080	-	KZN_V2475	3622392.3624143.-	3624143	3622392	-	KZN_605
41406.42014.+	41406	42014	+	KZN_V2475	41406.42014.+	41406	42014	+	KZN_605
552211.552735.+	552211	552735	+	KZN_V2475	552286.552810.+	552286	552810	+	KZN_605
1170157.1171467.+	1170157	1171467	+	KZN_V2475	3069397.3070707.+	3069397	3070707	+	KZN_605
1342095.1343405.-	1343405	1342095	-	KZN_V2475	3069397.3070707.+	3069397	3070707	+	KZN_605
2824396.2825706.-	2825706	2824396	-	KZN_V2475	3069397.3070707.+	3069397	3070707	+	KZN_605
3376639.3377949.-	3377949	3376639	-	KZN_V2475	3069397.3070707.+	3069397	3070707	+	KZN_605
3478012.3479322.+	3478012	3479322	+	KZN_V2475	3069397.3070707.+	3069397	3070707	+	KZN_605
2562096.2563163.+	2562096	2563163	+	KZN_V2475	1846655.1847722.-	1847722	1846655	-	KZN_605
1385727.1387415.-	1387415	1385727	-	KZN_V2475	3025386.3027074.+	3025386	3027074	+	KZN_605
2621901.2623439.-	2623439	2621901	-	KZN_V2475	1786388.1787926.+	1786388	1787926	+	KZN_605
1790013.1791329.+	1790013	1791329	+	KZN_V2475	2621696.2623012.-	2623012	2621696	-	KZN_605
1861272.1861784.+	1861272	1861784	+	KZN_V2475	2551240.2551752.-	2551752	2551240	-	KZN_605
2433049.2433231.-	2433231	2433049	-	KZN_V2475	1976589.1976771.+	1976589	1976771	+	KZN_605
975141.976787.-	976787	975141	-	KZN_V2475	3435796.3437442.+	3435796	3437442	+	KZN_605
3658714.3659679.+	3658714	3659679	+	KZN_V2475	3664026.3664991.+	3664026	3664991	+	KZN_605
1486051.1486509.-	1486509	1486051	-	KZN_V2475	2926347.2926805.+	2926347	2926805	+	KZN_605
3535129.3536475.+	3535129	3536475	+	KZN_V2475	3540441.3541787.+	3540441	3541787	+	KZN_605
977708.978985.-	978985	977708	-	KZN_V2475	3433598.3434875.+	3433598	3434875	+	KZN_605
237831.238334.-	238334	237831	-	KZN_V2475	237831.238334.-	238334	237831	-	KZN_605
3860325.3861593.+	3860325	3861593	+	KZN_V2475	3865749.3867017.+	3865749	3867017	+	KZN_605
3747556.3758580.-	3758580	3747556	-	KZN_V2475	3752926.3763950.-	3763950	3752926	-	KZN_605
4049433.4050485.-	4050485	4049433	-	KZN_V2475	4051080.4052132.-	4052132	4051080	-	KZN_605
33683.33895.+	33683	33895	+	KZN_V2475	33683.33895.+	33683	33895	+	KZN_605
698149.698655.-	698655	698149	-	KZN_V2475	698215.698721.-	698721	698215	-	KZN_605
2688807.2689892.+	2688807	2689892	+	KZN_V2475	1719934.1721019.-	1721019	1719934	-	KZN_605
1991267.1992511.+	1991267	1992511	+	KZN_V2475	2420239.2421483.-	2421483	2420239	-	KZN_605
3641806.3643302.+	3641806	3643302	+	KZN_V2475	3647118.3648614.+	3647118	3648614	+	KZN_605
3196351.3197577.-	3197577	3196351	-	KZN_V2475	1211920.1213146.+	1211920	1213146	+	KZN_605
1031430.1032716.-	1032716	1031430	-	KZN_V2475	3379867.3381153.+	3379867	3381153	+	KZN_605
710829.711095.-	711095	710829	-	KZN_V2475	710895.711161.-	711161	710895	-	KZN_605
1198019.1198525.+	1198019	1198525	+	KZN_V2475	3213996.3214502.-	3214502	3213996	-	KZN_605
1426176.1426652.-	1426652	1426176	-	KZN_V2475	2986148.2986624.+	2986148	2986624	+	KZN_605
4337004.4338119.+	4337004	4338119	+	KZN_V2475	4338881.4339996.+	4338881	4339996	+	KZN_605
186432.186557.-	186557	186432	-	KZN_V2475	186432.186557.-	186557	186432	-	KZN_605
2197428.2198237.+	2197428	2198237	+	KZN_V2475	2214456.2215265.-	2215265	2214456	-	KZN_605
1017064.1017537.+	1017064	1017537	+	KZN_V2475	3395046.3395519.-	3395519	3395046	-	KZN_605
2903665.2906046.-	2906046	2903665	-	KZN_V2475	1503720.1506101.+	1503720	1506101	+	KZN_605
995913.996191.+	995913	996191	+	KZN_V2475	3416392.3416670.-	3416670	3416392	-	KZN_605
3524015.3525946.-	3525946	3524015	-	KZN_V2475	3529327.3531258.-	3531258	3529327	-	KZN_605
2401366.2402151.-	2402151	2401366	-	KZN_V2475	2007668.2008453.+	2007668	2008453	+	KZN_605
1919400.1919990.-	1919990	1919400	-	KZN_V2475	2492863.2493453.+	2492863	2493453	+	KZN_605
968739.969146.+	968739	969146	+	KZN_V2475	3443437.3443844.-	3443844	3443437	-	KZN_605
627538.628533.+	627538	628533	+	KZN_V2475	627613.628608.+	627613	628608	+	KZN_605
2645954.2646256.-	2646256	2645954	-	KZN_V2475	1763571.1763873.+	1763571	1763873	+	KZN_605
3097417.3098022.-	3098022	3097417	-	KZN_V2475	1311583.1312188.+	1311583	1312188	+	KZN_605
1892660.1893568.+	1892660	1893568	+	KZN_V2475	2519285.2520193.-	2520193	2519285	-	KZN_605
2394960.2396312.-	2396312	2394960	-	KZN_V2475	2013507.2014859.+	2013507	2014859	+	KZN_605
21738.23273.-	23273	21738	-	KZN_V2475	21738.23273.-	23273	21738	-	KZN_605
3067607.3068092.-	3068092	3067607	-	KZN_V2475	1341513.1341998.+	1341513	1341998	+	KZN_605
2462497.2463573.-	2463573	2462497	-	KZN_V2475	1946247.1947323.+	1946247	1947323	+	KZN_605
4114689.4115027.-	4115027	4114689	-	KZN_V2475	4116507.4116845.-	4116845	4116507	-	KZN_605
879525.880211.+	879525	880211	+	KZN_V2475	879844.880530.+	879844	880530	+	KZN_605
200911.202416.+	200911	202416	+	KZN_V2475	200911.202416.+	200911	202416	+	KZN_605
172139.173080.+	172139	173080	+	KZN_V2475	172139.173080.+	172139	173080	+	KZN_605
3508306.3508692.+	3508306	3508692	+	KZN_V2475	3513618.3514004.+	3513618	3514004	+	KZN_605
2381786.2382556.-	2382556	2381786	-	KZN_V2475	2027263.2028033.+	2027263	2028033	+	KZN_605
1702726.1703772.+	1702726	1703772	+	KZN_V2475	2709253.2710299.-	2710299	2709253	-	KZN_605
4089613.4090476.-	4090476	4089613	-	KZN_V2475	4091260.4092123.-	4092123	4091260	-	KZN_605
1277035.1277595.-	1277595	1277035	-	KZN_V2475	3135145.3135705.+	3135145	3135705	+	KZN_605
3039463.3041001.-	3041001	3039463	-	KZN_V2475	1368604.1370142.+	1368604	1370142	+	KZN_605
3358611.3358949.+	3358611	3358949	+	KZN_V2475	1050097.1050435.-	1050435	1050097	-	KZN_605
462318.463490.+	462318	463490	+	KZN_V2475	462393.463565.+	462393	463565	+	KZN_605
2087211.2087531.+	2087211	2087531	+	KZN_V2475	2325163.2325483.-	2325483	2325163	-	KZN_605
4021180.4021878.-	4021878	4021180	-	KZN_V2475	4022827.4023525.-	4023525	4022827	-	KZN_605
1273158.1274069.+	1273158	1274069	+	KZN_V2475	3138671.3139582.-	3139582	3138671	-	KZN_605
738542.739495.-	739495	738542	-	KZN_V2475	738608.739561.-	739561	738608	-	KZN_605
1233104.1233619.+	1233104	1233619	+	KZN_V2475	3179122.3179637.-	3179637	3179122	-	KZN_605
1095681.1095854.+	1095681	1095854	+	KZN_V2475	3316663.3316836.-	3316836	3316663	-	KZN_605
1119223.1120791.-	1120791	1119223	-	KZN_V2475	3291726.3293294.+	3291726	3293294	+	KZN_605
257722.258795.-	258795	257722	-	KZN_V2475	257723.258796.-	258796	257723	-	KZN_605
3838719.3839207.-	3839207	3838719	-	KZN_V2475	3844143.3844631.-	3844631	3844143	-	KZN_605
1165887.1166294.-	1166294	1165887	-	KZN_V2475	3133704.3134111.-	3134111	3133704	-	KZN_605
1278629.1279036.+	1278629	1279036	+	KZN_V2475	3133704.3134111.-	3134111	3133704	-	KZN_605
3334354.3335025.+	3334354	3335025	+	KZN_V2475	1074021.1074692.-	1074692	1074021	-	KZN_605
456451.457113.-	457113	456451	-	KZN_V2475	456526.457188.-	457188	456526	-	KZN_605
1838613.1838888.-	1838888	1838613	-	KZN_V2475	2574136.2574411.+	2574136	2574411	+	KZN_605
330360.330941.+	330360	330941	+	KZN_V2475	330361.330942.+	330361	330942	+	KZN_605
3388076.3388465.+	3388076	3388465	+	KZN_V2475	1020581.1020970.-	1020970	1020581	-	KZN_605
1170157.1171467.+	1170157	1171467	+	KZN_V2475	1031097.1032407.+	1031097	1032407	+	KZN_605
1342095.1343405.-	1343405	1342095	-	KZN_V2475	1031097.1032407.+	1031097	1032407	+	KZN_605
2824396.2825706.-	2825706	2824396	-	KZN_V2475	1031097.1032407.+	1031097	1032407	+	KZN_605
3376639.3377949.-	3377949	3376639	-	KZN_V2475	1031097.1032407.+	1031097	1032407	+	KZN_605
3478012.3479322.+	3478012	3479322	+	KZN_V2475	1031097.1032407.+	1031097	1032407	+	KZN_605
2678023.2679150.-	2679150	2678023	-	KZN_V2475	1730676.1731803.+	1730676	1731803	+	KZN_605
1277035.1278483.-	1278483	1277035	-	KZN_V2475	3134257.3135705.+	3134257	3135705	+	KZN_605
2185644.2187092.+	2185644	2187092	+	KZN_V2475	3134257.3135705.+	3134257	3135705	+	KZN_605
1567490.1568968.-	1568968	1567490	-	KZN_V2475	2843887.2845365.+	2843887	2845365	+	KZN_605
230836.231471.+	230836	231471	+	KZN_V2475	230836.231471.+	230836	231471	+	KZN_605
3108301.3108930.-	3108930	3108301	-	KZN_V2475	1300675.1301304.+	1300675	1301304	+	KZN_605
4149653.4150936.+	4149653	4150936	+	KZN_V2475	4151530.4152813.+	4151530	4152813	+	KZN_605
2273238.2273723.-	2273723	2273238	-	KZN_V2475	2137611.2138096.+	2137611	2138096	+	KZN_605
3157934.3159781.+	3157934	3159781	+	KZN_V2475	1249824.1251671.-	1251671	1249824	-	KZN_605
2017066.2018118.+	2017066	2018118	+	KZN_V2475	2394632.2395684.-	2395684	2394632	-	KZN_605
3191102.3191773.-	3191773	3191102	-	KZN_V2475	1217724.1218395.+	1217724	1218395	+	KZN_605
1365964.1366545.+	1365964	1366545	+	KZN_V2475	3046256.3046837.-	3046837	3046256	-	KZN_605
931730.932566.-	932566	931730	-	KZN_V2475	3709850.3710686.-	3710686	3709850	-	KZN_605
1976816.1977652.-	1977652	1976816	-	KZN_V2475	3709850.3710686.-	3710686	3709850	-	KZN_605
2036054.2036890.-	2036890	2036054	-	KZN_V2475	3709850.3710686.-	3710686	3709850	-	KZN_605
2360310.2361146.-	2361146	2360310	-	KZN_V2475	3709850.3710686.-	3710686	3709850	-	KZN_605
2547726.2548562.-	2548562	2547726	-	KZN_V2475	3709850.3710686.-	3710686	3709850	-	KZN_605
2627282.2628118.-	2628118	2627282	-	KZN_V2475	3709850.3710686.-	3710686	3709850	-	KZN_605
2802832.2803668.+	2802832	2803668	+	KZN_V2475	3709850.3710686.-	3710686	3709850	-	KZN_605
3078161.3078997.+	3078161	3078997	+	KZN_V2475	3709850.3710686.-	3710686	3709850	-	KZN_605
3116328.3117164.-	3117164	3116328	-	KZN_V2475	3709850.3710686.-	3710686	3709850	-	KZN_605
3476116.3476952.+	3476116	3476952	+	KZN_V2475	3709850.3710686.-	3710686	3709850	-	KZN_605
3704480.3705316.-	3705316	3704480	-	KZN_V2475	3709850.3710686.-	3710686	3709850	-	KZN_605
4062486.4063322.-	4063322	4062486	-	KZN_V2475	3709850.3710686.-	3710686	3709850	-	KZN_605
739572.740462.-	740462	739572	-	KZN_V2475	739638.740528.-	740528	739638	-	KZN_605
2332533.2332931.+	2332533	2332931	+	KZN_V2475	2078400.2078798.-	2078798	2078400	-	KZN_605
3238470.3238781.+	3238470	3238781	+	KZN_V2475	1170324.1170635.-	1170635	1170324	-	KZN_605
1031430.1032218.-	1032218	1031430	-	KZN_V2475	3380365.3381153.+	3380365	3381153	+	KZN_605
447615.448043.+	447615	448043	+	KZN_V2475	447690.448118.+	447690	448118	+	KZN_605
709601.710593.+	709601	710593	+	KZN_V2475	709667.710659.+	709667	710659	+	KZN_605
4288724.4289335.-	4289335	4288724	-	KZN_V2475	4290601.4291212.-	4291212	4290601	-	KZN_605
1385016.1385276.+	1385016	1385276	+	KZN_V2475	3027525.3027785.-	3027785	3027525	-	KZN_605
1404124.1405329.-	1405329	1404124	-	KZN_V2475	3007472.3008677.+	3007472	3008677	+	KZN_605
510562.510837.-	510837	510562	-	KZN_V2475	510637.510912.-	510912	510637	-	KZN_605
2982172.2983749.+	2982172	2983749	+	KZN_V2475	1426017.1427594.-	1427594	1426017	-	KZN_605
865025.865459.+	865025	865459	+	KZN_V2475	865344.865778.+	865344	865778	+	KZN_605
1638004.1639269.+	1638004	1639269	+	KZN_V2475	2773756.2775021.-	2775021	2773756	-	KZN_605
3108703.3109107.+	3108703	3109107	+	KZN_V2475	1300498.1300902.-	1300902	1300498	-	KZN_605
806641.807051.+	806641	807051	+	KZN_V2475	806761.807171.+	806761	807171	+	KZN_605
602009.602947.+	602009	602947	+	KZN_V2475	602084.603022.+	602084	603022	+	KZN_605
4038463.4038624.-	4038624	4038463	-	KZN_V2475	4040110.4040271.-	4040271	4040110	-	KZN_605
3526614.3527771.-	3527771	3526614	-	KZN_V2475	3531926.3533083.-	3533083	3531926	-	KZN_605
3026265.3026975.+	3026265	3026975	+	KZN_V2475	1382630.1383340.-	1383340	1382630	-	KZN_605
1540251.1541384.-	1541384	1540251	-	KZN_V2475	2871472.2872605.+	2871472	2872605	+	KZN_605
3683381.3684796.-	3684796	3683381	-	KZN_V2475	3688693.3690108.-	3690108	3688693	-	KZN_605
87928.88134.-	88134	87928	-	KZN_V2475	87927.88133.-	88133	87927	-	KZN_605
4082874.4084037.-	4084037	4082874	-	KZN_V2475	4084521.4085684.-	4085684	4084521	-	KZN_605
875118.877277.+	875118	877277	+	KZN_V2475	875437.877596.+	875437	877596	+	KZN_605
738542.739453.-	739453	738542	-	KZN_V2475	738608.739519.-	739519	738608	-	KZN_605
931730.932566.-	932566	931730	-	KZN_V2475	1861256.1862092.+	1861256	1862092	+	KZN_605
1976816.1977652.-	1977652	1976816	-	KZN_V2475	1861256.1862092.+	1861256	1862092	+	KZN_605
2036054.2036890.-	2036890	2036054	-	KZN_V2475	1861256.1862092.+	1861256	1862092	+	KZN_605
2360310.2361146.-	2361146	2360310	-	KZN_V2475	1861256.1862092.+	1861256	1862092	+	KZN_605
2547726.2548562.-	2548562	2547726	-	KZN_V2475	1861256.1862092.+	1861256	1862092	+	KZN_605
2627282.2628118.-	2628118	2627282	-	KZN_V2475	1861256.1862092.+	1861256	1862092	+	KZN_605
2802832.2803668.+	2802832	2803668	+	KZN_V2475	1861256.1862092.+	1861256	1862092	+	KZN_605
3078161.3078997.+	3078161	3078997	+	KZN_V2475	1861256.1862092.+	1861256	1862092	+	KZN_605
3116328.3117164.-	3117164	3116328	-	KZN_V2475	1861256.1862092.+	1861256	1862092	+	KZN_605
3476116.3476952.+	3476116	3476952	+	KZN_V2475	1861256.1862092.+	1861256	1862092	+	KZN_605
3704480.3705316.-	3705316	3704480	-	KZN_V2475	1861256.1862092.+	1861256	1862092	+	KZN_605
4062486.4063322.-	4063322	4062486	-	KZN_V2475	1861256.1862092.+	1861256	1862092	+	KZN_605
4269934.4270269.+	4269934	4270269	+	KZN_V2475	4271811.4272146.+	4271811	4272146	+	KZN_605
2574318.2574587.+	2574318	2574587	+	KZN_V2475	1835231.1835500.-	1835500	1835231	-	KZN_605
2542234.2543148.-	2543148	2542234	-	KZN_V2475	1866670.1867584.+	1866670	1867584	+	KZN_605
2191482.2191835.+	2191482	2191835	+	KZN_V2475	2220858.2221211.-	2221211	2220858	-	KZN_605
2570218.2570811.+	2570218	2570811	+	KZN_V2475	1839007.1839600.-	1839600	1839007	-	KZN_605
3177328.3178617.-	3178617	3177328	-	KZN_V2475	1230880.1232169.+	1230880	1232169	+	KZN_605
3267693.3268709.+	3267693	3268709	+	KZN_V2475	1140396.1141412.-	1141412	1140396	-	KZN_605
1160890.1161213.-	1161213	1160890	-	KZN_V2475	3251305.3251628.+	3251305	3251628	+	KZN_605
4250501.4251400.-	4251400	4250501	-	KZN_V2475	4252378.4253277.-	4253277	4252378	-	KZN_605
427007.427564.-	427564	427007	-	KZN_V2475	427082.427639.-	427639	427082	-	KZN_605
1201563.1202456.+	1201563	1202456	+	KZN_V2475	3210064.3210957.-	3210957	3210064	-	KZN_605
3331459.3332004.+	3331459	3332004	+	KZN_V2475	1077101.1077646.-	1077646	1077101	-	KZN_605
3285467.3286006.+	3285467	3286006	+	KZN_V2475	1123099.1123638.-	1123638	1123099	-	KZN_605
4029789.4030700.-	4030700	4029789	-	KZN_V2475	4031436.4032347.-	4032347	4031436	-	KZN_605
307815.309377.-	309377	307815	-	KZN_V2475	307816.309378.-	309378	307816	-	KZN_605
2602060.2602848.+	2602060	2602848	+	KZN_V2475	1806979.1807767.-	1807767	1806979	-	KZN_605
3786703.3787692.-	3787692	3786703	-	KZN_V2475	3792073.3793062.-	3793062	3792073	-	KZN_605
3129375.3130259.-	3130259	3129375	-	KZN_V2475	1279346.1280230.+	1279346	1280230	+	KZN_605
3839443.3840297.-	3840297	3839443	-	KZN_V2475	3844867.3845721.-	3845721	3844867	-	KZN_605
1750973.1753255.-	1753255	1750973	-	KZN_V2475	2659770.2662052.+	2659770	2662052	+	KZN_605
274245.274925.-	274925	274245	-	KZN_V2475	274246.274926.-	274926	274246	-	KZN_605
2284022.2284339.-	2284339	2284022	-	KZN_V2475	2126994.2127311.+	2126994	2127311	+	KZN_605
1564822.1566078.+	1564822	1566078	+	KZN_V2475	2846777.2848033.-	2848033	2846777	-	KZN_605
1800670.1801488.+	1800670	1801488	+	KZN_V2475	2611537.2612355.-	2612355	2611537	-	KZN_605
1884007.1884660.-	1884660	1884007	-	KZN_V2475	2528364.2529017.+	2528364	2529017	+	KZN_605
1198028.1198525.+	1198028	1198525	+	KZN_V2475	3213996.3214493.-	3214493	3213996	-	KZN_605
547771.549801.-	549801	547771	-	KZN_V2475	547846.549876.-	549876	547846	-	KZN_605
704075.704302.+	704075	704302	+	KZN_V2475	704141.704368.+	704141	704368	+	KZN_605
3834528.3834692.-	3834692	3834528	-	KZN_V2475	3839952.3840116.-	3840116	3839952	-	KZN_605
3035243.3035938.-	3035938	3035243	-	KZN_V2475	1373667.1374362.+	1373667	1374362	+	KZN_605
1713848.1717384.-	1717384	1713848	-	KZN_V2475	2695641.2699177.+	2695641	2699177	+	KZN_605
750012.750779.-	750779	750012	-	KZN_V2475	750078.750845.-	750845	750078	-	KZN_605
103840.104703.-	104703	103840	-	KZN_V2475	103839.104702.-	104702	103839	-	KZN_605
3869557.3870420.+	3869557	3870420	+	KZN_V2475	103839.104702.-	104702	103839	-	KZN_605
1778871.1779737.-	1779737	1778871	-	KZN_V2475	103839.104702.-	104702	103839	-	KZN_605
3410200.3410604.-	3410604	3410200	-	KZN_V2475	998442.998846.+	998442	998846	+	KZN_605
2253166.2253741.+	2253166	2253741	+	KZN_V2475	2158951.2159526.-	2159526	2158951	-	KZN_605
3319208.3319975.-	3319975	3319208	-	KZN_V2475	1089130.1089897.+	1089130	1089897	+	KZN_605
3829016.3829498.-	3829498	3829016	-	KZN_V2475	3834440.3834922.-	3834922	3834440	-	KZN_605
2368420.2369043.+	2368420	2369043	+	KZN_V2475	2040776.2041399.-	2041399	2040776	-	KZN_605
542327.543037.+	542327	543037	+	KZN_V2475	542402.543112.+	542402	543112	+	KZN_605
1270797.1271879.+	1270797	1271879	+	KZN_V2475	3140861.3141943.-	3141943	3140861	-	KZN_605
17568.18845.-	18845	17568	-	KZN_V2475	17568.18845.-	18845	17568	-	KZN_605
700508.701434.+	700508	701434	+	KZN_V2475	700574.701500.+	700574	701500	+	KZN_605
3345537.3346382.-	3346382	3345537	-	KZN_V2475	1062664.1063509.+	1062664	1063509	+	KZN_605
729572.730432.-	730432	729572	-	KZN_V2475	729638.730498.-	730498	729638	-	KZN_605
3110870.3111139.+	3110870	3111139	+	KZN_V2475	1298466.1298735.-	1298735	1298466	-	KZN_605
4080599.4080907.-	4080907	4080599	-	KZN_V2475	4082246.4082554.-	4082554	4082246	-	KZN_605
3563017.3565206.-	3565206	3563017	-	KZN_V2475	3568329.3570518.-	3570518	3568329	-	KZN_605
702974.703444.+	702974	703444	+	KZN_V2475	703040.703510.+	703040	703510	+	KZN_605
2971067.2971483.-	2971483	2971067	-	KZN_V2475	1438283.1438699.+	1438283	1438699	+	KZN_605
417805.418221.+	417805	418221	+	KZN_V2475	417931.418347.+	417931	418347	+	KZN_605
3551219.3552253.-	3552253	3551219	-	KZN_V2475	3556531.3557565.-	3557565	3556531	-	KZN_605
2701458.2701730.-	2701730	2701458	-	KZN_V2475	1708039.1708311.+	1708039	1708311	+	KZN_605
4294976.4296334.+	4294976	4296334	+	KZN_V2475	4296853.4298211.+	4296853	4298211	+	KZN_605
1139095.1139703.+	1139095	1139703	+	KZN_V2475	3272814.3273422.-	3273422	3272814	-	KZN_605
1675693.1676601.-	1676601	1675693	-	KZN_V2475	2736424.2737332.+	2736424	2737332	+	KZN_605
1687617.1688906.+	1687617	1688906	+	KZN_V2475	2724119.2725408.-	2725408	2724119	-	KZN_605
2612702.2613136.+	2612702	2613136	+	KZN_V2475	1796691.1797125.-	1797125	1796691	-	KZN_605
1366081.1366545.+	1366081	1366545	+	KZN_V2475	3046256.3046720.-	3046720	3046256	-	KZN_605
2769135.2769539.+	2769135	2769539	+	KZN_V2475	1640230.1640634.-	1640634	1640230	-	KZN_605
2502599.2503366.+	2502599	2503366	+	KZN_V2475	1906453.1907220.-	1907220	1906453	-	KZN_605
877705.879342.-	879342	877705	-	KZN_V2475	878024.879661.-	879661	878024	-	KZN_605
859748.860038.-	860038	859748	-	KZN_V2475	860067.860357.-	860357	860067	-	KZN_605
2135121.2136245.-	2136245	2135121	-	KZN_V2475	2276448.2277572.+	2276448	2277572	+	KZN_605
2190962.2191483.-	2191483	2190962	-	KZN_V2475	2221210.2221731.+	2221210	2221731	+	KZN_605
1778871.1779737.-	1779737	1778871	-	KZN_V2475	2633288.2634154.+	2633288	2634154	+	KZN_605
103840.104703.-	104703	103840	-	KZN_V2475	2633288.2634154.+	2633288	2634154	+	KZN_605
3869557.3870420.+	3869557	3870420	+	KZN_V2475	2633288.2634154.+	2633288	2634154	+	KZN_605
2658075.2663123.-	2663123	2658075	-	KZN_V2475	1746703.1751751.+	1746703	1751751	+	KZN_605
473935.474291.+	473935	474291	+	KZN_V2475	474010.474366.+	474010	474366	+	KZN_605
476001.476369.+	476001	476369	+	KZN_V2475	474010.474366.+	474010	474366	+	KZN_605
1686560.1687564.+	1686560	1687564	+	KZN_V2475	2725461.2726465.-	2726465	2725461	-	KZN_605
2315800.2316210.+	2315800	2316210	+	KZN_V2475	2095121.2095531.-	2095531	2095121	-	KZN_605
545560.546006.-	546006	545560	-	KZN_V2475	545635.546081.-	546081	545635	-	KZN_605
2046520.2047422.+	2046520	2047422	+	KZN_V2475	2365328.2366230.-	2366230	2365328	-	KZN_605
4323885.4324211.+	4323885	4324211	+	KZN_V2475	4325762.4326088.+	4325762	4326088	+	KZN_605
2102944.2105358.+	2102944	2105358	+	KZN_V2475	2307336.2309750.-	2309750	2307336	-	KZN_605
3354583.3354801.-	3354801	3354583	-	KZN_V2475	1054245.1054463.+	1054245	1054463	+	KZN_605
4055108.4055821.+	4055108	4055821	+	KZN_V2475	4056755.4057468.+	4056755	4057468	+	KZN_605
3770172.3771947.+	3770172	3771947	+	KZN_V2475	3775542.3777317.+	3775542	3777317	+	KZN_605
336373.336795.-	336795	336373	-	KZN_V2475	336438.336860.-	336860	336438	-	KZN_605
3801890.3802600.+	3801890	3802600	+	KZN_V2475	3807257.3807967.+	3807257	3807967	+	KZN_605
1076146.1077108.-	1077108	1076146	-	KZN_V2475	3335475.3336437.+	3335475	3336437	+	KZN_605
4080939.4081481.-	4081481	4080939	-	KZN_V2475	4082586.4083128.-	4083128	4082586	-	KZN_605
545560.546087.-	546087	545560	-	KZN_V2475	545635.546162.-	546162	545635	-	KZN_605
859998.860957.-	860957	859998	-	KZN_V2475	860317.861276.-	861276	860317	-	KZN_605
437619.438248.-	438248	437619	-	KZN_V2475	437694.438323.-	438323	437694	-	KZN_605
1908025.1908201.+	1908025	1908201	+	KZN_V2475	2504652.2504828.-	2504828	2504652	-	KZN_605
2422761.2423795.-	2423795	2422761	-	KZN_V2475	1986024.1987058.+	1986024	1987058	+	KZN_605
2501544.2502503.-	2502503	2501544	-	KZN_V2475	1907316.1908275.+	1907316	1908275	+	KZN_605
3170359.3170553.+	3170359	3170553	+	KZN_V2475	1238944.1239138.-	1239138	1238944	-	KZN_605
3592822.3593472.-	3593472	3592822	-	KZN_V2475	3598134.3598784.-	3598784	3598134	-	KZN_605
4341041.4342480.+	4341041	4342480	+	KZN_V2475	4342918.4344357.+	4342918	4344357	+	KZN_605
3321433.3321603.+	3321433	3321603	+	KZN_V2475	1087502.1087672.-	1087672	1087502	-	KZN_605
3203499.3203885.-	3203885	3203499	-	KZN_V2475	1205612.1205998.+	1205612	1205998	+	KZN_605
52912.53346.+	52912	53346	+	KZN_V2475	52912.53346.+	52912	53346	+	KZN_605
131026.131235.-	131235	131026	-	KZN_V2475	131025.131234.-	131234	131025	-	KZN_605
4120664.4121986.+	4120664	4121986	+	KZN_V2475	4122482.4123804.+	4122482	4123804	+	KZN_605
1390095.1393739.-	1393739	1390095	-	KZN_V2475	3019062.3022706.+	3019062	3022706	+	KZN_605
2568126.2568335.-	2568335	2568126	-	KZN_V2475	1841483.1841692.+	1841483	1841692	+	KZN_605
1945804.1945995.-	1945995	1945804	-	KZN_V2475	2466857.2467048.+	2466857	2467048	+	KZN_605
4197018.4197722.-	4197722	4197018	-	KZN_V2475	4198895.4199599.-	4199599	4198895	-	KZN_605
352745.354238.+	352745	354238	+	KZN_V2475	352849.354342.+	352849	354342	+	KZN_605
204002.205174.+	204002	205174	+	KZN_V2475	204002.205174.+	204002	205174	+	KZN_605
2955686.2955940.-	2955940	2955686	-	KZN_V2475	1453826.1454080.+	1453826	1454080	+	KZN_605
1956039.1956323.+	1956039	1956323	+	KZN_V2475	2456586.2456870.-	2456870	2456586	-	KZN_605
4221249.4221677.+	4221249	4221677	+	KZN_V2475	4223126.4223554.+	4223126	4223554	+	KZN_605
521696.522352.+	521696	522352	+	KZN_V2475	521771.522427.+	521771	522427	+	KZN_605
1759115.1759855.+	1759115	1759855	+	KZN_V2475	2653170.2653910.-	2653910	2653170	-	KZN_605
3029112.3029360.+	3029112	3029360	+	KZN_V2475	1380245.1380493.-	1380493	1380245	-	KZN_605
2426799.2427704.-	2427704	2426799	-	KZN_V2475	1982115.1983020.+	1982115	1983020	+	KZN_605
2505562.2508354.+	2505562	2508354	+	KZN_V2475	1901465.1904257.-	1904257	1901465	-	KZN_605
4114689.4115021.-	4115021	4114689	-	KZN_V2475	4116507.4116839.-	4116839	4116507	-	KZN_605
4191476.4191778.+	4191476	4191778	+	KZN_V2475	4193353.4193655.+	4193353	4193655	+	KZN_605
3799697.3801280.-	3801280	3799697	-	KZN_V2475	3805064.3806647.-	3806647	3805064	-	KZN_605
3552706.3552888.-	3552888	3552706	-	KZN_V2475	3558018.3558200.-	3558200	3558018	-	KZN_605
3633346.3633765.+	3633346	3633765	+	KZN_V2475	3638658.3639077.+	3638658	3639077	+	KZN_605
534876.535412.-	535412	534876	-	KZN_V2475	534951.535487.-	535487	534951	-	KZN_605
2222139.2222411.+	2222139	2222411	+	KZN_V2475	2190281.2190553.-	2190553	2190281	-	KZN_605
1876918.1878450.+	1876918	1878450	+	KZN_V2475	2534574.2536106.-	2536106	2534574	-	KZN_605
3132286.3132690.-	3132690	3132286	-	KZN_V2475	1276915.1277319.+	1276915	1277319	+	KZN_605
218648.219304.+	218648	219304	+	KZN_V2475	218648.219304.+	218648	219304	+	KZN_605
1102631.1103344.+	1102631	1103344	+	KZN_V2475	3309173.3309886.-	3309886	3309173	-	KZN_605
670084.671397.+	670084	671397	+	KZN_V2475	670159.671472.+	670159	671472	+	KZN_605
315721.316353.-	316353	315721	-	KZN_V2475	315722.316354.-	316354	315722	-	KZN_605
3019909.3021324.+	3019909	3021324	+	KZN_V2475	1388281.1389696.-	1389696	1388281	-	KZN_605
661131.661514.+	661131	661514	+	KZN_V2475	661206.661589.+	661206	661589	+	KZN_605
3068157.3068957.-	3068957	3068157	-	KZN_V2475	1340648.1341448.+	1340648	1341448	+	KZN_605
2009275.2012073.+	2009275	2012073	+	KZN_V2475	2400677.2403475.-	2403475	2400677	-	KZN_605
4232500.4235748.+	4232500	4235748	+	KZN_V2475	4234377.4237625.+	4234377	4237625	+	KZN_605
3424833.3425015.+	3424833	3425015	+	KZN_V2475	984031.984213.-	984213	984031	-	KZN_605
1680403.1680666.+	1680403	1680666	+	KZN_V2475	2732359.2732622.-	2732622	2732359	-	KZN_605
1078082.1078774.-	1078774	1078082	-	KZN_V2475	3333809.3334501.+	3333809	3334501	+	KZN_605
881962.882351.-	882351	881962	-	KZN_V2475	882281.882670.-	882670	882281	-	KZN_605
847053.848798.+	847053	848798	+	KZN_V2475	847372.849117.+	847372	849117	+	KZN_605
3517110.3517766.+	3517110	3517766	+	KZN_V2475	3522422.3523078.+	3522422	3523078	+	KZN_605
3824064.3824951.-	3824951	3824064	-	KZN_V2475	3829488.3830375.-	3830375	3829488	-	KZN_605
1058498.1059151.-	1059151	1058498	-	KZN_V2475	3353432.3354085.+	3353432	3354085	+	KZN_605
2498824.2499195.-	2499195	2498824	-	KZN_V2475	1910624.1910995.+	1910624	1910995	+	KZN_605
1347673.1348425.-	1348425	1347673	-	KZN_V2475	3064376.3065128.+	3064376	3065128	+	KZN_605
1611636.1611773.+	1611636	1611773	+	KZN_V2475	2801081.2801218.-	2801218	2801081	-	KZN_605
661498.663618.+	661498	663618	+	KZN_V2475	661573.663693.+	661573	663693	+	KZN_605
2000722.2001171.-	2001171	2000722	-	KZN_V2475	2411579.2412028.+	2411579	2412028	+	KZN_605
1121684.1122943.-	1122943	1121684	-	KZN_V2475	3289574.3290833.+	3289574	3290833	+	KZN_605
2853693.2854097.-	2854097	2853693	-	KZN_V2475	1555670.1556074.+	1555670	1556074	+	KZN_605
3872647.3874320.-	3874320	3872647	-	KZN_V2475	3878071.3879744.-	3879744	3878071	-	KZN_605
455083.455943.-	455943	455083	-	KZN_V2475	455158.456018.-	456018	455158	-	KZN_605
2747637.2748155.-	2748155	2747637	-	KZN_V2475	1661614.1662132.+	1661614	1662132	+	KZN_605
1198588.1198878.+	1198588	1198878	+	KZN_V2475	3213643.3213933.-	3213933	3213643	-	KZN_605
1710409.1710678.+	1710409	1710678	+	KZN_V2475	2702347.2702616.-	2702616	2702347	-	KZN_605
1778871.1779593.-	1779593	1778871	-	KZN_V2475	2633432.2634154.+	2633432	2634154	+	KZN_605
103840.104559.-	104559	103840	-	KZN_V2475	2633432.2634154.+	2633432	2634154	+	KZN_605
3869701.3870420.+	3869701	3870420	+	KZN_V2475	2633432.2634154.+	2633432	2634154	+	KZN_605
3591472.3591687.-	3591687	3591472	-	KZN_V2475	3596784.3596999.-	3596999	3596784	-	KZN_605
3189723.3191105.-	3191105	3189723	-	KZN_V2475	1218392.1219774.+	1218392	1219774	+	KZN_605
768095.768415.-	768415	768095	-	KZN_V2475	768161.768481.-	768481	768161	-	KZN_605
1180193.1181374.+	1180193	1181374	+	KZN_V2475	3231144.3232325.-	3232325	3231144	-	KZN_605
1004808.1005335.+	1004808	1005335	+	KZN_V2475	3407248.3407775.-	3407775	3407248	-	KZN_605
3884638.3885384.-	3885384	3884638	-	KZN_V2475	3890062.3890808.-	3890808	3890062	-	KZN_605
1773605.1774297.-	1774297	1773605	-	KZN_V2475	2638728.2639420.+	2638728	2639420	+	KZN_605
1112365.1113018.+	1112365	1113018	+	KZN_V2475	3299499.3300152.-	3300152	3299499	-	KZN_605
1739532.1740923.+	1739532	1740923	+	KZN_V2475	2672102.2673493.-	2673493	2672102	-	KZN_605
655169.656194.-	656194	655169	-	KZN_V2475	655244.656269.-	656269	655244	-	KZN_605
1563782.1564408.+	1563782	1564408	+	KZN_V2475	2848447.2849073.-	2849073	2848447	-	KZN_605
57512.58075.+	57512	58075	+	KZN_V2475	57512.58075.+	57512	58075	+	KZN_605
3073786.3074934.-	3074934	3073786	-	KZN_V2475	1334671.1335819.+	1334671	1335819	+	KZN_605
3375943.3376356.-	3376356	3375943	-	KZN_V2475	1032690.1033103.+	1032690	1033103	+	KZN_605
3773114.3776389.-	3776389	3773114	-	KZN_V2475	3778484.3781759.-	3781759	3778484	-	KZN_605
515558.516001.-	516001	515558	-	KZN_V2475	515633.516076.-	516076	515633	-	KZN_605
736543.737439.-	737439	736543	-	KZN_V2475	736609.737505.-	737505	736609	-	KZN_605
4186320.4187264.+	4186320	4187264	+	KZN_V2475	4188197.4189141.+	4188197	4189141	+	KZN_605
3715556.3716200.+	3715556	3716200	+	KZN_V2475	3720926.3721570.+	3720926	3721570	+	KZN_605
905933.906820.+	905933	906820	+	KZN_V2475	906252.907139.+	906252	907139	+	KZN_605
1170220.1171467.+	1170220	1171467	+	KZN_V2475	3069460.3070707.+	3069460	3070707	+	KZN_605
1342095.1343342.-	1343342	1342095	-	KZN_V2475	3069460.3070707.+	3069460	3070707	+	KZN_605
2824396.2825643.-	2825643	2824396	-	KZN_V2475	3069460.3070707.+	3069460	3070707	+	KZN_605
3376639.3377886.-	3377886	3376639	-	KZN_V2475	3069460.3070707.+	3069460	3070707	+	KZN_605
3478075.3479322.+	3478075	3479322	+	KZN_V2475	3069460.3070707.+	3069460	3070707	+	KZN_605
854710.855042.-	855042	854710	-	KZN_V2475	855029.855361.-	855361	855029	-	KZN_605
3179406.3180125.+	3179406	3180125	+	KZN_V2475	1229372.1230091.-	1230091	1229372	-	KZN_605
3296095.3297843.-	3297843	3296095	-	KZN_V2475	1111262.1113010.+	1111262	1113010	+	KZN_605
4013550.4014368.-	4014368	4013550	-	KZN_V2475	4015197.4016015.-	4016015	4015197	-	KZN_605
4027534.4027617.-	4027617	4027534	-	KZN_V2475	4029181.4029264.-	4029264	4029181	-	KZN_605
2975444.2975911.-	2975911	2975444	-	KZN_V2475	1433855.1434322.+	1433855	1434322	+	KZN_605
715615.716562.+	715615	716562	+	KZN_V2475	715681.716628.+	715681	716628	+	KZN_605
2667601.2671845.-	2671845	2667601	-	KZN_V2475	1737981.1742225.+	1737981	1742225	+	KZN_605
2033564.2035483.-	2035483	2033564	-	KZN_V2475	2377267.2379186.+	2377267	2379186	+	KZN_605
466855.467589.-	467589	466855	-	KZN_V2475	466930.467664.-	467664	466930	-	KZN_605
931730.932566.-	932566	931730	-	KZN_V2475	2050173.2051009.+	2050173	2051009	+	KZN_605
1976816.1977652.-	1977652	1976816	-	KZN_V2475	2050173.2051009.+	2050173	2051009	+	KZN_605
2036054.2036890.-	2036890	2036054	-	KZN_V2475	2050173.2051009.+	2050173	2051009	+	KZN_605
2360310.2361146.-	2361146	2360310	-	KZN_V2475	2050173.2051009.+	2050173	2051009	+	KZN_605
2547726.2548562.-	2548562	2547726	-	KZN_V2475	2050173.2051009.+	2050173	2051009	+	KZN_605
2627282.2628118.-	2628118	2627282	-	KZN_V2475	2050173.2051009.+	2050173	2051009	+	KZN_605
2802832.2803668.+	2802832	2803668	+	KZN_V2475	2050173.2051009.+	2050173	2051009	+	KZN_605
3078161.3078997.+	3078161	3078997	+	KZN_V2475	2050173.2051009.+	2050173	2051009	+	KZN_605
3116328.3117164.-	3117164	3116328	-	KZN_V2475	2050173.2051009.+	2050173	2051009	+	KZN_605
3476116.3476952.+	3476116	3476952	+	KZN_V2475	2050173.2051009.+	2050173	2051009	+	KZN_605
3704480.3705316.-	3705316	3704480	-	KZN_V2475	2050173.2051009.+	2050173	2051009	+	KZN_605
4062486.4063322.-	4063322	4062486	-	KZN_V2475	2050173.2051009.+	2050173	2051009	+	KZN_605
1576310.1576912.+	1576310	1576912	+	KZN_V2475	2835943.2836545.-	2836545	2835943	-	KZN_605
3790272.3791051.+	3790272	3791051	+	KZN_V2475	3795642.3796421.+	3795642	3796421	+	KZN_605
2347858.2348109.-	2348109	2347858	-	KZN_V2475	2063210.2063461.+	2063210	2063461	+	KZN_605
2610787.2612028.-	2612028	2610787	-	KZN_V2475	1797799.1799040.+	1797799	1799040	+	KZN_605
4135968.4137074.-	4137074	4135968	-	KZN_V2475	4137786.4138892.-	4138892	4137786	-	KZN_605
4185659.4186159.-	4186159	4185659	-	KZN_V2475	4187536.4188036.-	4188036	4187536	-	KZN_605
1309687.1310067.+	1309687	1310067	+	KZN_V2475	3102735.3103115.-	3103115	3102735	-	KZN_605
1681809.1683680.+	1681809	1683680	+	KZN_V2475	2729345.2731216.-	2731216	2729345	-	KZN_605
3394683.3395468.-	3395468	3394683	-	KZN_V2475	1013578.1014363.+	1013578	1014363	+	KZN_605
1778871.1779827.-	1779827	1778871	-	KZN_V2475	2633198.2634154.+	2633198	2634154	+	KZN_605
103840.104793.-	104793	103840	-	KZN_V2475	2633198.2634154.+	2633198	2634154	+	KZN_605
3869467.3870420.+	3869467	3870420	+	KZN_V2475	2633198.2634154.+	2633198	2634154	+	KZN_605
3386810.3388042.+	3386810	3388042	+	KZN_V2475	1021004.1022236.-	1022236	1021004	-	KZN_605
551934.552173.+	551934	552173	+	KZN_V2475	552009.552248.+	552009	552248	+	KZN_605
1113179.1114255.+	1113179	1114255	+	KZN_V2475	3298262.3299338.-	3299338	3298262	-	KZN_605
1410222.1410695.-	1410695	1410222	-	KZN_V2475	3002106.3002579.+	3002106	3002579	+	KZN_605
2065458.2065715.+	2065458	2065715	+	KZN_V2475	2346979.2347236.-	2347236	2346979	-	KZN_605
3354848.3355861.-	3355861	3354848	-	KZN_V2475	1053185.1054198.+	1053185	1054198	+	KZN_605
931730.932566.-	932566	931730	-	KZN_V2475	4064133.4064969.-	4064969	4064133	-	KZN_605
1976816.1977652.-	1977652	1976816	-	KZN_V2475	4064133.4064969.-	4064969	4064133	-	KZN_605
2036054.2036890.-	2036890	2036054	-	KZN_V2475	4064133.4064969.-	4064969	4064133	-	KZN_605
2360310.2361146.-	2361146	2360310	-	KZN_V2475	4064133.4064969.-	4064969	4064133	-	KZN_605
2547726.2548562.-	2548562	2547726	-	KZN_V2475	4064133.4064969.-	4064969	4064133	-	KZN_605
2627282.2628118.-	2628118	2627282	-	KZN_V2475	4064133.4064969.-	4064969	4064133	-	KZN_605
2802832.2803668.+	2802832	2803668	+	KZN_V2475	4064133.4064969.-	4064969	4064133	-	KZN_605
3078161.3078997.+	3078161	3078997	+	KZN_V2475	4064133.4064969.-	4064969	4064133	-	KZN_605
3116328.3117164.-	3117164	3116328	-	KZN_V2475	4064133.4064969.-	4064969	4064133	-	KZN_605
3476116.3476952.+	3476116	3476952	+	KZN_V2475	4064133.4064969.-	4064969	4064133	-	KZN_605
3704480.3705316.-	3705316	3704480	-	KZN_V2475	4064133.4064969.-	4064969	4064133	-	KZN_605
4062486.4063322.-	4063322	4062486	-	KZN_V2475	4064133.4064969.-	4064969	4064133	-	KZN_605
4118327.4119457.+	4118327	4119457	+	KZN_V2475	4120145.4121275.+	4120145	4121275	+	KZN_605
831743.832546.+	831743	832546	+	KZN_V2475	831863.832666.+	831863	832666	+	KZN_605
1838947.1842465.-	1842465	1838947	-	KZN_V2475	2570559.2574077.+	2570559	2574077	+	KZN_605
103840.104793.-	104793	103840	-	KZN_V2475	103839.104792.-	104792	103839	-	KZN_605
3869467.3870420.+	3869467	3870420	+	KZN_V2475	103839.104792.-	104792	103839	-	KZN_605
1778871.1779827.-	1779827	1778871	-	KZN_V2475	103839.104792.-	104792	103839	-	KZN_605
2146658.2147251.-	2147251	2146658	-	KZN_V2475	2265442.2266035.+	2265442	2266035	+	KZN_605
3878574.3879752.+	3878574	3879752	+	KZN_V2475	3883998.3885176.+	3883998	3885176	+	KZN_605
1533182.1534369.-	1534369	1533182	-	KZN_V2475	3883998.3885176.+	3883998	3885176	+	KZN_605
1340089.1341261.+	1340089	1341261	+	KZN_V2475	3883998.3885176.+	3883998	3885176	+	KZN_605
606712.608223.+	606712	608223	+	KZN_V2475	606787.608298.+	606787	608298	+	KZN_605
402953.404464.+	402953	404464	+	KZN_V2475	606787.608298.+	606787	608298	+	KZN_605
412117.413562.+	412117	413562	+	KZN_V2475	412243.413688.+	412243	413688	+	KZN_605
2619774.2620076.-	2620076	2619774	-	KZN_V2475	1789751.1790053.+	1789751	1790053	+	KZN_605
2901928.2902602.-	2902602	2901928	-	KZN_V2475	1507164.1507838.+	1507164	1507838	+	KZN_605
2432450.2433115.-	2433115	2432450	-	KZN_V2475	1692353.1693018.+	1692353	1693018	+	KZN_605
2716751.2717416.-	2717416	2716751	-	KZN_V2475	1692353.1693018.+	1692353	1693018	+	KZN_605
4181378.4181740.+	4181378	4181740	+	KZN_V2475	4183255.4183617.+	4183255	4183617	+	KZN_605
1191554.1192945.-	1192945	1191554	-	KZN_V2475	3219576.3220967.+	3219576	3220967	+	KZN_605
2329595.2329765.-	2329765	2329595	-	KZN_V2475	2081566.2081736.+	2081566	2081736	+	KZN_605
1789986.1791329.+	1789986	1791329	+	KZN_V2475	2621696.2623039.-	2623039	2621696	-	KZN_605
710829.711062.-	711062	710829	-	KZN_V2475	710895.711128.-	711128	710895	-	KZN_605
4139798.4141612.+	4139798	4141612	+	KZN_V2475	4141616.4143430.+	4141616	4143430	+	KZN_605
2435494.2436381.-	2436381	2435494	-	KZN_V2475	1973439.1974326.+	1973439	1974326	+	KZN_605
1622169.1622408.+	1622169	1622408	+	KZN_V2475	2790503.2790742.-	2790742	2790503	-	KZN_605
2587809.2588474.-	2588474	2587809	-	KZN_V2475	1821344.1822009.+	1821344	1822009	+	KZN_605
2896065.2896529.-	2896529	2896065	-	KZN_V2475	1513237.1513701.+	1513237	1513701	+	KZN_605
3103147.3103494.-	3103494	3103147	-	KZN_V2475	1306111.1306458.+	1306111	1306458	+	KZN_605
2019003.2019164.+	2019003	2019164	+	KZN_V2475	2393586.2393747.-	2393747	2393586	-	KZN_605
818416.818790.-	818790	818416	-	KZN_V2475	818536.818910.-	818910	818536	-	KZN_605
95544.97022.+	95544	97022	+	KZN_V2475	95543.97021.+	95543	97021	+	KZN_605
1054617.1055093.+	1054617	1055093	+	KZN_V2475	3357490.3357966.-	3357966	3357490	-	KZN_605
1054593.1055093.+	1054593	1055093	+	KZN_V2475	3357490.3357990.-	3357990	3357490	-	KZN_605
1827382.1829601.+	1827382	1829601	+	KZN_V2475	2583423.2585642.-	2585642	2583423	-	KZN_605
3079210.3080139.-	3080139	3079210	-	KZN_V2475	1329466.1330395.+	1329466	1330395	+	KZN_605
2462497.2463783.-	2463783	2462497	-	KZN_V2475	1946037.1947323.+	1946037	1947323	+	KZN_605
565967.566581.+	565967	566581	+	KZN_V2475	566042.566656.+	566042	566656	+	KZN_605
614487.614891.-	614891	614487	-	KZN_V2475	614562.614966.-	614966	614562	-	KZN_605
580682.580888.-	580888	580682	-	KZN_V2475	580757.580963.-	580963	580757	-	KZN_605
1293474.1294139.+	1293474	1294139	+	KZN_V2475	3118601.3119266.-	3119266	3118601	-	KZN_605
4155544.4156107.+	4155544	4156107	+	KZN_V2475	4157421.4157984.+	4157421	4157984	+	KZN_605
1091222.1093993.+	1091222	1093993	+	KZN_V2475	3318590.3321361.-	3321361	3318590	-	KZN_605
449320.449835.-	449835	449320	-	KZN_V2475	449395.449910.-	449910	449395	-	KZN_605
4001671.4002750.-	4002750	4001671	-	KZN_V2475	4003318.4004397.-	4004397	4003318	-	KZN_605
2441318.2443129.+	2441318	2443129	+	KZN_V2475	1966691.1968502.-	1968502	1966691	-	KZN_605
1793724.1794461.+	1793724	1794461	+	KZN_V2475	2618564.2619301.-	2619301	2618564	-	KZN_605
1053212.1053490.+	1053212	1053490	+	KZN_V2475	3359093.3359371.-	3359371	3359093	-	KZN_605
3128558.3129103.-	3129103	3128558	-	KZN_V2475	1280502.1281047.+	1280502	1281047	+	KZN_605
3131454.3131999.-	3131999	3131454	-	KZN_V2475	1280502.1281047.+	1280502	1281047	+	KZN_605
4047031.4047831.+	4047031	4047831	+	KZN_V2475	4048678.4049478.+	4048678	4049478	+	KZN_605
3109494.3110648.+	3109494	3110648	+	KZN_V2475	1298957.1300111.-	1300111	1298957	-	KZN_605
1086605.1088200.-	1088200	1086605	-	KZN_V2475	3324383.3325978.+	3324383	3325978	+	KZN_605
938953.940245.+	938953	940245	+	KZN_V2475	3472391.3473683.-	3473683	3472391	-	KZN_605
4144153.4144860.+	4144153	4144860	+	KZN_V2475	4146030.4146737.+	4146030	4146737	+	KZN_605
3171012.3172868.-	3172868	3171012	-	KZN_V2475	1236629.1238485.+	1236629	1238485	+	KZN_605
955891.957129.+	955891	957129	+	KZN_V2475	3455507.3456745.-	3456745	3455507	-	KZN_605
3373592.3373795.-	3373795	3373592	-	KZN_V2475	1035251.1035454.+	1035251	1035454	+	KZN_605
2409460.2410920.-	2410920	2409460	-	KZN_V2475	1998899.2000359.+	1998899	2000359	+	KZN_605
931730.932566.-	932566	931730	-	KZN_V2475	1606101.1606937.-	1606937	1606101	-	KZN_605
1976816.1977652.-	1977652	1976816	-	KZN_V2475	1606101.1606937.-	1606937	1606101	-	KZN_605
2036054.2036890.-	2036890	2036054	-	KZN_V2475	1606101.1606937.-	1606937	1606101	-	KZN_605
2360310.2361146.-	2361146	2360310	-	KZN_V2475	1606101.1606937.-	1606937	1606101	-	KZN_605
2547726.2548562.-	2548562	2547726	-	KZN_V2475	1606101.1606937.-	1606937	1606101	-	KZN_605
2627282.2628118.-	2628118	2627282	-	KZN_V2475	1606101.1606937.-	1606937	1606101	-	KZN_605
2802832.2803668.+	2802832	2803668	+	KZN_V2475	1606101.1606937.-	1606937	1606101	-	KZN_605
3078161.3078997.+	3078161	3078997	+	KZN_V2475	1606101.1606937.-	1606937	1606101	-	KZN_605
3116328.3117164.-	3117164	3116328	-	KZN_V2475	1606101.1606937.-	1606937	1606101	-	KZN_605
3476116.3476952.+	3476116	3476952	+	KZN_V2475	1606101.1606937.-	1606937	1606101	-	KZN_605
3704480.3705316.-	3705316	3704480	-	KZN_V2475	1606101.1606937.-	1606937	1606101	-	KZN_605
4062486.4063322.-	4063322	4062486	-	KZN_V2475	1606101.1606937.-	1606937	1606101	-	KZN_605
4128686.4129873.-	4129873	4128686	-	KZN_V2475	4130504.4131691.-	4131691	4130504	-	KZN_605
3016872.3017909.+	3016872	3017909	+	KZN_V2475	1391696.1392733.-	1392733	1391696	-	KZN_605
931730.932566.-	932566	931730	-	KZN_V2475	3488592.3489428.-	3489428	3488592	-	KZN_605
1976816.1977652.-	1977652	1976816	-	KZN_V2475	3488592.3489428.-	3489428	3488592	-	KZN_605
2036054.2036890.-	2036890	2036054	-	KZN_V2475	3488592.3489428.-	3489428	3488592	-	KZN_605
2360310.2361146.-	2361146	2360310	-	KZN_V2475	3488592.3489428.-	3489428	3488592	-	KZN_605
2547726.2548562.-	2548562	2547726	-	KZN_V2475	3488592.3489428.-	3489428	3488592	-	KZN_605
2627282.2628118.-	2628118	2627282	-	KZN_V2475	3488592.3489428.-	3489428	3488592	-	KZN_605
2802832.2803668.+	2802832	2803668	+	KZN_V2475	3488592.3489428.-	3489428	3488592	-	KZN_605
3078161.3078997.+	3078161	3078997	+	KZN_V2475	3488592.3489428.-	3489428	3488592	-	KZN_605
3116328.3117164.-	3117164	3116328	-	KZN_V2475	3488592.3489428.-	3489428	3488592	-	KZN_605
3476116.3476952.+	3476116	3476952	+	KZN_V2475	3488592.3489428.-	3489428	3488592	-	KZN_605
3704480.3705316.-	3705316	3704480	-	KZN_V2475	3488592.3489428.-	3489428	3488592	-	KZN_605
4062486.4063322.-	4063322	4062486	-	KZN_V2475	3488592.3489428.-	3489428	3488592	-	KZN_605
2710099.2711307.-	2711307	2710099	-	KZN_V2475	1698462.1699670.+	1698462	1699670	+	KZN_605
3137975.3139285.-	3139285	3137975	-	KZN_V2475	1270320.1271630.+	1270320	1271630	+	KZN_605
953666.954070.+	953666	954070	+	KZN_V2475	3458566.3458970.-	3458970	3458566	-	KZN_605
3717536.3717748.-	3717748	3717536	-	KZN_V2475	3722906.3723118.-	3723118	3722906	-	KZN_605
1201380.1202456.+	1201380	1202456	+	KZN_V2475	3210064.3211140.-	3211140	3210064	-	KZN_605
1277035.1278399.-	1278399	1277035	-	KZN_V2475	3134341.3135705.+	3134341	3135705	+	KZN_605
2185728.2187092.+	2185728	2187092	+	KZN_V2475	3134341.3135705.+	3134341	3135705	+	KZN_605
2730767.2732806.-	2732806	2730767	-	KZN_V2475	1676963.1679002.+	1676963	1679002	+	KZN_605
4000778.4001665.+	4000778	4001665	+	KZN_V2475	4002425.4003312.+	4002425	4003312	+	KZN_605
4255778.4256278.-	4256278	4255778	-	KZN_V2475	4257655.4258155.-	4258155	4257655	-	KZN_605
1461783.1462028.+	1461783	1462028	+	KZN_V2475	2950829.2951074.-	2951074	2950829	-	KZN_605
3374299.3374607.-	3374607	3374299	-	KZN_V2475	1034439.1034747.+	1034439	1034747	+	KZN_605
3038852.3039466.-	3039466	3038852	-	KZN_V2475	1370139.1370753.+	1370139	1370753	+	KZN_605
1528167.1530830.+	1528167	1530830	+	KZN_V2475	2882026.2884689.-	2884689	2882026	-	KZN_605
1710704.1711744.+	1710704	1711744	+	KZN_V2475	2701281.2702321.-	2702321	2701281	-	KZN_605
1243657.1243857.-	1243857	1243657	-	KZN_V2475	3168884.3169084.+	3168884	3169084	+	KZN_605
781498.782088.+	781498	782088	+	KZN_V2475	781564.782154.+	781564	782154	+	KZN_605
2438974.2440116.-	2440116	2438974	-	KZN_V2475	1969704.1970846.+	1969704	1970846	+	KZN_605
931730.932566.-	932566	931730	-	KZN_V2475	2155551.2156387.-	2156387	2155551	-	KZN_605
1976816.1977652.-	1977652	1976816	-	KZN_V2475	2155551.2156387.-	2156387	2155551	-	KZN_605
2036054.2036890.-	2036890	2036054	-	KZN_V2475	2155551.2156387.-	2156387	2155551	-	KZN_605
2360310.2361146.-	2361146	2360310	-	KZN_V2475	2155551.2156387.-	2156387	2155551	-	KZN_605
2547726.2548562.-	2548562	2547726	-	KZN_V2475	2155551.2156387.-	2156387	2155551	-	KZN_605
2627282.2628118.-	2628118	2627282	-	KZN_V2475	2155551.2156387.-	2156387	2155551	-	KZN_605
2802832.2803668.+	2802832	2803668	+	KZN_V2475	2155551.2156387.-	2156387	2155551	-	KZN_605
3078161.3078997.+	3078161	3078997	+	KZN_V2475	2155551.2156387.-	2156387	2155551	-	KZN_605
3116328.3117164.-	3117164	3116328	-	KZN_V2475	2155551.2156387.-	2156387	2155551	-	KZN_605
3476116.3476952.+	3476116	3476952	+	KZN_V2475	2155551.2156387.-	2156387	2155551	-	KZN_605
3704480.3705316.-	3705316	3704480	-	KZN_V2475	2155551.2156387.-	2156387	2155551	-	KZN_605
4062486.4063322.-	4063322	4062486	-	KZN_V2475	2155551.2156387.-	2156387	2155551	-	KZN_605
1200222.1201166.-	1201166	1200222	-	KZN_V2475	3211354.3212187.+	3211354	3212187	+	KZN_605
339322.341835.-	341835	339322	-	KZN_V2475	339426.341939.-	341939	339426	-	KZN_605
2849096.2850106.+	2849096	2850106	+	KZN_V2475	1559661.1560671.-	1560671	1559661	-	KZN_605
3603702.3604304.-	3604304	3603702	-	KZN_V2475	3609014.3609616.-	3609616	3609014	-	KZN_605
4003844.4004710.+	4003844	4004710	+	KZN_V2475	4005491.4006357.+	4005491	4006357	+	KZN_605
2585833.2587248.-	2587248	2585833	-	KZN_V2475	1822570.1823985.+	1822570	1823985	+	KZN_605
776363.779179.-	779179	776363	-	KZN_V2475	776429.779245.-	779245	776429	-	KZN_605
1597280.1598263.+	1597280	1598263	+	KZN_V2475	2814592.2815575.-	2815575	2814592	-	KZN_605
1895516.1896511.+	1895516	1896511	+	KZN_V2475	2516342.2517337.-	2517337	2516342	-	KZN_605
110437.117669.+	110437	117669	+	KZN_V2475	110436.117668.+	110436	117668	+	KZN_605
3239068.3240948.+	3239068	3240948	+	KZN_V2475	1168157.1170037.-	1170037	1168157	-	KZN_605
3466678.3467115.-	3467115	3466678	-	KZN_V2475	941931.942368.+	941931	942368	+	KZN_605
1108967.1109299.-	1109299	1108967	-	KZN_V2475	3303218.3303550.+	3303218	3303550	+	KZN_605
4311012.4311416.+	4311012	4311416	+	KZN_V2475	4312889.4313293.+	4312889	4313293	+	KZN_605
2302874.2305663.-	2305663	2302874	-	KZN_V2475	2105668.2108457.+	2105668	2108457	+	KZN_605
1741920.1742528.+	1741920	1742528	+	KZN_V2475	2670497.2671105.-	2671105	2670497	-	KZN_605
882346.883305.+	882346	883305	+	KZN_V2475	882665.883624.+	882665	883624	+	KZN_605
1328426.1329799.-	1329799	1328426	-	KZN_V2475	3083003.3084376.+	3083003	3084376	+	KZN_605
545020.545370.+	545020	545370	+	KZN_V2475	545095.545445.+	545095	545445	+	KZN_605
3992749.3993015.-	3993015	3992749	-	KZN_V2475	3994396.3994662.-	3994662	3994396	-	KZN_605
3048289.3049968.+	3048289	3049968	+	KZN_V2475	1359637.1361316.-	1361316	1359637	-	KZN_605
1579971.1580453.+	1579971	1580453	+	KZN_V2475	2832402.2832884.-	2832884	2832402	-	KZN_605
2499388.2500263.+	2499388	2500263	+	KZN_V2475	1909556.1910431.-	1910431	1909556	-	KZN_605
661248.661514.+	661248	661514	+	KZN_V2475	661323.661589.+	661323	661589	+	KZN_605
4198165.4198920.+	4198165	4198920	+	KZN_V2475	4200042.4200797.+	4200042	4200797	+	KZN_605
3157937.3159781.+	3157937	3159781	+	KZN_V2475	1249824.1251668.-	1251668	1249824	-	KZN_605
2676466.2676675.+	2676466	2676675	+	KZN_V2475	1733151.1733360.-	1733360	1733151	-	KZN_605
85766.86620.-	86620	85766	-	KZN_V2475	85765.86619.-	86619	85765	-	KZN_605
2574534.2574857.-	2574857	2574534	-	KZN_V2475	1834961.1835284.+	1834961	1835284	+	KZN_605
232168.234414.+	232168	234414	+	KZN_V2475	232168.234414.+	232168	234414	+	KZN_605
4255778.4256311.-	4256311	4255778	-	KZN_V2475	4257655.4258188.-	4258188	4257655	-	KZN_605
3869701.3870420.+	3869701	3870420	+	KZN_V2475	3875125.3875844.+	3875125	3875844	+	KZN_605
103840.104559.-	104559	103840	-	KZN_V2475	3875125.3875844.+	3875125	3875844	+	KZN_605
1778871.1779593.-	1779593	1778871	-	KZN_V2475	3875125.3875844.+	3875125	3875844	+	KZN_605
3407349.3409430.-	3409430	3407349	-	KZN_V2475	999616.1001697.+	999616	1001697	+	KZN_605
4289336.4290961.-	4290961	4289336	-	KZN_V2475	4291213.4292838.-	4292838	4291213	-	KZN_605
1339710.1340039.+	1339710	1340039	+	KZN_V2475	3072763.3073092.-	3073092	3072763	-	KZN_605
3358572.3358949.+	3358572	3358949	+	KZN_V2475	1050097.1050474.-	1050474	1050097	-	KZN_605
475511.475927.+	475511	475927	+	KZN_V2475	475586.476002.+	475586	476002	+	KZN_605
2276034.2276357.+	2276034	2276357	+	KZN_V2475	2134977.2135300.-	2135300	2134977	-	KZN_605
1114968.1115177.-	1115177	1114968	-	KZN_V2475	3297340.3297549.+	3297340	3297549	+	KZN_605
223936.224601.+	223936	224601	+	KZN_V2475	223936.224601.+	223936	224601	+	KZN_605
69643.71661.+	69643	71661	+	KZN_V2475	69642.71660.+	69642	71660	+	KZN_605
2601915.2602136.+	2601915	2602136	+	KZN_V2475	1807691.1807912.-	1807912	1807691	-	KZN_605
2526439.2527077.+	2526439	2527077	+	KZN_V2475	1882742.1883380.-	1883380	1882742	-	KZN_605
2912061.2912270.-	2912270	2912061	-	KZN_V2475	1497496.1497705.+	1497496	1497705	+	KZN_605
3371753.3372115.-	3372115	3371753	-	KZN_V2475	1036931.1037293.+	1036931	1037293	+	KZN_605
3892217.3892381.+	3892217	3892381	+	KZN_V2475	3897641.3897805.+	3897641	3897805	+	KZN_605
2275887.2276357.+	2275887	2276357	+	KZN_V2475	2134977.2135447.-	2135447	2134977	-	KZN_605
3285205.3285735.+	3285205	3285735	+	KZN_V2475	1123370.1123900.-	1123900	1123370	-	KZN_605
2964372.2964689.-	2964689	2964372	-	KZN_V2475	1445077.1445394.+	1445077	1445394	+	KZN_605
1419752.1420525.-	1420525	1419752	-	KZN_V2475	2992275.2993048.+	2992275	2993048	+	KZN_605
