SaurJH1_0001	641	2002	+
SaurJH1_0002	2280	3413	+
SaurJH1_0003	3803	4039	+
SaurJH1_0004	4036	5148	+
SaurJH1_0005	5170	7092	+
SaurJH1_0006	7129	9798	+
SaurJH1_0007	10698	9886	-
SaurJH1_0008	11024	12538	+
SaurJH1_0009	12917	14203	+
SaurJH1_0010	14854	15549	+
SaurJH1_0011	15546	15875	+
SaurJH1_0012	16238	17206	+
SaurJH1_0013	17499	18437	+
SaurJH1_0014	18452	20419	+
SaurJH1_0015	20416	20862	+
SaurJH1_0016	20894	22294	+
SaurJH1_0017	22572	23855	+
SaurJH1_0018	25058	25759	+
SaurJH1_0019	25772	27598	+
SaurJH1_0020	27591	28925	+
SaurJH1_0021	28926	29714	+
SaurJH1_0022	30103	30903	+
SaurJH1_0023	31130	33448	+
SaurJH1_0024	33816	34295	+
SaurJH1_0025	34617	35873	+
SaurJH1_0026	37233	36559	-
SaurJH1_0027	37498	38241	+
SaurJH1_0028	38338	38766	+
SaurJH1_0029	40818	38812	-
SaurJH1_0030	40918	42675	+
SaurJH1_0031	42675	43046	+
SaurJH1_0032	43554	44663	+
SaurJH1_0035	47208	46144	-
SaurJH1_0036	47344	47604	+
SaurJH1_0037	47604	48248	+
SaurJH1_0038	49249	48587	-
SaurJH1_0039	49745	50476	+
SaurJH1_0040	51384	50602	-
SaurJH1_0041	51912	51535	-
SaurJH1_0042	53811	51919	-
SaurJH1_0043	54893	53808	-
SaurJH1_0044	55329	55012	-
SaurJH1_0045	55856	55350	-
SaurJH1_0046	56185	55874	-
SaurJH1_0047	56279	56187	-
SaurJH1_0048	56622	56272	-
SaurJH1_0049	58768	57140	-
SaurJH1_0050	60139	58790	-
SaurJH1_0051	62166	60373	-
SaurJH1_0052	62462	62166	-
SaurJH1_0053	63701	62655	-
SaurJH1_0054	64374	63952	-
SaurJH1_0055	64794	64441	-
SaurJH1_0056	65093	64779	-
SaurJH1_0057	65263	65397	+
SaurJH1_0059	67947	67252	-
SaurJH1_0060	70591	67922	-
SaurJH1_0061	70859	72535	+
SaurJH1_0062	72554	74575	+
SaurJH1_0063	74591	75148	+
SaurJH1_0064	76562	75693	-
SaurJH1_0065	77468	76572	-
SaurJH1_0066	78105	77668	-
SaurJH1_0067	78497	78210	-
SaurJH1_0068	79213	78587	-
SaurJH1_0069	79328	80836	+
SaurJH1_0070	81184	81276	+
SaurJH1_0071	81423	83168	+
SaurJH1_0073	84867	84112	-
SaurJH1_0074	85127	84867	-
SaurJH1_0075	85264	86328	+
SaurJH1_0076	86359	87693	+
SaurJH1_0077	87712	88905	+
SaurJH1_0078	89273	89172	-
SaurJH1_0079	90558	89572	-
SaurJH1_0080	90867	91070	+
SaurJH1_0081	91119	91415	+
SaurJH1_0082	91623	92225	+
SaurJH1_0085	95696	96178	+
SaurJH1_0086	96384	97370	+
SaurJH1_0087	97591	98361	+
SaurJH1_0088	98380	99183	+
SaurJH1_0089	99251	100018	+
SaurJH1_0090	100086	100853	+
SaurJH1_0091	100920	101687	+
SaurJH1_0092	101784	104021	+
SaurJH1_0093	104172	105350	+
SaurJH1_0094	105352	106740	+
SaurJH1_0095	106902	107024	+
SaurJH1_0096	108891	107224	-
SaurJH1_0097	110985	109210	-
SaurJH1_0098	112031	111159	-
SaurJH1_0099	112213	113541	+
SaurJH1_0100	113731	114204	+
SaurJH1_0101	114466	116058	+
SaurJH1_0102	117949	116387	-
SaurJH1_0103	119086	118334	-
SaurJH1_0104	120453	119455	-
SaurJH1_0105	121445	120450	-
SaurJH1_0106	122453	121461	-
SaurJH1_0107	122684	123664	+
SaurJH1_0108	123661	124671	+
SaurJH1_0109	124692	126446	+
SaurJH1_0110	126439	127695	+
SaurJH1_0111	127685	129421	+
SaurJH1_0112	129402	131180	+
SaurJH1_0113	131152	131931	+
SaurJH1_0114	131931	133133	+
SaurJH1_0115	133137	133901	+
SaurJH1_0116	134097	134723	+
SaurJH1_0117	134935	135711	+
SaurJH1_0118	135909	135760	-
SaurJH1_0119	136056	137027	+
SaurJH1_0120	136990	137682	+
SaurJH1_0121	137892	139058	+
SaurJH1_0122	139039	140277	+
SaurJH1_0123	140267	141697	+
SaurJH1_0124	141965	142564	+
SaurJH1_0125	142931	143656	+
SaurJH1_0126	144602	143847	-
SaurJH1_0127	144838	145545	+
SaurJH1_0128	145552	146904	+
SaurJH1_0129	146985	147647	+
SaurJH1_0130	147675	148853	+
SaurJH1_0131	149797	148982	-
SaurJH1_0132	150594	149794	-
SaurJH1_0133	151369	150596	-
SaurJH1_0134	152520	151564	-
SaurJH1_0135	152749	154293	+
SaurJH1_0136	154344	155879	+
SaurJH1_0137	156036	156803	+
SaurJH1_0138	156809	157984	+
SaurJH1_0139	158369	160978	+
SaurJH1_0140	161321	161989	+
SaurJH1_0141	162005	162691	+
SaurJH1_0142	162694	163458	+
SaurJH1_0143	163466	165301	+
SaurJH1_0144	165291	166319	+
SaurJH1_0145	166332	167441	+
SaurJH1_0146	167445	168569	+
SaurJH1_0147	168572	169198	+
SaurJH1_0148	169203	170312	+
SaurJH1_0149	170326	171492	+
SaurJH1_0150	171485	172690	+
SaurJH1_0151	172691	173896	+
SaurJH1_0152	173907	174464	+
SaurJH1_0153	174464	175351	+
SaurJH1_0154	175405	176667	+
SaurJH1_0155	176744	177889	+
SaurJH1_0156	178280	177954	-
SaurJH1_0157	178670	178287	-
SaurJH1_0158	179097	180584	+
SaurJH1_0159	181231	182190	+
SaurJH1_0160	182629	182426	-
SaurJH1_0161	182808	183320	+
SaurJH1_0162	183662	184402	+
SaurJH1_0163	184416	185387	+
SaurJH1_0164	185384	186145	+
SaurJH1_0165	186155	187189	+
SaurJH1_0166	187406	187765	+
SaurJH1_0167	187840	188964	+
SaurJH1_0168	189350	190600	+
SaurJH1_0169	191047	198222	+
SaurJH1_0170	198235	198879	+
SaurJH1_0171	199701	199207	-
SaurJH1_0172	200720	199956	-
SaurJH1_0173	201977	200736	-
SaurJH1_0174	203023	201989	-
SaurJH1_0175	204243	203059	-
SaurJH1_0176	205851	204502	-
SaurJH1_0177	206687	206130	-
SaurJH1_0178	208394	206754	-
SaurJH1_0179	210712	208667	-
SaurJH1_0180	211297	212352	+
SaurJH1_0181	212352	213248	+
SaurJH1_0182	213260	214714	+
SaurJH1_0183	214717	215592	+
SaurJH1_0184	216067	215786	-
SaurJH1_0185	216280	219069	+
SaurJH1_0186	219815	219216	-
SaurJH1_0187	219940	221052	+
SaurJH1_0188	221049	221729	+
SaurJH1_0189	221726	222904	+
SaurJH1_0190	223111	223332	+
SaurJH1_0191	223403	225088	+
SaurJH1_0192	225126	225590	+
SaurJH1_0193	225602	226324	+
SaurJH1_0194	226311	226487	+
SaurJH1_0195	226490	226687	+
SaurJH1_0196	228789	227197	-
SaurJH1_0197	228878	230224	+
SaurJH1_0198	230230	231393	+
SaurJH1_0199	231410	233185	+
SaurJH1_0200	233223	235229	+
SaurJH1_0201	236315	235542	-
SaurJH1_0202	237130	236504	-
SaurJH1_0203	237339	237917	+
SaurJH1_0204	238301	239398	+
SaurJH1_0205	239411	240682	+
SaurJH1_0206	240685	241953	+
SaurJH1_0207	241955	242794	+
SaurJH1_0208	242865	243944	+
SaurJH1_0209	243969	245009	+
SaurJH1_0210	245064	246032	+
SaurJH1_0211	246887	246393	-
SaurJH1_0212	247120	248499	+
SaurJH1_0213	249616	248858	-
SaurJH1_0214	251165	249609	-
SaurJH1_0215	252130	251162	-
SaurJH1_0216	252718	254967	+
SaurJH1_0217	254990	255745	+
SaurJH1_0218	256067	257830	+
SaurJH1_0219	258338	257994	-
SaurJH1_0220	258528	260504	+
SaurJH1_0221	262275	261091	-
SaurJH1_0222	264566	262305	-
SaurJH1_0223	265963	264752	-
SaurJH1_0224	267580	266075	-
SaurJH1_0225	269168	267606	-
SaurJH1_0226	269537	270766	+
SaurJH1_0227	272492	271080	-
SaurJH1_0228	273109	272753	-
SaurJH1_0229	273439	273266	-
SaurJH1_0230	274610	273465	-
SaurJH1_0231	275183	276136	+
SaurJH1_0232	276429	276304	-
SaurJH1_0233	277985	276456	-
SaurJH1_0234	278347	279282	+
SaurJH1_0235	279620	281716	+
SaurJH1_0236	281701	282168	+
SaurJH1_0237	282191	282469	+
SaurJH1_0238	282696	283955	+
SaurJH1_0239	283973	285028	+
SaurJH1_0240	285030	285176	+
SaurJH1_0241	285200	286243	+
SaurJH1_0242	286771	287487	+
SaurJH1_0243	287480	288505	+
SaurJH1_0244	288527	290221	+
SaurJH1_0245	290649	291818	+
SaurJH1_0246	292094	292810	+
SaurJH1_0247	292803	293828	+
SaurJH1_0248	293850	295538	+
SaurJH1_0249	295571	297292	+
SaurJH1_0250	297436	298110	+
SaurJH1_0251	298355	300109	+
SaurJH1_0252	300112	300852	+
SaurJH1_0253	300971	301408	+
SaurJH1_0254	301401	302102	+
SaurJH1_0255	302914	302210	-
SaurJH1_0256	303063	303854	+
SaurJH1_0257	303870	305306	+
SaurJH1_0258	306444	305683	-
SaurJH1_0259	307609	306695	-
SaurJH1_0260	308041	307637	-
SaurJH1_0261	308937	308056	-
SaurJH1_0262	310167	309169	-
SaurJH1_0263	310384	310497	+
SaurJH1_0264	310547	310939	+
SaurJH1_0265	312443	311067	-
SaurJH1_0266	312677	313669	+
SaurJH1_0267	313995	314945	+
SaurJH1_0268	315656	314997	-
SaurJH1_0269	316590	315670	-
SaurJH1_0270	317753	316587	-
SaurJH1_0271	319344	317821	-
SaurJH1_0272	320577	319675	-
SaurJH1_0273	320816	321109	+
SaurJH1_0274	321192	324221	+
SaurJH1_0275	324221	324679	+
SaurJH1_0276	324651	324893	+
SaurJH1_0277	324906	326240	+
SaurJH1_0278	326262	330701	+
SaurJH1_0279	330731	331123	+
SaurJH1_0280	331139	331453	+
SaurJH1_0281	331450	332127	+
SaurJH1_0282	332127	332444	+
SaurJH1_0283	332454	334298	+
SaurJH1_0284	334309	334800	+
SaurJH1_0285	335003	335686	+
SaurJH1_0286	335832	336443	+
SaurJH1_0287	336578	336796	+
SaurJH1_0288	336928	337428	+
SaurJH1_0289	337439	337939	+
SaurJH1_0290	337950	338411	+
SaurJH1_0291	338460	338960	+
SaurJH1_0292	338971	339456	+
SaurJH1_0293	340078	340455	+
SaurJH1_0294	340605	341003	+
SaurJH1_0295	342064	341219	-
SaurJH1_0296	343587	342280	-
SaurJH1_0297	344171	345061	+
SaurJH1_0298	345310	346359	+
SaurJH1_0299	346372	347049	+
SaurJH1_0300	347257	348288	+
SaurJH1_0301	348631	349749	+
SaurJH1_0302	349724	350647	+
SaurJH1_0303	350658	351878	+
SaurJH1_0304	353515	351983	-
SaurJH1_0305	354436	353555	-
SaurJH1_0306	354594	355454	+
SaurJH1_0307	356531	355731	-
SaurJH1_0308	356671	357339	+
SaurJH1_0309	358783	357470	-
SaurJH1_0310	359201	361138	+
SaurJH1_0311	362434	361229	-
SaurJH1_0312	362545	362724	+
SaurJH1_0313	362846	362739	-
SaurJH1_0314	363341	362850	-
SaurJH1_0315	363823	363362	-
SaurJH1_0316	364159	363836	-
SaurJH1_0317	364323	364571	+
SaurJH1_0318	364586	364747	+
SaurJH1_0319	364988	364740	-
SaurJH1_0320	365427	365612	+
SaurJH1_0321	365614	366366	+
SaurJH1_0322	366382	366600	+
SaurJH1_0323	366630	366893	+
SaurJH1_0324	366905	367066	+
SaurJH1_0325	367161	367463	+
SaurJH1_0326	367468	367728	+
SaurJH1_0327	367737	368000	+
SaurJH1_0328	368009	369952	+
SaurJH1_0329	369954	370874	+
SaurJH1_0330	371087	371572	+
SaurJH1_0331	371573	372043	+
SaurJH1_0332	372073	372966	+
SaurJH1_0333	372973	373191	+
SaurJH1_0334	373200	373604	+
SaurJH1_0335	373617	373985	+
SaurJH1_0336	373989	374231	+
SaurJH1_0337	374236	374451	+
SaurJH1_0338	374454	374855	+
SaurJH1_0339	374852	375199	+
SaurJH1_0340	375196	375504	+
SaurJH1_0341	375497	375745	+
SaurJH1_0342	375738	376274	+
SaurJH1_0343	376311	376547	+
SaurJH1_0344	376572	376808	+
SaurJH1_0345	376798	377187	+
SaurJH1_0346	377184	377357	+
SaurJH1_0347	377358	377723	+
SaurJH1_0348	377724	377870	+
SaurJH1_0349	377894	378316	+
SaurJH1_0350	378644	379138	+
SaurJH1_0351	379131	380339	+
SaurJH1_0352	380293	381771	+
SaurJH1_0353	381728	382690	+
SaurJH1_0354	382788	383384	+
SaurJH1_0355	383405	384229	+
SaurJH1_0356	384246	384572	+
SaurJH1_0357	384572	384886	+
SaurJH1_0358	384879	385214	+
SaurJH1_0359	385201	385614	+
SaurJH1_0360	385627	386064	+
SaurJH1_0361	386051	386611	+
SaurJH1_0362	386673	387167	+
SaurJH1_0363	387188	387529	+
SaurJH1_0364	387532	390501	+
SaurJH1_0365	390516	391451	+
SaurJH1_0366	391462	393348	+
SaurJH1_0367	393361	395259	+
SaurJH1_0368	395259	397082	+
SaurJH1_0369	397082	397459	+
SaurJH1_0370	397460	397636	+
SaurJH1_0371	397677	397976	+
SaurJH1_0372	398113	399987	+
SaurJH1_0373	400000	401172	+
SaurJH1_0374	401169	401573	+
SaurJH1_0375	401629	402066	+
SaurJH1_0376	402047	403492	+
SaurJH1_0377	403688	403855	+
SaurJH1_0378	403901	403993	+
SaurJH1_0379	404260	404382	+
SaurJH1_0380	405451	404624	-
SaurJH1_0381	406723	405524	-
SaurJH1_0382	407025	408026	+
SaurJH1_0383	408060	408392	+
SaurJH1_0384	408393	409193	+
SaurJH1_0385	409183	410127	+
SaurJH1_0386	410105	411127	+
SaurJH1_0387	411443	412468	+
SaurJH1_0388	413908	412562	-
SaurJH1_0389	414207	413923	-
SaurJH1_0390	414652	414209	-
SaurJH1_0391	416612	414657	-
SaurJH1_0392	416824	417243	+
SaurJH1_0393	417350	418705	+
SaurJH1_0394	418809	419249	+
SaurJH1_0395	420690	419332	-
SaurJH1_0396	421002	421928	+
SaurJH1_0397	421942	423003	+
SaurJH1_0398	423017	423583	+
SaurJH1_0399	424637	423642	-
SaurJH1_0400	425002	425547	+
SaurJH1_0401	425814	426668	+
SaurJH1_0402	426665	427894	+
SaurJH1_0403	427875	429587	+
SaurJH1_0404	430433	429828	-
SaurJH1_0405	430761	430546	-
SaurJH1_0406	431259	430870	-
SaurJH1_0407	431499	431702	+
SaurJH1_0408	431699	432412	+
SaurJH1_0409	432437	433279	+
SaurJH1_0410	433279	433908	+
SaurJH1_0411	435428	434295	-
SaurJH1_0412	435967	437148	+
SaurJH1_0413	437983	437231	-
SaurJH1_0414	440254	438026	-
SaurJH1_0415	442092	440251	-
SaurJH1_0416	443221	442061	-
SaurJH1_0417	444321	443218	-
SaurJH1_0418	444527	444865	+
SaurJH1_0419	444992	445828	+
SaurJH1_0420	445982	446863	+
SaurJH1_0421	446893	447096	+
SaurJH1_0422	447108	448205	+
SaurJH1_0423	448482	448291	-
SaurJH1_0424	448726	449022	+
SaurJH1_0425	449043	449546	+
SaurJH1_0426	449598	449840	+
SaurJH1_0427	451091	450117	-
SaurJH1_0429	452013	452624	+
SaurJH1_0430	452993	453361	+
SaurJH1_0431	453542	454114	+
SaurJH1_0432	454514	454251	-
SaurJH1_0433	454814	455065	+
SaurJH1_0434	455313	455104	-
SaurJH1_0435	455491	456072	+
SaurJH1_0436	456524	456138	-
SaurJH1_0437	457417	456791	-
SaurJH1_0438	457735	457490	-
SaurJH1_0439	459384	457861	-
SaurJH1_0440	459969	459400	-
SaurJH1_0441	460461	461216	+
SaurJH1_0442	462684	461296	-
SaurJH1_0443	464618	463662	-
SaurJH1_0444	465398	464736	-
SaurJH1_0445	465948	465541	-
SaurJH1_0446	466461	467039	+
SaurJH1_0447	467039	468307	+
SaurJH1_0448	468345	469811	+
SaurJH1_0449	469836	471377	+
SaurJH1_0450	472026	471490	-
SaurJH1_0451	473122	472418	-
SaurJH1_0454	474215	474054	-
SaurJH1_0455	475097	474738	-
SaurJH1_0456	475961	475116	-
SaurJH1_0457	476433	477113	+
SaurJH1_0458	477399	478094	+
SaurJH1_0459	478385	479455	+
SaurJH1_0460	479819	480697	+
SaurJH1_0461	481061	481765	+
SaurJH1_0462	482211	482906	+
SaurJH1_0463	483245	483943	+
SaurJH1_0464	484320	485018	+
SaurJH1_0465	485384	486067	+
SaurJH1_0466	486331	487887	+
SaurJH1_0467	487880	489091	+
SaurJH1_0468	489474	490157	+
SaurJH1_0469	490179	491666	+
SaurJH1_0470	492083	491775	-
SaurJH1_0471	492450	493223	+
SaurJH1_0472	493254	494048	+
SaurJH1_0473	494096	494881	+
SaurJH1_0475	495748	496533	+
SaurJH1_0476	496552	497334	+
SaurJH1_0477	497394	498185	+
SaurJH1_0478	498237	499037	+
SaurJH1_0479	499056	499838	+
SaurJH1_0480	500020	500832	+
SaurJH1_0481	500822	502147	+
SaurJH1_0482	502144	502467	+
SaurJH1_0483	502486	502800	+
SaurJH1_0484	503283	503089	-
SaurJH1_0485	503468	504670	+
SaurJH1_0486	504939	505067	+
SaurJH1_0487	506258	507742	+
SaurJH1_0488	507755	510460	+
SaurJH1_0489	510622	510984	+
SaurJH1_0490	511629	511213	-
SaurJH1_0491	511667	512341	+
SaurJH1_0492	512378	513112	+
SaurJH1_0493	513481	514821	+
SaurJH1_0494	514987	515943	+
SaurJH1_0495	515936	517078	+
SaurJH1_0496	517370	518398	+
SaurJH1_0497	518402	519061	+
SaurJH1_0498	519098	519940	+
SaurJH1_0499	520272	521276	+
SaurJH1_0500	521730	521461	-
SaurJH1_0501	521879	522274	+
SaurJH1_0502	522264	522749	+
SaurJH1_0503	523700	522918	-
SaurJH1_0504	524809	523697	-
SaurJH1_0505	525814	524930	-
SaurJH1_0506	525995	530494	+
SaurJH1_0507	530512	531975	+
SaurJH1_0508	532805	534232	+
SaurJH1_0509	534296	535936	+
SaurJH1_0510	535961	536689	+
SaurJH1_0511	537332	537856	+
SaurJH1_0512	537925	539622	+
SaurJH1_0513	539712	540029	+
SaurJH1_0514	540036	540632	+
SaurJH1_0515	547423	548760	+
SaurJH1_0516	548762	549379	+
SaurJH1_0517	549407	549736	+
SaurJH1_0518	549950	550876	+
SaurJH1_0519	550877	551680	+
SaurJH1_0520	551697	552044	+
SaurJH1_0521	552318	553043	+
SaurJH1_0522	553036	553284	+
SaurJH1_0523	553286	554125	+
SaurJH1_0524	554410	556383	+
SaurJH1_0525	556414	557187	+
SaurJH1_0526	557354	557890	+
SaurJH1_0527	557901	558794	+
SaurJH1_0528	558894	559157	+
SaurJH1_0529	559467	560315	+
SaurJH1_0530	560329	561153	+
SaurJH1_0531	561170	561550	+
SaurJH1_0532	561622	561924	+
SaurJH1_0533	562135	562266	+
SaurJH1_0534	562289	563641	+
SaurJH1_0535	563788	564753	+
SaurJH1_0536	564903	565556	+
SaurJH1_0537	565867	566439	+
SaurJH1_0538	566439	569945	+
SaurJH1_0539	569935	571461	+
SaurJH1_0540	571461	572654	+
SaurJH1_0541	572651	572914	+
SaurJH1_0542	572932	573324	+
SaurJH1_0543	573429	573830	+
SaurJH1_0544	574010	575305	+
SaurJH1_0545	575310	575849	+
SaurJH1_0546	576106	578199	+
SaurJH1_0547	578427	579308	+
SaurJH1_0548	579487	580419	+
SaurJH1_0549	580635	581438	+
SaurJH1_0550	581416	581781	+
SaurJH1_0551	581778	582254	+
SaurJH1_0552	582648	582740	+
SaurJH1_0553	582733	584280	+
SaurJH1_0554	597894	596512	-
SaurJH1_0555	597998	598885	+
SaurJH1_0556	598889	599449	+
SaurJH1_0557	600871	599657	-
SaurJH1_0558	601029	601490	+
SaurJH1_0559	601509	602075	+
SaurJH1_0560	602062	603072	+
SaurJH1_0561	603086	605542	+
SaurJH1_0562	606027	607391	+
SaurJH1_0563	607416	608489	+
SaurJH1_0564	609046	610500	+
SaurJH1_0565	610923	611570	+
SaurJH1_0566	611554	612954	+
SaurJH1_0567	612947	613351	+
SaurJH1_0568	613359	614105	+
SaurJH1_0569	614105	614629	+
SaurJH1_0570	614710	615279	+
SaurJH1_0571	615394	615537	+
SaurJH1_0572	615593	615775	+
SaurJH1_0573	615788	616336	+
SaurJH1_0574	616517	616939	+
SaurJH1_0575	617147	617839	+
SaurJH1_0576	618110	618610	+
SaurJH1_0577	618653	619021	+
SaurJH1_0578	619196	619804	+
SaurJH1_0579	620019	623570	+
SaurJH1_0580	623707	627330	+
SaurJH1_0581	627467	627721	+
SaurJH1_0582	627819	628232	+
SaurJH1_0583	628298	628768	+
SaurJH1_0584	628891	630972	+
SaurJH1_0585	631189	632373	+
SaurJH1_0586	633830	632655	-
SaurJH1_0587	634001	635188	+
SaurJH1_0588	635458	636336	+
SaurJH1_0589	636492	638132	+
SaurJH1_0590	638346	639311	+
SaurJH1_0591	639647	640723	+
SaurJH1_0592	640973	641656	+
SaurJH1_0593	642434	641772	-
SaurJH1_0594	643089	642427	-
SaurJH1_0595	643111	643581	+
SaurJH1_0596	643728	644597	+
SaurJH1_0597	644618	645184	+
SaurJH1_0598	645614	648511	+
SaurJH1_0599	648878	652891	+
SaurJH1_0600	653285	656746	+
SaurJH1_0601	656867	658339	+
SaurJH1_0602	659954	658464	-
SaurJH1_0603	661114	660236	-
SaurJH1_0604	661792	661127	-
SaurJH1_0605	662168	661806	-
SaurJH1_0606	662444	663202	+
SaurJH1_0607	663279	663911	+
SaurJH1_0608	663913	664461	+
SaurJH1_0609	664574	665221	+
SaurJH1_0610	665723	667123	+
SaurJH1_0611	667374	667667	+
SaurJH1_0612	667667	669043	+
SaurJH1_0613	669045	670184	+
SaurJH1_0614	670159	670524	+
SaurJH1_0615	670527	670796	+
SaurJH1_0616	671164	670997	-
SaurJH1_0617	672501	671671	-
SaurJH1_0618	672685	673341	+
SaurJH1_0619	673342	673722	+
SaurJH1_0620	673855	674223	+
SaurJH1_0621	674344	675828	+
SaurJH1_0622	676421	675969	-
SaurJH1_0623	677198	676434	-
SaurJH1_0624	677509	677706	+
SaurJH1_0625	678499	677747	-
SaurJH1_0626	678667	679653	+
SaurJH1_0627	679656	680492	+
SaurJH1_0628	681079	681999	+
SaurJH1_0629	682004	682987	+
SaurJH1_0630	683000	684076	+
SaurJH1_0631	684253	684594	+
SaurJH1_0632	685968	684646	-
SaurJH1_0633	686395	685955	-
SaurJH1_0634	687020	688414	+
SaurJH1_0635	688418	689050	+
SaurJH1_0636	689097	689717	+
SaurJH1_0637	689857	690489	+
SaurJH1_0638	690937	691875	+
SaurJH1_0639	692321	692857	+
SaurJH1_0640	693025	693501	+
SaurJH1_0641	693541	694836	+
SaurJH1_0642	694879	695385	+
SaurJH1_0643	695884	696894	+
SaurJH1_0644	697170	697586	+
SaurJH1_0645	697583	699244	+
SaurJH1_0646	699514	700149	+
SaurJH1_0647	700401	701288	+
SaurJH1_0648	701401	702387	+
SaurJH1_0649	702442	703161	+
SaurJH1_0650	703145	703945	+
SaurJH1_0651	704081	704587	+
SaurJH1_0652	704749	705465	+
SaurJH1_0653	705634	706422	+
SaurJH1_0655	707049	706675	-
SaurJH1_0656	708926	707997	-
SaurJH1_0657	709345	709121	-
SaurJH1_0658	709565	709362	-
SaurJH1_0659	709724	710284	+
SaurJH1_0660	710303	712705	+
SaurJH1_0661	712692	713117	+
SaurJH1_0662	713114	713458	+
SaurJH1_0663	713448	714944	+
SaurJH1_0664	714945	715427	+
SaurJH1_0665	715424	715726	+
SaurJH1_0666	715701	716138	+
SaurJH1_0667	716478	718520	+
SaurJH1_0668	720020	718701	-
SaurJH1_0669	722069	721140	-
SaurJH1_0670	722902	722066	-
SaurJH1_0671	723639	722896	-
SaurJH1_0672	723761	724405	+
SaurJH1_0673	725237	724485	-
SaurJH1_0674	725473	726237	+
SaurJH1_0675	727092	726298	-
SaurJH1_0676	727439	728251	+
SaurJH1_0677	728350	729453	+
SaurJH1_0678	729450	730511	+
SaurJH1_0679	730574	730972	+
SaurJH1_0680	732384	731089	-
SaurJH1_0681	732805	734532	+
SaurJH1_0682	734889	736118	+
SaurJH1_0683	736373	736465	+
SaurJH1_0684	736643	737476	+
SaurJH1_0685	737758	738555	+
SaurJH1_0686	738591	739595	+
SaurJH1_0687	739592	740608	+
SaurJH1_0688	740842	741810	+
SaurJH1_0689	741852	742436	+
SaurJH1_0690	742429	742791	+
SaurJH1_0691	742907	743404	+
SaurJH1_0692	743861	744928	+
SaurJH1_0693	745079	746122	+
SaurJH1_0694	746451	746879	+
SaurJH1_0695	747594	747088	-
SaurJH1_0696	747707	748630	+
SaurJH1_0697	748646	749320	+
SaurJH1_0698	749313	750353	+
SaurJH1_0699	750497	751258	+
SaurJH1_0700	751248	753137	+
SaurJH1_0701	754602	753283	-
SaurJH1_0702	755382	755999	+
SaurJH1_0703	756015	757022	+
SaurJH1_0704	758407	757610	-
SaurJH1_0705	758768	759412	+
SaurJH1_0706	760109	762259	+
SaurJH1_0707	762405	762764	+
SaurJH1_0708	762954	763670	+
SaurJH1_0709	763670	764143	+
SaurJH1_0710	764235	764351	+
SaurJH1_0711	764496	765140	+
SaurJH1_0712	765256	766122	+
SaurJH1_0713	766260	767474	+
SaurJH1_0715	768746	768057	-
SaurJH1_0716	768873	769316	+
SaurJH1_0717	769383	769778	+
SaurJH1_0718	769916	770215	+
SaurJH1_0719	770295	770837	+
SaurJH1_0720	771499	770933	-
SaurJH1_0721	771959	771501	-
SaurJH1_0722	772645	771962	-
SaurJH1_0723	773692	772817	-
SaurJH1_0724	773911	775542	+
SaurJH1_0725	775539	777212	+
SaurJH1_0726	777782	777339	-
SaurJH1_0727	778009	778935	+
SaurJH1_0728	779038	779946	+
SaurJH1_0729	779981	780268	+
SaurJH1_0730	780551	782104	+
SaurJH1_0731	782190	783563	+
SaurJH1_0732	784002	783718	-
SaurJH1_0733	784616	783999	-
SaurJH1_0734	785224	784802	-
SaurJH1_0735	785437	786603	+
SaurJH1_0736	786896	787348	+
SaurJH1_0737	787522	788004	+
SaurJH1_0738	788257	789018	+
SaurJH1_0739	789015	789935	+
SaurJH1_0740	789941	791899	+
SaurJH1_0741	792207	793388	+
SaurJH1_0742	793609	794958	+
SaurJH1_0743	795180	796019	+
SaurJH1_0744	796151	797134	+
SaurJH1_0745	798261	797206	-
SaurJH1_0746	798947	798261	-
SaurJH1_0747	799395	798922	-
SaurJH1_0748	800178	799738	-
SaurJH1_0749	801042	800458	-
SaurJH1_0750	801854	801141	-
SaurJH1_0751	802277	801858	-
SaurJH1_0752	802947	802279	-
SaurJH1_0753	803298	803891	+
SaurJH1_0754	803875	805026	+
SaurJH1_0755	805026	805634	+
SaurJH1_0756	805688	805906	+
SaurJH1_0757	805994	806704	+
SaurJH1_0758	806688	807692	+
SaurJH1_0759	808166	810106	+
SaurJH1_0760	810382	812259	+
SaurJH1_0761	812271	814052	+
SaurJH1_0762	814274	815251	+
SaurJH1_0763	815244	816758	+
SaurJH1_0764	816998	818056	+
SaurJH1_0765	818395	818937	+
SaurJH1_0766	820733	819816	-
SaurJH1_0767	822508	821003	-
SaurJH1_0768	822819	822574	-
SaurJH1_0769	823349	822849	-
SaurJH1_0770	824235	823369	-
SaurJH1_0771	825036	825434	+
SaurJH1_0772	825397	827502	+
SaurJH1_0773	827620	828591	+
SaurJH1_0774	828966	829937	+
SaurJH1_0775	829924	830880	+
SaurJH1_0776	830877	831638	+
SaurJH1_0777	831757	832785	+
SaurJH1_0778	833416	833102	-
SaurJH1_0779	834357	833434	-
SaurJH1_0780	835002	834484	-
SaurJH1_0781	835122	836000	+
SaurJH1_0782	836154	836474	+
SaurJH1_0783	836898	838022	+
SaurJH1_0784	839435	838209	-
SaurJH1_0785	839943	839449	-
SaurJH1_0786	840722	839961	-
SaurJH1_0787	841988	840918	-
SaurJH1_0788	842306	843361	+
SaurJH1_0789	844167	843526	-
SaurJH1_0790	844311	845177	+
SaurJH1_0791	845541	846623	+
SaurJH1_0792	846616	847290	+
SaurJH1_0793	847351	847923	+
SaurJH1_0795	848337	850868	+
SaurJH1_0796	852702	853541	+
SaurJH1_0797	853715	854365	+
SaurJH1_0798	854362	854598	+
SaurJH1_0799	854867	856852	+
SaurJH1_0800	856860	859706	+
SaurJH1_0801	860370	861302	+
SaurJH1_0802	861308	862147	+
SaurJH1_0803	862155	862640	+
SaurJH1_0804	862648	864087	+
SaurJH1_0805	864154	865089	+
SaurJH1_0806	865975	866886	+
SaurJH1_0807	866883	867878	+
SaurJH1_0808	867989	868933	+
SaurJH1_0809	869497	870084	+
SaurJH1_0810	871229	870327	-
SaurJH1_0811	871932	872561	+
SaurJH1_0812	873318	874331	+
SaurJH1_0813	874384	875394	+
SaurJH1_0814	875533	876723	+
SaurJH1_0815	876845	877606	+
SaurJH1_0816	877609	879126	+
SaurJH1_0817	879256	880560	+
SaurJH1_0818	880899	881357	+
SaurJH1_0819	881424	881657	+
SaurJH1_0820	881773	882513	+
SaurJH1_0821	882547	884919	+
SaurJH1_0822	884941	885405	+
SaurJH1_0823	887050	886727	-
SaurJH1_0824	887212	887066	-
SaurJH1_0825	888132	887404	-
SaurJH1_0826	888730	889251	+
SaurJH1_0827	889390	889920	+
SaurJH1_0828	890183	892900	+
SaurJH1_0829	893121	894623	+
SaurJH1_0830	894976	895998	+
SaurJH1_0831	896333	896854	+
SaurJH1_0832	897195	897881	+
SaurJH1_0833	898238	898438	+
SaurJH1_0834	899148	898930	-
SaurJH1_0835	899494	899225	-
SaurJH1_0836	900151	899582	-
SaurJH1_0837	900527	900339	-
SaurJH1_0838	900816	900556	-
SaurJH1_0839	901139	901360	+
SaurJH1_0840	901593	901357	-
SaurJH1_0841	901818	902399	+
SaurJH1_0842	903089	902472	-
SaurJH1_0843	903738	903244	-
SaurJH1_0844	904559	904137	-
SaurJH1_0845	904707	905423	+
SaurJH1_0846	905506	906045	+
SaurJH1_0847	906516	906196	-
SaurJH1_0848	906660	907016	+
SaurJH1_0849	907174	907554	+
SaurJH1_0850	907618	907731	+
SaurJH1_0851	907733	908611	+
SaurJH1_0852	909408	909794	+
SaurJH1_0853	909787	910083	+
SaurJH1_0854	910333	911358	+
SaurJH1_0855	911351	912046	+
SaurJH1_0856	912064	912885	+
SaurJH1_0857	913239	913433	+
SaurJH1_0858	914518	913667	-
SaurJH1_0859	914846	915607	+
SaurJH1_0860	915705	917012	+
SaurJH1_0861	917127	918368	+
SaurJH1_0862	918358	918822	+
SaurJH1_0863	918973	920370	+
SaurJH1_0864	921487	920438	-
SaurJH1_0865	921600	921779	+
SaurJH1_0866	922691	921759	-
SaurJH1_0867	923448	922723	-
SaurJH1_0868	924150	923476	-
SaurJH1_0869	924499	924167	-
SaurJH1_0870	924762	924956	+
SaurJH1_0871	924956	925723	+
SaurJH1_0872	925724	925948	+
SaurJH1_0873	925988	926437	+
SaurJH1_0874	926451	926672	+
SaurJH1_0875	926665	926826	+
SaurJH1_0876	926920	927222	+
SaurJH1_0877	927227	927487	+
SaurJH1_0878	927497	927718	+
SaurJH1_0879	927711	928334	+
SaurJH1_0880	928334	928762	+
SaurJH1_0881	928776	929450	+
SaurJH1_0882	929447	929596	+
SaurJH1_0883	929870	929589	-
SaurJH1_0884	929936	930706	+
SaurJH1_0885	930716	931495	+
SaurJH1_0886	931489	931647	+
SaurJH1_0887	931660	931881	+
SaurJH1_0888	931891	932295	+
SaurJH1_0889	932300	932485	+
SaurJH1_0890	932486	932791	+
SaurJH1_0891	932919	933275	+
SaurJH1_0892	933279	933521	+
SaurJH1_0893	933530	933901	+
SaurJH1_0894	933894	934148	+
SaurJH1_0895	934135	934305	+
SaurJH1_0896	934298	934831	+
SaurJH1_0897	934868	935074	+
SaurJH1_0898	935062	935265	+
SaurJH1_0899	935262	935465	+
SaurJH1_0900	935458	935694	+
SaurJH1_0901	935684	935860	+
SaurJH1_0902	935861	935965	+
SaurJH1_0903	936031	936453	+
SaurJH1_0904	936566	937135	+
SaurJH1_0905	937138	938433	+
SaurJH1_0906	938444	939982	+
SaurJH1_0907	939989	940984	+
SaurJH1_0908	941057	941227	+
SaurJH1_0909	941336	941956	+
SaurJH1_0910	941970	942944	+
SaurJH1_0911	942966	943253	+
SaurJH1_0912	943262	943594	+
SaurJH1_0913	943591	943893	+
SaurJH1_0914	943893	944240	+
SaurJH1_0915	944252	944635	+
SaurJH1_0916	944654	945235	+
SaurJH1_0917	945297	945662	+
SaurJH1_0918	945692	946036	+
SaurJH1_0919	946053	949520	+
SaurJH1_0920	949533	950480	+
SaurJH1_0921	950489	952390	+
SaurJH1_0922	952405	954315	+
SaurJH1_0923	954315	956138	+
SaurJH1_0924	956138	956515	+
SaurJH1_0925	956519	956692	+
SaurJH1_0926	956732	957031	+
SaurJH1_0927	957168	959066	+
SaurJH1_0928	959079	960317	+
SaurJH1_0929	960314	960718	+
SaurJH1_0930	960774	961049	+
SaurJH1_0931	961036	962448	+
SaurJH1_0932	963065	962508	-
SaurJH1_0933	963663	963773	+
SaurJH1_0934	963760	963960	+
SaurJH1_0935	965104	964790	-
SaurJH1_0936	965469	966509	+
SaurJH1_0937	966523	967590	+
SaurJH1_0938	967647	967513	-
SaurJH1_0939	967975	968823	+
SaurJH1_0940	968836	969663	+
SaurJH1_0941	969690	971009	+
SaurJH1_0942	971093	972010	+
SaurJH1_0943	972140	972523	+
SaurJH1_0944	972729	974048	+
SaurJH1_0945	974388	974122	-
SaurJH1_0946	974486	974920	+
SaurJH1_0947	974920	975699	+
SaurJH1_0948	975732	976691	+
SaurJH1_0949	976945	977055	+
SaurJH1_0950	977103	977255	+
SaurJH1_0951	977271	978728	+
SaurJH1_0952	978725	979939	+
SaurJH1_0953	979957	980193	+
SaurJH1_0954	980190	981365	+
SaurJH1_0955	981870	981628	-
SaurJH1_0956	981971	982294	+
SaurJH1_0957	983417	982353	-
SaurJH1_0958	983734	983970	+
SaurJH1_0959	983983	984342	+
SaurJH1_0960	984796	986004	+
SaurJH1_0961	986135	987610	+
SaurJH1_0962	988021	989337	+
SaurJH1_0963	989356	989730	+
SaurJH1_0964	990940	989786	-
SaurJH1_0965	991545	991189	-
SaurJH1_0966	991816	991523	-
SaurJH1_0967	992295	991816	-
SaurJH1_0968	993793	992297	-
SaurJH1_0969	994127	993786	-
SaurJH1_0970	994555	994127	-
SaurJH1_0971	996953	994548	-
SaurJH1_0972	997467	997084	-
SaurJH1_0973	997531	998124	+
SaurJH1_0974	998539	998916	+
SaurJH1_0975	999278	1000405	+
SaurJH1_0976	1000713	1001903	+
SaurJH1_0977	1001970	1003256	+
SaurJH1_0978	1004712	1003783	-
SaurJH1_0979	1006333	1004954	-
SaurJH1_0980	1007528	1006323	-
SaurJH1_0981	1007879	1009210	+
SaurJH1_0982	1009535	1010110	+
SaurJH1_0983	1010115	1010639	+
SaurJH1_0984	1010655	1011230	+
SaurJH1_0985	1011390	1014863	+
SaurJH1_0986	1014867	1018520	+
SaurJH1_0987	1018686	1019588	+
SaurJH1_0988	1019917	1020306	+
SaurJH1_0989	1021794	1020478	-
SaurJH1_0990	1022670	1021846	-
SaurJH1_0991	1022784	1023092	+
SaurJH1_0992	1023640	1025454	+
SaurJH1_0993	1025657	1028266	+
SaurJH1_0994	1029194	1028325	-
SaurJH1_0995	1029304	1030449	+
SaurJH1_0996	1030433	1031074	+
SaurJH1_0997	1031067	1032188	+
SaurJH1_0998	1032166	1032681	+
SaurJH1_0999	1032992	1033426	+
SaurJH1_1000	1033868	1033683	-
SaurJH1_1001	1034163	1035104	+
SaurJH1_1002	1035116	1036360	+
SaurJH1_1003	1036786	1036415	-
SaurJH1_1004	1037029	1037955	+
SaurJH1_1005	1037955	1039025	+
SaurJH1_1006	1039041	1040123	+
SaurJH1_1007	1040113	1041054	+
SaurJH1_1008	1041073	1042728	+
SaurJH1_1009	1042940	1044655	+
SaurJH1_1010	1044706	1045692	+
SaurJH1_1011	1045695	1046675	+
SaurJH1_1012	1046668	1047630	+
SaurJH1_1013	1047642	1048523	+
SaurJH1_1014	1049554	1048565	-
SaurJH1_1015	1049848	1050243	+
SaurJH1_1016	1050614	1051333	+
SaurJH1_1017	1051454	1052440	+
SaurJH1_1018	1052488	1054296	+
SaurJH1_1019	1055562	1054756	-
SaurJH1_1020	1055950	1055585	-
SaurJH1_1021	1056647	1056054	-
SaurJH1_1022	1056833	1057180	+
SaurJH1_1023	1057197	1057832	+
SaurJH1_1024	1057849	1058658	+
SaurJH1_1025	1058655	1059509	+
SaurJH1_1026	1059530	1060915	+
SaurJH1_1027	1060925	1062769	+
SaurJH1_1028	1063047	1063817	+
SaurJH1_1029	1065099	1064014	-
SaurJH1_1030	1065441	1067009	+
SaurJH1_1031	1067154	1067912	+
SaurJH1_1032	1068106	1068615	+
SaurJH1_1033	1069918	1068728	-
SaurJH1_1034	1071071	1069896	-
SaurJH1_1035	1071504	1072988	+
SaurJH1_1036	1072978	1073229	+
SaurJH1_1037	1073229	1074791	+
SaurJH1_1038	1075093	1075896	+
SaurJH1_1039	1077390	1076185	-
SaurJH1_1040	1077516	1078130	+
SaurJH1_1041	1078273	1078127	-
SaurJH1_1042	1079087	1078503	-
SaurJH1_1043	1079566	1079105	-
SaurJH1_1044	1079893	1079579	-
SaurJH1_1045	1080045	1080281	+
SaurJH1_1046	1080295	1081071	+
SaurJH1_1047	1081100	1081243	+
SaurJH1_1048	1081451	1081233	-
SaurJH1_1049	1081486	1081743	+
SaurJH1_1050	1082077	1081712	-
SaurJH1_1051	1082132	1082347	+
SaurJH1_1052	1082372	1082635	+
SaurJH1_1053	1082648	1082809	+
SaurJH1_1054	1082888	1083211	+
SaurJH1_1055	1083226	1083588	+
SaurJH1_1056	1083585	1084751	+
SaurJH1_1057	1084777	1085334	+
SaurJH1_1058	1085394	1087355	+
SaurJH1_1059	1087368	1087553	+
SaurJH1_1060	1087553	1087954	+
SaurJH1_1061	1087954	1088208	+
SaurJH1_1062	1088214	1088456	+
SaurJH1_1063	1088470	1088676	+
SaurJH1_1064	1088679	1089416	+
SaurJH1_1065	1089413	1089802	+
SaurJH1_1066	1089795	1090043	+
SaurJH1_1067	1090036	1090572	+
SaurJH1_1068	1090609	1090815	+
SaurJH1_1069	1090812	1091198	+
SaurJH1_1070	1091195	1091347	+
SaurJH1_1071	1091382	1091615	+
SaurJH1_1072	1091903	1094350	+
SaurJH1_1073	1094496	1094296	-
SaurJH1_1074	1094691	1094981	+
SaurJH1_1075	1094971	1096329	+
SaurJH1_1076	1096342	1096779	+
SaurJH1_1077	1096936	1097250	+
SaurJH1_1078	1097379	1097684	+
SaurJH1_1079	1097674	1099365	+
SaurJH1_1080	1099370	1100608	+
SaurJH1_1081	1100592	1101365	+
SaurJH1_1082	1101377	1102540	+
SaurJH1_1083	1102609	1102887	+
SaurJH1_1084	1102899	1103231	+
SaurJH1_1085	1103228	1103629	+
SaurJH1_1086	1103630	1104025	+
SaurJH1_1087	1104060	1104701	+
SaurJH1_1088	1104793	1105248	+
SaurJH1_1089	1105306	1105656	+
SaurJH1_1090	1105698	1105856	+
SaurJH1_1091	1105870	1112070	+
SaurJH1_1092	1112070	1112894	+
SaurJH1_1093	1112903	1114486	+
SaurJH1_1094	1114486	1114776	+
SaurJH1_1095	1114792	1116702	+
SaurJH1_1096	1116702	1118168	+
SaurJH1_1097	1118168	1118557	+
SaurJH1_1098	1118550	1118714	+
SaurJH1_1099	1118760	1119059	+
SaurJH1_1100	1119195	1119632	+
SaurJH1_1101	1119613	1121058	+
SaurJH1_1102	1121335	1121234	-
SaurJH1_1103	1121618	1123942	+
SaurJH1_1104	1123959	1125317	+
SaurJH1_1105	1125453	1126967	+
SaurJH1_1106	1128023	1127454	-
SaurJH1_1107	1128233	1128451	+
SaurJH1_1108	1129518	1128532	-
SaurJH1_1109	1129717	1129893	+
SaurJH1_1110	1129908	1130510	+
SaurJH1_1111	1130780	1130887	+
SaurJH1_1113	1131853	1133817	+
SaurJH1_1114	1133820	1134140	+
SaurJH1_1115	1134137	1134778	+
SaurJH1_1116	1135156	1134866	-
SaurJH1_1118	1135879	1135523	-
SaurJH1_1119	1136367	1137326	+
SaurJH1_1120	1137503	1137372	-
SaurJH1_1121	1137782	1137567	-
SaurJH1_1122	1137947	1138498	+
SaurJH1_1123	1139488	1138550	-
SaurJH1_1124	1139670	1141031	+
SaurJH1_1125	1141018	1142691	+
SaurJH1_1126	1142678	1143481	+
SaurJH1_1127	1143474	1144295	+
SaurJH1_1128	1144862	1144533	-
SaurJH1_1129	1146081	1144900	-
SaurJH1_1130	1147191	1146163	-
SaurJH1_1131	1148873	1147719	-
SaurJH1_1132	1150079	1149069	-
SaurJH1_1133	1150232	1150651	+
SaurJH1_1134	1150678	1150788	+
SaurJH1_1135	1154604	1150858	-
SaurJH1_1136	1155266	1154832	-
SaurJH1_1137	1155891	1155421	-
SaurJH1_1138	1157156	1155939	-
SaurJH1_1139	1157607	1158800	+
SaurJH1_1140	1159627	1159337	-
SaurJH1_1141	1160229	1159624	-
SaurJH1_1142	1162207	1160219	-
SaurJH1_1143	1163307	1162207	-
SaurJH1_1144	1164195	1163878	-
SaurJH1_1145	1165919	1165059	-
SaurJH1_1146	1166120	1166602	+
SaurJH1_1147	1166589	1167713	+
SaurJH1_1148	1167717	1168421	+
SaurJH1_1149	1168421	1168684	+
SaurJH1_1150	1168686	1169357	+
SaurJH1_1151	1169350	1171539	+
SaurJH1_1152	1171518	1173002	+
SaurJH1_1153	1172995	1174023	+
SaurJH1_1154	1174026	1174592	+
SaurJH1_1155	1174607	1176085	+
SaurJH1_1156	1176107	1177354	+
SaurJH1_1157	1178427	1177621	-
SaurJH1_1158	1179820	1178420	-
SaurJH1_1159	1180410	1179835	-
SaurJH1_1160	1181317	1181183	-
SaurJH1_1161	1181469	1182764	+
SaurJH1_1162	1182988	1182785	-
SaurJH1_1163	1183189	1184361	+
SaurJH1_1164	1184415	1184957	+
SaurJH1_1165	1185111	1185377	+
SaurJH1_1166	1185380	1187098	+
SaurJH1_1167	1187568	1187335	-
SaurJH1_1168	1187766	1189127	+
SaurJH1_1169	1189124	1190143	+
SaurJH1_1170	1190276	1190938	+
SaurJH1_1171	1192881	1191184	-
SaurJH1_1172	1193099	1192881	-
SaurJH1_1173	1194132	1193581	-
SaurJH1_1174	1194497	1195123	+
SaurJH1_1175	1195294	1196406	+
SaurJH1_1176	1196410	1197387	+
SaurJH1_1177	1197478	1198770	+
SaurJH1_1178	1198774	1200180	+
SaurJH1_1179	1200348	1200623	+
SaurJH1_1180	1200767	1201306	+
SaurJH1_1181	1201319	1202413	+
SaurJH1_1182	1202406	1203203	+
SaurJH1_1183	1203209	1204018	+
SaurJH1_1184	1204018	1205091	+
SaurJH1_1185	1205165	1206184	+
SaurJH1_1186	1206467	1206886	+
SaurJH1_1187	1208317	1206965	-
SaurJH1_1188	1209115	1208501	-
SaurJH1_1189	1209254	1210099	+
SaurJH1_1190	1210444	1210253	-
SaurJH1_1191	1210546	1212393	+
SaurJH1_1192	1212700	1212533	-
SaurJH1_1193	1213184	1212702	-
SaurJH1_1194	1213325	1213600	+
SaurJH1_1195	1213902	1215140	+
SaurJH1_1196	1215694	1219146	+
SaurJH1_1197	1220356	1219286	-
SaurJH1_1198	1220637	1221548	+
SaurJH1_1199	1221573	1222034	+
SaurJH1_1200	1222361	1223398	+
SaurJH1_1201	1223414	1223848	+
SaurJH1_1202	1224837	1223911	-
SaurJH1_1203	1225076	1225330	+
SaurJH1_1204	1225722	1225333	-
SaurJH1_1205	1225792	1226334	+
SaurJH1_1206	1226336	1226818	+
SaurJH1_1207	1228019	1226880	-
SaurJH1_1208	1228146	1228703	+
SaurJH1_1209	1228783	1228956	+
SaurJH1_1210	1231047	1229110	-
SaurJH1_1211	1232302	1231250	-
SaurJH1_1212	1232511	1233194	+
SaurJH1_1213	1233194	1234270	+
SaurJH1_1214	1234267	1235145	+
SaurJH1_1215	1235155	1236123	+
SaurJH1_1216	1236185	1236919	+
SaurJH1_1217	1236938	1237261	+
SaurJH1_1218	1237645	1238385	+
SaurJH1_1219	1238765	1239823	+
SaurJH1_1220	1239823	1242225	+
SaurJH1_1221	1243595	1242657	-
SaurJH1_1222	1243965	1244231	+
SaurJH1_1223	1244232	1244753	+
SaurJH1_1224	1244826	1246538	+
SaurJH1_1225	1246548	1248896	+
SaurJH1_1226	1249069	1249383	+
SaurJH1_1227	1249707	1251488	+
SaurJH1_1228	1251812	1252426	+
SaurJH1_1229	1252478	1254244	+
SaurJH1_1230	1254244	1255059	+
SaurJH1_1231	1255295	1256095	+
SaurJH1_1232	1256107	1256694	+
SaurJH1_1233	1256687	1257190	+
SaurJH1_1234	1257318	1257485	+
SaurJH1_1235	1257679	1258008	+
SaurJH1_1236	1258170	1258286	+
SaurJH1_1237	1258778	1258377	-
SaurJH1_1238	1259448	1259954	+
SaurJH1_1239	1260214	1260711	+
SaurJH1_1240	1260861	1261211	+
SaurJH1_1241	1261528	1261770	+
SaurJH1_1242	1262162	1261977	-
SaurJH1_1243	1262590	1262372	-
SaurJH1_1244	1263017	1262784	-
SaurJH1_1245	1263536	1264855	+
SaurJH1_1246	1265973	1265014	-
SaurJH1_1247	1266646	1266792	+
SaurJH1_1248	1266776	1266973	+
SaurJH1_1249	1268179	1267463	-
SaurJH1_1250	1269012	1268287	-
SaurJH1_1251	1269832	1269107	-
SaurJH1_1252	1270270	1271271	+
SaurJH1_1253	1271291	1272226	+
SaurJH1_1254	1272398	1273954	+
SaurJH1_1255	1274261	1274488	+
SaurJH1_1256	1275741	1274794	-
SaurJH1_1257	1277083	1277217	+
SaurJH1_1258	1277274	1277408	+
SaurJH1_1259	1277532	1278227	+
SaurJH1_1260	1278776	1278336	-
SaurJH1_1261	1278971	1280584	+
SaurJH1_1262	1280728	1281159	+
SaurJH1_1263	1281175	1282110	+
SaurJH1_1264	1282124	1282525	+
SaurJH1_1265	1282506	1284740	+
SaurJH1_1266	1285032	1285997	+
SaurJH1_1267	1285999	1287348	+
SaurJH1_1268	1287364	1288683	+
SaurJH1_1269	1288789	1290201	+
SaurJH1_1270	1290234	1291406	+
SaurJH1_1271	1291666	1292457	+
SaurJH1_1272	1292481	1293149	+
SaurJH1_1273	1293146	1293709	+
SaurJH1_1274	1293721	1294011	+
SaurJH1_1275	1294094	1294900	+
SaurJH1_1276	1294924	1295541	+
SaurJH1_1277	1295762	1298515	+
SaurJH1_1278	1298806	1299603	+
SaurJH1_1280	1300427	1300918	+
SaurJH1_1281	1300918	1301835	+
SaurJH1_1282	1302235	1302762	+
SaurJH1_1283	1302980	1304287	+
SaurJH1_1284	1304315	1305196	+
SaurJH1_1285	1305211	1306488	+
SaurJH1_1286	1306490	1307590	+
SaurJH1_1287	1307583	1310756	+
SaurJH1_1288	1310863	1311558	+
SaurJH1_1289	1311558	1312169	+
SaurJH1_1290	1312199	1312411	+
SaurJH1_1291	1312848	1313249	+
SaurJH1_1292	1315209	1313512	-
SaurJH1_1293	1315484	1316107	+
SaurJH1_1294	1316107	1316325	+
SaurJH1_1295	1316541	1317740	+
SaurJH1_1296	1317740	1320148	+
SaurJH1_1297	1320654	1321607	+
SaurJH1_1298	1322048	1321770	-
SaurJH1_1299	1322272	1322760	+
SaurJH1_1300	1322753	1323688	+
SaurJH1_1301	1323685	1324992	+
SaurJH1_1302	1324995	1326089	+
SaurJH1_1303	1326096	1326839	+
SaurJH1_1304	1326836	1328830	+
SaurJH1_1305	1329058	1329933	+
SaurJH1_1306	1329934	1330578	+
SaurJH1_1307	1330585	1331226	+
SaurJH1_1308	1331795	1331607	-
SaurJH1_1309	1332238	1332612	+
SaurJH1_1310	1332627	1334273	+
SaurJH1_1311	1334463	1336523	+
SaurJH1_1312	1336726	1337298	+
SaurJH1_1313	1337303	1338289	+
SaurJH1_1314	1338282	1339208	+
SaurJH1_1315	1339195	1339935	+
SaurJH1_1316	1340370	1340603	+
SaurJH1_1317	1340719	1341450	+
SaurJH1_1318	1341597	1345163	+
SaurJH1_1319	1345163	1346413	+
SaurJH1_1320	1346400	1346732	+
SaurJH1_1321	1346758	1348125	+
SaurJH1_1322	1348560	1348835	+
SaurJH1_1323	1349023	1349526	+
SaurJH1_1324	1349526	1350263	+
SaurJH1_1325	1350366	1350716	+
SaurJH1_1326	1353566	1350960	-
SaurJH1_1327	1353967	1354851	+
SaurJH1_1328	1354835	1355602	+
SaurJH1_1329	1355711	1356877	+
SaurJH1_1330	1356899	1357807	+
SaurJH1_1331	1358034	1359152	+
SaurJH1_1332	1359180	1360424	+
SaurJH1_1335	1361645	1363720	+
SaurJH1_1336	1363876	1365183	+
SaurJH1_1337	1365601	1366497	+
SaurJH1_1338	1366494	1367039	+
SaurJH1_1339	1367105	1368508	+
SaurJH1_1340	1368533	1369306	+
SaurJH1_1341	1369653	1370420	+
SaurJH1_1342	1370454	1370567	+
SaurJH1_1343	1370602	1371483	+
SaurJH1_1344	1371620	1372342	+
SaurJH1_1345	1372361	1372915	+
SaurJH1_1346	1373288	1374058	+
SaurJH1_1347	1374065	1374847	+
SaurJH1_1348	1375059	1376345	+
SaurJH1_1349	1376365	1378068	+
SaurJH1_1350	1378326	1382642	+
SaurJH1_1351	1382932	1383399	+
SaurJH1_1352	1383420	1384595	+
SaurJH1_1353	1384616	1384900	+
SaurJH1_1354	1384897	1385214	+
SaurJH1_1355	1385219	1387336	+
SaurJH1_1356	1387722	1388072	+
SaurJH1_1357	1388241	1389158	+
SaurJH1_1358	1389173	1390144	+
SaurJH1_1359	1390259	1390528	+
SaurJH1_1360	1390897	1392993	+
SaurJH1_1361	1393178	1394902	+
SaurJH1_1362	1395159	1397525	+
SaurJH1_1363	1397530	1398243	+
SaurJH1_1364	1398274	1399539	+
SaurJH1_1365	1399539	1400825	+
SaurJH1_1366	1400825	1401529	+
SaurJH1_1367	1401634	1402461	+
SaurJH1_1368	1402480	1402872	+
SaurJH1_1369	1402906	1403484	+
SaurJH1_1370	1403708	1404859	+
SaurJH1_1371	1405024	1406067	+
SaurJH1_1372	1406421	1407980	+
SaurJH1_1373	1408492	1408277	-
SaurJH1_1374	1408666	1409463	+
SaurJH1_1375	1409603	1411363	+
SaurJH1_1376	1411364	1412230	+
SaurJH1_1377	1412324	1412617	+
SaurJH1_1378	1412751	1414295	+
SaurJH1_1379	1414296	1414661	+
SaurJH1_1380	1414688	1415179	+
SaurJH1_1381	1415482	1418100	+
SaurJH1_1382	1418113	1420122	+
SaurJH1_1383	1420128	1420670	+
SaurJH1_1384	1421145	1421963	+
SaurJH1_1385	1422092	1423588	+
SaurJH1_1386	1423746	1425419	+
SaurJH1_1387	1425566	1426483	+
SaurJH1_1388	1426501	1427436	+
SaurJH1_1389	1427451	1427684	+
SaurJH1_1390	1428382	1427906	-
SaurJH1_1391	1428494	1429732	+
SaurJH1_1392	1429751	1430989	+
SaurJH1_1393	1431232	1431600	+
SaurJH1_1394	1431619	1432959	+
SaurJH1_1395	1433452	1433649	+
SaurJH1_1396	1434348	1434560	+
SaurJH1_1397	1434854	1435060	+
SaurJH1_1398	1435760	1435870	+
SaurJH1_1399	1436294	1436479	+
SaurJH1_1400	1436990	1437094	+
SaurJH1_1401	1437222	1437473	+
SaurJH1_1403	1438196	1438390	+
SaurJH1_1404	1439989	1438934	-
SaurJH1_1405	1440229	1440426	+
SaurJH1_1406	1440447	1441964	+
SaurJH1_1407	1442148	1443047	+
SaurJH1_1408	1443016	1443747	+
SaurJH1_1409	1443751	1444842	+
SaurJH1_1410	1444839	1445441	+
SaurJH1_1411	1445742	1445554	-
SaurJH1_1412	1445842	1446414	+
SaurJH1_1413	1447413	1446559	-
SaurJH1_1414	1447735	1448319	+
SaurJH1_1415	1449755	1448373	-
SaurJH1_1416	1449946	1451226	+
SaurJH1_1417	1451232	1452293	+
SaurJH1_1418	1452295	1453209	+
SaurJH1_1419	1453267	1454070	+
SaurJH1_1420	1454677	1454363	-
SaurJH1_1421	1456349	1454895	-
SaurJH1_1422	1456553	1458070	+
SaurJH1_1423	1458161	1458310	+
SaurJH1_1424	1458764	1459033	+
SaurJH1_1425	1459190	1460167	+
SaurJH1_1426	1460342	1461205	+
SaurJH1_1427	1462208	1461585	-
SaurJH1_1428	1462273	1462584	+
SaurJH1_1429	1462721	1462960	+
SaurJH1_1430	1463081	1465069	+
SaurJH1_1431	1465347	1465589	+
SaurJH1_1432	1465576	1465674	+
SaurJH1_1433	1465768	1466235	+
SaurJH1_1434	1466359	1467480	+
SaurJH1_1435	1467484	1470513	+
SaurJH1_1436	1470946	1470584	-
SaurJH1_1437	1471150	1472796	+
SaurJH1_1438	1473265	1473453	+
SaurJH1_1439	1473743	1476448	+
SaurJH1_1440	1476628	1477095	+
SaurJH1_1441	1477598	1477302	-
SaurJH1_1442	1478582	1477974	-
SaurJH1_1443	1478788	1480779	+
SaurJH1_1444	1480779	1483181	+
SaurJH1_1445	1483431	1484891	+
SaurJH1_1446	1485391	1486242	+
SaurJH1_1447	1486217	1486384	+
SaurJH1_1448	1486377	1487585	+
SaurJH1_1449	1488066	1490588	+
SaurJH1_1450	1491300	1490791	-
SaurJH1_1451	1491437	1492420	+
SaurJH1_1452	1492410	1492514	+
SaurJH1_1453	1492696	1492508	-
SaurJH1_1454	1492841	1494103	+
SaurJH1_1455	1495331	1494240	-
SaurJH1_1456	1495496	1496527	+
SaurJH1_1457	1497019	1498425	+
SaurJH1_1458	1498422	1498988	+
SaurJH1_1459	1498994	1499992	+
SaurJH1_1460	1499994	1500776	+
SaurJH1_1461	1500773	1501408	+
SaurJH1_1462	1501401	1502615	+
SaurJH1_1463	1502608	1503336	+
SaurJH1_1464	1503658	1504920	+
SaurJH1_1465	1504939	1506198	+
SaurJH1_1466	1506487	1507233	+
SaurJH1_1467	1507463	1508230	+
SaurJH1_1468	1508751	1508278	-
SaurJH1_1469	1509576	1508875	-
SaurJH1_1470	1510342	1509569	-
SaurJH1_1471	1511159	1510329	-
SaurJH1_1472	1512138	1511152	-
SaurJH1_1473	1512786	1512442	-
SaurJH1_1474	1512991	1514805	+
SaurJH1_1475	1515586	1514945	-
SaurJH1_1476	1516444	1515593	-
SaurJH1_1477	1517408	1516491	-
SaurJH1_1478	1518336	1517410	-
SaurJH1_1479	1519510	1518527	-
SaurJH1_1481	1521387	1520485	-
SaurJH1_1482	1521534	1523135	+
SaurJH1_1483	1524197	1525402	+
SaurJH1_1484	1525466	1526455	+
SaurJH1_1485	1526457	1527344	+
SaurJH1_1486	1527341	1528063	+
SaurJH1_1487	1528090	1528809	+
SaurJH1_1488	1528952	1530103	+
SaurJH1_1489	1530108	1531193	+
SaurJH1_1490	1531183	1532448	+
SaurJH1_1491	1533089	1532688	-
SaurJH1_1492	1533486	1533286	-
SaurJH1_1493	1533965	1533657	-
SaurJH1_1494	1534128	1534397	+
SaurJH1_1495	1534416	1535045	+
SaurJH1_1496	1535077	1536213	+
SaurJH1_1497	1537629	1536286	-
SaurJH1_1498	1539740	1537854	-
SaurJH1_1499	1540545	1539754	-
SaurJH1_1500	1540929	1540726	-
SaurJH1_1501	1541767	1540958	-
SaurJH1_1502	1543615	1542347	-
SaurJH1_1503	1546427	1543629	-
SaurJH1_1504	1548066	1546711	-
SaurJH1_1505	1548722	1548063	-
SaurJH1_1506	1550126	1549512	-
SaurJH1_1507	1551213	1550143	-
SaurJH1_1508	1551734	1551225	-
SaurJH1_1509	1553624	1552134	-
SaurJH1_1510	1554037	1553816	-
SaurJH1_1511	1554537	1554037	-
SaurJH1_1512	1554977	1554549	-
SaurJH1_1513	1555503	1554970	-
SaurJH1_1514	1556428	1555589	-
SaurJH1_1515	1556922	1556443	-
SaurJH1_1516	1558078	1557122	-
SaurJH1_1517	1558939	1558502	-
SaurJH1_1518	1560079	1558955	-
SaurJH1_1519	1560368	1560117	-
SaurJH1_1520	1560574	1560380	-
SaurJH1_1521	1560819	1561523	+
SaurJH1_1522	1561719	1561588	-
SaurJH1_1523	1562122	1562523	+
SaurJH1_1524	1594456	1562582	-
SaurJH1_1525	1596245	1594854	-
SaurJH1_1526	1597723	1596401	-
SaurJH1_1527	1598794	1597754	-
SaurJH1_1528	1600007	1598889	-
SaurJH1_1529	1601361	1600483	-
SaurJH1_1530	1604821	1601381	-
SaurJH1_1531	1605125	1606465	+
SaurJH1_1532	1607003	1606671	-
SaurJH1_1533	1608232	1607087	-
SaurJH1_1534	1609227	1608883	-
SaurJH1_1535	1609804	1609241	-
SaurJH1_1536	1610147	1609797	-
SaurJH1_1537	1610687	1611313	+
SaurJH1_1538	1611310	1613493	+
SaurJH1_1539	1614400	1614059	-
SaurJH1_1540	1615064	1614405	-
SaurJH1_1541	1615740	1615054	-
SaurJH1_1542	1617360	1616068	-
SaurJH1_1543	1620375	1617682	-
SaurJH1_1544	1621370	1620399	-
SaurJH1_1545	1622592	1621357	-
SaurJH1_1546	1623706	1622564	-
SaurJH1_1547	1624267	1623950	-
SaurJH1_1548	1625301	1624603	-
SaurJH1_1549	1625942	1625355	-
SaurJH1_1550	1626507	1625932	-
SaurJH1_1551	1627765	1626521	-
SaurJH1_1552	1629070	1627772	-
SaurJH1_1553	1630144	1629080	-
SaurJH1_1554	1631336	1630170	-
SaurJH1_1555	1631922	1631722	-
SaurJH1_1556	1632580	1632131	-
SaurJH1_1557	1633631	1632672	-
SaurJH1_1558	1634358	1633633	-
SaurJH1_1559	1634933	1634361	-
SaurJH1_1560	1635636	1635364	-
SaurJH1_1561	1636805	1635807	-
SaurJH1_1562	1638132	1636822	-
SaurJH1_1563	1639529	1638354	-
SaurJH1_1564	1639977	1639786	-
SaurJH1_1565	1640900	1640241	-
SaurJH1_1566	1640977	1641945	+
SaurJH1_1567	1643046	1642060	-
SaurJH1_1568	1644908	1643448	-
SaurJH1_1569	1646440	1645061	-
SaurJH1_1570	1647383	1646430	-
SaurJH1_1571	1647491	1647739	+
SaurJH1_1572	1648390	1647845	-
SaurJH1_1573	1649748	1648792	-
SaurJH1_1574	1650143	1649889	-
SaurJH1_1575	1651115	1650219	-
SaurJH1_1576	1652078	1651173	-
SaurJH1_1577	1654330	1652168	-
SaurJH1_1578	1655249	1654323	-
SaurJH1_1579	1657244	1655493	-
SaurJH1_1580	1657950	1657225	-
SaurJH1_1581	1658820	1658083	-
SaurJH1_1582	1659355	1658813	-
SaurJH1_1583	1660079	1659348	-
SaurJH1_1584	1660171	1660677	+
SaurJH1_1585	1661642	1660755	-
SaurJH1_1586	1662140	1661691	-
SaurJH1_1587	1662787	1662245	-
SaurJH1_1588	1662869	1663777	+
SaurJH1_1589	1664241	1663993	-
SaurJH1_1590	1665012	1664257	-
SaurJH1_1591	1665154	1665969	+
SaurJH1_1592	1666992	1666072	-
SaurJH1_1593	1667305	1668789	+
SaurJH1_1594	1668992	1669885	+
SaurJH1_1595	1671616	1669967	-
SaurJH1_1596	1672651	1671632	-
SaurJH1_1597	1672879	1672652	-
SaurJH1_1598	1673216	1672845	-
SaurJH1_1600	1674900	1673683	-
SaurJH1_1601	1676622	1675216	-
SaurJH1_1602	1677823	1676690	-
SaurJH1_1603	1678173	1678265	+
SaurJH1_1604	1679372	1678392	-
SaurJH1_1605	1679823	1679386	-
SaurJH1_1606	1679994	1679896	-
SaurJH1_1607	1681448	1680174	-
SaurJH1_1608	1682444	1681461	-
SaurJH1_1609	1683436	1682444	-
SaurJH1_1610	1684873	1683452	-
SaurJH1_1611	1686703	1685024	-
SaurJH1_1612	1687171	1686719	-
SaurJH1_1613	1688484	1687603	-
SaurJH1_1614	1688692	1688462	-
SaurJH1_1615	1690022	1688685	-
SaurJH1_1616	1690428	1690039	-
SaurJH1_1617	1690850	1690488	-
SaurJH1_1618	1692220	1690865	-
SaurJH1_1619	1692684	1692220	-
SaurJH1_1620	1693715	1693158	-
SaurJH1_1621	1694802	1693741	-
SaurJH1_1622	1694907	1695488	+
SaurJH1_1623	1695502	1695720	+
SaurJH1_1624	1696614	1695784	-
SaurJH1_1625	1696772	1697158	+
SaurJH1_1626	1698995	1697523	-
SaurJH1_1627	1700334	1698988	-
SaurJH1_1628	1701445	1700354	-
SaurJH1_1629	1702128	1701604	-
SaurJH1_1630	1702264	1702118	-
SaurJH1_1631	1702858	1702361	-
SaurJH1_1632	1703075	1702776	-
SaurJH1_1633	1703496	1703062	-
SaurJH1_1634	1703797	1703486	-
SaurJH1_1635	1704881	1703811	-
SaurJH1_1636	1705827	1704853	-
SaurJH1_1637	1706502	1705879	-
SaurJH1_1638	1706828	1706499	-
SaurJH1_1639	1707814	1706828	-
SaurJH1_1640	1708014	1707811	-
SaurJH1_1641	1709458	1707995	-
SaurJH1_1642	1710063	1709470	-
SaurJH1_1643	1710367	1710218	-
SaurJH1_1644	1712555	1710480	-
SaurJH1_1645	1713275	1712676	-
SaurJH1_1646	1713961	1713551	-
SaurJH1_1647	1714820	1713948	-
SaurJH1_1648	1715638	1714853	-
SaurJH1_1649	1716654	1715764	-
SaurJH1_1650	1718010	1716664	-
SaurJH1_1651	1719224	1718124	-
SaurJH1_1652	1719904	1719227	-
SaurJH1_1653	1721141	1720035	-
SaurJH1_1654	1723182	1721365	-
SaurJH1_1655	1724061	1723243	-
SaurJH1_1656	1724611	1724072	-
SaurJH1_1657	1725030	1726421	+
SaurJH1_1658	1727317	1726571	-
SaurJH1_1659	1728244	1727345	-
SaurJH1_1660	1728649	1728245	-
SaurJH1_1661	1729004	1728660	-
SaurJH1_1662	1729474	1729007	-
SaurJH1_1663	1730422	1729475	-
SaurJH1_1664	1731424	1730726	-
SaurJH1_1665	1732430	1731441	-
SaurJH1_1666	1733155	1732448	-
SaurJH1_1667	1733551	1733375	-
SaurJH1_1668	1735190	1733844	-
SaurJH1_1669	1735949	1735197	-
SaurJH1_1670	1736889	1735951	-
SaurJH1_1671	1738032	1736893	-
SaurJH1_1672	1740000	1738168	-
SaurJH1_1673	1740695	1740069	-
SaurJH1_1674	1741704	1740727	-
SaurJH1_1675	1742929	1741805	-
SaurJH1_1676	1743206	1743364	+
SaurJH1_1677	1745318	1743495	-
SaurJH1_1678	1745664	1745915	+
SaurJH1_1679	1746934	1745960	-
SaurJH1_1680	1749171	1746991	-
SaurJH1_1681	1749628	1749197	-
SaurJH1_1682	1750427	1749750	-
SaurJH1_1683	1751192	1750476	-
SaurJH1_1684	1751548	1751195	-
SaurJH1_1685	1752133	1751549	-
SaurJH1_1686	1752692	1752123	-
SaurJH1_1687	1752985	1752695	-
SaurJH1_1688	1753795	1752989	-
SaurJH1_1689	1754909	1753809	-
SaurJH1_1690	1755437	1754910	-
SaurJH1_1691	1756143	1755457	-
SaurJH1_1692	1756457	1756726	+
SaurJH1_1695	1761184	1759955	-
SaurJH1_1696	1761949	1761197	-
SaurJH1_1697	1763310	1761949	-
SaurJH1_1698	1763773	1763324	-
SaurJH1_1699	1764785	1763775	-
SaurJH1_1700	1765509	1764775	-
SaurJH1_1701	1766311	1765835	-
SaurJH1_1702	1766962	1766339	-
SaurJH1_1703	1768230	1766962	-
SaurJH1_1704	1769165	1768242	-
SaurJH1_1705	1769806	1769168	-
SaurJH1_1706	1770399	1770091	-
SaurJH1_1707	1770842	1770414	-
SaurJH1_1708	1771106	1770846	-
SaurJH1_1709	1773799	1771169	-
SaurJH1_1710	1776619	1774142	-
SaurJH1_1711	1777289	1776621	-
SaurJH1_1712	1779102	1777984	-
SaurJH1_1713	1780245	1779103	-
SaurJH1_1714	1780557	1781570	+
SaurJH1_1715	1781953	1781807	-
SaurJH1_1716	1782175	1781993	-
SaurJH1_1717	1782697	1782275	-
SaurJH1_1718	1782782	1784056	+
SaurJH1_1719	1784990	1784217	-
SaurJH1_1720	1787217	1785451	-
SaurJH1_1721	1788495	1787233	-
SaurJH1_1722	1789831	1788956	-
SaurJH1_1723	1790280	1789828	-
SaurJH1_1724	1792481	1790292	-
SaurJH1_1725	1793427	1792909	-
SaurJH1_1726	1795722	1793449	-
SaurJH1_1727	1798204	1795925	-
SaurJH1_1728	1798739	1798479	-
SaurJH1_1729	1799897	1798758	-
SaurJH1_1730	1800945	1799920	-
SaurJH1_1731	1801951	1800947	-
SaurJH1_1732	1802585	1801983	-
SaurJH1_1733	1803057	1802599	-
SaurJH1_1734	1804359	1803067	-
SaurJH1_1735	1804997	1804713	-
SaurJH1_1736	1805329	1805009	-
SaurJH1_1737	1805643	1805335	-
SaurJH1_1738	1806409	1805879	-
SaurJH1_1739	1807251	1806409	-
SaurJH1_1740	1807569	1807450	-
SaurJH1_1741	1808116	1807643	-
SaurJH1_1742	1808258	1808473	+
SaurJH1_1743	1808838	1808590	-
SaurJH1_1746	1809985	1809323	-
SaurJH1_1747	1810494	1811225	+
SaurJH1_1748	1812133	1811351	-
SaurJH1_1749	1812661	1812284	-
SaurJH1_1750	1814560	1812668	-
SaurJH1_1751	1815642	1814557	-
SaurJH1_1752	1816315	1815761	-
SaurJH1_1753	1817019	1816312	-
SaurJH1_1754	1818560	1817289	-
SaurJH1_1755	1821203	1818573	-
SaurJH1_1756	1821606	1822166	+
SaurJH1_1757	1823462	1822389	-
SaurJH1_1758	1823597	1823496	-
SaurJH1_1759	1824944	1823658	-
SaurJH1_1760	1825966	1824992	-
SaurJH1_1761	1826637	1825969	-
SaurJH1_1762	1827585	1826659	-
SaurJH1_1763	1828442	1827627	-
SaurJH1_1764	1829810	1828464	-
SaurJH1_1765	1830617	1830027	-
SaurJH1_1766	1832033	1830771	-
SaurJH1_1767	1833485	1832184	-
SaurJH1_1768	1834577	1833648	-
SaurJH1_1769	1835204	1834596	-
SaurJH1_1770	1835702	1835346	-
SaurJH1_1771	1835949	1835749	-
SaurJH1_1772	1836580	1835978	-
SaurJH1_1773	1838227	1836734	-
SaurJH1_1774	1840590	1838653	-
SaurJH1_1775	1841923	1841003	-
SaurJH1_1776	1843323	1841923	-
SaurJH1_1777	1843794	1843324	-
SaurJH1_1778	1845030	1844005	-
SaurJH1_1779	1845823	1845200	-
SaurJH1_1780	1846711	1845839	-
SaurJH1_1781	1849357	1846727	-
SaurJH1_1782	1851138	1849651	-
SaurJH1_1783	1853301	1851637	-
SaurJH1_1784	1854002	1853298	-
SaurJH1_1785	1855660	1854392	-
SaurJH1_1786	1856830	1855709	-
SaurJH1_1787	1857178	1858539	+
SaurJH1_1788	1860644	1858887	-
SaurJH1_1789	1861634	1860666	-
SaurJH1_1790	1862847	1861903	-
SaurJH1_1791	1863704	1862847	-
SaurJH1_1792	1865128	1863899	-
SaurJH1_1793	1868775	1865578	-
SaurJH1_1794	1869737	1868796	-
SaurJH1_1795	1871347	1870049	-
SaurJH1_1796	1871552	1871965	+
SaurJH1_1797	1872959	1872270	-
SaurJH1_1798	1873134	1874189	+
SaurJH1_1799	1874381	1874283	-
SaurJH1_1800	1875623	1874505	-
SaurJH1_1801	1875764	1876264	+
SaurJH1_1802	1877712	1876510	-
SaurJH1_1803	1878747	1877800	-
SaurJH1_1804	1879364	1878870	-
SaurJH1_1805	1880232	1879462	-
SaurJH1_1806	1881499	1880276	-
SaurJH1_1807	1882665	1881499	-
SaurJH1_1808	1884705	1883011	-
SaurJH1_1809	1884842	1885306	+
SaurJH1_1810	1885550	1886152	+
SaurJH1_1811	1887111	1886368	-
SaurJH1_1812	1887191	1887637	+
SaurJH1_1813	1887752	1888909	+
SaurJH1_1814	1888896	1890500	+
SaurJH1_1815	1891780	1890650	-
SaurJH1_1816	1893353	1891887	-
SaurJH1_1817	1894098	1893481	-
SaurJH1_1818	1894270	1895544	+
SaurJH1_1819	1896900	1895638	-
SaurJH1_1820	1897282	1898187	+
SaurJH1_1821	1901065	1898390	-
SaurJH1_1822	1903065	1901398	-
SaurJH1_1823	1905211	1903505	-
SaurJH1_1824	1905380	1906012	+
SaurJH1_1825	1906037	1907206	+
SaurJH1_1826	1908293	1907304	-
SaurJH1_1827	1909924	1908833	-
SaurJH1_1828	1911976	1910618	-
SaurJH1_1829	1912541	1912050	-
SaurJH1_1830	1913928	1912615	-
SaurJH1_1831	1917776	1913952	-
SaurJH1_1832	1918393	1917797	-
SaurJH1_1833	1919279	1918422	-
SaurJH1_1834	1919690	1919379	-
SaurJH1_1835	1920831	1919755	-
SaurJH1_1836	1920915	1921229	+
SaurJH1_1837	1922196	1921354	-
SaurJH1_1838	1923311	1922667	-
SaurJH1_1839	1924117	1923326	-
SaurJH1_1840	1925515	1924667	-
SaurJH1_1841	1926928	1925519	-
SaurJH1_1842	1927794	1927372	-
SaurJH1_1843	1928506	1927811	-
SaurJH1_1844	1930164	1928503	-
SaurJH1_1845	1930571	1931839	+
SaurJH1_1846	1938516	1931956	-
SaurJH1_1847	1939153	1938842	-
SaurJH1_1848	1941592	1939175	-
SaurJH1_1849	1943061	1941880	-
SaurJH1_1850	1943171	1944124	+
SaurJH1_1851	1944121	1944684	+
SaurJH1_1852	1945307	1944807	-
SaurJH1_1853	1946607	1945780	-
SaurJH1_1854	1946840	1947841	+
SaurJH1_1855	1948427	1947963	-
SaurJH1_1856	1949621	1948440	-
SaurJH1_1857	1950264	1949632	-
SaurJH1_1858	1951314	1950271	-
SaurJH1_1859	1953297	1951795	-
SaurJH1_1860	1953820	1954134	+
SaurJH1_1861	1954134	1955426	+
SaurJH1_1862	1956367	1955513	-
SaurJH1_1863	1956867	1956643	-
SaurJH1_1864	1956988	1957536	+
SaurJH1_1865	1957649	1958092	+
SaurJH1_1866	1958522	1958079	-
SaurJH1_1867	1958818	1959453	+
SaurJH1_1868	1960606	1959893	-
SaurJH1_1869	1960866	1961168	+
SaurJH1_1870	1961346	1961789	+
SaurJH1_1871	1961786	1962139	+
SaurJH1_1874	1963390	1964073	+
SaurJH1_1875	1964969	1964136	-
SaurJH1_1876	1966089	1965181	-
SaurJH1_1877	1967407	1966211	-
SaurJH1_1878	1967779	1969371	+
SaurJH1_1879	1970519	1969749	-
SaurJH1_1880	1970979	1970500	-
SaurJH1_1881	1971039	1971296	+
SaurJH1_1882	1972294	1971293	-
SaurJH1_1883	1973777	1972299	-
SaurJH1_1884	1974418	1973936	-
SaurJH1_1885	1974695	1975345	+
SaurJH1_1886	1975426	1976421	+
SaurJH1_1887	1976496	1977122	+
SaurJH1_1888	1977163	1977504	+
SaurJH1_1889	1977605	1978177	+
SaurJH1_1894	1982156	1980927	-
SaurJH1_1895	1983705	1982149	-
SaurJH1_1896	1984785	1984066	-
SaurJH1_1897	1985625	1984906	-
SaurJH1_1898	1986447	1985683	-
SaurJH1_1899	1987237	1986530	-
SaurJH1_1900	1988201	1988782	+
SaurJH1_1902	1989729	1990202	+
SaurJH1_1903	1990207	1990998	+
SaurJH1_1904	1992351	1991368	-
SaurJH1_1905	1993288	1992353	-
SaurJH1_1907	1994652	1995440	+
SaurJH1_1909	1996274	1996768	+
SaurJH1_1910	1996846	1997082	+
SaurJH1_1911	1997103	1997879	+
SaurJH1_1912	1999207	1998431	-
SaurJH1_1913	2000245	1999490	-
SaurJH1_1915	2001937	2001209	-
SaurJH1_1916	2002691	2001972	-
SaurJH1_1917	2003736	2002972	-
SaurJH1_1918	2005668	2005114	-
SaurJH1_1919	2007391	2005991	-
SaurJH1_1920	2008338	2007415	-
SaurJH1_1921	2009433	2008396	-
SaurJH1_1922	2009696	2010199	+
SaurJH1_1923	2011546	2010323	-
SaurJH1_1924	2012279	2011539	-
SaurJH1_1925	2012413	2012835	+
SaurJH1_1926	2012977	2013342	+
SaurJH1_1927	2014077	2014634	+
SaurJH1_1928	2014839	2015801	+
SaurJH1_1929	2016863	2015922	-
SaurJH1_1930	2019796	2016860	-
SaurJH1_1931	2020982	2019786	-
SaurJH1_1932	2022254	2021910	-
SaurJH1_1933	2023447	2022323	-
SaurJH1_1934	2023726	2025045	+
SaurJH1_1935	2025610	2025146	-
SaurJH1_1936	2026589	2025966	-
SaurJH1_1937	2027723	2026611	-
SaurJH1_1938	2027886	2028707	+
SaurJH1_1939	2030545	2029160	-
SaurJH1_1940	2031136	2030741	-
SaurJH1_1941	2031836	2031684	-
SaurJH1_1942	2032460	2031861	-
SaurJH1_1943	2033089	2032619	-
SaurJH1_1944	2034221	2033094	-
SaurJH1_1945	2035100	2034372	-
SaurJH1_1946	2036544	2035087	-
SaurJH1_1947	2037863	2036802	-
SaurJH1_1948	2038447	2039766	+
SaurJH1_1949	2048639	2048193	-
SaurJH1_1950	2049686	2048736	-
SaurJH1_1951	2050147	2049692	-
SaurJH1_1952	2050228	2051517	+
SaurJH1_1953	2051810	2052904	+
SaurJH1_1954	2054830	2053094	-
SaurJH1_1955	2055663	2055121	-
SaurJH1_1956	2057003	2055966	-
SaurJH1_1957	2057155	2058132	+
SaurJH1_1958	2059229	2058393	-
SaurJH1_1959	2060755	2059238	-
SaurJH1_1960	2061084	2060770	-
SaurJH1_1961	2061880	2061062	-
SaurJH1_1962	2062949	2062140	-
SaurJH1_1963	2063804	2063289	-
SaurJH1_1964	2064096	2063935	-
SaurJH1_1965	2064320	2065471	+
SaurJH1_1966	2066261	2065731	-
SaurJH1_1967	2067598	2066351	-
SaurJH1_1968	2067810	2067610	-
SaurJH1_1969	2067957	2068421	+
SaurJH1_1970	2068428	2068703	+
SaurJH1_1971	2068981	2070198	+
SaurJH1_1972	2070940	2070311	-
SaurJH1_1973	2071973	2070930	-
SaurJH1_1974	2072671	2071970	-
SaurJH1_1975	2073072	2072686	-
SaurJH1_1976	2074047	2073289	-
SaurJH1_1977	2074519	2075505	+
SaurJH1_1978	2076349	2075936	-
SaurJH1_1979	2077305	2076574	-
SaurJH1_1980	2078620	2077307	-
SaurJH1_1981	2078912	2079412	+
SaurJH1_1982	2079802	2080356	+
SaurJH1_1983	2081494	2080424	-
SaurJH1_1984	2082271	2081741	-
SaurJH1_1985	2083802	2082441	-
SaurJH1_1986	2084830	2083883	-
SaurJH1_1987	2085558	2085412	-
SaurJH1_1988	2087025	2085598	-
SaurJH1_1989	2088495	2087038	-
SaurJH1_1990	2088799	2088497	-
SaurJH1_1991	2089166	2090704	+
SaurJH1_1992	2091992	2090793	-
SaurJH1_1993	2094008	2092005	-
SaurJH1_1994	2096204	2094012	-
SaurJH1_1995	2096893	2096201	-
SaurJH1_1996	2097367	2097065	-
SaurJH1_1997	2098771	2097476	-
SaurJH1_1998	2099631	2100797	+
SaurJH1_1999	2100828	2101154	+
SaurJH1_2000	2101619	2101446	-
SaurJH1_2001	2102202	2101600	-
SaurJH1_2002	2103294	2102473	-
SaurJH1_2003	2104756	2103287	-
SaurJH1_2004	2104940	2106016	+
SaurJH1_2005	2106036	2106830	+
SaurJH1_2006	2108582	2107020	-
SaurJH1_2007	2109884	2108787	-
SaurJH1_2008	2110253	2110813	+
SaurJH1_2009	2110866	2111795	+
SaurJH1_2010	2112213	2113592	+
SaurJH1_2011	2114740	2113712	-
SaurJH1_2012	2115010	2115411	+
SaurJH1_2014	2116157	2115984	-
SaurJH1_2015	2116536	2117648	+
SaurJH1_2016	2118547	2117705	-
SaurJH1_2017	2119101	2118544	-
SaurJH1_2018	2119685	2119161	-
SaurJH1_2019	2119806	2120369	+
SaurJH1_2020	2121175	2120435	-
SaurJH1_2021	2122047	2121175	-
SaurJH1_2022	2122724	2122044	-
SaurJH1_2023	2123621	2122725	-
SaurJH1_2024	2123998	2123618	-
SaurJH1_2025	2124432	2124256	-
SaurJH1_2026	2124773	2124675	-
SaurJH1_2027	2124973	2126259	+
SaurJH1_2030	2128653	2128859	+
SaurJH1_2031	2129231	2129410	+
SaurJH1_2032	2129434	2129742	+
SaurJH1_2033	2129721	2129981	+
SaurJH1_2034	2130384	2130034	-
SaurJH1_2035	2131069	2131518	+
SaurJH1_2037	2133089	2132598	-
SaurJH1_2038	2134035	2133280	-
SaurJH1_2039	2134301	2134047	-
SaurJH1_2040	2134698	2134513	-
SaurJH1_2041	2135135	2134839	-
SaurJH1_2042	2135480	2135193	-
SaurJH1_2043	2135679	2135527	-
SaurJH1_2044	2139454	2135669	-
SaurJH1_2045	2140954	2139470	-
SaurJH1_2046	2145483	2140951	-
SaurJH1_2047	2145701	2145540	-
SaurJH1_2048	2146078	2145728	-
SaurJH1_2049	2146268	2146128	-
SaurJH1_2050	2147038	2146394	-
SaurJH1_2051	2147446	2147039	-
SaurJH1_2052	2147847	2147443	-
SaurJH1_2053	2148206	2147844	-
SaurJH1_2054	2148474	2148190	-
SaurJH1_2055	2148747	2148487	-
SaurJH1_2056	2149912	2148767	-
SaurJH1_2057	2150672	2149935	-
SaurJH1_2058	2151819	2150656	-
SaurJH1_2059	2153496	2151835	-
SaurJH1_2060	2153837	2153493	-
SaurJH1_2061	2153974	2153825	-
SaurJH1_2062	2154267	2153968	-
SaurJH1_2063	2154915	2154499	-
SaurJH1_2064	2155146	2154943	-
SaurJH1_2065	2155292	2155143	-
SaurJH1_2066	2155495	2155289	-
SaurJH1_2067	2155728	2155492	-
SaurJH1_2068	2156310	2155774	-
SaurJH1_2069	2156555	2156307	-
SaurJH1_2070	2156809	2156567	-
SaurJH1_2071	2157069	2156812	-
SaurJH1_2072	2157440	2157069	-
SaurJH1_2073	2157857	2157453	-
SaurJH1_2074	2158084	2157866	-
SaurJH1_2075	2158984	2158091	-
SaurJH1_2076	2159484	2159014	-
SaurJH1_2077	2159970	2159485	-
SaurJH1_2078	2161103	2160183	-
SaurJH1_2079	2163048	2161105	-
SaurJH1_2080	2163320	2163057	-
SaurJH1_2081	2163589	2163329	-
SaurJH1_2082	2163896	2163594	-
SaurJH1_2083	2164152	2163991	-
SaurJH1_2084	2164472	2164149	-
SaurJH1_2085	2164527	2164907	+
SaurJH1_2086	2165091	2164894	-
SaurJH1_2087	2165856	2165107	-
SaurJH1_2088	2165913	2166122	+
SaurJH1_2089	2166713	2166270	-
SaurJH1_2090	2166968	2166726	-
SaurJH1_2091	2167132	2167848	+
SaurJH1_2092	2167860	2168714	+
SaurJH1_2093	2168788	2168934	+
SaurJH1_2094	2168931	2169116	+
SaurJH1_2095	2169187	2169369	+
SaurJH1_2096	2169424	2170161	+
SaurJH1_2097	2170352	2171389	+
SaurJH1_2098	2171446	2172270	+
SaurJH1_2099	2173524	2172508	-
SaurJH1_2100	2174601	2173546	-
SaurJH1_2101	2175037	2176260	+
SaurJH1_2102	2176704	2178011	+
SaurJH1_2103	2180167	2178551	-
SaurJH1_2104	2180527	2180243	-
SaurJH1_2105	2180702	2181445	+
SaurJH1_2106	2182729	2181470	-
SaurJH1_2107	2182926	2183552	+
SaurJH1_2108	2183913	2184698	+
SaurJH1_2109	2185378	2185298	-
SaurJH1_2110	2185668	2186231	+
SaurJH1_2112	2187709	2188425	+
SaurJH1_2113	2189753	2188794	-
SaurJH1_2114	2191234	2189750	-
SaurJH1_2115	2192333	2191383	-
SaurJH1_2116	2193766	2192516	-
SaurJH1_2117	2193882	2193769	-
SaurJH1_2118	2194198	2193974	-
SaurJH1_2119	2195337	2194258	-
SaurJH1_2120	2196276	2195641	-
SaurJH1_2121	2196529	2198457	+
SaurJH1_2122	2198819	2200429	+
SaurJH1_2123	2201769	2200744	-
SaurJH1_2124	2202226	2201762	-
SaurJH1_2125	2202861	2202199	-
SaurJH1_2126	2203336	2202842	-
SaurJH1_2127	2203814	2205502	+
SaurJH1_2128	2205530	2207299	+
SaurJH1_2129	2207299	2207553	+
SaurJH1_2130	2207690	2208694	+
SaurJH1_2131	2208724	2210253	+
SaurJH1_2132	2210256	2211302	+
SaurJH1_2133	2211316	2212686	+
SaurJH1_2134	2212687	2213259	+
SaurJH1_2135	2213274	2214542	+
SaurJH1_2136	2221795	2221340	-
SaurJH1_2137	2223938	2221788	-
SaurJH1_2138	2225142	2224372	-
SaurJH1_2139	2225596	2225117	-
SaurJH1_2140	2225924	2225598	-
SaurJH1_2141	2227044	2226043	-
SaurJH1_2142	2227196	2227429	+
SaurJH1_2143	2227756	2227394	-
SaurJH1_2144	2227923	2227753	-
SaurJH1_2145	2229156	2228008	-
SaurJH1_2146	2229581	2229222	-
SaurJH1_2147	2230076	2229585	-
SaurJH1_2148	2231646	2230063	-
SaurJH1_2149	2232118	2231639	-
SaurJH1_2150	2232886	2232326	-
SaurJH1_2151	2234933	2232906	-
SaurJH1_2152	2236628	2234952	-
SaurJH1_2153	2236900	2239557	+
SaurJH1_2154	2239557	2240252	+
SaurJH1_2155	2241955	2240636	-
SaurJH1_2156	2243644	2242124	-
SaurJH1_2157	2245519	2244161	-
SaurJH1_2158	2246604	2245534	-
SaurJH1_2159	2246922	2248124	+
SaurJH1_2160	2248525	2248388	-
SaurJH1_2161	2248862	2248653	-
SaurJH1_2162	2249167	2248874	-
SaurJH1_2163	2249333	2250817	+
SaurJH1_2164	2250845	2251492	+
SaurJH1_2165	2253277	2252405	-
SaurJH1_2166	2254004	2253363	-
SaurJH1_2167	2254797	2254006	-
SaurJH1_2168	2255611	2254781	-
SaurJH1_2169	2256293	2255604	-
SaurJH1_2170	2257375	2256680	-
SaurJH1_2171	2258159	2257764	-
SaurJH1_2172	2258353	2258793	+
SaurJH1_2173	2259292	2258852	-
SaurJH1_2174	2260591	2259326	-
SaurJH1_2175	2260935	2260702	-
SaurJH1_2176	2261901	2261497	-
SaurJH1_2177	2263333	2261921	-
SaurJH1_2178	2264221	2263355	-
SaurJH1_2179	2265760	2264252	-
SaurJH1_2180	2266321	2265782	-
SaurJH1_2181	2266842	2266321	-
SaurJH1_2182	2267252	2267040	-
SaurJH1_2183	2268023	2267295	-
SaurJH1_2184	2268397	2268044	-
SaurJH1_2185	2269691	2268564	-
SaurJH1_2186	2270344	2269715	-
SaurJH1_2187	2271610	2270372	-
SaurJH1_2188	2272161	2271637	-
SaurJH1_2189	2272687	2272268	-
SaurJH1_2190	2273757	2272684	-
SaurJH1_2191	2274650	2273814	-
SaurJH1_2192	2275713	2274637	-
SaurJH1_2193	2276313	2275714	-
SaurJH1_2194	2276914	2276660	-
SaurJH1_2195	2278348	2277032	-
SaurJH1_2196	2280022	2278595	-
SaurJH1_2197	2280595	2280260	-
SaurJH1_2198	2281943	2280684	-
SaurJH1_2199	2283269	2282409	-
SaurJH1_2200	2283487	2284008	+
SaurJH1_2201	2285727	2284117	-
SaurJH1_2202	2286593	2286063	-
SaurJH1_2203	2287565	2286705	-
SaurJH1_2204	2287990	2288793	+
SaurJH1_2205	2289595	2288924	-
SaurJH1_2206	2291187	2289994	-
SaurJH1_2207	2292371	2291187	-
SaurJH1_2208	2292682	2293152	+
SaurJH1_2209	2293654	2293304	-
SaurJH1_2210	2294969	2293668	-
SaurJH1_2211	2295910	2295248	-
SaurJH1_2212	2296224	2296934	+
SaurJH1_2213	2297498	2297055	-
SaurJH1_2214	2298111	2297698	-
SaurJH1_2215	2299941	2298568	-
SaurJH1_2216	2300843	2300613	-
SaurJH1_2217	2301812	2300874	-
SaurJH1_2218	2302913	2302248	-
SaurJH1_2219	2303065	2303385	+
SaurJH1_2220	2303387	2304364	+
SaurJH1_2221	2304630	2305721	+
SaurJH1_2223	2308611	2307754	-
SaurJH1_2224	2309461	2308679	-
SaurJH1_2225	2311498	2309693	-
SaurJH1_2226	2312179	2313717	+
SaurJH1_2227	2313752	2315884	+
SaurJH1_2228	2315896	2316330	+
SaurJH1_2229	2316330	2317436	+
SaurJH1_2230	2325200	2317755	-
SaurJH1_2231	2326833	2325478	-
SaurJH1_2232	2327792	2326860	-
SaurJH1_2233	2328603	2327794	-
SaurJH1_2234	2329700	2328792	-
SaurJH1_2235	2337005	2335941	-
SaurJH1_2236	2338598	2337153	-
SaurJH1_2237	2339385	2338918	-
SaurJH1_2238	2340833	2339490	-
SaurJH1_2239	2341693	2341010	-
SaurJH1_2240	2342899	2341712	-
SaurJH1_2241	2343458	2342943	-
SaurJH1_2242	2343635	2343895	+
SaurJH1_2243	2345397	2344027	-
SaurJH1_2244	2346601	2345633	-
SaurJH1_2245	2347629	2346598	-
SaurJH1_2246	2348624	2347641	-
SaurJH1_2247	2348790	2348915	+
SaurJH1_2248	2350086	2349016	-
SaurJH1_2249	2351850	2350093	-
SaurJH1_2250	2353030	2351837	-
SaurJH1_2251	2353138	2355108	+
SaurJH1_2252	2355778	2355269	-
SaurJH1_2253	2356080	2355841	-
SaurJH1_2254	2356629	2356093	-
SaurJH1_2255	2358366	2356804	-
SaurJH1_2256	2359681	2358674	-
SaurJH1_2257	2360917	2359916	-
SaurJH1_2258	2362064	2361195	-
SaurJH1_2259	2363742	2362330	-
SaurJH1_2260	2365472	2363760	-
SaurJH1_2261	2365789	2365478	-
SaurJH1_2262	2366791	2365811	-
SaurJH1_2263	2367727	2366795	-
SaurJH1_2264	2368255	2367740	-
SaurJH1_2265	2368699	2368271	-
SaurJH1_2266	2369857	2369066	-
SaurJH1_2267	2370072	2370803	+
SaurJH1_2268	2371291	2371088	-
SaurJH1_2269	2372372	2371524	-
SaurJH1_2270	2372858	2372442	-
SaurJH1_2271	2373266	2375695	+
SaurJH1_2272	2376609	2375755	-
SaurJH1_2273	2377635	2376820	-
SaurJH1_2274	2377930	2378355	+
SaurJH1_2275	2379443	2378739	-
SaurJH1_2276	2381144	2379480	-
SaurJH1_2277	2383410	2382394	-
SaurJH1_2278	2384284	2383655	-
SaurJH1_2279	2384931	2384284	-
SaurJH1_2283	2387910	2388095	+
SaurJH1_2284	2388377	2389324	+
SaurJH1_2285	2389892	2389500	-
SaurJH1_2286	2390349	2389912	-
SaurJH1_2287	2391392	2390589	-
SaurJH1_2288	2392203	2391397	-
SaurJH1_2289	2393053	2392193	-
SaurJH1_2290	2393859	2393050	-
SaurJH1_2291	2394765	2394397	-
SaurJH1_2292	2395726	2394782	-
SaurJH1_2293	2396190	2395801	-
SaurJH1_2294	2396579	2396214	-
SaurJH1_2295	2396715	2396602	-
SaurJH1_2296	2396965	2396747	-
SaurJH1_2297	2397805	2397158	-
SaurJH1_2298	2399114	2397822	-
SaurJH1_2299	2399554	2399114	-
SaurJH1_2300	2399750	2399571	-
SaurJH1_2301	2400267	2399767	-
SaurJH1_2302	2400647	2400288	-
SaurJH1_2303	2401214	2400678	-
SaurJH1_2304	2401637	2401239	-
SaurJH1_2305	2401854	2401669	-
SaurJH1_2306	2402416	2401877	-
SaurJH1_2307	2402760	2402443	-
SaurJH1_2308	2403164	2402796	-
SaurJH1_2309	2403459	2403196	-
SaurJH1_2310	2403692	2403483	-
SaurJH1_2311	2404116	2403682	-
SaurJH1_2312	2404772	2404119	-
SaurJH1_2313	2405149	2404796	-
SaurJH1_2314	2405456	2405178	-
SaurJH1_2315	2406356	2405523	-
SaurJH1_2316	2406664	2406389	-
SaurJH1_2317	2407287	2406664	-
SaurJH1_2318	2407976	2407314	-
SaurJH1_2319	2408312	2408004	-
SaurJH1_2320	2408669	2409058	+
SaurJH1_2321	2410583	2409249	-
SaurJH1_2322	2412831	2410696	-
SaurJH1_2323	2413006	2413893	+
SaurJH1_2324	2414074	2414937	+
SaurJH1_2325	2416500	2415592	-
SaurJH1_2326	2416633	2416797	+
SaurJH1_2327	2417042	2417359	+
SaurJH1_2328	2420710	2417543	-
SaurJH1_2329	2422092	2420827	-
SaurJH1_2330	2422481	2422732	+
SaurJH1_2331	2423488	2422724	-
SaurJH1_2332	2423650	2424090	+
SaurJH1_2333	2424083	2425294	+
SaurJH1_2334	2425746	2425396	-
SaurJH1_2335	2427345	2426323	-
SaurJH1_2336	2427964	2427365	-
SaurJH1_2337	2428204	2427971	-
SaurJH1_2338	2428656	2428210	-
SaurJH1_2339	2429155	2428670	-
SaurJH1_2340	2430411	2429152	-
SaurJH1_2341	2430474	2430968	+
SaurJH1_2342	2431476	2430970	-
SaurJH1_2343	2432511	2431507	-
SaurJH1_2344	2433286	2432681	-
SaurJH1_2345	2433958	2433287	-
SaurJH1_2346	2434754	2433972	-
SaurJH1_2347	2435043	2435840	+
SaurJH1_2348	2436782	2436012	-
SaurJH1_2349	2437413	2436859	-
SaurJH1_2350	2438475	2437534	-
SaurJH1_2351	2439781	2438873	-
SaurJH1_2352	2441149	2439995	-
SaurJH1_2353	2441288	2441196	-
SaurJH1_2354	2442271	2441366	-
SaurJH1_2355	2442531	2442833	+
SaurJH1_2356	2442847	2443257	+
SaurJH1_2357	2443254	2444969	+
SaurJH1_2358	2444982	2445434	+
SaurJH1_2359	2445427	2446116	+
SaurJH1_2360	2446129	2446743	+
SaurJH1_2361	2446743	2447579	+
SaurJH1_2362	2448115	2447768	-
SaurJH1_2363	2448869	2448543	-
SaurJH1_2364	2449676	2448933	-
SaurJH1_2365	2451657	2449702	-
SaurJH1_2366	2452267	2453070	+
SaurJH1_2367	2454904	2453504	-
SaurJH1_2368	2456081	2454999	-
SaurJH1_2369	2456329	2456751	+
SaurJH1_2370	2456988	2457488	+
SaurJH1_2371	2457849	2458802	+
SaurJH1_2372	2460018	2458894	-
SaurJH1_2373	2461105	2460329	-
SaurJH1_2374	2461360	2461127	-
SaurJH1_2375	2462061	2461588	-
SaurJH1_2376	2465015	2462061	-
SaurJH1_2377	2466574	2465618	-
SaurJH1_2378	2467495	2466698	-
SaurJH1_2379	2467880	2468572	+
SaurJH1_2380	2469334	2468597	-
SaurJH1_2381	2469383	2469712	+
SaurJH1_2382	2470157	2471029	+
SaurJH1_2383	2472795	2471416	-
SaurJH1_2384	2473075	2473431	+
SaurJH1_2385	2473428	2473613	+
SaurJH1_2386	2473900	2473709	-
SaurJH1_2387	2474546	2473911	-
SaurJH1_2388	2475538	2474621	-
SaurJH1_2389	2475806	2476336	+
SaurJH1_2390	2478006	2476402	-
SaurJH1_2391	2479458	2478139	-
SaurJH1_2392	2479856	2480620	+
SaurJH1_2393	2481184	2480678	-
SaurJH1_2394	2482730	2481351	-
SaurJH1_2395	2483458	2482889	-
SaurJH1_2396	2484826	2483945	-
SaurJH1_2397	2486058	2484937	-
SaurJH1_2398	2487572	2486334	-
SaurJH1_2399	2489233	2487572	-
SaurJH1_2400	2489393	2490277	+
SaurJH1_2401	2490459	2490878	+
SaurJH1_2402	2492069	2491134	-
SaurJH1_2403	2492359	2493618	+
SaurJH1_2404	2494370	2493684	-
SaurJH1_2405	2494544	2495197	+
SaurJH1_2406	2495221	2495409	+
SaurJH1_2407	2496452	2495433	-
SaurJH1_2408	2496808	2496482	-
SaurJH1_2409	2497042	2496857	-
SaurJH1_2410	2498258	2497026	-
SaurJH1_2411	2499150	2498251	-
SaurJH1_2412	2500002	2499382	-
SaurJH1_2413	2500170	2500313	+
SaurJH1_2414	2500401	2501009	+
SaurJH1_2415	2501342	2502550	+
SaurJH1_2416	2503647	2502598	-
SaurJH1_2417	2504625	2503678	-
SaurJH1_2418	2504704	2505213	+
SaurJH1_2419	2505210	2505629	+
SaurJH1_2420	2506657	2505737	-
SaurJH1_2421	2506865	2507503	+
SaurJH1_2422	2509680	2507749	-
SaurJH1_2423	2510340	2509693	-
SaurJH1_2424	2510461	2511015	+
SaurJH1_2425	2512450	2511242	-
SaurJH1_2426	2514101	2512719	-
SaurJH1_2427	2514793	2514338	-
SaurJH1_2428	2514988	2515956	+
SaurJH1_2429	2516852	2516187	-
SaurJH1_2430	2517907	2516852	-
SaurJH1_2431	2518043	2518717	+
SaurJH1_2432	2518710	2520083	+
SaurJH1_2433	2520246	2520689	+
SaurJH1_2434	2520686	2521141	+
SaurJH1_2435	2522685	2521207	-
SaurJH1_2436	2524664	2523066	-
SaurJH1_2437	2524966	2526654	+
SaurJH1_2438	2527422	2526808	-
SaurJH1_2439	2528251	2527736	-
SaurJH1_2440	2528400	2529446	+
SaurJH1_2441	2529893	2529492	-
SaurJH1_2442	2530963	2529929	-
SaurJH1_2443	2531090	2530974	-
SaurJH1_2444	2531626	2531195	-
SaurJH1_2445	2531678	2531770	+
SaurJH1_2446	2533110	2531833	-
SaurJH1_2447	2533271	2533894	+
SaurJH1_2448	2533940	2534884	+
SaurJH1_2449	2536411	2534969	-
SaurJH1_2450	2536594	2536977	+
SaurJH1_2451	2538252	2538425	+
SaurJH1_2452	2538465	2540570	+
SaurJH1_2453	2540641	2541063	+
SaurJH1_2454	2541327	2541683	+
SaurJH1_2455	2543278	2542001	-
SaurJH1_2456	2543825	2543460	-
SaurJH1_2457	2544222	2544668	+
SaurJH1_2458	2544875	2545312	+
SaurJH1_2459	2546588	2545419	-
SaurJH1_2460	2546659	2546778	+
SaurJH1_2461	2546957	2547871	+
SaurJH1_2462	2547850	2548590	+
SaurJH1_2463	2549501	2548848	-
SaurJH1_2464	2550558	2549524	-
SaurJH1_2465	2551034	2550582	-
SaurJH1_2466	2551731	2551054	-
SaurJH1_2467	2552299	2551724	-
SaurJH1_2468	2553851	2552292	-
SaurJH1_2470	2558766	2557789	-
SaurJH1_2471	2559071	2558757	-
SaurJH1_2472	2561480	2559075	-
SaurJH1_2473	2562277	2561546	-
SaurJH1_2474	2563043	2562507	-
SaurJH1_2475	2564101	2563277	-
SaurJH1_2476	2564500	2564318	-
SaurJH1_2477	2565051	2564584	-
SaurJH1_2478	2566784	2565237	-
SaurJH1_2479	2567270	2567079	-
SaurJH1_2480	2567346	2567254	-
SaurJH1_2481	2567597	2567346	-
SaurJH1_2482	2568469	2567870	-
SaurJH1_2483	2568850	2568488	-
SaurJH1_2484	2569105	2570355	+
SaurJH1_2485	2571183	2570452	-
SaurJH1_2486	2571899	2571180	-
SaurJH1_2487	2572659	2571880	-
SaurJH1_2488	2574219	2572780	-
SaurJH1_2489	2574393	2574497	+
SaurJH1_2490	2575337	2574651	-
SaurJH1_2491	2576530	2575664	-
SaurJH1_2492	2577350	2578660	+
SaurJH1_2493	2579205	2580170	+
SaurJH1_2494	2580737	2581684	+
SaurJH1_2495	2581686	2582663	+
SaurJH1_2496	2583182	2582715	-
SaurJH1_2497	2583885	2583193	-
SaurJH1_2498	2585011	2583896	-
SaurJH1_2499	2585996	2584989	-
SaurJH1_2500	2587356	2585998	-
SaurJH1_2501	2588020	2587334	-
SaurJH1_2502	2590206	2588473	-
SaurJH1_2503	2591994	2590231	-
SaurJH1_2504	2592670	2592560	-
SaurJH1_2505	2592701	2592955	+
SaurJH1_2506	2593324	2592938	-
SaurJH1_2507	2593592	2594734	+
SaurJH1_2508	2594794	2595453	+
SaurJH1_2509	2595635	2596846	+
SaurJH1_2510	2597442	2596969	-
SaurJH1_2511	2597555	2598211	+
SaurJH1_2512	2599101	2598274	-
SaurJH1_2513	2599366	2600775	+
SaurJH1_2514	2600913	2602991	+
SaurJH1_2515	2604961	2603132	-
SaurJH1_2516	2605193	2606689	+
SaurJH1_2517	2607632	2606781	-
SaurJH1_2518	2608889	2607954	-
SaurJH1_2519	2610515	2609115	-
SaurJH1_2520	2611504	2610809	-
SaurJH1_2521	2612445	2611504	-
SaurJH1_2522	2613097	2612462	-
SaurJH1_2523	2614320	2613094	-
SaurJH1_2524	2614766	2614647	-
SaurJH1_2525	2615589	2614990	-
SaurJH1_2526	2615769	2617406	+
SaurJH1_2527	2617715	2619067	+
SaurJH1_2528	2620316	2619129	-
SaurJH1_2529	2621488	2620712	-
SaurJH1_2530	2622143	2621481	-
SaurJH1_2531	2623467	2622391	-
SaurJH1_2532	2624088	2623822	-
SaurJH1_2533	2624345	2624088	-
SaurJH1_2534	2624704	2625159	+
SaurJH1_2535	2625308	2625210	-
SaurJH1_2536	2626904	2625327	-
SaurJH1_2537	2627099	2627848	+
SaurJH1_2538	2629403	2628210	-
SaurJH1_2539	2630164	2629415	-
SaurJH1_2540	2630972	2630157	-
SaurJH1_2541	2631838	2630969	-
SaurJH1_2542	2632770	2631835	-
SaurJH1_2543	2634381	2632783	-
SaurJH1_2544	2635825	2634524	-
SaurJH1_2545	2636636	2635818	-
SaurJH1_2546	2637468	2636647	-
SaurJH1_2547	2637875	2637744	-
SaurJH1_2548	2638925	2638158	-
SaurJH1_2549	2639843	2639025	-
SaurJH1_2550	2640078	2641616	+
SaurJH1_2551	2642151	2641729	-
SaurJH1_2552	2643022	2642603	-
SaurJH1_2553	2643459	2643049	-
SaurJH1_2554	2644148	2643726	-
SaurJH1_2555	2645093	2644398	-
SaurJH1_2556	2645382	2645663	+
SaurJH1_2557	2646114	2645923	-
SaurJH1_2558	2646337	2646182	-
SaurJH1_2559	2647472	2646675	-
SaurJH1_2561	2648292	2648005	-
SaurJH1_2562	2648621	2648295	-
SaurJH1_2563	2649946	2648621	-
SaurJH1_2564	2650730	2649933	-
SaurJH1_2565	2651747	2650971	-
SaurJH1_2566	2652632	2651856	-
SaurJH1_2567	2655797	2652936	-
SaurJH1_2568	2656191	2655799	-
SaurJH1_2569	2656296	2658131	+
SaurJH1_2570	2658415	2658681	+
SaurJH1_2571	2658825	2659133	+
SaurJH1_2572	2660647	2659571	-
SaurJH1_2573	2663994	2661031	-
SaurJH1_2574	2664655	2664299	-
SaurJH1_2575	2664979	2665722	+
SaurJH1_2576	2666799	2665933	-
SaurJH1_2577	2669865	2666980	-
SaurJH1_2578	2673662	2670546	-
SaurJH1_2579	2673997	2673797	-
SaurJH1_2580	2675489	2674131	-
SaurJH1_2581	2677159	2675606	-
SaurJH1_2582	2677863	2677183	-
SaurJH1_2583	2678780	2678016	-
SaurJH1_2584	2679637	2678945	-
SaurJH1_2585	2680284	2679868	-
SaurJH1_2586	2682378	2680423	-
SaurJH1_2587	2684000	2682723	-
SaurJH1_2588	2684547	2685158	+
SaurJH1_2589	2685676	2686371	+
SaurJH1_2590	2686373	2687143	+
SaurJH1_2591	2687516	2689480	+
SaurJH1_2592	2689822	2690901	+
SaurJH1_2593	2691599	2691006	-
SaurJH1_2594	2692589	2691630	-
SaurJH1_2595	2693101	2692667	-
SaurJH1_2596	2693327	2693611	+
SaurJH1_2597	2693782	2694588	+
SaurJH1_2598	2695380	2694709	-
SaurJH1_2599	2695650	2696642	+
SaurJH1_2600	2697689	2696889	-
SaurJH1_2601	2698009	2698644	+
SaurJH1_2602	2698659	2699381	+
SaurJH1_2603	2700163	2699543	-
SaurJH1_2604	2700357	2700848	+
SaurJH1_2605	2701162	2700992	-
SaurJH1_2606	2702240	2701341	-
SaurJH1_2607	2702934	2702254	-
SaurJH1_2608	2703980	2702937	-
SaurJH1_2609	2704530	2704733	+
SaurJH1_2610	2704889	2705851	+
SaurJH1_2611	2706900	2705932	-
SaurJH1_2612	2707377	2707021	-
SaurJH1_2613	2707829	2707419	-
SaurJH1_2614	2710275	2708209	-
SaurJH1_2615	2712315	2710576	-
SaurJH1_2616	2713055	2712366	-
SaurJH1_2617	2713443	2713048	-
SaurJH1_2618	2714534	2713656	-
SaurJH1_2619	2714701	2714919	+
SaurJH1_2620	2715309	2715740	+
SaurJH1_2621	2717156	2715879	-
SaurJH1_2622	2717411	2718577	+
SaurJH1_2623	2719263	2718742	-
SaurJH1_2624	2719672	2721777	+
SaurJH1_2625	2722016	2721846	-
SaurJH1_2626	2724023	2722029	-
SaurJH1_2627	2724262	2724035	-
SaurJH1_2628	2726967	2724478	-
SaurJH1_2629	2727112	2727660	+
SaurJH1_2630	2729560	2728016	-
SaurJH1_2631	2730349	2729750	-
SaurJH1_2632	2730588	2730779	+
SaurJH1_2633	2731019	2733427	+
SaurJH1_2634	2733838	2734044	+
SaurJH1_2635	2735133	2734135	-
SaurJH1_2636	2736310	2735156	-
SaurJH1_2637	2738246	2736738	-
SaurJH1_2638	2739121	2738258	-
SaurJH1_2639	2740285	2739158	-
SaurJH1_2640	2741784	2740291	-
SaurJH1_2641	2742274	2741777	-
SaurJH1_2642	2743207	2742440	-
SaurJH1_2643	2743465	2743319	-
SaurJH1_2644	2745379	2743568	-
SaurJH1_2646	2747356	2746655	-
SaurJH1_2647	2749019	2747964	-
SaurJH1_2648	2749411	2749998	+
SaurJH1_2649	2750196	2750696	+
SaurJH1_2650	2750916	2751146	+
SaurJH1_2651	2751825	2751448	-
SaurJH1_2652	2752663	2751842	-
SaurJH1_2653	2752982	2752683	-
SaurJH1_2654	2753113	2753670	+
SaurJH1_2655	2753663	2754367	+
SaurJH1_2656	2754465	2755475	+
SaurJH1_2657	2755495	2756325	+
SaurJH1_2658	2757362	2756472	-
SaurJH1_2659	2758799	2757459	-
SaurJH1_2660	2759899	2758793	-
SaurJH1_2661	2760528	2760232	-
SaurJH1_2662	2760884	2760516	-
SaurJH1_2663	2761174	2760899	-
SaurJH1_2664	2762384	2761518	-
SaurJH1_2665	2762602	2763666	+
SaurJH1_2666	2763821	2764096	+
SaurJH1_2667	2765004	2764282	-
SaurJH1_2668	2765358	2765807	+
SaurJH1_2669	2766475	2765888	-
SaurJH1_2670	2766618	2768300	+
SaurJH1_2671	2769042	2768398	-
SaurJH1_2672	2770125	2769049	-
SaurJH1_2673	2770851	2770468	-
SaurJH1_2674	2771704	2770853	-
SaurJH1_2675	2772515	2771697	-
SaurJH1_2676	2772588	2773448	+
SaurJH1_2677	2774238	2773534	-
SaurJH1_2678	2775475	2774516	-
SaurJH1_2679	2776161	2777609	+
SaurJH1_2680	2779027	2777690	-
SaurJH1_2681	2779276	2779701	+
SaurJH1_2682	2779824	2780714	+
SaurJH1_2683	2782404	2780908	-
SaurJH1_2684	2782829	2783029	+
SaurJH1_2685	2784708	2783089	-
SaurJH1_2686	2785360	2784881	-
SaurJH1_2687	2785816	2785604	-
SaurJH1_2688	2787803	2786094	-
SaurJH1_2689	2789554	2788064	-
SaurJH1_2690	2789807	2790370	+
SaurJH1_2691	2792163	2790541	-
SaurJH1_2692	2792295	2792456	+
SaurJH1_2693	2793218	2792682	-
SaurJH1_2694	2795065	2793215	-
SaurJH1_2695	2796625	2795255	-
SaurJH1_2696	2797042	2796947	-
SaurJH1_2697	2797723	2797118	-
SaurJH1_2698	2799666	2797786	-
SaurJH1_2699	2800557	2800060	-
SaurJH1_2700	2800827	2800567	-
SaurJH1_2701	2803981	2801981	-
SaurJH1_2702	2804733	2803978	-
SaurJH1_2703	2805728	2804841	-
SaurJH1_2704	2806404	2805739	-
SaurJH1_2705	2806630	2806430	-
SaurJH1_2706	2806828	2808252	+
SaurJH1_2707	2808416	2808312	-
SaurJH1_2708	2808990	2808535	-
SaurJH1_2709	2809996	2809235	-
SaurJH1_2710	2812745	2810112	-
SaurJH1_2711	2813799	2813095	-
SaurJH1_2712	2814866	2813898	-
SaurJH1_2713	2816286	2814856	-
SaurJH1_2714	2817387	2816377	-
SaurJH1_2715	2818655	2817420	-
SaurJH1_2716	2819451	2819002	-
SaurJH1_2717	2821347	2819818	-
SaurJH1_2718	2822298	2821771	-
SaurJH1_2719	2822556	2823014	+
SaurJH1_2720	2823254	2825128	+
SaurJH1_2721	2825204	2827156	+
SaurJH1_2722	2827170	2828108	+
SaurJH1_2723	2831201	2828220	-
SaurJH1_2724	2831412	2833271	+
SaurJH1_2725	2834096	2833536	-
SaurJH1_2726	2836172	2834265	-
SaurJH1_2727	2837771	2836413	-
SaurJH1_2728	2839272	2837764	-
SaurJH1_2729	2841680	2839290	-
SaurJH1_2730	2842629	2841670	-
SaurJH1_2731	2844175	2842607	-
SaurJH1_2732	2845718	2844165	-
SaurJH1_2733	2846940	2845729	-
SaurJH1_2734	2853885	2847070	-
SaurJH1_2735	2854348	2854238	-
SaurJH1_2736	2855121	2854429	-
SaurJH1_2737	2855387	2855815	+
SaurJH1_2738	2855799	2856104	+
SaurJH1_2739	2856258	2856617	+
SaurJH1_2740	2857313	2856702	-
SaurJH1_2741	2857868	2857392	-
SaurJH1_2742	2858371	2857871	-
SaurJH1_2743	2859373	2858606	-
SaurJH1_2744	2860062	2859370	-
SaurJH1_2745	2860741	2860079	-
SaurJH1_2746	2862150	2861590	-
SaurJH1_2747	2862353	2863552	+
SaurJH1_2748	2863516	2863821	+
SaurJH1_2749	2863818	2864690	+
SaurJH1_2750	2864677	2865729	+
SaurJH1_2751	2868107	2866062	-
SaurJH1_2752	2869037	2868825	-
SaurJH1_2753	2869829	2869197	-
SaurJH1_2754	2870584	2869826	-
SaurJH1_2755	2871285	2870581	-
SaurJH1_2756	2871856	2871278	-
SaurJH1_2757	2872431	2871853	-
SaurJH1_2758	2873413	2872400	-
SaurJH1_2759	2874679	2873429	-
SaurJH1_2760	2875286	2874672	-
SaurJH1_2761	2876122	2875304	-
SaurJH1_2762	2877550	2876426	-
SaurJH1_2763	2878165	2877668	-
SaurJH1_2764	2879045	2878212	-
SaurJH1_2765	2880754	2879042	-
SaurJH1_2766	2881361	2880807	-
SaurJH1_2767	2882238	2881390	-
SaurJH1_2768	2882617	2883132	+
SaurJH1_2769	2884257	2883283	-
SaurJH1_2770	2884498	2885454	+
SaurJH1_2771	2885606	2886244	+
SaurJH1_2772	2887130	2886363	-
SaurJH1_2773	2887458	2887120	-
SaurJH1_2774	2887625	2888089	+
SaurJH1_2775	2888327	2889745	+
SaurJH1_2776	2891067	2890159	-
SaurJH1_2777	2891289	2891864	+
SaurJH1_2778	2891990	2893042	+
SaurJH1_2779	2893279	2894079	+
SaurJH1_2780	2894725	2894213	-
SaurJH1_2781	2895008	2895766	+
SaurJH1_2782	2895756	2897636	+
SaurJH1_2783	2897728	2897919	+
SaurJH1_2784	2898311	2898511	+
SaurJH1_2785	2899198	2898629	-
SaurJH1_2786	2899853	2899458	-
SaurJH1_2787	2900274	2899921	-
SaurJH1_2788	2901564	2900725	-
SaurJH1_2789	2902326	2901607	-
SaurJH1_2790	2904203	2902326	-
SaurJH1_2791	2905649	2904270	-
SaurJH1_2792	2906159	2905806	-
SaurJH1_2793	2906417	2906280	-
