SAAV_0001	517	1878	+
SAAV_0002	2156	3289	+
SAAV_0003	3670	3915	+
SAAV_0004	3912	5024	+
SAAV_0005	5034	6968	+
SAAV_0006	7005	9674	+
SAAV_0007	10463	9762	-
SAAV_0008	10900	12414	+
SAAV_0010	12793	14079	+
SAAV_0011	14730	15425	+
SAAV_0012	15422	15751	+
SAAV_0014	16114	17082	+
SAAV_0015	17390	18313	+
SAAV_0016	18328	20295	+
SAAV_0017	20292	20738	+
SAAV_0018	20770	22170	+
SAAV_0019	22448	23731	+
SAAV_0022	24934	25635	+
SAAV_0023	25648	27474	+
SAAV_0024	27467	28801	+
SAAV_0025	28802	29590	+
SAAV_0026	29979	30779	+
SAAV_0027	31006	33324	+
SAAV_0028	34011	33556	-
SAAV_0029	34474	34566	+
SAAV_0030	34713	36458	+
SAAV_0031	36968	36642	-
SAAV_0032	38157	37402	-
SAAV_0033	38417	38157	-
SAAV_0034	38554	39618	+
SAAV_0035	39649	40983	+
SAAV_0036	41002	42195	+
SAAV_0037	43794	42862	-
SAAV_0038	44157	44360	+
SAAV_0039	44409	44705	+
SAAV_0040	44913	45515	+
SAAV_0041	45782	48934	+
SAAV_0042	48991	49473	+
SAAV_0043	49679	50665	+
SAAV_0044	50886	51656	+
SAAV_0045	51708	52478	+
SAAV_0046	52546	52881	+
SAAV_0047	53590	53099	-
SAAV_0048	54062	53556	-
SAAV_0049	54536	54174	-
SAAV_0050	55178	54585	-
SAAV_0051	56222	55185	-
SAAV_0052	58125	56212	-
SAAV_0053	58308	58141	-
SAAV_0054	59676	58321	-
SAAV_0055	59982	59734	-
SAAV_0056	60456	60899	+
SAAV_0057	63585	61090	-
SAAV_0058	64009	63620	-
SAAV_0059	64275	64015	-
SAAV_0060	65323	64280	-
SAAV_0061	66502	65414	-
SAAV_0062	66984	66682	-
SAAV_0063	67323	66988	-
SAAV_0064	67664	67362	-
SAAV_0065	68105	67821	-
SAAV_0066	68265	68648	+
SAAV_0067	68737	69483	+
SAAV_0068	69550	70317	+
SAAV_0069	70453	72651	+
SAAV_0070	72802	73980	+
SAAV_0071	73982	75370	+
SAAV_0072	77515	75854	-
SAAV_0073	79615	77840	-
SAAV_0074	80661	79789	-
SAAV_0075	80843	82171	+
SAAV_0076	82361	82834	+
SAAV_0077	83096	84688	+
SAAV_0080	87716	86964	-
SAAV_0081	89083	88085	-
SAAV_0082	90075	89080	-
SAAV_0083	91083	90091	-
SAAV_0084	91449	92294	+
SAAV_0085	92303	93301	+
SAAV_0086	93322	95076	+
SAAV_0087	95069	96325	+
SAAV_0088	96315	98051	+
SAAV_0089	97960	99810	+
SAAV_0090	99785	100561	+
SAAV_0091	100561	101763	+
SAAV_0092	101767	102531	+
SAAV_0093	102727	103353	+
SAAV_0094	103565	104341	+
SAAV_0095	104485	104607	+
SAAV_0096	104686	105657	+
SAAV_0097	105620	106312	+
SAAV_0098	106522	107688	+
SAAV_0099	107669	108907	+
SAAV_0100	108897	110327	+
SAAV_0101	110595	111194	+
SAAV_0102	111562	112287	+
SAAV_0103	113233	112478	-
SAAV_0104	113469	114176	+
SAAV_0105	114183	115535	+
SAAV_0106	115616	116278	+
SAAV_0107	116306	117484	+
SAAV_0108	118428	117613	-
SAAV_0109	119225	118425	-
SAAV_0110	120000	119227	-
SAAV_0111	121151	120195	-
SAAV_0112	121380	122924	+
SAAV_0113	122975	124510	+
SAAV_0114	124667	125434	+
SAAV_0115	125440	126615	+
SAAV_0116	127000	129609	+
SAAV_0117	129952	130620	+
SAAV_0118	130636	131322	+
SAAV_0119	131325	132089	+
SAAV_0120	132109	133932	+
SAAV_0121	133922	134950	+
SAAV_0122	134963	136072	+
SAAV_0123	136076	137200	+
SAAV_0124	137203	137829	+
SAAV_0125	137834	138943	+
SAAV_0126	138957	140123	+
SAAV_0127	140116	141321	+
SAAV_0128	141322	142527	+
SAAV_0129	142538	143095	+
SAAV_0130	143095	143982	+
SAAV_0131	144036	145298	+
SAAV_0132	145375	146520	+
SAAV_0133	146911	146585	-
SAAV_0134	147301	146918	-
SAAV_0135	147728	149215	+
SAAV_0136	149862	150821	+
SAAV_0137	151144	150935	-
SAAV_0138	151557	152069	+
SAAV_0139	152411	153151	+
SAAV_0140	153165	154136	+
SAAV_0141	154133	154894	+
SAAV_0142	154907	155938	+
SAAV_0143	156227	156514	+
SAAV_0146	158098	159348	+
SAAV_0147	159777	166970	+
SAAV_0148	166983	167627	+
SAAV_0149	168449	167955	-
SAAV_0150	169468	168704	-
SAAV_0151	170725	169484	-
SAAV_0152	171768	170737	-
SAAV_0153	172991	171807	-
SAAV_0154	174599	173250	-
SAAV_0155	175375	174878	-
SAAV_0156	177142	175502	-
SAAV_0157	177335	177436	+
SAAV_0158	179460	177415	-
SAAV_0159	180045	181100	+
SAAV_0160	181100	181996	+
SAAV_0161	182008	183462	+
SAAV_0162	183465	184340	+
SAAV_0163	185028	187817	+
SAAV_0164	188563	187964	-
SAAV_0165	188689	189801	+
SAAV_0166	190475	191653	+
SAAV_0167	191860	192081	+
SAAV_0168	192152	193837	+
SAAV_0169	193905	194339	+
SAAV_0170	194351	195073	+
SAAV_0171	197538	195946	-
SAAV_0172	197666	198973	+
SAAV_0173	198979	200142	+
SAAV_0174	200159	201934	+
SAAV_0175	201972	203978	+
SAAV_0176	205064	204291	-
SAAV_0177	205879	205253	-
SAAV_0178	206088	206666	+
SAAV_0179	207050	208147	+
SAAV_0180	208160	209431	+
SAAV_0181	209434	210702	+
SAAV_0182	210704	211543	+
SAAV_0183	211617	212693	+
SAAV_0184	212718	213758	+
SAAV_0185	213813	214781	+
SAAV_0186	215714	215142	-
SAAV_0187	215869	217248	+
SAAV_0188	218365	217607	-
SAAV_0189	219914	218358	-
SAAV_0190	220879	219911	-
SAAV_0191	221467	223716	+
SAAV_0192	223739	224494	+
SAAV_0193	224816	226579	+
SAAV_0194	227087	226743	-
SAAV_0195	227277	229253	+
SAAV_0196	231024	229840	-
SAAV_0197	233315	231054	-
SAAV_0198	234712	233501	-
SAAV_0199	236329	234824	-
SAAV_0200	237917	236355	-
SAAV_0201	238373	239515	+
SAAV_0202	241304	239829	-
SAAV_0203	241858	241502	-
SAAV_0204	242188	242015	-
SAAV_0205	243359	242214	-
SAAV_0206	243932	244885	+
SAAV_0207	245178	245053	-
SAAV_0208	246734	245205	-
SAAV_0209	247096	248031	+
SAAV_0210	248369	250465	+
SAAV_0211	250450	250917	+
SAAV_0212	250940	251218	+
SAAV_0213	251417	251283	-
SAAV_0214	251445	252704	+
SAAV_0215	252722	253777	+
SAAV_0216	253779	253925	+
SAAV_0219	255521	256237	+
SAAV_0220	256230	257255	+
SAAV_0221	257277	258971	+
SAAV_0222	259399	260568	+
SAAV_0223	260844	261560	+
SAAV_0224	261553	262578	+
SAAV_0225	262600	264288	+
SAAV_0226	264324	266042	+
SAAV_0227	266186	266860	+
SAAV_0228	267120	268859	+
SAAV_0229	268862	269602	+
SAAV_0230	269715	270158	+
SAAV_0231	270151	270852	+
SAAV_0232	271664	270960	-
SAAV_0233	271813	272604	+
SAAV_0234	272620	274056	+
SAAV_0235	275304	274543	-
SAAV_0236	276469	275555	-
SAAV_0237	276901	276497	-
SAAV_0238	277797	276916	-
SAAV_0239	279063	278029	-
SAAV_0240	279280	279393	+
SAAV_0241	279443	279835	+
SAAV_0242	281339	279963	-
SAAV_0243	281573	282565	+
SAAV_0244	282891	283841	+
SAAV_0245	284552	283893	-
SAAV_0246	285486	284566	-
SAAV_0247	286649	285483	-
SAAV_0248	288241	286721	-
SAAV_0249	289465	288572	-
SAAV_0250	289713	290006	+
SAAV_0251	290089	293118	+
SAAV_0252	293118	293576	+
SAAV_0253	293548	293790	+
SAAV_0254	293803	295137	+
SAAV_0255	295159	299598	+
SAAV_0256	299628	300020	+
SAAV_0257	300036	300350	+
SAAV_0258	300350	301024	+
SAAV_0259	301024	301341	+
SAAV_0260	301351	303195	+
SAAV_0261	303266	303697	+
SAAV_0262	303900	304583	+
SAAV_0263	304729	305340	+
SAAV_0264	305475	305693	+
SAAV_0265	305825	306325	+
SAAV_0266	306396	306836	+
SAAV_0267	306847	307308	+
SAAV_0268	307357	307857	+
SAAV_0269	307868	308353	+
SAAV_0270	308978	309352	+
SAAV_0271	309502	309900	+
SAAV_0272	310940	310116	-
SAAV_0273	312484	311177	-
SAAV_0274	313068	313958	+
SAAV_0275	314207	315256	+
SAAV_0276	315269	315946	+
SAAV_0277	316154	317185	+
SAAV_0278	317528	318646	+
SAAV_0279	318621	319544	+
SAAV_0280	319555	320775	+
SAAV_0281	322412	320880	-
SAAV_0282	323333	322452	-
SAAV_0283	323491	324351	+
SAAV_0284	325428	324628	-
SAAV_0285	325568	326236	+
SAAV_0286	327680	326367	-
SAAV_0287	328098	330173	+
SAAV_0288	331242	330415	-
SAAV_0289	332514	331315	-
SAAV_0290	332610	332702	+
SAAV_0291	332816	333817	+
SAAV_0292	333911	334183	+
SAAV_0293	334184	334984	+
SAAV_0294	334974	335918	+
SAAV_0295	335896	336918	+
SAAV_0296	337234	338259	+
SAAV_0297	339699	338353	-
SAAV_0298	339998	339714	-
SAAV_0299	340443	340000	-
SAAV_0300	342403	340448	-
SAAV_0301	342615	343034	+
SAAV_0302	343141	344496	+
SAAV_0303	344600	345040	+
SAAV_0304	346481	345123	-
SAAV_0305	346793	347719	+
SAAV_0306	347733	348794	+
SAAV_0307	348808	349374	+
SAAV_0308	350428	349433	-
SAAV_0309	350427	350780	+
SAAV_0310	350793	351338	+
SAAV_0311	351605	352459	+
SAAV_0312	352456	353685	+
SAAV_0313	353666	355378	+
SAAV_0314	356224	355619	-
SAAV_0315	356552	356337	-
SAAV_0316	357050	356661	-
SAAV_0317	357290	357493	+
SAAV_0318	357490	358203	+
SAAV_0319	358228	359070	+
SAAV_0320	359070	359699	+
SAAV_0321	361219	360086	-
SAAV_0322	361758	362939	+
SAAV_0323	363774	363022	-
SAAV_0324	366045	363817	-
SAAV_0325	367883	366042	-
SAAV_0326	369012	367852	-
SAAV_0327	370112	369009	-
SAAV_0328	370774	371619	+
SAAV_0329	371773	372654	+
SAAV_0330	372684	372887	+
SAAV_0331	372899	373996	+
SAAV_0332	374273	374082	-
SAAV_0333	374517	374813	+
SAAV_0334	374834	375337	+
SAAV_0335	375389	375631	+
SAAV_0336	376882	375908	-
SAAV_0337	377444	377304	-
SAAV_0338	377804	378415	+
SAAV_0339	378784	379152	+
SAAV_0340	379363	379905	+
SAAV_0341	380305	380042	-
SAAV_0342	380605	380856	+
SAAV_0343	381282	381863	+
SAAV_0344	382312	381929	-
SAAV_0345	383208	382582	-
SAAV_0346	383472	383281	-
SAAV_0347	385175	383652	-
SAAV_0348	385760	385191	-
SAAV_0349	386252	387007	+
SAAV_0350	388475	387087	-
SAAV_0351	390409	389453	-
SAAV_0352	391189	390527	-
SAAV_0353	391739	391332	-
SAAV_0355	392252	392830	+
SAAV_0356	392830	394098	+
SAAV_0357	394136	395602	+
SAAV_0358	395627	397168	+
SAAV_0359	397817	397281	-
SAAV_0360	398913	398209	-
SAAV_0361	399584	399312	-
SAAV_0362	399997	399845	-
SAAV_0363	400888	400529	-
SAAV_0364	401752	400907	-
SAAV_0365	402224	402904	+
SAAV_0366	403190	403885	+
SAAV_0367	404176	405246	+
SAAV_0368	405610	406488	+
SAAV_0369	406852	407556	+
SAAV_0370	408002	408697	+
SAAV_0371	409036	409734	+
SAAV_0372	410111	410809	+
SAAV_0373	411175	411858	+
SAAV_0374	412122	413678	+
SAAV_0375	413671	414882	+
SAAV_0376	415265	415948	+
SAAV_0377	415970	417457	+
SAAV_0378	417874	417566	-
SAAV_0379	418211	419014	+
SAAV_0380	419045	419839	+
SAAV_0381	419884	420672	+
SAAV_0382	420717	421478	+
SAAV_0383	421539	422324	+
SAAV_0384	422343	423125	+
SAAV_0385	423182	423976	+
SAAV_0386	424028	424828	+
SAAV_0387	424847	425629	+
SAAV_0388	425886	426623	+
SAAV_0391	427934	428257	+
SAAV_0392	428276	428590	+
SAAV_0393	429073	428879	-
SAAV_0394	429258	430460	+
SAAV_0395	432048	433532	+
SAAV_0396	433545	436250	+
SAAV_0397	436412	436774	+
SAAV_0398	437419	437003	-
SAAV_0399	437457	438131	+
SAAV_0400	438168	438902	+
SAAV_0401	439274	440611	+
SAAV_0402	440828	441733	+
SAAV_0403	441726	442868	+
SAAV_0404	443163	444188	+
SAAV_0405	444192	444851	+
SAAV_0406	444888	445730	+
SAAV_0407	446062	447066	+
SAAV_0408	447520	447251	-
SAAV_0409	447669	448064	+
SAAV_0410	448054	448539	+
SAAV_0411	449490	448708	-
SAAV_0412	450599	449487	-
SAAV_0413	451604	450720	-
SAAV_0414	451785	456284	+
SAAV_0415	456302	457765	+
SAAV_0417	458595	460022	+
SAAV_0418	460086	461726	+
SAAV_0419	461751	462479	+
SAAV_0421	463122	463646	+
SAAV_0422	463715	465412	+
SAAV_0423	465502	465819	+
SAAV_0424	465826	466422	+
SAAV_0427	473213	474550	+
SAAV_0428	474552	475169	+
SAAV_0429	475197	475526	+
SAAV_0430	475740	476666	+
SAAV_0431	476667	477470	+
SAAV_0432	477487	477834	+
SAAV_0433	478108	478833	+
SAAV_0434	478826	479074	+
SAAV_0435	479076	479915	+
SAAV_0436	480095	479940	-
SAAV_0437	480200	482173	+
SAAV_0438	482204	482977	+
SAAV_0439	483144	483680	+
SAAV_0440	483691	484584	+
SAAV_0441	484684	484947	+
SAAV_0442	485258	486106	+
SAAV_0443	486120	486944	+
SAAV_0444	486961	487341	+
SAAV_0445	487413	487715	+
SAAV_0446	488080	489432	+
SAAV_0447	489579	490544	+
SAAV_0448	490694	491347	+
SAAV_0449	491658	492230	+
SAAV_0450	492230	495736	+
SAAV_0451	495726	497252	+
SAAV_0452	497252	498445	+
SAAV_0453	498442	498705	+
SAAV_0454	498723	499115	+
SAAV_0455	499220	499621	+
SAAV_0456	499801	501096	+
SAAV_0457	501101	501640	+
SAAV_0458	501897	503990	+
SAAV_0459	504218	505099	+
SAAV_0460	505278	506210	+
SAAV_0461	506426	507229	+
SAAV_0462	507207	507572	+
SAAV_0463	507569	508045	+
SAAV_0464	508439	508531	+
SAAV_0465	508584	510071	+
SAAV_0478	516763	516861	+
SAAV_0479	518507	517125	-
SAAV_0480	518611	519498	+
SAAV_0481	519502	520062	+
SAAV_0482	521484	520270	-
SAAV_0483	521642	522103	+
SAAV_0484	522122	522688	+
SAAV_0485	522678	523685	+
SAAV_0486	523699	526155	+
SAAV_0487	526640	528004	+
SAAV_0488	528029	529102	+
SAAV_0489	529659	531113	+
SAAV_0490	531542	532183	+
SAAV_0491	532167	533567	+
SAAV_0492	533560	533964	+
SAAV_0493	533972	534718	+
SAAV_0494	534718	535242	+
SAAV_0495	535323	535892	+
SAAV_0496	536007	536150	+
SAAV_0497	536206	536388	+
SAAV_0498	536401	536949	+
SAAV_0499	537130	537552	+
SAAV_0500	537760	538452	+
SAAV_0502	538724	539224	+
SAAV_0503	539267	539635	+
SAAV_0504	539810	540418	+
SAAV_0505	540633	544184	+
SAAV_0506	544321	547944	+
SAAV_0507	548081	548335	+
SAAV_0508	548433	548846	+
SAAV_0509	548912	549382	+
SAAV_0510	549505	551586	+
SAAV_0511	551803	552987	+
SAAV_0512	554444	553269	-
SAAV_0513	554615	555802	+
SAAV_0514	556072	556950	+
SAAV_0515	557109	558746	+
SAAV_0516	558960	559925	+
SAAV_0517	560261	561337	+
SAAV_0518	561587	562270	+
SAAV_0519	563048	562386	-
SAAV_0520	563658	563041	-
SAAV_0521	563725	564195	+
SAAV_0522	564342	565211	+
SAAV_0523	565233	565799	+
SAAV_0524	566229	569168	+
SAAV_0525	569535	573692	+
SAAV_0526	574086	577511	+
SAAV_0527	577632	579104	+
SAAV_0528	580719	579229	-
SAAV_0529	581879	581001	-
SAAV_0530	582557	581892	-
SAAV_0531	582933	582571	-
SAAV_0532	583209	583967	+
SAAV_0533	584044	584676	+
SAAV_0534	584678	585226	+
SAAV_0535	585339	585986	+
SAAV_0536	586488	587888	+
SAAV_0537	588432	589808	+
SAAV_0538	589810	590949	+
SAAV_0539	590924	591289	+
SAAV_0540	591292	591561	+
SAAV_0541	591929	591762	-
SAAV_0542	593266	592436	-
SAAV_0543	593450	594106	+
SAAV_0544	594107	594487	+
SAAV_0545	594620	594988	+
SAAV_0546	595109	596593	+
SAAV_0547	597186	596734	-
SAAV_0548	597963	597199	-
SAAV_0549	599264	598512	-
SAAV_0550	599432	600418	+
SAAV_0551	600421	601257	+
SAAV_0552	601844	602764	+
SAAV_0553	602769	603752	+
SAAV_0554	603765	604841	+
SAAV_0555	605018	605359	+
SAAV_0558	607155	606715	-
SAAV_0559	607213	607314	+
SAAV_0560	607780	609174	+
SAAV_0561	609178	609810	+
SAAV_0562	609929	610477	+
SAAV_0563	610617	611249	+
SAAV_0564	611697	612635	+
SAAV_0565	613081	613617	+
SAAV_0566	613785	614261	+
SAAV_0567	614301	615596	+
SAAV_0568	615639	616145	+
SAAV_0569	616644	617654	+
SAAV_0570	617930	618346	+
SAAV_0571	618343	620004	+
SAAV_0572	620274	620909	+
SAAV_0573	621221	622048	+
SAAV_0574	622197	623147	+
SAAV_0575	623202	623921	+
SAAV_0576	623905	624705	+
SAAV_0577	624841	625347	+
SAAV_0578	625509	626225	+
SAAV_0579	626394	627182	+
SAAV_0580	627808	627434	-
SAAV_0581	628075	627956	-
SAAV_0582	629649	628756	-
SAAV_0583	630104	629880	-
SAAV_0584	630324	630121	-
SAAV_0585	630483	631043	+
SAAV_0586	631062	633464	+
SAAV_0587	633451	633876	+
SAAV_0588	633873	634217	+
SAAV_0589	634207	635703	+
SAAV_0590	635704	636186	+
SAAV_0591	636183	636485	+
SAAV_0592	636460	636897	+
SAAV_0593	637237	639279	+
SAAV_0594	641102	640173	-
SAAV_0595	641935	641099	-
SAAV_0596	642672	641929	-
SAAV_0597	642794	643438	+
SAAV_0598	644270	643518	-
SAAV_0599	644506	645270	+
SAAV_0600	646125	645331	-
SAAV_0601	646451	647284	+
SAAV_0602	647383	648486	+
SAAV_0603	648483	649544	+
SAAV_0604	649607	650005	+
SAAV_0605	651417	650122	-
SAAV_0606	651838	653565	+
SAAV_0607	653922	655151	+
SAAV_0608	655676	656509	+
SAAV_0609	656791	657588	+
SAAV_0610	657624	658628	+
SAAV_0611	658625	659641	+
SAAV_0612	659878	660843	+
SAAV_0613	660885	661469	+
SAAV_0614	661462	661878	+
SAAV_0615	661940	662437	+
SAAV_0616	662894	663961	+
SAAV_0617	664112	665155	+
SAAV_0618	665484	665912	+
SAAV_0619	666627	666121	-
SAAV_0620	666740	667663	+
SAAV_0621	667679	668353	+
SAAV_0622	668346	669386	+
SAAV_0623	669530	670291	+
SAAV_0624	670281	672170	+
SAAV_0625	672895	673512	+
SAAV_0626	673528	674535	+
SAAV_0627	675920	675123	-
SAAV_0628	676281	676925	+
SAAV_0629	677622	679772	+
SAAV_0630	679852	680277	+
SAAV_0631	680467	681183	+
SAAV_0632	681183	681656	+
SAAV_0633	681748	681864	+
SAAV_0634	682009	682653	+
SAAV_0635	682769	683635	+
SAAV_0636	683767	684987	+
SAAV_0637	684984	685472	+
SAAV_0638	686260	685571	-
SAAV_0639	686387	686830	+
SAAV_0640	686897	687292	+
SAAV_0641	687430	687729	+
SAAV_0642	687809	688351	+
SAAV_0643	689013	688447	-
SAAV_0644	689473	689015	-
SAAV_0645	690159	689476	-
SAAV_0646	691206	690331	-
SAAV_0647	691425	693056	+
SAAV_0648	693053	694726	+
SAAV_0649	695296	694853	-
SAAV_0650	695523	696449	+
SAAV_0651	696552	697460	+
SAAV_0652	697495	697782	+
SAAV_0653	698065	699618	+
SAAV_0654	699704	701077	+
SAAV_0655	702133	701513	-
SAAV_0656	702738	702316	-
SAAV_0657	702947	704113	+
SAAV_0658	704406	704858	+
SAAV_0659	705032	705514	+
SAAV_0660	705764	706528	+
SAAV_0661	706525	707445	+
SAAV_0662	707451	709409	+
SAAV_0663	709717	710898	+
SAAV_0664	711119	712468	+
SAAV_0665	712690	713529	+
SAAV_0666	713661	714644	+
SAAV_0667	715771	714716	-
SAAV_0668	716457	715771	-
SAAV_0669	716905	716432	-
SAAV_0670	717688	717248	-
SAAV_0671	718552	717968	-
SAAV_0672	719364	718651	-
SAAV_0673	719787	719368	-
SAAV_0674	720457	719789	-
SAAV_0675	720808	721401	+
SAAV_0676	721385	722536	+
SAAV_0677	722536	723144	+
SAAV_0678	723504	724214	+
SAAV_0679	724198	725202	+
SAAV_0680	725676	727616	+
SAAV_0681	727892	729769	+
SAAV_0682	729781	731562	+
SAAV_0683	731784	732761	+
SAAV_0684	732754	734268	+
SAAV_0685	734508	735566	+
SAAV_0686	735905	736447	+
SAAV_0687	738243	737326	-
SAAV_0688	740018	738513	-
SAAV_0689	740861	740361	-
SAAV_0690	741747	740881	-
SAAV_0691	742141	742398	+
SAAV_0692	742548	742946	+
SAAV_0693	742909	745014	+
SAAV_0694	745132	746103	+
SAAV_0695	746478	747449	+
SAAV_0696	747436	748392	+
SAAV_0697	748389	749150	+
SAAV_0698	749269	750297	+
SAAV_0699	750928	750614	-
SAAV_0700	751869	750946	-
SAAV_0701	752514	751996	-
SAAV_0702	752634	753512	+
SAAV_0703	753666	753986	+
SAAV_0704	754410	755534	+
SAAV_0705	756947	755721	-
SAAV_0706	757455	756961	-
SAAV_0707	758234	757473	-
SAAV_0708	759500	758430	-
SAAV_0709	759818	760873	+
SAAV_0710	761679	761038	-
SAAV_0711	761823	762689	+
SAAV_0712	763197	764135	+
SAAV_0713	764128	764802	+
SAAV_0714	764863	765435	+
SAAV_0715	765849	768380	+
SAAV_0716	768422	768526	+
SAAV_0717	768810	769805	+
SAAV_0718	770214	771053	+
SAAV_0719	771227	771877	+
SAAV_0720	771874	772110	+
SAAV_0721	772379	774364	+
SAAV_0722	774372	777218	+
SAAV_0723	777882	778814	+
SAAV_0724	778820	779659	+
SAAV_0725	779667	780152	+
SAAV_0726	780160	781599	+
SAAV_0727	781666	782601	+
SAAV_0728	783115	782948	-
SAAV_0729	783370	784281	+
SAAV_0730	784278	785273	+
SAAV_0731	785384	786328	+
SAAV_0733	786892	787479	+
SAAV_0734	788624	787722	-
SAAV_0735	789327	789956	+
SAAV_0736	790336	790196	-
SAAV_0737	790769	791782	+
SAAV_0738	791835	792845	+
SAAV_0739	792984	794174	+
SAAV_0740	794296	795057	+
SAAV_0741	795060	796577	+
SAAV_0742	796707	798011	+
SAAV_0743	798350	798808	+
SAAV_0744	798875	799108	+
SAAV_0745	799224	799964	+
SAAV_0746	799998	802370	+
SAAV_0747	802392	802856	+
SAAV_0750	803630	803911	+
SAAV_0751	804501	804178	-
SAAV_0752	804663	804517	-
SAAV_0753	805583	804855	-
SAAV_0754	806021	806173	+
SAAV_0755	806226	806702	+
SAAV_0756	806841	807371	+
SAAV_0757	807640	810585	+
SAAV_0758	810806	812308	+
SAAV_0759	812661	813683	+
SAAV_0760	814018	814539	+
SAAV_0761	814880	815566	+
SAAV_0762	815923	816123	+
SAAV_0763	816833	816615	-
SAAV_0764	817179	816895	-
SAAV_0765	817836	817267	-
SAAV_0766	818212	818024	-
SAAV_0767	818501	818241	-
SAAV_0768	818910	818806	-
SAAV_0769	818842	819045	+
SAAV_0770	819278	819042	-
SAAV_0771	819503	820084	+
SAAV_0772	820774	820157	-
SAAV_0773	821423	820929	-
SAAV_0774	822244	821822	-
SAAV_0775	822392	823108	+
SAAV_0776	823191	823730	+
SAAV_0777	824201	823881	-
SAAV_0778	824345	824701	+
SAAV_0779	825303	825416	+
SAAV_0780	825418	826296	+
SAAV_0781	827090	827476	+
SAAV_0782	827469	827765	+
SAAV_0784	828015	829040	+
SAAV_0785	829033	829728	+
SAAV_0786	829746	830567	+
SAAV_0787	831931	830711	-
SAAV_0788	833333	831945	-
SAAV_0789	833932	833360	-
SAAV_0790	834104	834325	+
SAAV_0791	834326	834598	+
SAAV_0792	834610	834756	+
SAAV_0793	834749	834961	+
SAAV_0794	834963	835322	+
SAAV_0795	835323	835640	+
SAAV_0796	835704	836573	+
SAAV_0797	836587	838296	+
SAAV_0798	838626	839006	+
SAAV_0799	839003	839644	+
SAAV_0800	839991	840332	+
SAAV_0801	840344	840922	+
SAAV_0802	840940	841158	+
SAAV_0803	841209	841736	+
SAAV_0804	841739	842080	+
SAAV_0805	842077	842646	+
SAAV_0806	843080	842721	-
SAAV_0807	843586	843197	-
SAAV_0808	844796	843588	-
SAAV_0809	844889	845215	+
SAAV_0810	845390	845881	+
SAAV_0811	846481	846675	+
SAAV_0812	847760	846909	-
SAAV_0813	848088	848849	+
SAAV_0814	848947	850254	+
SAAV_0815	850369	851610	+
SAAV_0816	851600	852064	+
SAAV_0817	852215	853612	+
SAAV_0818	854729	853680	-
SAAV_0819	855758	854790	-
SAAV_0820	856452	855889	-
SAAV_0821	856870	856541	-
SAAV_0822	857598	856882	-
SAAV_0823	857762	858004	+
SAAV_0824	858017	858460	+
SAAV_0825	858475	858618	+
SAAV_0826	859230	858628	-
SAAV_0827	859860	860612	+
SAAV_0828	860653	860943	+
SAAV_0829	861125	860955	-
SAAV_0830	861196	861417	+
SAAV_0831	861665	861925	+
SAAV_0832	861933	862169	+
SAAV_0833	862162	862641	+
SAAV_0834	862641	863279	+
SAAV_0835	863279	863704	+
SAAV_0836	864389	864508	+
SAAV_0837	865152	864502	-
SAAV_0838	865207	865977	+
SAAV_0839	865987	866760	+
SAAV_0840	866754	866912	+
SAAV_0841	867156	867473	+
SAAV_0842	867563	867748	+
SAAV_0843	867749	868108	+
SAAV_0844	868369	868620	+
SAAV_0845	868613	869146	+
SAAV_0846	869183	869428	+
SAAV_0847	869425	869631	+
SAAV_0848	869628	870014	+
SAAV_0849	870319	870969	+
SAAV_0850	870966	871169	+
SAAV_0851	871192	871662	+
SAAV_0852	871777	872229	+
SAAV_0853	872236	872589	+
SAAV_0854	872717	873187	+
SAAV_0855	873187	874881	+
SAAV_0856	874895	875095	+
SAAV_0857	875161	876351	+
SAAV_0858	876344	876928	+
SAAV_0859	877016	878263	+
SAAV_0860	878299	878457	+
SAAV_0861	878466	878798	+
SAAV_0862	879120	879497	+
SAAV_0863	879494	879874	+
SAAV_0864	879875	880828	+
SAAV_0865	880893	881339	+
SAAV_0866	881399	881521	+
SAAV_0867	881577	886226	+
SAAV_0868	886226	887716	+
SAAV_0869	887732	891514	+
SAAV_0870	891507	891659	+
SAAV_0871	891705	891992	+
SAAV_0872	892048	892422	+
SAAV_0873	892952	893227	+
SAAV_0874	893214	894626	+
SAAV_0875	895243	894686	-
SAAV_0876	895618	895770	+
SAAV_0877	895841	895951	+
SAAV_0878	895938	896138	+
SAAV_0879	897282	896968	-
SAAV_0880	897647	898687	+
SAAV_0881	898701	899768	+
SAAV_0882	900153	901001	+
SAAV_0883	901014	901841	+
SAAV_0884	901868	903187	+
SAAV_0885	903271	904188	+
SAAV_0886	904318	904701	+
SAAV_0887	905037	904780	-
SAAV_0888	905144	905578	+
SAAV_0889	905578	906357	+
SAAV_0890	906465	907349	+
SAAV_0891	907606	907713	+
SAAV_0892	907761	907913	+
SAAV_0893	907929	909386	+
SAAV_0894	909383	910597	+
SAAV_0895	910615	910851	+
SAAV_0896	910848	912023	+
SAAV_0897	912528	912286	-
SAAV_0898	912629	912952	+
SAAV_0899	914075	913011	-
SAAV_0900	914392	914628	+
SAAV_0901	914641	915000	+
SAAV_0902	915454	916662	+
SAAV_0903	916793	918268	+
SAAV_0904	918679	919995	+
SAAV_0905	920014	920388	+
SAAV_0906	921598	920444	-
SAAV_0907	922203	921847	-
SAAV_0908	922474	922181	-
SAAV_0909	922953	922474	-
SAAV_0910	924451	922955	-
SAAV_0911	924773	924444	-
SAAV_0912	925213	924785	-
SAAV_0913	927611	925206	-
SAAV_0914	928125	927742	-
SAAV_0915	928189	928782	+
SAAV_0916	929197	929574	+
SAAV_0917	929936	931063	+
SAAV_0918	931371	932561	+
SAAV_0919	932670	933914	+
SAAV_0920	935370	934441	-
SAAV_0921	936991	935612	-
SAAV_0922	938186	936981	-
SAAV_0923	938537	939868	+
SAAV_0924	940193	940768	+
SAAV_0925	940773	941297	+
SAAV_0926	941313	941888	+
SAAV_0927	942048	945521	+
SAAV_0928	945525	949178	+
SAAV_0929	949344	950246	+
SAAV_0930	950575	950964	+
SAAV_0931	952452	951136	-
SAAV_0932	953328	952504	-
SAAV_0933	953442	953750	+
SAAV_0934	954298	956112	+
SAAV_0935	956315	958924	+
SAAV_0936	959852	958983	-
SAAV_0939	961090	961731	+
SAAV_0940	961724	962845	+
SAAV_0941	962823	963338	+
SAAV_0942	963649	964083	+
SAAV_0943	964525	964340	-
SAAV_0944	964820	965761	+
SAAV_0945	965773	967017	+
SAAV_0946	967443	967072	-
SAAV_0947	967686	968612	+
SAAV_0948	968612	969682	+
SAAV_0949	969698	970780	+
SAAV_0950	970770	971711	+
SAAV_0951	971730	973385	+
SAAV_0952	973597	975312	+
SAAV_0953	975363	976349	+
SAAV_0954	976352	977332	+
SAAV_0955	977325	978287	+
SAAV_0956	978299	979180	+
SAAV_0957	980211	979222	-
SAAV_0958	980505	980900	+
SAAV_0959	982280	981105	-
SAAV_0960	982425	982249	-
SAAV_0961	982792	983511	+
SAAV_0962	983632	984618	+
SAAV_0963	984666	986474	+
SAAV_0964	987740	986934	-
SAAV_0965	988128	987763	-
SAAV_0966	988825	988232	-
SAAV_0967	989011	989358	+
SAAV_0968	989375	990010	+
SAAV_0969	990027	990836	+
SAAV_0970	990833	991687	+
SAAV_0971	991708	993093	+
SAAV_0972	993103	994947	+
SAAV_0973	995225	995995	+
SAAV_0974	997277	996192	-
SAAV_0975	997619	999187	+
SAAV_0976	999332	1000090	+
SAAV_0977	1000284	1000793	+
SAAV_0978	1002096	1000906	-
SAAV_0979	1003249	1002074	-
SAAV_0980	1003682	1005166	+
SAAV_0981	1005156	1005407	+
SAAV_0982	1005407	1006969	+
SAAV_0984	1007271	1008074	+
SAAV_0985	1008293	1010617	+
SAAV_0986	1010634	1011992	+
SAAV_0987	1012131	1013642	+
SAAV_0990	1014659	1014129	-
SAAV_0991	1014908	1015126	+
SAAV_0992	1016193	1015207	-
SAAV_0993	1016392	1016568	+
SAAV_0994	1016583	1017185	+
SAAV_0995	1018528	1020492	+
SAAV_0996	1020495	1020815	+
SAAV_0997	1020812	1021453	+
SAAV_0998	1021807	1021541	-
SAAV_0999	1021972	1022109	+
SAAV_1000	1022554	1022198	-
SAAV_1001	1023138	1024001	+
SAAV_1002	1024178	1024047	-
SAAV_1003	1024457	1024242	-
SAAV_1004	1024622	1025173	+
SAAV_1005	1026163	1025225	-
SAAV_1006	1026345	1027706	+
SAAV_1007	1027693	1029366	+
SAAV_1008	1029353	1030156	+
SAAV_1009	1030149	1030970	+
SAAV_1010	1031537	1031208	-
SAAV_1011	1032756	1031575	-
SAAV_1014	1035547	1034393	-
SAAV_1015	1036753	1035743	-
SAAV_1016	1036906	1037325	+
SAAV_1017	1041278	1037532	-
SAAV_1018	1041940	1041506	-
SAAV_1019	1042565	1042095	-
SAAV_1020	1043830	1042613	-
SAAV_1021	1044281	1045474	+
SAAV_1022	1046289	1046011	-
SAAV_1023	1046903	1046298	-
SAAV_1024	1048881	1046893	-
SAAV_1025	1049981	1048881	-
SAAV_1026	1050227	1050343	+
SAAV_1027	1050870	1050553	-
SAAV_1028	1052594	1051734	-
SAAV_1029	1052795	1053277	+
SAAV_1030	1053264	1054388	+
SAAV_1031	1054392	1055096	+
SAAV_1032	1055096	1055359	+
SAAV_1033	1055361	1056032	+
SAAV_1034	1056025	1058214	+
SAAV_1035	1058193	1059677	+
SAAV_1036	1059670	1060698	+
SAAV_1037	1060701	1061267	+
SAAV_1038	1061282	1062760	+
SAAV_1039	1062782	1064029	+
SAAV_1040	1065102	1064296	-
SAAV_1041	1066495	1065095	-
SAAV_1042	1067085	1066510	-
SAAV_1044	1068055	1067921	-
SAAV_1045	1068207	1069502	+
SAAV_1046	1069927	1071099	+
SAAV_1047	1071153	1071695	+
SAAV_1048	1071849	1072115	+
SAAV_1049	1072118	1073836	+
SAAV_1050	1074306	1074073	-
SAAV_1051	1074504	1075865	+
SAAV_1052	1075862	1076881	+
SAAV_1053	1077014	1077676	+
SAAV_1054	1079619	1077922	-
SAAV_1055	1079837	1079619	-
SAAV_1056	1080870	1080319	-
SAAV_1057	1081235	1081861	+
SAAV_1058	1082032	1083144	+
SAAV_1059	1083148	1084125	+
SAAV_1060	1084216	1085508	+
SAAV_1061	1085512	1086918	+
SAAV_1062	1087086	1087361	+
SAAV_1063	1087505	1088044	+
SAAV_1064	1088057	1089151	+
SAAV_1065	1089144	1089941	+
SAAV_1066	1089947	1090756	+
SAAV_1067	1090756	1091829	+
SAAV_1068	1091903	1092922	+
SAAV_1069	1094377	1093058	-
SAAV_1070	1094725	1095144	+
SAAV_1071	1096575	1095223	-
SAAV_1072	1097373	1096759	-
SAAV_1073	1097530	1098357	+
SAAV_1074	1098702	1098511	-
SAAV_1075	1098804	1100651	+
SAAV_1076	1100958	1100791	-
SAAV_1077	1101442	1100960	-
SAAV_1078	1101583	1101858	+
SAAV_1079	1102172	1103398	+
SAAV_1080	1103952	1107404	+
SAAV_1081	1108614	1107544	-
SAAV_1082	1108895	1109806	+
SAAV_1083	1109831	1110292	+
SAAV_1084	1110504	1110707	+
SAAV_1085	1110619	1111656	+
SAAV_1086	1111672	1112106	+
SAAV_1087	1113095	1112169	-
SAAV_1088	1113334	1113588	+
SAAV_1089	1113980	1113591	-
SAAV_1090	1114050	1114592	+
SAAV_1091	1114594	1115076	+
SAAV_1092	1116277	1115138	-
SAAV_1093	1116404	1116961	+
SAAV_1094	1117041	1117214	+
SAAV_1095	1119303	1117366	-
SAAV_1096	1120558	1119506	-
SAAV_1097	1120767	1121450	+
SAAV_1098	1121450	1122526	+
SAAV_1099	1122523	1123401	+
SAAV_1100	1123411	1124379	+
SAAV_1101	1124441	1125175	+
SAAV_1102	1125194	1125517	+
SAAV_1103	1125901	1126641	+
SAAV_1105	1127021	1128079	+
SAAV_1106	1128079	1130481	+
SAAV_1107	1131851	1130913	-
SAAV_1108	1132221	1132487	+
SAAV_1109	1132488	1133009	+
SAAV_1110	1133082	1134794	+
SAAV_1111	1134804	1137152	+
SAAV_1112	1137325	1137639	+
SAAV_1113	1137797	1137702	-
SAAV_1114	1137963	1139744	+
SAAV_1115	1140068	1140682	+
SAAV_1116	1140734	1142500	+
SAAV_1117	1142500	1143315	+
SAAV_1118	1143551	1144351	+
SAAV_1119	1144363	1144950	+
SAAV_1120	1144943	1145446	+
SAAV_1121	1145601	1145741	+
SAAV_1122	1145935	1146264	+
SAAV_1123	1146435	1146542	+
SAAV_1124	1147034	1146633	-
SAAV_1125	1147704	1148210	+
SAAV_1126	1148470	1148967	+
SAAV_1127	1149117	1149467	+
SAAV_1128	1149829	1150026	+
SAAV_1129	1150474	1150289	-
SAAV_1130	1151848	1153167	+
SAAV_1131	1154285	1153326	-
SAAV_1132	1154958	1155104	+
SAAV_1133	1155088	1155285	+
SAAV_1134	1156491	1155775	-
SAAV_1135	1157324	1156599	-
SAAV_1136	1158144	1157419	-
SAAV_1137	1158582	1159583	+
SAAV_1138	1159606	1160538	+
SAAV_1139	1160710	1162266	+
SAAV_1140	1162573	1162800	+
SAAV_1141	1164053	1163106	-
SAAV_1142	1164302	1164490	+
SAAV_1144	1165395	1165529	+
SAAV_1145	1165586	1165720	+
SAAV_1146	1165844	1166539	+
SAAV_1147	1167088	1166648	-
SAAV_1148	1167283	1168896	+
SAAV_1149	1169040	1169471	+
SAAV_1150	1169487	1170422	+
SAAV_1151	1170436	1170837	+
SAAV_1152	1170818	1173052	+
SAAV_1153	1173344	1174309	+
SAAV_1154	1174311	1175660	+
SAAV_1155	1175676	1176995	+
SAAV_1156	1177101	1178513	+
SAAV_1157	1178546	1179718	+
SAAV_1158	1179978	1180769	+
SAAV_1159	1180787	1181461	+
SAAV_1160	1181467	1182021	+
SAAV_1161	1182033	1182323	+
SAAV_1162	1182406	1183212	+
SAAV_1163	1183236	1183853	+
SAAV_1165	1184074	1186827	+
SAAV_1166	1187118	1187915	+
SAAV_1167	1188739	1189230	+
SAAV_1168	1189230	1190147	+
SAAV_1169	1190547	1191074	+
SAAV_1170	1191292	1192599	+
SAAV_1171	1192627	1193508	+
SAAV_1172	1193526	1194800	+
SAAV_1173	1194802	1195902	+
SAAV_1174	1195895	1199068	+
SAAV_1175	1199178	1199870	+
SAAV_1176	1199870	1200481	+
SAAV_1177	1200511	1200723	+
SAAV_1178	1201160	1201561	+
SAAV_1179	1201748	1201635	-
SAAV_1180	1203521	1201824	-
SAAV_1181	1203796	1204419	+
SAAV_1182	1204419	1204637	+
SAAV_1183	1204853	1206052	+
SAAV_1184	1206052	1208460	+
SAAV_1185	1208966	1209919	+
SAAV_1186	1210360	1210082	-
SAAV_1187	1210584	1211072	+
SAAV_1188	1211065	1212000	+
SAAV_1189	1211997	1213304	+
SAAV_1190	1213307	1214401	+
SAAV_1191	1214408	1215151	+
SAAV_1192	1215148	1217142	+
SAAV_1193	1217370	1218245	+
SAAV_1194	1218246	1218890	+
SAAV_1195	1218897	1219538	+
SAAV_1196	1220107	1219919	-
SAAV_1197	1220550	1220924	+
SAAV_1198	1220939	1222585	+
SAAV_1199	1222775	1224835	+
SAAV_1200	1225038	1225610	+
SAAV_1201	1225615	1226601	+
SAAV_1202	1226594	1227520	+
SAAV_1203	1227513	1228247	+
SAAV_1204	1228660	1228556	-
SAAV_1205	1228682	1228915	+
SAAV_1206	1229031	1229762	+
SAAV_1207	1229909	1233475	+
SAAV_1208	1233475	1234725	+
SAAV_1209	1234712	1235044	+
SAAV_1210	1235070	1236437	+
SAAV_1211	1236872	1237147	+
SAAV_1212	1237335	1237838	+
SAAV_1213	1237838	1238575	+
SAAV_1215	1238678	1239028	+
SAAV_1216	1241878	1239272	-
SAAV_1217	1242279	1243163	+
SAAV_1218	1243147	1243914	+
SAAV_1219	1244023	1245189	+
SAAV_1220	1245211	1246119	+
SAAV_1221	1246346	1247464	+
SAAV_1222	1247492	1248736	+
SAAV_1223	1249041	1249781	+
SAAV_1224	1249961	1252030	+
SAAV_1225	1252186	1253493	+
SAAV_1226	1253911	1254807	+
SAAV_1227	1254804	1255349	+
SAAV_1228	1255415	1256818	+
SAAV_1229	1256843	1257616	+
SAAV_1230	1257963	1258730	+
SAAV_1231	1258764	1258877	+
SAAV_1232	1258912	1259793	+
SAAV_1233	1259930	1260652	+
SAAV_1234	1260671	1261225	+
SAAV_1235	1261598	1262368	+
SAAV_1236	1262375	1263157	+
SAAV_1237	1263369	1264655	+
SAAV_1238	1264675	1266378	+
SAAV_1239	1266642	1270952	+
SAAV_1240	1271242	1271709	+
SAAV_1241	1271730	1272905	+
SAAV_1242	1272926	1273210	+
SAAV_1243	1273207	1273524	+
SAAV_1244	1273529	1275646	+
SAAV_1245	1276032	1276382	+
SAAV_1246	1276551	1277468	+
SAAV_1247	1277483	1278454	+
SAAV_1248	1278569	1278838	+
SAAV_1249	1279207	1281303	+
SAAV_1250	1281641	1283212	+
SAAV_1251	1283595	1285835	+
SAAV_1252	1285840	1286553	+
SAAV_1253	1286584	1287849	+
SAAV_1254	1287849	1289135	+
SAAV_1255	1289135	1289839	+
SAAV_1256	1289944	1290771	+
SAAV_1257	1290790	1291182	+
SAAV_1258	1291216	1291794	+
SAAV_1259	1292018	1293169	+
SAAV_1260	1293334	1294377	+
SAAV_1261	1294731	1296290	+
SAAV_1262	1296802	1296587	-
SAAV_1263	1296976	1297773	+
SAAV_1264	1297913	1299673	+
SAAV_1265	1299674	1300540	+
SAAV_1266	1300634	1300927	+
SAAV_1267	1301061	1302605	+
SAAV_1268	1302606	1302971	+
SAAV_1269	1302998	1303489	+
SAAV_1270	1303792	1306410	+
SAAV_1271	1306423	1308432	+
SAAV_1272	1308447	1308980	+
SAAV_1273	1309455	1310273	+
SAAV_1274	1310402	1311898	+
SAAV_1275	1312056	1313729	+
SAAV_1276	1313879	1314793	+
SAAV_1277	1314811	1315746	+
SAAV_1278	1315761	1315994	+
SAAV_1279	1316692	1316216	-
SAAV_1280	1316804	1318042	+
SAAV_1281	1318061	1319299	+
SAAV_1282	1319542	1319910	+
SAAV_1283	1319929	1321269	+
SAAV_1284	1321762	1321959	+
SAAV_1285	1322659	1322871	+
SAAV_1286	1323165	1323371	+
SAAV_1287	1324071	1324181	+
SAAV_1288	1324605	1324790	+
SAAV_1289	1325301	1325405	+
SAAV_1290	1325360	1325515	+
SAAV_1291	1325533	1325784	+
SAAV_1292	1325830	1326066	+
SAAV_1293	1326181	1326441	+
SAAV_1294	1326507	1326701	+
SAAV_1295	1328270	1327245	-
SAAV_1296	1328540	1328737	+
SAAV_1297	1328794	1330275	+
SAAV_1298	1330450	1331358	+
SAAV_1299	1331327	1332058	+
SAAV_1300	1332062	1333153	+
SAAV_1301	1333150	1333752	+
SAAV_1302	1334053	1333865	-
SAAV_1303	1334192	1334725	+
SAAV_1304	1335724	1334870	-
SAAV_1305	1336040	1336630	+
SAAV_1306	1338066	1336684	-
SAAV_1307	1338072	1338179	+
SAAV_1308	1338257	1339537	+
SAAV_1309	1339543	1340604	+
SAAV_1310	1340606	1341520	+
SAAV_1311	1341578	1342381	+
SAAV_1312	1342988	1342674	-
SAAV_1313	1344660	1343206	-
SAAV_1314	1344960	1346381	+
SAAV_1315	1346472	1346621	+
SAAV_1316	1347075	1347344	+
SAAV_1317	1347501	1348478	+
SAAV_1318	1348579	1348475	-
SAAV_1319	1348653	1349516	+
SAAV_1320	1350519	1349896	-
SAAV_1321	1350662	1350895	+
SAAV_1322	1351032	1351271	+
SAAV_1323	1351392	1353380	+
SAAV_1324	1353658	1353900	+
SAAV_1325	1354079	1354546	+
SAAV_1326	1354670	1355791	+
SAAV_1327	1355795	1358824	+
SAAV_1328	1359257	1358895	-
SAAV_1329	1359461	1361107	+
SAAV_1330	1361814	1361680	-
SAAV_1331	1362054	1364759	+
SAAV_1332	1364939	1365406	+
SAAV_1333	1365909	1365613	-
SAAV_1334	1366893	1366285	-
SAAV_1335	1367093	1369090	+
SAAV_1336	1369090	1371492	+
SAAV_1337	1371742	1373202	+
SAAV_1338	1373702	1374553	+
SAAV_1339	1374748	1375896	+
SAAV_1340	1376377	1378899	+
SAAV_1341	1379611	1379102	-
SAAV_1342	1379748	1380731	+
SAAV_1343	1381004	1380819	-
SAAV_1344	1381152	1382414	+
SAAV_1345	1383642	1382551	-
SAAV_1346	1383807	1384838	+
SAAV_1349	1385330	1386736	+
SAAV_1350	1386733	1387299	+
SAAV_1351	1387305	1388303	+
SAAV_1352	1388305	1389087	+
SAAV_1353	1389084	1389719	+
SAAV_1354	1389712	1390926	+
SAAV_1355	1390919	1391647	+
SAAV_1356	1391969	1393231	+
SAAV_1357	1393250	1394509	+
SAAV_1358	1394798	1395544	+
SAAV_1359	1395774	1396541	+
SAAV_1360	1397062	1396589	-
SAAV_1361	1397887	1397186	-
SAAV_1362	1398653	1397880	-
SAAV_1363	1399470	1398640	-
SAAV_1364	1400449	1399463	-
SAAV_1365	1401097	1400753	-
SAAV_1366	1401302	1403116	+
SAAV_1367	1403897	1403256	-
SAAV_1368	1404755	1403904	-
SAAV_1369	1405719	1404802	-
SAAV_1370	1406647	1405721	-
SAAV_1371	1407821	1406838	-
SAAV_1372	1408479	1408661	+
SAAV_1373	1409699	1408797	-
SAAV_1374	1409846	1411447	+
SAAV_1376	1412509	1413714	+
SAAV_1377	1413778	1414767	+
SAAV_1378	1414769	1415656	+
SAAV_1379	1415683	1416375	+
SAAV_1380	1416402	1417121	+
SAAV_1381	1417264	1418415	+
SAAV_1382	1418420	1419505	+
SAAV_1383	1419495	1420760	+
SAAV_1384	1421401	1421000	-
SAAV_1385	1421603	1422922	+
SAAV_1386	1423318	1423118	-
SAAV_1387	1423797	1423489	-
SAAV_1388	1423960	1424229	+
SAAV_1389	1424254	1424877	+
SAAV_1390	1424909	1426045	+
SAAV_1391	1427461	1426118	-
SAAV_1392	1429572	1427686	-
SAAV_1393	1430377	1429586	-
SAAV_1394	1430761	1430558	-
SAAV_1395	1431599	1430790	-
SAAV_1396	1433447	1432179	-
SAAV_1397	1436259	1433461	-
SAAV_1398	1437898	1436543	-
SAAV_1399	1438554	1437895	-
SAAV_1400	1439956	1439342	-
SAAV_1401	1441043	1439973	-
SAAV_1402	1441564	1441055	-
SAAV_1403	1443454	1441964	-
SAAV_1404	1443867	1443646	-
SAAV_1405	1444367	1443867	-
SAAV_1406	1444807	1444379	-
SAAV_1407	1445333	1444800	-
SAAV_1408	1446258	1445419	-
SAAV_1409	1446752	1446273	-
SAAV_1410	1447908	1446952	-
SAAV_1411	1448769	1448332	-
SAAV_1412	1449909	1448785	-
SAAV_1413	1450198	1449947	-
SAAV_1414	1450649	1451353	+
SAAV_1415	1451597	1451418	-
SAAV_1416	1451836	1452237	+
SAAV_1417	1453711	1452296	-
SAAV_1418	1471228	1453757	-
SAAV_1419	1484050	1471268	-
SAAV_1420	1485839	1484448	-
SAAV_1421	1487317	1485995	-
SAAV_1422	1488388	1487348	-
SAAV_1423	1489601	1488483	-
SAAV_1424	1490955	1490077	-
SAAV_1425	1494415	1490975	-
SAAV_1426	1494719	1496059	+
SAAV_1427	1496597	1496265	-
SAAV_1428	1497826	1496681	-
SAAV_1430	1498376	1498260	-
SAAV_1431	1498821	1498477	-
SAAV_1432	1499398	1498835	-
SAAV_1433	1499741	1499391	-
SAAV_1434	1499975	1499796	-
SAAV_1435	1500175	1500300	+
SAAV_1436	1500281	1500907	+
SAAV_1437	1500904	1503087	+
SAAV_1438	1503994	1503653	-
SAAV_1439	1504658	1503999	-
SAAV_1440	1505334	1504648	-
SAAV_1441	1506954	1505662	-
SAAV_1442	1509969	1507276	-
SAAV_1443	1510964	1509993	-
SAAV_1444	1512153	1510951	-
SAAV_1445	1513300	1512158	-
SAAV_1446	1513861	1513544	-
SAAV_1447	1514895	1514197	-
SAAV_1448	1515536	1514949	-
SAAV_1449	1516101	1515526	-
SAAV_1450	1517359	1516115	-
SAAV_1451	1518664	1517366	-
SAAV_1452	1519738	1518674	-
SAAV_1453	1520930	1519764	-
SAAV_1454	1521516	1521316	-
SAAV_1455	1521670	1521545	-
SAAV_1456	1522174	1521725	-
SAAV_1457	1523210	1522266	-
SAAV_1458	1523952	1523227	-
SAAV_1459	1524527	1523955	-
SAAV_1460	1525230	1524958	-
SAAV_1461	1526399	1525401	-
SAAV_1462	1527726	1526416	-
SAAV_1463	1529123	1527948	-
SAAV_1464	1530494	1529835	-
SAAV_1465	1530571	1531539	+
SAAV_1466	1532640	1531654	-
SAAV_1467	1532917	1532801	-
SAAV_1468	1534502	1533042	-
SAAV_1469	1536034	1534655	-
SAAV_1470	1536977	1536024	-
SAAV_1471	1537085	1537333	+
SAAV_1472	1537984	1537439	-
SAAV_1474	1539342	1538386	-
SAAV_1475	1539359	1539481	+
SAAV_1476	1539737	1539483	-
SAAV_1477	1540709	1539813	-
SAAV_1478	1541672	1540767	-
SAAV_1479	1543924	1541762	-
SAAV_1480	1544783	1543917	-
SAAV_1481	1546838	1545087	-
SAAV_1482	1547544	1546819	-
SAAV_1483	1548414	1547677	-
SAAV_1484	1548949	1548407	-
SAAV_1485	1549673	1548942	-
SAAV_1486	1549765	1550271	+
SAAV_1487	1551236	1550349	-
SAAV_1488	1551734	1551285	-
SAAV_1489	1552381	1551839	-
SAAV_1490	1552463	1553371	+
SAAV_1491	1553835	1553587	-
SAAV_1492	1554606	1553851	-
SAAV_1493	1554778	1555563	+
SAAV_1494	1556586	1555666	-
SAAV_1495	1556899	1558383	+
SAAV_1496	1558425	1558556	+
SAAV_1497	1558586	1559479	+
SAAV_1498	1561210	1559561	-
SAAV_1499	1562245	1561226	-
SAAV_1500	1562810	1562439	-
SAAV_1501	1564494	1563277	-
SAAV_1502	1566216	1564810	-
SAAV_1503	1567417	1566284	-
SAAV_1504	1567680	1567859	+
SAAV_1505	1568966	1567986	-
SAAV_1506	1569417	1568980	-
SAAV_1507	1569588	1569490	-
SAAV_1508	1571042	1569768	-
SAAV_1509	1572038	1571055	-
SAAV_1510	1573030	1572038	-
SAAV_1511	1574467	1573046	-
SAAV_1512	1576297	1574618	-
SAAV_1513	1576765	1576313	-
SAAV_1514	1578078	1577197	-
SAAV_1515	1578286	1578056	-
SAAV_1516	1579616	1578279	-
SAAV_1517	1580022	1579633	-
SAAV_1518	1580444	1580082	-
SAAV_1519	1581814	1580459	-
SAAV_1520	1582278	1581814	-
SAAV_1521	1583309	1582752	-
SAAV_1522	1584396	1583335	-
SAAV_1523	1584501	1585082	+
SAAV_1524	1585096	1585314	+
SAAV_1525	1586208	1585378	-
SAAV_1526	1586366	1586752	+
SAAV_1527	1588589	1587117	-
SAAV_1528	1589928	1588582	-
SAAV_1529	1591039	1589948	-
SAAV_1531	1591722	1591198	-
SAAV_1532	1592452	1591955	-
SAAV_1533	1593102	1592656	-
SAAV_1534	1593391	1593080	-
SAAV_1535	1594475	1593405	-
SAAV_1536	1595421	1594447	-
SAAV_1537	1596096	1595473	-
SAAV_1538	1596422	1596093	-
SAAV_1539	1597408	1596422	-
SAAV_1540	1597608	1597405	-
SAAV_1541	1599052	1597589	-
SAAV_1542	1599603	1599064	-
SAAV_1543	1599961	1599812	-
SAAV_1544	1602149	1600074	-
SAAV_1545	1602869	1602270	-
SAAV_1546	1603555	1603145	-
SAAV_1547	1604405	1603542	-
SAAV_1548	1605232	1604447	-
SAAV_1549	1606248	1605358	-
SAAV_1550	1607604	1606258	-
SAAV_1551	1608818	1607718	-
SAAV_1552	1609498	1608821	-
SAAV_1553	1610735	1609629	-
SAAV_1554	1612776	1610959	-
SAAV_1555	1613655	1612837	-
SAAV_1556	1614205	1613666	-
SAAV_1557	1614624	1616015	+
SAAV_1558	1616911	1616165	-
SAAV_1559	1617838	1616939	-
SAAV_1560	1618243	1617839	-
SAAV_1561	1618598	1618254	-
SAAV_1562	1619068	1618601	-
SAAV_1563	1620016	1619069	-
SAAV_1564	1621018	1620320	-
SAAV_1565	1622024	1621035	-
SAAV_1566	1622749	1622042	-
SAAV_1567	1623145	1622969	-
SAAV_1568	1624784	1623438	-
SAAV_1569	1625543	1624791	-
SAAV_1570	1626483	1625545	-
SAAV_1571	1627626	1626487	-
SAAV_1572	1629594	1627762	-
SAAV_1573	1630289	1629663	-
SAAV_1574	1631298	1630321	-
SAAV_1575	1632523	1631399	-
SAAV_1576	1634912	1633089	-
SAAV_1577	1635258	1635509	+
SAAV_1578	1636528	1635554	-
SAAV_1579	1638732	1636585	-
SAAV_1580	1639222	1638791	-
SAAV_1581	1640021	1639344	-
SAAV_1582	1640786	1640070	-
SAAV_1583	1641142	1640789	-
SAAV_1584	1641727	1641143	-
SAAV_1585	1642286	1641717	-
SAAV_1586	1642579	1642289	-
SAAV_1587	1643389	1642583	-
SAAV_1588	1644503	1643403	-
SAAV_1589	1645031	1644504	-
SAAV_1590	1645737	1645051	-
SAAV_1591	1646051	1646320	+
SAAV_1592	1646710	1646522	-
SAAV_1593	1647275	1646859	-
SAAV_1596	1650767	1649538	-
SAAV_1597	1651532	1650780	-
SAAV_1598	1652893	1651532	-
SAAV_1599	1653356	1652907	-
SAAV_1600	1654368	1653358	-
SAAV_1601	1655092	1654358	-
SAAV_1602	1655894	1655418	-
SAAV_1603	1656545	1655922	-
SAAV_1604	1657813	1656545	-
SAAV_1605	1658748	1657825	-
SAAV_1606	1659389	1658751	-
SAAV_1607	1659982	1659674	-
SAAV_1608	1660425	1659997	-
SAAV_1609	1660689	1660429	-
SAAV_1610	1663382	1660752	-
SAAV_1612	1666202	1663725	-
SAAV_1613	1666872	1666204	-
SAAV_1614	1668685	1667567	-
SAAV_1615	1669828	1668686	-
SAAV_1616	1670140	1671153	+
SAAV_1617	1671536	1671390	-
SAAV_1618	1671758	1671576	-
SAAV_1619	1672280	1671858	-
SAAV_1620	1672365	1673639	+
SAAV_1621	1674573	1673800	-
SAAV_1623	1676800	1675034	-
SAAV_1624	1678078	1676816	-
SAAV_1625	1679414	1678539	-
SAAV_1626	1679863	1679411	-
SAAV_1627	1682064	1679875	-
SAAV_1628	1683010	1682492	-
SAAV_1629	1685305	1683032	-
SAAV_1630	1687727	1685508	-
SAAV_1631	1688322	1688062	-
SAAV_1632	1689480	1688341	-
SAAV_1633	1690528	1689503	-
SAAV_1634	1691534	1690530	-
SAAV_1635	1692168	1691566	-
SAAV_1636	1692640	1692182	-
SAAV_1637	1693942	1692650	-
SAAV_1638	1694580	1694296	-
SAAV_1639	1694912	1694592	-
SAAV_1640	1695226	1694918	-
SAAV_1641	1695992	1695462	-
SAAV_1642	1696834	1695992	-
SAAV_1643	1697152	1697033	-
SAAV_1644	1697699	1697226	-
SAAV_1645	1698457	1698173	-
SAAV_1646	1699211	1698525	-
SAAV_1647	1699915	1699208	-
SAAV_1648	1701456	1700185	-
SAAV_1649	1704099	1701469	-
SAAV_1651	1704502	1705062	+
SAAV_1652	1706358	1705285	-
SAAV_1653	1706237	1706386	+
SAAV_1654	1707840	1706554	-
SAAV_1655	1708862	1707888	-
SAAV_1656	1709533	1708865	-
SAAV_1657	1710481	1709555	-
SAAV_1658	1711338	1710523	-
SAAV_1659	1712706	1711360	-
SAAV_1660	1713513	1712923	-
SAAV_1661	1714984	1713665	-
SAAV_1662	1716449	1715187	-
SAAV_1663	1717901	1716600	-
SAAV_1664	1718993	1718064	-
SAAV_1665	1719620	1719012	-
SAAV_1666	1720118	1719762	-
SAAV_1667	1720365	1720165	-
SAAV_1668	1720921	1720394	-
SAAV_1670	1722643	1721150	-
SAAV_1672	1725006	1723069	-
SAAV_1674	1726339	1725419	-
SAAV_1675	1727739	1726339	-
SAAV_1676	1728210	1727740	-
SAAV_1677	1729446	1728421	-
SAAV_1678	1730239	1729616	-
SAAV_1679	1731127	1730255	-
SAAV_1680	1733773	1731143	-
SAAV_1681	1735554	1734067	-
SAAV_1682	1737717	1736053	-
SAAV_1683	1738418	1737714	-
SAAV_1684	1740076	1738808	-
SAAV_1685	1741246	1740125	-
SAAV_1686	1741594	1742955	+
SAAV_1687	1745060	1743303	-
SAAV_1688	1746050	1745082	-
SAAV_1689	1746771	1746451	-
SAAV_1690	1747414	1746902	-
SAAV_1691	1747887	1747525	-
SAAV_1692	1748527	1747934	-
SAAV_1693	1749561	1748533	-
SAAV_1694	1751482	1749551	-
SAAV_1695	1751738	1751505	-
SAAV_1696	1751924	1751757	-
SAAV_1697	1753289	1751928	-
SAAV_1698	1753626	1753294	-
SAAV_1699	1753853	1753623	-
SAAV_1700	1754075	1753857	-
SAAV_1701	1756582	1754087	-
SAAV_1702	1757006	1756617	-
SAAV_1703	1757272	1757012	-
SAAV_1704	1758353	1757277	-
SAAV_1705	1759590	1758514	-
SAAV_1706	1760072	1759770	-
SAAV_1707	1760411	1760076	-
SAAV_1708	1760756	1760451	-
SAAV_1709	1762339	1761395	-
SAAV_1710	1763196	1762339	-
SAAV_1711	1764620	1763391	-
SAAV_1712	1768267	1765070	-
SAAV_1713	1769229	1768288	-
SAAV_1714	1770839	1769541	-
SAAV_1715	1771044	1771457	+
SAAV_1716	1772451	1771762	-
SAAV_1717	1772626	1773681	+
SAAV_1718	1773873	1773775	-
SAAV_1719	1775115	1773997	-
SAAV_1720	1775256	1775756	+
SAAV_1721	1777204	1776002	-
SAAV_1722	1778239	1777292	-
SAAV_1723	1778856	1778362	-
SAAV_1724	1779724	1778954	-
SAAV_1725	1780991	1779768	-
SAAV_1726	1782139	1780991	-
SAAV_1727	1782294	1782410	+
SAAV_1728	1784197	1782503	-
SAAV_1729	1784334	1784798	+
SAAV_1730	1785042	1785644	+
SAAV_1731	1786603	1785860	-
SAAV_1732	1786683	1787129	+
SAAV_1733	1787244	1788401	+
SAAV_1734	1788388	1789992	+
SAAV_1735	1791272	1790142	-
SAAV_1736	1792845	1791379	-
SAAV_1737	1793590	1792973	-
SAAV_1738	1793762	1795036	+
SAAV_1739	1796392	1795130	-
SAAV_1740	1796773	1797678	+
SAAV_1741	1800556	1797818	-
SAAV_1742	1802556	1800889	-
SAAV_1743	1804702	1802996	-
SAAV_1744	1804871	1805503	+
SAAV_1745	1805528	1806697	+
SAAV_1746	1807784	1806795	-
SAAV_1747	1809415	1808324	-
SAAV_1748	1811467	1810109	-
SAAV_1749	1812032	1811541	-
SAAV_1750	1813419	1812106	-
SAAV_1751	1817267	1813443	-
SAAV_1752	1817884	1817288	-
SAAV_1753	1818770	1817913	-
SAAV_1754	1819181	1818870	-
SAAV_1755	1820322	1819246	-
SAAV_1756	1820409	1820720	+
SAAV_1757	1821687	1820845	-
SAAV_1758	1822802	1822158	-
SAAV_1759	1823542	1822817	-
SAAV_1760	1825006	1824158	-
SAAV_1761	1826419	1825010	-
SAAV_1762	1827399	1826977	-
SAAV_1763	1828111	1827416	-
SAAV_1764	1829769	1828108	-
SAAV_1765	1830176	1831444	+
SAAV_1766	1838121	1831561	-
SAAV_1767	1838758	1838447	-
SAAV_1768	1841197	1838780	-
SAAV_1770	1842666	1841485	-
SAAV_1771	1842776	1843729	+
SAAV_1772	1843726	1844289	+
SAAV_1773	1844912	1844412	-
SAAV_1774	1846213	1845386	-
SAAV_1775	1846332	1846216	-
SAAV_1776	1846447	1847448	+
SAAV_1777	1848034	1847570	-
SAAV_1778	1849228	1848047	-
SAAV_1779	1849871	1849239	-
SAAV_1780	1850909	1849878	-
SAAV_1782	1852904	1851402	-
SAAV_1783	1853427	1853741	+
SAAV_1784	1853741	1855033	+
SAAV_1785	1855974	1855120	-
SAAV_1786	1856474	1856250	-
SAAV_1787	1856785	1857144	+
SAAV_1788	1857557	1857700	+
SAAV_1789	1858130	1857687	-
SAAV_1790	1858426	1859061	+
SAAV_1791	1860214	1859501	-
SAAV_1792	1860474	1860776	+
SAAV_1793	1860954	1861397	+
SAAV_1794	1861394	1861747	+
SAAV_1795	1862395	1862559	+
SAAV_1796	1862998	1863681	+
SAAV_1797	1864577	1863744	-
SAAV_1798	1865697	1864789	-
SAAV_1799	1867015	1865819	-
SAAV_1801	1867387	1868979	+
SAAV_1802	1870103	1869357	-
SAAV_1803	1870587	1870108	-
SAAV_1804	1870647	1870904	+
SAAV_1805	1871902	1870901	-
SAAV_1806	1873385	1871907	-
SAAV_1807	1873999	1873544	-
SAAV_1808	1874302	1874952	+
SAAV_1809	1875033	1876028	+
SAAV_1810	1876103	1876729	+
SAAV_1811	1876770	1877111	+
SAAV_1812	1877212	1877784	+
SAAV_1813	1878551	1877982	-
SAAV_1814	1880082	1879582	-
SAAV_1815	1881763	1880534	-
SAAV_1816	1883312	1881756	-
SAAV_1817	1884392	1883673	-
SAAV_1818	1885269	1884550	-
SAAV_1819	1886109	1885390	-
SAAV_1820	1886889	1886167	-
SAAV_1821	1887721	1887014	-
SAAV_1822	1888685	1889266	+
SAAV_1823	1889416	1889535	+
SAAV_1824	1890011	1889739	-
SAAV_1825	1890213	1890686	+
SAAV_1826	1890691	1891482	+
SAAV_1827	1891594	1891469	-
SAAV_1828	1892835	1891852	-
SAAV_1829	1893772	1892837	-
SAAV_1830	1895137	1895778	+
SAAV_1831	1896758	1897252	+
SAAV_1832	1897330	1897566	+
SAAV_1833	1897587	1898363	+
SAAV_1834	1899691	1898915	-
SAAV_1835	1900471	1899974	-
SAAV_1836	1901163	1900768	-
SAAV_1837	1901485	1901138	-
SAAV_1838	1902421	1901693	-
SAAV_1839	1903175	1902456	-
SAAV_1840	1904220	1903456	-
SAAV_1848	1906152	1905598	-
SAAV_1849	1906246	1906473	+
SAAV_1850	1907875	1906475	-
SAAV_1851	1908822	1907899	-
SAAV_1852	1909917	1908880	-
SAAV_1853	1910017	1909907	-
SAAV_1854	1910180	1910683	+
SAAV_1855	1912030	1910807	-
SAAV_1856	1912763	1912023	-
SAAV_1857	1912897	1913319	+
SAAV_1858	1913461	1913826	+
SAAV_1859	1914561	1915118	+
SAAV_1860	1915323	1916285	+
SAAV_1861	1917347	1916406	-
SAAV_1862	1920280	1917344	-
SAAV_1863	1921466	1920270	-
SAAV_1864	1922738	1922394	-
SAAV_1865	1923931	1922807	-
SAAV_1866	1924574	1924110	-
SAAV_1867	1925553	1924930	-
SAAV_1868	1926687	1925575	-
SAAV_1869	1926850	1927671	+
SAAV_1870	1929509	1928124	-
SAAV_1871	1930100	1929705	-
SAAV_1872	1930800	1930648	-
SAAV_1873	1931424	1930825	-
SAAV_1874	1932053	1931583	-
SAAV_1875	1933200	1932058	-
SAAV_1876	1934064	1933336	-
SAAV_1877	1935508	1934051	-
SAAV_1878	1936827	1935766	-
SAAV_1879	1937411	1938763	+
SAAV_1911	1947762	1947316	-
SAAV_1912	1948809	1947859	-
SAAV_1913	1949270	1948815	-
SAAV_1914	1949351	1950640	+
SAAV_1915	1950984	1952027	+
SAAV_1916	1953953	1952217	-
SAAV_1917	1954786	1954244	-
SAAV_1918	1956126	1955089	-
SAAV_1919	1956278	1957255	+
SAAV_1920	1958352	1957516	-
SAAV_1921	1959878	1958361	-
SAAV_1922	1960207	1959893	-
SAAV_1923	1961003	1960185	-
SAAV_1924	1962072	1961263	-
SAAV_1925	1962927	1962412	-
SAAV_1926	1963219	1963058	-
SAAV_1927	1963443	1964594	+
SAAV_1928	1964717	1965001	+
SAAV_1929	1965152	1965472	+
SAAV_1930	1965486	1965788	+
SAAV_1931	1965963	1967054	+
SAAV_1932	1967115	1968170	+
SAAV_1933	1968175	1968435	+
SAAV_1934	1968447	1968830	+
SAAV_1935	1968865	1971360	+
SAAV_1936	1971414	1972772	+
SAAV_1937	1972777	1974624	+
SAAV_1938	1974614	1975660	+
SAAV_1939	1975667	1976257	+
SAAV_1940	1976313	1976669	+
SAAV_1941	1976778	1977281	+
SAAV_1942	1977349	1977798	+
SAAV_1943	1978741	1978211	-
SAAV_1944	1980078	1978831	-
SAAV_1945	1980290	1980090	-
SAAV_1946	1980437	1980901	+
SAAV_1947	1980908	1981183	+
SAAV_1948	1981461	1982678	+
SAAV_1949	1983420	1982791	-
SAAV_1950	1984453	1983410	-
SAAV_1951	1985151	1984450	-
SAAV_1952	1985552	1985166	-
SAAV_1953	1986527	1985769	-
SAAV_1954	1987058	1988044	+
SAAV_1955	1988888	1988475	-
SAAV_1956	1989844	1989113	-
SAAV_1957	1991159	1989846	-
SAAV_1958	1991451	1991951	+
SAAV_1959	1992125	1992033	-
SAAV_1960	1992340	1992894	+
SAAV_1961	1994032	1992962	-
SAAV_1962	1994809	1994279	-
SAAV_1963	1996340	1994979	-
SAAV_1964	1997368	1996421	-
SAAV_1965	1999563	1998136	-
SAAV_1966	2001033	1999576	-
SAAV_1967	2001337	2001035	-
SAAV_1968	2001704	2003242	+
SAAV_1969	2004530	2003331	-
SAAV_1970	2006546	2004543	-
SAAV_1971	2008742	2006550	-
SAAV_1972	2009431	2008739	-
SAAV_1973	2009905	2009603	-
SAAV_1974	2011309	2010014	-
SAAV_1975	2012168	2013334	+
SAAV_1976	2013365	2013691	+
SAAV_1977	2014156	2013983	-
SAAV_1978	2014739	2014137	-
SAAV_1979	2015831	2015010	-
SAAV_1980	2017266	2015824	-
SAAV_1981	2017477	2018553	+
SAAV_1982	2018573	2019367	+
SAAV_1983	2021119	2019557	-
SAAV_1984	2022421	2021324	-
SAAV_1985	2022790	2023350	+
SAAV_1986	2023403	2024332	+
SAAV_1987	2024653	2024525	-
SAAV_1988	2024750	2026129	+
SAAV_1989	2027277	2026249	-
SAAV_1990	2027547	2027948	+
SAAV_1991	2028694	2028521	-
SAAV_1992	2029145	2030185	+
SAAV_1993	2031084	2030242	-
SAAV_1994	2031638	2031081	-
SAAV_1995	2032222	2031698	-
SAAV_1996	2032343	2032906	+
SAAV_1997	2033712	2032972	-
SAAV_1998	2034584	2033712	-
SAAV_1999	2035261	2034581	-
SAAV_2000	2036158	2035262	-
SAAV_2001	2036535	2036155	-
SAAV_2002	2036969	2036793	-
SAAV_2003	2037310	2037212	-
SAAV_2004	2037510	2038796	+
SAAV_2005	2039365	2039075	-
SAAV_2006	2040810	2039380	-
SAAV_2007	2041196	2041396	+
SAAV_2008	2043012	2042059	-
SAAV_2009	2044429	2043689	-
SAAV_2010	2046228	2044774	-
SAAV_2011	2046541	2046239	-
SAAV_2012	2047379	2047080	-
SAAV_2013	2047589	2047425	-
SAAV_2014	2047971	2047582	-
SAAV_2015	2049437	2047971	-
SAAV_2016	2051347	2049437	-
SAAV_2017	2051653	2051363	-
SAAV_2018	2053236	2051653	-
SAAV_2019	2054069	2053245	-
SAAV_2020	2060245	2054069	-
SAAV_2021	2060417	2060259	-
SAAV_2022	2060809	2060459	-
SAAV_2023	2061322	2060867	-
SAAV_2024	2062055	2061414	-
SAAV_2025	2062485	2062090	-
SAAV_2026	2062887	2062486	-
SAAV_2027	2063216	2062884	-
SAAV_2028	2063506	2063228	-
SAAV_2029	2064738	2063575	-
SAAV_2030	2065523	2064750	-
SAAV_2031	2066745	2065507	-
SAAV_2032	2068441	2066750	-
SAAV_2033	2068736	2068431	-
SAAV_2034	2069177	2068863	-
SAAV_2035	2069748	2069332	-
SAAV_2036	2069976	2069776	-
SAAV_2037	2070218	2069976	-
SAAV_2038	2070421	2070215	-
SAAV_2039	2070994	2070458	-
SAAV_2040	2071229	2070987	-
SAAV_2041	2071470	2071219	-
SAAV_2042	2071598	2071485	-
SAAV_2043	2072093	2071734	-
SAAV_2044	2072279	2072094	-
SAAV_2045	2073077	2072748	-
SAAV_2046	2073340	2073140	-
SAAV_2047	2075193	2073337	-
SAAV_2048	2076948	2075215	-
SAAV_2049	2077603	2076968	-
SAAV_2050	2078384	2077626	-
SAAV_2051	2078718	2078395	-
SAAV_2052	2079342	2078731	-
SAAV_2053	2079601	2079365	-
SAAV_2054	2079869	2079609	-
SAAV_2055	2080129	2079968	-
SAAV_2056	2080446	2080126	-
SAAV_2057	2080740	2080597	-
SAAV_2058	2081282	2081494	+
SAAV_2059	2081684	2081535	-
SAAV_2060	2082142	2081699	-
SAAV_2061	2082403	2082155	-
SAAV_2062	2082567	2082890	+
SAAV_2063	2082903	2083364	+
SAAV_2064	2083381	2083827	+
SAAV_2065	2083896	2084780	+
SAAV_2066	2085101	2085454	+
SAAV_2067	2085553	2085720	+
SAAV_2068	2086060	2086425	+
SAAV_2069	2086438	2086764	+
SAAV_2070	2086926	2087963	+
SAAV_2071	2088020	2088844	+
SAAV_2072	2090098	2089082	-
SAAV_2073	2091175	2090120	-
SAAV_2074	2091611	2092834	+
SAAV_2075	2093220	2094527	+
SAAV_2076	2096683	2095067	-
SAAV_2077	2097043	2096759	-
SAAV_2078	2097218	2097961	+
SAAV_2079	2099245	2097986	-
SAAV_2080	2099442	2100068	+
SAAV_2081	2100429	2101214	+
SAAV_2083	2101948	2101814	-
SAAV_2084	2102184	2102747	+
SAAV_2085	2102750	2102893	+
SAAV_2086	2102923	2104206	+
SAAV_2087	2104225	2104941	+
SAAV_2088	2106269	2105310	-
SAAV_2089	2107750	2106266	-
SAAV_2090	2108849	2107899	-
SAAV_2091	2110282	2109032	-
SAAV_2092	2110714	2110490	-
SAAV_2093	2111853	2110774	-
SAAV_2094	2112792	2112157	-
SAAV_2095	2113045	2114973	+
SAAV_2096	2115334	2116944	+
SAAV_2097	2118284	2117259	-
SAAV_2098	2118702	2118277	-
SAAV_2099	2119376	2118714	-
SAAV_2100	2119791	2119357	-
SAAV_2101	2120329	2122017	+
SAAV_2102	2122045	2123814	+
SAAV_2103	2123814	2124068	+
SAAV_2104	2124205	2125209	+
SAAV_2105	2125239	2126768	+
SAAV_2106	2126771	2127817	+
SAAV_2107	2127831	2129201	+
SAAV_2108	2129202	2129774	+
SAAV_2109	2129789	2131057	+
SAAV_2114	2138310	2137855	-
SAAV_2115	2140453	2138303	-
SAAV_2116	2140965	2142284	+
SAAV_2117	2143177	2142407	-
SAAV_2118	2143631	2143152	-
SAAV_2119	2143959	2143633	-
SAAV_2120	2145079	2144078	-
SAAV_2121	2145791	2145429	-
SAAV_2122	2145958	2145788	-
SAAV_2123	2147191	2146043	-
SAAV_2124	2147616	2147257	-
SAAV_2125	2148114	2147620	-
SAAV_2126	2149681	2148098	-
SAAV_2127	2150153	2149674	-
SAAV_2128	2150364	2150248	-
SAAV_2129	2150921	2150361	-
SAAV_2130	2152968	2150941	-
SAAV_2131	2154663	2152987	-
SAAV_2132	2154797	2154687	-
SAAV_2133	2154935	2157592	+
SAAV_2134	2157592	2158287	+
SAAV_2135	2160159	2158639	-
SAAV_2136	2162034	2160676	-
SAAV_2137	2163119	2162049	-
SAAV_2138	2163437	2164639	+
SAAV_2139	2165040	2164903	-
SAAV_2140	2165377	2165168	-
SAAV_2141	2165682	2165389	-
SAAV_2142	2165848	2167332	+
SAAV_2143	2167360	2168007	+
SAAV_2144	2169792	2168920	-
SAAV_2145	2170519	2169878	-
SAAV_2146	2171312	2170521	-
SAAV_2147	2172126	2171296	-
SAAV_2148	2172808	2172119	-
SAAV_2150	2173033	2172908	-
SAAV_2151	2173890	2173195	-
SAAV_2152	2174674	2174279	-
SAAV_2153	2174868	2175308	+
SAAV_2154	2175807	2175367	-
SAAV_2155	2177106	2175841	-
SAAV_2156	2177450	2177217	-
SAAV_2157	2178416	2178012	-
SAAV_2158	2179848	2178436	-
SAAV_2159	2180736	2179870	-
SAAV_2160	2182275	2180767	-
SAAV_2161	2182836	2182297	-
SAAV_2162	2183357	2182836	-
SAAV_2163	2183767	2183555	-
SAAV_2164	2184538	2183810	-
SAAV_2165	2184912	2184559	-
SAAV_2166	2186206	2185079	-
SAAV_2167	2186859	2186230	-
SAAV_2168	2188125	2186887	-
SAAV_2169	2188676	2188152	-
SAAV_2170	2189202	2188783	-
SAAV_2171	2190245	2189199	-
SAAV_2172	2191165	2190329	-
SAAV_2173	2192228	2191152	-
SAAV_2174	2192828	2192229	-
SAAV_2175	2193429	2193175	-
SAAV_2176	2194863	2193547	-
SAAV_2177	2196537	2195110	-
SAAV_2178	2197110	2196775	-
SAAV_2179	2198458	2197199	-
SAAV_2180	2199784	2198924	-
SAAV_2181	2200002	2200523	+
SAAV_2182	2202242	2200632	-
SAAV_2183	2203108	2202578	-
SAAV_2184	2204080	2203220	-
SAAV_2185	2204505	2205308	+
SAAV_2186	2206110	2205439	-
SAAV_2187	2207702	2206509	-
SAAV_2188	2208886	2207702	-
SAAV_2189	2209197	2209667	+
SAAV_2190	2210169	2209819	-
SAAV_2191	2211484	2210183	-
SAAV_2192	2212425	2211763	-
SAAV_2193	2212739	2213449	+
SAAV_2194	2214013	2213570	-
SAAV_2195	2214626	2214213	-
SAAV_2196	2216456	2215083	-
SAAV_2197	2217358	2217128	-
SAAV_2198	2218327	2217389	-
SAAV_2199	2219428	2218763	-
SAAV_2200	2219580	2219900	+
SAAV_2201	2219902	2220879	+
SAAV_2202	2221089	2221196	+
SAAV_2203	2221145	2222236	+
SAAV_2204	2223290	2223460	+
SAAV_2205	2223453	2223611	+
SAAV_2206	2225126	2224269	-
SAAV_2207	2225976	2225194	-
SAAV_2208	2228013	2226208	-
SAAV_2210	2228694	2230232	+
SAAV_2211	2230267	2232399	+
SAAV_2212	2232411	2232845	+
SAAV_2213	2232845	2233951	+
SAAV_2214	2241715	2234270	-
SAAV_2215	2243348	2241993	-
SAAV_2216	2244307	2243375	-
SAAV_2217	2245118	2244309	-
SAAV_2218	2246215	2245307	-
SAAV_2227	2253520	2252456	-
SAAV_2228	2255110	2253668	-
SAAV_2229	2255906	2255433	-
SAAV_2230	2257348	2256005	-
SAAV_2231	2258208	2257525	-
SAAV_2232	2259414	2258227	-
SAAV_2233	2259973	2259458	-
SAAV_2234	2260150	2260410	+
SAAV_2235	2261913	2260543	-
SAAV_2236	2263117	2262149	-
SAAV_2237	2264145	2263114	-
SAAV_2238	2265140	2264157	-
SAAV_2239	2266602	2265532	-
SAAV_2240	2268366	2266609	-
SAAV_2241	2269546	2268353	-
SAAV_2242	2269648	2271624	+
SAAV_2243	2272294	2271785	-
SAAV_2244	2272596	2272357	-
SAAV_2245	2273145	2272609	-
SAAV_2246	2274882	2273320	-
SAAV_2247	2276197	2275190	-
SAAV_2248	2277433	2276432	-
SAAV_2249	2278580	2277711	-
SAAV_2250	2280258	2278846	-
SAAV_2251	2281994	2280276	-
SAAV_2252	2282305	2281994	-
SAAV_2253	2283307	2282327	-
SAAV_2254	2284243	2283311	-
SAAV_2255	2284771	2284256	-
SAAV_2256	2285215	2284787	-
SAAV_2257	2286337	2285582	-
SAAV_2258	2286588	2287319	+
SAAV_2259	2287807	2287604	-
SAAV_2260	2288888	2288040	-
SAAV_2261	2289374	2288958	-
SAAV_2262	2289633	2289785	+
SAAV_2263	2289782	2292211	+
SAAV_2264	2293125	2292271	-
SAAV_2265	2294151	2293336	-
SAAV_2266	2294446	2294871	+
SAAV_2267	2295959	2295255	-
SAAV_2268	2297660	2295996	-
SAAV_2269	2299926	2298910	-
SAAV_2270	2301448	2300171	-
SAAV_2271	2302049	2301936	-
SAAV_2272	2302860	2302699	-
SAAV_2273	2303242	2303120	-
SAAV_2274	2303519	2303403	-
SAAV_2275	2304049	2303723	-
SAAV_2276	2304427	2304612	+
SAAV_2277	2304894	2305841	+
SAAV_2278	2306411	2306019	-
SAAV_2279	2306868	2306431	-
SAAV_2281	2307911	2307108	-
SAAV_2282	2308722	2307916	-
SAAV_2283	2309572	2308712	-
SAAV_2284	2310378	2309569	-
SAAV_2285	2311284	2310916	-
SAAV_2286	2312245	2311301	-
SAAV_2287	2312709	2312320	-
SAAV_2288	2313098	2312733	-
SAAV_2289	2313234	2313121	-
SAAV_2290	2313484	2313266	-
SAAV_2291	2314324	2313677	-
SAAV_2292	2315633	2314341	-
SAAV_2293	2316073	2315633	-
SAAV_2294	2316269	2316090	-
SAAV_2295	2316786	2316286	-
SAAV_2296	2317166	2316807	-
SAAV_2297	2317733	2317197	-
SAAV_2298	2318156	2317758	-
SAAV_2299	2318358	2318188	-
SAAV_2300	2318935	2318396	-
SAAV_2301	2319279	2318962	-
SAAV_2302	2319683	2319315	-
SAAV_2303	2319978	2319715	-
SAAV_2304	2320211	2320002	-
SAAV_2305	2320635	2320201	-
SAAV_2306	2321291	2320638	-
SAAV_2307	2321668	2321315	-
SAAV_2308	2321975	2321697	-
SAAV_2309	2322875	2322042	-
SAAV_2310	2323183	2322908	-
SAAV_2311	2323806	2323183	-
SAAV_2312	2324495	2323833	-
SAAV_2313	2324831	2324523	-
SAAV_2314	2325188	2325577	+
SAAV_2315	2327102	2325768	-
SAAV_2316	2329350	2327215	-
SAAV_2317	2329525	2330412	+
SAAV_2318	2330593	2331456	+
SAAV_2319	2331704	2331573	-
SAAV_2320	2332960	2332052	-
SAAV_2321	2333093	2333257	+
SAAV_2322	2333502	2333819	+
SAAV_2326	2338552	2337287	-
SAAV_2327	2339948	2339184	-
SAAV_2328	2340110	2340550	+
SAAV_2329	2340543	2341754	+
SAAV_2330	2342206	2341856	-
SAAV_2331	2343805	2342783	-
SAAV_2332	2344424	2343825	-
SAAV_2333	2344664	2344431	-
SAAV_2334	2345116	2344670	-
SAAV_2335	2345615	2345130	-
SAAV_2336	2346871	2345612	-
SAAV_2337	2346934	2347428	+
SAAV_2338	2347936	2347430	-
SAAV_2339	2348971	2347967	-
SAAV_2340	2349746	2349141	-
SAAV_2341	2350418	2349747	-
SAAV_2342	2351214	2350432	-
SAAV_2343	2351503	2352300	+
SAAV_2344	2353242	2352472	-
SAAV_2345	2353873	2353319	-
SAAV_2346	2354935	2353994	-
SAAV_2347	2356241	2355333	-
SAAV_2348	2357609	2356455	-
SAAV_2349	2358716	2357826	-
SAAV_2350	2358991	2359293	+
SAAV_2351	2359307	2359717	+
SAAV_2352	2359714	2361429	+
SAAV_2353	2361442	2361894	+
SAAV_2354	2361887	2362576	+
SAAV_2355	2362589	2363203	+
SAAV_2356	2363203	2364039	+
SAAV_2357	2364575	2364228	-
SAAV_2358	2365329	2365003	-
SAAV_2359	2366136	2365393	-
SAAV_2360	2368117	2366162	-
SAAV_2361	2368727	2369530	+
SAAV_2362	2371364	2369964	-
SAAV_2363	2372541	2371459	-
SAAV_2364	2372789	2373211	+
SAAV_2365	2373448	2373948	+
SAAV_2366	2374309	2375262	+
SAAV_2367	2376478	2375354	-
SAAV_2368	2377565	2376789	-
SAAV_2369	2377757	2377587	-
SAAV_2370	2378521	2378048	-
SAAV_2371	2381475	2378521	-
SAAV_2372	2383025	2382078	-
SAAV_2373	2383955	2383158	-
SAAV_2374	2384339	2385031	+
SAAV_2375	2385793	2385056	-
SAAV_2376	2385842	2386171	+
SAAV_2377	2386616	2387488	+
SAAV_2378	2389254	2387875	-
SAAV_2379	2389534	2389890	+
SAAV_2380	2389887	2390072	+
SAAV_2381	2390359	2390168	-
SAAV_2382	2391005	2390370	-
SAAV_2383	2391997	2391080	-
SAAV_2384	2392265	2392795	+
SAAV_2385	2394465	2392861	-
SAAV_2386	2394795	2395559	+
SAAV_2387	2396123	2395617	-
SAAV_2388	2397603	2396290	-
SAAV_2389	2397581	2397745	+
SAAV_2391	2398397	2397828	-
SAAV_2392	2399765	2398884	-
SAAV_2393	2400997	2399876	-
SAAV_2394	2402511	2401273	-
SAAV_2395	2404172	2402511	-
SAAV_2396	2404332	2405216	+
SAAV_2397	2405878	2406297	+
SAAV_2398	2407488	2406553	-
SAAV_2399	2407778	2409037	+
SAAV_2400	2409789	2409103	-
SAAV_2401	2409963	2410616	+
SAAV_2402	2410859	2410746	-
SAAV_2403	2411871	2410852	-
SAAV_2404	2412227	2411901	-
SAAV_2405	2413677	2412445	-
SAAV_2406	2414569	2413670	-
SAAV_2407	2415420	2414800	-
SAAV_2408	2415819	2416427	+
SAAV_2409	2416760	2417968	+
SAAV_2410	2419065	2418016	-
SAAV_2411	2420043	2419096	-
SAAV_2412	2420140	2420631	+
SAAV_2413	2420628	2421047	+
SAAV_2414	2422057	2421155	-
SAAV_2415	2422283	2422921	+
SAAV_2416	2425098	2423167	-
SAAV_2417	2425758	2425111	-
SAAV_2418	2425879	2426433	+
SAAV_2419	2427868	2426660	-
SAAV_2420	2428106	2427978	-
SAAV_2421	2429519	2428137	-
SAAV_2422	2430214	2429759	-
SAAV_2423	2430409	2431377	+
SAAV_2424	2432273	2431608	-
SAAV_2425	2433328	2432273	-
SAAV_2426	2433464	2434138	+
SAAV_2427	2434131	2435504	+
SAAV_2428	2435667	2436110	+
SAAV_2429	2436107	2436562	+
SAAV_2430	2438106	2436628	-
SAAV_2431	2440085	2438487	-
SAAV_2432	2440402	2442075	+
SAAV_2433	2442843	2442229	-
SAAV_2434	2443672	2443157	-
SAAV_2435	2443821	2444867	+
SAAV_2436	2445314	2444913	-
SAAV_2437	2446384	2445350	-
SAAV_2438	2446511	2446395	-
SAAV_2439	2447047	2446616	-
SAAV_2440	2448531	2447254	-
SAAV_2441	2448692	2449315	+
SAAV_2442	2449361	2450305	+
SAAV_2443	2451832	2450390	-
SAAV_2444	2452015	2452398	+
SAAV_2445	2453886	2455991	+
SAAV_2446	2456062	2456484	+
SAAV_2447	2456701	2456543	-
SAAV_2448	2456748	2457104	+
SAAV_2449	2458699	2457422	-
SAAV_2450	2459246	2458881	-
SAAV_2451	2459643	2460089	+
SAAV_2452	2460305	2460733	+
SAAV_2453	2462009	2460840	-
SAAV_2454	2462378	2463292	+
SAAV_2455	2463271	2464011	+
SAAV_2456	2464871	2464269	-
SAAV_2457	2465979	2464945	-
SAAV_2458	2466455	2466003	-
SAAV_2459	2467152	2466475	-
SAAV_2460	2467735	2467145	-
SAAV_2461	2469272	2467713	-
SAAV_2462	2472951	2469262	-
SAAV_2463	2474237	2473260	-
SAAV_2464	2474542	2474228	-
SAAV_2465	2476951	2474546	-
SAAV_2466	2477718	2477017	-
SAAV_2467	2478514	2477978	-
SAAV_2468	2479494	2478748	-
SAAV_2469	2479971	2479789	-
SAAV_2470	2480522	2480055	-
SAAV_2471	2482255	2480708	-
SAAV_2472	2482816	2482550	-
SAAV_2473	2483067	2482816	-
SAAV_2474	2483939	2483340	-
SAAV_2475	2484320	2483958	-
SAAV_2476	2484575	2485825	+
SAAV_2477	2486653	2485922	-
SAAV_2478	2487369	2486650	-
SAAV_2479	2488129	2487350	-
SAAV_2480	2489689	2488250	-
SAAV_2481	2489863	2489967	+
SAAV_2482	2490807	2490121	-
SAAV_2483	2492000	2491134	-
SAAV_2484	2492820	2494130	+
SAAV_2485	2494666	2495595	+
SAAV_2486	2496162	2497109	+
SAAV_2487	2497111	2498088	+
SAAV_2488	2498607	2498140	-
SAAV_2489	2499310	2498618	-
SAAV_2490	2500436	2499321	-
SAAV_2491	2501421	2500414	-
SAAV_2492	2502781	2501423	-
SAAV_2493	2503445	2502759	-
SAAV_2494	2505631	2503898	-
SAAV_2495	2507419	2505656	-
SAAV_2496	2508229	2508122	-
SAAV_2497	2508749	2508363	-
SAAV_2498	2509017	2510159	+
SAAV_2499	2510219	2510878	+
SAAV_2500	2511060	2512271	+
SAAV_2501	2512867	2512394	-
SAAV_2502	2512980	2513636	+
SAAV_2503	2514505	2513699	-
SAAV_2504	2514791	2516200	+
SAAV_2505	2516338	2518416	+
SAAV_2506	2520386	2518557	-
SAAV_2507	2520618	2522114	+
SAAV_2508	2523057	2522206	-
SAAV_2509	2524314	2523379	-
SAAV_2510	2525940	2524540	-
SAAV_2511	2526929	2526234	-
SAAV_2512	2527870	2526929	-
SAAV_2513	2528522	2527887	-
SAAV_2514	2529745	2528519	-
SAAV_2515	2530373	2530260	-
SAAV_2516	2531013	2530414	-
SAAV_2517	2531193	2532830	+
SAAV_2518	2533139	2534491	+
SAAV_2519	2535740	2534553	-
SAAV_2520	2536912	2536136	-
SAAV_2521	2537567	2536905	-
SAAV_2522	2538891	2537815	-
SAAV_2523	2539512	2539246	-
SAAV_2524	2539769	2539512	-
SAAV_2525	2540128	2540583	+
SAAV_2526	2542328	2540751	-
SAAV_2527	2542523	2543272	+
SAAV_2528	2544827	2543634	-
SAAV_2529	2545588	2544839	-
SAAV_2530	2546396	2545581	-
SAAV_2531	2547262	2546393	-
SAAV_2532	2548194	2547259	-
SAAV_2533	2549805	2548207	-
SAAV_2534	2551162	2549948	-
SAAV_2535	2552060	2551242	-
SAAV_2536	2552892	2552071	-
SAAV_2537	2554224	2553457	-
SAAV_2538	2555142	2554324	-
SAAV_2539	2555377	2556915	+
SAAV_2540	2557450	2557028	-
SAAV_2541	2558321	2557902	-
SAAV_2542	2558758	2558348	-
SAAV_2543	2559447	2559025	-
SAAV_2544	2560392	2559697	-
SAAV_2545	2560681	2560962	+
SAAV_2546	2561413	2561222	-
SAAV_2547	2562768	2561974	-
SAAV_2548	2563591	2563304	-
SAAV_2549	2563920	2563594	-
SAAV_2550	2565245	2563920	-
SAAV_2551	2566029	2565232	-
SAAV_2552	2567043	2566270	-
SAAV_2553	2567954	2567157	-
SAAV_2554	2568839	2568063	-
SAAV_2555	2572004	2569143	-
SAAV_2556	2572398	2572006	-
SAAV_2557	2572349	2572477	+
SAAV_2558	2572530	2574338	+
SAAV_2559	2574622	2574888	+
SAAV_2560	2575032	2575340	+
SAAV_2561	2576854	2575778	-
SAAV_2562	2580201	2577238	-
SAAV_2563	2580862	2580506	-
SAAV_2564	2581187	2581930	+
SAAV_2565	2582923	2582141	-
SAAV_2566	2586005	2583189	-
SAAV_2567	2586357	2586235	-
SAAV_2568	2589802	2586755	-
SAAV_2569	2590206	2590006	-
SAAV_2570	2591698	2590340	-
SAAV_2571	2593368	2591815	-
SAAV_2572	2594072	2593392	-
SAAV_2573	2594989	2594225	-
SAAV_2574	2595846	2595154	-
SAAV_2575	2596493	2596077	-
SAAV_2576	2598455	2596632	-
SAAV_2577	2600209	2598932	-
SAAV_2578	2600756	2601367	+
SAAV_2579	2601885	2602580	+
SAAV_2580	2602582	2603352	+
SAAV_2581	2603725	2605689	+
SAAV_2582	2606031	2607110	+
SAAV_2583	2607808	2607215	-
SAAV_2584	2608798	2607839	-
SAAV_2585	2609310	2608876	-
SAAV_2586	2609536	2609820	+
SAAV_2587	2609991	2610797	+
SAAV_2588	2611589	2610918	-
SAAV_2589	2611859	2612851	+
SAAV_2590	2613898	2613098	-
SAAV_2591	2614218	2614853	+
SAAV_2592	2614868	2615590	+
SAAV_2593	2616372	2615752	-
SAAV_2594	2616566	2617057	+
SAAV_2595	2617371	2617201	-
SAAV_2596	2618449	2617550	-
SAAV_2597	2619143	2618463	-
SAAV_2598	2620156	2619146	-
SAAV_2599	2620738	2620941	+
SAAV_2600	2621133	2622059	+
SAAV_2601	2623108	2622140	-
SAAV_2602	2623585	2623229	-
SAAV_2603	2624037	2623627	-
SAAV_2604	2626483	2624417	-
SAAV_2605	2628523	2626784	-
SAAV_2606	2629263	2628574	-
SAAV_2607	2629651	2629256	-
SAAV_2608	2630748	2629864	-
SAAV_2609	2630927	2631127	+
SAAV_2610	2631517	2631948	+
SAAV_2611	2633364	2632087	-
SAAV_2612	2633619	2634785	+
SAAV_2613	2635471	2634950	-
SAAV_2614	2635880	2637985	+
SAAV_2615	2638224	2638054	-
SAAV_2616	2640231	2638237	-
SAAV_2617	2640470	2640243	-
SAAV_2618	2643175	2640686	-
SAAV_2619	2643320	2643868	+
SAAV_2620	2645768	2644224	-
SAAV_2621	2646557	2645958	-
SAAV_2622	2646796	2646987	+
SAAV_2623	2647227	2649635	+
SAAV_2624	2650046	2650252	+
SAAV_2625	2651341	2650343	-
SAAV_2626	2652518	2651364	-
SAAV_2627	2654454	2652946	-
SAAV_2628	2655329	2654466	-
SAAV_2629	2656493	2655366	-
SAAV_2630	2657992	2656499	-
SAAV_2631	2658473	2657985	-
SAAV_2632	2659415	2658648	-
SAAV_2633	2661587	2659776	-
SAAV_2634	2662588	2662100	-
SAAV_2635	2663565	2662864	-
SAAV_2636	2665228	2664173	-
SAAV_2637	2665374	2665577	+
SAAV_2638	2665638	2666207	+
SAAV_2639	2666453	2666905	+
SAAV_2640	2667125	2667355	+
SAAV_2641	2668034	2667657	-
SAAV_2642	2668872	2668051	-
SAAV_2643	2669191	2668892	-
SAAV_2644	2669322	2669879	+
SAAV_2645	2669872	2670576	+
SAAV_2646	2670674	2671684	+
SAAV_2647	2671704	2672534	+
SAAV_2648	2673571	2672681	-
SAAV_2649	2674987	2673668	-
SAAV_2650	2676108	2675002	-
SAAV_2651	2676737	2676441	-
SAAV_2652	2677093	2676725	-
SAAV_2653	2677383	2677108	-
SAAV_2654	2678593	2677727	-
SAAV_2655	2678811	2679875	+
SAAV_2656	2680030	2680305	+
SAAV_2657	2681213	2680491	-
SAAV_2658	2681567	2682016	+
SAAV_2659	2682684	2682097	-
SAAV_2660	2682827	2684509	+
SAAV_2661	2685242	2684607	-
SAAV_2662	2686334	2685258	-
SAAV_2663	2687048	2686677	-
SAAV_2664	2687913	2687062	-
SAAV_2665	2688724	2687906	-
SAAV_2666	2688797	2689657	+
SAAV_2667	2690447	2689743	-
SAAV_2668	2691684	2690725	-
SAAV_2669	2692370	2693818	+
SAAV_2670	2695236	2693899	-
SAAV_2671	2695494	2695910	+
SAAV_2672	2696033	2696923	+
SAAV_2673	2698613	2697117	-
SAAV_2674	2698942	2699238	+
SAAV_2675	2700896	2699298	-
SAAV_2676	2701533	2701090	-
SAAV_2677	2702025	2701813	-
SAAV_2678	2704012	2702303	-
SAAV_2679	2705832	2705927	+
SAAV_2680	2706016	2706579	+
SAAV_2681	2708354	2706750	-
SAAV_2682	2709427	2708891	-
SAAV_2683	2711274	2709424	-
SAAV_2684	2712834	2711464	-
SAAV_2685	2713251	2713156	-
SAAV_2686	2713932	2713327	-
SAAV_2687	2715875	2713995	-
SAAV_2688	2716766	2716269	-
SAAV_2689	2717574	2717461	-
SAAV_2690	2720190	2718190	-
SAAV_2691	2720942	2720187	-
SAAV_2692	2721937	2721050	-
SAAV_2693	2722613	2721948	-
SAAV_2694	2722839	2722639	-
SAAV_2695	2723037	2724461	+
SAAV_2696	2724622	2724521	-
SAAV_2697	2725199	2724744	-
SAAV_2698	2726205	2725444	-
SAAV_2699	2728954	2726321	-
SAAV_2700	2730008	2729304	-
SAAV_2701	2731048	2730107	-
SAAV_2702	2732495	2731065	-
SAAV_2703	2733596	2732586	-
SAAV_2704	2734864	2733629	-
SAAV_2705	2735660	2735211	-
SAAV_2706	2737556	2736027	-
SAAV_2707	2738091	2739410	+
SAAV_2708	2740027	2739500	-
SAAV_2709	2740285	2740743	+
SAAV_2710	2740983	2742857	+
SAAV_2711	2742933	2744885	+
SAAV_2712	2744899	2745837	+
SAAV_2713	2748930	2745949	-
SAAV_2714	2749141	2751000	+
SAAV_2715	2751825	2751265	-
SAAV_2716	2753901	2751994	-
SAAV_2717	2755542	2754142	-
SAAV_2718	2757043	2755535	-
SAAV_2719	2759451	2757061	-
SAAV_2720	2760400	2759441	-
SAAV_2721	2761946	2760378	-
SAAV_2722	2762592	2761936	-
SAAV_2723	2763489	2762722	-
SAAV_2724	2764711	2763500	-
SAAV_2725	2771656	2764841	-
SAAV_2726	2772119	2772009	-
SAAV_2727	2772892	2772200	-
SAAV_2728	2773158	2773361	+
SAAV_2729	2773573	2773875	+
SAAV_2730	2774029	2774388	+
SAAV_2731	2775084	2774473	-
SAAV_2732	2775639	2775163	-
SAAV_2733	2776142	2775642	-
SAAV_2734	2777144	2776377	-
SAAV_2735	2777833	2777141	-
SAAV_2736	2778512	2777850	-
SAAV_2737	2779921	2779361	-
SAAV_2738	2780085	2781323	+
SAAV_2739	2781287	2781592	+
SAAV_2740	2781589	2782461	+
SAAV_2741	2782448	2783500	+
SAAV_2742	2783807	2783742	-
SAAV_2743	2785877	2783835	-
SAAV_2744	2786777	2786598	-
SAAV_2745	2787602	2786970	-
SAAV_2746	2788357	2787599	-
SAAV_2747	2789058	2788354	-
SAAV_2748	2789629	2789051	-
SAAV_2749	2790204	2789626	-
SAAV_2750	2791186	2790173	-
SAAV_2752	2792452	2791202	-
SAAV_2753	2793059	2792445	-
SAAV_2754	2793748	2793077	-
SAAV_2755	2795323	2794199	-
SAAV_2756	2795938	2795441	-
SAAV_2757	2796818	2795985	-
SAAV_2758	2798527	2796815	-
SAAV_2759	2799134	2798580	-
SAAV_2760	2800011	2799163	-
SAAV_2761	2800390	2800905	+
SAAV_2762	2802027	2801056	-
SAAV_2763	2802271	2803227	+
SAAV_2764	2803379	2804017	+
SAAV_2765	2805231	2804893	-
SAAV_2766	2805398	2805862	+
SAAV_2767	2806100	2807518	+
SAAV_2768	2808840	2807932	-
SAAV_2769	2809062	2809637	+
SAAV_2770	2809763	2810815	+
SAAV_2771	2811058	2811852	+
SAAV_2772	2812498	2811986	-
SAAV_2773	2812781	2813539	+
SAAV_2774	2813529	2815409	+
SAAV_2775	2815501	2815692	+
SAAV_2776	2816084	2816284	+
SAAV_2777	2816971	2816402	-
SAAV_2778	2817611	2817231	-
SAAV_2779	2818047	2817694	-
SAAV_2780	2819337	2818498	-
SAAV_2781	2820099	2819380	-
SAAV_2782	2821883	2820099	-
SAAV_2783	2823422	2822043	-
SAAV_2784	2823932	2823579	-
SAAV_2785	2824190	2824053	-
