USA300HOU_0001	544	1905	+
USA300HOU_0002	2183	3316	+
USA300HOU_0003	3697	3942	+
USA300HOU_0004	3939	5051	+
USA300HOU_0005	5061	6995	+
USA300HOU_0006	7032	9695	+
USA300HOU_0007	10612	9782	-
USA300HOU_0008	10920	12434	+
USA300HOU_0009	12813	14099	+
USA300HOU_0010	14749	15444	+
USA300HOU_0011	15441	15770	+
USA300HOU_0012	16133	17101	+
USA300HOU_0013	17392	18330	+
USA300HOU_0014	18345	20312	+
USA300HOU_0015	20309	20755	+
USA300HOU_0016	20787	22187	+
USA300HOU_0017	22465	23748	+
USA300HOU_0018	24946	25653	+
USA300HOU_0019	25666	27492	+
USA300HOU_0020	27485	28819	+
USA300HOU_0021	28820	29608	+
USA300HOU_0022	29998	30798	+
USA300HOU_0023	30984	33344	+
USA300HOU_0024	33712	34191	+
USA300HOU_0025	34474	35769	+
USA300HOU_0026	36551	35877	-
USA300HOU_0028	37074	37304	+
USA300HOU_0029	37813	38556	+
USA300HOU_0030	38653	39081	+
USA300HOU_0031	41133	39127	-
USA300HOU_0032	41305	42219	+
USA300HOU_0033	42143	42451	+
USA300HOU_0034	43965	42442	-
USA300HOU_0035	44610	44101	-
USA300HOU_0036	44933	44622	-
USA300HOU_0037	45027	44935	-
USA300HOU_0038	45370	45020	-
USA300HOU_0039	47520	45892	-
USA300HOU_0040	48891	47542	-
USA300HOU_0041	50912	49125	-
USA300HOU_0042	51202	50912	-
USA300HOU_0043	51299	52390	+
USA300HOU_0044	53063	54553	+
USA300HOU_0045	56181	55177	-
USA300HOU_0046	56300	56437	+
USA300HOU_0048	56934	57554	+
USA300HOU_0049	58641	58471	-
USA300HOU_0050	59043	60008	+
USA300HOU_0051	60105	60296	+
USA300HOU_0052	60388	60717	+
USA300HOU_0053	61162	60794	-
USA300HOU_0054	61393	61560	+
USA300HOU_0055	62533	61724	-
USA300HOU_0056	62553	62735	+
USA300HOU_0057	63543	63046	-
USA300HOU_0058	63859	63731	-
USA300HOU_0059	64071	65168	+
USA300HOU_0060	65647	65423	-
USA300HOU_0061	66164	65661	-
USA300HOU_0062	66506	66180	-
USA300HOU_0063	66585	66493	-
USA300HOU_0064	66928	66578	-
USA300HOU_0065	67885	68736	+
USA300HOU_0066	69765	68836	-
USA300HOU_0067	70783	69785	-
USA300HOU_0068	71510	70821	-
USA300HOU_0069	72973	71552	-
USA300HOU_0070	74294	73059	-
USA300HOU_0071	75009	74563	-
USA300HOU_0072	75511	75942	+
USA300HOU_0075	77076	77891	+
USA300HOU_0076	78378	79391	+
USA300HOU_0077	79651	80343	+
USA300HOU_0078	80340	81893	+
USA300HOU_0079	81896	82852	+
USA300HOU_0080	82852	83619	+
USA300HOU_0081	83586	84353	+
USA300HOU_0082	84346	84981	+
USA300HOU_0084	86040	88064	+
USA300HOU_0085	88082	88627	+
USA300HOU_0086	88956	88819	-
USA300HOU_0089	91799	91701	-
USA300HOU_0090	92655	91900	-
USA300HOU_0091	92915	92655	-
USA300HOU_0092	93052	94119	+
USA300HOU_0093	94150	95484	+
USA300HOU_0095	97064	96963	-
USA300HOU_0096	98349	97363	-
USA300HOU_0097	98658	98861	+
USA300HOU_0098	98910	99206	+
USA300HOU_0099	100498	99278	-
USA300HOU_0101	101025	100927	-
USA300HOU_0102	101154	102014	+
USA300HOU_0103	102902	102369	-
USA300HOU_0104	102993	103736	+
USA300HOU_0105	104170	104772	+
USA300HOU_0106	105039	108191	+
USA300HOU_0107	108248	108730	+
USA300HOU_0108	108935	109921	+
USA300HOU_0109	110142	110912	+
USA300HOU_0110	110931	111734	+
USA300HOU_0111	111798	112568	+
USA300HOU_0112	112635	113402	+
USA300HOU_0113	113496	115733	+
USA300HOU_0114	115884	117062	+
USA300HOU_0115	117064	118452	+
USA300HOU_0116	120612	118945	-
USA300HOU_0117	122707	120932	-
USA300HOU_0118	123762	122881	-
USA300HOU_0119	123866	125263	+
USA300HOU_0120	125453	125926	+
USA300HOU_0121	126188	127780	+
USA300HOU_0122	129623	128109	-
USA300HOU_0123	130760	130008	-
USA300HOU_0124	132127	131129	-
USA300HOU_0125	133119	132124	-
USA300HOU_0126	134109	133135	-
USA300HOU_0127	134358	135338	+
USA300HOU_0128	135335	136345	+
USA300HOU_0129	136366	138120	+
USA300HOU_0130	138113	139369	+
USA300HOU_0131	139359	141095	+
USA300HOU_0132	141076	142854	+
USA300HOU_0133	142826	143605	+
USA300HOU_0134	143605	144807	+
USA300HOU_0135	144811	145575	+
USA300HOU_0136	145771	146178	+
USA300HOU_0137	146228	146854	+
USA300HOU_0138	147066	147842	+
USA300HOU_0139	147986	148108	+
USA300HOU_0140	148178	149158	+
USA300HOU_0141	149121	149813	+
USA300HOU_0142	150023	151189	+
USA300HOU_0143	151170	152408	+
USA300HOU_0144	152398	153828	+
USA300HOU_0145	154096	154695	+
USA300HOU_0146	155063	155788	+
USA300HOU_0147	156735	155980	-
USA300HOU_0148	156971	157678	+
USA300HOU_0149	157685	159037	+
USA300HOU_0150	159118	159780	+
USA300HOU_0151	159808	160986	+
USA300HOU_0152	161932	161117	-
USA300HOU_0153	162654	161929	-
USA300HOU_0154	163504	162731	-
USA300HOU_0155	164674	163718	-
USA300HOU_0156	164903	166447	+
USA300HOU_0157	166498	168033	+
USA300HOU_0160	169537	169863	+
USA300HOU_0162	171101	173710	+
USA300HOU_0163	174055	174723	+
USA300HOU_0164	174739	175425	+
USA300HOU_0165	175428	176192	+
USA300HOU_0167	178026	179054	+
USA300HOU_0168	179061	180176	+
USA300HOU_0170	181307	181933	+
USA300HOU_0171	181938	183047	+
USA300HOU_0172	183061	184227	+
USA300HOU_0173	184220	185425	+
USA300HOU_0174	185426	186631	+
USA300HOU_0175	186642	187199	+
USA300HOU_0176	187199	188086	+
USA300HOU_0177	188140	189402	+
USA300HOU_0178	189449	190624	+
USA300HOU_0179	191009	190689	-
USA300HOU_0180	191405	191022	-
USA300HOU_0181	191832	193319	+
USA300HOU_0182	193965	194924	+
USA300HOU_0183	195189	194986	-
USA300HOU_0184	195368	195880	+
USA300HOU_0185	196222	196962	+
USA300HOU_0186	196976	197950	+
USA300HOU_0187	197947	198708	+
USA300HOU_0189	199970	200329	+
USA300HOU_0190	200496	201527	+
USA300HOU_0191	201913	203163	+
USA300HOU_0192	203592	210785	+
USA300HOU_0193	210798	211442	+
USA300HOU_0194	212264	211770	-
USA300HOU_0195	213283	212519	-
USA300HOU_0196	214540	213299	-
USA300HOU_0197	215586	214552	-
USA300HOU_0198	216833	215622	-
USA300HOU_0199	218414	217059	-
USA300HOU_0200	219247	218690	-
USA300HOU_0201	220954	219314	-
USA300HOU_0202	221148	221249	+
USA300HOU_0203	223288	221228	-
USA300HOU_0204	223859	224914	+
USA300HOU_0205	224914	225810	+
USA300HOU_0206	225822	227276	+
USA300HOU_0207	227276	228154	+
USA300HOU_0208	228842	231631	+
USA300HOU_0209	231836	232678	+
USA300HOU_0210	232680	233603	+
USA300HOU_0211	233590	234702	+
USA300HOU_0212	236559	234967	-
USA300HOU_0213	236558	237994	+
USA300HOU_0214	238000	239163	+
USA300HOU_0215	239180	240955	+
USA300HOU_0216	240993	242999	+
USA300HOU_0217	244070	243297	-
USA300HOU_0218	244886	244260	-
USA300HOU_0219	245083	245673	+
USA300HOU_0220	246056	247153	+
USA300HOU_0221	247166	248437	+
USA300HOU_0222	248440	249708	+
USA300HOU_0223	249710	250549	+
USA300HOU_0224	250620	251699	+
USA300HOU_0225	251724	252764	+
USA300HOU_0226	252819	253787	+
USA300HOU_0227	253975	254076	+
USA300HOU_0228	254721	254149	-
USA300HOU_0229	254858	256255	+
USA300HOU_0230	257372	256614	-
USA300HOU_0231	258921	257365	-
USA300HOU_0232	259886	258918	-
USA300HOU_0233	260459	262723	+
USA300HOU_0234	262746	263501	+
USA300HOU_0235	263605	263799	+
USA300HOU_0236	263786	265600	+
USA300HOU_0237	266108	265764	-
USA300HOU_0238	266298	268127	+
USA300HOU_0239	268416	268309	-
USA300HOU_0240	269923	268730	-
USA300HOU_0241	272205	269944	-
USA300HOU_0242	273647	272391	-
USA300HOU_0243	275219	273714	-
USA300HOU_0244	276822	275245	-
USA300HOU_0245	277176	278405	+
USA300HOU_0246	280194	278719	-
USA300HOU_0247	280748	280392	-
USA300HOU_0248	281078	280905	-
USA300HOU_0249	282249	281104	-
USA300HOU_0250	282404	282511	+
USA300HOU_0251	282822	283775	+
USA300HOU_0252	285624	284095	-
USA300HOU_0253	285986	286921	+
USA300HOU_0254	287031	287129	+
USA300HOU_0255	287260	289356	+
USA300HOU_0256	289341	289808	+
USA300HOU_0257	289831	290109	+
USA300HOU_0258	290336	291595	+
USA300HOU_0259	291610	292668	+
USA300HOU_0260	292670	292816	+
USA300HOU_0261	292840	293883	+
USA300HOU_0262	294411	295127	+
USA300HOU_0263	295120	296145	+
USA300HOU_0264	296167	297861	+
USA300HOU_0265	298289	299458	+
USA300HOU_0266	299734	300450	+
USA300HOU_0267	300443	301468	+
USA300HOU_0268	301490	303178	+
USA300HOU_0269	303211	304935	+
USA300HOU_0270	305075	305749	+
USA300HOU_0271	305996	307750	+
USA300HOU_0272	307753	308493	+
USA300HOU_0273	308606	309049	+
USA300HOU_0274	309042	309743	+
USA300HOU_0275	310555	309851	-
USA300HOU_0276	310704	311495	+
USA300HOU_0277	311511	312947	+
USA300HOU_0278	313019	313210	+
USA300HOU_0279	314142	313381	-
USA300HOU_0280	315307	314393	-
USA300HOU_0281	315739	315335	-
USA300HOU_0282	316635	315754	-
USA300HOU_0283	317865	316867	-
USA300HOU_0284	318016	318195	+
USA300HOU_0285	318245	318637	+
USA300HOU_0286	318865	319269	+
USA300HOU_0287	320695	319310	-
USA300HOU_0288	320920	321912	+
USA300HOU_0289	322220	323188	+
USA300HOU_0290	323899	323240	-
USA300HOU_0291	324833	323913	-
USA300HOU_0292	325996	324830	-
USA300HOU_0293	327587	326064	-
USA300HOU_0294	327858	328511	+
USA300HOU_0295	328545	329132	+
USA300HOU_0296	330177	329275	-
USA300HOU_0297	330416	330709	+
USA300HOU_0298	330793	333822	+
USA300HOU_0299	333822	334280	+
USA300HOU_0300	334252	334494	+
USA300HOU_0301	334507	335841	+
USA300HOU_0302	335863	340302	+
USA300HOU_0303	340332	340724	+
USA300HOU_0304	340740	341054	+
USA300HOU_0305	341051	341728	+
USA300HOU_0306	341728	342045	+
USA300HOU_0307	342055	343899	+
USA300HOU_0309	344609	345292	+
USA300HOU_0310	345439	346050	+
USA300HOU_0311	346186	346404	+
USA300HOU_0312	346536	347036	+
USA300HOU_0313	347047	347547	+
USA300HOU_0315	348064	348555	+
USA300HOU_0316	348765	349448	+
USA300HOU_0319	351568	352068	+
USA300HOU_0320	352079	352567	+
USA300HOU_0321	352588	352701	+
USA300HOU_0322	353187	353564	+
USA300HOU_0323	353717	354115	+
USA300HOU_0324	355176	354331	-
USA300HOU_0325	356699	355392	-
USA300HOU_0326	356620	356859	+
USA300HOU_0327	357283	358173	+
USA300HOU_0328	358422	359471	+
USA300HOU_0329	359484	360161	+
USA300HOU_0330	360369	361400	+
USA300HOU_0331	361743	362861	+
USA300HOU_0332	362836	363759	+
USA300HOU_0333	363770	364990	+
USA300HOU_0334	366627	365095	-
USA300HOU_0335	367548	366667	-
USA300HOU_0336	367664	368566	+
USA300HOU_0337	369644	368844	-
USA300HOU_0338	369784	370452	+
USA300HOU_0339	371940	370579	-
USA300HOU_0340	372310	374382	+
USA300HOU_0341	375451	374624	-
USA300HOU_0342	376723	375524	-
USA300HOU_0343	376819	376911	+
USA300HOU_0344	377025	378026	+
USA300HOU_0345	378060	378392	+
USA300HOU_0346	378393	379193	+
USA300HOU_0347	379183	380127	+
USA300HOU_0348	380105	381127	+
USA300HOU_0349	381442	382467	+
USA300HOU_0350	383906	382560	-
USA300HOU_0351	384214	383921	-
USA300HOU_0352	384650	384207	-
USA300HOU_0353	386610	384655	-
USA300HOU_0354	386822	387241	+
USA300HOU_0355	387348	388703	+
USA300HOU_0356	388807	389247	+
USA300HOU_0357	390688	389330	-
USA300HOU_0358	390996	391922	+
USA300HOU_0359	391936	392997	+
USA300HOU_0360	393011	393577	+
USA300HOU_0361	394632	393637	-
USA300HOU_0362	394631	395026	+
USA300HOU_0363	395106	395651	+
USA300HOU_0364	395919	396773	+
USA300HOU_0365	396770	397999	+
USA300HOU_0366	397980	399692	+
USA300HOU_0367	400440	399784	-
USA300HOU_0368	400717	400502	-
USA300HOU_0369	401215	400826	-
USA300HOU_0370	401456	401659	+
USA300HOU_0371	401656	402369	+
USA300HOU_0372	402394	403236	+
USA300HOU_0373	403236	403865	+
USA300HOU_0374	405365	404232	-
USA300HOU_0375	405904	407085	+
USA300HOU_0376	407920	407168	-
USA300HOU_0377	410191	407963	-
USA300HOU_0378	412029	410188	-
USA300HOU_0379	413158	411998	-
USA300HOU_0380	414258	413155	-
USA300HOU_0381	414922	415767	+
USA300HOU_0382	415924	416805	+
USA300HOU_0383	416835	417038	+
USA300HOU_0384	417050	418147	+
USA300HOU_0385	418424	418233	-
USA300HOU_0386	418677	418408	-
USA300HOU_0387	418668	418964	+
USA300HOU_0388	418985	419488	+
USA300HOU_0389	419540	419782	+
USA300HOU_0390	421022	420048	-
USA300HOU_0392	421932	422543	+
USA300HOU_0393	422759	422640	-
USA300HOU_0394	422912	423280	+
USA300HOU_0395	423461	424033	+
USA300HOU_0396	424434	424171	-
USA300HOU_0397	424734	424985	+
USA300HOU_0398	425233	425024	-
USA300HOU_0399	425411	425992	+
USA300HOU_0400	426441	426058	-
USA300HOU_0401	427322	426696	-
USA300HOU_0402	427688	427395	-
USA300HOU_0403	429290	427767	-
USA300HOU_0404	429875	429306	-
USA300HOU_0405	430316	431122	+
USA300HOU_0406	432591	431203	-
USA300HOU_0408	434524	433568	-
USA300HOU_0409	435304	434642	-
USA300HOU_0410	435854	435447	-
USA300HOU_0411	436367	436945	+
USA300HOU_0412	436945	438213	+
USA300HOU_0413	438251	439717	+
USA300HOU_0414	439742	441283	+
USA300HOU_0415	441932	441396	-
USA300HOU_0416	443029	442325	-
USA300HOU_0417	443700	443428	-
USA300HOU_0419	444113	443961	-
USA300HOU_0420	444996	444637	-
USA300HOU_0421	445860	445015	-
USA300HOU_0422	446332	447012	+
USA300HOU_0423	447298	447993	+
USA300HOU_0424	448284	449342	+
USA300HOU_0425	449461	449598	+
USA300HOU_0426	449707	450633	+
USA300HOU_0427	450982	451701	+
USA300HOU_0428	452147	452842	+
USA300HOU_0429	453263	453958	+
USA300HOU_0430	454302	455000	+
USA300HOU_0431	455380	456078	+
USA300HOU_0432	456444	457127	+
USA300HOU_0433	457391	458947	+
USA300HOU_0434	458940	460151	+
USA300HOU_0435	460534	461211	+
USA300HOU_0436	461233	462741	+
USA300HOU_0437	463152	462844	-
USA300HOU_0438	463490	464293	+
USA300HOU_0439	464324	465124	+
USA300HOU_0441	465999	466799	+
USA300HOU_0442	466818	467588	+
USA300HOU_0443	467620	468411	+
USA300HOU_0444	468481	469257	+
USA300HOU_0445	469433	470248	+
USA300HOU_0446	470267	471052	+
USA300HOU_0447	471232	472047	+
USA300HOU_0448	472037	473365	+
USA300HOU_0449	473362	473685	+
USA300HOU_0450	473704	474018	+
USA300HOU_0451	474502	474308	-
USA300HOU_0452	474687	475889	+
USA300HOU_0453	476135	475992	-
USA300HOU_0454	476158	476286	+
USA300HOU_0455	476859	476794	-
USA300HOU_0456	476956	476891	-
USA300HOU_0457	477477	478961	+
USA300HOU_0458	478974	481679	+
USA300HOU_0459	481841	482203	+
USA300HOU_0460	482848	482432	-
USA300HOU_0461	482886	483560	+
USA300HOU_0462	483597	484331	+
USA300HOU_0463	484509	484622	+
USA300HOU_0464	490400	491242	+
USA300HOU_0465	491574	492578	+
USA300HOU_0466	493032	492763	-
USA300HOU_0467	493172	493576	+
USA300HOU_0468	493566	494051	+
USA300HOU_0469	495002	494220	-
USA300HOU_0470	496117	494999	-
USA300HOU_0471	497116	496232	-
USA300HOU_0472	497297	501796	+
USA300HOU_0473	501814	503277	+
USA300HOU_0474	504109	505536	+
USA300HOU_0475	505600	507240	+
USA300HOU_0476	508632	509156	+
USA300HOU_0477	509249	510922	+
USA300HOU_0478	511012	511329	+
USA300HOU_0479	511336	511932	+
USA300HOU_0480	518695	520032	+
USA300HOU_0481	520025	520651	+
USA300HOU_0482	520679	521008	+
USA300HOU_0483	521222	522148	+
USA300HOU_0484	522149	522952	+
USA300HOU_0485	522999	523316	+
USA300HOU_0486	523309	523407	+
USA300HOU_0487	523590	524315	+
USA300HOU_0488	524308	524556	+
USA300HOU_0489	524558	525397	+
USA300HOU_0490	525682	527655	+
USA300HOU_0491	527686	528459	+
USA300HOU_0492	528626	529162	+
USA300HOU_0493	529173	530066	+
USA300HOU_0494	530166	530429	+
USA300HOU_0495	536154	536807	+
USA300HOU_0496	537118	537690	+
USA300HOU_0497	537690	541196	+
USA300HOU_0498	541186	542712	+
USA300HOU_0499	542712	543905	+
USA300HOU_0500	543902	544165	+
USA300HOU_0501	544183	544575	+
USA300HOU_0502	544680	545081	+
USA300HOU_0503	545261	546556	+
USA300HOU_0504	546543	547100	+
USA300HOU_0505	547357	549450	+
USA300HOU_0506	549679	550560	+
USA300HOU_0507	550739	551671	+
USA300HOU_0508	551887	552690	+
USA300HOU_0509	552662	553033	+
USA300HOU_0510	563971	562589	-
USA300HOU_0511	564075	564962	+
USA300HOU_0512	564966	565526	+
USA300HOU_0513	565535	565687	+
USA300HOU_0514	566948	565734	-
USA300HOU_0515	567106	567567	+
USA300HOU_0516	567586	568152	+
USA300HOU_0517	568139	569149	+
USA300HOU_0518	569163	571619	+
USA300HOU_0519	572104	573468	+
USA300HOU_0520	573493	574566	+
USA300HOU_0521	575123	576577	+
USA300HOU_0522	576916	577647	+
USA300HOU_0523	577601	579031	+
USA300HOU_0524	579024	579428	+
USA300HOU_0525	579436	580182	+
USA300HOU_0526	580182	580706	+
USA300HOU_0527	580787	581356	+
USA300HOU_0528	581471	581614	+
USA300HOU_0529	581670	581852	+
USA300HOU_0530	581865	582413	+
USA300HOU_0531	582594	583016	+
USA300HOU_0532	583224	583916	+
USA300HOU_0533	584188	584688	+
USA300HOU_0534	584731	585099	+
USA300HOU_0535	585274	585882	+
USA300HOU_0536	586097	589648	+
USA300HOU_0537	589785	593408	+
USA300HOU_0538	593488	593799	+
USA300HOU_0539	593897	594310	+
USA300HOU_0540	594376	594846	+
USA300HOU_0541	597267	598451	+
USA300HOU_0542	599908	598733	-
USA300HOU_0543	600079	601266	+
USA300HOU_0544	601532	602410	+
USA300HOU_0545	602567	604207	+
USA300HOU_0546	604421	605386	+
USA300HOU_0547	605721	606797	+
USA300HOU_0548	606770	606943	+
USA300HOU_0549	607047	607730	+
USA300HOU_0550	608508	607846	-
USA300HOU_0551	609163	608501	-
USA300HOU_0552	609185	609655	+
USA300HOU_0553	609802	610671	+
USA300HOU_0554	610692	611258	+
USA300HOU_0555	611689	614532	+
USA300HOU_0556	614899	619044	+
USA300HOU_0557	619438	622902	+
USA300HOU_0558	623021	624493	+
USA300HOU_0559	626107	624617	-
USA300HOU_0560	627267	626389	-
USA300HOU_0561	627945	627280	-
USA300HOU_0562	628327	627959	-
USA300HOU_0563	628597	629355	+
USA300HOU_0564	629432	630064	+
USA300HOU_0565	630066	630614	+
USA300HOU_0566	630727	631374	+
USA300HOU_0567	631876	633276	+
USA300HOU_0568	633820	635196	+
USA300HOU_0569	635198	636337	+
USA300HOU_0570	636312	636677	+
USA300HOU_0571	636680	636949	+
USA300HOU_0572	637317	637150	-
USA300HOU_0573	638654	637824	-
USA300HOU_0574	638838	639494	+
USA300HOU_0575	639495	639875	+
USA300HOU_0576	640008	640376	+
USA300HOU_0577	640497	641981	+
USA300HOU_0578	642575	642123	-
USA300HOU_0579	643352	642588	-
USA300HOU_0580	644653	643901	-
USA300HOU_0581	644821	645807	+
USA300HOU_0582	645810	646646	+
USA300HOU_0583	647233	648153	+
USA300HOU_0584	648158	649141	+
USA300HOU_0585	649154	650230	+
USA300HOU_0586	650407	650748	+
USA300HOU_0587	652122	650800	-
USA300HOU_0588	652549	652109	-
USA300HOU_0589	652530	652628	+
USA300HOU_0590	652607	652708	+
USA300HOU_0591	653168	654583	+
USA300HOU_0592	654587	655213	+
USA300HOU_0593	655339	655980	+
USA300HOU_0594	656068	656685	+
USA300HOU_0595	656760	657389	+
USA300HOU_0596	657446	657562	+
USA300HOU_0597	657585	658205	+
USA300HOU_0598	658336	658977	+
USA300HOU_0600	659659	659739	+
USA300HOU_0601	660106	660735	+
USA300HOU_0602	660850	661500	+
USA300HOU_0603	661537	662172	+
USA300HOU_0604	662138	662383	+
USA300HOU_0605	662407	663033	+
USA300HOU_0606	663303	664241	+
USA300HOU_0607	664452	664988	+
USA300HOU_0608	665157	665633	+
USA300HOU_0609	665673	666968	+
USA300HOU_0610	668016	669026	+
USA300HOU_0611	669101	669208	+
USA300HOU_0612	669289	669717	+
USA300HOU_0613	669714	671375	+
USA300HOU_0614	671763	672398	+
USA300HOU_0615	672777	673664	+
USA300HOU_0616	673776	674762	+
USA300HOU_0617	674817	675536	+
USA300HOU_0618	675520	676320	+
USA300HOU_0619	676456	676962	+
USA300HOU_0620	677097	677840	+
USA300HOU_0621	678009	678797	+
USA300HOU_0622	679422	679048	-
USA300HOU_0623	680281	680132	-
USA300HOU_0626	682623	682267	-
USA300HOU_0627	683269	682679	-
USA300HOU_0628	684322	683276	-
USA300HOU_0629	686159	684312	-
USA300HOU_0630	687522	686164	-
USA300HOU_0631	690071	687576	-
USA300HOU_0632	690489	690106	-
USA300HOU_0633	690761	690501	-
USA300HOU_0634	691821	690766	-
USA300HOU_0635	692973	691882	-
USA300HOU_0636	693450	693148	-
USA300HOU_0637	693784	693464	-
USA300HOU_0638	694219	693935	-
USA300HOU_0640	695075	694851	-
USA300HOU_0641	695295	695092	-
USA300HOU_0642	695454	696014	+
USA300HOU_0643	696033	698435	+
USA300HOU_0644	698422	698847	+
USA300HOU_0645	698844	699188	+
USA300HOU_0646	699178	700674	+
USA300HOU_0647	700675	701157	+
USA300HOU_0648	701154	701456	+
USA300HOU_0649	701431	701868	+
USA300HOU_0650	702208	704250	+
USA300HOU_0651	706339	705410	-
USA300HOU_0652	707172	706336	-
USA300HOU_0653	707909	707166	-
USA300HOU_0654	708031	708675	+
USA300HOU_0655	709507	708755	-
USA300HOU_0656	709743	710507	+
USA300HOU_0657	711362	710568	-
USA300HOU_0658	711688	712521	+
USA300HOU_0659	712620	713723	+
USA300HOU_0660	713720	714781	+
USA300HOU_0661	714844	715242	+
USA300HOU_0662	716654	715359	-
USA300HOU_0663	717075	718802	+
USA300HOU_0664	718873	718953	+
USA300HOU_0665	719161	720390	+
USA300HOU_0666	720645	720737	+
USA300HOU_0667	720915	721748	+
USA300HOU_0668	722030	722827	+
USA300HOU_0669	722863	723867	+
USA300HOU_0670	723864	724880	+
USA300HOU_0671	725114	726082	+
USA300HOU_0672	726124	726708	+
USA300HOU_0673	726701	727063	+
USA300HOU_0674	727179	727676	+
USA300HOU_0675	728219	729199	+
USA300HOU_0676	729350	730393	+
USA300HOU_0677	730722	731150	+
USA300HOU_0678	731865	731359	-
USA300HOU_0679	731978	732901	+
USA300HOU_0680	732917	733591	+
USA300HOU_0681	733584	734624	+
USA300HOU_0682	734768	735529	+
USA300HOU_0683	735519	737408	+
USA300HOU_0684	738133	738750	+
USA300HOU_0685	738766	739773	+
USA300HOU_0686	741158	740361	-
USA300HOU_0687	741519	742163	+
USA300HOU_0689	745089	745514	+
USA300HOU_0690	745704	746420	+
USA300HOU_0691	746420	746893	+
USA300HOU_0692	746982	747101	+
USA300HOU_0693	747246	747890	+
USA300HOU_0694	748006	748872	+
USA300HOU_0695	748932	749027	+
USA300HOU_0696	749073	750293	+
USA300HOU_0697	750290	750778	+
USA300HOU_0698	751566	750877	-
USA300HOU_0699	751693	752136	+
USA300HOU_0700	752203	752598	+
USA300HOU_0701	752736	753035	+
USA300HOU_0702	753115	753657	+
USA300HOU_0703	754319	753753	-
USA300HOU_0704	754779	754321	-
USA300HOU_0705	755465	754782	-
USA300HOU_0706	756512	755637	-
USA300HOU_0707	756725	758356	+
USA300HOU_0708	758353	760026	+
USA300HOU_0709	760596	760153	-
USA300HOU_0710	760823	761749	+
USA300HOU_0711	761852	762760	+
USA300HOU_0712	762795	763082	+
USA300HOU_0713	763365	764918	+
USA300HOU_0714	765004	766377	+
USA300HOU_0715	766816	766532	-
USA300HOU_0716	767430	766813	-
USA300HOU_0717	768038	767616	-
USA300HOU_0718	768247	769413	+
USA300HOU_0719	769706	770158	+
USA300HOU_0720	770332	770814	+
USA300HOU_0721	771067	771828	+
USA300HOU_0722	771825	772745	+
USA300HOU_0723	772751	774709	+
USA300HOU_0724	775017	776198	+
USA300HOU_0725	776419	777768	+
USA300HOU_0726	777990	778829	+
USA300HOU_0727	778961	779944	+
USA300HOU_0728	781071	780016	-
USA300HOU_0729	781757	781071	-
USA300HOU_0730	782205	781732	-
USA300HOU_0731	782987	782547	-
USA300HOU_0732	783851	783267	-
USA300HOU_0733	784663	783950	-
USA300HOU_0734	785086	784667	-
USA300HOU_0735	785756	785088	-
USA300HOU_0736	786107	786700	+
USA300HOU_0737	786675	787835	+
USA300HOU_0738	787835	788443	+
USA300HOU_0739	788509	788715	+
USA300HOU_0740	788803	789513	+
USA300HOU_0741	789497	790501	+
USA300HOU_0742	790975	792915	+
USA300HOU_0743	793186	795069	+
USA300HOU_0744	795081	796862	+
USA300HOU_0745	797084	798061	+
USA300HOU_0746	798054	799568	+
USA300HOU_0747	799808	800866	+
USA300HOU_0748	801217	801759	+
USA300HOU_0749	803300	802383	-
USA300HOU_0750	803391	803492	+
USA300HOU_0751	805075	803570	-
USA300HOU_0752	805916	805416	-
USA300HOU_0753	806802	805936	-
USA300HOU_0754	807603	808001	+
USA300HOU_0755	807964	810069	+
USA300HOU_0756	810187	811158	+
USA300HOU_0757	811291	811395	+
USA300HOU_0758	811672	811827	+
USA300HOU_0759	811824	812837	+
USA300HOU_0760	812824	813780	+
USA300HOU_0761	813777	814538	+
USA300HOU_0762	814657	815685	+
USA300HOU_0763	816322	816002	-
USA300HOU_0764	817257	816334	-
USA300HOU_0765	817375	817247	-
USA300HOU_0766	817902	817384	-
USA300HOU_0767	818022	818900	+
USA300HOU_0768	819054	819374	+
USA300HOU_0769	819799	820923	+
USA300HOU_0770	822338	821112	-
USA300HOU_0771	822846	822352	-
USA300HOU_0772	823625	822864	-
USA300HOU_0773	824891	823821	-
USA300HOU_0774	825209	826264	+
USA300HOU_0775	827075	826434	-
USA300HOU_0776	827219	828085	+
USA300HOU_0777	828449	829531	+
USA300HOU_0778	829521	830198	+
USA300HOU_0779	830259	830831	+
USA300HOU_0780	831245	833776	+
USA300HOU_0781	833818	833922	+
USA300HOU_0782	834326	835201	+
USA300HOU_0783	835610	836449	+
USA300HOU_0784	836623	837273	+
USA300HOU_0785	837270	837506	+
USA300HOU_0786	837775	839760	+
USA300HOU_0787	839768	842614	+
USA300HOU_0788	843276	844208	+
USA300HOU_0789	844214	845053	+
USA300HOU_0790	845061	845546	+
USA300HOU_0791	845554	846993	+
USA300HOU_0792	847060	847995	+
USA300HOU_0793	848680	848369	-
USA300HOU_0794	848875	849786	+
USA300HOU_0795	849783	850778	+
USA300HOU_0796	850888	851832	+
USA300HOU_0797	852406	852993	+
USA300HOU_0798	854138	853236	-
USA300HOU_0799	854840	855469	+
USA300HOU_0800	855804	855658	-
USA300HOU_0801	856229	857242	+
USA300HOU_0802	857295	858305	+
USA300HOU_0803	858444	859634	+
USA300HOU_0804	859756	860517	+
USA300HOU_0805	860520	862037	+
USA300HOU_0806	862167	863471	+
USA300HOU_0807	863811	864269	+
USA300HOU_0808	864336	864569	+
USA300HOU_0809	864685	865425	+
USA300HOU_0810	865459	867831	+
USA300HOU_0811	867853	868317	+
USA300HOU_0812	869091	869372	+
USA300HOU_0813	869962	869639	-
USA300HOU_0814	870124	869978	-
USA300HOU_0815	871044	870316	-
USA300HOU_0816	871483	871635	+
USA300HOU_0817	871643	872086	+
USA300HOU_0818	872303	872833	+
USA300HOU_0819	873096	875897	+
USA300HOU_0820	876118	877644	+
USA300HOU_0821	877995	879017	+
USA300HOU_0822	879352	879822	+
USA300HOU_0823	880163	880849	+
USA300HOU_0824	881206	881406	+
USA300HOU_0825	882120	881902	-
USA300HOU_0826	882466	882182	-
USA300HOU_0827	883123	882554	-
USA300HOU_0828	883788	883528	-
USA300HOU_0829	884129	884332	+
USA300HOU_0830	884565	884329	-
USA300HOU_0831	884781	885371	+
USA300HOU_0832	886061	885444	-
USA300HOU_0833	886710	886216	-
USA300HOU_0834	886958	887092	+
USA300HOU_0835	887531	887109	-
USA300HOU_0836	887679	888395	+
USA300HOU_0837	888478	889017	+
USA300HOU_0838	889487	889167	-
USA300HOU_0839	889631	889987	+
USA300HOU_0840	890145	890525	+
USA300HOU_0841	890589	890702	+
USA300HOU_0842	890704	891582	+
USA300HOU_0843	891652	891765	+
USA300HOU_0844	891787	891933	+
USA300HOU_0845	892324	892710	+
USA300HOU_0846	892703	892999	+
USA300HOU_0847	893249	894274	+
USA300HOU_0848	894267	894962	+
USA300HOU_0849	894980	895801	+
USA300HOU_0850	897164	895944	-
USA300HOU_0851	897980	897252	-
USA300HOU_0852	898732	898004	-
USA300HOU_0853	899207	898749	-
USA300HOU_0854	899551	899219	-
USA300HOU_0855	899744	900007	+
USA300HOU_0856	900000	900272	+
USA300HOU_0857	900263	900457	+
USA300HOU_0858	900424	900627	+
USA300HOU_0859	900629	901012	+
USA300HOU_0860	901013	901261	+
USA300HOU_0861	901353	903725	+
USA300HOU_0862	904396	904740	+
USA300HOU_0863	904965	905171	+
USA300HOU_0864	905158	906216	+
USA300HOU_0865	906400	906891	+
USA300HOU_0866	907320	908288	+
USA300HOU_0867	909077	908523	-
USA300HOU_0868	910111	910305	+
USA300HOU_0869	911389	910538	-
USA300HOU_0870	911717	912478	+
USA300HOU_0871	912576	913883	+
USA300HOU_0872	914013	913876	-
USA300HOU_0873	913989	915239	+
USA300HOU_0874	915229	915693	+
USA300HOU_0875	915844	917241	+
USA300HOU_0876	917431	917565	+
USA300HOU_0877	917885	917571	-
USA300HOU_0878	918250	919290	+
USA300HOU_0879	919304	920371	+
USA300HOU_0880	920428	920294	-
USA300HOU_0881	920438	920536	+
USA300HOU_0882	920584	921432	+
USA300HOU_0883	921445	922272	+
USA300HOU_0884	922299	923618	+
USA300HOU_0885	923702	924619	+
USA300HOU_0886	924740	925132	+
USA300HOU_0887	925477	925211	-
USA300HOU_0888	925575	926009	+
USA300HOU_0889	926009	926788	+
USA300HOU_0890	926821	927780	+
USA300HOU_0891	928037	928144	+
USA300HOU_0892	928192	928344	+
USA300HOU_0893	928360	929817	+
USA300HOU_0894	929814	931028	+
USA300HOU_0895	931046	931282	+
USA300HOU_0896	931279	932454	+
USA300HOU_0897	932959	932717	-
USA300HOU_0898	933060	933383	+
USA300HOU_0899	934506	933442	-
USA300HOU_0900	934823	935059	+
USA300HOU_0901	935072	935431	+
USA300HOU_0902	935885	937093	+
USA300HOU_0903	939110	940426	+
USA300HOU_0904	940445	940819	+
USA300HOU_0905	942029	940875	-
USA300HOU_0906	942634	942278	-
USA300HOU_0907	942905	942612	-
USA300HOU_0908	943384	942905	-
USA300HOU_0909	944882	943386	-
USA300HOU_0910	945216	944875	-
USA300HOU_0911	945644	945216	-
USA300HOU_0912	948042	945637	-
USA300HOU_0913	948556	948173	-
USA300HOU_0914	948620	949213	+
USA300HOU_0915	950368	951495	+
USA300HOU_0916	951803	952993	+
USA300HOU_0917	953102	954346	+
USA300HOU_0918	955778	954849	-
USA300HOU_0919	957399	956020	-
USA300HOU_0920	958594	957389	-
USA300HOU_0921	959224	960276	+
USA300HOU_0922	960601	961176	+
USA300HOU_0923	961181	961705	+
USA300HOU_0924	961712	962296	+
USA300HOU_0925	962456	965932	+
USA300HOU_0926	965933	969586	+
USA300HOU_0927	969752	970654	+
USA300HOU_0928	970983	971372	+
USA300HOU_0929	972859	971543	-
USA300HOU_0930	973735	972911	-
USA300HOU_0931	973849	974157	+
USA300HOU_0932	974704	976518	+
USA300HOU_0933	976721	979330	+
USA300HOU_0934	980258	979389	-
USA300HOU_0935	980368	981513	+
USA300HOU_0936	981497	982138	+
USA300HOU_0937	982278	982129	-
USA300HOU_0938	982131	983249	+
USA300HOU_0939	984059	984493	+
USA300HOU_0940	984935	984750	-
USA300HOU_0941	985230	986171	+
USA300HOU_0942	986183	987427	+
USA300HOU_0943	987853	987482	-
USA300HOU_0944	988096	989022	+
USA300HOU_0945	989022	990092	+
USA300HOU_0946	990109	991191	+
USA300HOU_0947	991181	992122	+
USA300HOU_0948	992141	993796	+
USA300HOU_0949	994008	995723	+
USA300HOU_0950	995774	996760	+
USA300HOU_0951	996763	997743	+
USA300HOU_0952	997736	998698	+
USA300HOU_0953	998710	999591	+
USA300HOU_0954	1000622	999633	-
USA300HOU_0955	1000917	1001312	+
USA300HOU_0956	1001683	1002402	+
USA300HOU_0958	1003556	1005364	+
USA300HOU_0959	1006630	1005824	-
USA300HOU_0960	1007018	1006653	-
USA300HOU_0961	1007715	1007122	-
USA300HOU_0962	1007901	1008248	+
USA300HOU_0963	1008265	1008900	+
USA300HOU_0964	1008917	1009726	+
USA300HOU_0965	1009723	1010577	+
USA300HOU_0966	1010598	1011983	+
USA300HOU_0967	1011993	1013837	+
USA300HOU_0968	1013905	1014021	+
USA300HOU_0969	1014115	1014885	+
USA300HOU_0970	1016165	1015080	-
USA300HOU_0971	1016507	1018075	+
USA300HOU_0972	1018217	1018975	+
USA300HOU_0973	1019169	1019678	+
USA300HOU_0974	1020981	1019791	-
USA300HOU_0975	1022134	1020959	-
USA300HOU_0976	1022567	1024048	+
USA300HOU_0977	1024041	1024292	+
USA300HOU_0978	1024292	1025854	+
USA300HOU_0979	1026156	1026959	+
USA300HOU_0980	1027193	1029502	+
USA300HOU_0981	1029519	1030877	+
USA300HOU_0982	1031016	1032527	+
USA300HOU_0983	1033583	1033014	-
USA300HOU_0984	1041289	1042770	+
USA300HOU_0985	1043692	1044651	+
USA300HOU_0986	1044828	1044697	-
USA300HOU_0987	1045107	1044892	-
USA300HOU_0988	1045272	1045823	+
USA300HOU_0989	1046813	1045875	-
USA300HOU_0990	1046986	1048356	+
USA300HOU_0991	1048343	1050016	+
USA300HOU_0992	1050003	1050806	+
USA300HOU_0993	1050799	1051620	+
USA300HOU_0994	1052188	1051859	-
USA300HOU_0995	1053407	1052226	-
USA300HOU_0996	1054499	1053489	-
USA300HOU_0997	1061936	1058166	-
USA300HOU_0998	1062613	1062164	-
USA300HOU_0999	1063223	1062753	-
USA300HOU_1000	1064488	1063271	-
USA300HOU_1001	1064939	1066132	+
USA300HOU_1002	1066959	1066669	-
USA300HOU_1003	1067561	1066956	-
USA300HOU_1004	1069539	1067551	-
USA300HOU_1005	1070639	1069539	-
USA300HOU_1006	1070941	1071063	+
USA300HOU_1007	1071528	1071211	-
USA300HOU_1008	1073193	1072333	-
USA300HOU_1009	1073394	1073876	+
USA300HOU_1010	1073863	1074987	+
USA300HOU_1011	1074991	1075695	+
USA300HOU_1012	1075695	1075958	+
USA300HOU_1013	1075960	1076631	+
USA300HOU_1014	1076624	1078813	+
USA300HOU_1015	1078792	1080276	+
USA300HOU_1016	1080269	1081297	+
USA300HOU_1017	1081872	1083359	+
USA300HOU_1018	1083381	1084628	+
USA300HOU_1019	1085699	1084893	-
USA300HOU_1020	1087092	1085692	-
USA300HOU_1021	1087682	1087107	-
USA300HOU_1022	1088552	1089847	+
USA300HOU_1023	1090272	1091444	+
USA300HOU_1024	1091498	1092040	+
USA300HOU_1025	1092194	1092460	+
USA300HOU_1026	1092463	1094181	+
USA300HOU_1027	1094651	1094418	-
USA300HOU_1028	1094849	1096210	+
USA300HOU_1029	1096207	1097226	+
USA300HOU_1030	1097359	1098021	+
USA300HOU_1031	1100067	1098370	-
USA300HOU_1032	1100285	1100067	-
USA300HOU_1033	1100436	1100314	-
USA300HOU_1034	1101317	1100766	-
USA300HOU_1035	1101682	1102308	+
USA300HOU_1036	1102479	1103591	+
USA300HOU_1037	1103595	1104572	+
USA300HOU_1038	1104663	1105955	+
USA300HOU_1039	1105959	1107365	+
USA300HOU_1040	1107533	1107808	+
USA300HOU_1041	1107952	1108491	+
USA300HOU_1042	1108504	1109598	+
USA300HOU_1043	1111203	1112276	+
USA300HOU_1044	1112350	1113369	+
USA300HOU_1045	1113652	1114071	+
USA300HOU_1046	1114110	1114214	+
USA300HOU_1047	1117734	1119581	+
USA300HOU_1048	1119888	1119721	-
USA300HOU_1049	1120372	1119890	-
USA300HOU_1050	1120513	1120788	+
USA300HOU_1051	1121090	1122328	+
USA300HOU_1052	1122882	1126334	+
USA300HOU_1053	1127544	1126474	-
USA300HOU_1054	1127825	1128736	+
USA300HOU_1055	1128761	1129222	+
USA300HOU_1056	1129549	1130586	+
USA300HOU_1058	1130602	1131036	+
USA300HOU_1059	1132264	1132518	+
USA300HOU_1060	1132910	1132521	-
USA300HOU_1061	1132980	1133522	+
USA300HOU_1062	1133524	1134006	+
USA300HOU_1063	1135207	1134068	-
USA300HOU_1064	1139490	1138438	-
USA300HOU_1065	1139699	1140382	+
USA300HOU_1066	1140382	1141458	+
USA300HOU_1067	1141455	1142333	+
USA300HOU_1068	1142346	1143311	+
USA300HOU_1069	1144126	1144449	+
USA300HOU_1070	1144486	1144593	+
USA300HOU_1071	1144638	1144736	+
USA300HOU_1072	1144833	1145573	+
USA300HOU_1073	1145954	1147012	+
USA300HOU_1074	1147012	1149414	+
USA300HOU_1075	1150541	1149585	-
USA300HOU_1076	1150893	1151159	+
USA300HOU_1077	1151160	1151681	+
USA300HOU_1078	1151754	1153466	+
USA300HOU_1079	1153476	1155824	+
USA300HOU_1080	1155997	1156311	+
USA300HOU_1081	1156469	1156374	-
USA300HOU_1082	1156635	1158416	+
USA300HOU_1083	1158740	1159354	+
USA300HOU_1084	1159406	1161172	+
USA300HOU_1085	1161172	1161987	+
USA300HOU_1086	1162223	1163023	+
USA300HOU_1087	1163035	1163622	+
USA300HOU_1088	1163615	1164118	+
USA300HOU_1089	1164246	1164413	+
USA300HOU_1090	1164607	1164936	+
USA300HOU_1091	1165098	1165214	+
USA300HOU_1092	1165706	1165305	-
USA300HOU_1093	1166378	1166884	+
USA300HOU_1094	1167143	1167640	+
USA300HOU_1095	1167794	1168144	+
USA300HOU_1097	1168982	1168797	-
USA300HOU_1098	1169837	1169604	-
USA300HOU_1099	1171273	1170314	-
USA300HOU_1100	1171946	1172092	+
USA300HOU_1101	1172076	1172273	+
USA300HOU_1103	1173434	1172718	-
USA300HOU_1104	1174267	1173542	-
USA300HOU_1105	1175087	1174362	-
USA300HOU_1106	1175525	1176526	+
USA300HOU_1107	1176549	1177481	+
USA300HOU_1108	1177653	1179209	+
USA300HOU_1109	1179517	1179744	+
USA300HOU_1110	1180996	1180049	-
USA300HOU_1111	1181245	1181433	+
USA300HOU_1112	1182345	1182479	+
USA300HOU_1113	1182536	1182670	+
USA300HOU_1114	1182794	1183489	+
USA300HOU_1115	1184038	1183598	-
USA300HOU_1116	1184176	1184072	-
USA300HOU_1117	1184233	1185846	+
USA300HOU_1118	1185990	1186421	+
USA300HOU_1119	1186437	1187372	+
USA300HOU_1120	1187386	1187787	+
USA300HOU_1121	1187768	1190002	+
USA300HOU_1122	1190294	1191259	+
USA300HOU_1123	1191261	1192610	+
USA300HOU_1124	1192626	1193945	+
USA300HOU_1125	1197737	1198411	+
USA300HOU_1126	1198408	1198971	+
USA300HOU_1127	1198983	1199273	+
USA300HOU_1128	1199356	1200162	+
USA300HOU_1129	1200186	1200803	+
USA300HOU_1130	1201024	1203777	+
USA300HOU_1131	1204067	1204864	+
USA300HOU_1133	1205688	1206179	+
USA300HOU_1134	1206179	1207096	+
USA300HOU_1136	1207495	1208022	+
USA300HOU_1137	1208231	1209547	+
USA300HOU_1138	1209575	1210456	+
USA300HOU_1139	1210471	1211748	+
USA300HOU_1140	1211750	1212850	+
USA300HOU_1141	1212843	1216016	+
USA300HOU_1142	1216123	1216818	+
USA300HOU_1143	1216818	1217429	+
USA300HOU_1144	1217459	1217671	+
USA300HOU_1145	1218108	1218509	+
USA300HOU_1146	1220469	1218772	-
USA300HOU_1147	1220744	1221367	+
USA300HOU_1148	1221367	1221585	+
USA300HOU_1149	1221795	1223000	+
USA300HOU_1150	1223000	1225408	+
USA300HOU_1151	1225914	1226867	+
USA300HOU_1152	1227532	1228020	+
USA300HOU_1153	1228013	1228948	+
USA300HOU_1154	1228945	1230252	+
USA300HOU_1155	1230255	1231349	+
USA300HOU_1156	1231356	1232099	+
USA300HOU_1157	1232096	1234090	+
USA300HOU_1158	1234318	1235193	+
USA300HOU_1159	1235194	1235838	+
USA300HOU_1160	1235845	1236486	+
USA300HOU_1161	1237498	1237872	+
USA300HOU_1162	1237887	1239533	+
USA300HOU_1163	1239723	1241783	+
USA300HOU_1164	1241986	1242558	+
USA300HOU_1165	1242563	1243549	+
USA300HOU_1166	1243542	1244468	+
USA300HOU_1167	1244455	1245195	+
USA300HOU_1168	1245176	1245331	+
USA300HOU_1169	1245438	1245671	+
USA300HOU_1170	1245787	1246518	+
USA300HOU_1171	1246665	1250231	+
USA300HOU_1172	1250231	1251481	+
USA300HOU_1173	1258634	1256028	-
USA300HOU_1174	1259035	1259919	+
USA300HOU_1175	1259903	1260670	+
USA300HOU_1176	1260779	1261945	+
USA300HOU_1177	1261967	1262875	+
USA300HOU_1178	1263069	1264220	+
USA300HOU_1179	1264248	1265492	+
USA300HOU_1180	1265665	1266537	+
USA300HOU_1181	1266711	1268786	+
USA300HOU_1182	1268942	1270249	+
USA300HOU_1183	1270666	1271562	+
USA300HOU_1184	1271559	1272104	+
USA300HOU_1185	1272170	1273573	+
USA300HOU_1186	1273598	1274371	+
USA300HOU_1188	1274713	1275480	+
USA300HOU_1189	1275514	1275627	+
USA300HOU_1190	1275662	1276543	+
USA300HOU_1191	1276680	1277402	+
USA300HOU_1192	1278348	1279118	+
USA300HOU_1193	1279125	1279907	+
USA300HOU_1194	1280169	1281455	+
USA300HOU_1195	1281475	1283178	+
USA300HOU_1196	1283442	1287752	+
USA300HOU_1197	1288042	1288509	+
USA300HOU_1198	1288530	1289705	+
USA300HOU_1199	1289726	1290010	+
USA300HOU_1200	1290007	1290324	+
USA300HOU_1201	1290329	1292446	+
USA300HOU_1202	1292832	1293182	+
USA300HOU_1203	1293351	1294268	+
USA300HOU_1204	1294283	1295254	+
USA300HOU_1205	1295369	1295638	+
USA300HOU_1206	1296008	1298104	+
USA300HOU_1207	1298340	1300013	+
USA300HOU_1208	1300260	1302638	+
USA300HOU_1209	1302643	1303356	+
USA300HOU_1210	1303387	1304652	+
USA300HOU_1211	1304652	1305938	+
USA300HOU_1212	1305938	1306642	+
USA300HOU_1213	1306747	1307574	+
USA300HOU_1214	1307593	1307985	+
USA300HOU_1215	1308019	1308597	+
USA300HOU_1216	1308824	1309975	+
USA300HOU_1217	1310140	1311183	+
USA300HOU_1218	1311537	1313096	+
USA300HOU_1219	1313608	1313393	-
USA300HOU_1220	1313782	1314579	+
USA300HOU_1221	1314719	1316479	+
USA300HOU_1222	1316480	1317346	+
USA300HOU_1223	1317440	1317733	+
USA300HOU_1224	1317867	1319411	+
USA300HOU_1225	1319412	1319777	+
USA300HOU_1226	1319804	1320295	+
USA300HOU_1227	1320598	1323216	+
USA300HOU_1228	1323229	1325238	+
USA300HOU_1229	1325244	1325786	+
USA300HOU_1230	1326251	1327069	+
USA300HOU_1231	1327198	1328694	+
USA300HOU_1232	1328804	1330525	+
USA300HOU_1233	1330675	1331589	+
USA300HOU_1234	1331607	1332542	+
USA300HOU_1235	1332557	1332790	+
USA300HOU_1236	1333488	1333012	-
USA300HOU_1237	1333600	1334838	+
USA300HOU_1238	1334857	1336095	+
USA300HOU_1239	1336338	1336706	+
USA300HOU_1240	1336725	1338065	+
USA300HOU_1241	1338558	1338755	+
USA300HOU_1242	1339456	1339668	+
USA300HOU_1243	1339962	1340168	+
USA300HOU_1244	1340869	1340979	+
USA300HOU_1245	1341407	1341592	+
USA300HOU_1246	1342104	1342208	+
USA300HOU_1247	1342163	1342336	+
USA300HOU_1248	1342337	1342588	+
USA300HOU_1249	1342634	1343218	+
USA300HOU_1250	1343339	1343587	+
USA300HOU_1251	1343717	1343818	+
USA300HOU_1252	1343864	1344130	+
USA300HOU_1253	1344127	1344264	+
USA300HOU_1255	1344693	1344983	+
USA300HOU_1256	1344994	1345188	+
USA300HOU_1257	1345238	1345579	+
USA300HOU_1258	1345586	1345777	+
USA300HOU_1259	1345856	1345761	-
USA300HOU_1260	1347351	1346326	-
USA300HOU_1261	1347621	1347818	+
USA300HOU_1262	1347876	1349357	+
USA300HOU_1263	1349541	1350440	+
USA300HOU_1264	1350409	1351140	+
USA300HOU_1265	1351144	1352235	+
USA300HOU_1266	1352232	1352834	+
USA300HOU_1267	1353135	1352947	-
USA300HOU_1268	1353274	1353807	+
USA300HOU_1269	1354804	1353950	-
USA300HOU_1270	1355135	1355710	+
USA300HOU_1271	1357146	1355764	-
USA300HOU_1272	1357152	1357259	+
USA300HOU_1273	1357337	1358617	+
USA300HOU_1274	1358623	1359684	+
USA300HOU_1275	1359686	1360600	+
USA300HOU_1276	1360658	1361461	+
USA300HOU_1277	1364040	1365461	+
USA300HOU_1278	1365543	1365701	+
USA300HOU_1279	1370471	1372459	+
USA300HOU_1280	1372692	1372979	+
USA300HOU_1281	1374874	1377903	+
USA300HOU_1283	1381078	1383783	+
USA300HOU_1284	1383963	1384430	+
USA300HOU_1285	1384933	1384637	-
USA300HOU_1286	1385917	1385309	-
USA300HOU_1287	1386123	1388114	+
USA300HOU_1288	1388114	1390516	+
USA300HOU_1289	1390742	1390644	-
USA300HOU_1290	1390766	1392226	+
USA300HOU_1291	1392720	1393577	+
USA300HOU_1292	1393552	1393719	+
USA300HOU_1293	1393712	1394920	+
USA300HOU_1294	1395401	1397923	+
USA300HOU_1295	1398635	1398126	-
USA300HOU_1296	1398772	1399755	+
USA300HOU_1297	1399745	1399849	+
USA300HOU_1298	1400031	1399843	-
USA300HOU_1299	1400176	1401438	+
USA300HOU_1300	1402666	1401575	-
USA300HOU_1301	1402831	1403862	+
USA300HOU_1302	1404354	1405760	+
USA300HOU_1303	1405757	1406323	+
USA300HOU_1304	1406320	1407327	+
USA300HOU_1305	1407329	1408111	+
USA300HOU_1306	1408108	1408743	+
USA300HOU_1307	1408736	1409950	+
USA300HOU_1308	1409943	1410671	+
USA300HOU_1309	1410993	1412255	+
USA300HOU_1310	1412274	1413533	+
USA300HOU_1311	1414222	1414989	+
USA300HOU_1312	1415510	1415037	-
USA300HOU_1313	1416335	1415634	-
USA300HOU_1314	1417104	1416328	-
USA300HOU_1315	1417918	1417088	-
USA300HOU_1316	1418864	1417911	-
USA300HOU_1317	1419545	1419201	-
USA300HOU_1318	1419750	1421564	+
USA300HOU_1319	1422345	1421704	-
USA300HOU_1320	1423203	1422352	-
USA300HOU_1321	1424167	1423250	-
USA300HOU_1322	1425095	1424169	-
USA300HOU_1323	1425262	1425155	-
USA300HOU_1324	1426269	1425286	-
USA300HOU_1326	1428143	1427241	-
USA300HOU_1327	1428290	1429891	+
USA300HOU_1328	1430751	1431956	+
USA300HOU_1329	1432020	1433009	+
USA300HOU_1330	1433011	1433898	+
USA300HOU_1331	1433895	1434617	+
USA300HOU_1332	1434644	1435363	+
USA300HOU_1333	1435506	1436657	+
USA300HOU_1334	1436662	1437747	+
USA300HOU_1335	1437737	1439002	+
USA300HOU_1336	1439643	1439242	-
USA300HOU_1337	1440040	1439840	-
USA300HOU_1338	1440976	1441599	+
USA300HOU_1339	1441631	1442767	+
USA300HOU_1341	1443427	1443035	-
USA300HOU_1342	1445123	1443780	-
USA300HOU_1343	1447234	1445348	-
USA300HOU_1344	1448039	1447248	-
USA300HOU_1345	1448423	1448220	-
USA300HOU_1346	1449261	1448452	-
USA300HOU_1347	1451109	1449841	-
USA300HOU_1348	1453921	1451123	-
USA300HOU_1349	1455560	1454205	-
USA300HOU_1350	1456216	1455557	-
USA300HOU_1351	1456609	1456478	-
USA300HOU_1352	1456886	1456686	-
USA300HOU_1353	1457130	1457615	+
USA300HOU_1354	1458360	1457746	-
USA300HOU_1355	1459447	1458377	-
USA300HOU_1356	1459968	1459459	-
USA300HOU_1357	1461858	1460368	-
USA300HOU_1358	1462271	1462050	-
USA300HOU_1359	1462771	1462271	-
USA300HOU_1360	1463211	1462783	-
USA300HOU_1361	1463737	1463204	-
USA300HOU_1362	1464662	1463823	-
USA300HOU_1363	1465156	1464677	-
USA300HOU_1364	1466312	1465356	-
USA300HOU_1365	1467173	1466736	-
USA300HOU_1366	1468313	1467189	-
USA300HOU_1367	1468602	1468351	-
USA300HOU_1368	1468835	1468614	-
USA300HOU_1369	1469053	1469757	+
USA300HOU_1370	1469953	1469822	-
USA300HOU_1371	1470298	1470699	+
USA300HOU_1372	1502023	1470758	-
USA300HOU_1373	1503812	1502421	-
USA300HOU_1374	1505291	1503969	-
USA300HOU_1375	1506362	1505322	-
USA300HOU_1376	1507575	1506457	-
USA300HOU_1377	1508928	1508050	-
USA300HOU_1378	1512388	1508948	-
USA300HOU_1379	1512692	1514032	+
USA300HOU_1380	1514570	1514238	-
USA300HOU_1381	1515799	1514654	-
USA300HOU_1382	1516349	1516233	-
USA300HOU_1383	1516794	1516450	-
USA300HOU_1384	1517371	1516808	-
USA300HOU_1385	1517714	1517364	-
USA300HOU_1386	1517948	1517769	-
USA300HOU_1387	1518254	1518880	+
USA300HOU_1388	1518877	1521060	+
USA300HOU_1389	1521967	1521626	-
USA300HOU_1390	1522631	1521972	-
USA300HOU_1391	1523307	1522621	-
USA300HOU_1392	1524927	1523635	-
USA300HOU_1393	1527942	1525249	-
USA300HOU_1394	1528937	1527966	-
USA300HOU_1395	1530126	1528924	-
USA300HOU_1396	1531285	1530131	-
USA300HOU_1397	1531831	1531514	-
USA300HOU_1398	1532875	1532168	-
USA300HOU_1399	1533507	1532920	-
USA300HOU_1400	1534072	1533497	-
USA300HOU_1401	1535330	1534086	-
USA300HOU_1402	1536635	1535337	-
USA300HOU_1403	1537709	1536645	-
USA300HOU_1404	1538901	1537735	-
USA300HOU_1405	1539487	1539287	-
USA300HOU_1406	1540145	1539696	-
USA300HOU_1407	1541196	1540237	-
USA300HOU_1408	1541923	1541198	-
USA300HOU_1409	1542498	1541926	-
USA300HOU_1410	1543201	1542929	-
USA300HOU_1411	1544370	1543372	-
USA300HOU_1412	1545697	1544387	-
USA300HOU_1413	1547094	1545919	-
USA300HOU_1414	1547775	1547659	-
USA300HOU_1415	1548465	1547806	-
USA300HOU_1416	1548542	1549510	+
USA300HOU_1417	1550611	1549625	-
USA300HOU_1418	1550888	1550772	-
USA300HOU_1419	1552473	1551013	-
USA300HOU_1420	1554005	1552626	-
USA300HOU_1421	1554948	1553995	-
USA300HOU_1422	1555056	1555304	+
USA300HOU_1423	1555955	1555410	-
USA300HOU_1424	1556353	1556234	-
USA300HOU_1425	1557466	1556552	-
USA300HOU_1426	1557687	1557481	-
USA300HOU_1427	1558618	1557680	-
USA300HOU_1428	1559592	1558675	-
USA300HOU_1430	1561094	1560117	-
USA300HOU_1431	1562034	1561096	-
USA300HOU_1432	1563878	1562424	-
USA300HOU_1433	1564191	1563889	-
USA300HOU_1434	1564626	1564327	-
USA300HOU_1435	1565218	1564829	-
USA300HOU_1436	1566684	1565218	-
USA300HOU_1437	1568594	1566684	-
USA300HOU_1438	1568900	1568610	-
USA300HOU_1439	1570483	1568900	-
USA300HOU_1440	1571316	1570492	-
USA300HOU_1441	1577516	1571316	-
USA300HOU_1442	1577688	1577530	-
USA300HOU_1443	1578080	1577730	-
USA300HOU_1444	1578593	1578138	-
USA300HOU_1445	1579326	1578685	-
USA300HOU_1446	1579756	1579361	-
USA300HOU_1447	1580158	1579757	-
USA300HOU_1448	1580487	1580155	-
USA300HOU_1449	1580777	1580499	-
USA300HOU_1450	1582054	1580846	-
USA300HOU_1451	1582794	1582021	-
USA300HOU_1452	1584016	1582778	-
USA300HOU_1453	1585712	1584021	-
USA300HOU_1454	1586025	1585702	-
USA300HOU_1455	1587042	1586605	-
USA300HOU_1456	1588422	1587055	-
USA300HOU_1457	1588693	1588403	-
USA300HOU_1458	1588888	1589010	+
USA300HOU_1459	1591481	1589034	-
USA300HOU_1460	1591969	1591769	-
USA300HOU_1461	1592189	1592037	-
USA300HOU_1462	1592572	1592186	-
USA300HOU_1463	1592801	1592565	-
USA300HOU_1464	1592997	1592794	-
USA300HOU_1465	1593200	1592994	-
USA300HOU_1466	1593773	1593237	-
USA300HOU_1467	1594023	1593766	-
USA300HOU_1468	1594292	1594029	-
USA300HOU_1469	1594486	1594286	-
USA300HOU_1470	1594746	1594489	-
USA300HOU_1471	1595147	1594746	-
USA300HOU_1472	1595332	1595147	-
USA300HOU_1473	1597297	1595345	-
USA300HOU_1474	1597922	1597365	-
USA300HOU_1475	1599114	1597948	-
USA300HOU_1476	1599473	1599111	-
USA300HOU_1477	1599747	1599487	-
USA300HOU_1478	1600054	1599752	-
USA300HOU_1479	1600364	1600047	-
USA300HOU_1481	1600893	1600630	-
USA300HOU_1482	1601133	1600918	-
USA300HOU_1483	1601180	1601419	+
USA300HOU_1484	1601592	1601416	-
USA300HOU_1485	1601867	1601676	-
USA300HOU_1486	1602028	1602357	+
USA300HOU_1487	1602370	1602831	+
USA300HOU_1488	1602849	1603283	+
USA300HOU_1489	1604554	1603940	-
USA300HOU_1490	1604680	1605885	+
USA300HOU_1492	1608876	1607947	-
USA300HOU_1493	1610815	1609121	-
USA300HOU_1494	1611578	1610853	-
USA300HOU_1495	1612448	1611711	-
USA300HOU_1496	1613731	1612976	-
USA300HOU_1497	1613799	1614305	+
USA300HOU_1498	1615270	1614383	-
USA300HOU_1499	1615768	1615319	-
USA300HOU_1500	1616415	1615873	-
USA300HOU_1501	1616497	1617405	+
USA300HOU_1502	1617869	1617621	-
USA300HOU_1503	1618640	1617885	-
USA300HOU_1504	1618782	1619597	+
USA300HOU_1505	1620622	1619702	-
USA300HOU_1506	1620813	1620679	-
USA300HOU_1507	1620935	1622419	+
USA300HOU_1508	1622622	1623515	+
USA300HOU_1509	1625247	1623598	-
USA300HOU_1510	1626282	1625263	-
USA300HOU_1511	1626847	1626476	-
USA300HOU_1512	1628472	1627066	-
USA300HOU_1513	1629673	1628540	-
USA300HOU_1514	1629936	1630115	+
USA300HOU_1515	1631222	1630242	-
USA300HOU_1516	1631673	1631236	-
USA300HOU_1517	1633298	1632024	-
USA300HOU_1518	1634294	1633311	-
USA300HOU_1519	1635286	1634294	-
USA300HOU_1520	1636723	1635302	-
USA300HOU_1521	1638553	1636874	-
USA300HOU_1522	1639030	1638569	-
USA300HOU_1523	1640334	1639453	-
USA300HOU_1524	1640542	1640312	-
USA300HOU_1525	1641872	1640535	-
USA300HOU_1526	1642278	1641889	-
USA300HOU_1527	1642700	1642338	-
USA300HOU_1528	1644070	1642715	-
USA300HOU_1529	1644534	1644070	-
USA300HOU_1530	1645565	1645008	-
USA300HOU_1531	1646652	1645591	-
USA300HOU_1532	1646757	1647338	+
USA300HOU_1533	1647352	1647570	+
USA300HOU_1534	1648464	1647634	-
USA300HOU_1535	1648622	1649008	+
USA300HOU_1536	1650845	1649373	-
USA300HOU_1537	1652193	1650838	-
USA300HOU_1538	1653295	1652204	-
USA300HOU_1539	1653978	1653454	-
USA300HOU_1540	1654111	1653968	-
USA300HOU_1541	1654708	1654211	-
USA300HOU_1542	1654925	1654626	-
USA300HOU_1543	1655358	1654912	-
USA300HOU_1544	1655647	1655336	-
USA300HOU_1545	1656731	1655661	-
USA300HOU_1546	1657677	1656703	-
USA300HOU_1547	1658352	1657729	-
USA300HOU_1548	1658678	1658349	-
USA300HOU_1549	1659664	1658678	-
USA300HOU_1550	1659864	1659661	-
USA300HOU_1551	1661308	1659845	-
USA300HOU_1552	1661859	1661320	-
USA300HOU_1553	1662217	1662068	-
USA300HOU_1554	1664405	1662330	-
USA300HOU_1555	1665125	1664526	-
USA300HOU_1556	1665812	1665402	-
USA300HOU_1557	1666671	1665799	-
USA300HOU_1558	1667471	1666704	-
USA300HOU_1559	1668505	1667615	-
USA300HOU_1560	1669861	1668515	-
USA300HOU_1561	1671075	1669975	-
USA300HOU_1562	1671755	1671078	-
USA300HOU_1563	1672992	1671886	-
USA300HOU_1564	1675015	1673216	-
USA300HOU_1565	1675894	1675076	-
USA300HOU_1566	1676863	1678254	+
USA300HOU_1567	1679156	1678404	-
USA300HOU_1568	1680077	1679178	-
USA300HOU_1569	1680482	1680078	-
USA300HOU_1570	1680837	1680493	-
USA300HOU_1571	1681307	1680840	-
USA300HOU_1572	1682255	1681308	-
USA300HOU_1573	1683257	1682559	-
USA300HOU_1574	1684263	1683274	-
USA300HOU_1575	1684988	1684281	-
USA300HOU_1576	1685384	1685208	-
USA300HOU_1577	1687023	1685677	-
USA300HOU_1578	1687791	1687030	-
USA300HOU_1579	1688722	1687784	-
USA300HOU_1580	1689865	1688726	-
USA300HOU_1581	1691833	1690001	-
USA300HOU_1582	1692528	1691902	-
USA300HOU_1583	1693537	1692560	-
USA300HOU_1584	1694794	1693637	-
USA300HOU_1585	1695141	1695013	-
USA300HOU_1586	1697147	1695324	-
USA300HOU_1587	1697493	1697744	+
USA300HOU_1588	1698763	1697789	-
USA300HOU_1589	1701021	1698820	-
USA300HOU_1590	1701496	1701026	-
USA300HOU_1591	1702265	1701579	-
USA300HOU_1592	1703021	1702305	-
USA300HOU_1593	1703377	1703024	-
USA300HOU_1594	1703962	1703378	-
USA300HOU_1595	1704521	1703952	-
USA300HOU_1596	1704814	1704524	-
USA300HOU_1597	1705624	1704818	-
USA300HOU_1598	1706738	1705638	-
USA300HOU_1599	1707266	1706739	-
USA300HOU_1600	1707972	1707286	-
USA300HOU_1601	1708179	1708018	-
USA300HOU_1602	1708286	1708555	+
USA300HOU_1603	1709461	1708757	-
USA300HOU_1604	1711143	1709923	-
USA300HOU_1605	1713426	1712674	-
USA300HOU_1606	1714787	1713426	-
USA300HOU_1607	1715250	1714801	-
USA300HOU_1608	1716262	1715252	-
USA300HOU_1609	1716986	1716252	-
USA300HOU_1610	1717788	1717312	-
USA300HOU_1611	1718439	1717816	-
USA300HOU_1612	1719707	1718439	-
USA300HOU_1613	1720648	1719719	-
USA300HOU_1614	1721283	1720645	-
USA300HOU_1615	1721876	1721568	-
USA300HOU_1616	1722319	1721891	-
USA300HOU_1617	1722583	1722323	-
USA300HOU_1618	1725279	1722646	-
USA300HOU_1619	1728096	1725619	-
USA300HOU_1620	1728766	1728098	-
USA300HOU_1621	1730346	1729228	-
USA300HOU_1622	1731489	1730347	-
USA300HOU_1623	1731801	1732814	+
USA300HOU_1624	1733197	1733051	-
USA300HOU_1625	1733419	1733237	-
USA300HOU_1626	1736234	1735461	-
USA300HOU_1627	1736362	1736234	-
USA300HOU_1628	1738461	1736695	-
USA300HOU_1629	1739739	1738477	-
USA300HOU_1630	1741075	1740200	-
USA300HOU_1631	1741524	1741072	-
USA300HOU_1632	1743746	1741536	-
USA300HOU_1633	1744671	1744153	-
USA300HOU_1634	1746966	1744693	-
USA300HOU_1635	1746917	1747039	+
USA300HOU_1636	1749448	1747169	-
USA300HOU_1637	1749983	1749723	-
USA300HOU_1638	1751141	1750002	-
USA300HOU_1639	1752189	1751164	-
USA300HOU_1640	1753195	1752191	-
USA300HOU_1641	1753829	1753227	-
USA300HOU_1642	1754298	1753843	-
USA300HOU_1643	1755603	1754311	-
USA300HOU_1644	1756242	1755958	-
USA300HOU_1645	1756574	1756254	-
USA300HOU_1646	1756888	1756580	-
USA300HOU_1647	1757585	1757055	-
USA300HOU_1648	1758427	1757585	-
USA300HOU_1649	1758746	1758627	-
USA300HOU_1650	1759293	1758820	-
USA300HOU_1651	1760051	1759767	-
USA300HOU_1652	1760790	1760119	-
USA300HOU_1653	1761509	1760802	-
USA300HOU_1654	1763050	1761779	-
USA300HOU_1655	1765693	1763063	-
USA300HOU_1656	1766096	1766656	+
USA300HOU_1657	1767952	1766879	-
USA300HOU_1658	1768087	1767986	-
USA300HOU_1659	1769434	1768148	-
USA300HOU_1660	1770456	1769482	-
USA300HOU_1661	1771127	1770459	-
USA300HOU_1662	1772075	1771149	-
USA300HOU_1663	1772932	1772117	-
USA300HOU_1664	1774300	1772954	-
USA300HOU_1665	1775107	1774517	-
USA300HOU_1666	1776523	1775261	-
USA300HOU_1667	1777975	1776674	-
USA300HOU_1668	1782717	1781224	-
USA300HOU_1669	1785080	1783143	-
USA300HOU_1670	1785400	1785278	-
USA300HOU_1671	1786413	1785493	-
USA300HOU_1672	1787813	1786413	-
USA300HOU_1673	1788284	1787814	-
USA300HOU_1674	1789519	1788494	-
USA300HOU_1675	1790312	1789689	-
USA300HOU_1676	1791200	1790328	-
USA300HOU_1677	1793846	1791216	-
USA300HOU_1678	1795642	1794140	-
USA300HOU_1679	1797790	1796126	-
USA300HOU_1680	1798491	1797787	-
USA300HOU_1681	1800149	1798881	-
USA300HOU_1682	1801319	1800198	-
USA300HOU_1683	1801667	1803028	+
USA300HOU_1684	1807110	1805353	-
USA300HOU_1685	1808100	1807132	-
USA300HOU_1686	1809313	1808369	-
USA300HOU_1687	1810170	1809313	-
USA300HOU_1688	1811594	1810365	-
USA300HOU_1689	1815241	1812044	-
USA300HOU_1690	1816203	1815262	-
USA300HOU_1691	1817762	1816464	-
USA300HOU_1692	1817967	1818380	+
USA300HOU_1693	1819374	1818685	-
USA300HOU_1694	1819549	1820604	+
USA300HOU_1695	1820796	1820698	-
USA300HOU_1696	1822038	1820920	-
USA300HOU_1697	1822179	1822679	+
USA300HOU_1698	1824127	1822925	-
USA300HOU_1699	1825162	1824215	-
USA300HOU_1700	1825779	1825285	-
USA300HOU_1701	1826647	1825877	-
USA300HOU_1702	1827914	1826691	-
USA300HOU_1703	1829053	1827914	-
USA300HOU_1704	1829211	1829351	+
USA300HOU_1705	1831119	1829425	-
USA300HOU_1706	1831256	1831720	+
USA300HOU_1707	1831964	1832566	+
USA300HOU_1708	1832639	1832893	+
USA300HOU_1709	1833525	1832782	-
USA300HOU_1710	1833605	1834051	+
USA300HOU_1711	1834165	1835325	+
USA300HOU_1712	1835312	1836916	+
USA300HOU_1713	1836998	1836888	-
USA300HOU_1714	1838196	1837066	-
USA300HOU_1715	1839769	1838303	-
USA300HOU_1716	1840686	1841960	+
USA300HOU_1717	1843316	1842054	-
USA300HOU_1718	1843698	1844603	+
USA300HOU_1719	1844675	1844583	-
USA300HOU_1720	1847493	1844806	-
USA300HOU_1721	1849489	1847789	-
USA300HOU_1722	1851602	1849896	-
USA300HOU_1723	1851771	1852403	+
USA300HOU_1724	1852428	1853597	+
USA300HOU_1725	1854684	1853695	-
USA300HOU_1726	1854870	1854757	-
USA300HOU_1727	1856315	1855224	-
USA300HOU_1728	1858373	1857015	-
USA300HOU_1729	1858938	1858447	-
USA300HOU_1730	1860325	1859012	-
USA300HOU_1731	1864173	1860349	-
USA300HOU_1732	1864790	1864194	-
USA300HOU_1733	1865661	1864819	-
USA300HOU_1734	1866087	1865776	-
USA300HOU_1735	1867228	1866152	-
USA300HOU_1736	1867315	1867626	+
USA300HOU_1737	1868593	1867751	-
USA300HOU_1738	1869707	1869063	-
USA300HOU_1739	1870522	1869722	-
USA300HOU_1740	1870857	1870952	+
USA300HOU_1741	1871911	1871063	-
USA300HOU_1742	1873324	1871915	-
USA300HOU_1743	1874496	1874074	-
USA300HOU_1744	1875208	1874513	-
USA300HOU_1745	1876866	1875205	-
USA300HOU_1746	1877273	1878541	+
USA300HOU_1747	1885218	1878658	-
USA300HOU_1748	1885855	1885544	-
USA300HOU_1749	1888294	1885877	-
USA300HOU_1750	1889763	1888582	-
USA300HOU_1751	1889873	1890826	+
USA300HOU_1752	1890823	1891386	+
USA300HOU_1753	1892006	1891506	-
USA300HOU_1755	1894313	1893486	-
USA300HOU_1756	1894547	1895548	+
USA300HOU_1757	1896134	1895670	-
USA300HOU_1758	1897328	1896147	-
USA300HOU_1759	1897971	1897339	-
USA300HOU_1760	1899021	1897978	-
USA300HOU_1761	1901004	1899502	-
USA300HOU_1762	1901146	1901027	-
USA300HOU_1763	1901841	1903133	+
USA300HOU_1764	1903151	1903546	+
USA300HOU_1765	1904695	1903841	-
USA300HOU_1766	1905316	1905864	+
USA300HOU_1767	1905977	1906420	+
USA300HOU_1768	1906850	1906407	-
USA300HOU_1769	1907146	1907781	+
USA300HOU_1770	1908934	1908221	-
USA300HOU_1771	1909194	1909496	+
USA300HOU_1772	1909674	1910117	+
USA300HOU_1773	1910114	1910467	+
USA300HOU_1775	1913383	1912550	-
USA300HOU_1776	1914503	1913595	-
USA300HOU_1777	1915821	1914628	-
USA300HOU_1778	1916192	1917784	+
USA300HOU_1779	1918321	1917920	-
USA300HOU_1780	1919550	1918780	-
USA300HOU_1781	1920010	1919531	-
USA300HOU_1782	1920070	1920327	+
USA300HOU_1783	1921325	1920324	-
USA300HOU_1784	1922808	1921330	-
USA300HOU_1785	1923449	1922967	-
USA300HOU_1786	1923725	1924375	+
USA300HOU_1787	1924456	1925451	+
USA300HOU_1789	1926194	1926538	+
USA300HOU_1790	1926636	1927187	+
USA300HOU_1791	1928046	1927405	-
USA300HOU_1792	1928345	1928160	-
USA300HOU_1793	1928523	1928347	-
USA300HOU_1794	1928917	1928534	-
USA300HOU_1796	1930085	1930186	+
USA300HOU_1797	1931007	1930534	-
USA300HOU_1798	1935247	1931432	-
USA300HOU_1799	1937592	1936393	-
USA300HOU_1800	1939141	1937585	-
USA300HOU_1801	1940223	1939504	-
USA300HOU_1802	1941090	1940374	-
USA300HOU_1803	1941967	1941248	-
USA300HOU_1804	1942807	1942088	-
USA300HOU_1805	1943587	1942865	-
USA300HOU_1806	1944419	1943712	-
USA300HOU_1807	1945383	1945949	+
USA300HOU_1808	1947121	1946423	-
USA300HOU_1809	1947879	1947118	-
USA300HOU_1810	1948568	1947876	-
USA300HOU_1811	1949964	1948591	-
USA300HOU_1812	1950492	1949974	-
USA300HOU_1813	1951752	1950508	-
USA300HOU_1814	1954738	1951745	-
USA300HOU_1815	1954946	1954803	-
USA300HOU_1816	1955155	1955021	-
USA300HOU_1817	1957051	1956068	-
USA300HOU_1818	1957988	1957053	-
USA300HOU_1819	1958871	1959326	+
USA300HOU_1820	1959339	1959980	+
USA300HOU_1821	1961275	1961406	+
USA300HOU_1822	1963137	1962583	-
USA300HOU_1823	1964860	1963460	-
USA300HOU_1824	1965807	1964884	-
USA300HOU_1825	1966902	1965865	-
USA300HOU_1826	1967002	1966892	-
USA300HOU_1827	1967165	1967668	+
USA300HOU_1828	1969015	1967792	-
USA300HOU_1829	1969748	1969008	-
USA300HOU_1830	1969882	1970304	+
USA300HOU_1831	1970446	1970811	+
USA300HOU_1832	1971544	1972101	+
USA300HOU_1833	1972306	1973268	+
USA300HOU_1834	1974330	1973389	-
USA300HOU_1835	1977263	1974327	-
USA300HOU_1836	1978449	1977253	-
USA300HOU_1837	1978838	1978740	-
USA300HOU_1838	1979565	1979221	-
USA300HOU_1839	1980758	1979634	-
USA300HOU_1840	1980829	1980755	-
USA300HOU_1841	1981401	1980937	-
USA300HOU_1842	1982380	1981757	-
USA300HOU_1843	1983514	1982402	-
USA300HOU_1844	1983677	1984498	+
USA300HOU_1845	1986346	1984961	-
USA300HOU_1846	1986937	1986542	-
USA300HOU_1847	1987056	1987418	+
USA300HOU_1848	1987866	1987714	-
USA300HOU_1849	1988490	1987891	-
USA300HOU_1850	1989119	1988649	-
USA300HOU_1851	1990266	1989124	-
USA300HOU_1852	1991130	1990402	-
USA300HOU_1853	1992574	1991117	-
USA300HOU_1854	1993893	1992832	-
USA300HOU_1855	1994386	1995747	+
USA300HOU_1856	2004607	2004161	-
USA300HOU_1857	2005654	2004704	-
USA300HOU_1858	2006115	2005660	-
USA300HOU_1859	2006196	2007485	+
USA300HOU_1860	2007727	2008872	+
USA300HOU_1861	2010799	2009063	-
USA300HOU_1862	2011632	2011090	-
USA300HOU_1863	2012971	2011934	-
USA300HOU_1864	2013123	2014100	+
USA300HOU_1865	2015197	2014361	-
USA300HOU_1866	2016723	2015206	-
USA300HOU_1867	2017052	2016738	-
USA300HOU_1868	2017848	2017030	-
USA300HOU_1869	2018918	2018109	-
USA300HOU_1870	2019774	2019259	-
USA300HOU_1871	2020066	2019905	-
USA300HOU_1872	2020290	2021441	+
USA300HOU_1873	2022231	2021701	-
USA300HOU_1874	2023577	2022321	-
USA300HOU_1875	2023795	2023580	-
USA300HOU_1876	2023991	2023869	-
USA300HOU_1877	2023975	2024391	+
USA300HOU_1878	2024398	2024673	+
USA300HOU_1879	2024951	2026168	+
USA300HOU_1880	2026913	2026284	-
USA300HOU_1881	2027946	2026903	-
USA300HOU_1882	2028644	2027943	-
USA300HOU_1883	2029045	2028659	-
USA300HOU_1884	2030020	2029262	-
USA300HOU_1885	2030548	2031534	+
USA300HOU_1886	2031835	2031545	-
USA300HOU_1887	2032476	2032024	-
USA300HOU_1888	2032576	2032466	-
USA300HOU_1889	2033393	2032662	-
USA300HOU_1890	2034708	2033395	-
USA300HOU_1891	2035000	2035500	+
USA300HOU_1892	2035674	2035582	-
USA300HOU_1893	2035889	2036443	+
USA300HOU_1894	2037551	2036511	-
USA300HOU_1895	2038358	2037828	-
USA300HOU_1896	2039889	2038528	-
USA300HOU_1897	2040917	2039970	-
USA300HOU_1899	2041646	2041500	-
USA300HOU_1900	2043113	2041686	-
USA300HOU_1901	2044583	2043126	-
USA300HOU_1902	2044887	2044585	-
USA300HOU_1903	2045254	2046792	+
USA300HOU_1904	2048086	2046881	-
USA300HOU_1905	2050096	2048093	-
USA300HOU_1906	2052292	2050100	-
USA300HOU_1907	2052981	2052289	-
USA300HOU_1908	2053455	2053153	-
USA300HOU_1909	2054859	2053564	-
USA300HOU_1910	2055720	2056886	+
USA300HOU_1911	2056917	2057243	+
USA300HOU_1912	2057708	2057535	-
USA300HOU_1913	2058291	2057689	-
USA300HOU_1914	2059383	2058562	-
USA300HOU_1915	2060845	2059376	-
USA300HOU_1916	2061029	2062105	+
USA300HOU_1917	2062125	2062919	+
USA300HOU_1918	2064671	2063109	-
USA300HOU_1919	2065973	2064876	-
USA300HOU_1920	2066345	2066905	+
USA300HOU_1921	2066958	2067887	+
USA300HOU_1922	2068255	2068082	-
USA300HOU_1923	2068307	2069686	+
USA300HOU_1924	2069792	2069676	-
USA300HOU_1925	2070834	2069806	-
USA300HOU_1926	2071104	2071505	+
USA300HOU_1927	2072251	2072078	-
USA300HOU_1928	2072702	2073742	+
USA300HOU_1929	2074641	2073799	-
USA300HOU_1930	2075195	2074638	-
USA300HOU_1931	2075779	2075255	-
USA300HOU_1932	2075900	2076463	+
USA300HOU_1933	2077269	2076529	-
USA300HOU_1934	2078141	2077269	-
USA300HOU_1935	2078818	2078138	-
USA300HOU_1936	2079715	2078819	-
USA300HOU_1937	2080167	2079712	-
USA300HOU_1938	2080532	2080356	-
USA300HOU_1939	2080873	2080775	-
USA300HOU_1940	2081073	2082359	+
USA300HOU_1942	2084738	2082984	-
USA300HOU_1944	2085696	2085875	+
USA300HOU_1945	2086110	2085955	-
USA300HOU_1946	2086849	2086499	-
USA300HOU_1947	2087534	2087983	+
USA300HOU_1949	2089554	2089063	-
USA300HOU_1950	2089457	2089609	+
USA300HOU_1951	2090500	2089745	-
USA300HOU_1952	2090766	2090512	-
USA300HOU_1953	2091112	2090978	-
USA300HOU_1954	2091600	2091304	-
USA300HOU_1955	2091945	2091658	-
USA300HOU_1956	2092144	2091992	-
USA300HOU_1957	2095919	2092134	-
USA300HOU_1958	2097419	2095935	-
USA300HOU_1959	2101945	2097416	-
USA300HOU_1960	2102136	2102002	-
USA300HOU_1961	2102540	2102190	-
USA300HOU_1962	2103500	2102856	-
USA300HOU_1963	2103908	2103504	-
USA300HOU_1964	2104309	2103905	-
USA300HOU_1965	2104668	2104306	-
USA300HOU_1966	2104936	2104652	-
USA300HOU_1967	2105210	2104926	-
USA300HOU_1968	2106375	2105230	-
USA300HOU_1969	2107136	2106399	-
USA300HOU_1970	2108307	2107120	-
USA300HOU_1971	2109984	2108323	-
USA300HOU_1972	2110325	2109981	-
USA300HOU_1973	2110754	2110455	-
USA300HOU_1974	2111402	2110986	-
USA300HOU_1975	2111630	2111430	-
USA300HOU_1976	2111779	2111630	-
USA300HOU_1977	2112162	2111776	-
USA300HOU_1978	2112365	2112159	-
USA300HOU_1979	2112598	2112362	-
USA300HOU_1980	2113177	2112644	-
USA300HOU_1981	2113412	2113170	-
USA300HOU_1982	2113638	2113402	-
USA300HOU_1983	2114002	2113631	-
USA300HOU_1984	2114253	2114011	-
USA300HOU_1985	2114625	2114257	-
USA300HOU_1986	2115042	2114638	-
USA300HOU_1987	2115269	2115051	-
USA300HOU_1988	2116169	2115276	-
USA300HOU_1989	2116669	2116199	-
USA300HOU_1990	2117155	2116670	-
USA300HOU_1991	2118288	2117368	-
USA300HOU_1992	2120245	2118290	-
USA300HOU_1993	2120520	2120242	-
USA300HOU_1994	2120774	2120514	-
USA300HOU_1995	2121074	2120814	-
USA300HOU_1996	2121330	2121169	-
USA300HOU_1997	2121647	2121327	-
USA300HOU_1998	2121706	2121936	+
USA300HOU_1999	2122109	2121933	-
USA300HOU_2000	2122877	2122125	-
USA300HOU_2001	2122928	2123257	+
USA300HOU_2002	2123461	2123246	-
USA300HOU_2003	2123740	2123477	-
USA300HOU_2004	2123873	2124586	+
USA300HOU_2005	2124602	2125534	+
USA300HOU_2006	2125540	2125881	+
USA300HOU_2007	2126085	2126267	+
USA300HOU_2008	2126345	2127058	+
USA300HOU_2009	2127249	2128286	+
USA300HOU_2011	2130421	2129405	-
USA300HOU_2012	2130315	2130458	+
USA300HOU_2013	2131498	2130443	-
USA300HOU_2014	2131870	2133156	+
USA300HOU_2015	2133275	2133177	-
USA300HOU_2016	2134373	2133528	-
USA300HOU_2017	2135346	2134435	-
USA300HOU_2018	2135507	2136814	+
USA300HOU_2019	2138110	2137667	-
USA300HOU_2020	2138652	2138275	-
USA300HOU_2021	2139560	2138970	-
USA300HOU_2022	2139769	2139557	-
USA300HOU_2024	2142087	2140471	-
USA300HOU_2025	2142447	2142163	-
USA300HOU_2026	2142622	2143365	+
USA300HOU_2027	2144643	2143390	-
USA300HOU_2028	2144840	2145466	+
USA300HOU_2029	2145827	2146612	+
USA300HOU_2030	2146789	2146688	-
USA300HOU_2031	2147343	2147209	-
USA300HOU_2032	2147579	2148148	+
USA300HOU_2033	2148145	2148285	+
USA300HOU_2034	2148310	2149602	+
USA300HOU_2035	2149621	2150337	+
USA300HOU_2036	2150409	2150516	+
USA300HOU_2037	2151663	2150704	-
USA300HOU_2038	2153144	2151660	-
USA300HOU_2039	2154243	2153293	-
USA300HOU_2040	2155676	2154426	-
USA300HOU_2041	2156108	2155884	-
USA300HOU_2042	2157247	2156168	-
USA300HOU_2043	2160728	2162338	+
USA300HOU_2044	2163465	2162440	-
USA300HOU_2045	2163922	2163458	-
USA300HOU_2046	2164557	2163895	-
USA300HOU_2047	2165032	2164538	-
USA300HOU_2048	2165510	2167198	+
USA300HOU_2049	2167226	2168995	+
USA300HOU_2050	2168995	2169249	+
USA300HOU_2051	2169386	2170390	+
USA300HOU_2052	2170420	2171949	+
USA300HOU_2053	2171952	2172998	+
USA300HOU_2054	2173012	2174382	+
USA300HOU_2055	2174383	2174955	+
USA300HOU_2056	2174970	2176238	+
USA300HOU_2057	2182813	2182358	-
USA300HOU_2058	2184956	2182806	-
USA300HOU_2059	2186160	2185390	-
USA300HOU_2060	2186614	2186135	-
USA300HOU_2061	2186942	2186616	-
USA300HOU_2062	2188062	2187061	-
USA300HOU_2063	2188774	2188412	-
USA300HOU_2064	2188941	2188771	-
USA300HOU_2065	2190174	2189026	-
USA300HOU_2066	2190599	2190240	-
USA300HOU_2067	2191097	2190603	-
USA300HOU_2068	2192664	2191081	-
USA300HOU_2069	2193136	2192657	-
USA300HOU_2070	2193904	2193344	-
USA300HOU_2071	2195951	2193924	-
USA300HOU_2072	2197646	2195970	-
USA300HOU_2073	2197780	2197670	-
USA300HOU_2074	2197918	2200575	+
USA300HOU_2075	2200575	2201270	+
USA300HOU_2076	2203159	2201639	-
USA300HOU_2077	2205034	2203676	-
USA300HOU_2078	2206119	2205049	-
USA300HOU_2079	2206437	2207639	+
USA300HOU_2080	2208040	2207903	-
USA300HOU_2081	2208377	2208168	-
USA300HOU_2082	2208682	2208389	-
USA300HOU_2083	2208848	2210332	+
USA300HOU_2084	2210360	2211007	+
USA300HOU_2085	2211174	2211067	-
USA300HOU_2086	2211274	2211182	-
USA300HOU_2087	2212575	2211820	-
USA300HOU_2088	2217767	2218207	+
USA300HOU_2089	2218706	2218266	-
USA300HOU_2090	2220005	2218740	-
USA300HOU_2091	2220349	2220116	-
USA300HOU_2092	2221315	2220911	-
USA300HOU_2093	2222747	2221335	-
USA300HOU_2094	2223635	2222769	-
USA300HOU_2095	2225174	2223666	-
USA300HOU_2096	2225735	2225196	-
USA300HOU_2097	2226256	2225735	-
USA300HOU_2098	2226666	2226454	-
USA300HOU_2099	2227437	2226709	-
USA300HOU_2100	2227811	2227458	-
USA300HOU_2101	2229108	2227978	-
USA300HOU_2102	2229758	2229129	-
USA300HOU_2103	2231024	2229786	-
USA300HOU_2104	2231575	2231051	-
USA300HOU_2105	2234064	2233228	-
USA300HOU_2106	2235127	2234051	-
USA300HOU_2107	2235727	2235128	-
USA300HOU_2108	2236328	2236074	-
USA300HOU_2109	2237777	2236446	-
USA300HOU_2110	2239436	2238009	-
USA300HOU_2111	2240012	2239674	-
USA300HOU_2112	2241357	2240098	-
USA300HOU_2113	2242683	2241823	-
USA300HOU_2114	2242901	2243422	+
USA300HOU_2115	2245141	2243531	-
USA300HOU_2116	2246007	2245477	-
USA300HOU_2117	2246116	2245973	-
USA300HOU_2118	2246979	2246119	-
USA300HOU_2119	2247403	2248206	+
USA300HOU_2120	2249007	2248336	-
USA300HOU_2121	2250599	2249406	-
USA300HOU_2122	2251783	2250599	-
USA300HOU_2123	2252094	2252564	+
USA300HOU_2124	2253066	2252716	-
USA300HOU_2125	2254420	2253080	-
USA300HOU_2126	2255322	2254660	-
USA300HOU_2127	2255637	2256347	+
USA300HOU_2128	2256911	2256468	-
USA300HOU_2129	2257524	2257111	-
USA300HOU_2130	2259355	2257982	-
USA300HOU_2131	2260266	2260027	-
USA300HOU_2132	2261226	2260288	-
USA300HOU_2133	2262326	2261661	-
USA300HOU_2134	2262478	2262798	+
USA300HOU_2135	2262800	2263780	+
USA300HOU_2136	2263846	2263944	+
USA300HOU_2137	2264046	2265137	+
USA300HOU_2138	2265741	2265637	-
USA300HOU_2140	2267564	2266428	-
USA300HOU_2141	2267853	2267945	+
USA300HOU_2142	2268112	2268002	-
USA300HOU_2143	2269507	2268650	-
USA300HOU_2144	2270357	2269575	-
USA300HOU_2145	2272412	2270589	-
USA300HOU_2146	2273075	2274613	+
USA300HOU_2147	2274648	2276780	+
USA300HOU_2148	2276792	2277226	+
USA300HOU_2149	2277226	2278332	+
USA300HOU_2151	2287719	2286364	-
USA300HOU_2152	2288678	2287746	-
USA300HOU_2153	2289489	2288680	-
USA300HOU_2154	2290586	2289678	-
USA300HOU_2155	2290812	2292014	+
USA300HOU_2156	2292150	2292254	+
USA300HOU_2157	2299245	2298181	-
USA300HOU_2158	2300838	2299393	-
USA300HOU_2159	2301630	2301157	-
USA300HOU_2160	2303072	2301729	-
USA300HOU_2161	2303935	2303249	-
USA300HOU_2162	2305138	2303951	-
USA300HOU_2163	2305697	2305182	-
USA300HOU_2164	2305874	2306134	+
USA300HOU_2165	2306234	2306127	-
USA300HOU_2166	2307636	2306266	-
USA300HOU_2167	2308840	2307872	-
USA300HOU_2168	2309868	2308837	-
USA300HOU_2169	2310863	2309880	-
USA300HOU_2170	2312325	2311255	-
USA300HOU_2171	2314089	2312332	-
USA300HOU_2172	2315269	2314076	-
USA300HOU_2173	2315371	2317347	+
USA300HOU_2175	2319972	2319463	-
USA300HOU_2176	2320274	2320035	-
USA300HOU_2177	2320835	2320287	-
USA300HOU_2178	2322560	2320998	-
USA300HOU_2179	2323868	2322867	-
USA300HOU_2180	2325106	2324102	-
USA300HOU_2181	2326255	2325386	-
USA300HOU_2182	2327933	2326521	-
USA300HOU_2183	2329669	2327951	-
USA300HOU_2184	2329980	2329669	-
USA300HOU_2185	2330982	2330002	-
USA300HOU_2186	2331918	2330986	-
USA300HOU_2187	2332446	2331931	-
USA300HOU_2188	2332890	2332462	-
USA300HOU_2189	2334049	2333258	-
USA300HOU_2190	2334255	2334995	+
USA300HOU_2192	2336280	2336155	-
USA300HOU_2193	2337348	2336500	-
USA300HOU_2194	2337433	2337335	-
USA300HOU_2195	2337834	2337418	-
USA300HOU_2196	2338078	2338245	+
USA300HOU_2197	2338236	2340665	+
USA300HOU_2198	2341579	2340725	-
USA300HOU_2199	2342611	2341790	-
USA300HOU_2200	2342899	2343324	+
USA300HOU_2201	2344392	2343688	-
USA300HOU_2202	2346093	2344429	-
USA300HOU_2203	2346341	2346565	+
USA300HOU_2204	2348689	2347283	-
USA300HOU_2205	2349954	2348818	-
USA300HOU_2206	2350746	2349955	-
USA300HOU_2207	2352146	2351049	-
USA300HOU_2208	2353089	2352691	-
USA300HOU_2209	2353540	2353103	-
USA300HOU_2210	2354583	2353780	-
USA300HOU_2211	2355394	2354588	-
USA300HOU_2212	2356244	2355384	-
USA300HOU_2213	2357050	2356241	-
USA300HOU_2214	2357956	2357588	-
USA300HOU_2215	2358917	2357973	-
USA300HOU_2216	2359381	2358992	-
USA300HOU_2217	2359770	2359405	-
USA300HOU_2218	2359906	2359793	-
USA300HOU_2219	2360156	2359938	-
USA300HOU_2220	2360996	2360349	-
USA300HOU_2221	2362305	2361013	-
USA300HOU_2222	2362745	2362305	-
USA300HOU_2223	2362941	2362762	-
USA300HOU_2224	2363458	2362958	-
USA300HOU_2225	2363838	2363479	-
USA300HOU_2226	2364405	2363869	-
USA300HOU_2227	2364828	2364430	-
USA300HOU_2228	2365045	2364860	-
USA300HOU_2229	2365607	2365068	-
USA300HOU_2230	2365951	2365634	-
USA300HOU_2231	2366355	2365987	-
USA300HOU_2232	2366650	2366387	-
USA300HOU_2233	2366883	2366674	-
USA300HOU_2234	2373775	2372441	-
USA300HOU_2235	2376023	2373888	-
USA300HOU_2236	2376144	2376049	-
USA300HOU_2237	2376120	2377097	+
USA300HOU_2238	2377278	2378141	+
USA300HOU_2239	2378389	2378258	-
USA300HOU_2240	2379486	2378560	-
USA300HOU_2241	2379601	2379765	+
USA300HOU_2242	2380010	2380327	+
USA300HOU_2243	2383681	2380514	-
USA300HOU_2244	2385063	2383798	-
USA300HOU_2245	2386459	2385695	-
USA300HOU_2246	2386621	2387061	+
USA300HOU_2247	2387054	2388265	+
USA300HOU_2248	2388717	2388367	-
USA300HOU_2249	2388843	2389013	+
USA300HOU_2250	2390430	2389408	-
USA300HOU_2251	2391049	2390450	-
USA300HOU_2252	2391289	2391056	-
USA300HOU_2253	2391741	2391295	-
USA300HOU_2254	2392240	2391755	-
USA300HOU_2255	2393496	2392237	-
USA300HOU_2256	2393559	2394053	+
USA300HOU_2257	2394561	2394055	-
USA300HOU_2258	2395596	2394592	-
USA300HOU_2259	2396371	2395766	-
USA300HOU_2260	2397043	2396372	-
USA300HOU_2261	2397839	2397057	-
USA300HOU_2262	2398129	2398926	+
USA300HOU_2263	2399868	2399098	-
USA300HOU_2264	2400494	2399940	-
USA300HOU_2265	2401556	2400615	-
USA300HOU_2266	2402863	2401955	-
USA300HOU_2267	2404231	2403077	-
USA300HOU_2268	2405362	2404448	-
USA300HOU_2269	2405613	2405915	+
USA300HOU_2270	2405929	2406339	+
USA300HOU_2271	2406336	2408051	+
USA300HOU_2272	2408064	2408516	+
USA300HOU_2273	2408509	2409198	+
USA300HOU_2274	2409211	2409825	+
USA300HOU_2275	2409825	2410661	+
USA300HOU_2276	2411197	2410850	-
USA300HOU_2277	2411951	2411625	-
USA300HOU_2278	2412758	2412015	-
USA300HOU_2279	2414739	2412784	-
USA300HOU_2280	2415349	2416152	+
USA300HOU_2281	2416411	2416169	-
USA300HOU_2282	2417985	2416585	-
USA300HOU_2283	2419162	2418080	-
USA300HOU_2284	2419410	2419832	+
USA300HOU_2285	2420069	2420569	+
USA300HOU_2286	2420931	2421884	+
USA300HOU_2287	2423100	2421976	-
USA300HOU_2288	2424187	2423411	-
USA300HOU_2289	2424442	2424209	-
USA300HOU_2290	2425143	2424670	-
USA300HOU_2291	2428097	2425143	-
USA300HOU_2292	2429655	2428699	-
USA300HOU_2293	2430576	2429779	-
USA300HOU_2294	2430961	2431653	+
USA300HOU_2296	2433037	2432300	-
USA300HOU_2297	2433086	2433415	+
USA300HOU_2298	2433860	2434732	+
USA300HOU_2299	2436498	2435119	-
USA300HOU_2300	2436778	2437134	+
USA300HOU_2301	2439241	2438324	-
USA300HOU_2302	2439509	2440039	+
USA300HOU_2303	2441709	2440105	-
USA300HOU_2304	2442039	2442803	+
USA300HOU_2305	2443367	2442861	-
USA300HOU_2306	2444913	2443534	-
USA300HOU_2307	2445641	2445072	-
USA300HOU_2308	2447009	2446128	-
USA300HOU_2309	2448241	2447120	-
USA300HOU_2310	2449756	2448518	-
USA300HOU_2311	2451417	2449756	-
USA300HOU_2312	2451577	2452461	+
USA300HOU_2313	2452583	2453002	+
USA300HOU_2314	2454193	2453258	-
USA300HOU_2315	2454483	2455742	+
USA300HOU_2316	2456494	2455808	-
USA300HOU_2317	2456668	2457321	+
USA300HOU_2318	2457564	2457451	-
USA300HOU_2319	2458576	2457557	-
USA300HOU_2320	2458932	2458606	-
USA300HOU_2321	2459166	2458981	-
USA300HOU_2322	2460382	2459150	-
USA300HOU_2323	2461274	2460375	-
USA300HOU_2324	2462176	2461505	-
USA300HOU_2325	2462551	2463159	+
USA300HOU_2326	2463496	2464704	+
USA300HOU_2327	2465801	2464752	-
USA300HOU_2328	2466779	2465832	-
USA300HOU_2329	2466876	2467367	+
USA300HOU_2330	2467364	2467783	+
USA300HOU_2331	2468811	2467891	-
USA300HOU_2332	2469019	2469657	+
USA300HOU_2333	2471834	2469903	-
USA300HOU_2334	2472494	2471847	-
USA300HOU_2335	2472493	2472618	+
USA300HOU_2336	2472615	2473166	+
USA300HOU_2337	2474604	2473396	-
USA300HOU_2338	2476255	2474873	-
USA300HOU_2339	2476950	2476495	-
USA300HOU_2340	2477145	2478113	+
USA300HOU_2342	2479849	2479184	-
USA300HOU_2343	2480904	2479849	-
USA300HOU_2344	2481040	2481714	+
USA300HOU_2345	2481707	2483080	+
USA300HOU_2346	2483243	2483686	+
USA300HOU_2347	2483683	2484138	+
USA300HOU_2348	2485739	2484204	-
USA300HOU_2349	2487661	2486063	-
USA300HOU_2350	2487978	2489651	+
USA300HOU_2351	2490433	2489804	-
USA300HOU_2352	2491262	2490747	-
USA300HOU_2353	2491453	2492457	+
USA300HOU_2354	2492904	2492503	-
USA300HOU_2355	2493974	2492940	-
USA300HOU_2356	2494101	2493985	-
USA300HOU_2357	2494637	2494206	-
USA300HOU_2358	2494689	2494781	+
USA300HOU_2359	2496121	2494844	-
USA300HOU_2360	2496282	2496905	+
USA300HOU_2361	2496951	2497895	+
USA300HOU_2362	2499423	2497981	-
USA300HOU_2363	2499606	2499989	+
USA300HOU_2364	2501477	2503582	+
USA300HOU_2365	2504340	2504696	+
USA300HOU_2366	2506377	2505100	-
USA300HOU_2367	2506924	2506559	-
USA300HOU_2368	2507322	2507768	+
USA300HOU_2369	2509688	2508519	-
USA300HOU_2370	2509759	2509878	+
USA300HOU_2372	2510951	2511691	+
USA300HOU_2373	2512602	2511949	-
USA300HOU_2374	2513659	2512625	-
USA300HOU_2375	2514135	2513683	-
USA300HOU_2376	2514832	2514155	-
USA300HOU_2377	2515415	2514825	-
USA300HOU_2378	2516952	2515393	-
USA300HOU_2379	2520631	2516942	-
USA300HOU_2380	2521917	2520940	-
USA300HOU_2381	2522222	2521908	-
USA300HOU_2382	2524631	2522226	-
USA300HOU_2383	2525428	2524697	-
USA300HOU_2384	2526194	2525658	-
USA300HOU_2385	2527134	2526427	-
USA300HOU_2386	2529937	2528387	-
USA300HOU_2387	2530498	2530232	-
USA300HOU_2388	2530749	2530498	-
USA300HOU_2389	2531015	2530914	-
USA300HOU_2390	2531621	2531022	-
USA300HOU_2391	2532008	2531640	-
USA300HOU_2392	2532254	2533504	+
USA300HOU_2393	2534332	2533601	-
USA300HOU_2394	2535057	2534329	-
USA300HOU_2395	2535808	2535029	-
USA300HOU_2396	2537368	2535929	-
USA300HOU_2397	2537542	2537646	+
USA300HOU_2398	2538486	2537800	-
USA300HOU_2399	2539679	2538813	-
USA300HOU_2400	2540336	2540232	-
USA300HOU_2401	2540431	2541741	+
USA300HOU_2402	2542241	2543206	+
USA300HOU_2403	2543270	2543395	+
USA300HOU_2404	2543773	2544720	+
USA300HOU_2405	2544722	2545699	+
USA300HOU_2406	2546218	2545751	-
USA300HOU_2407	2546906	2546229	-
USA300HOU_2408	2548047	2546932	-
USA300HOU_2409	2549032	2548025	-
USA300HOU_2410	2550392	2549034	-
USA300HOU_2411	2551056	2550370	-
USA300HOU_2412	2553241	2551508	-
USA300HOU_2413	2555029	2553266	-
USA300HOU_2414	2555630	2555523	-
USA300HOU_2415	2555764	2555657	-
USA300HOU_2416	2556284	2555898	-
USA300HOU_2417	2556440	2556381	-
USA300HOU_2418	2556552	2557694	+
USA300HOU_2419	2557754	2558413	+
USA300HOU_2420	2558595	2559806	+
USA300HOU_2421	2560402	2559929	-
USA300HOU_2422	2560515	2561171	+
USA300HOU_2423	2562040	2561234	-
USA300HOU_2424	2562326	2563735	+
USA300HOU_2425	2563873	2565951	+
USA300HOU_2426	2566131	2566030	-
USA300HOU_2427	2567920	2566091	-
USA300HOU_2428	2568118	2568014	-
USA300HOU_2429	2568152	2569648	+
USA300HOU_2430	2570591	2569740	-
USA300HOU_2431	2570747	2570944	+
USA300HOU_2432	2571848	2570913	-
USA300HOU_2433	2573474	2572074	-
USA300HOU_2434	2574463	2573768	-
USA300HOU_2435	2575404	2574463	-
USA300HOU_2436	2576056	2575421	-
USA300HOU_2437	2577279	2576053	-
USA300HOU_2438	2577725	2577606	-
USA300HOU_2439	2578548	2577949	-
USA300HOU_2440	2578728	2580365	+
USA300HOU_2441	2580973	2582325	+
USA300HOU_2442	2583565	2582387	-
USA300HOU_2443	2584746	2583970	-
USA300HOU_2444	2585401	2584739	-
USA300HOU_2445	2586725	2585649	-
USA300HOU_2446	2587346	2587080	-
USA300HOU_2447	2587603	2587346	-
USA300HOU_2448	2587903	2587709	-
USA300HOU_2449	2587962	2588417	+
USA300HOU_2450	2590162	2588585	-
USA300HOU_2451	2590199	2590291	+
USA300HOU_2452	2590357	2591106	+
USA300HOU_2453	2592523	2591330	-
USA300HOU_2454	2593284	2592535	-
USA300HOU_2455	2594092	2593277	-
USA300HOU_2456	2594958	2594089	-
USA300HOU_2457	2595890	2594955	-
USA300HOU_2458	2597501	2595903	-
USA300HOU_2459	2598945	2597644	-
USA300HOU_2460	2599756	2598938	-
USA300HOU_2461	2600588	2599767	-
USA300HOU_2462	2601820	2601455	-
USA300HOU_2464	2603134	2604672	+
USA300HOU_2465	2605206	2604784	-
USA300HOU_2466	2606077	2605658	-
USA300HOU_2467	2606514	2606095	-
USA300HOU_2468	2606468	2606689	+
USA300HOU_2469	2607203	2606781	-
USA300HOU_2470	2608149	2607454	-
USA300HOU_2471	2609170	2608979	-
USA300HOU_2472	2609605	2609727	+
USA300HOU_2473	2610525	2609731	-
USA300HOU_2474	2611348	2611061	-
USA300HOU_2475	2611677	2611351	-
USA300HOU_2478	2614670	2613894	-
USA300HOU_2479	2614770	2614865	+
USA300HOU_2480	2617834	2614973	-
USA300HOU_2481	2618228	2617836	-
USA300HOU_2482	2618345	2620153	+
USA300HOU_2483	2620437	2620703	+
USA300HOU_2484	2620847	2621155	+
USA300HOU_2485	2622670	2621477	-
USA300HOU_2487	2627065	2626706	-
USA300HOU_2488	2627387	2628130	+
USA300HOU_2489	2629207	2628341	-
USA300HOU_2490	2632209	2629387	-
USA300HOU_2491	2635947	2632891	-
USA300HOU_2492	2637774	2636416	-
USA300HOU_2493	2639444	2637891	-
USA300HOU_2494	2640148	2639468	-
USA300HOU_2495	2641066	2640302	-
USA300HOU_2496	2641923	2641231	-
USA300HOU_2497	2642642	2642154	-
USA300HOU_2498	2644532	2642709	-
USA300HOU_2499	2646287	2645010	-
USA300HOU_2500	2646834	2647445	+
USA300HOU_2501	2648705	2647542	-
USA300HOU_2502	2649162	2648698	-
USA300HOU_2503	2649590	2650285	+
USA300HOU_2504	2650287	2651057	+
USA300HOU_2505	2651430	2653394	+
USA300HOU_2506	2653467	2653619	+
USA300HOU_2507	2653738	2654817	+
USA300HOU_2508	2655515	2654922	-
USA300HOU_2509	2656505	2655537	-
USA300HOU_2510	2657017	2656583	-
USA300HOU_2511	2657699	2658505	+
USA300HOU_2512	2659287	2658625	-
USA300HOU_2513	2659566	2660558	+
USA300HOU_2514	2661607	2660807	-
USA300HOU_2515	2661928	2662563	+
USA300HOU_2516	2662569	2663300	+
USA300HOU_2517	2664080	2663460	-
USA300HOU_2518	2664274	2664765	+
USA300HOU_2519	2665243	2665434	+
USA300HOU_2520	2665533	2665435	-
USA300HOU_2521	2666451	2665552	-
USA300HOU_2522	2667145	2666465	-
USA300HOU_2523	2668191	2667148	-
USA300HOU_2524	2669101	2670063	+
USA300HOU_2525	2671113	2670145	-
USA300HOU_2526	2671590	2671246	-
USA300HOU_2527	2672042	2671632	-
USA300HOU_2528	2672107	2672208	+
USA300HOU_2529	2672422	2672354	-
USA300HOU_2530	2674521	2672422	-
USA300HOU_2531	2676528	2674789	-
USA300HOU_2532	2677264	2676575	-
USA300HOU_2533	2677652	2677257	-
USA300HOU_2534	2678752	2677865	-
USA300HOU_2535	2678910	2679128	+
USA300HOU_2536	2679517	2679948	+
USA300HOU_2537	2680614	2680480	-
USA300HOU_2538	2680965	2680708	-
USA300HOU_2539	2682821	2681544	-
USA300HOU_2540	2683075	2684241	+
USA300HOU_2541	2684932	2684411	-
USA300HOU_2542	2685341	2687446	+
USA300HOU_2543	2687694	2687515	-
USA300HOU_2544	2689692	2687698	-
USA300HOU_2545	2689931	2689704	-
USA300HOU_2546	2692636	2690147	-
USA300HOU_2547	2692781	2693329	+
USA300HOU_2548	2693573	2693406	-
USA300HOU_2549	2695229	2693685	-
USA300HOU_2550	2696018	2695419	-
USA300HOU_2551	2696248	2696448	+
USA300HOU_2552	2696688	2699096	+
USA300HOU_2553	2699387	2699593	+
USA300HOU_2554	2700711	2699683	-
USA300HOU_2555	2701858	2700704	-
USA300HOU_2556	2703793	2702285	-
USA300HOU_2557	2704668	2703805	-
USA300HOU_2558	2705841	2704705	-
USA300HOU_2559	2707331	2705838	-
USA300HOU_2560	2707821	2707324	-
USA300HOU_2561	2708754	2707987	-
USA300HOU_2562	2710926	2709115	-
USA300HOU_2563	2711925	2711437	-
USA300HOU_2564	2712902	2712201	-
USA300HOU_2565	2714565	2713510	-
USA300HOU_2566	2714942	2715544	+
USA300HOU_2567	2715742	2716242	+
USA300HOU_2568	2716462	2716692	+
USA300HOU_2569	2717219	2716842	-
USA300HOU_2570	2718057	2717236	-
USA300HOU_2571	2718376	2718077	-
USA300HOU_2572	2718507	2719064	+
USA300HOU_2573	2719057	2719761	+
USA300HOU_2574	2719859	2720869	+
USA300HOU_2575	2720889	2721719	+
USA300HOU_2576	2722756	2721866	-
USA300HOU_2577	2724194	2722854	-
USA300HOU_2578	2725294	2724188	-
USA300HOU_2579	2725924	2725628	-
USA300HOU_2580	2726280	2725912	-
USA300HOU_2581	2726573	2726295	-
USA300HOU_2582	2727781	2726915	-
USA300HOU_2583	2727999	2729063	+
USA300HOU_2584	2729218	2729493	+
USA300HOU_2585	2729643	2729530	-
USA300HOU_2586	2730401	2729679	-
USA300HOU_2587	2730755	2731204	+
USA300HOU_2588	2731872	2731285	-
USA300HOU_2589	2731948	2731850	-
USA300HOU_2590	2732005	2733687	+
USA300HOU_2591	2734187	2733816	-
USA300HOU_2592	2735052	2734201	-
USA300HOU_2593	2735863	2735045	-
USA300HOU_2594	2735936	2736796	+
USA300HOU_2595	2739510	2740958	+
USA300HOU_2596	2742412	2741039	-
USA300HOU_2597	2742497	2742402	-
USA300HOU_2598	2742634	2743050	+
USA300HOU_2599	2743173	2744063	+
USA300HOU_2600	2745752	2744256	-
USA300HOU_2601	2746081	2746377	+
USA300HOU_2602	2748035	2746437	-
USA300HOU_2603	2748672	2748229	-
USA300HOU_2604	2749165	2748953	-
USA300HOU_2605	2751152	2749443	-
USA300HOU_2606	2752903	2751413	-
USA300HOU_2607	2752972	2753067	+
USA300HOU_2608	2753153	2753719	+
USA300HOU_2609	2754593	2753907	-
USA300HOU_2610	2756479	2754857	-
USA300HOU_2611	2756611	2756772	+
USA300HOU_2612	2756898	2756788	-
USA300HOU_2613	2757534	2756998	-
USA300HOU_2614	2759381	2757531	-
USA300HOU_2615	2760998	2759628	-
USA300HOU_2616	2761415	2761320	-
USA300HOU_2617	2762096	2761491	-
USA300HOU_2618	2764039	2762159	-
USA300HOU_2619	2764931	2764434	-
USA300HOU_2620	2765739	2765626	-
USA300HOU_2621	2768355	2766355	-
USA300HOU_2622	2769107	2768352	-
USA300HOU_2623	2770102	2769215	-
USA300HOU_2624	2770778	2770113	-
USA300HOU_2625	2771004	2770804	-
USA300HOU_2626	2771202	2772626	+
USA300HOU_2627	2772787	2772686	-
USA300HOU_2628	2773364	2772909	-
USA300HOU_2629	2774370	2773609	-
USA300HOU_2630	2777185	2774486	-
USA300HOU_2631	2778239	2777535	-
USA300HOU_2632	2779306	2778338	-
USA300HOU_2633	2780732	2779296	-
USA300HOU_2634	2781827	2780817	-
USA300HOU_2635	2783095	2781860	-
USA300HOU_2636	2783891	2783442	-
USA300HOU_2637	2785787	2784258	-
USA300HOU_2638	2786738	2786211	-
USA300HOU_2639	2786981	2787454	+
USA300HOU_2640	2787694	2789568	+
USA300HOU_2641	2789645	2791597	+
USA300HOU_2642	2791611	2792549	+
USA300HOU_2643	2795642	2792661	-
USA300HOU_2644	2795853	2797712	+
USA300HOU_2645	2798539	2797979	-
USA300HOU_2646	2800620	2798707	-
USA300HOU_2647	2802214	2800856	-
USA300HOU_2648	2803715	2802207	-
USA300HOU_2649	2806123	2803733	-
USA300HOU_2650	2807072	2806113	-
USA300HOU_2651	2808621	2807050	-
USA300HOU_2652	2810161	2808608	-
USA300HOU_2653	2811383	2810172	-
USA300HOU_2654	2818328	2811513	-
USA300HOU_2655	2819565	2818873	-
USA300HOU_2656	2819831	2820259	+
USA300HOU_2657	2820243	2820548	+
USA300HOU_2658	2820702	2821061	+
USA300HOU_2659	2821757	2821146	-
USA300HOU_2660	2822312	2821836	-
USA300HOU_2661	2822815	2822315	-
USA300HOU_2662	2823817	2823050	-
USA300HOU_2663	2824506	2823814	-
USA300HOU_2664	2825185	2824523	-
USA300HOU_2665	2826593	2826033	-
USA300HOU_2666	2826757	2827995	+
USA300HOU_2667	2827959	2828264	+
USA300HOU_2668	2828261	2829133	+
USA300HOU_2669	2829120	2830172	+
USA300HOU_2670	2830521	2830363	-
USA300HOU_2671	2832664	2830619	-
USA300HOU_2672	2833594	2833382	-
USA300HOU_2673	2834386	2833754	-
USA300HOU_2674	2835141	2834383	-
USA300HOU_2675	2835842	2835138	-
USA300HOU_2676	2836413	2835835	-
USA300HOU_2677	2836988	2836410	-
USA300HOU_2678	2837970	2836957	-
USA300HOU_2679	2839242	2837986	-
USA300HOU_2680	2839843	2839229	-
USA300HOU_2681	2840679	2839861	-
USA300HOU_2682	2840870	2840977	+
USA300HOU_2683	2842108	2840984	-
USA300HOU_2684	2842723	2842226	-
USA300HOU_2685	2843603	2842770	-
USA300HOU_2686	2845312	2843600	-
USA300HOU_2687	2845919	2845365	-
USA300HOU_2688	2846796	2845948	-
USA300HOU_2689	2847176	2847691	+
USA300HOU_2690	2848811	2847840	-
USA300HOU_2691	2849055	2850011	+
USA300HOU_2692	2850163	2850801	+
USA300HOU_2693	2851687	2850920	-
USA300HOU_2694	2852015	2851677	-
USA300HOU_2695	2852182	2852646	+
USA300HOU_2696	2852884	2854302	+
USA300HOU_2697	2855623	2854715	-
USA300HOU_2698	2855848	2856423	+
USA300HOU_2699	2856588	2857604	+
USA300HOU_2700	2857764	2857669	-
USA300HOU_2701	2857847	2858641	+
USA300HOU_2702	2859287	2858775	-
USA300HOU_2703	2859570	2860328	+
USA300HOU_2704	2860318	2862198	+
USA300HOU_2705	2862291	2862482	+
USA300HOU_2706	2862494	2863030	+
USA300HOU_2707	2863587	2863090	-
USA300HOU_2708	2863666	2864016	+
USA300HOU_2709	2864045	2864236	+
USA300HOU_2710	2866180	2865785	-
USA300HOU_2711	2866601	2866248	-
USA300HOU_2712	2867893	2867054	-
USA300HOU_2713	2868655	2867936	-
USA300HOU_2714	2870532	2868655	-
USA300HOU_2715	2871978	2870599	-
USA300HOU_2716	2872470	2872117	-
USA300HOU_2717	2872728	2872591	-
