SAPIG0001	517	1878	+
SAPIG0002	2156	3289	+
SAPIG0003	3679	3915	+
SAPIG0004	3912	5024	+
SAPIG0005	5034	6968	+
SAPIG0006	7005	9674	+
SAPIG0007	10571	9759	-
SAPIG0008	10897	12411	+
SAPIG0009	12789	14075	+
SAPIG0010	14722	15417	+
SAPIG0011	15414	15743	+
SAPIG0012	16106	17074	+
SAPIG0013	17382	18305	+
SAPIG0014	18320	20287	+
SAPIG0015	20284	20730	+
SAPIG0016	20762	22162	+
SAPIG0017	22441	23724	+
SAPIG0020	25042	25749	+
SAPIG0021	25762	27588	+
SAPIG0022	27581	28915	+
SAPIG0023	28916	29704	+
SAPIG0024	30110	30892	+
SAPIG0025	31119	33440	+
SAPIG0026	33807	33670	-
SAPIG0027	33806	34285	+
SAPIG0028	34531	34836	+
SAPIG0029	35035	35898	+
SAPIG0030	36006	37481	+
SAPIG0031	37706	38806	+
SAPIG0032	38799	39170	+
SAPIG0033	39167	40810	+
SAPIG0034	40764	40880	+
SAPIG0035	41036	42712	+
SAPIG0036	43252	43563	+
SAPIG0037	43579	44085	+
SAPIG0038	44908	44234	-
SAPIG0039	45166	45333	+
SAPIG0040	46210	46953	+
SAPIG0041	47050	47478	+
SAPIG0042	49530	47524	-
SAPIG0043	49778	49921	+
SAPIG0044	50940	50512	-
SAPIG0045	51021	51950	+
SAPIG0046	52112	54100	+
SAPIG0047	54295	55404	+
SAPIG0048	55397	55765	+
SAPIG0049	55765	57381	+
SAPIG0050	57606	59285	+
SAPIG0051	59374	59712	+
SAPIG0052	59806	60117	+
SAPIG0053	60129	60602	+
SAPIG0054	61317	60643	-
SAPIG0055	61475	62002	+
SAPIG0056	62893	62279	-
SAPIG0057	62980	63255	+
SAPIG0058	63726	63367	-
SAPIG0059	64589	66514	+
SAPIG0060	68220	67660	-
SAPIG0061	68985	68239	-
SAPIG0062	70071	69004	-
SAPIG0063	70210	70470	+
SAPIG0064	70494	71225	+
SAPIG0065	71434	71604	+
SAPIG0066	71622	72167	+
SAPIG0067	72448	74238	+
SAPIG0068	74279	74932	+
SAPIG0069	75471	75118	-
SAPIG0070	76138	75635	-
SAPIG0071	76603	76247	-
SAPIG0072	77249	76659	-
SAPIG0073	78302	77256	-
SAPIG0074	80160	78292	-
SAPIG0075	81403	80165	-
SAPIG0076	81522	81406	-
SAPIG0077	84071	81576	-
SAPIG0078	84489	84106	-
SAPIG0079	84761	84501	-
SAPIG0080	85821	84766	-
SAPIG0081	86661	85882	-
SAPIG0082	86828	86658	-
SAPIG0083	87449	87147	-
SAPIG0084	87783	87463	-
SAPIG0085	88218	87934	-
SAPIG0086	88318	88812	+
SAPIG0087	89066	91270	+
SAPIG0088	91501	91725	+
SAPIG0089	91737	92735	+
SAPIG0090	92870	93514	+
SAPIG0091	93793	94416	+
SAPIG0092	94698	94832	+
SAPIG0093	95011	95142	+
SAPIG0094	95703	96362	+
SAPIG0095	96672	96412	-
SAPIG0096	97845	96874	-
SAPIG0097	98269	97898	-
SAPIG0098	99680	98289	-
SAPIG0099	99794	99997	+
SAPIG0100	100040	100372	+
SAPIG0101	100647	101222	+
SAPIG0102	101771	102166	+
SAPIG0103	103260	102274	-
SAPIG0104	103821	104117	+
SAPIG0105	105400	104180	-
SAPIG0106	105944	105393	-
SAPIG0107	106057	106917	+
SAPIG0108	107541	108143	+
SAPIG0109	109349	108435	-
SAPIG0110	109528	110082	+
SAPIG0111	110313	111044	+
SAPIG0112	111199	111681	+
SAPIG0113	111887	112873	+
SAPIG0114	113096	113860	+
SAPIG0115	113954	116191	+
SAPIG0116	116342	117520	+
SAPIG0117	117522	118910	+
SAPIG0118	121063	119396	-
SAPIG0119	123157	121382	-
SAPIG0120	123508	123981	+
SAPIG0121	124243	125835	+
SAPIG0122	127618	126164	-
SAPIG0123	128791	128039	-
SAPIG0124	130158	129160	-
SAPIG0125	131150	130155	-
SAPIG0126	132158	131166	-
SAPIG0127	132389	133369	+
SAPIG0128	133366	134376	+
SAPIG0129	134397	136151	+
SAPIG0130	136144	136596	+
SAPIG0131	136641	137387	+
SAPIG0132	137377	139113	+
SAPIG0133	139175	140872	+
SAPIG0134	140847	141623	+
SAPIG0135	141623	142825	+
SAPIG0136	142829	143593	+
SAPIG0137	143783	144217	+
SAPIG0138	144541	144419	-
SAPIG0139	144498	144893	+
SAPIG0140	145105	145881	+
SAPIG0141	146225	146632	+
SAPIG0142	146801	147196	+
SAPIG0143	147456	147848	+
SAPIG0144	148058	149224	+
SAPIG0145	149205	150443	+
SAPIG0146	150433	151863	+
SAPIG0147	152131	152730	+
SAPIG0148	153099	153824	+
SAPIG0149	154755	154015	-
SAPIG0150	155006	155713	+
SAPIG0151	155720	157072	+
SAPIG0152	157153	157815	+
SAPIG0153	157843	159021	+
SAPIG0154	159967	159152	-
SAPIG0155	160764	159964	-
SAPIG0156	161539	160766	-
SAPIG0157	162709	161753	-
SAPIG0158	162938	164482	+
SAPIG0159	164533	166068	+
SAPIG0160	166225	166992	+
SAPIG0161	166998	168173	+
SAPIG0162	168560	171169	+
SAPIG0163	171513	172181	+
SAPIG0164	172197	172883	+
SAPIG0165	172886	173650	+
SAPIG0166	173670	175493	+
SAPIG0167	175483	176511	+
SAPIG0168	176524	177633	+
SAPIG0169	177637	178761	+
SAPIG0170	178764	179390	+
SAPIG0171	179395	180504	+
SAPIG0172	180518	181684	+
SAPIG0173	181677	182882	+
SAPIG0174	183279	184088	+
SAPIG0175	184099	184656	+
SAPIG0176	184656	185543	+
SAPIG0177	185597	186859	+
SAPIG0178	186936	188081	+
SAPIG0179	188471	188145	-
SAPIG0180	188861	188478	-
SAPIG0181	189288	190775	+
SAPIG0182	190902	191021	+
SAPIG0183	191421	192380	+
SAPIG0184	192645	192442	-
SAPIG0185	192825	193337	+
SAPIG0186	193679	194419	+
SAPIG0187	194433	195407	+
SAPIG0188	195404	196165	+
SAPIG0189	196175	197209	+
SAPIG0190	197525	197785	+
SAPIG0191	197958	198983	+
SAPIG0192	199368	200618	+
SAPIG0193	201047	208240	+
SAPIG0194	208253	208897	+
SAPIG0195	209720	209226	-
SAPIG0196	210759	209989	-
SAPIG0197	210933	210775	-
SAPIG0198	212015	210960	-
SAPIG0199	213061	212027	-
SAPIG0200	214281	213097	-
SAPIG0201	215607	214630	-
SAPIG0202	215790	216404	+
SAPIG0203	217872	216517	-
SAPIG0204	218648	218151	-
SAPIG0205	220415	218775	-
SAPIG0206	220540	220680	+
SAPIG0207	222732	220687	-
SAPIG0208	223317	224372	+
SAPIG0209	224372	225268	+
SAPIG0210	225280	226734	+
SAPIG0211	226737	227612	+
SAPIG0212	227836	228690	+
SAPIG0213	228868	231657	+
SAPIG0214	231857	232720	+
SAPIG0215	234518	232926	-
SAPIG0216	234691	235953	+
SAPIG0217	235959	237122	+
SAPIG0218	237139	238914	+
SAPIG0219	238952	240958	+
SAPIG0220	242044	241271	-
SAPIG0221	242860	242234	-
SAPIG0222	243069	243647	+
SAPIG0223	244032	245129	+
SAPIG0224	245142	246413	+
SAPIG0225	246416	247684	+
SAPIG0226	247686	248525	+
SAPIG0227	248794	249873	+
SAPIG0228	249898	250938	+
SAPIG0229	250993	251961	+
SAPIG0230	252813	252319	-
SAPIG0231	253046	254425	+
SAPIG0232	255543	254785	-
SAPIG0233	257092	255536	-
SAPIG0234	258057	257089	-
SAPIG0235	258645	260894	+
SAPIG0236	260917	261672	+
SAPIG0237	261776	261889	+
SAPIG0238	261994	263757	+
SAPIG0239	264265	263921	-
SAPIG0240	264455	266470	+
SAPIG0241	268241	267057	-
SAPIG0242	270532	268271	-
SAPIG0243	271929	270718	-
SAPIG0244	273546	272041	-
SAPIG0245	275134	273572	-
SAPIG0246	275508	276179	+
SAPIG0247	276317	277546	+
SAPIG0248	279337	277862	-
SAPIG0249	279890	279636	-
SAPIG0250	280220	280047	-
SAPIG0251	281390	280245	-
SAPIG0252	281963	282916	+
SAPIG0253	283210	283085	-
SAPIG0254	284766	283237	-
SAPIG0255	285128	286063	+
SAPIG0256	286401	288497	+
SAPIG0257	288482	288949	+
SAPIG0258	288972	289250	+
SAPIG0259	289477	290736	+
SAPIG0260	290754	291809	+
SAPIG0261	291811	291957	+
SAPIG0262	291981	293024	+
SAPIG0263	293552	294268	+
SAPIG0264	294261	295286	+
SAPIG0265	295308	297002	+
SAPIG0266	297601	297464	-
SAPIG0267	297788	298957	+
SAPIG0268	299233	299949	+
SAPIG0269	299942	300967	+
SAPIG0270	300989	302677	+
SAPIG0271	302710	304431	+
SAPIG0272	304575	305249	+
SAPIG0273	305496	307250	+
SAPIG0274	307253	307993	+
SAPIG0275	308112	308549	+
SAPIG0276	308542	309243	+
SAPIG0277	309584	311875	+
SAPIG0278	312805	312101	-
SAPIG0279	312954	313745	+
SAPIG0280	313761	315197	+
SAPIG0281	315325	315513	+
SAPIG0282	316534	315773	-
SAPIG0283	317700	316786	-
SAPIG0284	318132	317728	-
SAPIG0285	319028	318147	-
SAPIG0286	320258	319260	-
SAPIG0287	320476	320589	+
SAPIG0288	320639	321031	+
SAPIG0289	322536	321160	-
SAPIG0290	322770	323762	+
SAPIG0291	324088	325038	+
SAPIG0292	325749	325090	-
SAPIG0293	326683	325763	-
SAPIG0294	327846	326680	-
SAPIG0295	329437	327914	-
SAPIG0296	330661	329768	-
SAPIG0297	330909	331202	+
SAPIG0298	331285	334314	+
SAPIG0299	334314	334772	+
SAPIG0300	334744	334986	+
SAPIG0301	334999	336333	+
SAPIG0302	336355	340800	+
SAPIG0303	340812	341108	+
SAPIG0304	341197	341520	+
SAPIG0305	341546	343099	+
SAPIG0306	343113	343799	+
SAPIG0307	343920	344369	+
SAPIG0308	344366	344815	+
SAPIG0309	344825	345436	+
SAPIG0310	345633	346133	+
SAPIG0311	346144	346635	+
SAPIG0312	346844	347527	+
SAPIG0313	347890	348108	+
SAPIG0314	348216	348377	+
SAPIG0315	348455	348703	+
SAPIG0316	349326	349700	+
SAPIG0317	349850	350248	+
SAPIG0318	351288	350464	-
SAPIG0319	352729	351524	-
SAPIG0320	353418	354308	+
SAPIG0321	354557	355606	+
SAPIG0322	355619	356296	+
SAPIG0323	356504	357535	+
SAPIG0324	357878	358996	+
SAPIG0325	358971	359894	+
SAPIG0326	359905	361125	+
SAPIG0327	362763	361231	-
SAPIG0328	363684	362803	-
SAPIG0329	363842	364702	+
SAPIG0330	365779	364979	-
SAPIG0331	365919	366587	+
SAPIG0332	368030	366717	-
SAPIG0333	368447	370384	+
SAPIG0334	371680	370475	-
SAPIG0336	371791	372405	+
SAPIG0335	372527	372402	-
SAPIG0337	373362	372778	-
SAPIG0338	373841	373380	-
SAPIG0339	374168	373854	-
SAPIG0340	374320	374556	+
SAPIG0341	374570	375346	+
SAPIG0343	375374	375517	+
SAPIG0342	375716	375507	-
SAPIG0344	376351	375986	-
SAPIG0345	376406	376552	+
SAPIG0346	376645	376908	+
SAPIG0347	377161	377484	+
SAPIG0348	377499	377861	+
SAPIG0349	377858	379024	+
SAPIG0350	379050	379607	+
SAPIG0351	379667	381628	+
SAPIG0352	381825	382226	+
SAPIG0353	382226	382480	+
SAPIG0354	382486	382728	+
SAPIG0355	382742	382948	+
SAPIG0356	382951	383358	+
SAPIG0357	383358	383549	+
SAPIG0358	383546	383983	+
SAPIG0359	383980	384345	+
SAPIG0360	384338	384586	+
SAPIG0361	384579	385115	+
SAPIG0362	385152	385358	+
SAPIG0363	385355	385741	+
SAPIG0364	385738	385890	+
SAPIG0365	385958	386158	+
SAPIG0366	386446	388893	+
SAPIG0367	389039	388917	-
SAPIG0368	389234	389524	+
SAPIG0369	389514	390872	+
SAPIG0370	390885	391322	+
SAPIG0371	391479	391793	+
SAPIG0372	391921	392226	+
SAPIG0373	392216	393907	+
SAPIG0374	393912	395150	+
SAPIG0375	395134	395907	+
SAPIG0376	395919	397082	+
SAPIG0377	397151	397429	+
SAPIG0378	397441	397773	+
SAPIG0379	397770	398171	+
SAPIG0380	398172	398567	+
SAPIG0381	398602	399243	+
SAPIG0382	399335	399790	+
SAPIG0383	399848	400198	+
SAPIG0384	400240	400398	+
SAPIG0385	400412	401818	+
SAPIG0386	401953	406611	+
SAPIG0387	406611	407435	+
SAPIG0388	407444	409027	+
SAPIG0389	409027	409317	+
SAPIG0390	409333	411243	+
SAPIG0391	411243	412709	+
SAPIG0392	412709	413098	+
SAPIG0393	413091	413255	+
SAPIG0394	413301	413600	+
SAPIG0395	413736	414038	+
SAPIG0396	414050	415504	+
SAPIG0397	416193	416372	+
SAPIG0398	416394	416921	+
SAPIG0399	416911	417309	+
SAPIG0400	417576	417698	+
SAPIG0401	418767	417940	-
SAPIG0402	420039	418825	-
SAPIG0403	420341	421342	+
SAPIG0404	421376	421708	+
SAPIG0405	421709	422509	+
SAPIG0406	422496	422924	+
SAPIG0407	423000	423443	+
SAPIG0408	423421	424443	+
SAPIG0409	424757	425782	+
SAPIG0410	427222	425879	-
SAPIG0411	427521	427237	-
SAPIG0412	427966	427523	-
SAPIG0413	429926	427971	-
SAPIG0414	430138	430557	+
SAPIG0415	430664	432019	+
SAPIG0416	432122	432562	+
SAPIG0417	434003	432645	-
SAPIG0418	434315	435241	+
SAPIG0419	435255	436316	+
SAPIG0420	436330	436896	+
SAPIG0421	437951	436956	-
SAPIG0422	437950	438291	+
SAPIG0423	438371	438916	+
SAPIG0424	439181	440035	+
SAPIG0425	440032	441261	+
SAPIG0426	441242	442954	+
SAPIG0427	444154	443939	-
SAPIG0428	444652	444263	-
SAPIG0429	444893	445096	+
SAPIG0430	445093	445806	+
SAPIG0431	445831	446673	+
SAPIG0432	446673	447302	+
SAPIG0433	448804	447671	-
SAPIG0434	449343	450524	+
SAPIG0435	451359	450607	-
SAPIG0436	453630	451402	-
SAPIG0437	455468	453627	-
SAPIG0438	456597	455437	-
SAPIG0439	457697	456594	-
SAPIG0440	458370	459206	+
SAPIG0441	459360	460241	+
SAPIG0442	460271	460474	+
SAPIG0443	460486	461583	+
SAPIG0444	461860	461669	-
SAPIG0445	462104	462400	+
SAPIG0446	462421	462924	+
SAPIG0447	462976	463218	+
SAPIG0448	464177	464344	+
SAPIG0449	464710	465078	+
SAPIG0450	465258	465830	+
SAPIG0451	466231	465968	-
SAPIG0452	466525	466776	+
SAPIG0453	467204	467785	+
SAPIG0454	468224	467841	-
SAPIG0455	469120	468494	-
SAPIG0456	470814	469192	-
SAPIG0457	472452	470929	-
SAPIG0458	473037	472468	-
SAPIG0459	473379	473498	+
SAPIG0460	473529	474284	+
SAPIG0461	475752	474364	-
SAPIG0462	477702	476746	-
SAPIG0463	478482	477820	-
SAPIG0464	479032	478625	-
SAPIG0465	479545	480123	+
SAPIG0466	480123	481391	+
SAPIG0467	481429	482895	+
SAPIG0468	482920	484461	+
SAPIG0469	485691	484555	-
SAPIG0470	486560	485775	-
SAPIG0471	486677	486904	+
SAPIG0472	486950	487210	+
SAPIG0473	487257	487403	+
SAPIG0474	487396	487620	+
SAPIG0475	487621	487920	+
SAPIG0476	488011	490374	+
SAPIG0477	490796	491140	+
SAPIG0478	491365	491571	+
SAPIG0479	491558	492616	+
SAPIG0480	492782	493273	+
SAPIG0481	493614	494603	+
SAPIG0482	494760	495110	+
SAPIG0483	495369	496868	+
SAPIG0484	498615	498079	-
SAPIG0485	499712	499008	-
SAPIG0486	500383	500111	-
SAPIG0487	500796	500644	-
SAPIG0488	501682	501323	-
SAPIG0489	502546	501701	-
SAPIG0490	503018	503698	+
SAPIG0491	503982	504683	+
SAPIG0492	504970	506001	+
SAPIG0493	506348	507301	+
SAPIG0494	507448	507573	+
SAPIG0495	507662	508366	+
SAPIG0496	508813	509508	+
SAPIG0497	509849	510547	+
SAPIG0498	510914	511597	+
SAPIG0499	511859	513415	+
SAPIG0500	513408	514586	+
SAPIG0501	514988	515668	+
SAPIG0502	515690	517177	+
SAPIG0503	517595	517287	-
SAPIG0504	517932	518744	+
SAPIG0505	518846	519574	+
SAPIG0506	519622	520407	+
SAPIG0507	520435	521214	+
SAPIG0508	521314	521493	+
SAPIG0509	521572	522075	+
SAPIG0510	522133	522537	+
SAPIG0511	522602	522889	+
SAPIG0512	523133	523870	+
SAPIG0513	523860	525185	+
SAPIG0514	525182	525505	+
SAPIG0515	525524	525838	+
SAPIG0516	526355	526161	-
SAPIG0517	526553	527755	+
SAPIG0518	529343	530827	+
SAPIG0519	530840	533545	+
SAPIG0520	533707	534069	+
SAPIG0521	534715	534299	-
SAPIG0522	534753	535427	+
SAPIG0523	535464	536198	+
SAPIG0524	536568	537908	+
SAPIG0525	538125	539030	+
SAPIG0526	539023	540165	+
SAPIG0527	540427	541455	+
SAPIG0528	541459	542118	+
SAPIG0529	542155	542997	+
SAPIG0530	543330	544334	+
SAPIG0531	544790	544521	-
SAPIG0532	544940	545335	+
SAPIG0533	545325	545810	+
SAPIG0534	546759	545977	-
SAPIG0535	547868	546756	-
SAPIG0536	548873	547989	-
SAPIG0537	549054	553553	+
SAPIG0538	553571	555034	+
SAPIG0540	555868	557295	+
SAPIG0541	557359	558999	+
SAPIG0542	559024	559752	+
SAPIG0543	560393	560917	+
SAPIG0544	560986	562683	+
SAPIG0545	562773	563090	+
SAPIG0546	563097	563693	+
SAPIG0547	570156	571493	+
SAPIG0548	571495	572112	+
SAPIG0549	572140	572469	+
SAPIG0550	572683	573609	+
SAPIG0551	573610	574413	+
SAPIG0552	574430	574777	+
SAPIG0553	575051	575776	+
SAPIG0554	575769	576017	+
SAPIG0555	576019	576858	+
SAPIG0556	577143	579116	+
SAPIG0557	579147	579920	+
SAPIG0558	580087	580623	+
SAPIG0559	580634	581527	+
SAPIG0560	581627	581890	+
SAPIG0561	582201	583049	+
SAPIG0562	583096	583887	+
SAPIG0563	583904	584284	+
SAPIG0564	584356	584658	+
SAPIG0565	585000	586352	+
SAPIG0566	586499	587464	+
SAPIG0567	587614	588267	+
SAPIG0568	588578	589150	+
SAPIG0569	589150	592656	+
SAPIG0570	592646	594172	+
SAPIG0571	594172	595365	+
SAPIG0572	595362	595625	+
SAPIG0573	595643	596035	+
SAPIG0574	596140	596541	+
SAPIG0575	596721	598016	+
SAPIG0576	598021	598560	+
SAPIG0577	598818	600911	+
SAPIG0578	601140	602021	+
SAPIG0579	602200	603132	+
SAPIG0580	603348	604151	+
SAPIG0581	604129	604494	+
SAPIG0582	604491	604967	+
SAPIG0583	605507	606994	+
SAPIG0593	620274	618892	-
SAPIG0594	620378	621265	+
SAPIG0595	621269	621829	+
SAPIG0596	623249	622035	-
SAPIG0597	623407	623868	+
SAPIG0598	623887	624453	+
SAPIG0599	624443	625450	+
SAPIG0600	625464	627920	+
SAPIG0601	628404	629768	+
SAPIG0602	629793	630866	+
SAPIG0603	631423	632877	+
SAPIG0604	633307	633948	+
SAPIG0605	633932	635332	+
SAPIG0606	635325	635729	+
SAPIG0607	635737	636483	+
SAPIG0608	636483	637007	+
SAPIG0609	637089	637658	+
SAPIG0610	637972	638154	+
SAPIG0611	638167	638715	+
SAPIG0612	638896	639318	+
SAPIG0613	639526	640218	+
SAPIG0614	640490	640990	+
SAPIG0615	641033	641401	+
SAPIG0616	641576	642184	+
SAPIG0617	642399	645950	+
SAPIG0618	646087	649710	+
SAPIG0619	649847	650101	+
SAPIG0620	650199	650612	+
SAPIG0621	650678	651148	+
SAPIG0622	651271	653352	+
SAPIG0623	653569	654753	+
SAPIG0624	656210	655035	-
SAPIG0625	656381	657568	+
SAPIG0626	657837	658715	+
SAPIG0627	658870	660510	+
SAPIG0628	660724	661689	+
SAPIG0629	662025	663101	+
SAPIG0630	663347	664030	+
SAPIG0631	664808	664146	-
SAPIG0632	665418	664801	-
SAPIG0633	665485	665955	+
SAPIG0634	666102	666971	+
SAPIG0635	666991	667557	+
SAPIG0636	667990	670386	+
SAPIG0637	670748	674878	+
SAPIG0638	674997	676469	+
SAPIG0639	677519	676572	-
SAPIG0640	679147	677657	-
SAPIG0641	680307	679429	-
SAPIG0642	680985	680320	-
SAPIG0643	681358	680999	-
SAPIG0644	681638	682396	+
SAPIG0645	682473	683105	+
SAPIG0646	683107	683655	+
SAPIG0647	683768	684415	+
SAPIG0648	684918	686318	+
SAPIG0649	686863	688239	+
SAPIG0650	688241	689380	+
SAPIG0651	689355	689720	+
SAPIG0652	689723	689992	+
SAPIG0653	690360	690193	-
SAPIG0654	691724	690894	-
SAPIG0655	691908	692564	+
SAPIG0656	692565	692945	+
SAPIG0657	693078	693446	+
SAPIG0658	693567	695051	+
SAPIG0659	695645	695193	-
SAPIG0660	696422	695658	-
SAPIG0661	697723	696971	-
SAPIG0662	697891	698877	+
SAPIG0663	698880	699716	+
SAPIG0664	700303	701223	+
SAPIG0665	701228	702211	+
SAPIG0666	702224	703300	+
SAPIG0667	703477	703818	+
SAPIG0668	705192	703870	-
SAPIG0669	705619	705179	-
SAPIG0670	706244	707650	+
SAPIG0671	707654	708271	+
SAPIG0672	708346	708888	+
SAPIG0673	709213	709836	+
SAPIG0674	709976	710608	+
SAPIG0675	710655	711173	+
SAPIG0676	711738	712367	+
SAPIG0677	712491	713132	+
SAPIG0678	713241	713804	+
SAPIG0679	713770	714015	+
SAPIG0680	714039	714665	+
SAPIG0681	714935	715873	+
SAPIG0682	716319	716855	+
SAPIG0683	717025	717501	+
SAPIG0684	717541	718836	+
SAPIG0685	718879	719385	+
SAPIG0686	719883	720893	+
SAPIG0687	721169	721585	+
SAPIG0688	721582	723243	+
SAPIG0689	723584	724219	+
SAPIG0690	724549	725436	+
SAPIG0691	725551	726537	+
SAPIG0692	726592	727311	+
SAPIG0693	727295	728095	+
SAPIG0694	728231	728737	+
SAPIG0695	728899	729615	+
SAPIG0696	729784	730572	+
SAPIG0697	731198	730824	-
SAPIG0698	733039	732146	-
SAPIG0699	733492	733268	-
SAPIG0700	733712	733509	-
SAPIG0701	733867	734427	+
SAPIG0702	734446	736848	+
SAPIG0703	736835	737260	+
SAPIG0704	737257	737601	+
SAPIG0705	737591	739087	+
SAPIG0706	739088	739570	+
SAPIG0707	739567	739869	+
SAPIG0708	739844	740281	+
SAPIG0709	740620	742662	+
SAPIG0710	744683	743754	-
SAPIG0711	745516	744680	-
SAPIG0712	746253	745510	-
SAPIG0713	746375	747019	+
SAPIG0714	747851	747099	-
SAPIG0715	748087	748851	+
SAPIG0716	749705	748911	-
SAPIG0717	750052	750864	+
SAPIG0718	751017	752066	+
SAPIG0719	752297	753124	+
SAPIG0720	753187	753585	+
SAPIG0721	754997	753702	-
SAPIG0722	755418	757145	+
SAPIG0723	757504	758733	+
SAPIG0724	759258	760091	+
SAPIG0725	760373	761170	+
SAPIG0726	761206	762210	+
SAPIG0727	762207	763223	+
SAPIG0728	763457	764425	+
SAPIG0729	764467	765051	+
SAPIG0730	765087	765407	+
SAPIG0731	765523	766020	+
SAPIG0732	766476	767543	+
SAPIG0733	767694	768737	+
SAPIG0734	769067	769495	+
SAPIG0735	770209	769703	-
SAPIG0736	770322	771245	+
SAPIG0737	771261	771935	+
SAPIG0738	772009	772968	+
SAPIG0739	773115	773876	+
SAPIG0740	773866	775755	+
SAPIG0741	776371	776988	+
SAPIG0742	777004	778011	+
SAPIG0743	779390	778593	-
SAPIG0744	779751	780395	+
SAPIG0745	781092	783242	+
SAPIG0746	783388	783747	+
SAPIG0747	783937	784653	+
SAPIG0748	784653	785126	+
SAPIG0749	785478	786122	+
SAPIG0750	786239	787105	+
SAPIG0751	787532	788752	+
SAPIG0752	788749	789237	+
SAPIG0753	790025	789336	-
SAPIG0754	790278	790595	+
SAPIG0755	790662	791045	+
SAPIG0756	791183	791482	+
SAPIG0757	791562	792104	+
SAPIG0758	792765	792199	-
SAPIG0759	793225	792767	-
SAPIG0760	793911	793228	-
SAPIG0761	794957	794082	-
SAPIG0762	795176	796807	+
SAPIG0763	796804	798477	+
SAPIG0764	799047	798604	-
SAPIG0765	799282	800208	+
SAPIG0766	800311	801219	+
SAPIG0767	801254	801541	+
SAPIG0768	801824	803377	+
SAPIG0769	803463	804836	+
SAPIG0770	805889	805272	-
SAPIG0771	806498	806076	-
SAPIG0772	806709	807875	+
SAPIG0773	808173	808625	+
SAPIG0774	808799	809281	+
SAPIG0775	809534	810295	+
SAPIG0776	810292	811212	+
SAPIG0777	811218	813182	+
SAPIG0778	813490	814671	+
SAPIG0779	814892	816241	+
SAPIG0780	816461	817300	+
SAPIG0781	817432	818415	+
SAPIG0782	819543	818488	-
SAPIG0783	820229	819543	-
SAPIG0784	820677	820204	-
SAPIG0785	821458	821018	-
SAPIG0786	822323	821739	-
SAPIG0787	823135	822422	-
SAPIG0788	823558	823139	-
SAPIG0789	824228	823560	-
SAPIG0790	824579	825172	+
SAPIG0791	825156	826307	+
SAPIG0792	826307	826915	+
SAPIG0793	826981	827187	+
SAPIG0794	827274	827984	+
SAPIG0795	827968	828972	+
SAPIG0796	829446	831386	+
SAPIG0797	831663	833540	+
SAPIG0798	833552	835333	+
SAPIG0799	835554	836531	+
SAPIG0800	836524	838038	+
SAPIG0801	838278	839336	+
SAPIG0802	839495	840037	+
SAPIG0803	841691	840774	-
SAPIG0804	843466	841961	-
SAPIG0805	844306	843806	-
SAPIG0806	845192	844326	-
SAPIG0807	845994	846392	+
SAPIG0808	846355	848460	+
SAPIG0809	848580	849551	+
SAPIG0810	849921	850892	+
SAPIG0811	850879	851835	+
SAPIG0812	851832	852593	+
SAPIG0813	852712	853740	+
SAPIG0814	855312	854389	-
SAPIG0815	855957	855439	-
SAPIG0816	856077	856955	+
SAPIG0817	857109	857429	+
SAPIG0818	857854	858978	+
SAPIG0819	860399	859173	-
SAPIG0820	860907	860413	-
SAPIG0821	861686	860925	-
SAPIG0822	862952	861882	-
SAPIG0823	863270	864325	+
SAPIG0824	865130	864489	-
SAPIG0825	865274	866140	+
SAPIG0826	866504	867586	+
SAPIG0827	867579	868253	+
SAPIG0828	868314	868886	+
SAPIG0829	869300	871831	+
SAPIG0830	872265	873257	+
SAPIG0831	873863	874702	+
SAPIG0832	874876	875526	+
SAPIG0833	875523	875759	+
SAPIG0834	876028	878013	+
SAPIG0835	878021	880867	+
SAPIG0836	881477	882409	+
SAPIG0837	882415	883254	+
SAPIG0838	883466	883747	+
SAPIG0839	883755	885194	+
SAPIG0840	885261	886196	+
SAPIG0841	886769	886542	-
SAPIG0842	886964	887875	+
SAPIG0843	887872	888867	+
SAPIG0844	888976	889920	+
SAPIG0846	890490	891077	+
SAPIG0847	891260	892894	+
SAPIG0848	894003	893101	-
SAPIG0849	894706	895335	+
SAPIG0850	896110	897123	+
SAPIG0851	897176	898186	+
SAPIG0852	898325	899515	+
SAPIG0853	899637	900398	+
SAPIG0854	900401	901918	+
SAPIG0855	902048	903352	+
SAPIG0856	903691	904149	+
SAPIG0857	904216	904449	+
SAPIG0858	904578	905318	+
SAPIG0859	905352	907724	+
SAPIG0860	907746	908210	+
SAPIG0861	909020	909565	+
SAPIG0862	910724	909996	-
SAPIG0863	911333	911854	+
SAPIG0864	911993	912523	+
SAPIG0866	912787	914613	+
SAPIG0865	914750	914586	-
SAPIG0867	914768	915616	+
SAPIG0868	915837	917351	+
SAPIG0869	917702	918628	+
SAPIG0870	918962	919444	+
SAPIG0871	919785	920471	+
SAPIG0872	920471	920590	+
SAPIG0873	920828	921028	+
SAPIG0874	922088	921804	-
SAPIG0875	922745	922176	-
SAPIG0876	923121	922933	-
SAPIG0878	923751	923954	+
SAPIG0877	924187	923951	-
SAPIG0879	924412	924993	+
SAPIG0880	925683	925066	-
SAPIG0881	926326	925832	-
SAPIG0882	927147	926725	-
SAPIG0883	927295	928011	+
SAPIG0884	928094	928633	+
SAPIG0885	929103	928783	-
SAPIG0886	929247	929603	+
SAPIG0887	929761	930141	+
SAPIG0888	930206	930319	+
SAPIG0889	930321	931199	+
SAPIG0890	931901	932287	+
SAPIG0891	932280	932576	+
SAPIG0892	932826	933851	+
SAPIG0893	933844	934539	+
SAPIG0894	934557	935378	+
SAPIG0895	936186	936380	+
SAPIG0896	937465	936614	-
SAPIG0897	937793	938554	+
SAPIG0898	938653	939960	+
SAPIG0899	940075	941316	+
SAPIG0900	941306	941770	+
SAPIG0901	941921	943318	+
SAPIG0902	943964	943650	-
SAPIG0903	944333	945373	+
SAPIG0904	945387	946454	+
SAPIG0905	946797	947645	+
SAPIG0906	947658	948485	+
SAPIG0907	948512	949831	+
SAPIG0908	949915	950832	+
SAPIG0909	950962	951345	+
SAPIG0910	951690	951424	-
SAPIG0911	951788	952222	+
SAPIG0912	952222	953001	+
SAPIG0913	953035	953994	+
SAPIG0914	954406	954558	+
SAPIG0915	954574	956031	+
SAPIG0916	956028	957242	+
SAPIG0917	957260	957496	+
SAPIG0918	957493	958668	+
SAPIG0919	959173	958931	-
SAPIG0920	959274	959597	+
SAPIG0921	960721	959657	-
SAPIG0922	961071	961274	+
SAPIG0923	961287	961646	+
SAPIG0924	962100	963308	+
SAPIG0925	963439	964914	+
SAPIG0926	965325	966641	+
SAPIG0927	966660	967034	+
SAPIG0928	968244	967090	-
SAPIG0929	968861	968505	-
SAPIG0930	969132	968839	-
SAPIG0931	969611	969132	-
SAPIG0932	971109	969613	-
SAPIG0933	971443	971102	-
SAPIG0934	971871	971443	-
SAPIG0935	974269	971864	-
SAPIG0936	974783	974400	-
SAPIG0937	974847	975440	+
SAPIG0938	975856	976233	+
SAPIG0939	976594	977721	+
SAPIG0940	978029	979219	+
SAPIG0941	979328	980572	+
SAPIG0942	982088	981159	-
SAPIG0943	983709	982330	-
SAPIG0944	984904	983699	-
SAPIG0945	985255	986586	+
SAPIG0946	986911	987486	+
SAPIG0947	987491	988015	+
SAPIG0948	988031	988606	+
SAPIG0949	988766	992242	+
SAPIG0950	992243	995896	+
SAPIG0951	996062	996964	+
SAPIG0952	997291	997680	+
SAPIG0953	999162	997945	-
SAPIG0954	999447	999244	-
SAPIG0955	1000557	1000135	-
SAPIG0956	1001062	1001415	+
SAPIG0957	1003680	1001761	-
SAPIG0958	1004989	1004057	-
SAPIG0959	1005987	1004986	-
SAPIG0960	1008161	1005984	-
SAPIG0961	1010611	1008164	-
SAPIG0962	1010987	1010595	-
SAPIG0963	1011573	1011076	-
SAPIG0964	1011911	1011690	-
SAPIG0965	1013159	1011954	-
SAPIG0966	1014722	1013337	-
SAPIG0967	1015137	1014751	-
SAPIG0968	1015305	1015153	-
SAPIG0969	1016147	1015836	-
SAPIG0970	1018354	1017038	-
SAPIG0971	1019230	1018406	-
SAPIG0972	1019344	1019652	+
SAPIG0973	1020250	1022064	+
SAPIG0974	1022267	1024876	+
SAPIG0975	1025804	1024935	-
SAPIG0976	1025935	1026450	+
SAPIG0977	1026761	1027165	+
SAPIG0978	1027579	1027394	-
SAPIG0979	1027874	1028815	+
SAPIG0980	1028827	1030071	+
SAPIG0981	1030497	1030126	-
SAPIG0982	1030740	1031666	+
SAPIG0983	1031666	1032736	+
SAPIG0984	1032752	1033834	+
SAPIG0985	1033824	1034765	+
SAPIG0986	1034784	1036439	+
SAPIG0987	1036609	1037544	+
SAPIG0988	1037534	1038553	+
SAPIG0989	1038566	1039648	+
SAPIG0990	1039638	1040564	+
SAPIG0991	1040592	1042214	+
SAPIG0992	1043323	1042334	-
SAPIG0993	1043618	1044013	+
SAPIG0994	1044384	1045103	+
SAPIG0995	1045224	1046210	+
SAPIG0996	1046258	1048066	+
SAPIG0997	1049332	1048526	-
SAPIG0998	1049720	1049355	-
SAPIG0999	1050417	1049824	-
SAPIG1000	1050603	1050950	+
SAPIG1001	1050967	1051602	+
SAPIG1002	1051619	1052428	+
SAPIG1003	1052425	1053279	+
SAPIG1004	1053300	1054685	+
SAPIG1005	1054695	1056539	+
SAPIG1006	1056817	1057587	+
SAPIG1007	1058869	1057784	-
SAPIG1008	1059211	1060779	+
SAPIG1009	1060921	1061679	+
SAPIG1010	1061873	1062382	+
SAPIG1011	1063355	1062495	-
SAPIG1012	1063366	1063581	+
SAPIG1013	1064838	1063663	-
SAPIG1014	1065269	1066753	+
SAPIG1015	1066743	1066994	+
SAPIG1016	1066994	1068556	+
SAPIG1017	1068864	1069661	+
SAPIG1018	1069895	1072204	+
SAPIG1019	1072221	1073579	+
SAPIG1020	1073718	1075229	+
SAPIG1023	1076287	1075718	-
SAPIG1024	1076497	1076715	+
SAPIG1025	1077782	1076796	-
SAPIG1026	1077981	1078157	+
SAPIG1027	1078172	1078774	+
SAPIG1028	1079786	1080070	+
SAPIG1029	1080114	1082078	+
SAPIG1030	1082081	1082401	+
SAPIG1031	1082398	1083039	+
SAPIG1032	1083315	1083127	-
SAPIG1033	1083558	1083695	+
SAPIG1034	1084143	1083784	-
SAPIG1035	1084631	1085590	+
SAPIG1036	1085755	1085639	-
SAPIG1037	1086049	1085834	-
SAPIG1038	1086214	1086765	+
SAPIG1039	1087754	1086816	-
SAPIG1040	1088086	1089297	+
SAPIG1041	1089284	1090957	+
SAPIG1042	1090944	1091747	+
SAPIG1043	1091740	1092561	+
SAPIG1044	1093128	1092799	-
SAPIG1045	1094347	1093166	-
SAPIG1046	1095457	1094429	-
SAPIG1047	1097139	1095985	-
SAPIG1048	1098345	1097335	-
SAPIG1049	1098498	1098917	+
SAPIG1050	1102871	1099125	-
SAPIG1051	1103533	1103099	-
SAPIG1052	1104159	1103689	-
SAPIG1053	1105424	1104207	-
SAPIG1054	1105865	1107058	+
SAPIG1055	1107680	1107402	-
SAPIG1056	1108294	1107689	-
SAPIG1057	1110272	1108284	-
SAPIG1058	1111372	1110272	-
SAPIG1059	1111618	1111734	+
SAPIG1060	1112261	1111944	-
SAPIG1061	1113930	1113070	-
SAPIG1062	1114131	1114613	+
SAPIG1063	1114600	1115724	+
SAPIG1064	1115728	1116432	+
SAPIG1065	1116432	1116695	+
SAPIG1066	1116697	1117368	+
SAPIG1067	1117361	1119550	+
SAPIG1068	1119529	1121013	+
SAPIG1069	1121006	1122034	+
SAPIG1070	1122037	1122603	+
SAPIG1071	1122618	1124096	+
SAPIG1072	1124118	1125365	+
SAPIG1073	1126437	1125631	-
SAPIG1074	1127830	1126430	-
SAPIG1075	1128420	1127845	-
SAPIG1076	1129075	1128941	-
SAPIG1077	1129227	1130522	+
SAPIG1078	1130947	1132119	+
SAPIG1079	1132173	1132715	+
SAPIG1080	1132869	1133135	+
SAPIG1081	1133138	1134856	+
SAPIG1082	1135327	1135094	-
SAPIG1083	1135525	1136886	+
SAPIG1084	1136883	1137902	+
SAPIG1085	1138035	1138697	+
SAPIG1086	1140743	1139046	-
SAPIG1087	1140961	1140743	-
SAPIG1088	1141994	1141443	-
SAPIG1089	1142359	1142985	+
SAPIG1090	1143156	1144268	+
SAPIG1091	1144272	1145249	+
SAPIG1092	1145340	1146632	+
SAPIG1093	1146636	1148042	+
SAPIG1094	1148211	1148486	+
SAPIG1095	1148630	1149169	+
SAPIG1096	1149182	1150276	+
SAPIG1097	1150269	1151066	+
SAPIG1098	1151072	1151881	+
SAPIG1099	1151881	1152954	+
SAPIG1100	1153028	1154047	+
SAPIG1101	1154330	1154749	+
SAPIG1102	1156183	1154831	-
SAPIG1103	1156979	1156365	-
SAPIG1104	1157136	1157963	+
SAPIG1105	1158308	1158117	-
SAPIG1106	1158410	1160257	+
SAPIG1107	1160563	1160396	-
SAPIG1108	1161047	1160565	-
SAPIG1109	1161188	1161463	+
SAPIG1110	1161777	1163003	+
SAPIG1111	1163556	1167008	+
SAPIG1112	1168066	1167155	-
SAPIG1113	1168517	1169428	+
SAPIG1114	1169453	1169914	+
SAPIG1115	1170241	1171278	+
SAPIG1116	1171294	1171728	+
SAPIG1117	1172724	1171795	-
SAPIG1118	1172963	1173217	+
SAPIG1119	1173606	1173220	-
SAPIG1120	1173676	1174218	+
SAPIG1121	1174220	1174702	+
SAPIG1122	1175903	1174764	-
SAPIG1123	1176030	1176587	+
SAPIG1124	1176667	1176840	+
SAPIG1125	1178913	1176994	-
SAPIG1126	1180180	1179116	-
SAPIG1127	1180389	1181075	+
SAPIG1128	1181072	1182148	+
SAPIG1129	1182277	1183023	+
SAPIG1130	1183033	1184001	+
SAPIG1131	1184063	1184797	+
SAPIG1132	1184816	1185139	+
SAPIG1133	1185523	1186263	+
SAPIG1134	1186644	1187702	+
SAPIG1135	1187702	1190104	+
SAPIG1136	1191422	1190466	-
SAPIG1137	1191779	1192045	+
SAPIG1138	1192046	1192567	+
SAPIG1139	1192640	1194352	+
SAPIG1140	1194362	1196710	+
SAPIG1141	1196883	1197197	+
SAPIG1142	1197521	1199302	+
SAPIG1143	1199626	1200240	+
SAPIG1144	1200292	1202058	+
SAPIG1145	1202058	1202873	+
SAPIG1146	1203114	1203914	+
SAPIG1147	1203926	1204513	+
SAPIG1148	1204506	1205009	+
SAPIG1149	1205139	1205306	+
SAPIG1150	1205500	1205817	+
SAPIG1151	1206570	1206166	-
SAPIG1152	1206821	1206940	+
SAPIG1153	1207244	1207750	+
SAPIG1154	1208008	1208505	+
SAPIG1155	1208657	1209007	+
SAPIG1156	1209440	1209255	-
SAPIG1157	1210283	1210050	-
SAPIG1158	1211695	1210736	-
SAPIG1159	1212494	1212694	+
SAPIG1160	1213911	1213195	-
SAPIG1161	1214745	1214020	-
SAPIG1162	1215580	1214855	-
SAPIG1163	1216010	1217011	+
SAPIG1164	1217031	1217966	+
SAPIG1165	1218137	1219693	+
SAPIG1166	1220001	1220228	+
SAPIG1167	1221492	1220545	-
SAPIG1168	1221740	1221928	+
SAPIG1170	1222837	1222971	+
SAPIG1171	1223028	1223162	+
SAPIG1172	1223295	1223981	+
SAPIG1173	1224529	1224089	-
SAPIG1174	1224724	1226337	+
SAPIG1175	1226481	1226912	+
SAPIG1176	1226928	1227863	+
SAPIG1177	1227877	1228278	+
SAPIG1178	1228259	1230493	+
SAPIG1179	1230785	1231750	+
SAPIG1180	1231752	1233101	+
SAPIG1181	1233117	1234436	+
SAPIG1182	1234541	1235947	+
SAPIG1183	1235980	1237152	+
SAPIG1184	1237412	1238203	+
SAPIG1185	1238221	1238346	+
SAPIG1186	1238390	1238896	+
SAPIG1187	1238902	1239456	+
SAPIG1188	1239468	1239758	+
SAPIG1189	1239841	1240647	+
SAPIG1190	1240671	1241288	+
SAPIG1191	1241509	1244262	+
SAPIG1192	1244551	1245348	+
SAPIG1193	1245641	1246132	+
SAPIG1194	1246132	1247049	+
SAPIG1195	1247450	1247977	+
SAPIG1196	1248195	1249502	+
SAPIG1197	1249530	1250411	+
SAPIG1198	1250426	1251703	+
SAPIG1199	1251705	1252805	+
SAPIG1200	1252798	1255971	+
SAPIG1201	1256078	1256773	+
SAPIG1202	1256773	1257384	+
SAPIG1203	1257414	1257626	+
SAPIG1204	1258063	1258464	+
SAPIG1205	1258651	1258538	-
SAPIG1206	1260424	1258727	-
SAPIG1207	1260699	1261322	+
SAPIG1208	1261322	1261540	+
SAPIG1209	1261756	1262955	+
SAPIG1210	1262955	1265363	+
SAPIG1211	1265866	1266051	+
SAPIG1212	1266114	1266836	+
SAPIG1213	1267177	1266974	-
SAPIG1214	1267477	1267965	+
SAPIG1215	1267958	1268893	+
SAPIG1216	1268890	1270197	+
SAPIG1217	1270200	1271294	+
SAPIG1218	1271301	1272044	+
SAPIG1219	1272041	1274035	+
SAPIG1220	1274263	1275138	+
SAPIG1221	1275139	1275783	+
SAPIG1222	1275790	1276431	+
SAPIG1223	1277000	1276812	-
SAPIG1224	1277443	1277817	+
SAPIG1225	1277832	1279478	+
SAPIG1226	1279668	1281728	+
SAPIG1227	1281946	1282503	+
SAPIG1228	1282508	1283494	+
SAPIG1229	1283487	1284413	+
SAPIG1230	1284406	1285140	+
SAPIG1231	1285386	1285273	-
SAPIG1232	1285509	1285742	+
SAPIG1233	1285858	1286589	+
SAPIG1234	1286736	1290302	+
SAPIG1235	1290302	1291552	+
SAPIG1236	1291539	1291871	+
SAPIG1237	1291897	1293264	+
SAPIG1238	1293699	1293974	+
SAPIG1239	1294162	1294665	+
SAPIG1240	1294665	1295402	+
SAPIG1241	1295505	1295855	+
SAPIG1242	1298703	1296097	-
SAPIG1243	1299104	1299988	+
SAPIG1244	1299972	1300739	+
SAPIG1245	1300848	1302014	+
SAPIG1246	1302036	1302944	+
SAPIG1247	1303171	1303383	+
SAPIG1248	1303411	1303896	+
SAPIG1249	1303875	1304420	+
SAPIG1250	1304424	1304654	+
SAPIG1251	1304825	1305697	+
SAPIG1252	1305871	1307946	+
SAPIG1253	1308102	1309409	+
SAPIG1254	1309826	1310722	+
SAPIG1255	1310719	1311264	+
SAPIG1256	1311330	1312733	+
SAPIG1257	1312758	1313531	+
SAPIG1258	1313873	1314640	+
SAPIG1259	1314822	1315703	+
SAPIG1260	1315840	1316562	+
SAPIG1261	1316581	1317135	+
SAPIG1262	1317508	1318278	+
SAPIG1263	1318285	1319067	+
SAPIG1264	1319279	1320565	+
SAPIG1265	1320585	1322288	+
SAPIG1266	1322545	1326861	+
SAPIG1267	1327151	1327618	+
SAPIG1268	1327639	1328814	+
SAPIG1269	1328835	1329119	+
SAPIG1270	1329116	1329433	+
SAPIG1271	1329438	1331555	+
SAPIG1272	1331899	1332291	+
SAPIG1273	1332461	1333378	+
SAPIG1274	1333393	1334364	+
SAPIG1275	1334479	1334748	+
SAPIG1276	1335118	1337214	+
SAPIG1277	1337450	1339123	+
SAPIG1278	1339379	1341748	+
SAPIG1279	1341753	1342466	+
SAPIG1280	1342497	1343762	+
SAPIG1281	1343762	1345048	+
SAPIG1282	1345048	1345752	+
SAPIG1283	1345857	1346684	+
SAPIG1284	1346703	1347095	+
SAPIG1285	1347129	1347707	+
SAPIG1286	1347932	1349083	+
SAPIG1287	1349248	1350291	+
SAPIG1288	1350645	1352204	+
SAPIG1289	1352716	1352501	-
SAPIG1290	1352890	1353687	+
SAPIG1291	1353827	1355587	+
SAPIG1292	1355588	1356454	+
SAPIG1293	1356636	1357583	+
SAPIG1294	1357622	1357915	+
SAPIG1295	1358049	1359593	+
SAPIG1296	1359594	1359959	+
SAPIG1297	1359986	1360477	+
SAPIG1298	1360780	1363398	+
SAPIG1299	1363411	1365420	+
SAPIG1300	1365435	1365968	+
SAPIG1301	1366443	1367261	+
SAPIG1302	1367390	1368886	+
SAPIG1303	1369044	1370717	+
SAPIG1304	1370867	1371781	+
SAPIG1305	1371799	1372734	+
SAPIG1306	1372749	1372982	+
SAPIG1307	1373680	1373204	-
SAPIG1308	1373792	1375030	+
SAPIG1309	1375049	1376287	+
SAPIG1310	1376531	1376899	+
SAPIG1311	1376918	1378258	+
SAPIG1312	1378777	1378974	+
SAPIG1313	1380189	1380395	+
SAPIG1314	1381599	1381784	+
SAPIG1315	1382295	1382711	+
SAPIG1316	1383727	1383143	-
SAPIG1317	1383964	1383791	-
SAPIG1318	1384207	1384365	+
SAPIG1319	1384376	1384627	+
SAPIG1320	1384832	1385536	+
SAPIG1321	1385542	1385664	+
SAPIG1322	1387239	1386214	-
SAPIG1323	1387508	1387705	+
SAPIG1324	1387763	1389244	+
SAPIG1325	1389815	1389627	-
SAPIG1326	1389954	1390487	+
SAPIG1327	1391486	1390632	-
SAPIG1328	1391802	1392392	+
SAPIG1329	1393828	1392446	-
SAPIG1330	1394019	1395299	+
SAPIG1331	1395305	1396366	+
SAPIG1332	1396368	1397282	+
SAPIG1333	1397340	1398143	+
SAPIG1334	1398748	1398434	-
SAPIG1335	1400421	1398967	-
SAPIG1336	1400625	1402142	+
SAPIG1337	1402233	1402382	+
SAPIG1338	1402836	1403105	+
SAPIG1339	1403262	1404239	+
SAPIG1340	1404414	1405277	+
SAPIG1341	1406279	1405656	-
SAPIG1342	1406419	1406655	+
SAPIG1343	1406791	1407030	+
SAPIG1344	1407151	1409139	+
SAPIG1345	1409417	1409659	+
SAPIG1346	1409838	1410305	+
SAPIG1347	1410429	1411550	+
SAPIG1348	1411554	1414583	+
SAPIG1349	1415016	1414654	-
SAPIG1350	1415220	1416866	+
SAPIG1351	1417279	1417524	+
SAPIG1352	1417814	1420519	+
SAPIG1353	1420700	1421167	+
SAPIG1354	1421670	1421374	-
SAPIG1355	1422656	1422048	-
SAPIG1356	1422856	1424853	+
SAPIG1357	1424853	1427255	+
SAPIG1358	1427505	1428965	+
SAPIG1359	1429465	1430316	+
SAPIG1360	1430510	1431658	+
SAPIG1361	1432138	1434660	+
SAPIG1362	1435372	1434863	-
SAPIG1363	1435509	1436492	+
SAPIG1364	1436768	1436580	-
SAPIG1365	1436913	1438175	+
SAPIG1366	1439403	1438573	-
SAPIG1367	1439568	1440599	+
SAPIG1368	1441092	1442498	+
SAPIG1369	1442495	1443064	+
SAPIG1370	1443067	1444065	+
SAPIG1371	1444067	1444849	+
SAPIG1372	1444846	1445481	+
SAPIG1373	1445474	1446688	+
SAPIG1374	1446681	1447409	+
SAPIG1375	1447733	1448995	+
SAPIG1376	1449014	1450273	+
SAPIG1377	1450922	1451689	+
SAPIG1378	1451985	1451737	-
SAPIG1379	1453035	1452334	-
SAPIG1380	1453801	1453028	-
SAPIG1381	1454618	1453788	-
SAPIG1382	1455597	1454611	-
SAPIG1383	1456246	1455902	-
SAPIG1384	1456451	1458265	+
SAPIG1385	1458755	1459579	+
SAPIG1386	1460315	1459674	-
SAPIG1387	1461173	1460322	-
SAPIG1388	1462137	1461220	-
SAPIG1389	1463065	1462139	-
SAPIG1390	1464240	1463125	-
SAPIG1391	1464727	1465023	+
SAPIG1392	1466061	1465159	-
SAPIG1393	1466208	1467809	+
SAPIG1394	1468668	1469873	+
SAPIG1395	1469937	1470926	+
SAPIG1396	1470928	1471815	+
SAPIG1397	1471812	1472534	+
SAPIG1398	1472561	1473280	+
SAPIG1399	1473423	1474574	+
SAPIG1400	1474579	1475664	+
SAPIG1401	1475654	1476919	+
SAPIG1402	1477630	1477013	-
SAPIG1403	1478165	1477764	-
SAPIG1404	1478562	1478362	-
SAPIG1405	1479041	1478733	-
SAPIG1406	1479204	1479473	+
SAPIG1407	1479498	1480121	+
SAPIG1408	1480153	1481289	+
SAPIG1409	1482706	1481363	-
SAPIG1410	1484816	1482930	-
SAPIG1411	1485621	1484830	-
SAPIG1412	1486005	1485802	-
SAPIG1413	1486843	1486034	-
SAPIG1414	1488694	1487423	-
SAPIG1415	1491506	1488708	-
SAPIG1416	1493150	1491795	-
SAPIG1417	1493806	1493147	-
SAPIG1418	1495208	1494594	-
SAPIG1419	1496295	1495225	-
SAPIG1420	1496816	1496307	-
SAPIG1421	1498707	1497217	-
SAPIG1422	1499113	1498892	-
SAPIG1423	1499613	1499113	-
SAPIG1424	1500053	1499625	-
SAPIG1425	1500579	1500046	-
SAPIG1426	1501504	1500665	-
SAPIG1427	1501998	1501519	-
SAPIG1428	1503154	1502198	-
SAPIG1429	1504015	1503578	-
SAPIG1430	1505155	1504031	-
SAPIG1431	1505444	1505193	-
SAPIG1432	1505895	1506599	+
SAPIG1433	1506835	1507236	+
SAPIG1434	1538929	1507295	-
SAPIG1435	1540721	1539330	-
SAPIG1436	1542200	1540878	-
SAPIG1437	1543271	1542231	-
SAPIG1438	1544484	1543366	-
SAPIG1439	1545837	1544959	-
SAPIG1440	1549297	1545857	-
SAPIG1441	1549601	1550941	+
SAPIG1442	1551481	1551149	-
SAPIG1443	1552710	1551565	-
SAPIG1444	1553260	1553144	-
SAPIG1445	1553705	1553361	-
SAPIG1446	1554282	1553719	-
SAPIG1447	1554625	1554275	-
SAPIG1448	1554858	1554688	-
SAPIG1449	1555164	1555790	+
SAPIG1450	1555787	1557970	+
SAPIG1451	1558829	1558488	-
SAPIG1452	1559493	1558834	-
SAPIG1453	1560169	1559483	-
SAPIG1454	1561790	1560498	-
SAPIG1455	1564805	1562112	-
SAPIG1456	1565800	1564829	-
SAPIG1457	1566989	1565787	-
SAPIG1458	1568106	1566994	-
SAPIG1459	1568697	1568380	-
SAPIG1460	1569730	1569032	-
SAPIG1461	1570371	1569784	-
SAPIG1462	1570936	1570361	-
SAPIG1463	1572194	1570950	-
SAPIG1464	1573499	1572201	-
SAPIG1465	1574573	1573509	-
SAPIG1466	1575765	1574599	-
SAPIG1467	1577007	1576558	-
SAPIG1468	1578058	1577099	-
SAPIG1469	1578785	1578060	-
SAPIG1470	1579360	1578788	-
SAPIG1471	1580063	1579791	-
SAPIG1472	1581232	1580234	-
SAPIG1473	1582559	1581249	-
SAPIG1474	1583956	1582781	-
SAPIG1475	1584637	1584521	-
SAPIG1476	1585327	1584668	-
SAPIG1477	1585404	1586372	+
SAPIG1478	1587473	1586487	-
SAPIG1479	1587750	1587634	-
SAPIG1480	1589330	1587876	-
SAPIG1481	1590862	1589483	-
SAPIG1482	1591805	1590852	-
SAPIG1483	1591913	1592161	+
SAPIG1484	1592812	1592267	-
SAPIG1485	1594088	1593216	-
SAPIG1486	1595439	1594603	-
SAPIG1487	1596423	1595554	-
SAPIG1488	1596789	1596574	-
SAPIG1489	1597403	1597005	-
SAPIG1490	1597919	1597473	-
SAPIG1491	1598120	1597941	-
SAPIG1492	1600466	1599021	-
SAPIG1493	1600884	1600447	-
SAPIG1494	1601319	1601020	-
SAPIG1495	1601529	1601365	-
SAPIG1496	1601653	1601522	-
SAPIG1497	1602138	1601833	-
SAPIG1498	1602348	1602184	-
SAPIG1499	1602730	1602341	-
SAPIG1500	1604268	1602802	-
SAPIG1501	1606178	1604268	-
SAPIG1502	1606484	1606194	-
SAPIG1503	1608067	1606484	-
SAPIG1504	1608900	1608076	-
SAPIG1505	1613558	1608900	-
SAPIG1506	1615099	1613693	-
SAPIG1507	1615271	1615113	-
SAPIG1508	1615663	1615313	-
SAPIG1509	1616176	1615721	-
SAPIG1510	1616909	1616268	-
SAPIG1511	1617339	1616944	-
SAPIG1512	1617741	1617340	-
SAPIG1513	1618070	1617738	-
SAPIG1514	1618360	1618082	-
SAPIG1515	1619592	1618429	-
SAPIG1516	1620377	1619604	-
SAPIG1517	1621599	1620361	-
SAPIG1518	1623295	1621604	-
SAPIG1519	1623590	1623285	-
SAPIG1520	1624032	1623718	-
SAPIG1521	1624627	1624094	-
SAPIG1522	1625998	1624640	-
SAPIG1523	1626278	1625988	-
SAPIG1524	1626473	1626595	+
SAPIG1525	1629066	1626619	-
SAPIG1526	1629554	1629354	-
SAPIG1527	1629774	1629622	-
SAPIG1528	1630157	1629771	-
SAPIG1529	1630360	1630154	-
SAPIG1530	1630933	1630397	-
SAPIG1531	1631174	1630926	-
SAPIG1532	1631532	1631167	-
SAPIG1533	1631966	1631529	-
SAPIG1534	1632154	1631963	-
SAPIG1535	1632561	1632154	-
SAPIG1536	1632770	1632564	-
SAPIG1537	1633026	1632784	-
SAPIG1538	1633286	1633032	-
SAPIG1539	1633687	1633286	-
SAPIG1540	1635845	1633884	-
SAPIG1541	1636462	1635905	-
SAPIG1542	1637654	1636488	-
SAPIG1543	1638013	1637651	-
SAPIG1544	1638351	1638028	-
SAPIG1545	1638867	1638604	-
SAPIG1546	1639106	1638960	-
SAPIG1547	1639161	1639526	+
SAPIG1549	1639796	1640005	+
SAPIG1548	1640138	1639995	-
SAPIG1550	1640596	1640153	-
SAPIG1551	1640856	1640644	-
SAPIG1552	1641008	1641739	+
SAPIG1553	1641810	1641992	+
SAPIG1554	1641989	1643185	+
SAPIG1555	1645255	1643228	-
SAPIG1556	1646177	1645248	-
SAPIG1557	1648116	1646422	-
SAPIG1558	1648879	1648154	-
SAPIG1559	1649749	1649012	-
SAPIG1560	1650284	1649742	-
SAPIG1561	1651008	1650277	-
SAPIG1562	1651100	1651606	+
SAPIG1563	1652571	1651684	-
SAPIG1564	1653069	1652620	-
SAPIG1565	1653716	1653174	-
SAPIG1566	1653798	1654706	+
SAPIG1567	1655170	1654922	-
SAPIG1568	1655941	1655186	-
SAPIG1569	1656113	1656898	+
SAPIG1570	1657923	1657003	-
SAPIG1571	1658236	1659720	+
SAPIG1572	1659950	1660816	+
SAPIG1573	1662548	1660899	-
SAPIG1574	1663583	1662564	-
SAPIG1575	1664148	1663777	-
SAPIG1576	1665773	1664367	-
SAPIG1577	1666974	1665841	-
SAPIG1578	1667237	1667416	+
SAPIG1579	1668523	1667543	-
SAPIG1580	1668974	1668537	-
SAPIG1581	1670598	1669324	-
SAPIG1582	1671594	1670611	-
SAPIG1583	1672586	1671594	-
SAPIG1584	1674023	1672602	-
SAPIG1585	1675855	1674176	-
SAPIG1586	1676323	1675871	-
SAPIG1587	1677635	1676754	-
SAPIG1588	1677843	1677613	-
SAPIG1589	1679173	1677836	-
SAPIG1590	1679579	1679190	-
SAPIG1591	1680001	1679639	-
SAPIG1592	1681371	1680016	-
SAPIG1593	1681835	1681371	-
SAPIG1594	1682865	1682308	-
SAPIG1595	1683952	1682891	-
SAPIG1596	1684057	1684638	+
SAPIG1597	1684652	1684870	+
SAPIG1598	1685764	1684934	-
SAPIG1599	1685922	1686308	+
SAPIG1600	1688144	1686672	-
SAPIG1601	1689483	1688137	-
SAPIG1602	1690594	1689503	-
SAPIG1603	1691277	1690753	-
SAPIG1604	1691884	1691510	-
SAPIG1605	1692224	1691925	-
SAPIG1606	1692645	1692211	-
SAPIG1607	1692946	1692635	-
SAPIG1608	1694030	1692960	-
SAPIG1609	1694976	1694002	-
SAPIG1610	1695651	1695028	-
SAPIG1611	1695977	1695648	-
SAPIG1612	1696963	1695977	-
SAPIG1613	1697163	1696960	-
SAPIG1614	1698607	1697144	-
SAPIG1615	1699158	1698619	-
SAPIG1616	1699516	1699367	-
SAPIG1617	1701704	1699629	-
SAPIG1618	1702424	1701825	-
SAPIG1619	1703110	1702700	-
SAPIG1620	1703960	1703097	-
SAPIG1621	1704787	1704002	-
SAPIG1622	1705803	1704913	-
SAPIG1623	1707159	1705813	-
SAPIG1624	1708373	1707273	-
SAPIG1625	1709053	1708376	-
SAPIG1626	1710290	1709184	-
SAPIG1627	1712313	1710514	-
SAPIG1628	1713192	1712374	-
SAPIG1629	1713694	1713203	-
SAPIG1630	1714161	1715552	+
SAPIG1631	1716449	1715703	-
SAPIG1632	1717376	1716477	-
SAPIG1633	1717781	1717377	-
SAPIG1634	1718136	1717792	-
SAPIG1635	1718606	1718139	-
SAPIG1636	1719554	1718607	-
SAPIG1637	1719851	1719732	-
SAPIG1638	1720556	1719858	-
SAPIG1639	1721562	1720573	-
SAPIG1640	1722287	1721580	-
SAPIG1641	1722683	1722507	-
SAPIG1642	1724322	1722976	-
SAPIG1643	1725081	1724329	-
SAPIG1644	1726021	1725083	-
SAPIG1645	1727164	1726025	-
SAPIG1646	1729132	1727300	-
SAPIG1647	1729827	1729201	-
SAPIG1648	1730836	1729859	-
SAPIG1649	1732060	1730936	-
SAPIG1650	1734505	1732682	-
SAPIG1651	1734851	1735102	+
SAPIG1652	1736121	1735147	-
SAPIG1653	1738295	1736178	-
SAPIG1654	1738845	1738384	-
SAPIG1655	1739614	1738937	-
SAPIG1656	1740379	1739663	-
SAPIG1657	1740735	1740382	-
SAPIG1658	1741320	1740736	-
SAPIG1659	1741879	1741310	-
SAPIG1660	1742172	1741882	-
SAPIG1661	1742982	1742176	-
SAPIG1662	1744096	1742996	-
SAPIG1663	1744624	1744097	-
SAPIG1664	1745330	1744644	-
SAPIG1665	1745644	1745913	+
SAPIG1666	1746868	1746116	-
SAPIG1667	1748503	1747283	-
SAPIG1668	1750023	1748791	-
SAPIG1669	1750787	1750035	-
SAPIG1670	1752148	1750787	-
SAPIG1671	1752611	1752162	-
SAPIG1672	1753623	1752613	-
SAPIG1673	1754347	1753613	-
SAPIG1674	1755148	1754672	-
SAPIG1675	1755799	1755176	-
SAPIG1676	1757067	1755799	-
SAPIG1677	1758002	1757079	-
SAPIG1678	1758643	1758005	-
SAPIG1679	1759236	1758928	-
SAPIG1680	1759679	1759251	-
SAPIG1681	1759943	1759683	-
SAPIG1682	1762639	1760006	-
SAPIG1683	1765456	1762979	-
SAPIG1684	1766126	1765458	-
SAPIG1685	1767932	1766814	-
SAPIG1686	1769075	1767933	-
SAPIG1687	1769386	1770399	+
SAPIG1688	1770782	1770636	-
SAPIG1689	1771004	1770822	-
SAPIG1690	1771526	1771104	-
SAPIG1691	1771611	1772885	+
SAPIG1692	1773819	1773046	-
SAPIG1693	1776046	1774280	-
SAPIG1694	1777324	1776062	-
SAPIG1695	1778660	1777785	-
SAPIG1696	1779109	1778657	-
SAPIG1697	1781310	1779121	-
SAPIG1698	1782256	1781738	-
SAPIG1699	1784551	1782278	-
SAPIG1700	1787033	1784754	-
SAPIG1701	1787568	1787308	-
SAPIG1702	1788726	1787587	-
SAPIG1703	1789774	1788749	-
SAPIG1704	1790780	1789776	-
SAPIG1705	1791414	1790812	-
SAPIG1706	1791883	1791428	-
SAPIG1707	1793188	1791896	-
SAPIG1708	1793959	1793675	-
SAPIG1709	1794291	1793971	-
SAPIG1710	1794605	1794297	-
SAPIG1711	1795496	1794966	-
SAPIG1712	1796338	1795496	-
SAPIG1713	1797202	1796729	-
SAPIG1714	1797924	1797676	-
SAPIG1715	1798714	1798028	-
SAPIG1716	1799418	1798711	-
SAPIG1717	1800951	1799680	-
SAPIG1718	1803594	1800964	-
SAPIG1719	1803997	1804557	+
SAPIG1720	1805760	1804780	-
SAPIG1721	1805732	1805881	+
SAPIG1722	1807335	1806049	-
SAPIG1723	1808357	1807383	-
SAPIG1724	1809028	1808360	-
SAPIG1725	1809976	1809050	-
SAPIG1726	1810833	1810018	-
SAPIG1727	1812201	1810855	-
SAPIG1728	1813008	1812418	-
SAPIG1729	1814424	1813162	-
SAPIG1730	1815876	1814575	-
SAPIG1731	1816968	1816039	-
SAPIG1732	1817595	1816987	-
SAPIG1733	1818093	1817737	-
SAPIG1734	1818340	1818140	-
SAPIG1735	1818929	1818369	-
SAPIG1736	1820618	1819125	-
SAPIG1737	1822981	1821044	-
SAPIG1738	1824314	1823394	-
SAPIG1739	1825714	1824314	-
SAPIG1740	1826185	1825715	-
SAPIG1741	1827420	1826395	-
SAPIG1742	1828213	1827590	-
SAPIG1743	1829101	1828229	-
SAPIG1744	1831747	1829117	-
SAPIG1745	1833526	1832039	-
SAPIG1746	1835666	1834026	-
SAPIG1747	1836391	1835690	-
SAPIG1748	1838049	1836781	-
SAPIG1749	1839219	1838098	-
SAPIG1750	1839567	1840928	+
SAPIG1751	1843029	1841272	-
SAPIG1752	1844019	1843051	-
SAPIG1753	1845232	1844288	-
SAPIG1754	1846089	1845232	-
SAPIG1755	1847513	1846284	-
SAPIG1756	1851159	1847962	-
SAPIG1757	1852121	1851180	-
SAPIG1758	1853789	1852491	-
SAPIG1759	1853994	1854407	+
SAPIG1760	1855602	1854913	-
SAPIG1761	1855777	1856832	+
SAPIG1762	1858266	1857148	-
SAPIG1763	1858407	1858925	+
SAPIG1764	1860357	1859155	-
SAPIG1765	1861392	1860445	-
SAPIG1766	1862009	1861515	-
SAPIG1767	1862877	1862107	-
SAPIG1768	1864144	1862921	-
SAPIG1769	1865310	1864144	-
SAPIG1770	1867314	1865620	-
SAPIG1771	1867451	1867915	+
SAPIG1772	1868159	1868761	+
SAPIG1773	1869722	1868979	-
SAPIG1774	1869802	1870248	+
SAPIG1775	1870362	1871522	+
SAPIG1776	1871509	1873113	+
SAPIG1777	1874393	1873263	-
SAPIG1778	1875966	1874500	-
SAPIG1779	1876711	1876094	-
SAPIG1780	1876883	1878157	+
SAPIG1781	1879513	1878251	-
SAPIG1782	1879894	1880799	+
SAPIG1783	1883692	1881005	-
SAPIG1784	1885692	1884025	-
SAPIG1785	1887839	1886133	-
SAPIG1786	1888008	1888640	+
SAPIG1787	1888665	1889834	+
SAPIG1788	1890921	1889932	-
SAPIG1789	1891107	1890994	-
SAPIG1790	1892552	1891461	-
SAPIG1791	1894439	1893246	-
SAPIG1792	1895004	1894513	-
SAPIG1793	1896391	1895078	-
SAPIG1794	1900239	1896415	-
SAPIG1795	1900856	1900260	-
SAPIG1796	1901742	1900885	-
SAPIG1797	1902153	1901842	-
SAPIG1798	1903294	1902218	-
SAPIG1799	1903378	1903692	+
SAPIG1800	1904659	1903817	-
SAPIG1801	1905827	1905183	-
SAPIG1802	1906633	1905842	-
SAPIG1803	1908032	1907184	-
SAPIG1804	1909445	1908036	-
SAPIG1805	1910073	1909651	-
SAPIG1806	1910785	1910090	-
SAPIG1807	1912443	1910782	-
SAPIG1808	1912847	1914115	+
SAPIG1809	1920780	1914232	-
SAPIG1810	1921415	1921104	-
SAPIG1811	1923854	1921437	-
SAPIG1812	1925284	1924142	-
SAPIG1813	1925433	1926386	+
SAPIG1814	1926383	1926946	+
SAPIG1815	1927466	1927065	-
SAPIG1816	1928866	1928039	-
SAPIG1817	1928985	1928869	-
SAPIG1818	1929100	1930101	+
SAPIG1819	1930687	1930229	-
SAPIG1820	1931881	1930700	-
SAPIG1821	1932524	1931892	-
SAPIG1822	1933574	1932531	-
SAPIG1823	1935557	1934055	-
SAPIG1824	1936522	1937814	+
SAPIG1825	1938755	1937901	-
SAPIG1826	1939255	1939031	-
SAPIG1827	1939376	1939924	+
SAPIG1829	1940337	1940480	+
SAPIG1828	1940910	1940467	-
SAPIG1830	1941208	1941843	+
SAPIG1831	1942010	1942630	+
SAPIG1832	1943906	1943193	-
SAPIG1833	1944318	1944467	+
SAPIG1834	1944722	1945087	+
SAPIG1835	1945084	1945437	+
SAPIG1836	1946520	1945687	-
SAPIG1837	1947640	1946732	-
SAPIG1838	1948958	1947765	-
SAPIG1839	1949330	1950922	+
SAPIG1840	1951989	1951219	-
SAPIG1841	1952449	1951970	-
SAPIG1843	1952509	1952766	+
SAPIG1842	1953764	1952763	-
SAPIG1844	1955247	1953769	-
SAPIG1845	1955888	1955406	-
SAPIG1846	1956200	1956427	+
SAPIG1847	1956984	1956685	-
SAPIG1848	1956986	1957126	+
SAPIG1849	1957669	1957139	-
SAPIG1850	1958143	1957781	-
SAPIG1851	1958783	1958190	-
SAPIG1852	1959817	1958789	-
SAPIG1853	1961738	1959807	-
SAPIG1854	1962239	1961838	-
SAPIG1855	1963602	1962244	-
SAPIG1856	1963939	1963607	-
SAPIG1857	1964166	1963936	-
SAPIG1858	1964388	1964170	-
SAPIG1859	1966895	1964400	-
SAPIG1860	1967319	1966930	-
SAPIG1861	1967585	1967325	-
SAPIG1862	1968666	1967590	-
SAPIG1863	1969103	1968741	-
SAPIG1864	1970113	1969283	-
SAPIG1865	1971013	1970588	-
SAPIG1866	1971358	1971035	-
SAPIG1867	1971879	1972289	+
SAPIG1868	1972370	1973365	+
SAPIG1869	1973441	1974067	+
SAPIG1870	1974108	1974452	+
SAPIG1871	1974550	1975122	+
SAPIG1872	1975877	1975320	-
SAPIG1873	1976424	1976248	-
SAPIG1874	1976818	1976435	-
SAPIG1875	1977225	1976920	-
SAPIG1876	1977548	1977267	-
SAPIG1877	1977791	1977621	-
SAPIG1878	1978234	1977791	-
SAPIG1879	1978677	1978234	-
SAPIG1880	1979212	1981635	+
SAPIG1881	1982138	1981761	-
SAPIG1882	1982790	1982347	-
SAPIG1883	1982833	1983138	+
SAPIG1885	1983208	1983597	+
SAPIG1884	1984221	1983577	-
SAPIG1886	1985591	1984356	-
SAPIG1887	1987170	1987634	+
SAPIG1896	1990514	1989960	-
SAPIG1897	1992234	1990834	-
SAPIG1898	1993181	1992258	-
SAPIG1899	1994275	1993238	-
SAPIG1900	1994537	1995040	+
SAPIG1901	1996387	1995164	-
SAPIG1902	1997120	1996380	-
SAPIG1903	1997254	1997676	+
SAPIG1904	1997818	1998183	+
SAPIG1905	1998409	1998290	-
SAPIG1906	1998915	1999472	+
SAPIG1907	1999677	2000639	+
SAPIG1908	2001701	2000760	-
SAPIG1909	2004634	2001698	-
SAPIG1910	2005820	2004624	-
SAPIG1911	2007097	2006753	-
SAPIG1912	2008290	2007166	-
SAPIG1913	2008933	2008469	-
SAPIG1914	2009914	2009291	-
SAPIG1915	2011048	2009936	-
SAPIG1916	2011211	2012032	+
SAPIG1917	2013872	2012487	-
SAPIG1918	2014463	2014068	-
SAPIG1919	2015158	2015006	-
SAPIG1920	2015782	2015183	-
SAPIG1921	2016411	2015941	-
SAPIG1922	2017543	2016416	-
SAPIG1923	2018422	2017694	-
SAPIG1924	2019866	2018409	-
SAPIG1925	2021184	2020123	-
SAPIG1954	2030576	2030130	-
SAPIG1955	2031623	2030673	-
SAPIG1956	2032084	2031629	-
SAPIG1957	2032165	2033454	+
SAPIG1958	2033696	2034841	+
SAPIG1959	2036768	2035032	-
SAPIG1960	2037601	2037059	-
SAPIG1961	2038941	2037904	-
SAPIG1962	2039093	2040070	+
SAPIG1963	2041167	2040331	-
SAPIG1964	2042693	2041176	-
SAPIG1965	2043022	2042708	-
SAPIG1966	2043818	2043000	-
SAPIG1967	2044888	2044079	-
SAPIG1968	2045744	2045229	-
SAPIG1969	2046035	2045874	-
SAPIG1970	2046259	2047410	+
SAPIG1971	2048202	2047672	-
SAPIG1972	2049539	2048292	-
SAPIG1973	2049751	2049551	-
SAPIG1974	2049898	2050362	+
SAPIG1975	2050369	2050644	+
SAPIG1976	2050922	2052139	+
SAPIG1977	2052881	2052252	-
SAPIG1978	2053914	2052871	-
SAPIG1979	2054612	2053911	-
SAPIG1980	2055013	2054627	-
SAPIG1981	2055988	2055230	-
SAPIG1982	2056572	2057558	+
SAPIG1983	2058199	2057747	-
SAPIG1984	2059116	2058385	-
SAPIG1985	2060431	2059118	-
SAPIG1986	2060723	2061223	+
SAPIG1987	2061614	2062168	+
SAPIG1988	2063305	2062235	-
SAPIG1989	2064082	2063552	-
SAPIG1990	2065613	2064252	-
SAPIG1991	2066641	2065694	-
SAPIG1992	2067314	2067168	-
SAPIG1993	2068780	2067353	-
SAPIG1994	2070250	2068793	-
SAPIG1995	2070554	2070252	-
SAPIG1996	2070921	2072459	+
SAPIG1997	2073747	2072548	-
SAPIG1998	2075763	2073760	-
SAPIG1999	2077959	2075767	-
SAPIG2000	2078648	2077956	-
SAPIG2001	2079122	2078820	-
SAPIG2002	2080526	2079231	-
SAPIG2003	2081375	2082541	+
SAPIG2004	2082572	2082895	+
SAPIG2005	2083361	2083188	-
SAPIG2006	2083944	2083342	-
SAPIG2007	2085035	2084214	-
SAPIG2008	2086497	2085028	-
SAPIG2009	2086681	2087757	+
SAPIG2010	2087777	2088571	+
SAPIG2011	2090323	2088761	-
SAPIG2012	2091625	2090528	-
SAPIG2013	2091997	2092557	+
SAPIG2014	2092610	2093539	+
SAPIG2015	2093957	2095336	+
SAPIG2016	2096484	2095456	-
SAPIG2017	2096755	2096892	+
SAPIG2018	2097324	2096944	-
SAPIG2019	2099071	2097314	-
SAPIG2020	2099178	2100023	+
SAPIG2021	2100337	2100747	+
SAPIG2022	2102160	2100790	-
SAPIG2023	2102530	2102165	-
SAPIG2024	2104602	2102539	-
SAPIG2025	2105717	2104605	-
SAPIG2026	2105995	2106207	+
SAPIG2027	2106437	2106264	-
SAPIG2028	2106888	2107928	+
SAPIG2029	2108578	2107985	-
SAPIG2030	2109173	2108820	-
SAPIG2031	2109840	2109337	-
SAPIG2032	2110302	2109949	-
SAPIG2033	2110948	2110358	-
SAPIG2034	2112001	2110955	-
SAPIG2035	2113850	2111991	-
SAPIG2036	2115093	2113855	-
SAPIG2037	2115212	2115096	-
SAPIG2038	2117761	2115266	-
SAPIG2039	2118179	2117796	-
SAPIG2040	2118451	2118191	-
SAPIG2041	2119511	2118456	-
SAPIG2042	2120351	2119572	-
SAPIG2043	2120518	2120348	-
SAPIG2044	2121139	2120837	-
SAPIG2045	2121473	2121153	-
SAPIG2046	2121908	2121624	-
SAPIG2047	2122191	2121940	-
SAPIG2048	2122745	2122188	-
SAPIG2049	2123329	2122805	-
SAPIG2050	2123450	2124013	+
SAPIG2051	2124817	2124077	-
SAPIG2052	2125689	2124817	-
SAPIG2053	2126366	2125686	-
SAPIG2054	2127263	2126367	-
SAPIG2055	2127640	2127260	-
SAPIG2056	2128074	2127898	-
SAPIG2057	2128614	2129900	+
SAPIG2058	2132240	2130171	-
SAPIG2059	2132629	2133621	+
SAPIG2060	2134899	2133883	-
SAPIG2061	2135976	2134921	-
SAPIG2062	2136408	2137631	+
SAPIG2063	2138014	2139321	+
SAPIG2064	2140486	2139860	-
SAPIG2065	2140662	2140483	-
SAPIG2066	2142819	2141203	-
SAPIG2067	2143179	2142895	-
SAPIG2068	2143354	2144097	+
SAPIG2069	2145366	2144122	-
SAPIG2070	2145563	2146189	+
SAPIG2071	2146497	2147282	+
SAPIG2072	2148018	2147884	-
SAPIG2073	2148254	2148823	+
SAPIG2074	2148820	2148960	+
SAPIG2075	2149606	2150277	+
SAPIG2076	2150296	2151012	+
SAPIG2077	2152345	2151386	-
SAPIG2078	2153826	2152342	-
SAPIG2079	2154925	2153975	-
SAPIG2080	2155513	2155109	-
SAPIG2081	2156357	2155614	-
SAPIG2082	2156790	2156566	-
SAPIG2083	2157929	2156850	-
SAPIG2084	2158868	2158233	-
SAPIG2085	2159121	2161049	+
SAPIG2086	2161310	2161194	-
SAPIG2087	2161411	2163021	+
SAPIG2088	2164363	2163338	-
SAPIG2089	2164820	2164356	-
SAPIG2090	2165455	2164793	-
SAPIG2091	2165897	2165436	-
SAPIG2092	2166408	2168096	+
SAPIG2093	2168123	2169892	+
SAPIG2094	2169892	2170146	+
SAPIG2095	2170283	2171287	+
SAPIG2096	2171317	2172846	+
SAPIG2097	2172849	2173895	+
SAPIG2098	2173909	2175279	+
SAPIG2099	2175280	2175852	+
SAPIG2100	2175867	2177135	+
SAPIG2103	2183833	2183402	-
SAPIG2104	2186000	2183850	-
SAPIG2105	2187205	2186435	-
SAPIG2106	2187659	2187180	-
SAPIG2107	2187987	2187661	-
SAPIG2108	2189107	2188106	-
SAPIG2109	2189819	2189457	-
SAPIG2110	2189986	2189816	-
SAPIG2111	2191219	2190071	-
SAPIG2112	2191644	2191285	-
SAPIG2113	2192139	2191648	-
SAPIG2114	2193709	2192132	-
SAPIG2115	2194181	2193702	-
SAPIG2116	2194950	2194390	-
SAPIG2117	2196997	2194970	-
SAPIG2118	2198692	2197016	-
SAPIG2119	2198850	2198716	-
SAPIG2120	2198964	2201621	+
SAPIG2121	2201621	2202316	+
SAPIG2122	2204189	2202669	-
SAPIG2123	2206060	2204705	-
SAPIG2124	2207145	2206075	-
SAPIG2125	2207463	2208665	+
SAPIG2126	2209066	2208929	-
SAPIG2127	2209403	2209194	-
SAPIG2128	2209708	2209415	-
SAPIG2129	2209874	2211358	+
SAPIG2130	2211386	2212033	+
SAPIG2131	2213541	2212630	-
SAPIG2132	2213945	2213556	-
SAPIG2133	2215147	2214275	-
SAPIG2134	2215874	2215233	-
SAPIG2135	2216667	2215876	-
SAPIG2136	2217481	2216651	-
SAPIG2137	2218163	2217474	-
SAPIG2138	2219245	2218550	-
SAPIG2139	2220029	2219634	-
SAPIG2140	2220223	2220663	+
SAPIG2141	2221160	2220720	-
SAPIG2142	2222459	2221194	-
SAPIG2143	2222803	2222570	-
SAPIG2144	2223860	2223456	-
SAPIG2145	2225292	2223880	-
SAPIG2146	2226180	2225314	-
SAPIG2147	2227719	2226211	-
SAPIG2148	2228280	2227741	-
SAPIG2149	2228801	2228280	-
SAPIG2150	2229211	2228999	-
SAPIG2151	2229982	2229254	-
SAPIG2152	2230356	2230003	-
SAPIG2153	2231650	2230523	-
SAPIG2154	2232303	2231674	-
SAPIG2155	2233569	2232331	-
SAPIG2156	2234120	2233596	-
SAPIG2157	2234646	2234227	-
SAPIG2158	2235689	2234643	-
SAPIG2159	2236606	2235773	-
SAPIG2160	2237672	2236596	-
SAPIG2161	2238272	2237673	-
SAPIG2162	2238873	2238619	-
SAPIG2163	2240307	2238991	-
SAPIG2164	2241981	2240554	-
SAPIG2165	2242554	2242219	-
SAPIG2166	2243902	2242643	-
SAPIG2167	2245228	2244368	-
SAPIG2168	2245446	2245967	+
SAPIG2169	2247686	2246076	-
SAPIG2170	2248552	2248022	-
SAPIG2171	2249524	2248664	-
SAPIG2172	2249949	2250752	+
SAPIG2173	2251553	2250882	-
SAPIG2174	2253145	2251952	-
SAPIG2175	2254329	2253145	-
SAPIG2176	2254638	2255108	+
SAPIG2177	2255610	2255260	-
SAPIG2178	2256925	2255624	-
SAPIG2179	2257867	2257205	-
SAPIG2180	2258181	2258891	+
SAPIG2181	2259455	2259012	-
SAPIG2182	2260068	2259655	-
SAPIG2183	2261899	2260526	-
SAPIG2184	2262801	2262571	-
SAPIG2185	2263770	2262832	-
SAPIG2186	2264869	2264204	-
SAPIG2187	2265021	2265341	+
SAPIG2188	2265343	2266323	+
SAPIG2189	2266589	2267680	+
SAPIG2190	2268799	2268969	+
SAPIG2191	2268956	2269120	+
SAPIG2192	2270635	2269778	-
SAPIG2193	2271485	2270703	-
SAPIG2194	2272383	2271775	-
SAPIG2195	2273337	2272411	-
SAPIG2196	2274990	2273539	-
SAPIG2197	2275370	2275068	-
SAPIG2198	2275887	2275483	-
SAPIG2199	2276385	2276065	-
SAPIG2200	2276817	2276677	-
SAPIG2201	2277007	2276801	-
SAPIG2202	2278826	2276988	-
SAPIG2203	2279426	2278971	-
SAPIG2204	2279715	2279494	-
SAPIG2205	2280708	2279731	-
SAPIG2206	2281308	2281084	-
SAPIG2207	2281328	2281963	+
SAPIG2208	2283585	2281990	-
SAPIG2209	2285802	2283997	-
SAPIG2210	2286483	2288021	+
SAPIG2211	2288056	2289981	+
SAPIG2212	2289974	2290186	+
SAPIG2213	2290198	2290632	+
SAPIG2214	2290632	2291738	+
SAPIG2215	2299418	2292057	-
SAPIG2216	2301056	2299701	-
SAPIG2217	2302015	2301083	-
SAPIG2218	2302652	2302017	-
SAPIG2219	2303923	2303015	-
SAPIG2226	2311112	2310048	-
SAPIG2227	2312705	2311260	-
SAPIG2228	2313358	2312891	-
SAPIG2229	2314829	2313486	-
SAPIG2230	2315688	2315002	-
SAPIG2231	2316891	2315704	-
SAPIG2232	2317450	2316935	-
SAPIG2233	2317627	2317887	+
SAPIG2234	2319390	2318020	-
SAPIG2235	2320594	2319626	-
SAPIG2236	2321622	2320591	-
SAPIG2237	2322617	2321634	-
SAPIG2238	2324080	2323010	-
SAPIG2239	2325844	2324087	-
SAPIG2240	2326868	2325831	-
SAPIG2241	2327126	2329102	+
SAPIG2242	2329772	2329263	-
SAPIG2243	2330074	2329835	-
SAPIG2244	2330623	2330087	-
SAPIG2245	2332360	2330798	-
SAPIG2246	2333675	2332668	-
SAPIG2247	2334911	2333910	-
SAPIG2248	2336100	2335231	-
SAPIG2249	2337778	2336366	-
SAPIG2250	2339508	2337796	-
SAPIG2251	2339825	2339511	-
SAPIG2252	2340827	2339847	-
SAPIG2253	2341763	2340831	-
SAPIG2254	2342291	2341776	-
SAPIG2255	2342735	2342307	-
SAPIG2256	2343858	2343103	-
SAPIG2257	2344109	2344840	+
SAPIG2258	2345721	2345113	-
SAPIG2259	2346107	2345982	-
SAPIG2260	2347174	2346326	-
SAPIG2261	2347660	2347244	-
SAPIG2262	2348068	2350497	+
SAPIG2263	2351255	2350557	-
SAPIG2264	2352571	2353956	+
SAPIG2265	2355141	2354320	-
SAPIG2266	2355430	2355855	+
SAPIG2267	2356950	2356246	-
SAPIG2268	2358651	2356987	-
SAPIG2269	2359231	2360178	+
SAPIG2270	2361083	2360691	-
SAPIG2271	2361540	2361103	-
SAPIG2272	2362583	2361780	-
SAPIG2273	2363394	2362588	-
SAPIG2274	2364244	2363384	-
SAPIG2275	2365050	2364241	-
SAPIG2276	2365956	2365588	-
SAPIG2277	2366917	2365973	-
SAPIG2278	2367381	2366992	-
SAPIG2279	2367770	2367405	-
SAPIG2280	2367906	2367793	-
SAPIG2281	2368156	2367938	-
SAPIG2282	2368996	2368349	-
SAPIG2283	2370305	2369013	-
SAPIG2284	2370745	2370305	-
SAPIG2285	2370941	2370762	-
SAPIG2286	2371458	2370958	-
SAPIG2287	2371838	2371479	-
SAPIG2288	2372405	2371869	-
SAPIG2289	2372828	2372430	-
SAPIG2290	2373045	2372860	-
SAPIG2291	2373607	2373068	-
SAPIG2292	2373951	2373634	-
SAPIG2293	2374355	2373987	-
SAPIG2294	2374650	2374387	-
SAPIG2295	2374883	2374674	-
SAPIG2296	2375307	2374873	-
SAPIG2297	2375963	2375310	-
SAPIG2298	2376340	2375987	-
SAPIG2299	2376647	2376369	-
SAPIG2300	2377547	2376714	-
SAPIG2301	2377855	2377580	-
SAPIG2302	2378478	2377855	-
SAPIG2303	2379167	2378505	-
SAPIG2304	2379503	2379195	-
SAPIG2305	2379860	2380249	+
SAPIG2306	2381777	2380443	-
SAPIG2307	2384025	2381890	-
SAPIG2308	2384212	2385099	+
SAPIG2309	2385280	2386143	+
SAPIG2310	2387724	2386798	-
SAPIG2311	2387839	2388003	+
SAPIG2312	2388248	2388565	+
SAPIG2313	2391919	2388752	-
SAPIG2314	2393301	2392036	-
SAPIG2315	2394697	2393933	-
SAPIG2316	2394859	2395299	+
SAPIG2317	2395292	2396503	+
SAPIG2318	2396955	2396605	-
SAPIG2319	2398575	2397646	-
SAPIG2320	2399287	2398688	-
SAPIG2321	2399527	2399294	-
SAPIG2322	2399979	2399533	-
SAPIG2323	2400478	2399993	-
SAPIG2324	2401734	2400475	-
SAPIG2325	2401797	2402291	+
SAPIG2326	2402799	2402293	-
SAPIG2327	2403833	2402829	-
SAPIG2328	2404606	2404001	-
SAPIG2329	2405278	2404607	-
SAPIG2330	2406074	2405292	-
SAPIG2331	2406364	2407161	+
SAPIG2332	2408107	2407337	-
SAPIG2333	2408733	2408179	-
SAPIG2334	2409795	2408854	-
SAPIG2335	2411102	2410194	-
SAPIG2336	2412469	2411315	-
SAPIG2337	2413585	2412686	-
SAPIG2338	2413851	2414153	+
SAPIG2339	2414167	2414577	+
SAPIG2340	2414574	2416289	+
SAPIG2341	2416302	2416754	+
SAPIG2342	2416747	2417436	+
SAPIG2343	2417449	2418063	+
SAPIG2344	2418063	2418899	+
SAPIG2345	2419435	2419088	-
SAPIG2346	2420189	2419863	-
SAPIG2347	2420996	2420253	-
SAPIG2348	2422098	2421022	-
SAPIG2349	2422976	2422182	-
SAPIG2350	2423586	2424395	+
SAPIG2351	2426232	2424832	-
SAPIG2352	2427409	2426327	-
SAPIG2353	2427657	2428079	+
SAPIG2354	2428316	2428816	+
SAPIG2355	2429179	2430132	+
SAPIG2356	2431348	2430224	-
SAPIG2357	2432733	2431957	-
SAPIG2358	2432925	2432755	-
SAPIG2359	2433756	2433283	-
SAPIG2360	2436710	2433756	-
SAPIG2361	2438259	2437312	-
SAPIG2362	2439189	2438392	-
SAPIG2363	2439574	2440266	+
SAPIG2364	2441028	2440291	-
SAPIG2365	2441077	2441406	+
SAPIG2366	2441851	2442723	+
SAPIG2367	2444491	2443112	-
SAPIG2368	2444771	2445127	+
SAPIG2369	2445124	2445309	+
SAPIG2370	2445593	2445405	-
SAPIG2371	2446242	2445607	-
SAPIG2372	2447186	2446317	-
SAPIG2373	2447502	2448032	+
SAPIG2374	2449702	2448098	-
SAPIG2375	2450032	2450796	+
SAPIG2376	2451360	2450854	-
SAPIG2377	2452840	2451530	-
SAPIG2378	2452818	2452982	+
SAPIG2379	2453637	2453065	-
SAPIG2380	2455005	2454124	-
SAPIG2381	2456235	2455114	-
SAPIG2382	2457749	2456511	-
SAPIG2383	2459410	2457749	-
SAPIG2384	2459570	2460454	+
SAPIG2385	2461882	2460947	-
SAPIG2386	2462629	2462186	-
SAPIG2387	2462607	2463419	+
SAPIG2388	2464171	2463485	-
SAPIG2389	2464342	2464995	+
SAPIG2390	2465238	2465125	-
SAPIG2391	2466250	2465231	-
SAPIG2392	2466480	2466280	-
SAPIG2393	2468056	2466824	-
SAPIG2394	2468948	2468049	-
SAPIG2395	2469826	2469179	-
SAPIG2396	2470225	2470833	+
SAPIG2397	2471170	2472378	+
SAPIG2398	2473475	2472426	-
SAPIG2399	2474453	2473506	-
SAPIG2400	2474550	2475041	+
SAPIG2401	2475038	2475457	+
SAPIG2402	2476422	2475565	-
SAPIG2403	2476693	2477331	+
SAPIG2404	2479509	2477578	-
SAPIG2405	2480169	2479522	-
SAPIG2406	2480290	2480844	+
SAPIG2407	2481165	2481031	-
SAPIG2408	2482807	2481599	-
SAPIG2409	2484457	2483075	-
SAPIG2410	2485152	2484697	-
SAPIG2411	2485347	2486315	+
SAPIG2412	2487210	2486545	-
SAPIG2413	2488265	2487210	-
SAPIG2414	2488401	2489075	+
SAPIG2415	2489068	2490441	+
SAPIG2416	2490603	2491046	+
SAPIG2417	2491043	2491498	+
SAPIG2418	2493041	2491563	-
SAPIG2419	2495016	2493418	-
SAPIG2420	2495318	2497006	+
SAPIG2421	2497186	2498133	+
SAPIG2422	2498863	2498234	-
SAPIG2423	2499694	2499179	-
SAPIG2424	2499843	2500889	+
SAPIG2425	2501856	2501455	-
SAPIG2426	2502926	2501892	-
SAPIG2427	2503053	2502937	-
SAPIG2428	2503589	2503158	-
SAPIG2429	2505072	2503795	-
SAPIG2430	2505233	2505856	+
SAPIG2431	2505902	2506846	+
SAPIG2432	2508374	2506932	-
SAPIG2433	2508557	2508940	+
SAPIG2434	2510428	2512533	+
SAPIG2435	2512604	2513026	+
SAPIG2436	2513304	2513660	+
SAPIG2437	2515102	2513858	-
SAPIG2438	2515682	2515317	-
SAPIG2439	2516078	2516524	+
SAPIG2440	2516732	2517169	+
SAPIG2441	2518446	2517277	-
SAPIG2442	2519011	2519925	+
SAPIG2443	2519904	2520644	+
SAPIG2444	2521499	2520897	-
SAPIG2445	2522607	2521573	-
SAPIG2446	2523083	2522631	-
SAPIG2447	2523780	2523103	-
SAPIG2448	2524348	2523773	-
SAPIG2449	2525786	2524341	-
SAPIG2450	2529579	2525890	-
SAPIG2451	2530863	2529886	-
SAPIG2452	2531168	2530854	-
SAPIG2453	2533577	2531172	-
SAPIG2454	2534375	2533623	-
SAPIG2455	2535139	2534603	-
SAPIG2456	2536369	2535545	-
SAPIG2457	2536754	2536572	-
SAPIG2458	2537308	2536841	-
SAPIG2459	2539041	2537494	-
SAPIG2460	2539933	2539334	-
SAPIG2461	2540314	2539952	-
SAPIG2462	2540569	2541819	+
SAPIG2463	2542647	2541916	-
SAPIG2464	2543363	2542644	-
SAPIG2465	2544123	2543344	-
SAPIG2466	2545683	2544244	-
SAPIG2467	2546801	2546115	-
SAPIG2468	2547993	2547127	-
SAPIG2469	2548527	2548408	-
SAPIG2470	2548622	2549932	+
SAPIG2471	2550432	2551397	+
SAPIG2472	2551461	2551586	+
SAPIG2473	2551965	2552912	+
SAPIG2474	2552914	2553891	+
SAPIG2475	2554410	2553943	-
SAPIG2476	2555113	2554421	-
SAPIG2477	2556236	2555124	-
SAPIG2478	2557224	2556217	-
SAPIG2479	2558584	2557226	-
SAPIG2480	2559248	2558562	-
SAPIG2481	2561434	2559701	-
SAPIG2482	2563222	2561459	-
SAPIG2483	2564553	2564167	-
SAPIG2484	2564820	2565962	+
SAPIG2485	2566022	2566681	+
SAPIG2486	2566869	2568080	+
SAPIG2487	2568676	2568203	-
SAPIG2488	2568876	2569445	+
SAPIG2489	2570314	2569508	-
SAPIG2490	2570601	2572010	+
SAPIG2491	2572148	2574226	+
SAPIG2492	2576194	2574365	-
SAPIG2493	2576426	2577925	+
SAPIG2494	2578883	2578032	-
SAPIG2495	2580138	2579203	-
SAPIG2496	2581764	2580364	-
SAPIG2497	2582753	2582058	-
SAPIG2498	2583694	2582753	-
SAPIG2499	2584346	2583711	-
SAPIG2500	2585569	2584343	-
SAPIG2501	2586015	2585896	-
SAPIG2502	2586853	2586239	-
SAPIG2503	2587019	2588665	+
SAPIG2504	2588963	2590315	+
SAPIG2505	2591564	2590377	-
SAPIG2506	2592735	2591959	-
SAPIG2507	2593390	2592728	-
SAPIG2508	2594812	2593736	-
SAPIG2509	2595051	2595506	+
SAPIG2510	2597251	2595674	-
SAPIG2511	2597446	2598192	+
SAPIG2512	2599609	2598416	-
SAPIG2513	2600376	2599621	-
SAPIG2514	2601178	2600363	-
SAPIG2515	2602044	2601175	-
SAPIG2516	2602976	2602041	-
SAPIG2517	2604587	2602989	-
SAPIG2518	2606031	2604730	-
SAPIG2519	2606842	2606024	-
SAPIG2520	2607674	2606853	-
SAPIG2521	2608985	2608623	-
SAPIG2522	2610066	2609248	-
SAPIG2523	2610300	2611838	+
SAPIG2524	2612372	2611950	-
SAPIG2525	2613242	2612844	-
SAPIG2526	2613679	2613269	-
SAPIG2527	2613897	2613697	-
SAPIG2528	2614517	2614134	-
SAPIG2529	2614584	2615792	+
SAPIG2530	2615798	2616112	+
SAPIG2531	2616574	2616449	-
SAPIG2532	2617543	2617184	-
SAPIG2533	2617938	2617744	-
SAPIG2534	2618408	2617989	-
SAPIG2535	2619516	2618821	-
SAPIG2536	2619805	2620086	+
SAPIG2537	2620073	2620207	+
SAPIG2538	2620537	2620346	-
SAPIG2539	2621174	2620881	-
SAPIG2540	2621503	2621177	-
SAPIG2541	2622858	2621503	-
SAPIG2542	2623568	2622855	-
SAPIG2543	2624655	2623888	-
SAPIG2544	2625465	2624764	-
SAPIG2545	2626700	2625780	-
SAPIG2546	2626805	2627998	+
SAPIG2547	2628188	2629825	+
SAPIG2548	2630519	2630827	+
SAPIG2549	2631819	2630953	-
SAPIG2550	2633330	2631999	-
SAPIG2551	2634785	2633739	-
SAPIG2552	2634829	2635056	+
SAPIG2553	2638518	2635534	-
SAPIG2554	2638871	2638722	-
SAPIG2555	2640414	2639056	-
SAPIG2556	2642084	2640531	-
SAPIG2557	2642786	2642109	-
SAPIG2558	2643707	2642943	-
SAPIG2559	2644564	2643872	-
SAPIG2560	2645211	2644795	-
SAPIG2561	2647173	2645350	-
SAPIG2562	2649362	2648085	-
SAPIG2563	2649909	2650520	+
SAPIG2564	2651781	2650618	-
SAPIG2565	2652241	2651774	-
SAPIG2566	2652675	2653370	+
SAPIG2567	2653372	2654142	+
SAPIG2568	2654516	2656480	+
SAPIG2569	2656825	2657904	+
SAPIG2570	2658602	2658009	-
SAPIG2571	2659592	2658624	-
SAPIG2572	2660104	2659670	-
SAPIG2573	2660331	2660615	+
SAPIG2574	2660790	2661596	+
SAPIG2575	2662387	2661716	-
SAPIG2576	2662657	2663649	+
SAPIG2577	2664695	2663895	-
SAPIG2578	2665546	2664926	-
SAPIG2579	2665740	2666231	+
SAPIG2580	2666545	2666375	-
SAPIG2581	2667623	2666724	-
SAPIG2582	2668317	2667637	-
SAPIG2583	2669363	2668320	-
SAPIG2584	2670307	2671233	+
SAPIG2585	2672283	2671315	-
SAPIG2586	2672760	2672416	-
SAPIG2587	2673211	2672801	-
SAPIG2588	2675651	2673585	-
SAPIG2589	2677690	2675951	-
SAPIG2590	2678419	2677730	-
SAPIG2591	2678807	2678412	-
SAPIG2592	2679898	2679020	-
SAPIG2593	2680065	2680283	+
SAPIG2594	2680671	2681102	+
SAPIG2595	2682522	2681242	-
SAPIG2596	2682777	2683943	+
SAPIG2597	2684635	2684114	-
SAPIG2598	2685044	2687152	+
SAPIG2599	2687389	2687219	-
SAPIG2600	2689396	2687402	-
SAPIG2601	2689635	2689408	-
SAPIG2602	2692340	2689851	-
SAPIG2603	2692485	2693033	+
SAPIG2604	2693254	2693084	-
SAPIG2605	2694934	2693390	-
SAPIG2606	2695723	2695124	-
SAPIG2607	2695962	2696153	+
SAPIG2608	2696393	2698801	+
SAPIG2609	2699230	2699436	+
SAPIG2610	2700524	2699526	-
SAPIG2611	2701701	2700547	-
SAPIG2612	2703636	2702128	-
SAPIG2613	2704511	2703648	-
SAPIG2614	2705675	2704548	-
SAPIG2615	2707174	2705681	-
SAPIG2616	2707664	2707167	-
SAPIG2617	2708597	2707830	-
SAPIG2618	2710770	2708959	-
SAPIG2619	2712146	2711445	-
SAPIG2620	2713808	2712753	-
SAPIG2621	2713954	2714157	+
SAPIG2622	2714200	2714787	+
SAPIG2623	2715165	2715485	+
SAPIG2624	2715705	2715935	+
SAPIG2625	2716670	2716293	-
SAPIG2626	2717508	2716687	-
SAPIG2627	2717826	2717527	-
SAPIG2628	2717957	2718514	+
SAPIG2629	2718507	2719211	+
SAPIG2630	2719309	2720319	+
SAPIG2631	2720339	2721169	+
SAPIG2632	2722206	2721316	-
SAPIG2633	2723646	2722306	-
SAPIG2634	2724746	2723640	-
SAPIG2635	2725378	2725082	-
SAPIG2636	2725734	2725366	-
SAPIG2637	2726024	2725749	-
SAPIG2638	2727234	2726368	-
SAPIG2639	2727452	2728516	+
SAPIG2640	2728671	2728946	+
SAPIG2641	2729854	2729132	-
SAPIG2642	2730208	2730657	+
SAPIG2643	2731325	2730738	-
SAPIG2644	2731468	2733150	+
SAPIG2645	2733662	2733279	-
SAPIG2646	2734515	2733664	-
SAPIG2647	2735326	2734508	-
SAPIG2648	2735399	2736259	+
SAPIG2649	2737049	2736345	-
SAPIG2650	2738285	2737326	-
SAPIG2651	2738972	2740420	+
SAPIG2652	2741837	2740500	-
SAPIG2653	2742091	2742507	+
SAPIG2654	2742630	2743520	+
SAPIG2655	2745211	2743715	-
SAPIG2656	2747496	2745898	-
SAPIG2657	2748169	2747690	-
SAPIG2658	2748625	2748413	-
SAPIG2659	2750612	2748903	-
SAPIG2660	2752363	2750873	-
SAPIG2661	2752613	2753179	+
SAPIG2662	2754970	2753348	-
SAPIG2663	2756024	2755488	-
SAPIG2664	2757871	2756021	-
SAPIG2665	2759488	2758118	-
SAPIG2666	2759904	2759791	-
SAPIG2667	2760585	2759977	-
SAPIG2668	2762531	2760651	-
SAPIG2669	2763420	2762923	-
SAPIG2670	2764228	2764115	-
SAPIG2671	2766854	2764854	-
SAPIG2672	2767606	2766851	-
SAPIG2673	2768601	2767714	-
SAPIG2674	2769277	2768612	-
SAPIG2675	2769503	2769303	-
SAPIG2676	2769701	2771125	+
SAPIG2677	2771863	2771408	-
SAPIG2678	2772868	2772107	-
SAPIG2680	2773009	2773611	+
SAPIG2679	2775756	2773594	-
SAPIG2681	2776810	2776106	-
SAPIG2682	2777850	2776909	-
SAPIG2683	2779297	2777867	-
SAPIG2684	2780398	2779388	-
SAPIG2685	2781666	2780431	-
SAPIG2686	2782463	2782014	-
SAPIG2687	2784360	2782831	-
SAPIG2688	2785301	2784774	-
SAPIG2689	2785556	2785999	+
SAPIG2690	2786239	2788113	+
SAPIG2691	2788189	2790141	+
SAPIG2692	2790155	2791093	+
SAPIG2693	2794186	2791205	-
SAPIG2694	2794397	2796256	+
SAPIG2695	2797083	2796523	-
SAPIG2696	2799146	2797251	-
SAPIG2697	2800746	2799388	-
SAPIG2698	2802247	2800739	-
SAPIG2699	2804655	2802265	-
SAPIG2700	2805604	2804645	-
SAPIG2701	2807150	2805582	-
SAPIG2702	2808693	2807140	-
SAPIG2703	2809915	2808704	-
SAPIG2704	2816883	2810044	-
SAPIG2705	2818122	2817430	-
SAPIG2706	2818448	2819371	+
SAPIG2707	2819618	2820502	+
SAPIG2708	2820489	2822393	+
SAPIG2709	2822348	2822512	+
SAPIG2710	2822731	2823090	+
SAPIG2711	2823786	2823175	-
SAPIG2712	2824341	2823865	-
SAPIG2713	2824844	2824344	-
SAPIG2714	2825846	2825079	-
SAPIG2715	2826535	2825843	-
SAPIG2716	2827214	2826552	-
SAPIG2717	2828621	2828061	-
SAPIG2718	2828913	2830025	+
SAPIG2719	2830291	2831163	+
SAPIG2720	2831150	2832202	+
SAPIG2721	2834695	2832650	-
SAPIG2722	2835591	2835412	-
SAPIG2723	2836415	2835783	-
SAPIG2724	2837170	2836412	-
SAPIG2725	2837871	2837167	-
SAPIG2726	2838442	2837864	-
SAPIG2727	2839017	2838439	-
SAPIG2728	2839999	2838986	-
SAPIG2729	2841265	2840015	-
SAPIG2730	2841872	2841258	-
SAPIG2731	2842708	2841890	-
SAPIG2732	2844137	2843013	-
SAPIG2733	2844550	2845065	+
SAPIG2734	2846209	2845211	-
SAPIG2735	2846430	2847386	+
SAPIG2736	2847540	2848178	+
SAPIG2737	2849064	2848297	-
SAPIG2738	2849392	2849054	-
SAPIG2739	2849559	2850023	+
SAPIG2740	2853735	2850184	-
SAPIG2741	2854113	2855531	+
SAPIG2742	2856989	2856081	-
SAPIG2743	2857211	2857786	+
SAPIG2744	2857909	2858961	+
SAPIG2745	2859201	2860001	+
SAPIG2746	2860816	2860304	-
SAPIG2747	2861106	2861864	+
SAPIG2748	2861854	2863734	+
SAPIG2749	2863826	2864017	+
SAPIG2750	2864409	2864609	+
SAPIG2751	2865296	2864727	-
SAPIG2752	2865951	2865556	-
SAPIG2753	2866372	2866019	-
SAPIG2754	2867528	2866689	-
SAPIG2755	2868290	2867571	-
SAPIG2756	2870167	2868290	-
SAPIG2757	2871613	2870234	-
SAPIG2758	2872110	2871757	-
SAPIG2759	2872368	2872231	-
