x	3679	3915	+
x	5037	6968	+
x	5046	6968	+
x	6987	9668	+
x	10567	9755	-
x	10585	9755	-
x	15495	15743	+
x	16085	17074	+
x	17317	18303	+
x	17380	18303	+
x	18300	20285	+
x	22242	22307	+
x	24925	25632	+
x	27437	28798	+
x	27455	28798	+
x	27464	28798	+
x	27620	28798	+
x	29995	30777	+
x	30963	33323	+
x	30981	33323	+
x	33692	33555	-
x	34010	33555	-
x	33704	33555	-
x	34276	34142	-
x	37117	37019	-
x	38239	37973	-
x	40812	42014	+
x	43667	42681	-
x	43133	42681	-
x	44195	44524	+
x	45581	45883	+
x	46366	45809	-
x	46270	45809	-
x	46294	45809	-
x	48322	49056	+
x	49481	50092	+
x	49844	50092	+
x	55465	56232	+
x	55486	56232	+
x	55996	56232	+
x	56251	57054	+
x	56362	57054	+
x	56671	57054	+
x	56818	57054	+
x	57121	57888	+
x	57142	57888	+
x	57652	57888	+
x	58816	61053	+
x	61195	62382	+
x	63940	64047	+
x	65932	64265	-
x	68033	66252	-
x	69082	68201	-
x	69255	70583	+
x	73208	73330	+
x	75015	73429	-
x	76176	75400	-
x	77519	76521	-
x	77438	76521	-
x	79501	78527	-
x	79750	80730	+
x	79783	80730	+
x	79810	80730	+
x	80739	81737	+
x	84015	84761	+
x	84934	86487	+
x	86468	88246	+
x	86549	88246	+
x	88218	88997	+
x	88302	88997	+
x	91894	91772	-
x	91851	92246	+
x	93396	93283	-
x	93435	93283	-
x	93432	93283	-
x	93579	94550	+
x	93591	94550	+
x	94155	94550	+
x	94621	95205	+
x	94813	95205	+
x	97766	99220	+
x	102110	101370	-
x	102310	103068	+
x	103069	104427	+
x	108044	107319	-
x	111882	113423	+
x	114023	114568	+
x	114999	115214	+
x	115161	115057	-
x	115354	115211	-
x	115293	115556	+
x	115489	115376	-
x	115385	115471	+
x	120167	120862	+
x	121562	123472	+
x	121637	123472	+
x	121709	123472	+
x	123405	124490	+
x	124497	125612	+
x	129677	130861	+
x	131258	132067	+
x	134885	136060	+
x	136445	136125	-
x	138882	138992	+
x	139296	140360	+
x	144151	145188	+
x	144154	145188	+
x	145477	145764	+
x	145504	145764	+
x	145931	146962	+
x	149027	156220	+
x	149051	156220	+
x	157699	157205	-
x	158892	158734	-
x	161021	159987	-
x	162268	161057	-
x	164682	164125	-
x	168708	166663	-
x	168723	166663	-
x	169276	170349	+
x	169294	170349	+
x	170346	171245	+
x	172711	173589	+
x	181993	183429	+
x	182083	183429	+
x	182122	183429	+
x	182167	183429	+
x	190393	189695	-
x	190518	191108	+
x	192640	193872	+
x	195067	195984	+
x	195127	195984	+
x	196055	197134	+
x	198212	199222	+
x	199410	199484	+
x	200077	199583	-
x	200092	199583	-
x	200292	201689	+
x	201033	201689	+
x	205893	208157	+
x	209220	211034	+
x	214109	214249	+
x	215439	214246	-
x	219163	217907	-
x	220822	219230	-
x	222341	220761	-
x	222332	220761	-
x	222323	220761	-
x	222674	223921	+
x	222692	223921	+
x	225710	224235	-
x	226300	225908	-
x	228338	229291	+
x	229584	229459	-
x	231059	229611	-
x	231146	229611	-
x	232506	232628	+
x	232676	232789	+
x	232755	234872	+
x	234872	235324	+
x	235824	235690	-
x	237120	238184	+
x	237126	238184	+
x	238162	238332	+
x	239915	240643	+
x	239927	240643	+
x	241683	243377	+
x	248730	250451	+
x	251512	253266	+
x	254128	254565	+
x	257051	258463	+
x	258535	258663	+
x	262159	261269	-
x	263597	263710	+
x	264557	264784	+
x	264560	264784	+
x	266210	264825	-
x	267735	268703	+
x	267963	268703	+
x	271454	270345	-
x	271676	271798	+
x	273607	274026	+
x	275692	274790	-
x	275880	276224	+
x	279767	280009	+
x	286566	287243	+
x	287561	289414	+
x	289485	289916	+
x	292078	292551	+
x	292111	292551	+
x	292291	292551	+
x	292562	293062	+
x	292622	293062	+
x	292802	293062	+
x	293046	293573	+
x	293133	293573	+
x	293313	293573	+
x	293824	294084	+
x	294604	294717	+
x	295203	295580	+
x	295754	296131	+
x	297192	296347	-
x	297042	296347	-
x	298610	297408	-
x	298637	297408	-
x	298715	297408	-
x	298636	298875	+
x	300389	300216	-
x	302379	303416	+
x	302385	303416	+
x	303744	304877	+
x	309680	310582	+
x	313980	312595	-
x	313956	312595	-
x	314524	316398	+
x	316276	316398	+
x	320076	320408	+
x	320127	320408	+
x	321196	322143	+
x	321235	322143	+
x	321700	322143	+
x	323455	324483	+
x	326230	325937	-
x	328834	328613	-
x	331588	331346	-
x	332949	333938	+
x	333042	333938	+
x	333904	335013	+
x	335228	335593	+
x	336746	337054	+
x	338845	339960	+
x	339938	341653	+
x	339941	341653	+
x	342351	341746	-
x	342679	342464	-
x	344350	345198	+
x	347270	346194	-
x	356428	356766	+
x	356893	357729	+
x	360639	360370	-
x	360612	360370	-
x	360648	360926	+
x	362984	362010	-
x	364338	364505	+
x	364721	364602	-
x	365453	365995	+
x	368406	368020	-
x	368412	368020	-
x	369548	369357	-
x	369614	369357	-
x	372278	373084	+
x	372320	373084	+
x	384472	384287	-
x	385617	385390	-
x	386020	385703	-
x	386075	385923	-
x	386084	385923	-
x	386605	386486	-
x	386901	386599	-
x	392956	393675	+
x	396261	396974	+
x	396270	396974	+
x	399154	399312	+
x	399181	399312	+
x	399365	400921	+
x	403234	404715	+
x	405136	404819	-
x	405495	406283	+
x	406809	407087	+
x	407267	408082	+
x	407270	408082	+
x	407294	408082	+
x	407714	408082	+
x	408066	409400	+
x	408075	409400	+
x	409400	409720	+
x	409820	410053	+
x	410537	410343	-
x	412143	412027	-
x	412170	412027	-
x	412777	412709	-
x	412894	412829	-
x	412991	412926	-
x	415000	417714	+
x	418865	418467	-
x	418814	418467	-
x	418802	418467	-
x	418873	419595	+
x	420476	420592	+
x	420479	420592	+
x	420568	420657	+
x	420819	422159	+
x	422325	423290	+
x	422355	423290	+
x	424707	425735	+
x	424848	425735	+
x	426408	427277	+
x	429207	429611	+
x	432146	431034	-
x	440135	441571	+
x	443321	444028	+
x	444464	444529	+
x	445260	446957	+
x	453853	453918	+
x	454010	454108	+
x	454267	454350	+
x	456054	456686	+
x	456060	456686	+
x	457257	458183	+
x	458352	458987	+
x	459004	459351	+
x	459344	459442	+
x	465190	466101	+
x	467669	468460	+
x	467684	468460	+
x	469569	470927	+
x	469596	470927	+
x	471119	472039	+
x	472183	472842	+
x	478744	479940	+
x	482578	483135	+
x	482584	483135	+
x	482620	483135	+
x	483482	485485	+
x	488697	489068	+
x	490020	491567	+
x	498133	498198	+
x	501598	501750	+
x	503649	504215	+
x	504202	505212	+
x	508167	509531	+
x	509556	510629	+
x	511177	512640	+
x	512979	513710	+
x	513030	513710	+
x	513069	513710	+
x	513099	513710	+
x	513664	515094	+
x	515120	515491	+
x	517534	517677	+
x	517733	517915	+
x	518648	519079	+
x	522160	525711	+
x	525848	529471	+
x	529551	529862	+
x	529593	529862	+
x	530529	530909	+
x	530966	533113	+
x	535980	534796	-
x	538629	540269	+
x	538722	540269	+
x	542889	543005	+
x	545225	544563	-
x	545210	544563	-
x	545888	546733	+
x	551192	555154	+
x	558433	558585	+
x	560579	560211	-
x	560570	560211	-
x	562318	562866	+
x	562970	563626	+
x	565779	566072	+
x	565863	566072	+
x	567438	568589	+
x	568624	568929	+
x	574710	574375	-
x	575604	574840	-
x	575915	576112	+
x	578062	578898	+
x	582647	583000	+
x	584500	583052	-
x	584801	584361	-
x	584782	584880	+
x	585420	586835	+
x	586839	587465	+
x	588320	588937	+
x	589909	590430	+
x	590598	591230	+
x	591911	591991	+
x	593102	593752	+
x	593111	593752	+
x	593861	594424	+
x	594390	594635	+
x	594662	595285	+
x	599263	599769	+
x	601541	601969	+
x	601553	601969	+
x	603831	604001	+
x	605030	605917	+
x	606029	607015	+
x	609350	610093	+
x	611942	611823	-
x	612534	612385	-
x	613552	612623	-
x	613553	613693	+
x	613971	613747	-
x	614191	613988	-
x	618071	619570	+
x	618089	619570	+
x	620050	620352	+
x	620318	620764	+
x	620327	620764	+
x	621104	623146	+
x	621272	623146	+
x	628690	627926	-
x	630554	629739	-
x	630859	631692	+
x	630865	631692	+
x	631845	632894	+
x	632424	632894	+
x	632945	633952	+
x	633125	633952	+
x	638044	638124	+
x	640308	640919	+
x	642013	643038	+
x	642061	643038	+
x	642094	643038	+
x	643227	644051	+
x	644288	645253	+
x	645286	645879	+
x	645857	646234	+
x	645863	646234	+
x	647390	648370	+
x	652079	652762	+
x	652764	653795	+
x	652836	653795	+
x	653990	654700	+
x	654678	656579	+
x	654780	656579	+
x	654825	656579	+
x	660654	661334	+
x	660768	661334	+
x	664249	664686	+
x	664327	664686	+
x	665152	665592	+
x	665877	666065	+
x	666154	666273	+
x	666412	667062	+
x	666529	667062	+
x	667364	668044	+
x	668251	669465	+
x	670991	671308	+
x	674688	673954	-
x	675960	677534	+
x	681042	681938	+
x	685994	685710	-
x	686611	685991	-
x	688872	689336	+
x	690245	691006	+
x	691920	693887	+
x	695621	696946	+
x	697207	698007	+
x	700917	700249	-
x	701092	700910	-
x	705853	707013	+
x	707675	707893	+
x	712370	714247	+
x	714262	716040	+
x	718890	720044	+
x	720216	720031	-
x	720066	720170	+
x	724564	724319	-
x	725980	725114	-
x	726365	726631	+
x	726374	726631	+
x	726760	727179	+
x	727091	729247	+
x	727142	729247	+
x	727151	729247	+
x	731002	732015	+
x	732026	732958	+
x	735500	735180	-
x	736553	736425	-
x	737176	738078	+
x	738223	738552	+
x	746067	745612	-
x	747144	748226	+
x	747324	748226	+
x	748216	748893	+
x	752901	753896	+
x	752904	753896	+
x	754338	755144	+
x	755300	755968	+
x	756004	756201	+
x	765159	765440	+
x	768682	768263	-
x	768676	768263	-
x	768546	768340	-
x	768883	769794	+
x	774151	773243	-
x	779556	780407	+
x	783686	784159	+
x	784226	784459	+
x	788840	788980	+
x	789228	789034	-
x	789044	789262	+
x	789831	789529	-
x	790922	790206	-
x	791082	790990	-
x	791373	791525	+
x	791578	792054	+
x	792992	795769	+
x	793037	795769	+
x	796517	797515	+
x	803668	803399	-
x	804068	803964	-
x	803982	804203	+
x	804057	804203	+
x	804442	804200	-
x	804652	805242	+
x	804661	805242	+
x	806829	806963	+
x	811166	811453	+
x	811190	811453	+
x	811719	811477	-
x	811523	811636	+
x	811627	811541	-
x	811658	811804	+
x	812186	812581	+
x	812189	812581	+
x	812192	812581	+
x	819928	819791	-
x	819913	821154	+
x	823389	823159	-
x	823346	823480	+
x	823608	823486	-
x	826343	826209	-
x	826478	827347	+
x	829563	830534	+
x	830655	831047	+
x	831383	831126	-
x	832736	833695	+
x	833952	834059	+
x	834107	834259	+
x	838853	838632	-
x	838960	839298	+
x	838990	839298	+
x	840771	840974	+
x	845004	846341	+
x	851131	850790	-
x	851188	850790	-
x	855544	855921	+
x	855661	855921	+
x	857697	858908	+
x	858975	860261	+
x	860431	860832	+
x	861660	860764	-
x	863341	861935	-
x	863329	861935	-
x	864788	864672	-
x	865139	866191	+
x	867627	868211	+
x	867636	868211	+
x	879755	880072	+
x	879764	880072	+
x	880160	880047	-
x	886412	887428	+
x	886550	887428	+
x	888193	888044	-
x	889211	889663	+
x	890016	890408	+
x	890588	890902	+
x	893991	894089	+
x	894089	894937	+
x	900721	901638	+
x	903161	903658	+
x	903684	904613	+
x	906796	907227	+
x	908723	909424	+
x	911510	911611	+
x	912525	911740	-
x	912934	912569	-
x	919821	919937	+
x	922012	920996	-
x	922363	923991	+
x	922486	923991	+
x	926567	925707	-
x	926897	925707	-
x	926578	926793	+
x	929945	930208	+
x	929957	930208	+
x	930068	930208	+
x	930568	931770	+
x	932078	932875	+
x	932934	933029	+
x	933109	935418	+
x	936929	938443	+
x	939499	938930	-
x	939700	939927	+
x	941456	941986	+
x	943048	943221	+
x	943111	943221	+
x	943813	945294	+
x	945662	946255	+
x	946588	946343	-
x	946531	946343	-
x	946609	946343	-
x	948550	948687	+
x	949153	948776	-
x	949135	948776	-
x	949620	950579	+
x	949653	950579	+
x	949929	950579	+
x	950741	950625	-
x	951035	950820	-
x	951254	951751	+
x	951269	951751	+
x	952913	954283	+
x	952922	954283	+
x	954939	955943	+
x	959286	958153	-
x	960788	960624	-
x	967884	964093	-
x	968540	968091	-
x	969168	968680	-
x	970376	969198	-
x	972886	972596	-
x	978156	978311	+
x	979145	978261	-
x	979322	979804	+
x	981879	982559	+
x	984756	986204	+
x	987800	989287	+
x	987806	989287	+
x	989417	990556	+
x	991642	990821	-
x	992840	991620	-
x	995987	995796	-
x	995999	995796	-
x	1004164	1003985	-
x	1004103	1004195	+
x	1006165	1005995	-
x	1007317	1006694	-
x	1007595	1008236	+
x	1013446	1013736	+
x	1015564	1016316	+
x	1016313	1017131	+
x	1016391	1017131	+
x	1020038	1020142	+
x	1022370	1023215	+
x	1023560	1023369	-
x	1025807	1025649	-
x	1026330	1025818	-
x	1027018	1028256	+
x	1027135	1028256	+
x	1028792	1032262	+
x	1029041	1032262	+
x	1033313	1032402	-
x	1033322	1032402	-
x	1034680	1035150	+
x	1035477	1036514	+
x	1035615	1036514	+
x	1038908	1039450	+
x	1041183	1039996	-
x	1045869	1046312	+
x	1047385	1048263	+
x	1047517	1048263	+
x	1048273	1049052	+
x	1048420	1049052	+
x	1050064	1050378	+
x	1050567	1050665	+
x	1056470	1055514	-
x	1056708	1056779	+
x	1062565	1064346	+
x	1064452	1064601	+
x	1070203	1070343	+
x	1071028	1071144	+
x	1071037	1071144	+
x	1071375	1071235	-
x	1074391	1074633	+
x	1074444	1074584	+
x	1074557	1074745	+
x	1075539	1075291	-
x	1077381	1076413	-
x	1078175	1078372	+
x	1078214	1078372	+
x	1078684	1078565	-
x	1081215	1080460	-
x	1081614	1082624	+
x	1082644	1083579	+
x	1083751	1085307	+
x	1083802	1085307	+
x	1084723	1085307	+
x	1085745	1085458	-
x	1085702	1085842	+
x	1087436	1087531	+
x	1088901	1089587	+
x	1090274	1090170	-
x	1092543	1093478	+
x	1093507	1093893	+
x	1093982	1096108	+
x	1098729	1100051	+
x	1103034	1103825	+
x	1103843	1104517	+
x	1104011	1104517	+
x	1104523	1105077	+
x	1105489	1106268	+
x	1105630	1106268	+
x	1107121	1109883	+
x	1109981	1110133	+
x	1111174	1111031	-
x	1114338	1115654	+
x	1116578	1117855	+
x	1122230	1122925	+
x	1124803	1124690	-
x	1127902	1129107	+
x	1133340	1133137	-
x	1140425	1141300	+
x	1141946	1142593	+
x	1142608	1142703	+
x	1148108	1148665	+
x	1148649	1149656	+
x	1149640	1150575	+
x	1150562	1151302	+
x	1151283	1151438	+
x	1162056	1161931	-
x	1164762	1162135	-
x	1165169	1166026	+
x	1169176	1170327	+
x	1170979	1171599	+
x	1171369	1171599	+
x	1171772	1172644	+
x	1171841	1172644	+
x	1172824	1174893	+
x	1178268	1179680	+
x	1182734	1183510	+
x	1184732	1185226	+
x	1186252	1187538	+
x	1189519	1193835	+
x	1194766	1195788	+
x	1196388	1198529	+
x	1198873	1199265	+
x	1204372	1206096	+
x	1204423	1206096	+
x	1204498	1206096	+
x	1206343	1208721	+
x	1206352	1208721	+
x	1208708	1209439	+
x	1211761	1212021	+
x	1213724	1214068	+
x	1214138	1214680	+
x	1216223	1217266	+
x	1219646	1219476	-
x	1219874	1220662	+
x	1220772	1222562	+
x	1226681	1229299	+
x	1230452	1231321	+
x	1231336	1231869	+
x	1232051	1231890	-
x	1234887	1236608	+
x	1236755	1237672	+
x	1237376	1237672	+
x	1237678	1238625	+
x	1242451	1242789	+
x	1242793	1244148	+
x	1244226	1244339	+
x	1245539	1245751	+
x	1245674	1245751	+
x	1248324	1248419	+
x	1248327	1248419	+
x	1248876	1249301	+
x	1250097	1250213	+
x	1250222	1250347	+
x	1250892	1251065	+
x	1251311	1251661	+
x	1251938	1251843	-
x	1252137	1252247	+
x	1253463	1252408	-
x	1253703	1253900	+
x	1253931	1255439	+
x	1255623	1256522	+
x	1256184	1256522	+
x	1259189	1259296	+
x	1259317	1259889	+
x	1260928	1260032	-
x	1261202	1261792	+
x	1261208	1261792	+
x	1263240	1261846	-
x	1263234	1263341	+
x	1265723	1266682	+
x	1270020	1271543	+
x	1270026	1271543	+
x	1271625	1271783	+
x	1273866	1274678	+
x	1275746	1276057	+
x	1275821	1276057	+
x	1276553	1278541	+
x	1278771	1279061	+
x	1278819	1279061	+
x	1279240	1279707	+
x	1279819	1280952	+
x	1284494	1284057	-
x	1284419	1284057	-
x	1286650	1286534	-
x	1286589	1286696	+
x	1286681	1286872	+
x	1286844	1286725	-
x	1286740	1286826	+
x	1292200	1294197	+
x	1296996	1298309	+
x	1298800	1299660	+
x	1298803	1299660	+
x	1299707	1299802	+
x	1299855	1301003	+
x	1304727	1304209	-
x	1304673	1304209	-
x	1305828	1305932	+
x	1306114	1305926	-
x	1312403	1313410	+
x	1313403	1314194	+
x	1314191	1314826	+
x	1316053	1316754	+
x	1317001	1318338	+
x	1317037	1318338	+
x	1317070	1318338	+
x	1320497	1321066	+
x	1321362	1321114	-
x	1323181	1322405	-
x	1323851	1323165	-
x	1324935	1323988	-
x	1324941	1323988	-
x	1325315	1325145	-
x	1325628	1325278	-
x	1325797	1327641	+
x	1331232	1330246	-
x	1332988	1333182	+
x	1333000	1333182	+
x	1333066	1333182	+
x	1334346	1335968	+
x	1336903	1338033	+
x	1339972	1340694	+
x	1342814	1343824	+
x	1346750	1347028	+
x	1347053	1347676	+
x	1347705	1348844	+
x	1354499	1354296	-
x	1355391	1354528	-
x	1361222	1360281	-
x	1361878	1361633	-
x	1371893	1371798	-
x	1372521	1372069	-
x	1373893	1373684	-
x	1374141	1373947	-
x	1374084	1373947	-
x	1375300	1375118	-
x	1375241	1375155	-
x	1375392	1375264	-
x	1375331	1375447	+
x	1377506	1376091	-
x	1410286	1409132	-
x	1419024	1418908	-
x	1419517	1419125	-
x	1419478	1419125	-
x	1420440	1420039	-
x	1420623	1420444	-
x	1420484	1420648	+
x	1420823	1420948	+
x	1420929	1421555	+
x	1427608	1426310	-
x	1432834	1431599	-
x	1432801	1431599	-
x	1433918	1432806	-
x	1433960	1432806	-
x	1434551	1434189	-
x	1434530	1434189	-
x	1435541	1434843	-
x	1435550	1434843	-
x	1435903	1435595	-
x	1436101	1435595	-
x	1436750	1436172	-
x	1436789	1436172	-
x	1438005	1436761	-
x	1439319	1438012	-
x	1442316	1442191	-
x	1442820	1442371	-
x	1443880	1442912	-
x	1443910	1442912	-
x	1443871	1442912	-
x	1444598	1443873	-
x	1451140	1450481	-
x	1451259	1452185	+
x	1453427	1452300	-
x	1453310	1452300	-
x	1455154	1453688	-
x	1457731	1457979	+
x	1458654	1458085	-
x	1461305	1460355	-
x	1462556	1462371	-
x	1464711	1464415	-
x	1466227	1465880	-
x	1466951	1466820	-
x	1468929	1468675	-
x	1476507	1473307	-
x	1477965	1473307	-
x	1479531	1473307	-
x	1482119	1481748	-
x	1484045	1482837	-
x	1487712	1486012	-
x	1488016	1487693	-
x	1490399	1489041	-
x	1490312	1489041	-
x	1490586	1490389	-
x	1490874	1490996	+
x	1493754	1493521	-
x	1493795	1493724	-
x	1493944	1493789	-
x	1496506	1496393	-
x	1496656	1496393	-
x	1496641	1496393	-
x	1499670	1497709	-
x	1502350	1502255	-
x	1506169	1506372	+
x	1506190	1506372	+
x	1511489	1510560	-
x	1513428	1511734	-
x	1513500	1511734	-
x	1514209	1513466	-
x	1516344	1515589	-
x	1520488	1520234	-
x	1521256	1520498	-
x	1521395	1522210	+
x	1523426	1523292	-
x	1525074	1525205	+
x	1525262	1526128	+
x	1529105	1528896	-
x	1529123	1528896	-
x	1532400	1531153	-
x	1532621	1532728	+
x	1532636	1532728	+
x	1534298	1533849	-
x	1534457	1534359	-
x	1541643	1541182	-
x	1542932	1542066	-
x	1549938	1550183	+
x	1554806	1553451	-
x	1556724	1556581	-
x	1557321	1556824	-
x	1557306	1556824	-
x	1557291	1556824	-
x	1557213	1556824	-
x	1557496	1557239	-
x	1557538	1557239	-
x	1557959	1557525	-
x	1557929	1557525	-
x	1558215	1557949	-
x	1560248	1559316	-
x	1564526	1563933	-
x	1569283	1568411	-
x	1570083	1569316	-
x	1579008	1578517	-
x	1581768	1581016	-
x	1582689	1581790	-
x	1584840	1583920	-
x	1585164	1585075	-
x	1587600	1586893	-
x	1590304	1589642	-
x	1590403	1589642	-
x	1594469	1592613	-
x	1597407	1596250	-
x	1597215	1596250	-
x	1597651	1597761	+
x	1603550	1601433	-
x	1603613	1601433	-
x	1603634	1601433	-
x	1604100	1603639	-
x	1604109	1603639	-
x	1604869	1604192	-
x	1608186	1607431	-
x	1610753	1610631	-
x	1612122	1611370	-
x	1611558	1611370	-
x	1618875	1617865	-
x	1619599	1618865	-
x	1619623	1618865	-
x	1623261	1622332	-
x	1627892	1625259	-
x	1630679	1628232	-
x	1631762	1631571	-
x	1636639	1637913	+
x	1636738	1637913	+
x	1639162	1639061	-
x	1644158	1643685	-
x	1646359	1644149	-
x	1649530	1649652	+
x	1652061	1649782	-
x	1652539	1652336	-
x	1654820	1653777	-
x	1654841	1653777	-
x	1656914	1656456	-
x	1659067	1658867	-
x	1662066	1662263	+
x	1662135	1662263	+
x	1662628	1662380	-
x	1663418	1662732	-
x	1662848	1662732	-
x	1663403	1662732	-
x	1668670	1669269	+
x	1670583	1669492	-
x	1670559	1669492	-
x	1670472	1669492	-
x	1670174	1670593	+
x	1670444	1670593	+
x	1670688	1670599	-
x	1676928	1675567	-
x	1683641	1683081	-
x	1683683	1683081	-
x	1689047	1688106	-
x	1698255	1696753	-
x	1700403	1698739	-
x	1700379	1698739	-
x	1706018	1705674	-
x	1705985	1705674	-
x	1706357	1705674	-
x	1706282	1705674	-
x	1706033	1705674	-
x	1705868	1705674	-
x	1705856	1705674	-
x	1705790	1705674	-
x	1707157	1706498	-
x	1710713	1709745	-
x	1718858	1717875	-
x	1721816	1721298	-
x	1721960	1722103	+
x	1722141	1723217	+
x	1724672	1723533	-
x	1727805	1726828	-
x	1728410	1727898	-
x	1731666	1730527	-
x	1731693	1730527	-
x	1731830	1731964	+
x	1736164	1736664	+
x	1739611	1739501	-
x	1740719	1739679	-
x	1740818	1739679	-
x	1743118	1742510	-
x	1749278	1747419	-
x	1750099	1750194	+
x	1752140	1750440	-
x	1757290	1756346	-
x	1763156	1761822	-
x	1763075	1761822	-
x	1768471	1767629	-
x	1770122	1770436	+
x	1771337	1770561	-
x	1771133	1770561	-
x	1773332	1772532	-
x	1773323	1772532	-
x	1773667	1773762	+
x	1776550	1776648	+
x	1781193	1781465	+
x	1782190	1781582	-
x	1783924	1781582	-
x	1791232	1788818	-
x	1792665	1791523	-
x	1794947	1794447	-
x	1794908	1794447	-
x	1795909	1795589	-
x	1795825	1795589	-
x	1796062	1795589	-
x	1795822	1795589	-
x	1795912	1795589	-
x	1797373	1797257	-
x	1801962	1800919	-
x	1801950	1800919	-
x	1804087	1803968	-
x	1804435	1804782	+
x	1804776	1806074	+
x	1807669	1806782	-
x	1808257	1808805	+
x	1808320	1808805	+
x	1808446	1808805	+
x	1809218	1809361	+
x	1810156	1810722	+
x	1812288	1812437	+
x	1812615	1813058	+
x	1815070	1815429	+
x	1815085	1815429	+
x	1815118	1815429	+
x	1815235	1815429	+
x	1815247	1815429	+
x	1815313	1815429	+
x	1817448	1816537	-
x	1818865	1817570	-
x	1821083	1820862	-
x	1821263	1820862	-
x	1822492	1821722	-
x	1822952	1822473	-
x	1823006	1822473	-
x	1824333	1823266	-
x	1826349	1825909	-
x	1826391	1825909	-
x	1826703	1827317	+
x	1826763	1827317	+
x	1828625	1829095	+
x	1830916	1830347	-
x	1832427	1832552	+
x	1833784	1833476	-
x	1833853	1833476	-
x	1834933	1834373	-
x	1838188	1834373	-
x	1841999	1840527	-
x	1842083	1840527	-
x	1846571	1845807	-
x	1847821	1848012	+
x	1850075	1849365	-
x	1851516	1850818	-
x	1853449	1852916	-
x	1858097	1857963	-
x	1858332	1858523	+
x	1858768	1858625	-
x	1859987	1859010	-
x	1861813	1862268	+
x	1862905	1863069	+
x	1863734	1863618	-
x	1864218	1864349	+
x	1864825	1864941	+
x	1866098	1865526	-
x	1867650	1866403	-
x	1867791	1866403	-
x	1871862	1870735	-
x	1873732	1873875	+
x	1873980	1873879	-
x	1874277	1874426	+
x	1883772	1883698	-
x	1886475	1885345	-
x	1889907	1889485	-
x	1891460	1890834	-
x	1893194	1892067	-
x	1894067	1893345	-
x	1895385	1894060	-
x	1897293	1898531	+
x	1897428	1898531	+
x	1908069	1907767	-
x	1909175	1908723	-
x	1909259	1910548	+
x	1910790	1911935	+
x	1910841	1911935	+
x	1920115	1919801	-
x	1920833	1920093	-
x	1924379	1924251	-
x	1925267	1924647	-
x	1926970	1926566	-
x	1931089	1930703	-
x	1941436	1941182	-
x	1943328	1942978	-
x	1944807	1944274	-
x	1947166	1946234	-
x	1950125	1948782	-
x	1953079	1952825	-
x	1953073	1952825	-
x	1953198	1953085	-
x	1954973	1954794	-
x	1960256	1959996	-
x	1961031	1960810	-
x	1962553	1962705	+
x	1970189	1968999	-
x	1970246	1968999	-
x	1970464	1970258	-
x	1970473	1970258	-
x	1970669	1970547	-
x	1970653	1971069	+
x	1975151	1974621	-
x	1975732	1975337	-
x	1978454	1978275	-
x	1978361	1978275	-
x	1978393	1978524	+
x	1978567	1978451	-
x	1979104	1978643	-
x	1979095	1978643	-
x	1984200	1983130	-
x	1987709	1987617	-
x	1989672	1988305	-
x	1991882	1993411	+
x	1994705	1993500	-
x	2004270	2004154	-
x	2007464	2005995	-
x	2007509	2005995	-
x	2009685	2009563	-
x	2011305	2009728	-
x	2012580	2011495	-
x	2013571	2014506	+
x	2014829	2014701	-
x	2016411	2016295	-
x	2017912	2018124	+
x	2018849	2018697	-
x	2019249	2020361	+
x	2021011	2020418	-
x	2021814	2021257	-
x	2022498	2023082	+
x	2026786	2026331	-
x	2029533	2029297	-
x	2031732	2031938	+
x	2031738	2031938	+
x	2032513	2032821	+
x	2032869	2033060	+
x	2034896	2034690	-
x	2035147	2034893	-
x	2035074	2035229	+
x	2035388	2035248	-
x	2036069	2036221	+
x	2037357	2037124	-
x	2037775	2037590	-
x	2037724	2037590	-
x	2038146	2037916	-
x	2045386	2044037	-
x	2048828	2048745	-
x	2051478	2051146	-
x	2053934	2053338	-
x	2055165	2053915	-
x	2055371	2055171	-
x	2058032	2057679	-
x	2059302	2059099	-
x	2059299	2059099	-
x	2059457	2059299	-
x	2060577	2060407	-
x	2062165	2061857	-
x	2065268	2065119	-
x	2068421	2069056	+
x	2071105	2070824	-
x	2073513	2074574	+
x	2076565	2075693	-
x	2076603	2076746	+
x	2077732	2076731	-
x	2078158	2079444	+
x	2079563	2079465	-
x	2084407	2083955	-
x	2084380	2083955	-
x	2084905	2084504	-
x	2086061	2085846	-
x	2086399	2086665	+
x	2090950	2089679	-
x	2093084	2092983	-
x	2093641	2093504	-
x	2093584	2093504	-
x	2094605	2095897	+
x	2095226	2095897	+
x	2095916	2096632	+
x	2101125	2100721	-
x	2101947	2100721	-
x	2102087	2101974	-
x	2102427	2102179	-
x	2102376	2102179	-
x	2103542	2102463	-
x	2106923	2106807	-
x	2110218	2109754	-
x	2110179	2109754	-
x	2110880	2110191	-
x	2111328	2110834	-
x	2111295	2110834	-
x	2111818	2113494	+
x	2113513	2115291	+
x	2129328	2128897	-
x	2129361	2128897	-
x	2133153	2132674	-
x	2136671	2135553	-
x	2136725	2135553	-
x	2137624	2137130	-
x	2137603	2137130	-
x	2139875	2139759	-
x	2142479	2140452	-
x	2142488	2140452	-
x	2144150	2142498	-
x	2144374	2147103	+
x	2149630	2148167	-
x	2149720	2148167	-
x	2152758	2151577	-
x	2152662	2151577	-
x	2155255	2154917	-
x	2155301	2156860	+
x	2156870	2157535	+
x	2158956	2158348	-
x	2159103	2158348	-
x	2162461	2162336	-
x	2163504	2163611	+
x	2164295	2164735	+
x	2170163	2169297	-
x	2170115	2169297	-
x	2174339	2173986	-
x	2174390	2173986	-
x	2175636	2174506	-
x	2179699	2178626	-
x	2179681	2178626	-
x	2179672	2178626	-
x	2180589	2179756	-
x	2180592	2179756	-
x	2184305	2182974	-
x	2186540	2186202	-
x	2192644	2192501	-
x	2200948	2199608	-
x	2206794	2206555	-
x	2206701	2206555	-
x	2210375	2210473	+
x	2210519	2210626	+
x	2212189	2212109	-
x	2214584	2214474	-
x	2215991	2215122	-
x	2218884	2217061	-
x	2219316	2219489	+
x	2219334	2219489	+
x	2221105	2223252	+
x	2223040	2223252	+
x	2231851	2225123	-
x	2227123	2225123	-
x	2229004	2225123	-
x	2235787	2235152	-
x	2237248	2238486	+
x	2237383	2238486	+
x	2245879	2244932	-
x	2245741	2244932	-
x	2247472	2246027	-
x	2247418	2246027	-
x	2248258	2247791	-
x	2248836	2248363	-
x	2250569	2249883	-
x	2252868	2252761	-
x	2254216	2252900	-
x	2254270	2252900	-
x	2255384	2254506	-
x	2256388	2255471	-
x	2257527	2256514	-
x	2261747	2260710	-
x	2262011	2263981	+
x	2264605	2265237	+
x	2265234	2265554	+
x	2265702	2266061	+
x	2265750	2266061	+
x	2265867	2266061	+
x	2265879	2266061	+
x	2265945	2266061	+
x	2267391	2266921	-
x	2267469	2266921	-
x	2271740	2270736	-
x	2272889	2272020	-
x	2276303	2274585	-
x	2279655	2279539	-
x	2280647	2279892	-
x	2280898	2281629	+
x	2281009	2281629	+
x	2281678	2281827	+
x	2282354	2281920	-
x	2284068	2283970	-
x	2284728	2284880	+
x	2284871	2287300	+
x	2288058	2287360	-
x	2289246	2288425	-
x	2291039	2290323	-
x	2292976	2293200	+
x	2293008	2293103	+
x	2295270	2293918	-
x	2294517	2293918	-
x	2297382	2296639	-
x	2299719	2299327	-
x	2303797	2302877	-
x	2307659	2306985	-
x	2308926	2307649	-
x	2311681	2311496	-
x	2312195	2311704	-
x	2313531	2313310	-
x	2315331	2315005	-
x	2317770	2317141	-
x	2318139	2317831	-
x	2318490	2318885	+
x	2320411	2319077	-
x	2320330	2319077	-
x	2322756	2323733	+
x	2322768	2323733	+
x	2326122	2325196	-
x	2326104	2325196	-
x	2326613	2326963	+
x	2330263	2327150	-
x	2332290	2332171	-
x	2335842	2335708	-
x	2336975	2336046	-
x	2342138	2341230	-
x	2346512	2345736	-
x	2348122	2347253	-
x	2348395	2348207	-
x	2348344	2348207	-
x	2351019	2350927	-
x	2352002	2351097	-
x	2352011	2351097	-
x	2352295	2352564	+
x	2352997	2354700	+
x	2356666	2357310	+
x	2360509	2359433	-
x	2361792	2361908	+
x	2363039	2362818	-
x	2362946	2362818	-
x	2364427	2363234	-
x	2367314	2367523	+
x	2370836	2370060	-
x	2371028	2370858	-
x	2371109	2370858	-
x	2370935	2370858	-
x	2376295	2375348	-
x	2376304	2375348	-
x	2376202	2375348	-
x	2376301	2375348	-
x	2377237	2376428	-
x	2378661	2378972	+
x	2379735	2380064	+
x	2379756	2380064	+
x	2380500	2381381	+
x	2384249	2384061	-
x	2385842	2384973	-
x	2386133	2386687	+
x	2391561	2390182	-
x	2391495	2390182	-
x	2391473	2391637	+
x	2393381	2392776	-
x	2398468	2399109	+
x	2401878	2402690	+
x	2404512	2404399	-
x	2405754	2405554	-
x	2406063	2405929	-
x	2408390	2408292	-
x	2409124	2408453	-
x	2409092	2409214	+
x	2409268	2409411	+
x	2409280	2409411	+
x	2410108	2410296	+
x	2413806	2414315	+
x	2415759	2414839	-
x	2415696	2414839	-
x	2419433	2418795	-
x	2419441	2419566	+
x	2423232	2423381	+
x	2424545	2425060	+
x	2427960	2428661	+
x	2432686	2431151	-
x	2434730	2434602	-
x	2434910	2436598	+
x	2438358	2439404	+
x	2438400	2439404	+
x	2439851	2439450	-
x	2440882	2439887	-
x	2440960	2439887	-
x	2441551	2441153	-
x	2446555	2446938	+
x	2448213	2448386	+
x	2448993	2450531	+
x	2451242	2451120	-
x	2451337	2451645	+
x	2453293	2452049	-
x	2454403	2454717	+
x	2454924	2455361	+
x	2454939	2455361	+
x	2456661	2455468	-
x	2456708	2456827	+
x	2459551	2458898	-
x	2462349	2461774	-
x	2462301	2461774	-
x	2463901	2462342	-
x	2463877	2462342	-
x	2467677	2467552	-
x	2472347	2471646	-
x	2472395	2471646	-
x	2472416	2471646	-
x	2474122	2473376	-
x	2474083	2473376	-
x	2477372	2477181	-
x	2477961	2477863	-
x	2478990	2478589	-
x	2478960	2478589	-
x	2478951	2478589	-
x	2481775	2481281	-
x	2482009	2481281	-
x	2484278	2482881	-
x	2484320	2482881	-
x	2489094	2488912	-
x	2489193	2490158	+
x	2490222	2490347	+
x	2493195	2492704	-
x	2493910	2493182	-
x	2493859	2493182	-
x	2502003	2500219	-
x	2501916	2500219	-
x	2502315	2502169	-
x	2502245	2502337	+
x	2502574	2502476	-
x	2502614	2502820	+
x	2503496	2504647	+
x	2507468	2508124	+
x	2509014	2508187	-
x	2510276	2510689	+
x	2524239	2523007	-
x	2524278	2523007	-
x	2524862	2524749	-
x	2525517	2524903	-
x	2525665	2525495	-
x	2527563	2527447	-
x	2527502	2527639	+
x	2530519	2529341	-
x	2530528	2529341	-
x	2533688	2532603	-
x	2535520	2535422	-
x	2537153	2537245	+
x	2544437	2542857	-
x	2545899	2544598	-
x	2547494	2546721	-
x	2547945	2547814	-
x	2549756	2549037	-
x	2552965	2552612	-
x	2552812	2552612	-
x	2553432	2553049	-
x	2553249	2553049	-
x	2555551	2555673	+
x	2555654	2555794	+
x	2555660	2555794	+
x	2556347	2556192	-
x	2557482	2556685	-
x	2558568	2558305	-
x	2560194	2559952	-
x	2560740	2559952	-
x	2561622	2560849	-
x	2561079	2560849	-
x	2561625	2560849	-
x	2561725	2561820	+
x	2565134	2565262	+
x	2565357	2567108	+
x	2565450	2567108	+
x	2565471	2567108	+
x	2567470	2567658	+
x	2567844	2568110	+
x	2574898	2570009	-
x	2570599	2570009	-
x	2575556	2575197	-
x	2575553	2575197	-
x	2577627	2576833	-
x	2577699	2576833	-
x	2578265	2577879	-
x	2579189	2577879	-
x	2580701	2577879	-
x	2580984	2580862	-
x	2584439	2581383	-
x	2584370	2581383	-
x	2584722	2584573	-
x	2584773	2584573	-
x	2588636	2587959	-
x	2588666	2587959	-
x	2591124	2590645	-
x	2590836	2590645	-
x	2591133	2590645	-
x	2594707	2593502	-
x	2597654	2597190	-
x	2599403	2599549	+
x	2601959	2602111	+
x	2602034	2602111	+
x	2602230	2603309	+
x	2602257	2603309	+
x	2604010	2603414	-
x	2604997	2604029	-
x	2605727	2606020	+
x	2607779	2607117	-
x	2607995	2609050	+
x	2608058	2609050	+
x	2610171	2609299	-
x	2611070	2611792	+
x	2613735	2613926	+
x	2616650	2615640	-
x	2616683	2615640	-
x	2617219	2617437	+
x	2617593	2618555	+
x	2617629	2618555	+
x	2617803	2618555	+
x	2620091	2619738	-
x	2620599	2620700	+
x	2620914	2620846	-
x	2623013	2620914	-
x	2626090	2625749	-
x	2627244	2626357	-
x	2627235	2626357	-
x	2627220	2626357	-
x	2627241	2626357	-
x	2627420	2627620	+
x	2629434	2629201	-
x	2636187	2636008	-
x	2641129	2638640	-
x	2641337	2641822	+
x	2642042	2641899	-
x	2644493	2643912	-
x	2644741	2644941	+
x	2647860	2648075	+
x	2649193	2648165	-
x	2654323	2653187	-
x	2654269	2653187	-
x	2655822	2654320	-
x	2656303	2655806	-
x	2663078	2661993	-
x	2663425	2664027	+
x	2663440	2664027	+
x	2664273	2664725	+
x	2664291	2664725	+
x	2664369	2664725	+
x	2664405	2664725	+
x	2665753	2665325	-
x	2666273	2665719	-
x	2668254	2668361	+
x	2675052	2674777	-
x	2675365	2675240	-
x	2676206	2675397	-
x	2676278	2675397	-
x	2678125	2678012	-
x	2682681	2682298	-
x	2683549	2682683	-
x	2684345	2683527	-
x	2690894	2689521	-
x	2690864	2689521	-
x	2690979	2690884	-
x	2691107	2691532	+
x	2691401	2691532	+
x	2694563	2694859	+
x	2694659	2694859	+
x	2694737	2694859	+
x	2696538	2694919	-
x	2697190	2696711	-
x	2701617	2702201	+
x	2701635	2702201	+
x	2704961	2703339	-
x	2709498	2708110	-
x	2713674	2713423	-
x	2714221	2714108	-
x	2717598	2716834	-
x	2718593	2717697	-
x	2718638	2717697	-
x	2719474	2719286	-
x	2721272	2721168	-
x	2721269	2721168	-
x	2721864	2721391	-
x	2726637	2725951	-
x	2727008	2726754	-
x	2727722	2726754	-
x	2729148	2727712	-
x	2731846	2731688	-
x	2732358	2731858	-
x	2734203	2732674	-
x	2735397	2735870	+
x	2744064	2741077	-
x	2746961	2746395	-
x	2748973	2747123	-
x	2749036	2747123	-
x	2754479	2752149	-
x	2755569	2754529	-
x	2755566	2754529	-
x	2757037	2755466	-
x	2757680	2757024	-
x	2759634	2758588	-
x	2767208	2767098	-
x	2768301	2768675	+
x	2768659	2768964	+
x	2772826	2772230	-
x	2773634	2772939	-
x	2773625	2772939	-
x	2775213	2776412	+
x	2775300	2776412	+
x	2776657	2777550	+
x	2778938	2778780	-
x	2779008	2778943	-
x	2781081	2779036	-
x	2782011	2781799	-
x	2782803	2782171	-
x	2787660	2786404	-
x	2788950	2788279	-
x	2789136	2788279	-
x	2789288	2789395	+
x	2791114	2790644	-
x	2794343	2793783	-
x	2797316	2796258	-
x	2797232	2796258	-
x	2800582	2801064	+
x	2802118	2802720	+
x	2803897	2803133	-
x	2804970	2806022	+
x	2806182	2806087	-
x	2806259	2807059	+
x	2807714	2807193	-
x	2810709	2810900	+
x	2811038	2811448	+
x	2812017	2811508	-
x	2812463	2812654	+
x	2813047	2813247	+
x	2814583	2814203	-
x	2815207	2815356	+
x	2818951	2817074	-
x	2820883	2820536	-
x	2820892	2820536	-
