x	3679	3915	+
x	5037	6968	+
x	5046	6968	+
x	6987	9674	+
x	10463	9762	-
x	10574	9762	-
x	10900	12414	+
x	15503	15751	+
x	16114	17082	+
x	17327	18313	+
x	17375	18313	+
x	17390	18313	+
x	18310	20295	+
x	22246	22311	+
x	24934	25635	+
x	27458	28801	+
x	27467	28801	+
x	27518	28801	+
x	27623	28801	+
x	29997	30779	+
x	30964	33324	+
x	30982	33324	+
x	33705	33556	-
x	33693	33556	-
x	34011	33556	-
x	34035	33556	-
x	34493	35749	+
x	34508	35749	+
x	38405	38229	-
x	40005	40178	+
x	41561	40818	-
x	42713	42880	+
x	42978	43208	+
x	47239	48894	+
x	49418	49350	-
x	49366	49578	+
x	49375	49578	+
x	49773	50882	+
x	53557	53823	+
x	53838	54467	+
x	55468	54806	-
x	60005	58176	-
x	62113	61607	-
x	62536	62444	-
x	66414	65047	-
x	70631	70209	-
x	71520	71654	+
x	72763	71861	-
x	80886	81251	+
x	83725	82829	-
x	84362	83925	-
x	84754	84467	-
x	87244	87107	-
x	87477	87343	-
x	87441	87533	+
x	87680	89425	+
x	89935	89609	-
x	89974	90057	+
x	90251	90183	-
x	91390	91124	-
x	93960	95162	+
x	95530	95429	-
x	96281	95829	-
x	96761	95829	-
x	97187	97327	+
x	97343	97672	+
x	97880	98482	+
x	98234	98482	+
x	103856	104623	+
x	103877	104623	+
x	104387	104623	+
x	104642	105445	+
x	105209	105445	+
x	105897	106280	+
x	106348	107115	+
x	106369	107115	+
x	106423	107115	+
x	106879	107115	+
x	108085	110283	+
x	110425	111612	+
x	113164	113286	+
x	115147	113486	-
x	117253	115472	-
x	118302	117421	-
x	124037	122649	-
x	125198	124422	-
x	126541	125543	-
x	126457	125543	-
x	128523	127549	-
x	128805	129752	+
x	128832	129752	+
x	128907	129752	+
x	129761	130759	+
x	133037	133783	+
x	133956	135509	+
x	135418	137268	+
x	135571	137268	+
x	137243	138019	+
x	137324	138019	+
x	140118	139927	-
x	140459	140337	-
x	140416	140811	+
x	141961	141848	-
x	141997	141848	-
x	141943	142065	+
x	142135	143115	+
x	142156	143115	+
x	142720	143115	+
x	143186	143770	+
x	143378	143770	+
x	146331	147785	+
x	150690	149935	-
x	151017	150793	-
x	151634	152992	+
x	156607	155882	-
x	160426	161967	+
x	162115	162891	+
x	163869	164072	+
x	168084	168779	+
x	169479	171389	+
x	169554	171389	+
x	169626	171389	+
x	171322	172407	+
x	172414	173529	+
x	177594	178778	+
x	179175	179984	+
x	182832	183977	+
x	184362	184042	-
x	186799	186918	+
x	187214	188278	+
x	188407	188270	-
x	188346	188525	+
x	188438	188590	+
x	192299	193336	+
x	192302	193336	+
x	193553	193912	+
x	193625	193912	+
x	193652	193912	+
x	193936	195111	+
x	194080	195111	+
x	194086	195111	+
x	197176	204369	+
x	197200	204369	+
x	205833	205354	-
x	207041	206883	-
x	209170	208136	-
x	210417	209206	-
x	212834	212277	-
x	214734	214835	+
x	216811	214814	-
x	216874	214814	-
x	217459	218499	+
x	218499	219395	+
x	220861	221739	+
x	228066	229052	+
x	229551	231236	+
x	231274	231738	+
x	231304	231738	+
x	232638	232835	+
x	232870	232682	-
x	234894	236372	+
x	234936	236372	+
x	235026	236372	+
x	235065	236372	+
x	235110	236372	+
x	243350	242652	-
x	243475	244065	+
x	245598	246830	+
x	248025	248942	+
x	248085	248942	+
x	249016	250092	+
x	252368	252442	+
x	253050	252541	-
x	253113	252541	-
x	253250	254647	+
x	253991	254647	+
x	258851	261115	+
x	261997	262110	+
x	262164	263978	+
x	266941	266834	-
x	268432	267239	-
x	272156	270900	-
x	273815	272223	-
x	275325	273754	-
x	275331	273754	-
x	275334	273754	-
x	275667	276914	+
x	275685	276914	+
x	278640	277228	-
x	279293	278901	-
x	280913	281020	+
x	281475	282284	+
x	282577	282452	-
x	284139	282604	-
x	284052	282604	-
x	285540	285620	+
x	285746	287863	+
x	287863	288315	+
x	288815	288681	-
x	290111	291175	+
x	290117	291175	+
x	291153	291323	+
x	292906	293634	+
x	292960	293634	+
x	294848	294561	-
x	294827	296368	+
x	301721	303439	+
x	304517	306256	+
x	307112	307555	+
x	310041	311453	+
x	311525	311683	+
x	311580	311801	+
x	312720	312854	+
x	315203	314313	-
x	316575	316754	+
x	316641	316754	+
x	318709	317324	-
x	320234	321202	+
x	320462	321202	+
x	323953	322844	-
x	324175	324297	+
x	326834	325932	-
x	327022	327366	+
x	330869	331150	+
x	337710	338384	+
x	338702	340555	+
x	340626	341057	+
x	340806	341057	+
x	343555	344196	+
x	343756	344196	+
x	343936	344196	+
x	344690	345217	+
x	344744	345217	+
x	344777	345217	+
x	344957	345217	+
x	345201	345713	+
x	345255	345713	+
x	345288	345713	+
x	345468	345713	+
x	345734	345859	+
x	346335	346712	+
x	346883	347260	+
x	348321	347476	-
x	348171	347476	-
x	349814	348537	-
x	349739	348537	-
x	349765	350004	+
x	351568	351335	-
x	351518	351345	-
x	353605	353465	-
x	353508	354545	+
x	353595	354545	+
x	360809	361711	+
x	365088	363727	-
x	365112	363727	-
x	365659	367533	+
x	367411	367533	+
x	369970	370062	+
x	371262	371543	+
x	371271	371543	+
x	372334	373278	+
x	372370	373278	+
x	372835	373278	+
x	374591	375619	+
x	377367	377074	-
x	379971	379750	-
x	382724	382482	-
x	384089	385078	+
x	384182	385078	+
x	385044	386153	+
x	386368	386733	+
x	387786	388139	+
x	389815	391044	+
x	391025	392737	+
x	391055	392737	+
x	393634	392978	-
x	393583	392978	-
x	393920	393696	-
x	395580	396428	+
x	398520	397444	-
x	399143	398985	-
x	407676	408014	+
x	408132	408977	+
x	411884	411615	-
x	411857	411615	-
x	411893	412171	+
x	414204	413266	-
x	414802	414662	-
x	415606	415773	+
x	416721	417263	+
x	418640	419221	+
x	419679	419287	-
x	419673	419287	-
x	419732	419827	+
x	420884	420639	-
x	423601	424365	+
x	425918	426016	+
x	426644	427999	+
x	426779	427999	+
x	437272	437087	-
x	438462	438190	-
x	438417	438190	-
x	438884	438723	-
x	438733	438993	+
x	439709	439407	-
x	444242	444379	+
x	445715	446434	+
x	446637	446338	-
x	447899	448612	+
x	447908	448612	+
x	450816	450947	+
x	450922	450821	-
x	451084	452556	+
x	456761	456444	-
x	457119	457892	+
x	458355	458717	+
x	458765	459550	+
x	459595	460356	+
x	462063	462854	+
x	462495	462854	+
x	464229	464507	+
x	464689	465501	+
x	464764	465501	+
x	466816	467136	+
x	467236	467469	+
x	467952	467758	-
x	469585	469442	-
x	469558	469442	-
x	469608	469736	+
x	470192	470124	-
x	470309	470244	-
x	470406	470341	-
x	472415	475129	+
x	476280	475882	-
x	476217	475882	-
x	476298	475882	-
x	476229	475882	-
x	476288	477010	+
x	478153	479490	+
x	479656	480612	+
x	479686	480612	+
x	480599	481747	+
x	482039	483067	+
x	482180	483067	+
x	483740	484609	+
x	486399	486130	-
x	486539	486943	+
x	489484	488366	-
x	497465	498901	+
x	500651	501358	+
x	501762	501863	+
x	501798	501863	+
x	502618	504291	+
x	505506	505583	+
x	507882	507703	-
x	511304	511369	+
x	511461	511559	+
x	511582	511653	+
x	511738	511836	+
x	513525	514157	+
x	513531	514157	+
x	514809	514633	-
x	514815	515654	+
x	515655	516458	+
x	516475	516822	+
x	516505	516822	+
x	516815	516913	+
x	519083	518928	-
x	522661	523572	+
x	525140	525931	+
x	525155	525931	+
x	526400	526702	+
x	526913	527044	+
x	527061	528419	+
x	527088	528419	+
x	528611	529531	+
x	529699	529589	-
x	529675	530334	+
x	536236	537432	+
x	540070	540627	+
x	540076	540627	+
x	540112	540627	+
x	540974	542977	+
x	546188	546559	+
x	547426	547518	+
x	547511	549058	+
x	555595	555660	+
x	555750	555848	+
x	559058	559210	+
x	561187	561675	+
x	561662	562672	+
x	565228	565070	-
x	565657	566991	+
x	567034	568089	+
x	568637	570100	+
x	570439	571170	+
x	570490	571170	+
x	570523	571170	+
x	570559	571170	+
x	571124	572554	+
x	572580	572951	+
x	574994	575137	+
x	575157	575375	+
x	576108	576539	+
x	579761	583171	+
x	583335	586931	+
x	587011	587322	+
x	587053	587322	+
x	587989	588369	+
x	588426	590573	+
x	593440	592256	-
x	593602	594789	+
x	596093	597733	+
x	596186	597733	+
x	602690	602028	-
x	602675	602028	-
x	603353	604198	+
x	605329	605063	-
x	619701	619853	+
x	621841	621479	-
x	621847	621479	-
x	623631	624134	+
x	624238	624894	+
x	627047	627340	+
x	628706	629857	+
x	629892	630197	+
x	635977	635642	-
x	636871	636107	-
x	637182	637379	+
x	639401	640165	+
x	640752	641672	+
x	643914	644267	+
x	645641	644319	-
x	646044	645628	-
x	646049	646147	+
x	646126	646227	+
x	646687	648087	+
x	648842	649390	+
x	649521	650162	+
x	651688	651572	-
x	651627	651755	+
x	654537	655058	+
x	656843	657259	+
x	656876	657259	+
x	660134	660961	+
x	661074	662060	+
x	664395	665138	+
x	666988	666869	-
x	667580	667431	-
x	668562	667669	-
x	669134	668793	-
x	673117	674616	+
x	673135	674616	+
x	675385	675059	-
x	675352	675810	+
x	675364	675810	+
x	676189	678192	+
x	676318	678192	+
x	679655	678300	-
x	679520	678300	-
x	684848	684084	-
x	686712	685897	-
x	687023	687850	+
x	687038	687850	+
x	687949	689052	+
x	688003	689052	+
x	689049	690110	+
x	689283	690110	+
x	695972	696064	+
x	696242	697075	+
x	698169	699194	+
x	698217	699194	+
x	698250	699194	+
x	699383	700207	+
x	700441	701409	+
x	701442	702035	+
x	702013	702390	+
x	702019	702390	+
x	703460	704527	+
x	706074	705886	-
x	708236	708919	+
x	708921	709952	+
x	708993	709952	+
x	710147	710857	+
x	710847	712736	+
x	710937	712736	+
x	710982	712736	+
x	716809	717489	+
x	716923	717489	+
x	720404	720841	+
x	720482	720841	+
x	721031	721747	+
x	721747	722220	+
x	722309	722428	+
x	722312	722428	+
x	722684	723217	+
x	723333	724199	+
x	724331	725551	+
x	727077	727394	+
x	730774	730040	-
x	732046	733620	+
x	737128	738024	+
x	742143	741796	-
x	742694	742077	-
x	744958	745422	+
x	746328	747092	+
x	748006	749973	+
x	750200	750027	-
x	751707	753032	+
x	753293	754093	+
x	757003	756335	-
x	757469	756996	-
x	761940	763100	+
x	763762	763980	+
x	768479	768321	-
x	768450	770333	+
x	770348	772126	+
x	774976	776130	+
x	776290	776117	-
x	776134	776244	+
x	776229	776321	+
x	777257	777087	-
x	777124	777285	+
x	777350	777538	+
x	777500	777396	-
x	778898	778999	+
x	780893	780648	-
x	782177	781443	-
x	782694	782960	+
x	782703	782960	+
x	783089	783508	+
x	783411	785576	+
x	783471	785576	+
x	783480	785576	+
x	786846	787001	+
x	786998	788011	+
x	788022	788954	+
x	791496	791176	-
x	792549	792421	-
x	793172	794074	+
x	794219	794548	+
x	802055	801600	-
x	803615	804697	+
x	803744	804697	+
x	803759	804697	+
x	804687	805364	+
x	808984	809088	+
x	809372	810367	+
x	809492	810367	+
x	810521	810628	+
x	810809	811615	+
x	811771	812439	+
x	812475	812672	+
x	812893	814926	+
x	812941	814926	+
x	813952	814926	+
x	818205	818056	-
x	818157	818056	-
x	820433	820714	+
x	823712	823491	-
x	823914	823510	-
x	823908	823510	-
x	823653	823510	-
x	823677	823510	-
x	823902	823510	-
x	824207	825019	+
x	829368	828460	-
x	831186	831046	-
x	831114	831296	+
x	831286	831137	-
x	835056	835907	+
x	839185	839658	+
x	839683	839958	+
x	844339	844479	+
x	844480	844761	+
x	844727	844533	-
x	845351	845028	-
x	845513	845367	-
x	846421	845705	-
x	846581	846489	-
x	846868	847023	+
x	846871	847023	+
x	847076	847552	+
x	848490	851453	+
x	848535	851453	+
x	859378	859109	-
x	859778	859674	-
x	859692	859913	+
x	859767	859913	+
x	860152	859910	-
x	860362	860952	+
x	860392	860952	+
x	862539	862673	+
x	866171	866284	+
x	868153	869982	+
x	873589	873876	+
x	874142	873900	-
x	873946	874008	+
x	874050	873964	-
x	874081	874227	+
x	874350	874463	+
x	874664	875059	+
x	874667	875059	+
x	874670	875059	+
x	882407	882270	-
x	882383	883633	+
x	885868	885638	-
x	885822	885938	+
x	885825	885938	+
x	886089	885967	-
x	888824	888690	-
x	889131	890000	+
x	892216	893187	+
x	893308	893700	+
x	893870	895225	+
x	894005	895225	+
x	895556	895299	-
x	896984	897868	+
x	898122	898232	+
x	898125	898232	+
x	898229	898432	+
x	903026	902805	-
x	903133	903471	+
x	903148	903471	+
x	904944	905147	+
x	915292	914963	-
x	915361	914963	-
x	919716	920093	+
x	919749	920093	+
x	921869	923080	+
x	923147	924433	+
x	925666	924770	-
x	927347	925941	-
x	927335	925941	-
x	928794	928678	-
x	929145	930197	+
x	931633	932217	+
x	931750	932217	+
x	943762	944079	+
x	943813	944079	+
x	950420	951436	+
x	950558	951436	+
x	952201	952052	-
x	954021	954413	+
x	954593	954907	+
x	957996	958094	+
x	958094	958942	+
x	964725	965642	+
x	967165	967662	+
x	967688	968617	+
x	970799	971230	+
x	972726	973427	+
x	976549	975743	-
x	976889	976572	-
x	983824	983940	+
x	986017	985001	-
x	986368	987996	+
x	986428	987996	+
x	990923	989715	-
x	990575	989715	-
x	990586	990801	+
x	993953	994216	+
x	993956	994216	+
x	994076	994216	+
x	994576	995778	+
x	996086	996883	+
x	996942	997037	+
x	997102	999426	+
x	1000940	1002451	+
x	1003468	1002938	-
x	1003708	1003935	+
x	1005464	1005994	+
x	1006264	1006371	+
x	1006910	1007011	+
x	1007055	1007228	+
x	1007118	1007228	+
x	1007820	1009301	+
x	1009669	1010262	+
x	1010616	1010350	-
x	1010538	1010350	-
x	1010640	1010350	-
x	1010781	1010918	+
x	1011384	1011007	-
x	1011366	1011007	-
x	1011884	1012810	+
x	1011947	1012810	+
x	1012160	1012810	+
x	1012987	1012856	-
x	1012972	1012856	-
x	1013341	1013051	-
x	1013485	1013982	+
x	1013500	1013982	+
x	1015123	1015227	+
x	1015145	1016515	+
x	1015304	1016515	+
x	1017171	1018175	+
x	1021517	1020384	-
x	1023037	1022873	-
x	1026162	1026272	+
x	1030109	1026342	-
x	1030765	1030316	-
x	1031393	1030905	-
x	1032601	1031423	-
x	1035099	1034821	-
x	1039037	1039153	+
x	1040097	1039975	-
x	1040095	1040003	-
x	1040438	1040593	+
x	1041427	1040543	-
x	1041667	1042086	+
x	1044161	1044841	+
x	1047038	1048486	+
x	1050082	1051569	+
x	1050091	1051569	+
x	1051591	1052838	+
x	1053927	1053106	-
x	1055125	1053905	-
x	1056674	1056276	-
x	1056421	1056567	+
x	1058524	1058333	-
x	1058536	1058333	-
x	1066504	1066629	+
x	1068647	1068429	-
x	1068798	1068676	-
x	1069752	1069129	-
x	1070030	1070671	+
x	1075881	1076171	+
x	1077999	1078751	+
x	1078748	1079566	+
x	1078826	1079566	+
x	1082470	1082574	+
x	1084802	1085647	+
x	1085745	1086032	+
x	1088239	1088081	-
x	1088762	1088250	-
x	1089450	1090688	+
x	1089462	1090688	+
x	1091224	1094694	+
x	1091473	1094694	+
x	1095904	1094834	-
x	1095754	1094834	-
x	1096185	1097096	+
x	1097112	1097582	+
x	1097794	1097997	+
x	1098047	1098946	+
x	1098125	1098946	+
x	1101412	1101882	+
x	1103615	1102428	-
x	1104387	1104163	-
x	1108299	1108742	+
x	1109845	1110693	+
x	1109947	1110693	+
x	1110703	1111671	+
x	1110706	1111671	+
x	1112486	1112809	+
x	1112846	1112953	+
x	1112998	1113096	+
x	1119161	1118205	-
x	1119399	1119470	+
x	1125089	1124994	-
x	1125324	1127036	+
x	1127142	1127291	+
x	1132866	1133033	+
x	1132893	1133033	+
x	1133718	1133834	+
x	1133727	1133834	+
x	1134065	1133925	-
x	1134577	1134693	+
x	1137076	1137318	+
x	1137121	1137318	+
x	1137133	1137318	+
x	1138138	1137920	-
x	1138168	1137920	-
x	1139048	1140403	+
x	1139183	1140403	+
x	1141530	1140562	-
x	1142194	1142340	+
x	1142297	1142521	+
x	1142363	1142521	+
x	1142713	1142796	+
x	1145410	1144655	-
x	1145809	1146819	+
x	1146839	1147774	+
x	1147997	1149502	+
x	1148012	1149502	+
x	1148918	1149502	+
x	1149939	1149652	-
x	1149896	1150036	+
x	1151631	1151726	+
x	1152631	1152765	+
x	1152822	1152956	+
x	1153080	1153775	+
x	1154462	1154358	-
x	1154930	1156132	+
x	1156744	1157658	+
x	1157687	1158073	+
x	1158162	1160288	+
x	1162909	1164231	+
x	1167340	1168005	+
x	1168029	1168697	+
x	1168191	1168697	+
x	1168703	1169257	+
x	1169642	1170448	+
x	1169669	1170448	+
x	1171301	1174063	+
x	1175421	1175212	-
x	1175355	1175212	-
x	1178519	1179835	+
x	1180759	1182036	+
x	1186411	1187106	+
x	1188984	1188871	-
x	1192083	1193288	+
x	1197596	1197318	-
x	1199233	1200540	+
x	1204624	1205481	+
x	1206127	1206774	+
x	1206789	1206884	+
x	1212274	1212846	+
x	1212830	1213837	+
x	1213821	1214756	+
x	1214749	1215483	+
x	1215464	1215619	+
x	1215896	1215792	-
x	1229135	1226508	-
x	1229542	1230399	+
x	1233549	1234700	+
x	1235352	1235972	+
x	1235742	1235972	+
x	1236214	1237017	+
x	1236277	1237017	+
x	1237191	1239266	+
x	1242642	1244054	+
x	1246000	1246113	+
x	1247112	1247888	+
x	1249110	1249604	+
x	1250707	1251891	+
x	1253878	1258188	+
x	1259119	1260141	+
x	1260741	1262882	+
x	1263226	1263618	+
x	1268724	1270448	+
x	1268850	1270448	+
x	1268877	1270448	+
x	1270696	1273071	+
x	1270831	1273071	+
x	1273058	1273789	+
x	1276111	1276371	+
x	1278074	1278418	+
x	1278488	1279030	+
x	1280645	1281613	+
x	1284038	1283823	-
x	1284221	1285009	+
x	1285119	1286909	+
x	1291124	1293646	+
x	1294799	1295668	+
x	1295674	1296216	+
x	1296408	1296253	-
x	1296351	1296253	-
x	1299292	1300965	+
x	1301112	1302029	+
x	1301733	1302029	+
x	1302035	1302982	+
x	1306808	1307146	+
x	1307150	1308505	+
x	1308583	1308696	+
x	1308998	1309195	+
x	1309882	1310106	+
x	1309894	1310106	+
x	1310029	1310106	+
x	1311306	1311416	+
x	1312536	1312640	+
x	1312595	1312750	+
x	1312673	1312750	+
x	1312676	1312750	+
x	1313065	1313301	+
x	1313383	1313676	+
x	1313392	1313676	+
x	1313416	1313676	+
x	1314211	1314321	+
x	1315535	1314480	-
x	1316002	1317510	+
x	1316029	1317510	+
x	1317685	1318593	+
x	1318255	1318593	+
x	1321260	1321367	+
x	1321388	1321960	+
x	1323001	1322105	-
x	1323281	1323865	+
x	1323290	1323865	+
x	1325313	1323919	-
x	1325307	1325414	+
x	1327796	1328755	+
x	1330302	1330198	-
x	1332099	1333616	+
x	1332195	1333616	+
x	1333698	1333856	+
x	1335814	1335710	-
x	1335888	1336751	+
x	1335939	1336751	+
x	1337819	1338130	+
x	1337894	1338130	+
x	1338738	1340615	+
x	1340845	1341135	+
x	1340848	1341135	+
x	1341122	1341220	+
x	1341353	1341781	+
x	1341893	1343026	+
x	1345952	1346059	+
x	1346089	1346577	+
x	1346567	1346130	-
x	1348721	1348605	-
x	1348660	1348767	+
x	1348809	1348895	+
x	1348811	1348999	+
x	1349049	1348915	-
x	1354334	1356325	+
x	1358953	1358855	-
x	1358941	1360437	+
x	1359124	1360437	+
x	1360928	1361788	+
x	1360931	1361788	+
x	1361763	1361930	+
x	1361983	1363131	+
x	1366855	1366337	-
x	1366801	1366337	-
x	1367956	1368060	+
x	1368239	1368054	-
x	1374531	1375538	+
x	1375531	1376322	+
x	1376319	1376954	+
x	1378181	1378882	+
x	1379129	1380466	+
x	1379165	1380466	+
x	1379198	1380466	+
x	1383207	1383776	+
x	1384072	1383824	-
x	1385891	1385115	-
x	1386561	1385875	-
x	1387645	1386698	-
x	1387651	1386698	-
x	1388040	1387855	-
x	1388025	1387855	-
x	1388338	1387988	-
x	1388507	1390351	+
x	1393942	1392956	-
x	1394049	1393942	-
x	1395568	1395407	-
x	1395701	1395895	+
x	1395713	1395895	+
x	1395779	1395895	+
x	1397059	1398681	+
x	1399818	1400948	+
x	1402917	1403609	+
x	1405729	1406739	+
x	1409067	1409255	+
x	1409665	1409943	+
x	1409962	1410591	+
x	1410620	1411759	+
x	1416608	1416273	-
x	1417368	1416505	-
x	1423133	1422192	-
x	1429026	1429181	+
x	1433789	1433694	-
x	1434417	1433965	-
x	1435789	1435580	-
x	1436037	1435843	-
x	1435980	1435843	-
x	1436064	1435843	-
x	1437033	1437152	+
x	1437137	1437051	-
x	1437230	1437051	-
x	1437169	1437285	+
x	1437538	1437365	-
x	1439343	1437928	-
x	1456986	1437928	-
x	1471720	1470200	-
x	1475389	1474235	-
x	1481900	1482052	+
x	1484621	1484229	-
x	1484582	1484229	-
x	1485544	1485143	-
x	1485727	1485548	-
x	1485724	1485548	-
x	1485588	1485752	+
x	1485927	1486052	+
x	1485982	1486659	+
x	1492712	1491414	-
x	1497803	1496703	-
x	1497938	1496703	-
x	1499064	1497910	-
x	1499022	1497910	-
x	1499658	1499296	-
x	1499637	1499296	-
x	1500629	1499949	-
x	1500656	1499949	-
x	1501009	1500701	-
x	1501207	1500701	-
x	1501856	1501278	-
x	1501895	1501278	-
x	1502970	1501867	-
x	1507908	1507477	-
x	1509016	1508018	-
x	1508962	1508018	-
x	1508986	1508018	-
x	1509581	1508979	-
x	1510206	1510520	+
x	1515323	1515132	-
x	1515277	1515414	+
x	1516138	1515587	-
x	1516365	1517291	+
x	1518416	1517406	-
x	1518533	1517406	-
x	1518669	1518553	-
x	1520260	1518794	-
x	1522861	1523085	+
x	1523760	1523191	-
x	1525111	1525233	+
x	1525489	1525235	-
x	1526767	1526519	-
x	1527699	1527514	-
x	1530595	1529669	-
x	1532533	1530839	-
x	1532590	1530839	-
x	1533314	1532571	-
x	1535425	1534694	-
x	1539593	1539339	-
x	1540361	1539603	-
x	1540530	1541315	+
x	1542529	1542395	-
x	1544177	1544308	+
x	1544338	1545231	+
x	1548225	1547998	-
x	1548252	1547998	-
x	1548207	1547998	-
x	1550264	1549029	-
x	1553283	1552036	-
x	1553432	1553611	+
x	1553504	1553611	+
x	1553519	1553611	+
x	1553692	1553784	+
x	1555181	1554732	-
x	1555340	1555242	-
x	1562526	1562065	-
x	1563815	1562949	-
x	1570821	1571066	+
x	1575689	1574334	-
x	1577607	1577464	-
x	1577610	1577464	-
x	1578174	1577707	-
x	1578189	1577707	-
x	1578096	1577707	-
x	1578081	1577707	-
x	1578379	1578122	-
x	1578442	1578122	-
x	1578854	1578408	-
x	1578812	1578408	-
x	1579098	1578832	-
x	1580077	1579157	-
x	1581131	1580199	-
x	1584621	1583341	-
x	1583793	1583341	-
x	1585409	1584816	-
x	1590166	1589294	-
x	1590984	1590199	-
x	1599957	1599418	-
x	1599909	1599418	-
x	1602663	1601917	-
x	1603365	1602691	-
x	1603490	1603666	+
x	1605741	1604821	-
x	1606065	1605976	-
x	1608477	1607794	-
x	1611304	1610543	-
x	1611205	1610543	-
x	1615370	1613514	-
x	1618116	1617151	-
x	1618308	1617151	-
x	1618657	1618472	-
x	1624454	1622337	-
x	1624517	1622337	-
x	1624484	1622337	-
x	1624974	1624543	-
x	1625013	1624543	-
x	1625782	1625096	-
x	1629090	1628335	-
x	1631657	1631535	-
x	1631696	1631535	-
x	1633027	1632611	-
x	1632979	1632611	-
x	1633187	1633041	-
x	1633126	1633320	+
x	1640034	1639120	-
x	1640878	1640120	-
x	1640821	1640120	-
x	1644516	1643587	-
x	1646187	1645759	-
x	1651934	1649487	-
x	1653085	1652999	-
x	1654414	1653329	-
x	1654102	1653329	-
x	1658215	1658039	-
x	1658154	1659401	+
x	1658226	1659401	+
x	1660463	1660335	-
x	1665646	1665173	-
x	1667847	1665637	-
x	1671018	1671140	+
x	1673489	1671270	-
x	1674027	1673824	-
x	1676329	1675265	-
x	1676308	1675265	-
x	1678399	1677944	-
x	1680554	1680354	-
x	1682914	1682795	-
x	1683603	1683818	+
x	1683690	1683818	+
x	1684183	1683935	-
x	1684403	1684287	-
x	1689867	1688038	-
x	1691655	1691131	-
x	1691670	1691131	-
x	1692491	1692601	+
x	1696937	1697536	+
x	1698739	1697759	-
x	1698826	1697759	-
x	1698850	1697759	-
x	1698441	1698860	+
x	1698711	1698860	+
x	1698967	1698866	-
x	1705195	1703834	-
x	1709013	1708903	-
x	1711875	1711348	-
x	1711908	1711348	-
x	1711950	1711348	-
x	1716280	1716158	-
x	1717314	1716373	-
x	1726523	1725021	-
x	1728647	1727007	-
x	1728668	1727007	-
x	1729324	1729542	+
x	1731936	1731079	-
x	1737004	1736036	-
x	1745149	1744166	-
x	1748158	1747640	-
x	1748302	1748445	+
x	1748504	1749559	+
x	1749751	1749653	-
x	1751014	1749875	-
x	1754147	1753170	-
x	1754752	1754240	-
x	1758017	1756869	-
x	1758035	1756869	-
x	1758166	1758288	+
x	1758172	1758288	+
x	1761678	1763033	+
x	1761813	1763033	+
x	1763115	1763369	+
x	1764027	1764527	+
x	1767472	1767362	-
x	1767484	1767579	+
x	1768580	1767540	-
x	1768679	1767540	-
x	1770979	1770371	-
x	1775149	1775057	-
x	1777127	1775280	-
x	1777948	1778043	+
x	1777954	1778043	+
x	1779988	1778288	-
x	1785183	1784194	-
x	1785369	1785256	-
x	1790758	1789505	-
x	1790839	1789505	-
x	1796154	1795312	-
x	1797805	1798119	+
x	1799020	1798244	-
x	1798816	1798244	-
x	1800941	1800216	-
x	1801016	1800216	-
x	1801351	1801446	+
x	1808571	1808843	+
x	1811302	1808960	-
x	1809568	1808960	-
x	1818596	1816179	-
x	1820026	1818884	-
x	1822212	1821811	-
x	1822311	1821811	-
x	1823729	1823613	-
x	1823732	1823613	-
x	1828306	1827275	-
x	1828279	1827275	-
x	1830443	1830324	-
x	1830791	1831138	+
x	1831132	1832430	+
x	1833404	1832517	-
x	1833992	1834540	+
x	1834055	1834540	+
x	1834181	1834540	+
x	1834953	1835096	+
x	1835891	1836457	+
x	1838023	1838172	+
x	1838428	1838793	+
x	1839701	1839955	+
x	1839704	1839955	+
x	1839788	1839955	+
x	1839791	1839955	+
x	1840394	1841077	+
x	1840469	1841077	+
x	1840718	1841077	+
x	1840733	1841077	+
x	1840766	1841077	+
x	1840883	1841077	+
x	1840895	1841077	+
x	1840961	1841077	+
x	1843093	1842185	-
x	1844513	1843215	-
x	1847499	1846753	-
x	1848037	1847504	-
x	1847977	1847504	-
x	1849364	1848297	-
x	1851380	1850940	-
x	1851395	1850940	-
x	1851698	1852348	+
x	1851794	1852348	+
x	1853655	1854125	+
x	1856178	1855969	-
x	1856390	1856298	-
x	1856753	1856854	+
x	1856990	1857172	+
x	1860891	1859152	-
x	1860624	1859152	-
x	1861006	1860872	-
x	1861890	1861997	+
x	1864327	1863563	-
x	1865577	1865768	+
x	1866811	1866930	+
x	1867406	1867134	-
x	1868989	1868864	-
x	1870224	1869247	-
x	1871137	1870232	-
x	1872063	1872161	+
x	1873155	1873319	+
x	1874725	1874961	+
x	1875003	1875758	+
x	1875336	1875758	+
x	1875907	1876092	+
x	1878124	1877369	-
x	1877866	1877369	-
x	1878558	1878163	-
x	1878880	1878533	-
x	1881615	1880851	-
x	1882363	1882479	+
x	1883565	1882993	-
x	1883641	1883868	+
x	1885258	1883870	-
x	1885117	1883870	-
x	1887412	1887302	-
x	1889329	1888202	-
x	1891447	1891346	-
x	1891744	1891881	+
x	1899250	1899152	-
x	1901397	1901323	-
x	1904100	1902970	-
x	1907522	1907100	-
x	1907614	1907766	+
x	1908846	1908220	-
x	1910595	1909453	-
x	1911453	1910731	-
x	1912903	1911446	-
x	1914770	1916125	+
x	1914905	1916125	+
x	1917197	1917373	+
x	1917573	1917821	+
x	1922162	1922341	+
x	1925469	1925167	-
x	1926575	1926123	-
x	1926773	1927948	+
x	1928190	1929335	+
x	1928292	1929335	+
x	1934667	1934897	+
x	1937491	1937201	-
x	1938233	1937493	-
x	1940718	1941902	+
x	1944038	1942782	-
x	1943972	1942782	-
x	1944241	1944041	-
x	1944256	1944041	-
x	1944452	1944330	-
x	1944436	1944852	+
x	1949512	1949117	-
x	1952144	1952058	-
x	1952237	1952058	-
x	1952176	1952307	+
x	1952350	1952234	-
x	1952887	1952426	-
x	1952839	1952426	-
x	1952978	1952868	-
x	1956076	1955984	-
x	1957954	1956914	-
x	1961494	1961411	-
x	1962048	1961902	-
x	1963455	1962088	-
x	1965665	1967194	+
x	1968488	1967283	-
x	1978052	1977936	-
x	1978109	1977936	-
x	1981219	1979777	-
x	1981291	1979777	-
x	1983467	1983345	-
x	1983392	1983499	+
x	1985087	1983510	-
x	1986362	1985277	-
x	1987350	1988285	+
x	1988651	1988478	-
x	1988606	1988478	-
x	1990188	1990072	-
x	1991689	1991901	+
x	1992626	1992474	-
x	1993026	1994138	+
x	1994788	1994195	-
x	1995516	1995034	-
x	1996275	1996859	+
x	2001263	2001165	-
x	2003318	2003028	-
x	2003264	2003028	-
x	2005143	2005349	+
x	2005152	2005349	+
x	2006135	2005980	-
x	2006215	2006475	+
x	2006284	2006475	+
x	2009480	2009632	+
x	2010768	2010535	-
x	2010841	2010948	+
x	2011186	2011001	-
x	2011177	2011001	-
x	2012465	2012271	-
x	2013291	2013004	-
x	2018593	2017280	-
x	2023481	2023347	-
x	2023508	2023347	-
x	2024075	2023935	-
x	2026293	2025997	-
x	2032668	2032333	-
x	2032977	2032777	-
x	2033135	2032977	-
x	2033571	2033326	-
x	2034386	2034141	-
x	2034395	2034141	-
x	2034643	2034401	-
x	2034514	2034401	-
x	2034658	2034401	-
x	2035283	2034903	-
x	2035211	2034903	-
x	2035703	2035287	-
x	2040894	2038939	-
x	2041169	2040891	-
x	2043162	2042941	-
x	2044742	2044293	-
x	2046357	2046698	+
x	2046857	2047084	+
x	2046881	2047084	+
x	2048459	2049520	+
x	2049577	2050401	+
x	2051511	2050639	-
x	2052678	2051677	-
x	2054510	2054412	-
x	2062063	2061935	-
x	2062713	2062501	-
x	2064896	2064771	-
x	2068969	2068091	-
x	2069702	2069556	-
x	2076519	2075260	-
x	2078653	2078552	-
x	2079156	2079076	-
x	2079213	2079076	-
x	2080797	2081468	+
x	2081577	2082203	+
x	2086698	2086294	-
x	2087520	2086294	-
x	2087660	2087547	-
x	2088000	2087752	-
x	2087949	2087752	-
x	2089022	2088036	-
x	2092496	2092380	-
x	2092508	2092380	-
x	2095950	2095540	-
x	2095965	2095540	-
x	2096639	2095977	-
x	2097054	2096620	-
x	2097114	2096620	-
x	2097119	2097274	+
x	2097604	2099280	+
x	2099299	2101077	+
x	2108525	2108415	-
x	2108647	2108549	-
x	2108903	2108805	-
x	2114544	2114437	-
x	2115582	2115118	-
x	2115549	2115118	-
x	2119404	2118895	-
x	2120974	2121207	+
x	2122904	2121786	-
x	2122958	2121786	-
x	2123857	2123363	-
x	2123836	2123363	-
x	2126107	2125991	-
x	2128720	2126684	-
x	2128657	2126684	-
x	2130382	2128730	-
x	2130540	2130430	-
x	2130606	2133335	+
x	2135634	2134414	-
x	2135769	2134414	-
x	2137455	2135902	-
x	2137365	2135902	-
x	2140397	2139312	-
x	2140493	2139312	-
x	2142990	2142652	-
x	2143036	2144595	+
x	2144605	2145270	+
x	2145537	2145445	-
x	2145637	2145545	-
x	2146838	2146083	-
x	2146691	2146083	-
x	2150196	2150071	-
x	2150202	2150071	-
x	2151240	2151347	+
x	2151968	2152471	+
x	2154837	2154745	-
x	2157830	2157033	-
x	2157851	2157033	-
x	2162174	2161722	-
x	2162126	2161722	-
x	2163369	2162242	-
x	2167417	2166362	-
x	2167459	2166362	-
x	2167435	2166362	-
x	2168325	2167492	-
x	2168244	2167492	-
x	2172041	2170710	-
x	2174273	2173938	-
x	2180380	2180237	-
x	2188647	2187346	-
x	2188631	2188759	+
x	2194437	2194291	-
x	2194530	2194291	-
x	2195568	2194552	-
x	2198108	2198206	+
x	2198252	2198359	+
x	2204196	2202367	-
x	2206648	2206544	-
x	2206624	2206544	-
x	2207328	2207486	+
x	2207923	2208015	+
x	2209013	2208144	-
x	2211906	2210083	-
x	2212338	2212511	+
x	2214127	2216274	+
x	2216062	2216274	+
x	2220205	2218145	-
x	2224933	2218145	-
x	2222086	2218145	-
x	2228819	2228184	-
x	2230379	2230263	-
x	2237257	2236331	-
x	2237335	2236331	-
x	2238934	2237543	-
x	2238988	2237543	-
x	2239775	2239308	-
x	2240353	2239880	-
x	2242083	2241400	-
x	2245670	2244354	-
x	2245547	2244354	-
x	2246838	2245960	-
x	2247842	2246925	-
x	2248981	2247968	-
x	2249117	2249242	+
x	2253201	2252164	-
x	2253465	2255435	+
x	2256968	2256420	-
x	2256890	2256420	-
x	2261247	2260243	-
x	2262406	2261522	-
x	2265805	2264087	-
x	2269157	2269041	-
x	2270184	2269393	-
x	2270390	2271130	+
x	2270510	2271130	+
x	2271167	2271328	+
x	2272784	2272686	-
x	2273444	2273596	+
x	2273587	2276022	+
x	2276780	2276082	-
x	2277968	2277147	-
x	2279782	2279066	-
x	2282147	2281965	-
x	2284611	2283982	-
x	2285859	2285746	-
x	2286670	2286509	-
x	2287052	2286930	-
x	2287329	2287213	-
x	2287659	2287841	+
x	2288237	2288422	+
x	2290227	2289829	-
x	2298161	2297487	-
x	2299428	2298151	-
x	2302168	2301998	-
x	2302697	2302206	-
x	2304033	2303812	-
x	2305833	2305507	-
x	2308272	2307643	-
x	2308992	2309387	+
x	2310756	2309578	-
x	2310831	2309578	-
x	2313257	2314222	+
x	2313335	2314222	+
x	2315514	2315383	-
x	2315654	2315496	-
x	2315686	2315805	+
x	2316811	2315921	-
x	2316847	2315921	-
x	2317338	2317688	+
x	2320985	2317872	-
x	2323012	2322893	-
x	2326201	2326386	+
x	2326548	2326429	-
x	2327581	2326652	-
x	2332744	2331836	-
x	2337117	2336341	-
x	2338732	2337863	-
x	2341259	2340324	-
x	2340500	2340324	-
x	2342609	2341695	-
x	2342585	2341695	-
x	2342893	2343162	+
x	2343595	2345298	+
x	2347072	2347908	+
x	2348742	2348930	+
x	2351107	2350031	-
x	2352390	2352506	+
x	2353638	2353417	-
x	2353659	2353417	-
x	2355026	2353833	-
x	2361296	2360658	-
x	2361707	2361456	-
x	2361533	2361456	-
x	2361626	2361456	-
x	2361689	2361456	-
x	2366903	2365947	-
x	2366870	2365947	-
x	2366900	2365947	-
x	2366801	2365947	-
x	2367836	2367027	-
x	2369487	2370041	+
x	2369733	2370041	+
x	2370477	2371358	+
x	2374226	2374038	-
x	2375819	2374950	-
x	2375999	2374950	-
x	2376111	2376665	+
x	2381371	2380160	-
x	2381473	2380160	-
x	2381256	2381615	+
x	2381451	2381615	+
x	2388445	2389086	+
x	2391675	2392487	+
x	2394090	2394278	+
x	2394309	2394196	-
x	2395551	2395351	-
x	2395911	2395726	-
x	2395860	2395726	-
x	2398894	2398250	-
x	2399038	2399181	+
x	2399050	2399181	+
x	2403572	2404081	+
x	2403590	2404081	+
x	2405462	2404605	-
x	2405507	2404605	-
x	2409199	2408561	-
x	2409207	2409332	+
x	2411556	2411428	-
x	2412879	2413148	+
x	2412999	2413148	+
x	2413385	2413209	-
x	2414312	2414827	+
x	2416887	2417588	+
x	2421556	2420078	-
x	2423657	2423529	-
x	2423837	2425525	+
x	2427271	2428317	+
x	2427415	2428317	+
x	2428698	2428363	-
x	2429962	2429846	-
x	2430465	2430067	-
x	2430550	2430642	+
x	2437124	2437297	+
x	2437904	2439442	+
x	2440152	2439994	-
x	2440247	2440555	+
x	2442117	2440873	-
x	2443226	2443540	+
x	2443747	2444184	+
x	2443756	2444184	+
x	2445484	2444291	-
x	2445531	2445650	+
x	2446378	2446743	+
x	2446537	2446743	+
x	2448322	2447720	-
x	2451186	2450596	-
x	2451123	2450596	-
x	2452699	2451164	-
x	2452609	2451164	-
x	2456499	2456374	-
x	2461217	2460468	-
x	2461238	2460468	-
x	2461169	2460468	-
x	2462906	2462199	-
x	2462945	2462199	-
x	2466192	2466001	-
x	2467810	2467409	-
x	2467780	2467409	-
x	2467759	2467409	-
x	2470820	2470101	-
x	2470829	2470101	-
x	2473059	2471701	-
x	2473098	2471701	-
x	2473213	2473070	-
x	2473314	2473418	+
x	2475985	2475881	-
x	2477512	2477330	-
x	2477791	2477609	-
x	2477890	2478855	+
x	2478919	2479044	+
x	2481891	2481400	-
x	2482555	2481878	-
x	2482606	2481878	-
x	2483693	2482581	-
x	2487070	2486927	-
x	2490613	2488916	-
x	2490700	2488916	-
x	2491355	2491245	-
x	2491346	2491245	-
x	2491489	2491382	-
x	2492268	2493419	+
x	2496327	2496896	+
x	2497786	2496959	-
x	2501844	2501743	-
x	2503831	2503727	-
x	2506460	2506657	+
x	2513037	2511766	-
x	2512992	2511766	-
x	2513438	2513319	-
x	2513621	2513508	-
x	2513658	2513518	-
x	2514276	2513662	-
x	2514424	2514254	-
x	2518928	2517801	-
x	2518979	2517801	-
x	2522148	2521063	-
x	2523980	2523882	-
x	2525613	2525705	+
x	2533035	2531455	-
x	2534410	2533196	-
x	2536092	2535319	-
x	2536547	2536416	-
x	2538416	2537697	-
x	2541912	2541721	-
x	2542095	2541721	-
x	2542085	2542306	+
x	2542820	2542398	-
x	2544213	2544335	+
x	2544271	2544456	+
x	2544316	2544456	+
x	2544322	2544456	+
x	2545009	2544854	-
x	2545221	2545343	+
x	2546144	2545347	-
x	2547230	2546967	-
x	2547586	2547293	-
x	2549402	2548605	-
x	2550419	2549643	-
x	2551301	2550528	-
x	2551229	2550528	-
x	2551404	2551499	+
x	2554814	2554942	+
x	2554968	2556803	+
x	2554995	2556803	+
x	2555145	2556803	+
x	2555166	2556803	+
x	2557165	2557353	+
x	2557539	2557805	+
x	2560293	2559703	-
x	2564442	2564122	-
x	2564478	2564122	-
x	2566550	2565756	-
x	2566538	2565756	-
x	2568015	2566795	-
x	2568150	2566795	-
x	2569663	2568323	-
x	2571139	2568323	-
x	2571491	2571369	-
x	2574936	2571889	-
x	2575091	2575020	-
x	2575289	2575140	-
x	2579203	2578526	-
x	2581627	2581211	-
x	2581690	2581211	-
x	2581402	2581211	-
x	2583658	2581766	-
x	2583721	2581766	-
x	2583433	2581766	-
x	2585271	2584066	-
x	2586609	2586538	-
x	2586577	2586798	+
x	2588340	2588486	+
x	2590894	2591046	+
x	2590969	2591046	+
x	2591192	2592244	+
x	2591339	2592244	+
x	2592945	2592349	-
x	2593836	2592973	-
x	2594661	2594954	+
x	2596714	2596052	-
x	2596993	2597985	+
x	2597038	2597985	+
x	2599104	2598232	-
x	2599993	2600724	+
x	2602505	2602335	-
x	2602375	2602566	+
x	2602665	2602567	-
x	2605290	2604280	-
x	2605275	2604280	-
x	2605858	2606076	+
x	2606232	2607194	+
x	2606259	2607194	+
x	2606442	2607194	+
x	2608729	2608364	-
x	2609237	2609338	+
x	2609552	2609484	-
x	2611651	2609552	-
x	2614732	2614391	-
x	2615826	2614999	-
x	2615877	2614999	-
x	2615862	2614999	-
x	2615883	2614999	-
x	2616062	2616262	+
x	2623368	2623189	-
x	2628289	2625821	-
x	2628518	2629003	+
x	2629223	2629080	-
x	2629247	2629080	-
x	2631674	2631093	-
x	2631922	2632122	+
x	2635299	2635514	+
x	2636633	2635605	-
x	2641764	2640628	-
x	2641710	2640628	-
x	2643263	2641761	-
x	2643735	2643247	-
x	2644935	2644789	-
x	2650520	2649435	-
x	2650745	2650617	-
x	2650636	2650839	+
x	2650702	2650839	+
x	2650867	2651469	+
x	2650882	2651469	+
x	2651667	2652167	+
x	2651715	2652167	+
x	2651733	2652167	+
x	2651811	2652167	+
x	2653347	2652919	-
x	2653867	2653313	-
x	2655848	2655955	+
x	2660276	2658930	-
x	2660249	2658930	-
x	2659448	2658930	-
x	2662325	2661987	-
x	2663798	2662989	-
x	2663870	2662989	-
x	2665717	2665604	-
x	2668815	2669771	+
x	2670465	2669869	-
x	2670513	2669869	-
x	2676538	2674709	-
x	2679034	2678651	-
x	2679902	2679036	-
x	2680671	2679880	-
x	2684412	2684218	-
x	2687216	2685873	-
x	2687210	2685873	-
x	2687331	2687236	-
x	2687459	2687884	+
x	2687753	2687884	+
x	2690883	2691212	+
x	2690916	2691212	+
x	2691012	2691212	+
x	2691090	2691212	+
x	2692870	2691272	-
x	2693543	2693064	-
x	2693712	2693545	-
x	2697806	2697901	+
x	2697969	2698553	+
x	2697990	2698553	+
x	2700328	2698724	-
x	2700478	2700639	+
x	2700765	2700655	-
x	2704826	2703438	-
x	2705225	2705130	-
x	2707858	2705969	-
x	2708043	2708135	+
x	2709010	2708750	-
x	2709001	2708750	-
x	2709548	2709435	-
x	2709495	2709656	+
x	2712925	2712161	-
x	2713965	2713024	-
x	2713920	2713024	-
x	2714801	2714613	-
x	2714779	2714952	+
x	2716596	2716495	-
x	2716599	2716495	-
x	2717173	2716718	-
x	2721964	2721278	-
x	2723022	2722081	-
x	2722335	2722081	-
x	2724475	2723039	-
x	2727685	2727185	-
x	2729497	2728001	-
x	2730724	2731197	+
x	2739390	2736403	-
x	2742285	2741719	-
x	2744361	2742448	-
x	2744298	2742448	-
x	2749803	2747473	-
x	2750890	2749853	-
x	2750812	2749853	-
x	2752361	2750790	-
x	2753004	2752348	-
x	2754958	2753912	-
x	2762531	2762421	-
x	2763570	2763998	+
x	2763985	2764287	+
x	2768149	2767553	-
x	2768948	2768262	-
x	2768957	2768262	-
x	2770536	2771735	+
x	2770623	2771735	+
x	2771980	2772873	+
x	2774219	2774154	-
x	2776289	2774247	-
x	2776975	2777214	+
x	2777189	2777010	-
x	2777222	2777010	-
x	2782870	2781614	-
x	2784160	2783489	-
x	2784346	2783489	-
x	2784497	2784604	+
x	2786323	2785853	-
x	2788939	2787227	-
x	2789552	2788992	-
x	2792526	2791468	-
x	2792439	2791468	-
x	2795792	2796274	+
x	2797328	2797930	+
x	2799108	2798344	-
x	2800175	2801227	+
x	2801387	2801292	-
x	2801470	2802264	+
x	2802919	2802398	-
x	2806469	2806696	+
x	2808023	2807643	-
x	2812295	2810511	-
x	2814344	2813991	-
x	2814347	2813991	-
