x	3725	3970	+
x	5089	7023	+
x	5092	7023	+
x	7042	9729	+
x	10518	9817	-
x	10647	9817	-
x	15558	15806	+
x	16148	17137	+
x	17382	18368	+
x	17445	18368	+
x	18365	20350	+
x	22301	22366	+
x	24983	25690	+
x	30052	30834	+
x	31019	33379	+
x	31037	33379	+
x	34066	33611	-
x	34090	33611	-
x	33760	33611	-
x	33748	33611	-
x	34509	35804	+
x	34563	35804	+
x	36219	36458	+
x	40951	42606	+
x	43130	43062	-
x	43078	43290	+
x	43087	43290	+
x	46042	45104	-
x	47269	47535	+
x	47550	48179	+
x	53679	51850	-
x	55799	55281	-
x	56210	56118	-
x	60088	58721	-
x	64260	63883	-
x	65194	65328	+
x	66119	65535	-
x	70573	67853	-
x	76493	75624	-
x	77399	76503	-
x	77441	77566	+
x	80918	80781	-
x	81151	81017	-
x	83609	83283	-
x	83648	83731	+
x	83925	83857	-
x	85064	84798	-
x	87634	88836	+
x	90435	89503	-
x	89955	89503	-
x	90798	91001	+
x	90861	91001	+
x	91017	91346	+
x	91545	92156	+
x	91908	92156	+
x	97525	98292	+
x	97546	98292	+
x	98056	98292	+
x	98344	99114	+
x	98878	99114	+
x	99566	99949	+
x	100014	100784	+
x	100038	100784	+
x	100092	100784	+
x	100548	100784	+
x	101754	103952	+
x	104094	105281	+
x	106833	106955	+
x	108816	107155	-
x	109084	108914	-
x	110922	109141	-
x	111971	111090	-
x	117844	116318	-
x	119041	118265	-
x	120303	119386	-
x	120300	119386	-
x	122366	121392	-
x	122648	123595	+
x	122675	123595	+
x	122750	123595	+
x	123604	124602	+
x	126880	127626	+
x	127799	129352	+
x	129261	131111	+
x	129414	131111	+
x	131086	131862	+
x	131167	131862	+
x	133961	133770	-
x	134302	134180	-
x	134259	134654	+
x	135843	135691	-
x	135804	135691	-
x	135840	135691	-
x	135786	135908	+
x	135978	136958	+
x	135999	136958	+
x	136563	136958	+
x	136921	137613	+
x	137221	137613	+
x	140174	141628	+
x	144518	143778	-
x	144860	144636	-
x	145477	146835	+
x	150450	149725	-
x	154269	155810	+
x	155958	156734	+
x	157712	157915	+
x	161927	162622	+
x	163322	165232	+
x	163397	165232	+
x	163469	165232	+
x	165165	166250	+
x	166257	167372	+
x	171437	172621	+
x	173018	173827	+
x	176645	177820	+
x	178205	177885	-
x	180642	180761	+
x	181057	182121	+
x	182250	182113	-
x	182189	182374	+
x	186083	187120	+
x	186089	187120	+
x	187409	187696	+
x	187436	187696	+
x	187869	188894	+
x	190959	198152	+
x	190983	198152	+
x	199616	199137	-
x	200824	200666	-
x	202950	201919	-
x	204200	202989	-
x	206557	206060	-
x	208517	208618	+
x	210594	208597	-
x	210657	208597	-
x	211242	212282	+
x	212279	213178	+
x	214644	215522	+
x	221848	222834	+
x	223300	225018	+
x	225077	225520	+
x	225086	225520	+
x	226241	226417	+
x	226652	226464	-
x	228676	230154	+
x	228718	230154	+
x	228808	230154	+
x	228892	230154	+
x	237132	236434	-
x	237257	237847	+
x	239380	240612	+
x	241807	242724	+
x	241867	242724	+
x	242798	243874	+
x	246150	246224	+
x	246832	246323	-
x	246895	246323	-
x	247032	248429	+
x	247773	248429	+
x	252633	254897	+
x	255779	255892	+
x	255946	257760	+
x	260723	260616	-
x	262214	261021	-
x	265938	264682	-
x	267597	266005	-
x	269107	267536	-
x	269113	267536	-
x	269116	267536	-
x	269449	270696	+
x	269554	270696	+
x	272485	271010	-
x	273075	272683	-
x	274695	274802	+
x	275257	276066	+
x	277921	276386	-
x	277834	276386	-
x	279322	279402	+
x	279450	279563	+
x	279529	281646	+
x	281646	282098	+
x	282598	282464	-
x	283894	284958	+
x	283900	284958	+
x	284936	285106	+
x	286689	287417	+
x	286743	287417	+
x	288631	288344	-
x	288610	290151	+
x	295504	297222	+
x	298300	300039	+
x	300895	301338	+
x	303824	305236	+
x	306393	306527	+
x	308876	307986	-
x	310248	310427	+
x	310314	310427	+
x	312382	310997	-
x	313907	314875	+
x	314135	314875	+
x	317626	316517	-
x	317848	317970	+
x	320498	319605	-
x	320695	321039	+
x	324542	324823	+
x	331383	332057	+
x	332375	334228	+
x	334299	334730	+
x	334479	334730	+
x	337228	337869	+
x	337429	337869	+
x	337609	337869	+
x	338363	338890	+
x	338417	338890	+
x	338450	338890	+
x	338630	338890	+
x	338874	339386	+
x	338928	339386	+
x	338961	339386	+
x	339141	339386	+
x	339407	339532	+
x	340011	340385	+
x	340556	340933	+
x	341844	341149	-
x	341973	341149	-
x	343412	342210	-
x	343487	342210	-
x	343438	343677	+
x	345241	345008	-
x	345191	345018	-
x	347278	347138	-
x	347181	348218	+
x	347268	348218	+
x	348546	349679	+
x	354482	355384	+
x	358761	357400	-
x	358785	357400	-
x	359332	361068	+
x	363762	363292	-
x	364918	364670	-
x	365357	365542	+
x	366075	366296	+
x	367652	367930	+
x	367927	369882	+
x	371017	371502	+
x	373118	373534	+
x	373538	373915	+
x	373610	373915	+
x	374172	374381	+
x	374175	374381	+
x	376731	377117	+
x	377711	377800	+
x	380223	381701	+
x	381640	382620	+
x	387142	387459	+
x	397003	397389	+
x	397393	397566	+
x	401108	401503	+
x	402802	403422	+
x	403618	403785	+
x	403831	403923	+
x	408041	408322	+
x	408050	408322	+
x	409110	410057	+
x	409149	410057	+
x	409614	410057	+
x	411370	412398	+
x	414146	413853	-
x	416750	416529	-
x	419504	419262	-
x	420869	421858	+
x	420962	421858	+
x	421824	422933	+
x	423148	423513	+
x	424566	424919	+
x	426709	427824	+
x	427802	429517	+
x	427835	429517	+
x	430414	429758	-
x	430700	430476	-
x	432361	433209	+
x	435301	434225	-
x	435924	435766	-
x	444457	444795	+
x	444913	445758	+
x	448665	448396	-
x	448638	448396	-
x	448674	448952	+
x	450985	450047	-
x	452387	452554	+
x	453502	454044	+
x	455243	455034	-
x	456460	456068	-
x	456451	456068	-
x	456513	456608	+
x	457611	457420	-
x	460382	461146	+
x	462699	462797	+
x	472533	472348	-
x	473678	473451	-
x	474136	473984	-
x	473994	474254	+
x	474970	474668	-
x	479503	479640	+
x	480976	481695	+
x	481898	481599	-
x	483160	483873	+
x	483169	483873	+
x	486050	486208	+
x	486077	486208	+
x	486183	486082	-
x	486345	487817	+
x	492022	491705	-
x	492350	493153	+
x	493616	493978	+
x	494023	494811	+
x	495135	495617	+
x	497321	498115	+
x	497756	498115	+
x	499490	499768	+
x	499947	500762	+
x	500025	500762	+
x	502077	502397	+
x	502497	502730	+
x	504846	504703	-
x	504819	504703	-
x	504869	504997	+
x	505157	505014	-
x	505453	505385	-
x	505570	505505	-
x	505667	505602	-
x	507675	510389	+
x	511489	511142	-
x	511540	511142	-
x	511477	511142	-
x	511548	512270	+
x	513413	514750	+
x	514946	515872	+
x	514967	515872	+
x	515859	517007	+
x	517302	518327	+
x	517440	518327	+
x	519000	519869	+
x	521799	522203	+
x	524744	523626	-
x	532725	534161	+
x	535911	536618	+
x	537022	537123	+
x	537058	537123	+
x	537878	539551	+
x	540766	540843	+
x	546455	546520	+
x	546612	546710	+
x	546733	546804	+
x	546889	546987	+
x	548676	549308	+
x	548682	549308	+
x	549960	549784	-
x	549966	550805	+
x	550974	551609	+
x	551656	551973	+
x	551966	552064	+
x	554234	554079	-
x	557812	558723	+
x	560291	561082	+
x	560306	561082	+
x	562212	563570	+
x	562239	563570	+
x	563762	564682	+
x	564850	564740	-
x	564826	565485	+
x	571387	572583	+
x	575221	575778	+
x	575227	575778	+
x	575263	575778	+
x	576125	578128	+
x	581339	581710	+
x	582577	582669	+
x	582722	584209	+
x	596119	596184	+
x	596274	596372	+
x	599582	599734	+
x	601711	602199	+
x	602189	603196	+
x	605752	605594	-
x	606181	607515	+
x	607558	608613	+
x	609161	610624	+
x	610963	611694	+
x	611014	611694	+
x	611053	611694	+
x	611083	611694	+
x	611648	613078	+
x	613104	613475	+
x	615681	615899	+
x	616632	617063	+
x	620284	623694	+
x	623858	627454	+
x	627534	627845	+
x	627576	627845	+
x	628512	628892	+
x	628949	631096	+
x	633963	632779	-
x	636619	638256	+
x	636709	638256	+
x	643198	642551	-
x	643168	642551	-
x	643876	644721	+
x	645852	645586	-
x	660152	660304	+
x	662298	661930	-
x	662289	661930	-
x	664082	664585	+
x	664689	665345	+
x	667582	667791	+
x	669157	670308	+
x	670343	670648	+
x	676428	676093	-
x	677208	676558	-
x	677633	677830	+
x	679852	680616	+
x	684365	684718	+
x	686218	684770	-
x	686495	686079	-
x	686500	686598	+
x	686577	686678	+
x	687138	688538	+
x	689293	689841	+
x	689972	690613	+
x	692139	692023	-
x	692078	692206	+
x	694988	695509	+
x	697282	697710	+
x	697327	697710	+
x	700585	701412	+
x	701561	702511	+
x	704846	705589	+
x	707440	707321	-
x	708032	707883	-
x	709014	708121	-
x	709586	709245	-
x	713569	715068	+
x	713587	715068	+
x	715837	715511	-
x	715804	716262	+
x	715816	716262	+
x	716641	718644	+
x	716770	718644	+
x	720180	718825	-
x	720045	718825	-
x	725373	724609	-
x	727237	726422	-
x	727542	728375	+
x	727548	728375	+
x	728528	729577	+
x	729107	729577	+
x	729628	730635	+
x	729808	730635	+
x	734725	734805	+
x	736989	737600	+
x	738694	739719	+
x	738742	739719	+
x	738775	739719	+
x	739908	740732	+
x	740969	741934	+
x	741967	742560	+
x	742538	742915	+
x	742544	742915	+
x	744072	745052	+
x	746599	746411	-
x	748761	749444	+
x	749446	750477	+
x	749518	750477	+
x	750672	751382	+
x	751360	753261	+
x	751462	753261	+
x	751507	753261	+
x	754627	753407	-
x	754762	753407	-
x	758856	759536	+
x	758970	759536	+
x	762451	762888	+
x	762463	762888	+
x	763354	763794	+
x	764079	764267	+
x	764356	764475	+
x	764359	764475	+
x	764614	765264	+
x	764731	765264	+
x	765566	766246	+
x	766378	767598	+
x	769124	769441	+
x	772821	772087	-
x	774093	775667	+
x	779175	780071	+
x	784190	783843	-
x	784744	784124	-
x	787009	787473	+
x	788379	789143	+
x	790057	792024	+
x	792251	792078	-
x	793758	795083	+
x	795344	796144	+
x	799054	798386	-
x	799229	799047	-
x	803991	805151	+
x	805813	806031	+
x	805825	806031	+
x	810530	810372	-
x	810501	812384	+
x	812399	814177	+
x	817027	818181	+
x	818341	818168	-
x	818185	818295	+
x	818280	818372	+
x	819308	819138	-
x	819175	819336	+
x	819401	819589	+
x	819551	819447	-
x	820949	821050	+
x	822944	822699	-
x	824228	823494	-
x	824745	825011	+
x	825140	825559	+
x	825462	827627	+
x	825471	827627	+
x	825531	827627	+
x	828897	829052	+
x	829049	830062	+
x	830073	831005	+
x	833547	833227	-
x	834600	834472	-
x	835223	836125	+
x	836270	836599	+
x	844106	843651	-
x	845795	846748	+
x	845810	846748	+
x	845846	846748	+
x	846738	847415	+
x	851035	851139	+
x	851426	852418	+
x	851543	852418	+
x	852572	852679	+
x	852860	853666	+
x	853822	854490	+
x	854526	854723	+
x	854944	856977	+
x	854986	856977	+
x	856003	856977	+
x	860256	860107	-
x	860208	860107	-
x	862484	862765	+
x	865763	865542	-
x	865728	865561	-
x	865704	865561	-
x	865906	865604	-
x	865894	865604	-
x	865900	865604	-
x	866199	867011	+
x	871360	870452	-
x	872938	873120	+
x	873110	872982	-
x	876880	877731	+
x	881009	881482	+
x	881507	881782	+
x	886163	886303	+
x	886304	886585	+
x	886551	886357	-
x	886367	886585	+
x	887154	886852	-
x	888245	887529	-
x	888405	888313	-
x	888692	888847	+
x	888695	888847	+
x	888900	889376	+
x	890314	893025	+
x	890359	893025	+
x	900941	900681	-
x	900950	900681	-
x	901350	901246	-
x	901282	901485	+
x	901339	901485	+
x	901724	901482	-
x	901934	902524	+
x	901964	902524	+
x	904111	904245	+
x	908449	908736	+
x	908473	908736	+
x	909002	908760	-
x	908806	908868	+
x	908910	908824	-
x	908941	909087	+
x	909210	909323	+
x	909524	909919	+
x	909527	909919	+
x	909533	909919	+
x	917267	917130	-
x	917243	918493	+
x	921123	920563	-
x	923579	922848	-
x	924579	924292	-
x	926513	926797	+
x	929572	929721	+
x	933533	933646	+
x	933661	934026	+
x	935196	935390	+
x	935387	935590	+
x	935812	935985	+
x	936691	937260	+
x	936751	937260	+
x	942536	943069	+
x	944015	944365	+
x	945907	946161	+
x	956254	956640	+
x	960448	960843	+
x	963565	963717	+
x	963589	963717	+
x	964816	964586	-
x	964770	964886	+
x	964773	964886	+
x	965037	964915	-
x	967772	967638	-
x	968079	968948	+
x	971164	972135	+
x	972256	972648	+
x	972818	974173	+
x	972953	974173	+
x	974504	974247	-
x	975932	976816	+
x	977073	977180	+
x	977177	977380	+
x	981974	981753	-
x	982081	982419	+
x	982111	982419	+
x	983892	984095	+
x	994240	993911	-
x	994309	993911	-
x	998697	999041	+
x	998781	999041	+
x	1000817	1002028	+
x	1002137	1003381	+
x	1003710	1003585	-
x	1003649	1003768	+
x	1004804	1003908	-
x	1006473	1005079	-
x	1006485	1005079	-
x	1007933	1007805	-
x	1008284	1009336	+
x	1010772	1011356	+
x	1010889	1011356	+
x	1022901	1023218	+
x	1022952	1023218	+
x	1023307	1023215	-
x	1029559	1030575	+
x	1029697	1030575	+
x	1031340	1031191	-
x	1033160	1033552	+
x	1033732	1034046	+
x	1037135	1037233	+
x	1037233	1038081	+
x	1043864	1044781	+
x	1046304	1046801	+
x	1046827	1047756	+
x	1049938	1050369	+
x	1051865	1052566	+
x	1055667	1054882	-
x	1056028	1055711	-
x	1062963	1063079	+
x	1065156	1064140	-
x	1065507	1067135	+
x	1065630	1067135	+
x	1070062	1068854	-
x	1069714	1068854	-
x	1069725	1069940	+
x	1073092	1073355	+
x	1073095	1073355	+
x	1073215	1073355	+
x	1073715	1074917	+
x	1075225	1076022	+
x	1076081	1076176	+
x	1079632	1079231	-
x	1079701	1079231	-
x	1080226	1079705	-
x	1081568	1081359	-
x	1081624	1081869	+
x	1085529	1087481	+
x	1088325	1088582	+
x	1088334	1088582	+
x	1088469	1088582	+
x	1089195	1089542	+
x	1090929	1091324	+
x	1091467	1091538	+
x	1091541	1091741	+
x	1091974	1091768	-
x	1094622	1094422	-
x	1094683	1094579	-
x	1094910	1095107	+
x	1095088	1096455	+
x	1095184	1096455	+
x	1097487	1097810	+
x	1097791	1099491	+
x	1101458	1102666	+
x	1103384	1103755	+
x	1105824	1105982	+
x	1105972	1112196	+
x	1107538	1112196	+
x	1108996	1112196	+
x	1116574	1116828	+
x	1118552	1118683	+
x	1120564	1121184	+
x	1121461	1121360	-
x	1121759	1124068	+
x	1125582	1127093	+
x	1128110	1127580	-
x	1128350	1128577	+
x	1130106	1130636	+
x	1131552	1131653	+
x	1131697	1131870	+
x	1131760	1131870	+
x	1132462	1133943	+
x	1134311	1134904	+
x	1135180	1134992	-
x	1135237	1134992	-
x	1135258	1134992	-
x	1136008	1135649	-
x	1136026	1135649	-
x	1136526	1137452	+
x	1136589	1137452	+
x	1136802	1137452	+
x	1137629	1137498	-
x	1137614	1137498	-
x	1137983	1137693	-
x	1138127	1138624	+
x	1138142	1138624	+
x	1139765	1139869	+
x	1139787	1141157	+
x	1139946	1141157	+
x	1141813	1142817	+
x	1146159	1145026	-
x	1147679	1147515	-
x	1154751	1150984	-
x	1155407	1154958	-
x	1156035	1155547	-
x	1157243	1156065	-
x	1159741	1159463	-
x	1164739	1164617	-
x	1164737	1164645	-
x	1165080	1165235	+
x	1166069	1165185	-
x	1166309	1166728	+
x	1168803	1169483	+
x	1171680	1173128	+
x	1174724	1176211	+
x	1174730	1176211	+
x	1176341	1177480	+
x	1178568	1177747	-
x	1179766	1178546	-
x	1180999	1181145	+
x	1183102	1182911	-
x	1183114	1182911	-
x	1191082	1191207	+
x	1193177	1193007	-
x	1193376	1193254	-
x	1194330	1193707	-
x	1194608	1195249	+
x	1200459	1200749	+
x	1202577	1203329	+
x	1203326	1204144	+
x	1203404	1204144	+
x	1207048	1207152	+
x	1209398	1210225	+
x	1210323	1210610	+
x	1212817	1212659	-
x	1213340	1212828	-
x	1214040	1215266	+
x	1214145	1215266	+
x	1215802	1219272	+
x	1216051	1219272	+
x	1220332	1219412	-
x	1220323	1219412	-
x	1221690	1222160	+
x	1222372	1222575	+
x	1222625	1223524	+
x	1222703	1223524	+
x	1225990	1226460	+
x	1228193	1227006	-
x	1228965	1228741	-
x	1232877	1233320	+
x	1234423	1235271	+
x	1234525	1235271	+
x	1235284	1236249	+
x	1235428	1236249	+
x	1237073	1237387	+
x	1237424	1237531	+
x	1237576	1237674	+
x	1243739	1242783	-
x	1243977	1244048	+
x	1249667	1249572	-
x	1249902	1251614	+
x	1251720	1251869	+
x	1257444	1257611	+
x	1257471	1257611	+
x	1258296	1258412	+
x	1258305	1258412	+
x	1258643	1258503	-
x	1259155	1259271	+
x	1261699	1261896	+
x	1261711	1261896	+
x	1262746	1262498	-
x	1263626	1264981	+
x	1263761	1264981	+
x	1266108	1265140	-
x	1266772	1266918	+
x	1266875	1267099	+
x	1266941	1267099	+
x	1267291	1267374	+
x	1267457	1267326	-
x	1269988	1269233	-
x	1270387	1271397	+
x	1271420	1272352	+
x	1272575	1274080	+
x	1272590	1274080	+
x	1273496	1274080	+
x	1274517	1274230	-
x	1274474	1274614	+
x	1276116	1276304	+
x	1276209	1276304	+
x	1277667	1278353	+
x	1279040	1278936	-
x	1279508	1280710	+
x	1281322	1282236	+
x	1282265	1282651	+
x	1282740	1284866	+
x	1287487	1288809	+
x	1291918	1292583	+
x	1292601	1293275	+
x	1292769	1293275	+
x	1293281	1293835	+
x	1294247	1295026	+
x	1294388	1295026	+
x	1295879	1298641	+
x	1299999	1299790	-
x	1299933	1299790	-
x	1303097	1304413	+
x	1305340	1306614	+
x	1310992	1311684	+
x	1313562	1313449	-
x	1316661	1317866	+
x	1322099	1321896	-
x	1329202	1330059	+
x	1330705	1331352	+
x	1331367	1331462	+
x	1336867	1337424	+
x	1337408	1338415	+
x	1338399	1339334	+
x	1339327	1340061	+
x	1340042	1340197	+
x	1340474	1340370	-
x	1353713	1351086	-
x	1354120	1354977	+
x	1358127	1359278	+
x	1359930	1360550	+
x	1360320	1360550	+
x	1360723	1361079	+
x	1361777	1363846	+
x	1367222	1368634	+
x	1370580	1370693	+
x	1371692	1372468	+
x	1373690	1374184	+
x	1375287	1376471	+
x	1378458	1382768	+
x	1383699	1384721	+
x	1385321	1387462	+
x	1387848	1388198	+
x	1393355	1395028	+
x	1393430	1395028	+
x	1393457	1395028	+
x	1395276	1397651	+
x	1395411	1397651	+
x	1397638	1398369	+
x	1400691	1400951	+
x	1402654	1402998	+
x	1403068	1403610	+
x	1405225	1406193	+
x	1408573	1408403	-
x	1408801	1409589	+
x	1409699	1411489	+
x	1415704	1418226	+
x	1418239	1419270	+
x	1419380	1420249	+
x	1420264	1420797	+
x	1420923	1420834	-
x	1420989	1420834	-
x	1420932	1420834	-
x	1423873	1425546	+
x	1425696	1426610	+
x	1426314	1426610	+
x	1426616	1427563	+
x	1431389	1431727	+
x	1431731	1433086	+
x	1433164	1433277	+
x	1433579	1433776	+
x	1434610	1434687	+
x	1435887	1435997	+
x	1437176	1437331	+
x	1437254	1437331	+
x	1437257	1437331	+
x	1437646	1437882	+
x	1437964	1438257	+
x	1437973	1438257	+
x	1437997	1438257	+
x	1438792	1438902	+
x	1440086	1439061	-
x	1440583	1442091	+
x	1440610	1442091	+
x	1442266	1443174	+
x	1442836	1443174	+
x	1445841	1445948	+
x	1446008	1446541	+
x	1447582	1446686	-
x	1447856	1448446	+
x	1447871	1448446	+
x	1449894	1448500	-
x	1449888	1449995	+
x	1452377	1453336	+
x	1454883	1454779	-
x	1456674	1458197	+
x	1456776	1458197	+
x	1458279	1458437	+
x	1460395	1460291	-
x	1460520	1461332	+
x	1462475	1462711	+
x	1462478	1462711	+
x	1463319	1465196	+
x	1465426	1465716	+
x	1465474	1465716	+
x	1465934	1466362	+
x	1466474	1467607	+
x	1470533	1470640	+
x	1470670	1471158	+
x	1471148	1470711	-
x	1473302	1473186	-
x	1473241	1473348	+
x	1473390	1473476	+
x	1473630	1473496	-
x	1478915	1480906	+
x	1483534	1483436	-
x	1483522	1485018	+
x	1483705	1485018	+
x	1485509	1486369	+
x	1485512	1486369	+
x	1486344	1486511	+
x	1486416	1486511	+
x	1486564	1487712	+
x	1491382	1490918	-
x	1491436	1490918	-
x	1492537	1492641	+
x	1492820	1492635	-
x	1499112	1500119	+
x	1500112	1500903	+
x	1500903	1501535	+
x	1502762	1503463	+
x	1503710	1505047	+
x	1503746	1505047	+
x	1503779	1505047	+
x	1507788	1508357	+
x	1508653	1508405	-
x	1510472	1509696	-
x	1511142	1510456	-
x	1512232	1511279	-
x	1512226	1511279	-
x	1512606	1512436	-
x	1512621	1512436	-
x	1512919	1512569	-
x	1513088	1514932	+
x	1518523	1517537	-
x	1518630	1518523	-
x	1520149	1519988	-
x	1520282	1520476	+
x	1520294	1520476	+
x	1520360	1520476	+
x	1521640	1523262	+
x	1524399	1525529	+
x	1527498	1528190	+
x	1530310	1531320	+
x	1533648	1533836	+
x	1534246	1534524	+
x	1534549	1535172	+
x	1535201	1536340	+
x	1541188	1540853	-
x	1541948	1541085	-
x	1547779	1546838	-
x	1548435	1548190	-
x	1553689	1553844	+
x	1558452	1558357	-
x	1559080	1558628	-
x	1560452	1560243	-
x	1560727	1560506	-
x	1560643	1560506	-
x	1561859	1561677	-
x	1562009	1561677	-
x	1561696	1561815	+
x	1561800	1561714	-
x	1561845	1561714	-
x	1561918	1561823	-
x	1561948	1562064	+
x	1562318	1562145	-
x	1581766	1562708	-
x	1582849	1562708	-
x	1564123	1562708	-
x	1596500	1594980	-
x	1600169	1599015	-
x	1606680	1606832	+
x	1608908	1608792	-
x	1609401	1609009	-
x	1609362	1609009	-
x	1610324	1609923	-
x	1610504	1610328	-
x	1610507	1610328	-
x	1610368	1610532	+
x	1610707	1610832	+
x	1610762	1611439	+
x	1617492	1616194	-
x	1622685	1621483	-
x	1622583	1621483	-
x	1623802	1622690	-
x	1623844	1622690	-
x	1624438	1624076	-
x	1624417	1624076	-
x	1625409	1624729	-
x	1625436	1624729	-
x	1625789	1625481	-
x	1625987	1625481	-
x	1626636	1626058	-
x	1626675	1626058	-
x	1627750	1626647	-
x	1632048	1631848	-
x	1632202	1632077	-
x	1632688	1632257	-
x	1633766	1632798	-
x	1633796	1632798	-
x	1633742	1632798	-
x	1634361	1633759	-
x	1634986	1635300	+
x	1640103	1639912	-
x	1640057	1640194	+
x	1640261	1640184	-
x	1640918	1640367	-
x	1641145	1642071	+
x	1643313	1642186	-
x	1643196	1642186	-
x	1643449	1643333	-
x	1645040	1643574	-
x	1647641	1647865	+
x	1648540	1647971	-
x	1649891	1650013	+
x	1651547	1651299	-
x	1652479	1652294	-
x	1655315	1654449	-
x	1657385	1655619	-
x	1657313	1655619	-
x	1658094	1657351	-
x	1660229	1659474	-
x	1664367	1664119	-
x	1665141	1664383	-
x	1665310	1666095	+
x	1667309	1667175	-
x	1668957	1669088	+
x	1669145	1670011	+
x	1673032	1672778	-
x	1673005	1672778	-
x	1672987	1672778	-
x	1675044	1673809	-
x	1678063	1676816	-
x	1678212	1678391	+
x	1678299	1678391	+
x	1678472	1678564	+
x	1679961	1679512	-
x	1680120	1680022	-
x	1687306	1686845	-
x	1688595	1687729	-
x	1695601	1695846	+
x	1700469	1699114	-
x	1702387	1702244	-
x	1702390	1702244	-
x	1702954	1702487	-
x	1702876	1702487	-
x	1702969	1702487	-
x	1702861	1702487	-
x	1703222	1702902	-
x	1703159	1702902	-
x	1703592	1703188	-
x	1703634	1703188	-
x	1703878	1703612	-
x	1704857	1703937	-
x	1705911	1704979	-
x	1708573	1708121	-
x	1709401	1708121	-
x	1710135	1709596	-
x	1714937	1714074	-
x	1715746	1714979	-
x	1724689	1724198	-
x	1727449	1726697	-
x	1728145	1727471	-
x	1728270	1728446	+
x	1730521	1729601	-
x	1730845	1730756	-
x	1733257	1732574	-
x	1735985	1735323	-
x	1736084	1735323	-
x	1740150	1738294	-
x	1743088	1741931	-
x	1742896	1741931	-
x	1743437	1743252	-
x	1743332	1743490	+
x	1749318	1747117	-
x	1749264	1747117	-
x	1749234	1747117	-
x	1749793	1749323	-
x	1749784	1749323	-
x	1750562	1749876	-
x	1753870	1753115	-
x	1756476	1756315	-
x	1756437	1756315	-
x	1757242	1757054	-
x	1757807	1757391	-
x	1757759	1757391	-
x	1757967	1757821	-
x	1757906	1758100	+
x	1764815	1763901	-
x	1765659	1764901	-
x	1765602	1764901	-
x	1769297	1768368	-
x	1776715	1774268	-
x	1777866	1777780	-
x	1779195	1778110	-
x	1778883	1778110	-
x	1782996	1782820	-
x	1782935	1784182	+
x	1783007	1784182	+
x	1785244	1785116	-
x	1785431	1785330	-
x	1790427	1789954	-
x	1792628	1790418	-
x	1795799	1795921	+
x	1798270	1796051	-
x	1798808	1798605	-
x	1801089	1800046	-
x	1801110	1800046	-
x	1803180	1802725	-
x	1805335	1805135	-
x	1808402	1808599	+
x	1808471	1808599	+
x	1809000	1808716	-
x	1814623	1812794	-
x	1816426	1815887	-
x	1816411	1815887	-
x	1817247	1817357	+
x	1821693	1822292	+
x	1823495	1822515	-
x	1823582	1822515	-
x	1823606	1822515	-
x	1823197	1823616	+
x	1823467	1823616	+
x	1823711	1823622	-
x	1829951	1828590	-
x	1833769	1833659	-
x	1835407	1835508	+
x	1836631	1836104	-
x	1836664	1836104	-
x	1841036	1840914	-
x	1842070	1841129	-
x	1851279	1849777	-
x	1853403	1851763	-
x	1853424	1851763	-
x	1854080	1854298	+
x	1856692	1855835	-
x	1861715	1860792	-
x	1869905	1868922	-
x	1872914	1872396	-
x	1873058	1873201	+
x	1873239	1874315	+
x	1874507	1874409	-
x	1875770	1874631	-
x	1878903	1877926	-
x	1879508	1878996	-
x	1882773	1881625	-
x	1882764	1881625	-
x	1882922	1883044	+
x	1882928	1883044	+
x	1886351	1886605	+
x	1887263	1887763	+
x	1890708	1890598	-
x	1890720	1890815	+
x	1891915	1890776	-
x	1891816	1890776	-
x	1894215	1893607	-
x	1898385	1898293	-
x	1900363	1898516	-
x	1901184	1901279	+
x	1901190	1901279	+
x	1903224	1901524	-
x	1908374	1907430	-
x	1908605	1908492	-
x	1913994	1912741	-
x	1914075	1912741	-
x	1919390	1918548	-
x	1921044	1921355	+
x	1922256	1921480	-
x	1922052	1921480	-
x	1924177	1923452	-
x	1924252	1923452	-
x	1924587	1924682	+
x	1931693	1931965	+
x	1934424	1932082	-
x	1932690	1932082	-
x	1941715	1939301	-
x	1943148	1942006	-
x	1945394	1944933	-
x	1945334	1944933	-
x	1946855	1946736	-
x	1946852	1946736	-
x	1951401	1950397	-
x	1951428	1950397	-
x	1953565	1953446	-
x	1953913	1954260	+
x	1954254	1955552	+
x	1956526	1955639	-
x	1957177	1957662	+
x	1957192	1957662	+
x	1957303	1957662	+
x	1958075	1958218	+
x	1959013	1959579	+
x	1961145	1961294	+
x	1961550	1961915	+
x	1962823	1963077	+
x	1962826	1963077	+
x	1962910	1963077	+
x	1962913	1963077	+
x	1963516	1964199	+
x	1963591	1964199	+
x	1963840	1964199	+
x	1963855	1964199	+
x	1963888	1964199	+
x	1964005	1964199	+
x	1964017	1964199	+
x	1964083	1964199	+
x	1966218	1965307	-
x	1967635	1966337	-
x	1969621	1969797	+
x	1970621	1969875	-
x	1971099	1970626	-
x	1971159	1970626	-
x	1972486	1971419	-
x	1974517	1974062	-
x	1974502	1974062	-
x	1974857	1975471	+
x	1974917	1975471	+
x	1976778	1977248	+
x	1979876	1979977	+
x	1980113	1980295	+
x	1984014	1982275	-
x	1983747	1982275	-
x	1984129	1983995	-
x	1986531	1985809	-
x	1987823	1988014	+
x	1989058	1989177	+
x	1989653	1989381	-
x	1991236	1991111	-
x	1992471	1991494	-
x	1993384	1992479	-
x	1995402	1995566	+
x	1997250	1998005	+
x	1997583	1998005	+
x	1998154	1998339	+
x	2000113	1999616	-
x	2000820	2000410	-
x	2000805	2000410	-
x	2001127	2000780	-
x	2001181	2000780	-
x	2004610	2004726	+
x	2005812	2005240	-
x	2005888	2006115	+
x	2007505	2006117	-
x	2007364	2006117	-
x	2009659	2009549	-
x	2011576	2010449	-
x	2013694	2013593	-
x	2013991	2014128	+
x	2021496	2021398	-
x	2023643	2023569	-
x	2023815	2025170	+
x	2023950	2025170	+
x	2027866	2026736	-
x	2031288	2030866	-
x	2031380	2031532	+
x	2032612	2031986	-
x	2034361	2033219	-
x	2035219	2034497	-
x	2036537	2035212	-
x	2038536	2039891	+
x	2038671	2039891	+
x	2040892	2041068	+
x	2041268	2041516	+
x	2045857	2046036	+
x	2049164	2048862	-
x	2050270	2049818	-
x	2050468	2051643	+
x	2051885	2053030	+
x	2051987	2053030	+
x	2058362	2058592	+
x	2061186	2060896	-
x	2061928	2061188	-
x	2064413	2065597	+
x	2067667	2066477	-
x	2067733	2066477	-
x	2067942	2067736	-
x	2067951	2067736	-
x	2068147	2068025	-
x	2068131	2068547	+
x	2073207	2072812	-
x	2074472	2074353	-
x	2075780	2075694	-
x	2075873	2075694	-
x	2075812	2075943	+
x	2075986	2075870	-
x	2076514	2076062	-
x	2076523	2076062	-
x	2076614	2076504	-
x	2079712	2079620	-
x	2081590	2080550	-
x	2085130	2085047	-
x	2087091	2085724	-
x	2089301	2090830	+
x	2092124	2090919	-
x	2101688	2101572	-
x	2104927	2103413	-
x	2104855	2103413	-
x	2107103	2106981	-
x	2107028	2107135	+
x	2108723	2107146	-
x	2109998	2108913	-
x	2110986	2111921	+
x	2112242	2112114	-
x	2113824	2113708	-
x	2115325	2115537	+
x	2116262	2116110	-
x	2116734	2117774	+
x	2118424	2117831	-
x	2119152	2118670	-
x	2119911	2120495	+
x	2126900	2126664	-
x	2128785	2128985	+
x	2128788	2128985	+
x	2129357	2129536	+
x	2129771	2129616	-
x	2129847	2130107	+
x	2129916	2130107	+
x	2131945	2131739	-
x	2132196	2131942	-
x	2132123	2132278	+
x	2132437	2132297	-
x	2133118	2133270	+
x	2134406	2134173	-
x	2134479	2134586	+
x	2134815	2134639	-
x	2134824	2134639	-
x	2134773	2134639	-
x	2135195	2134965	-
x	2140909	2139596	-
x	2145800	2145666	-
x	2148612	2148316	-
x	2150792	2150061	-
x	2153963	2153619	-
x	2154100	2153951	-
x	2154960	2154625	-
x	2155269	2155069	-
x	2155427	2155269	-
x	2155863	2155618	-
x	2156678	2156433	-
x	2156687	2156433	-
x	2156806	2156693	-
x	2156950	2156693	-
x	2156941	2156693	-
x	2157503	2157195	-
x	2157575	2157195	-
x	2157995	2157579	-
x	2160096	2159611	-
x	2163186	2161231	-
x	2163461	2163183	-
x	2165454	2165233	-
x	2166381	2166241	-
x	2167291	2167974	+
x	2169292	2169495	+
x	2169574	2170287	+
x	2170454	2171515	+
x	2173506	2172634	-
x	2174673	2173672	-
x	2176505	2176407	-
x	2182867	2181596	-
x	2185001	2184900	-
x	2185561	2185424	-
x	2185558	2185424	-
x	2187144	2187815	+
x	2187924	2188550	+
x	2193045	2192641	-
x	2193867	2192641	-
x	2194007	2193894	-
x	2194296	2194099	-
x	2194347	2194099	-
x	2195369	2194383	-
x	2198843	2198727	-
x	2198855	2198727	-
x	2202297	2201887	-
x	2202312	2201887	-
x	2203013	2202324	-
x	2203401	2202967	-
x	2203428	2202967	-
x	2203466	2203621	+
x	2203951	2205627	+
x	2205646	2207424	+
x	2214872	2214762	-
x	2214994	2214896	-
x	2215250	2215152	-
x	2220891	2220784	-
x	2221896	2221465	-
x	2221929	2221465	-
x	2225751	2225242	-
x	2227321	2227554	+
x	2229251	2228133	-
x	2229305	2228133	-
x	2230183	2229710	-
x	2230204	2229710	-
x	2232454	2232338	-
x	2235067	2233031	-
x	2235004	2233031	-
x	2236729	2235077	-
x	2236887	2236777	-
x	2236953	2239682	+
x	2241981	2240761	-
x	2242116	2240761	-
x	2243802	2242249	-
x	2243712	2242249	-
x	2246840	2245659	-
x	2246744	2245659	-
x	2249337	2248999	-
x	2249383	2250942	+
x	2250952	2251617	+
x	2251884	2251792	-
x	2253285	2252530	-
x	2253138	2252530	-
x	2256643	2256518	-
x	2256649	2256518	-
x	2257687	2257794	+
x	2258415	2258918	+
x	2261284	2261192	-
x	2264277	2263480	-
x	2264298	2263480	-
x	2268573	2268169	-
x	2268621	2268169	-
x	2269819	2268689	-
x	2273864	2272809	-
x	2273855	2272809	-
x	2273906	2272809	-
x	2274691	2273939	-
x	2274772	2273939	-
x	2278488	2277157	-
x	2280723	2280385	-
x	2286827	2286684	-
x	2295133	2293793	-
x	2295078	2295206	+
x	2300977	2300738	-
x	2300884	2300738	-
x	2302015	2300999	-
x	2304555	2304653	+
x	2304699	2304806	+
x	2306383	2306279	-
x	2306359	2306279	-
x	2306998	2306816	-
x	2306900	2307070	+
x	2307063	2307221	+
x	2307658	2307750	+
x	2308748	2307879	-
x	2311641	2309818	-
x	2312073	2312246	+
x	2312091	2312246	+
x	2313862	2316009	+
x	2315797	2316009	+
x	2324668	2317880	-
x	2321821	2317880	-
x	2319940	2317880	-
x	2328554	2327919	-
x	2330114	2329998	-
x	2336992	2336066	-
x	2337070	2336066	-
x	2338669	2337278	-
x	2338720	2337278	-
x	2339516	2339043	-
x	2340088	2339615	-
x	2341821	2341135	-
x	2345468	2344152	-
x	2345345	2344152	-
x	2346636	2345758	-
x	2347640	2346723	-
x	2348779	2347766	-
x	2348915	2349040	+
x	2352999	2351962	-
x	2353257	2355233	+
x	2356766	2356218	-
x	2356688	2356218	-
x	2361045	2360041	-
x	2362204	2361320	-
x	2365603	2363885	-
x	2368955	2368839	-
x	2369946	2369191	-
x	2370188	2370928	+
x	2370308	2370928	+
x	2370965	2371126	+
x	2370977	2371126	+
x	2372582	2372484	-
x	2373242	2373394	+
x	2373385	2375820	+
x	2376578	2375880	-
x	2377766	2376945	-
x	2379580	2378864	-
x	2381621	2381791	+
x	2381945	2381763	-
x	2384445	2383780	-
x	2385657	2385544	-
x	2386468	2386307	-
x	2386850	2386728	-
x	2387127	2387011	-
x	2387657	2387331	-
x	2387457	2387639	+
x	2388035	2388220	+
x	2390022	2389624	-
x	2397956	2397282	-
x	2399223	2397946	-
x	2401963	2401793	-
x	2402492	2402001	-
x	2403828	2403607	-
x	2405628	2405302	-
x	2408067	2407438	-
x	2408787	2409182	+
x	2410551	2409373	-
x	2410626	2409373	-
x	2413040	2414017	+
x	2413052	2414017	+
x	2415309	2415178	-
x	2415449	2415291	-
x	2415345	2415464	+
x	2415481	2415600	+
x	2416606	2415716	-
x	2416642	2415716	-
x	2417133	2417483	+
x	2420780	2417667	-
x	2422605	2422856	+
x	2422807	2422688	-
x	2425996	2426181	+
x	2426343	2426224	-
x	2427376	2426447	-
x	2432539	2431631	-
x	2436912	2436136	-
x	2438527	2437658	-
x	2440295	2440119	-
x	2441054	2440119	-
x	2441412	2441320	-
x	2442404	2441490	-
x	2442380	2441490	-
x	2442688	2442957	+
x	2443390	2445093	+
x	2447059	2447703	+
x	2448537	2448725	+
x	2450902	2449826	-
x	2452185	2452301	+
x	2453454	2453212	-
x	2453433	2453212	-
x	2453340	2453212	-
x	2454821	2453628	-
x	2461091	2460453	-
x	2461328	2461251	-
x	2461421	2461251	-
x	2461502	2461251	-
x	2466665	2465742	-
x	2466695	2465742	-
x	2466689	2465742	-
x	2466596	2465742	-
x	2467631	2466822	-
x	2469282	2469836	+
x	2469507	2469836	+
x	2470272	2471153	+
x	2474021	2473833	-
x	2475614	2474745	-
x	2475794	2474745	-
x	2475906	2476460	+
x	2479483	2478263	-
x	2479618	2478263	-
x	2482788	2481475	-
x	2482686	2481475	-
x	2482571	2482930	+
x	2482766	2482930	+
x	2489760	2490401	+
x	2492930	2493742	+
x	2495345	2495533	+
x	2495564	2495451	-
x	2496806	2496606	-
x	2497115	2496981	-
x	2497166	2496981	-
x	2500150	2499506	-
x	2500118	2500309	+
x	2500294	2500437	+
x	2500306	2500437	+
x	2504846	2505337	+
x	2506718	2505861	-
x	2506763	2505861	-
x	2510455	2509817	-
x	2510463	2510588	+
x	2512812	2512684	-
x	2514135	2514401	+
x	2514255	2514401	+
x	2514638	2514462	-
x	2515565	2516080	+
x	2518140	2518841	+
x	2522866	2521331	-
x	2524910	2524782	-
x	2525105	2526778	+
x	2528566	2529570	+
x	2528668	2529570	+
x	2529951	2529616	-
x	2531048	2530053	-
x	2531126	2530053	-
x	2531717	2531319	-
x	2538376	2538549	+
x	2539156	2540694	+
x	2541404	2541246	-
x	2541499	2541807	+
x	2543369	2542125	-
x	2544478	2544792	+
x	2545008	2545436	+
x	2545014	2545436	+
x	2546736	2545543	-
x	2546783	2546902	+
x	2547630	2547995	+
x	2547789	2547995	+
x	2549574	2548972	-
x	2552438	2551848	-
x	2552375	2551848	-
x	2553861	2552416	-
x	2553951	2552416	-
x	2557604	2554107	-
x	2557701	2557576	-
x	2562440	2561670	-
x	2562371	2561670	-
x	2562419	2561670	-
x	2564108	2563401	-
x	2564147	2563401	-
x	2567394	2567203	-
x	2567470	2567378	-
x	2568962	2568612	-
x	2568983	2568612	-
x	2569013	2568612	-
x	2572032	2571304	-
x	2571798	2571304	-
x	2574262	2572904	-
x	2574301	2572904	-
x	2574416	2574273	-
x	2577379	2577275	-
x	2578951	2578724	-
x	2579230	2579048	-
x	2579365	2580294	+
x	2580358	2580483	+
x	2583330	2582839	-
x	2584045	2583317	-
x	2583994	2583317	-
x	2585132	2584020	-
x	2588509	2588366	-
x	2592052	2590355	-
x	2592139	2590355	-
x	2592785	2592684	-
x	2592928	2592821	-
x	2592825	2593079	+
x	2593707	2594858	+
x	2597766	2598335	+
x	2599204	2598398	-
x	2603296	2603195	-
x	2607912	2608109	+
x	2614489	2613218	-
x	2614450	2613218	-
x	2614890	2614771	-
x	2615073	2614960	-
x	2615110	2614970	-
x	2615728	2615114	-
x	2615876	2615706	-
x	2620431	2619253	-
x	2620380	2619253	-
x	2623600	2622515	-
x	2627065	2627157	+
x	2628246	2628121	-
x	2634487	2632907	-
x	2635862	2634648	-
x	2637544	2636771	-
x	2637999	2637868	-
x	2639868	2639149	-
x	2643364	2643173	-
x	2643547	2643173	-
x	2643537	2643758	+
x	2644362	2643850	-
x	2645665	2645787	+
x	2645723	2645908	+
x	2645768	2645908	+
x	2645774	2645908	+
x	2646461	2646306	-
x	2646673	2646795	+
x	2647593	2646799	-
x	2648682	2648419	-
x	2649038	2648745	-
x	2650851	2650057	-
x	2651868	2651095	-
x	2652681	2651980	-
x	2652753	2651980	-
x	2652856	2652951	+
x	2654550	2653060	-
x	2656266	2656394	+
x	2656447	2658255	+
x	2656504	2658255	+
x	2656597	2658255	+
x	2656618	2658255	+
x	2658617	2658805	+
x	2658991	2659257	+
x	2659598	2659365	-
x	2661745	2661155	-
x	2664124	2661155	-
x	2664782	2664423	-
x	2664743	2664423	-
x	2666851	2666057	-
x	2666839	2666057	-
x	2669920	2667104	-
x	2668444	2667104	-
x	2670272	2670150	-
x	2673717	2670670	-
x	2673872	2673801	-
x	2674070	2673921	-
x	2677984	2677307	-
x	2680471	2679992	-
x	2680480	2679992	-
x	2680183	2679992	-
x	2682439	2680547	-
x	2682370	2680547	-
x	2682214	2680547	-
x	2684052	2682847	-
x	2685390	2685319	-
x	2685358	2685579	+
x	2687121	2687267	+
x	2689675	2689827	+
x	2689750	2689827	+
x	2689973	2691025	+
x	2690120	2691025	+
x	2691726	2691130	-
x	2692617	2691754	-
x	2693442	2693735	+
x	2695495	2694833	-
x	2695711	2696766	+
x	2695819	2696766	+
x	2697885	2697013	-
x	2698774	2699505	+
x	2701156	2701347	+
x	2701446	2701348	-
x	2704071	2703061	-
x	2704056	2703061	-
x	2704639	2704857	+
x	2704654	2704857	+
x	2705040	2705975	+
x	2705049	2705975	+
x	2705223	2705975	+
x	2707510	2707145	-
x	2708018	2708119	+
x	2708333	2708265	-
x	2710432	2708333	-
x	2713513	2713172	-
x	2714643	2713780	-
x	2714667	2713780	-
x	2714664	2713780	-
x	2714607	2713780	-
x	2714843	2715043	+
x	2722149	2721970	-
x	2722140	2721970	-
x	2727070	2724602	-
x	2727299	2727784	+
x	2728004	2727861	-
x	2728028	2727861	-
x	2730455	2729874	-
x	2730703	2730903	+
x	2733953	2734168	+
x	2735287	2734259	-
x	2740418	2739282	-
x	2740364	2739282	-
x	2741917	2740415	-
x	2742389	2741901	-
x	2743589	2743443	-
x	2749173	2748088	-
x	2749398	2749270	-
x	2749355	2749492	+
x	2749520	2750122	+
x	2749553	2750122	+
x	2750368	2750820	+
x	2750386	2750820	+
x	2750464	2750820	+
x	2750500	2750820	+
x	2751501	2751343	-
x	2752000	2751572	-
x	2752520	2751966	-
x	2754501	2754608	+
x	2758902	2757583	-
x	2758101	2757583	-
x	2758929	2757583	-
x	2760978	2760640	-
x	2762523	2761642	-
x	2762451	2761642	-
x	2764370	2764257	-
x	2767468	2768424	+
x	2769157	2768522	-
x	2769118	2768522	-
x	2770963	2770592	-
x	2771843	2770977	-
x	2772612	2771821	-
x	2776353	2776159	-
x	2779157	2777814	-
x	2779187	2777814	-
x	2779272	2779177	-
x	2779409	2779825	+
x	2779694	2779825	+
x	2782857	2783153	+
x	2782953	2783153	+
x	2783031	2783153	+
x	2784811	2783213	-
x	2785448	2785005	-
x	2785653	2785486	-
x	2789747	2789842	+
x	2789910	2790494	+
x	2789928	2790494	+
x	2792269	2790665	-
x	2792706	2792596	-
x	2796767	2795379	-
x	2797166	2797071	-
x	2799790	2797910	-
x	2799984	2800076	+
x	2800951	2800691	-
x	2800942	2800691	-
x	2801489	2801376	-
x	2801436	2801597	+
x	2804866	2804102	-
x	2805861	2804965	-
x	2805906	2804965	-
x	2806742	2806554	-
x	2806720	2806893	+
x	2808537	2808436	-
x	2809132	2808659	-
x	2813905	2813219	-
x	2814963	2814022	-
x	2814276	2814022	-
x	2816416	2814980	-
x	2819626	2819126	-
x	2821438	2819942	-
x	2822665	2823138	+
x	2831331	2828344	-
x	2834226	2833660	-
x	2836302	2834389	-
x	2836239	2834389	-
x	2841744	2839414	-
x	2842834	2841794	-
x	2842831	2841794	-
x	2844302	2842731	-
x	2844945	2844289	-
x	2846899	2845853	-
x	2854472	2854362	-
x	2855565	2855939	+
x	2855926	2856228	+
x	2860090	2859494	-
x	2860898	2860203	-
x	2860889	2860203	-
x	2862438	2863676	+
x	2862564	2863676	+
x	2863921	2864814	+
x	2866158	2866093	-
x	2868228	2866186	-
x	2868914	2869153	+
x	2869128	2868949	-
x	2874809	2873553	-
x	2876099	2875428	-
x	2876246	2875428	-
x	2876436	2876543	+
x	2878262	2877792	-
x	2880773	2879166	-
x	2881491	2880931	-
x	2884378	2883407	-
x	2884465	2883407	-
x	2887731	2888213	+
x	2889267	2889869	+
x	2891047	2890283	-
x	2892150	2893166	+
x	2893326	2893231	-
x	2893409	2894203	+
x	2894858	2894337	-
x	2898408	2898635	+
x	2899962	2899582	-
x	2900586	2900735	+
x	2904234	2902450	-
x	2906277	2905930	-
x	2906286	2905930	-
x	2906541	2906404	-
