MSSA476			-
USA300-FPR3757		-
04-02981		-
ST398			-
COL			-
JKD6008			-
TW20			-
Newman			-
Mu50			-
RF122			-
Mu3			-
NCTC8325		-
TCH60			-
MRSA252			-
N315			-
MW2			-
JH1			-
ED98			-
JKD6159			-
JH9			-
ED133			-
USA300-TCH1516		-
