x	18845	17568	-
x	23273	21738	-
x	26982	26014	-
x	27094	27402	+
x	33683	33895	+
x	34396	36642	+
x	41406	42014	+
x	52912	53346	+
x	53456	55801	+
x	53765	55801	+
x	57512	58075	+
x	65092	65517	+
x	69642	71660	+
x	86619	85765	-
x	88133	87927	-
x	95543	97021	+
x	104558	103839	-
x	104702	103839	-
x	104792	103839	-
x	105344	104934	-
x	110436	117668	+
x	131234	131025	-
x	131513	133003	+
x	133151	133900	+
x	140096	140275	+
x	141325	142275	+
x	144016	142259	-
x	144129	145757	+
x	144180	145757	+
x	149661	150767	+
x	149664	150767	+
x	151499	152527	+
x	172139	173080	+
x	180833	179256	-
x	183147	181924	-
x	183352	183498	+
x	186557	186432	-
x	200911	202416	+
x	204002	205174	+
x	207389	208357	+
x	218648	219304	+
x	223544	223846	+
x	223936	224601	+
x	230836	231471	+
x	232168	234414	+
x	238334	237831	-
x	243153	241915	-
x	255908	254577	-
x	258796	257723	-
x	274926	274246	-
x	278325	278528	+
x	309378	307816	-
x	309638	310012	+
x	316354	315722	-
x	330361	330942	+
x	336279	333376	-
x	335046	333376	-
x	339176	336438	-
x	336860	336438	-
x	341939	339426	-
x	352849	354342	+
x	364030	362624	-
x	364107	365966	+
x	376128	369007	-
x	375621	369007	-
x	386518	387372	+
x	412243	413688	+
x	417931	418347	+
x	427639	427082	-
x	438323	437694	-
x	447690	448118	+
x	449910	449395	-
x	456018	455158	-
x	457077	456526	-
x	457188	456526	-
x	462393	463565	+
x	467664	466930	-
x	474010	474366	+
x	475586	476002	+
x	476513	476043	-
x	508845	508018	-
x	510912	510637	-
x	516208	515633	-
x	516076	515633	-
x	518993	519301	+
x	521771	522427	+
x	530942	530556	-
x	532614	533171	+
x	534893	534705	-
x	535487	534951	-
x	537429	536764	-
x	542402	543112	+
x	543455	544990	+
x	545382	544996	-
x	545095	545445	+
x	546081	545635	-
x	546162	545635	-
x	549876	547846	-
x	552009	552248	+
x	552286	552810	+
x	560148	561008	+
x	563753	562983	-
x	563824	565194	+
x	566042	566656	+
x	570066	569224	-
x	577903	578529	+
x	578665	579435	+
x	580963	580757	-
x	586630	587616	+
x	591711	591812	+
x	595015	594107	-
x	602084	603022	+
x	603046	604752	+
x	606787	608298	+
x	614966	614562	-
x	627613	628608	+
x	632063	632695	+
x	643209	644813	+
x	656329	655244	-
x	656269	655244	-
x	658638	659660	+
x	661206	661589	+
x	661323	661589	+
x	661573	663693	+
x	670159	671472	+
x	676142	676621	+
x	677927	677436	-
x	678014	677436	-
x	678886	678038	-
x	698721	698215	-
x	699305	698835	-
x	700574	701500	+
x	701711	702325	+
x	703040	703510	+
x	704141	704368	+
x	709667	710659	+
x	709910	710659	+
x	710656	710898	+
x	711161	710895	-
x	711128	710895	-
x	714513	715577	+
x	715681	716628	+
x	730498	729638	-
x	732635	733132	+
x	737556	736609	-
x	737505	736609	-
x	738460	737579	-
x	739471	738608	-
x	739561	738608	-
x	739519	738608	-
x	740528	739638	-
x	743563	747210	+
x	750845	750078	-
x	760651	764169	+
x	768664	768161	-
x	768481	768161	-
x	770842	771393	+
x	779245	776429	-
x	781564	782154	+
x	800472	800693	+
x	806761	807171	+
x	806803	807171	+
x	818910	818536	-
x	829952	830164	+
x	831863	832666	+
x	832781	833308	+
x	833063	833308	+
x	836210	836064	-
x	842235	842408	+
x	843078	842941	-
x	843237	843482	+
x	847372	849117	+
x	851247	849307	-
x	855361	855029	-
x	860357	860067	-
x	861276	860317	-
x	864502	865347	+
x	865344	865778	+
x	874559	873876	-
x	875437	877596	+
x	877917	877525	-
x	877895	878035	+
x	879661	878024	-
x	879844	880530	+
x	882670	882281	-
x	882665	883624	+
x	895667	897931	+
x	906252	907139	+
x	919400	918759	-
x	932930	932094	-
x	941931	942368	+
x	960859	959438	-
x	965355	966377	+
x	977468	977983	+
x	984213	984031	-
x	986544	984262	-
x	994420	995070	+
x	998442	998846	+
x	999616	1001697	+
x	1008815	1008564	-
x	1013578	1014363	+
x	1018909	1019763	+
x	1020970	1020581	-
x	1022236	1021004	-
x	1026968	1027708	+
x	1031097	1032407	+
x	1031112	1032407	+
x	1032690	1033103	+
x	1034439	1034747	+
x	1035170	1035454	+
x	1035251	1035454	+
x	1036931	1037293	+
x	1041968	1041312	-
x	1049074	1047953	-
x	1050435	1050097	-
x	1050474	1050097	-
x	1053185	1054198	+
x	1054245	1054463	+
x	1056181	1055216	-
x	1056355	1056558	+
x	1062664	1063509	+
x	1062790	1063509	+
x	1073929	1071701	-
x	1074692	1074021	-
x	1075911	1076987	+
x	1077646	1077101	-
x	1077828	1078442	+
x	1087672	1087502	-
x	1089130	1089897	+
x	1099877	1100290	+
x	1105052	1106026	+
x	1111262	1113010	+
x	1116965	1117255	+
x	1117252	1122102	+
x	1123638	1123099	-
x	1123900	1123370	-
x	1141412	1140396	-
x	1162533	1157917	-
x	1170037	1168157	-
x	1170635	1170324	-
x	1173820	1174035	+
x	1173899	1174090	+
x	1174090	1175004	+
x	1183261	1184697	+
x	1205612	1205998	+
x	1211920	1213146	+
x	1217724	1218395	+
x	1217778	1218395	+
x	1217784	1218395	+
x	1217808	1218395	+
x	1218392	1219774	+
x	1226918	1226328	-
x	1229276	1229085	-
x	1230091	1229372	-
x	1230880	1232169	+
x	1236629	1238485	+
x	1239138	1238944	-
x	1244580	1245356	+
x	1251671	1249824	-
x	1251668	1249824	-
x	1270320	1271630	+
x	1276884	1277609	+
x	1276915	1277319	+
x	1278456	1279343	+
x	1279346	1280230	+
x	1280307	1281047	+
x	1280502	1281047	+
x	1287804	1288952	+
x	1288956	1289981	+
x	1292441	1293277	+
x	1298735	1298466	-
x	1300111	1298957	-
x	1300902	1300498	-
x	1300675	1301304	+
x	1303038	1303262	+
x	1306111	1306458	+
x	1311577	1312188	+
x	1311583	1312188	+
x	1329466	1330395	+
x	1331444	1330608	-
x	1332315	1331644	-
x	1332219	1331644	-
x	1334671	1335819	+
x	1340648	1341448	+
x	1341513	1341998	+
x	1347995	1348906	+
x	1361214	1359637	-
x	1361316	1359637	-
x	1363116	1363322	+
x	1368604	1370142	+
x	1370139	1370753	+
x	1373667	1374362	+
x	1380493	1380245	-
x	1383340	1382630	-
x	1389696	1388281	-
x	1389791	1390858	+
x	1392667	1391696	-
x	1392733	1391696	-
x	1393263	1393580	+
x	1393293	1393580	+
x	1394805	1394617	-
x	1394671	1394928	+
x	1403361	1403729	+
x	1419176	1418391	-
x	1427594	1426017	-
x	1430552	1430031	-
x	1432214	1431411	-
x	1433855	1434322	+
x	1435597	1435959	+
x	1438283	1438699	+
x	1438866	1439357	+
x	1442364	1441900	-
x	1445077	1445394	+
x	1451457	1451215	-
x	1451486	1453822	+
x	1451522	1453822	+
x	1453826	1454080	+
x	1467493	1466816	-
x	1468942	1470327	+
x	1470551	1470324	-
x	1485937	1485536	-
x	1492376	1490745	-
x	1497496	1497705	+
x	1503720	1506101	+
x	1507164	1507838	+
x	1513237	1513701	+
x	1515885	1515145	-
x	1532170	1531781	-
x	1536950	1537351	+
x	1549515	1550720	+
x	1553481	1552783	-
x	1555670	1556074	+
x	1560671	1559661	-
x	1580166	1580417	+
x	1583973	1583788	-
x	1584076	1585371	+
x	1584124	1585371	+
x	1589325	1590671	+
x	1600197	1600619	+
x	1606937	1606101	-
x	1608009	1607137	-
x	1619093	1619854	+
x	1621155	1622432	+
x	1622655	1624136	+
x	1629189	1629674	+
x	1640634	1640230	-
x	1645563	1644757	-
x	1652940	1651414	-
x	1653030	1651414	-
x	1657075	1659051	+
x	1660800	1660946	+
x	1661614	1662132	+
x	1663539	1666199	+
x	1677085	1676807	-
x	1676963	1679002	+
x	1687933	1688199	+
x	1688216	1687947	-
x	1692353	1693018	+
x	1697489	1698322	+
x	1698462	1699670	+
x	1700912	1702465	+
x	1702496	1703446	+
x	1708035	1707061	-
x	1707780	1707061	-
x	1708039	1708311	+
x	1710582	1709980	-
x	1721019	1719934	-
x	1730676	1731803	+
x	1733360	1733151	-
x	1736152	1735169	-
x	1737981	1742225	+
x	1746703	1751751	+
x	1762066	1761881	-
x	1763571	1763873	+
x	1766731	1767072	+
x	1780611	1780730	+
x	1781709	1782545	+
x	1784632	1786170	+
x	1786388	1787926	+
x	1788009	1789535	+
x	1789751	1790053	+
x	1790365	1790484	+
x	1796435	1796178	-
x	1797125	1796691	-
x	1797799	1799040	+
x	1807734	1806979	-
x	1807767	1806979	-
x	1807912	1807691	-
x	1821344	1822009	+
x	1822009	1822554	+
x	1822570	1823985	+
x	1832896	1832300	-
x	1833273	1832929	-
x	1834961	1835284	+
x	1835500	1835231	-
x	1839220	1838786	-
x	1839600	1839007	-
x	1841483	1841692	+
x	1843693	1843001	-
x	1847722	1846655	-
x	1854109	1853594	-
x	1860767	1860573	-
x	1861256	1862092	+
x	1866670	1867584	+
x	1869825	1868956	-
x	1881067	1882665	+
x	1882243	1882665	+
x	1883380	1882742	-
x	1887533	1887727	+
x	1894421	1893534	-
x	1904257	1901465	-
x	1907220	1906453	-
x	1907316	1908275	+
x	1910431	1909556	-
x	1910624	1910995	+
x	1915071	1915373	+
x	1940739	1941584	+
x	1944217	1943468	-
x	1946037	1947323	+
x	1946247	1947323	+
x	1959016	1958258	-
x	1962944	1963195	+
x	1963381	1964538	+
x	1968502	1966691	-
x	1969704	1970846	+
x	1973439	1974326	+
x	1976589	1976771	+
x	1982115	1983020	+
x	1986024	1987058	+
x	1993290	1993631	+
x	1998899	2000359	+
x	2007668	2008453	+
x	2013507	2014859	+
x	2027000	2027266	+
x	2027263	2028033	+
x	2035473	2035988	+
x	2041399	2040776	-
x	2042664	2044328	+
x	2044420	2044635	+
x	2048502	2049338	+
x	2050173	2051009	+
x	2051497	2051793	+
x	2053199	2052483	-
x	2063210	2063461	+
x	2078798	2078400	-
x	2081529	2081215	-
x	2081566	2081736	+
x	2087611	2088366	+
x	2090022	2089087	-
x	2095531	2095121	-
x	2099494	2099907	+
x	2100309	2099908	-
x	2105668	2108457	+
x	2109071	2109295	+
x	2126994	2127311	+
x	2127913	2128710	+
x	2135300	2134977	-
x	2135447	2134977	-
x	2137611	2138096	+
x	2156387	2155551	-
x	2157672	2156953	-
x	2159526	2158951	-
x	2162287	2161808	-
x	2190553	2190281	-
x	2204843	2204235	-
x	2210067	2208826	-
x	2211326	2210094	-
x	2214446	2213823	-
x	2215265	2214456	-
x	2216004	2215747	-
x	2221211	2220858	-
x	2221210	2221731	+
x	2226965	2225601	-
x	2239715	2240494	+
x	2252264	2255305	+
x	2255643	2259809	+
x	2264754	2265359	+
x	2265442	2266035	+
x	2276448	2277572	+
x	2284707	2285426	+
x	2299127	2298441	-
x	2300927	2301418	+
x	2309672	2307336	-
x	2309750	2307336	-
x	2321791	2321165	-
x	2325483	2325163	-
x	2329109	2330548	+
x	2335844	2338051	+
x	2338248	2338048	-
x	2347236	2346979	-
x	2353055	2352126	-
x	2360077	2361573	+
x	2366230	2365328	-
x	2367401	2368594	+
x	2371475	2370063	-
x	2372830	2371601	-
x	2374717	2375064	+
x	2375860	2376696	+
x	2377267	2379186	+
x	2393585	2393466	-
x	2393747	2393586	-
x	2394205	2393906	-
x	2395684	2394632	-
x	2398808	2397711	-
x	2403475	2400677	-
x	2411579	2412028	+
x	2421483	2420239	-
x	2424378	2424103	-
x	2430971	2430738	-
x	2431133	2433877	+
x	2435107	2435943	+
x	2448891	2446300	-
x	2451367	2451552	+
x	2456918	2456586	-
x	2456870	2456586	-
x	2460739	2461236	+
x	2465282	2466835	+
x	2466857	2467048	+
x	2471533	2471952	+
x	2483745	2482981	-
x	2492863	2493453	+
x	2504828	2504652	-
x	2511998	2511774	-
x	2517337	2516342	-
x	2520193	2519285	-
x	2522612	2522337	-
x	2526109	2525717	-
x	2528364	2529017	+
x	2536106	2534574	-
x	2551752	2551240	-
x	2559087	2560247	+
x	2563894	2562836	-
x	2570559	2574077	+
x	2574136	2574411	+
x	2580352	2582022	+
x	2585642	2583423	-
x	2594423	2593797	-
x	2609427	2608018	-
x	2611468	2610236	-
x	2612355	2611537	-
x	2619301	2618564	-
x	2623012	2621696	-
x	2623039	2621696	-
x	2631261	2631022	-
x	2633198	2634154	+
x	2633288	2634154	+
x	2633432	2634154	+
x	2638204	2638488	+
x	2638728	2639420	+
x	2653910	2653170	-
x	2659770	2662052	+
x	2671105	2670497	-
x	2673493	2672102	-
x	2695641	2699177	+
x	2702321	2701281	-
x	2702616	2702347	-
x	2710299	2709253	-
x	2710752	2710333	-
x	2718913	2719353	+
x	2725408	2724119	-
x	2726465	2725461	-
x	2731216	2729345	-
x	2732622	2732359	-
x	2736424	2737332	+
x	2744966	2744205	-
x	2756613	2757740	+
x	2772721	2773728	+
x	2775021	2773756	-
x	2775173	2777386	+
x	2790742	2790503	-
x	2793838	2795244	+
x	2795616	2795383	-
x	2800470	2801132	+
x	2800503	2801132	+
x	2801218	2801081	-
x	2815575	2814592	-
x	2821786	2821322	-
x	2824984	2825703	+
x	2832884	2832402	-
x	2836728	2835943	-
x	2836545	2835943	-
x	2843887	2845365	+
x	2846658	2845438	-
x	2848033	2846777	-
x	2849073	2848447	-
x	2871472	2872605	+
x	2878484	2879674	+
x	2880920	2881144	+
x	2884689	2882026	-
x	2926168	2926350	+
x	2926347	2926805	+
x	2943634	2943948	+
x	2944804	2944439	-
x	2951074	2950829	-
x	2986148	2986624	+
x	2992275	2993048	+
x	2998803	2998051	-
x	3002106	3002579	+
x	3003823	3002705	-
x	3007472	3008677	+
x	3019062	3022706	+
x	3025386	3027074	+
x	3026521	3027066	+
x	3027785	3027525	-
x	3035237	3035833	+
x	3045690	3044602	-
x	3046837	3046256	-
x	3046720	3046256	-
x	3047818	3048561	+
x	3064376	3065128	+
x	3069397	3070707	+
x	3069460	3070707	+
x	3071229	3071110	-
x	3072713	3071541	-
x	3073062	3072763	-
x	3073092	3072763	-
x	3083003	3084376	+
x	3098340	3092083	-
x	3098388	3092083	-
x	3096831	3092083	-
x	3103115	3102735	-
x	3111880	3112182	+
x	3119266	3118601	-
x	3127833	3128948	+
x	3127905	3128948	+
x	3133621	3133184	-
x	3134111	3133704	-
x	3134257	3135705	+
x	3134341	3135705	+
x	3135145	3135705	+
x	3138740	3137238	-
x	3138737	3137238	-
x	3139582	3138671	-
x	3141943	3140861	-
x	3142987	3143802	+
x	3146492	3146860	+
x	3147819	3149675	+
x	3150025	3149789	-
x	3168884	3169084	+
x	3179637	3179122	-
x	3183235	3182564	-
x	3183366	3184352	+
x	3197372	3196920	-
x	3200163	3198004	-
x	3204425	3204075	-
x	3205279	3205740	+
x	3210957	3210064	-
x	3211140	3210064	-
x	3211348	3212187	+
x	3211354	3212187	+
x	3213933	3213643	-
x	3214502	3213996	-
x	3214493	3213996	-
x	3219576	3220967	+
x	3226838	3225981	-
x	3232325	3231144	-
x	3232971	3233117	+
x	3234835	3234479	-
x	3238843	3237935	-
x	3242346	3241051	-
x	3242361	3241051	-
x	3242493	3243086	+
x	3244910	3245941	+
x	3246224	3246631	+
x	3246714	3247151	+
x	3247251	3247559	+
x	3250749	3250868	+
x	3251305	3251628	+
x	3252311	3252805	+
x	3252416	3252805	+
x	3265162	3264695	-
x	3273422	3272814	-
x	3282588	3281617	-
x	3289574	3290833	+
x	3291726	3293294	+
x	3297016	3297336	+
x	3297340	3297549	+
x	3299338	3298262	-
x	3300152	3299499	-
x	3302473	3303144	+
x	3303218	3303550	+
x	3309886	3309173	-
x	3315226	3316644	+
x	3316836	3316663	-
x	3316858	3317052	+
x	3321361	3318590	-
x	3324383	3325978	+
x	3332991	3330679	-
x	3333809	3334501	+
x	3333899	3334501	+
x	3335475	3336437	+
x	3337654	3337313	-
x	3346772	3347620	+
x	3350513	3350923	+
x	3353432	3354085	+
x	3357966	3357490	-
x	3357990	3357490	-
x	3359371	3359093	-
x	3379867	3381153	+
x	3380365	3381153	+
x	3387866	3387609	-
x	3395519	3395046	-
x	3407775	3407248	-
x	3416670	3416392	-
x	3424550	3423027	-
x	3424499	3423027	-
x	3425761	3426219	+
x	3433598	3434875	+
x	3435796	3437442	+
x	3443844	3443437	-
x	3456745	3455507	-
x	3459000	3458566	-
x	3458970	3458566	-
x	3467452	3467060	-
x	3473683	3472391	-
x	3478863	3479516	+
x	3480070	3480906	+
x	3481966	3483276	+
x	3482029	3483276	+
x	3489428	3488592	-
x	3490520	3490999	+
x	3491442	3492311	+
x	3496117	3495536	-
x	3503111	3503668	+
x	3505195	3504881	-
x	3513241	3512024	-
x	3513513	3514004	+
x	3513618	3514004	+
x	3521209	3522450	+
x	3522422	3523078	+
x	3531258	3529327	-
x	3533083	3531926	-
x	3540441	3541787	+
x	3549554	3550843	+
x	3556075	3556284	+
x	3557715	3556531	-
x	3557565	3556531	-
x	3558200	3558018	-
x	3558780	3559244	+
x	3570518	3568329	-
x	3579497	3579715	+
x	3579857	3580531	+
x	3583877	3583020	-
x	3585183	3584896	-
x	3590866	3591477	+
x	3596999	3596784	-
x	3598784	3598134	-
x	3600255	3600028	-
x	3609616	3609014	-
x	3624143	3622392	-
x	3632872	3634296	+
x	3638658	3639077	+
x	3639374	3639105	-
x	3646135	3645212	-
x	3647118	3648614	+
x	3648602	3649342	+
x	3662922	3663392	+
x	3664026	3664991	+
x	3668558	3668121	-
x	3690108	3688693	-
x	3699696	3699526	-
x	3703035	3702634	-
x	3703272	3703610	+
x	3708240	3707608	-
x	3709418	3708885	-
x	3710686	3709850	-
x	3711363	3711160	-
x	3720678	3721064	+
x	3720926	3721570	+
x	3723118	3722906	-
x	3733999	3726386	-
x	3750122	3740685	-
x	3748103	3740685	-
x	3750720	3750196	-
x	3752007	3751267	-
x	3764076	3752926	-
x	3763950	3752926	-
x	3775542	3777317	+
x	3781723	3778484	-
x	3781759	3778484	-
x	3792076	3791795	-
x	3793062	3792073	-
x	3795642	3796421	+
x	3796348	3797088	+
x	3806647	3805064	-
x	3807257	3807967	+
x	3807341	3807967	+
x	3830375	3829488	-
x	3834922	3834440	-
x	3835560	3834913	-
x	3838102	3838629	+
x	3840116	3839952	-
x	3844631	3844143	-
x	3845721	3844867	-
x	3863459	3862011	-
x	3863423	3862011	-
x	3864364	3865059	+
x	3865749	3867017	+
x	3867749	3866979	-
x	3871709	3871359	-
x	3874885	3875844	+
x	3874891	3875844	+
x	3875125	3875844	+
x	3879744	3878071	-
x	3881660	3880875	-
x	3883998	3885176	+
x	3885206	3888454	+
x	3885389	3888454	+
x	3890772	3890062	-
x	3890808	3890062	-
x	3897641	3897805	+
x	3905455	3904100	-
x	3920640	3925085	+
x	3943753	3944664	+
x	3961592	3963292	+
x	3970376	3969357	-
x	3984212	3985867	+
x	3994411	3993560	-
x	3994662	3994396	-
x	4002425	4003312	+
x	4002713	4003312	+
x	4004397	4003318	-
x	4005491	4006357	+
x	4016015	4015197	-
x	4023525	4022827	-
x	4029264	4029181	-
x	4032347	4031436	-
x	4039084	4039785	+
x	4039179	4039832	+
x	4040076	4039747	-
x	4040271	4040110	-
x	4046643	4046524	-
x	4048678	4049478	+
x	4052132	4051080	-
x	4056755	4057468	+
x	4059864	4058896	-
x	4064969	4064133	-
x	4070311	4069103	-
x	4081526	4082113	+
x	4082500	4082246	-
x	4082554	4082246	-
x	4083128	4082586	-
x	4083805	4083125	-
x	4085684	4084521	-
x	4086754	4085681	-
x	4092123	4091260	-
x	4095045	4095254	+
x	4113195	4114235	+
x	4116956	4116507	-
x	4116845	4116507	-
x	4116839	4116507	-
x	4119447	4120148	+
x	4120145	4121275	+
x	4120274	4121275	+
x	4122482	4123804	+
x	4131691	4130504	-
x	4138892	4137786	-
x	4141616	4143430	+
x	4146030	4146737	+
x	4148710	4148327	-
x	4150133	4151533	+
x	4151530	4152813	+
x	4157282	4157524	+
x	4157421	4157984	+
x	4166064	4168430	+
x	4183255	4183617	+
x	4188036	4187536	-
x	4188197	4189141	+
x	4188236	4189141	+
x	4193353	4193655	+
x	4198824	4197397	-
x	4199599	4198895	-
x	4200018	4200797	+
x	4200042	4200797	+
x	4208835	4210463	+
x	4223126	4223554	+
x	4234377	4237625	+
x	4238924	4240681	+
x	4241828	4242142	+
x	4253277	4252378	-
x	4256711	4254768	-
x	4258155	4257655	-
x	4258188	4257655	-
x	4271811	4272146	+
x	4287351	4281040	-
x	4290604	4289378	-
x	4291212	4290601	-
x	4291182	4290601	-
x	4292838	4291213	-
x	4296853	4298211	+
x	4298216	4298629	+
x	4306538	4306062	-
x	4312889	4313293	+
x	4325762	4326088	+
x	4338881	4339996	+
x	4342918	4344357	+
x	4352602	4351232	-
x	4358051	4356333	-
x	4371811	4371473	-
x	4373286	4371967	-
x	4373061	4371967	-
x	4398451	4398101	-
