O26-H11-11368	5356	5356	7042	7042
O157-H7-EC4115	6286	4427	8032	6002
O157-H7-EDL933	6678	4325	8152	5918
O157-H7-TW14359	6765	4313	8155	5917
O157-H7-Sakai	6958	4279	8225	5910
O103-H2-12009	7207	4157	8545	5652
O55-H7-CB9615	7323	4065	8651	5476
O111-H-11128	7431	3950	8757	5303
042	7918	3642	9325	4766
CFT073	8994	3397	10202	4385
ED1a	9400	3302	10581	4266
UMN026	9663	3279	10819	4230
55989	9859	3263	10983	4189
ETECH10407	10079	3207	11214	4124
IAI39	10311	3076	11439	3922
ABU83972	10460	3061	11523	3913
IHE3034	10624	3043	11659	3894
APECO1	10738	2898	11690	3891
SMS-3-5	10945	2824	11857	3803
UTI89	11074	2816	11912	3800
S88	11120	2811	11932	3795
UM146	11230	2797	11969	3781
E24377A	11602	2723	12147	3714
O127-H6-E234869	11830	2701	12384	3676
536	12000	2662	12480	3617
W	12146	2645	12605	3594
SE11	12287	2636	12700	3579
O83-H1-NRG857C	12419	2621	12820	3566
ATCC8739	12476	2607	12885	3547
SE15	12592	2606	12986	3530
IAI1	12673	2602	13038	3524
K12-DH10B	12751	2518	13124	3465
K12-W3110	12776	2518	13137	3465
HS	12898	2480	13212	3438
K12-MG1655	12914	2477	13221	3438
DH1	12933	2468	13222	3432
B-REL606	12994	2429	13273	3381
BW2952	13004	2415	13279	3359
BL21-Gold-DE3	13026	2391	13292	3335
BL21-DE3	13031	2391	13293	3335
BL21-DE3-BL21	13040	2391	13297	3335
