x	14501	13665	-
x	20102	18825	-
x	24530	22995	-
x	28236	27271	-
x	33325	33182	-
x	35665	37968	+
x	42665	43270	+
x	54168	54602	+
x	54595	57057	+
x	54712	57057	+
x	58693	59331	+
x	66750	66370	-
x	69776	69937	+
x	70899	72917	+
x	72947	73186	+
x	87848	86994	-
x	96775	98250	+
x	105931	105068	-
x	106027	105068	-
x	105787	105068	-
x	106459	106163	-
x	132486	132253	-
x	132630	134231	+
x	134274	135128	+
x	142553	143503	+
x	145244	143487	-
x	145357	146985	+
x	145366	146985	+
x	150850	152355	+
x	152546	153574	+
x	173162	173527	+
x	173561	174502	+
x	182280	180679	-
x	184570	183347	-
x	184775	184921	+
x	187983	187855	-
x	187980	187855	-
x	202334	203839	+
x	205428	206597	+
x	208812	209780	+
x	220071	220727	+
x	224967	225269	+
x	225359	226024	+
x	232196	232894	+
x	233588	235837	+
x	239751	239254	-
x	244576	243338	-
x	249480	248746	-
x	257330	255999	-
x	260266	259145	-
x	276081	275668	-
x	276266	276072	-
x	279747	279950	+
x	310909	309239	-
x	311631	311299	-
x	317798	317145	-
x	331742	332365	+
x	334695	334522	-
x	337693	334799	-
x	340456	337922	-
x	351297	352838	+
x	362526	361120	-
x	362603	364471	+
x	374126	367512	-
x	384994	385848	+
x	401530	403065	+
x	410718	412163	+
x	416406	416822	+
x	426057	425506	-
x	436822	436193	-
x	446596	446207	-
x	448496	447894	-
x	454559	453657	-
x	458182	457631	-
x	458281	457631	-
x	463338	464615	+
x	468714	467980	-
x	475060	475416	+
x	476636	477052	+
x	477126	477494	+
x	477704	477952	+
x	504456	504608	+
x	509895	509068	-
x	511965	511687	-
x	517258	516683	-
x	517144	516683	-
x	519899	520351	+
x	522821	523477	+
x	531992	531606	-
x	533664	534221	+
x	535943	535755	-
x	538545	537814	-
x	543401	544162	+
x	544484	546040	+
x	546432	546046	-
x	546145	546495	+
x	547212	546685	-
x	550926	548896	-
x	553020	553298	+
x	553291	553860	+
x	561180	562058	+
x	564803	564033	-
x	564877	566244	+
x	567092	567706	+
x	571296	570274	-
x	578953	579579	+
x	579715	580485	+
x	582013	581807	-
x	587656	588690	+
x	592701	592886	+
x	592785	592886	+
x	596149	595181	-
x	603158	604096	+
x	604120	605826	+
x	607837	609372	+
x	616040	615636	-
x	628603	629598	+
x	633053	633685	+
x	640226	639342	-
x	644190	645803	+
x	657319	656234	-
x	659628	660650	+
x	662196	662579	+
x	662244	662579	+
x	662563	664683	+
x	666911	666744	-
x	671149	672462	+
x	677141	677620	+
x	677342	677620	+
x	679013	678435	-
x	679001	678435	-
x	679232	679639	+
x	700347	699214	-
x	701573	702499	+
x	702710	703324	+
x	704039	704509	+
x	705295	705522	+
x	705734	706069	+
x	710765	711658	+
x	710909	711658	+
x	711658	711897	+
x	712127	711894	-
x	712092	712319	+
x	713559	714029	+
x	715503	716576	+
x	716602	717627	+
x	731497	730637	-
x	734130	734528	+
x	738551	737604	-
x	738500	737604	-
x	739467	738574	-
x	740523	739603	-
x	740556	739603	-
x	740514	739603	-
x	741523	740633	-
x	751307	750540	-
x	760600	760830	+
x	761095	764631	+
x	768943	768623	-
x	768997	768623	-
x	771305	771856	+
x	779708	776892	-
x	781961	782617	+
x	801113	800466	-
x	801700	801410	-
x	807065	807472	+
x	807104	807472	+
x	819211	818837	-
x	832164	832967	+
x	833001	833609	+
x	833364	833609	+
x	836511	836365	-
x	836460	836987	+
x	842337	842510	+
x	843339	843584	+
x	847465	849219	+
x	851349	849409	-
x	855463	855131	-
x	864562	865449	+
x	865449	865880	+
x	874661	873978	-
x	878104	877625	-
x	878017	877625	-
x	877995	878135	+
x	879761	878124	-
x	879926	880630	+
x	882770	882381	-
x	882996	883724	+
x	890803	891639	+
x	891877	892788	+
x	907711	908598	+
x	920877	920218	-
x	922881	923171	+
x	933435	932884	-
x	934331	933585	-
x	939382	940710	+
x	945625	946041	+
x	954101	954535	+
x	954125	954535	+
x	956356	957594	+
x	969195	969611	+
x	977276	975597	-
x	979441	978164	-
x	987332	986820	-
x	987576	987842	+
x	987981	988130	+
x	988489	990012	+
x	988510	990012	+
x	996369	996647	+
x	1005261	1005791	+
x	1015705	1015863	+
x	1017520	1017993	+
x	1018523	1018128	-
x	1033175	1031886	-
x	1032674	1031886	-
x	1055049	1055549	+
x	1055067	1055549	+
x	1058378	1058094	-
x	1058838	1058608	-
x	1059607	1058954	-
x	1062526	1062116	-
x	1066294	1065422	-
x	1075382	1075729	+
x	1077567	1076605	-
x	1079233	1078541	-
x	1079200	1078541	-
x	1079985	1082363	+
x	1088659	1087064	-
x	1091651	1094452	+
x	1095843	1096367	+
x	1097804	1096386	-
x	1103144	1103857	+
x	1109833	1109480	-
x	1110557	1109886	-
x	1112878	1113531	+
x	1113593	1114768	+
x	1115690	1115481	-
x	1116014	1115694	-
x	1121304	1119736	-
x	1123456	1122197	-
x	1130442	1131413	+
x	1139608	1140216	+
x	1147845	1148336	+
x	1160720	1160226	-
x	1160717	1160226	-
x	1161726	1161403	-
x	1162282	1162163	-
x	1165744	1165472	-
x	1166317	1165880	-
x	1168120	1167089	-
x	1170732	1169944	-
x	1170669	1171979	+
x	1170684	1171979	+
x	1174187	1175095	+
x	1176930	1176304	-
x	1177875	1178213	+
x	1178195	1178551	+
x	1178548	1178682	+
x	1180125	1179913	-
x	1180654	1181886	+
x	1186165	1187049	+
x	1193475	1192066	-
x	1199101	1199391	+
x	1201685	1200735	-
x	1201893	1202969	+
x	1201902	1202969	+
x	1207754	1207293	-
x	1208608	1208958	+
x	1212830	1215172	+
x	1215822	1216256	+
x	1216135	1216440	+
x	1216534	1216716	+
x	1229958	1228906	-
x	1230023	1230694	+
x	1233374	1233772	+
x	1233726	1234136	+
x	1242313	1242498	+
x	1244374	1244174	-
x	1262761	1260377	-
x	1262686	1260377	-
x	1265492	1263582	-
x	1266765	1266397	-
x	1270328	1269513	-
x	1271267	1272454	+
x	1273501	1273346	-
x	1273559	1274644	+
x	1274575	1276077	+
x	1274665	1276077	+
x	1276952	1277284	+
x	1278974	1277610	-
x	1279109	1277610	-
x	1278170	1277610	-
x	1279693	1280130	+
x	1285439	1284366	-
x	1285409	1284366	-
x	1294048	1294713	+
x	1301452	1301132	-
x	1310261	1310641	+
x	1314988	1321293	+
x	1316545	1321293	+
x	1330373	1329000	-
x	1340278	1340613	+
x	1340284	1340613	+
x	1340314	1340613	+
x	1340663	1341679	+
x	1342146	1342265	+
x	1343963	1342668	-
x	1343978	1342668	-
x	1348998	1348246	-
x	1365556	1364813	-
x	1366537	1367118	+
x	1366654	1367118	+
x	1367683	1368771	+
x	1372839	1373012	+
x	1378145	1377540	-
x	1385576	1385848	+
x	1388059	1386299	-
x	1386852	1386307	-
x	1394362	1390667	-
x	1405901	1404696	-
x	1409541	1410668	+
x	1411267	1410794	-
x	1414636	1415250	+
x	1421097	1420324	-
x	1427254	1426748	-
x	1462313	1462600	+
x	1468559	1468990	+
x	1469795	1469481	-
x	1487078	1486623	-
x	1487260	1487078	-
x	1528789	1531401	+
x	1532519	1532283	-
x	1534940	1533753	-
x	1542027	1540822	-
x	1544140	1543304	-
x	1565684	1566337	+
x	1566754	1568007	+
x	1568126	1569346	+
x	1570894	1569419	-
x	1573760	1573437	-
x	1575167	1573437	-
x	1578057	1578842	+
x	1578129	1578842	+
x	1581856	1582383	+
x	1589801	1589082	-
x	1592981	1593463	+
x	1599210	1600193	+
x	1614251	1613652	-
x	1614293	1613652	-
x	1617911	1617675	-
x	1619147	1619380	+
x	1620994	1619519	-
x	1636147	1631948	-
x	1639865	1641163	+
x	1642198	1641191	-
x	1658253	1657126	-
x	1669900	1670661	+
x	1678442	1677534	-
x	1682244	1682507	+
x	1683650	1685521	+
x	1688404	1689405	+
x	1689461	1690747	+
x	1698873	1699376	+
x	1704114	1704533	+
x	1704567	1705613	+
x	1712512	1713585	+
x	1719225	1715689	-
x	1741358	1742764	+
x	1743695	1744369	+
x	1760955	1761695	+
x	1776194	1775445	-
x	1776949	1776377	-
x	1780815	1780711	-
x	1784123	1783590	-
x	1790915	1789680	-
x	1790921	1789680	-
x	1801074	1802417	+
x	1801083	1802417	+
x	1804815	1805549	+
x	1811728	1812576	+
x	1812609	1813877	+
x	1814686	1816095	+
x	1829689	1830315	+
x	1838470	1840689	+
x	1843787	1842090	-
x	1849688	1848507	-
x	1853559	1850035	-
x	1853842	1854396	+
x	1860218	1861276	+
x	1865025	1863865	-
x	1872342	1872872	+
x	1888006	1889538	+
x	1897990	1898385	+
x	1903909	1904817	+
x	1906765	1907760	+
x	1931350	1930649	-
x	1940359	1941120	+
x	1947935	1948042	+
x	1952566	1952150	-
x	1958829	1957210	-
x	1963402	1962809	-
x	1966998	1967459	+
x	1967175	1967459	+
x	1972678	1972493	-
x	1975154	1977745	+
x	1988008	1986497	-
x	1990319	1989483	-
x	1992774	1993877	+
x	1998265	1997429	-
x	1998689	1999162	+
x	2006262	2007098	+
x	2009663	2009938	+
x	2012567	2013802	+
x	2022519	2022013	-
x	2030566	2033364	+
x	2035233	2036330	+
x	2037943	2038245	+
x	2038318	2039409	+
x	2039818	2040135	+
x	2040294	2040455	+
x	2040456	2040575	+
x	2056774	2054855	-
x	2059850	2061082	+
x	2061208	2062620	+
x	2065282	2064089	-
x	2066411	2067355	+
x	2072666	2071110	-
x	2079628	2080557	+
x	2094491	2094691	+
x	2096895	2094688	-
x	2103627	2102191	-
x	2107262	2107582	+
x	2110936	2111580	+
x	2123000	2125408	+
x	2123072	2125408	+
x	2131804	2131427	-
x	2133598	2134302	+
x	2134980	2134762	-
x	2148050	2147451	-
x	2163115	2162885	-
x	2167252	2166638	-
x	2167931	2167314	-
x	2180622	2177581	-
x	2193150	2192359	-
x	2205888	2207252	+
x	2211643	2211122	-
x	2211642	2211995	+
x	2217372	2216920	-
x	2217588	2218397	+
x	2221514	2222758	+
x	2222785	2224026	+
x	2228009	2228617	+
x	2269717	2269965	+
x	2273290	2273901	+
x	2275171	2275899	+
x	2275955	2276305	+
x	2276003	2276305	+
x	2288883	2288398	-
x	2291047	2291517	+
x	2291110	2291517	+
x	2299532	2299182	-
x	2312623	2304431	-
x	2317555	2317193	-
x	2320820	2318031	-
x	2326179	2326580	+
x	2326994	2326581	-
x	2331041	2331367	+
x	2336466	2337401	+
x	2338895	2338122	-
x	2345195	2344752	-
x	2344922	2344752	-
x	2353894	2354124	+
x	2363293	2362946	-
x	2367803	2366826	-
x	2368108	2367809	-
x	2370634	2373183	+
x	2373176	2374009	+
x	2374995	2374699	-
x	2375792	2376628	+
x	2380715	2380500	-
x	2382444	2380807	-
x	2383718	2384359	+
x	2389662	2389147	-
x	2398171	2397104	-
x	2398137	2397871	-
x	2408305	2408586	+
x	2411630	2410278	-
x	2417527	2416742	-
x	2426305	2424836	-
x	2432180	2431545	-
x	2439171	2438137	-
x	2440897	2440061	-
x	2444456	2443533	-
x	2449965	2449783	-
x	2453167	2452229	-
x	2456851	2455709	-
x	2458053	2459864	+
x	2463198	2462017	-
x	2463638	2463360	-
x	2467539	2468297	+
x	2480434	2479289	-
x	2480365	2479289	-
x	2482398	2483144	+
x	2510833	2511534	+
x	2516057	2515638	-
x	2516285	2516109	-
x	2516297	2517055	+
x	2519295	2518336	-
x	2519343	2520158	+
x	2522354	2525146	+
x	2532190	2533077	+
x	2543231	2543869	+
x	2545468	2544374	-
x	2545546	2544374	-
x	2556991	2556743	-
x	2557123	2557656	+
x	2560394	2561230	+
x	2572446	2573018	+
x	2578890	2579957	+
x	2582952	2583611	+
x	2587012	2587605	+
x	2587724	2587098	-
x	2590114	2589932	-
x	2591049	2591381	+
x	2591654	2591328	-
x	2591651	2591328	-
x	2593181	2593333	+
x	2593342	2593683	+
x	2593716	2594312	+
x	2604042	2602627	-
x	2604609	2604058	-
x	2605292	2604603	-
x	2618877	2619632	+
x	2628908	2627571	-
x	2629486	2629920	+
x	2630140	2630433	+
x	2636246	2636127	-
x	2636860	2636558	-
x	2638626	2637076	-
x	2640250	2638685	-
x	2642003	2640441	-
x	2644802	2644503	-
x	2644622	2644503	-
x	2648021	2648857	+
x	2659053	2658715	-
x	2663721	2663906	+
x	2679230	2674035	-
x	2687802	2683561	-
x	2689634	2690617	+
x	2695155	2693983	-
x	2704704	2705852	+
x	2709696	2710025	+
x	2715204	2715806	+
x	2717700	2718704	+
x	2717985	2718704	+
x	2723287	2722319	-
x	2724853	2723300	-
x	2727318	2726092	-
x	2728273	2727440	-
x	2733409	2732744	-
x	2737829	2737563	-
x	2737796	2737563	-
x	2738028	2737834	-
x	2748976	2746760	-
x	2748677	2748955	+
x	2762223	2759563	-
x	2764196	2763630	-
x	2768687	2766711	-
x	2772732	2774348	+
x	2772777	2774348	+
x	2780852	2780229	-
x	2785128	2785532	+
x	2797461	2796625	-
x	2798230	2798487	+
x	2804468	2802987	-
x	2805968	2804691	-
x	2808030	2807269	-
x	2836570	2835224	-
x	2841834	2840524	-
x	2841819	2840524	-
x	2865224	2866234	+
x	2870225	2869821	-
x	2872414	2873112	+
x	2876377	2875175	-
x	2888945	2888544	-
x	2893377	2893670	+
x	2893726	2894115	+
x	2909924	2910751	+
x	2918797	2918057	-
x	2922175	2919794	-
x	2928399	2928190	-
x	2933519	2935150	+
x	2955344	2955571	+
x	2956998	2955568	-
x	2958351	2959079	+
x	2974439	2972073	-
x	2974409	2972073	-
x	2980818	2980501	-
x	2983531	2983995	+
x	2984553	2985389	+
x	2988387	2987896	-
x	2988970	2988554	-
x	2991659	2991294	-
x	2993158	2992931	-
x	2993544	2993155	-
x	2994976	2995842	+
x	2996656	2997222	+
x	2999659	3001236	+
x	3023840	3023367	-
x	3032291	3032479	+
x	3033803	3033516	-
x	3033833	3033516	-
x	3034363	3035400	+
x	3034399	3035400	+
x	3037305	3036238	-
x	3037400	3038815	+
x	3043756	3044466	+
x	3053426	3052734	-
x	3056963	3056343	-
x	3058591	3056954	-
x	3065557	3065823	+
x	3065762	3067459	+
x	3065882	3067459	+
x	3079101	3078190	-
x	3085583	3085098	-
x	3086448	3085648	-
x	3088861	3088571	-
x	3092485	3091277	-
x	3094781	3095338	+
x	3096433	3095342	-
x	3114160	3113549	-
x	3114154	3113549	-
x	3119626	3119279	-
x	3122699	3122475	-
x	3122705	3122475	-
x	3124397	3124762	+
x	3124808	3125239	+
x	3125629	3126780	+
x	3127002	3127271	+
x	3133370	3132534	-
x	3136983	3135958	-
x	3138234	3136987	-
x	3145428	3144883	-
x	3146591	3145701	-
x	3147490	3146588	-
x	3148591	3148322	-
x	3149004	3148612	-
x	3149016	3148612	-
x	3149216	3149001	-
x	3155611	3154301	-
x	3174116	3176107	+
x	3174260	3176107	+
x	3181348	3180575	-
x	3186793	3186987	+
x	3189302	3187446	-
x	3195051	3193762	-
x	3195840	3196559	+
x	3199013	3199603	+
x	3207537	3206158	-
x	3208148	3207537	-
x	3208124	3207537	-
x	3208208	3207537	-
x	3214000	3212786	-
x	3220359	3219934	-
x	3251507	3250593	-
x	3255560	3257440	+
x	3263067	3267680	+
x	3284185	3285201	+
x	3301959	3302498	+
x	3308357	3303495	-
x	3308632	3308342	-
x	3314336	3312588	-
x	3320546	3319572	-
x	3325275	3325664	+
x	3326583	3325765	-
x	3329459	3329977	+
x	3330093	3330278	+
x	3336486	3335701	-
x	3347922	3348497	+
x	3350041	3348965	-
x	3351260	3351931	+
x	3352026	3354251	+
x	3363288	3362443	-
x	3363240	3362443	-
x	3369102	3368902	-
x	3369597	3369394	-
x	3369756	3370736	+
x	3372767	3371754	-
x	3375478	3375855	+
x	3375508	3375855	+
x	3376815	3377999	+
x	3383918	3384640	+
x	3389024	3388659	-
x	3390701	3390498	-
x	3390840	3390664	-
x	3391513	3391205	-
x	3393262	3392849	-
x	3394840	3393545	-
x	3394855	3393545	-
x	3399089	3398244	-
x	3403716	3404948	+
x	3407043	3406189	-
x	3412374	3411589	-
x	3417137	3417388	+
x	3426432	3424255	-
x	3427510	3427106	-
x	3431562	3430882	-
x	3437220	3435418	-
x	3439393	3441675	+
x	3448469	3447954	-
x	3460585	3459560	-
x	3465078	3466499	+
x	3479762	3480082	+
x	3484045	3483569	-
x	3492587	3492898	+
x	3493544	3494854	+
x	3493559	3494854	+
x	3500740	3501219	+
x	3501638	3502531	+
x	3505674	3505324	-
x	3506349	3505756	-
x	3513331	3513888	+
x	3515433	3515101	-
x	3523461	3522244	-
x	3523733	3524224	+
x	3523748	3524224	+
x	3531429	3532670	+
x	3532642	3533298	+
x	3541478	3539547	-
x	3543303	3542146	-
x	3550643	3552007	+
x	3559193	3559486	+
x	3559699	3561063	+
x	3563987	3564823	+
x	3569293	3568109	-
x	3569167	3568109	-
x	3569763	3569581	-
x	3570343	3570807	+
x	3582081	3579892	-
x	3591060	3591278	+
x	3591309	3592094	+
x	3595569	3594583	-
x	3596746	3596459	-
x	3597267	3596938	-
x	3602354	3603040	+
x	3608573	3608334	-
x	3610451	3609684	-
x	3611418	3611606	+
x	3611584	3611802	+
x	3621166	3620564	-
x	3635705	3633942	-
x	3644422	3645846	+
x	3650100	3650627	+
x	3651026	3650655	-
x	3653697	3653810	+
x	3657685	3656762	-
x	3658671	3660164	+
x	3660152	3660892	+
x	3675639	3676604	+
x	3680360	3679734	-
x	3701751	3700240	-
x	3711367	3711197	-
x	3714793	3714305	-
x	3714847	3715281	+
x	3719911	3719279	-
x	3721110	3720556	-
x	3721699	3722535	+
x	3722773	3724302	+
x	3731600	3732079	+
x	3734497	3734883	+
x	3734643	3735389	+
x	3736937	3736725	-
x	3746033	3740205	-
x	3747113	3746097	-
x	3760242	3752824	-
x	3762297	3752824	-
x	3762859	3762335	-
x	3762826	3762335	-
x	3764350	3763406	-
x	3764677	3764441	-
x	3787580	3789457	+
x	3793899	3790624	-
x	3793920	3790624	-
x	3805059	3804223	-
x	3806566	3805571	-
x	3809140	3809919	+
x	3809846	3810586	+
x	3819700	3818120	-
x	3820313	3821023	+
x	3820382	3821023	+
x	3843163	3842372	-
x	3847746	3847264	-
x	3848384	3847737	-
x	3850926	3851447	+
x	3855680	3855360	-
x	3855852	3856379	+
x	3857677	3857522	-
x	3857866	3857702	-
x	3857911	3857702	-
x	3862381	3861893	-
x	3863555	3862617	-
x	3881185	3879761	-
x	3881209	3879761	-
x	3882114	3882809	+
x	3883499	3884767	+
x	3885622	3884729	-
x	3889459	3889109	-
x	3892202	3892870	+
x	3892635	3893594	+
x	3892731	3893594	+
x	3892875	3893594	+
x	3897494	3895821	-
x	3899932	3900768	+
x	3903106	3904284	+
x	3904314	3907562	+
x	3904467	3907562	+
x	3909916	3909170	-
x	3909880	3909170	-
x	3924560	3923208	-
x	3939643	3944319	+
x	3966094	3967098	+
x	3984026	3985726	+
x	3992828	3991791	-
x	4006406	4008304	+
x	4017385	4015997	-
x	4024862	4025749	+
x	4025018	4025749	+
x	4026969	4025755	-
x	4027874	4028794	+
x	4038452	4037634	-
x	4051700	4051617	-
x	4054846	4053872	-
x	4061520	4062050	+
x	4068861	4068742	-
x	4070896	4071696	+
x	4074359	4073298	-
x	4078973	4079686	+
x	4082082	4081114	-
x	4091171	4089963	-
x	4102079	4102393	+
x	4102387	4102974	+
x	4102429	4102974	+
x	4103361	4103107	-
x	4103415	4103107	-
x	4103746	4103447	-
x	4103976	4103770	-
x	4104561	4103986	-
x	4106545	4105382	-
x	4107615	4106542	-
x	4112984	4112121	-
x	4115906	4116115	+
x	4115921	4116115	+
x	4127137	4126976	-
x	4133819	4134925	+
x	4137646	4137197	-
x	4137535	4137197	-
x	4137562	4137197	-
x	4140137	4140838	+
x	4140835	4141965	+
x	4140886	4141965	+
x	4143130	4144494	+
x	4152381	4151194	-
x	4159582	4158476	-
x	4162306	4164120	+
x	4166661	4167368	+
x	4169341	4168958	-
x	4170764	4172164	+
x	4172161	4173444	+
x	4177992	4178615	+
x	4186695	4189061	+
x	4203841	4204248	+
x	4208688	4208167	-
x	4208801	4209772	+
x	4208828	4209772	+
x	4213933	4214286	+
x	4219548	4218028	-
x	4220386	4219526	-
x	4220649	4221428	+
x	4220673	4221428	+
x	4229466	4231094	+
x	4243757	4244185	+
x	4255008	4258256	+
x	4259555	4261312	+
x	4262459	4262773	+
x	4273941	4273009	-
x	4277342	4275399	-
x	4278786	4278286	-
x	4278819	4278286	-
x	4292445	4292777	+
x	4307982	4301671	-
x	4311232	4310009	-
x	4311813	4311232	-
x	4311837	4311232	-
x	4313469	4311844	-
x	4317484	4318842	+
x	4318859	4319260	+
x	4326343	4326131	-
x	4327169	4326693	-
x	4327202	4326693	-
x	4328271	4328486	+
x	4333499	4333924	+
x	4346392	4346718	+
x	4359512	4360627	+
x	4363549	4364988	+
x	4373233	4371863	-
x	4378682	4376964	-
x	4392437	4392099	-
x	4393687	4392593	-
x	4393912	4392593	-
x	4419207	4418857	-
