x	3381	4538	+
x	15015	15713	+
x	17571	15691	-
x	18845	17568	-
x	18863	17568	-
x	20335	18860	-
x	21741	20332	-
x	23282	21738	-
x	23838	23371	-
x	26979	26014	-
x	27094	27402	+
x	27696	28466	+
x	32068	31925	-
x	33325	33900	+
x	34396	36642	+
x	34408	36642	+
x	36709	36972	+
x	36969	37364	+
x	41409	42014	+
x	52912	53346	+
x	53339	55801	+
x	53456	55801	+
x	53765	55801	+
x	57437	58075	+
x	59998	60519	+
x	65494	65114	-
x	68520	68681	+
x	69643	71661	+
x	71728	71967	+
x	77761	76376	-
x	86620	85766	-
x	88134	87928	-
x	88334	89155	+
x	90054	90533	+
x	93419	94081	+
x	94081	95547	+
x	95547	97022	+
x	100713	102998	+
x	104793	103840	-
x	104799	103840	-
x	104703	103840	-
x	104559	103840	-
x	105345	104935	-
x	105231	104935	-
x	106864	107733	+
x	109913	110149	+
x	110437	117669	+
x	130672	125795	-
x	131259	131026	-
x	131403	133004	+
x	133047	133901	+
x	138073	138645	+
x	140097	140276	+
x	141326	142276	+
x	141332	142276	+
x	144017	142260	-
x	144130	145758	+
x	144139	145758	+
x	148623	148991	+
x	149623	151308	+
x	149665	151308	+
x	150712	151308	+
x	151460	152527	+
x	151499	152527	+
x	152636	154441	+
x	154491	155858	+
x	155926	156705	+
x	157859	156837	-
x	158106	158561	+
x	159917	158574	-
x	161041	159959	-
x	161128	161733	+
x	162030	162932	+
x	163508	162903	-
x	163625	164950	+
x	165519	164971	-
x	165582	166085	+
x	166086	167108	+
x	167169	167549	+
x	167940	167530	-
x	167970	168896	+
x	170441	168963	-
x	170543	171385	+
x	171474	171731	+
x	171740	172105	+
x	172139	173080	+
x	172148	173080	+
x	173175	174695	+
x	174770	175630	+
x	175637	176605	+
x	176889	176602	-
x	179246	177480	-
x	180857	179256	-
x	180833	179256	-
x	181922	181092	-
x	183135	181924	-
x	183147	181924	-
x	183352	183498	+
x	183559	184659	+
x	184660	184992	+
x	184989	186416	+
x	186560	186432	-
x	186557	186432	-
x	186722	187366	+
x	188776	187370	-
x	190376	188868	-
x	190544	191893	+
x	193072	191921	-
x	193054	193509	+
x	193563	194048	+
x	194875	194081	-
x	194930	196594	+
x	196798	197595	+
x	197597	198466	+
x	198471	199835	+
x	199832	200872	+
x	200869	202416	+
x	200911	202416	+
x	202413	204005	+
x	204002	205174	+
x	204005	205174	+
x	205168	206715	+
x	206751	207392	+
x	207389	208357	+
x	207395	208357	+
x	208354	208908	+
x	208875	209609	+
x	210749	209640	-
x	212187	210829	-
x	212948	212214	-
x	214077	212965	-
x	214025	214864	+
x	214906	215655	+
x	215652	216161	+
x	216206	218281	+
x	218642	219304	+
x	218648	219304	+
x	219423	219854	+
x	221660	219933	-
x	221808	222098	+
x	222226	223467	+
x	223501	224601	+
x	223544	223846	+
x	223936	224601	+
x	226508	224661	-
x	226815	230399	+
x	230773	231471	+
x	230836	231471	+
x	231584	232168	+
x	232165	234414	+
x	232168	234414	+
x	236446	234455	-
x	236489	237148	+
x	237145	237834	+
x	238328	237831	-
x	238334	237831	-
x	241231	238331	-
x	241453	241863	+
x	243198	241915	-
x	243153	241915	-
x	243323	244426	+
x	247257	244423	-
x	248057	247323	-
x	248051	247323	-
x	248845	248054	-
x	248977	250062	+
x	250059	251537	+
x	251721	253541	+
x	254579	253608	-
x	255889	254576	-
x	255907	254576	-
x	256003	257616	+
x	258843	257722	-
x	258795	257722	-
x	258852	259865	+
x	260770	259862	-
x	260863	262191	+
x	262193	262741	+
x	262751	263962	+
x	264006	265415	+
x	265446	266234	+
x	267703	266240	-
x	268566	267802	-
x	268602	269756	+
x	271503	269773	-
x	272778	271513	-
x	272994	274217	+
x	274925	274245	-
x	274658	274245	-
x	274843	274649	-
x	275902	274922	-
x	275997	277703	+
x	277838	278527	+
x	278324	278527	+
x	278524	279468	+
x	281079	279544	-
x	282553	281105	-
x	286790	282588	-
x	287010	286837	-
x	287125	288291	+
x	288367	288981	+
x	289043	289276	+
x	289284	289721	+
x	290593	289751	-
x	291968	290604	-
x	292110	293432	+
x	295571	293736	-
x	295943	296431	+
x	296747	298057	+
x	298800	298054	-
x	300741	298801	-
x	301593	300772	-
x	301966	301673	-
x	302590	302111	-
x	302804	305365	+
x	305391	305747	+
x	306287	305763	-
x	307796	306312	-
x	309485	307815	-
x	309377	307815	-
x	309637	310011	+
x	310207	309875	-
x	310687	310232	-
x	311455	310712	-
x	312597	311452	-
x	314106	312697	-
x	314792	314247	-
x	315704	314802	-
x	316353	315721	-
x	316374	315721	-
x	317441	316449	-
x	321092	317463	-
x	321269	322660	+
x	323211	322702	-
x	324469	323276	-
x	324505	326187	+
x	328399	326204	-
x	329646	328513	-
x	330263	329643	-
x	330318	330941	+
x	330360	330941	+
x	331596	330871	-
x	331686	332606	+
x	333074	332646	-
x	333271	333098	-
x	335054	333375	-
x	336109	334991	-
x	336795	336373	-
x	339072	336373	-
x	339093	336373	-
x	341835	339322	-
x	341856	339322	-
x	342126	343736	+
x	343760	344668	+
x	344892	346787	+
x	346784	348400	+
x	348397	352389	+
x	352386	352694	+
x	352697	354238	+
x	352745	354238	+
x	354287	354580	+
x	354610	354900	+
x	354911	355798	+
x	355845	357263	+
x	357260	358645	+
x	358642	359637	+
x	360826	359624	-
x	360933	361718	+
x	362510	361707	-
x	363917	362520	-
x	363926	362520	-
x	364003	365871	+
x	364096	365871	+
x	366014	366241	+
x	366238	366540	+
x	366588	366809	+
x	366806	367231	+
x	367367	367999	+
x	367996	368904	+
x	376033	368912	-
x	375526	368912	-
x	378472	368912	-
x	378675	379346	+
x	379816	379334	-
x	379874	380590	+
x	380692	381348	+
x	381909	381418	-
x	381933	383162	+
x	383317	385179	+
x	385251	385637	+
x	386302	385640	-
x	386363	387247	+
x	386393	387247	+
x	387296	387910	+
x	388704	387934	-
x	389860	389066	-
x	389909	390577	+
x	390649	391311	+
x	391343	391915	+
x	392021	393352	+
x	394012	393341	-
x	394113	394793	+
x	394800	395024	+
x	395034	395489	+
x	396806	395457	-
x	396872	397474	+
x	398081	397455	-
x	398848	398108	-
x	398962	400128	+
x	400203	400988	+
x	401015	401389	+
x	401419	402285	+
x	402811	402296	-
x	402929	404464	+
x	402953	404464	+
x	405923	404634	-
x	408602	405954	-
x	411209	408711	-
x	411395	411934	+
x	412117	413562	+
x	412123	413562	+
x	413599	415521	+
x	415518	416999	+
x	417702	417142	-
x	417805	418221	+
x	417811	418221	+
x	419726	418263	-
x	420065	421051	+
x	421054	421707	+
x	421710	422369	+
x	422596	424473	+
x	424470	425177	+
x	425213	426400	+
x	426400	426780	+
x	427558	427007	-
x	427564	427007	-
x	437468	427641	-
x	438248	437619	-
x	438263	437619	-
x	439558	438260	-
x	439649	440296	+
x	440307	441086	+
x	441528	441091	-
x	441611	442438	+
x	442660	444042	+
x	445088	444054	-
x	445184	445867	+
x	446986	445856	-
x	447604	447011	-
x	447615	448043	+
x	448022	447633	-
x	449314	448103	-
x	449922	449320	-
x	449835	449320	-
x	450832	449936	-
x	451422	450829	-
x	452174	451419	-
x	454592	452193	-
x	455068	454589	-
x	455943	455083	-
x	455985	455083	-
x	456160	456375	+
x	457002	456451	-
x	457113	456451	-
x	457101	456451	-
x	458006	457098	-
x	458563	458024	-
x	459498	458644	-
x	462185	459639	-
x	462213	463490	+
x	462318	463490	+
x	463594	466851	+
x	468186	466855	-
x	467589	466855	-
x	468520	469779	+
x	469776	470198	+
x	470195	471415	+
x	472824	471412	-
x	472966	474291	+
x	473935	474291	+
x	475026	474307	-
x	475125	475529	+
x	475511	475927	+
x	475535	475927	+
x	476438	475968	-
x	476001	476369	+
x	476579	476827	+
x	477505	476864	-
x	478741	477512	-
x	479938	478751	-
x	479974	480345	+
x	483416	480540	-
x	483841	483413	-
x	484162	485919	+
x	485916	490124	+
x	490890	490072	-
x	490968	491978	+
x	491971	494043	+
x	494036	495193	+
x	497499	495247	-
x	498485	497499	-
x	499804	498485	-
x	499898	500551	+
x	501203	500535	-
x	501333	502355	+
x	502352	502558	+
x	502551	503309	+
x	503331	503483	+
x	503681	505183	+
x	505271	506767	+
x	507156	506746	-
x	507946	507317	-
x	508770	507943	-
x	508740	507943	-
x	510410	508767	-
x	510840	510562	-
x	510837	510562	-
x	515506	510887	-
x	516133	515558	-
x	516019	515558	-
x	516001	515558	-
x	517077	516202	-
x	517988	517080	-
x	518581	517988	-
x	518774	519226	+
x	518918	519226	+
x	519258	519752	+
x	519785	520507	+
x	520509	521639	+
x	521696	522352	+
x	521699	522352	+
x	524718	522532	-
x	525575	524715	-
x	526267	525572	-
x	527545	526328	-
x	528499	527564	-
x	528793	530415	+
x	530909	530481	-
x	530867	530481	-
x	532399	530936	-
x	532539	533096	+
x	532581	533096	+
x	533974	533276	-
x	534581	534018	-
x	534818	534630	-
x	535412	534876	-
x	536692	535409	-
x	537420	536689	-
x	537354	536689	-
x	538733	537414	-
x	541676	538773	-
x	542095	541673	-
x	542276	543037	+
x	542327	543037	+
x	543359	544915	+
x	543380	544915	+
x	545307	544921	-
x	545475	544921	-
x	545020	545370	+
x	546087	545560	-
x	546006	545560	-
x	546988	546074	-
x	547542	547261	-
x	549792	547771	-
x	549801	547771	-
x	549860	551383	+
x	551383	551874	+
x	551895	552173	+
x	551934	552173	+
x	552166	552735	+
x	552211	552735	+
x	552799	554193	+
x	554201	554494	+
x	555070	554498	-
x	556491	555067	-
x	556643	557437	+
x	557712	558998	+
x	559080	559940	+
x	560055	560933	+
x	560073	560933	+
x	561896	561033	-
x	562479	562039	-
x	562898	562410	-
x	563678	562908	-
x	563612	562908	-
x	563749	565119	+
x	563752	565119	+
x	565206	565628	+
x	565967	566581	+
x	565982	566581	+
x	566693	566956	+
x	566961	567407	+
x	567407	568081	+
x	569152	568106	-
x	570171	569149	-
x	569991	569149	-
x	570697	570173	-
x	570724	571833	+
x	571895	573250	+
x	573986	573231	-
x	574169	575485	+
x	575533	576975	+
x	576972	577523	+
x	577828	578454	+
x	577849	578454	+
x	578590	579360	+
x	578611	579360	+
x	579534	580766	+
x	580888	580682	-
x	580970	581653	+
x	583539	581650	-
x	583865	583536	-
x	584851	583862	-
x	584856	585584	+
x	586475	585585	-
x	586507	587541	+
x	586555	587541	+
x	587538	588470	+
x	588486	589328	+
x	589344	590219	+
x	590244	591131	+
x	591272	591508	+
x	591552	591737	+
x	591636	591737	+
x	591815	592945	+
x	592952	594028	+
x	595000	594032	-
x	594940	594032	-
x	595463	594963	-
x	596746	595625	-
x	596920	597363	+
x	597360	600266	+
x	600259	600552	+
x	600602	602008	+
x	602009	602947	+
x	602018	602947	+
x	602971	604677	+
x	602980	604677	+
x	604763	605752	+
x	605765	606313	+
x	606310	606609	+
x	606688	608223	+
x	606712	608223	+
x	608696	608220	-
x	608907	610217	+
x	610349	611044	+
x	612235	611333	-
x	612416	612766	+
x	612759	613064	+
x	613199	614503	+
x	614891	614487	-
x	614882	614487	-
x	614996	616384	+
x	616384	616992	+
x	617007	617657	+
x	617654	618433	+
x	618466	620055	+
x	620052	621026	+
x	621068	622285	+
x	622490	622807	+
x	622954	624822	+
x	625725	624718	-
x	626685	625807	-
x	626702	627496	+
x	627493	628533	+
x	627538	628533	+
x	629976	628543	-
x	630285	631931	+
x	631964	632620	+
x	631988	632620	+
x	632617	633279	+
x	634649	633300	-
x	635749	634661	-
x	636120	635818	-
x	636458	636180	-
x	637708	636455	-
x	638214	637828	-
x	639161	638277	-
x	640201	639257	-
x	640886	640473	-
x	641149	640883	-
x	643056	641341	-
x	643125	644738	+
x	643134	644738	+
x	644735	645715	+
x	645712	646500	+
x	646543	648207	+
x	648204	648719	+
x	648781	649917	+
x	649934	650638	+
x	650990	650652	-
x	651749	651024	-
x	653000	651774	-
x	653016	654023	+
x	654124	654984	+
x	656254	655169	-
x	656194	655169	-
x	657715	656255	-
x	658284	657793	-
x	658563	659585	+
x	658566	659585	+
x	659695	661113	+
x	661131	661514	+
x	661179	661514	+
x	661248	661514	+
x	661498	663618	+
x	661540	663618	+
x	665063	663732	-
x	665628	665287	-
x	665846	665679	-
x	667487	666096	-
x	668639	667497	-
x	669990	668824	-
x	670084	671397	+
x	670093	671397	+
x	671411	672196	+
x	676161	672241	-
x	676076	676555	+
x	676277	676555	+
x	676483	677241	+
x	677936	677370	-
x	677861	677370	-
x	677948	677370	-
x	677955	678170	+
x	678820	677972	-
x	678167	678574	+
x	679320	678634	-
x	679474	682107	+
x	684517	682130	-
x	684655	685377	+
x	685374	686171	+
x	686173	687060	+
x	687066	688280	+
x	688277	689104	+
x	689053	689307	+
x	689304	690749	+
x	690746	692272	+
x	692269	693477	+
x	693482	695032	+
x	695476	695084	-
x	695730	695473	-
x	697148	695913	-
x	697812	697399	-
x	698045	697809	-
x	698655	698149	-
x	699282	698149	-
x	699239	698769	-
x	700044	699283	-
x	700101	700412	+
x	700484	701434	+
x	700508	701434	+
x	701645	702259	+
x	701651	702259	+
x	702261	703004	+
x	702974	703444	+
x	703058	703444	+
x	703489	703734	+
x	703731	704132	+
x	704075	704302	+
x	704230	704457	+
x	704669	705004	+
x	706154	704997	-
x	706589	706206	-
x	706569	707174	+
x	709760	707193	-
x	709601	710593	+
x	709700	710593	+
x	709844	710593	+
x	710590	710832	+
x	710593	710832	+
x	711095	710829	-
x	711062	710829	-
x	711027	711254	+
x	711251	711652	+
x	711781	712476	+
x	712494	712964	+
x	712961	714052	+
x	714438	715511	+
x	714447	715511	+
x	715537	716562	+
x	715615	716562	+
x	716655	716909	+
x	716909	717304	+
x	718138	717398	-
x	718270	718530	+
x	718527	718934	+
x	720157	719006	-
x	721977	720250	-
x	725258	721974	-
x	728551	725258	-
x	729523	728828	-
x	730411	729572	-
x	730432	729572	-
x	731278	730565	-
x	731358	731609	+
x	731957	732124	+
x	732175	732651	+
x	732569	733066	+
x	732638	733066	+
x	733070	733570	+
x	733982	734467	+
x	734499	735215	+
x	735267	735695	+
x	735762	736469	+
x	737448	736543	-
x	737490	736543	-
x	737439	736543	-
x	738394	737513	-
x	738406	737513	-
x	739453	738542	-
x	739495	738542	-
x	739462	738542	-
x	739405	738542	-
x	740462	739572	-
x	740432	739572	-
x	741384	740479	-
x	742862	741396	-
x	742948	747144	+
x	743497	747144	+
x	747141	747815	+
x	747815	748723	+
x	749054	749590	+
x	749627	750019	+
x	750707	750012	-
x	750779	750012	-
x	750778	752283	+
x	752295	753374	+
x	754145	753762	-
x	754395	754240	-
x	755187	754471	-
x	755771	755463	-
x	756003	755758	-
x	756550	756113	-
x	756915	756547	-
x	756915	759278	+
x	759310	759582	+
x	759579	759917	+
x	759914	760087	+
x	760072	760302	+
x	760567	764103	+
x	768598	768095	-
x	768469	768095	-
x	768415	768095	-
x	770375	768462	-
x	770776	771327	+
x	771359	772201	+
x	772261	773889	+
x	773900	774838	+
x	774841	775563	+
x	775560	776351	+
x	779179	776363	-
x	779257	776363	-
x	779682	779254	-
x	779767	780264	+
x	780817	780320	-
x	781193	780819	-
x	781432	782088	+
x	781498	782088	+
x	782337	782711	+
x	782711	783181	+
x	783262	785367	+
x	785598	786788	+
x	786926	787723	+
x	787876	788703	+
x	788717	789937	+
x	790188	789934	-
x	791850	790801	-
x	792443	791847	-
x	792608	792937	+
x	792934	794109	+
x	794112	795302	+
x	795492	796247	+
x	796296	797708	+
x	797710	799149	+
x	799610	800221	+
x	800584	799937	-
x	800406	800627	+
x	801171	800881	-
x	801264	801569	+
x	801586	802239	+
x	802239	802910	+
x	802910	803212	+
x	803413	804255	+
x	804296	804577	+
x	804574	805167	+
x	805167	805991	+
x	805995	806411	+
x	806411	806644	+
x	806641	807051	+
x	806644	807051	+
x	806683	807051	+
x	807220	809583	+
x	809631	810530	+
x	810831	811772	+
x	812258	812626	+
x	812627	812944	+
x	812944	813507	+
x	813512	813694	+
x	813861	814259	+
x	814283	814822	+
x	814825	815193	+
x	815213	815875	+
x	815878	816075	+
x	816075	816515	+
x	816548	818419	+
x	818790	818416	-
x	819329	818424	-
x	820525	819422	-
x	821384	820728	-
x	822361	821381	-
x	822392	823738	+
x	823751	824479	+
x	825524	824568	-
x	825685	827010	+
x	827007	827552	+
x	827555	828355	+
x	828428	828961	+
x	829025	829777	+
x	829832	830044	+
x	830092	830589	+
x	830947	831495	+
x	831740	832546	+
x	831743	832546	+
x	832580	833188	+
x	832661	833188	+
x	832943	833188	+
x	833419	833733	+
x	833875	834393	+
x	835328	834771	-
x	835831	835325	-
x	836090	835944	-
x	836039	836566	+
x	836586	838937	+
x	839336	841741	+
x	841832	842089	+
x	841916	842089	+
x	842113	842541	+
x	842759	842622	-
x	842894	843163	+
x	842918	843163	+
x	844116	843232	-
x	845299	844127	-
x	846838	845306	-
x	847044	848798	+
x	847053	848798	+
x	850925	848988	-
x	850928	848988	-
x	851412	851227	-
x	852351	851626	-
x	852493	853236	+
x	853281	854738	+
x	855042	854710	-
x	855111	854710	-
x	855570	855151	-
x	856710	855583	-
x	857354	856809	-
x	857563	857357	-
x	858921	857566	-
x	859748	858921	-
x	860038	859748	-
x	860957	859998	-
x	861595	860954	-
x	861797	863266	+
x	863297	864043	+
x	864141	865028	+
x	864183	865028	+
x	865025	865459	+
x	865028	865459	+
x	865471	866739	+
x	868274	866736	-
x	869236	868325	-
x	869292	869915	+
x	870648	869869	-
x	870893	872311	+
x	872316	873560	+
x	874240	873557	-
x	874177	873557	-
x	874228	875121	+
x	875118	877277	+
x	875121	877277	+
x	877685	877206	-
x	877598	877206	-
x	877576	877716	+
x	879342	877705	-
x	879327	877705	-
x	879507	880211	+
x	879525	880211	+
x	880227	881927	+
x	882600	881962	-
x	882351	881962	-
x	882346	883305	+
x	882577	883305	+
x	883411	883650	+
x	883647	884321	+
x	884937	884338	-
x	885687	884959	-
x	886727	885684	-
x	887533	886724	-
x	887606	887911	+
x	889523	888024	-
x	889859	890077	+
x	890099	891010	+
x	891797	891000	-
x	892801	891794	-
x	892846	894147	+
x	894159	894506	+
x	895156	894500	-
x	895348	897612	+
x	897609	898238	+
x	898359	899315	+
x	900858	899260	-
x	901163	901552	+
x	901639	903222	+
x	903253	904347	+
x	904615	904433	-
x	905868	904762	-
x	905933	906820	+
x	905951	906820	+
x	907546	906866	-
x	908011	907709	-
x	908846	908013	-
x	909561	909139	-
x	910370	909558	-
x	910500	911267	+
x	911264	912211	+
x	912254	913030	+
x	913727	913086	-
x	915839	913785	-
x	917174	916005	-
x	918278	917262	-
x	919081	918440	-
x	919099	918440	-
x	919162	920217	+
x	920661	920269	-
x	921141	920719	-
x	921103	921393	+
x	921498	922403	+
x	923237	922422	-
x	924479	924892	+
x	924889	927093	+
x	929968	927320	-
x	930436	931080	+
x	931612	931061	-
x	932614	931730	-
x	932566	931730	-
x	932991	932665	-
x	933773	933120	-
x	933866	933120	-
x	934872	933844	-
x	935561	936331	+
x	936418	937230	+
x	938158	937298	-
x	938434	938676	+
x	938917	940245	+
x	938953	940245	+
x	940229	941233	+
x	941947	941297	-
x	942031	943308	+
x	945035	943521	-
x	945160	945576	+
x	945184	945576	+
x	945779	946897	+
x	946897	948156	+
x	948153	948485	+
x	949309	948482	-
x	949400	950236	+
x	951959	950277	-
x	952024	952467	+
x	952473	953552	+
x	953636	954070	+
x	953660	954070	+
x	953666	954070	+
x	954098	954571	+
x	955761	954568	-
x	955891	957129	+
x	955918	957129	+
x	957134	959296	+
x	960992	959364	-
x	963453	961183	-
x	963440	963721	+
x	963731	964234	+
x	964231	964713	+
x	964710	965135	+
x	966376	965153	-
x	967102	966824	-
x	968188	967106	-
x	968574	968185	-
x	968730	969146	+
x	968739	969146	+
x	971094	969265	-
x	971355	973307	+
x	974556	973396	-
x	975144	974656	-
x	976820	975141	-
x	976787	975141	-
x	976925	977713	+
x	978985	977708	-
x	979054	977708	-
x	979607	979332	-
x	979785	980216	+
x	980213	981079	+
x	981076	981360	+
x	982118	981357	-
x	983405	982275	-
x	983613	984635	+
x	984654	986381	+
x	986876	986364	-
x	986822	986364	-
x	987120	987386	+
x	987525	987674	+
x	988033	989556	+
x	988054	989556	+
x	988084	989556	+
x	990712	989591	-
x	993447	990799	-
x	994306	993449	-
x	995913	996191	+
x	997146	996169	-
x	997375	998556	+
x	998633	1000150	+
x	1000323	1001618	+
x	1003266	1001659	-
x	1003555	1003292	-
x	1003663	1004643	+
x	1004656	1004808	+
x	1004805	1005335	+
x	1004808	1005335	+
x	1006692	1005352	-
x	1007413	1006703	-
x	1009031	1007544	-
x	1009058	1009789	+
x	1009795	1010913	+
x	1010898	1012586	+
x	1012583	1014976	+
x	1015249	1015407	+
x	1015533	1015712	+
x	1015718	1016152	+
x	1016250	1017023	+
x	1017064	1017537	+
x	1017088	1017537	+
x	1018067	1017672	-
x	1019577	1018069	-
x	1020817	1019579	-
x	1022181	1020910	-
x	1022495	1022196	-
x	1022939	1024720	+
x	1024717	1024974	+
x	1025063	1025539	+
x	1025536	1026036	+
x	1027668	1026349	-
x	1027956	1028537	+
x	1028537	1030189	+
x	1031429	1030365	-
x	1032719	1031430	-
x	1032218	1031430	-
x	1032716	1031430	-
x	1033485	1032748	-
x	1034638	1033562	-
x	1035483	1034692	-
x	1035755	1036867	+
x	1036880	1037854	+
x	1037851	1038765	+
x	1040766	1038772	-
x	1041900	1040788	-
x	1042116	1042946	+
x	1042967	1044091	+
x	1044151	1045167	+
x	1045169	1046074	+
x	1046872	1046051	-
x	1046988	1049267	+
x	1049264	1051198	+
x	1052311	1051445	-
x	1053169	1052396	-
x	1053212	1053490	+
x	1054588	1053548	-
x	1054593	1055093	+
x	1054611	1055093	+
x	1054617	1055093	+
x	1055099	1055860	+
x	1057537	1055876	-
x	1057922	1057638	-
x	1058382	1058152	-
x	1059151	1058498	-
x	1058815	1058498	-
x	1059112	1061427	+
x	1062506	1061508	-
x	1062070	1061660	-
x	1062813	1063976	+
x	1063989	1064900	+
x	1065811	1064963	-
x	1065835	1064963	-
x	1065976	1066887	+
x	1066927	1068294	+
x	1068410	1069057	+
x	1069054	1070625	+
x	1070732	1072111	+
x	1072104	1074122	+
x	1074176	1074397	+
x	1074394	1074777	+
x	1074923	1075270	+
x	1074929	1075270	+
x	1075963	1075289	-
x	1076946	1076146	-
x	1077108	1076146	-
x	1077527	1077045	-
x	1078046	1077627	-
x	1078774	1078082	-
x	1078741	1078082	-
x	1078684	1078082	-
x	1078824	1079183	+
x	1079240	1079536	+
x	1079526	1081904	+
x	1079592	1081904	+
x	1081901	1082533	+
x	1083433	1082624	-
x	1084599	1083433	-
x	1086599	1084596	-
x	1088200	1086605	-
x	1088194	1086605	-
x	1089345	1088197	-
x	1091024	1089342	-
x	1091192	1093993	+
x	1091222	1093993	+
x	1095151	1094210	-
x	1095330	1095854	+
x	1095659	1095465	-
x	1095681	1095854	+
x	1097246	1095873	-
x	1097291	1095873	-
x	1097611	1098303	+
x	1098303	1099817	+
x	1099861	1101255	+
x	1101255	1101800	+
x	1102275	1101820	-
x	1102598	1103344	+
x	1102631	1103344	+
x	1103337	1105904	+
x	1105911	1107071	+
x	1108177	1107200	-
x	1108894	1108238	-
x	1109299	1108967	-
x	1109320	1108967	-
x	1110044	1109373	-
x	1109966	1109373	-
x	1110067	1110987	+
x	1111064	1112344	+
x	1112365	1113018	+
x	1112407	1113018	+
x	1113080	1114255	+
x	1113179	1114255	+
x	1114656	1114907	+
x	1115177	1114968	-
x	1115088	1115519	+
x	1115501	1115181	-
x	1115543	1116544	+
x	1116562	1117320	+
x	1117943	1117326	-
x	1117980	1119188	+
x	1120734	1119223	-
x	1120791	1119223	-
x	1120817	1121674	+
x	1122943	1121684	-
x	1122982	1121684	-
x	1124393	1123017	-
x	1124509	1126212	+
x	1127798	1126239	-
x	1127884	1128678	+
x	1128886	1129974	+
x	1129929	1130900	+
x	1129947	1130900	+
x	1130986	1131906	+
x	1131923	1132216	+
x	1132420	1134054	+
x	1134703	1134128	-
x	1135363	1134716	-
x	1136260	1135580	-
x	1137276	1136296	-
x	1138855	1137368	-
x	1139095	1139703	+
x	1139110	1139703	+
x	1139762	1143466	+
x	1143466	1144443	+
x	1144531	1145262	+
x	1145359	1146648	+
x	1146653	1147339	+
x	1147332	1147823	+
x	1147356	1147823	+
x	1147814	1148773	+
x	1149902	1149222	-
x	1152481	1149899	-
x	1152715	1152807	+
x	1152807	1154522	+
x	1154519	1156648	+
x	1156648	1157217	+
x	1158750	1157221	-
x	1159531	1158758	-
x	1160102	1159713	-
x	1160207	1159713	-
x	1160204	1159713	-
x	1160856	1160170	-
x	1161228	1160890	-
x	1161213	1160890	-
x	1161623	1161339	-
x	1161946	1161650	-
x	1161769	1161650	-
x	1163267	1162092	-
x	1164171	1163344	-
x	1165231	1164959	-
x	1165267	1164959	-
x	1165804	1165367	-
x	1166230	1165367	-
x	1166294	1165887	-
x	1167608	1166577	-
x	1167602	1166577	-
x	1167849	1168472	+
x	1168469	1169350	+
x	1170025	1169432	-
x	1170220	1169432	-
x	1170157	1171467	+
x	1170172	1171467	+
x	1170220	1171467	+
x	1172950	1171835	-
x	1173183	1173629	+
x	1173675	1174583	+
x	1173678	1174583	+
x	1175497	1174742	-
x	1176418	1175792	-
x	1176520	1176909	+
x	1177083	1176808	-
x	1177363	1177701	+
x	1177683	1178039	+
x	1177725	1178039	+
x	1178036	1178170	+
x	1178425	1179189	+
x	1179613	1179401	-
x	1179547	1179401	-
x	1180142	1181374	+
x	1180193	1181374	+
x	1181481	1183112	+
x	1183188	1184252	+
x	1184305	1184778	+
x	1184812	1185675	+
x	1185653	1186537	+
x	1185680	1186537	+
x	1187620	1186538	-
x	1188120	1187701	-
x	1188232	1188798	+
x	1188795	1189190	+
x	1191221	1189218	-
x	1192963	1191554	-
x	1192945	1191554	-
x	1195070	1193307	-
x	1195840	1195067	-
x	1196889	1195852	-
x	1197076	1197912	+
x	1198019	1198525	+
x	1198028	1198525	+
x	1198588	1198878	+
x	1200169	1198952	-
x	1201172	1200222	-
x	1201166	1200222	-
x	1201380	1202456	+
x	1201389	1202456	+
x	1201563	1202456	+
x	1202513	1203907	+
x	1204109	1204831	+
x	1204863	1206029	+
x	1206594	1206100	-
x	1207214	1206780	-
x	1207241	1206780	-
x	1207316	1208182	+
x	1208095	1208445	+
x	1208179	1208445	+
x	1208432	1210453	+
x	1211280	1210552	-
x	1211391	1212179	+
x	1212317	1214656	+
x	1214833	1215153	+
x	1215288	1215740	+
x	1215306	1215740	+
x	1215619	1215924	+
x	1216018	1216200	+
x	1216310	1216414	+
x	1216392	1216847	+
x	1217262	1219823	+
x	1220979	1220041	-
x	1221367	1222647	+
x	1222752	1223579	+
x	1223790	1225091	+
x	1225178	1226053	+
x	1226937	1226056	-
x	1228358	1226934	-
x	1229441	1228389	-
x	1229375	1228389	-
x	1229476	1230177	+
x	1229506	1230177	+
x	1231341	1230184	-
x	1231764	1231453	-
x	1232084	1231764	-
x	1232094	1232783	+
x	1232857	1233255	+
x	1233104	1233619	+
x	1233209	1233619	+
x	1234749	1233637	-
x	1235016	1234759	-
x	1236253	1235006	-
x	1236888	1236250	-
x	1236978	1237985	+
x	1238985	1238002	-
x	1239048	1240121	+
x	1240209	1240406	+
x	1240403	1240777	+
x	1240980	1241678	+
x	1241796	1241981	+
x	1242183	1241908	-
x	1242426	1242749	+
x	1243624	1242764	-
x	1243806	1243657	-
x	1243857	1243657	-
x	1244297	1243803	-
x	1244500	1245900	+
x	1245922	1246944	+
x	1247845	1246937	-
x	1247920	1248870	+
x	1248875	1250119	+
x	1250728	1250123	-
x	1252197	1250725	-
x	1253765	1252410	-
x	1255327	1253867	-
x	1255348	1256928	+
x	1256925	1258106	+
x	1258118	1259848	+
x	1262244	1259860	-
x	1262139	1259860	-
x	1262169	1259860	-
x	1262715	1262951	+
x	1264975	1263065	-
x	1264921	1263065	-
x	1265107	1265349	+
x	1265399	1265740	+
x	1265827	1266231	+
x	1266248	1265880	-
x	1267281	1266265	-
x	1267778	1267278	-
x	1268082	1268930	+
x	1269753	1268938	-
x	1269744	1268938	-
x	1270693	1269887	-
x	1270692	1271879	+
x	1270797	1271879	+
x	1271891	1272643	+
x	1272926	1272771	-
x	1272984	1274069	+
x	1273158	1274069	+
x	1274000	1275502	+
x	1274003	1275502	+
x	1274090	1275502	+
x	1275635	1276285	+
x	1276377	1276709	+
x	1277595	1277035	-
x	1278399	1277035	-
x	1278483	1277035	-
x	1278534	1277035	-
x	1278629	1279036	+
x	1278693	1279556	+
x	1279119	1279556	+
x	1280353	1279640	-
x	1280391	1280756	+
x	1281582	1280734	-
x	1282220	1281579	-
x	1282165	1282608	+
x	1283042	1283629	+
x	1284835	1283792	-
x	1284907	1283792	-
x	1284865	1283792	-
x	1285598	1284915	-
x	1285728	1287023	+
x	1287304	1287020	-
x	1287331	1287756	+
x	1288064	1291762	+
x	1291801	1293477	+
x	1293474	1294139	+
x	1293534	1294139	+
x	1294142	1294882	+
x	1294904	1296790	+
x	1296888	1298795	+
x	1299428	1298823	-
x	1300540	1299500	-
x	1300860	1300558	-
x	1300878	1300558	-
x	1301040	1301951	+
x	1302043	1302483	+
x	1303417	1302491	-
x	1303667	1306237	+
x	1306737	1306405	-
x	1308962	1306938	-
x	1309528	1308959	-
x	1309687	1310067	+
x	1309741	1310067	+
x	1310100	1311188	+
x	1314035	1311216	-
x	1314414	1320719	+
x	1314462	1320719	+
x	1315971	1320719	+
x	1320772	1322190	+
x	1322257	1325265	+
x	1326348	1325269	-
x	1328249	1326513	-
x	1330042	1328426	-
x	1329799	1328426	-
x	1330127	1331758	+
x	1331758	1332747	+
x	1332829	1333701	+
x	1333717	1334595	+
x	1334668	1335582	+
x	1335664	1336491	+
x	1336531	1337952	+
x	1339250	1337985	-
x	1339704	1340039	+
x	1339710	1340039	+
x	1339740	1340039	+
x	1340086	1341261	+
x	1340089	1341261	+
x	1341396	1341692	+
x	1341573	1341692	+
x	1341743	1342027	+
x	1343342	1342095	-
x	1343390	1342095	-
x	1343405	1342095	-
x	1343679	1344956	+
x	1345906	1344953	-
x	1345997	1347061	+
x	1347642	1347058	-
x	1349361	1347673	-
x	1348425	1347673	-
x	1349456	1350019	+
x	1350069	1351862	+
x	1351928	1352884	+
x	1352881	1353855	+
x	1353894	1354262	+
x	1354259	1354873	+
x	1354980	1355207	+
x	1356398	1355235	-
x	1356573	1357787	+
x	1358362	1358030	-
x	1360181	1358496	-
x	1360883	1360209	-
x	1362538	1360892	-
x	1363470	1362535	-
x	1364098	1363460	-
x	1364887	1364240	-
x	1364983	1364240	-
x	1365150	1365923	+
x	1365886	1366545	+
x	1365964	1366545	+
x	1366081	1366545	+
x	1366613	1368199	+
x	1367111	1368199	+
x	1368201	1368596	+
x	1369459	1368629	-
x	1371033	1369570	-
x	1371563	1371030	-
x	1371658	1372215	+
x	1372267	1372440	+
x	1373687	1372515	-
x	1374935	1373700	-
x	1375602	1375060	-
x	1376906	1375599	-
x	1377573	1376968	-
x	1377564	1376968	-
x	1377714	1378241	+
x	1378262	1379668	+
x	1379665	1380588	+
x	1380593	1381417	+
x	1381422	1382603	+
x	1383780	1382680	-
x	1383951	1384940	+
x	1385004	1385276	+
x	1385016	1385276	+
x	1385273	1385704	+
x	1387487	1385727	-
x	1387415	1385727	-
x	1386280	1385735	-
x	1387595	1388455	+
x	1389366	1388536	-
x	1389716	1389423	-
x	1389982	1389713	-
x	1393739	1390095	-
x	1393790	1390095	-
x	1394720	1393932	-
x	1394917	1396656	+
x	1399978	1396559	-
x	1400642	1400034	-
x	1400708	1402399	+
x	1402396	1403547	+
x	1404124	1403516	-
x	1405341	1404124	-
x	1405329	1404124	-
x	1406822	1405455	-
x	1408078	1406819	-
x	1408077	1408976	+
x	1408969	1410096	+
x	1408978	1410096	+
x	1410671	1410222	-
x	1410695	1410222	-
x	1411110	1410676	-
x	1411169	1412557	+
x	1412632	1413825	+
x	1413998	1414678	+
x	1414064	1414678	+
x	1416578	1414698	-
x	1418085	1416919	-
x	1419094	1418396	-
x	1419691	1419317	-
x	1420525	1419752	-
x	1420486	1419752	-
x	1421040	1420699	-
x	1423043	1421148	-
x	1424788	1423040	-
x	1424935	1425492	+
x	1425489	1426031	+
x	1426682	1426176	-
x	1426652	1426176	-
x	1426902	1428155	+
x	1428152	1430779	+
x	1430800	1432386	+
x	1434178	1432403	-
x	1436009	1434171	-
x	1436881	1436006	-
x	1437855	1436878	-
x	1438062	1438553	+
x	1438647	1439645	+
x	1439645	1441489	+
x	1441543	1442028	+
x	1442086	1443456	+
x	1443505	1444137	+
x	1445785	1444220	-
x	1445796	1446110	+
x	1446572	1446237	-
x	1447117	1448769	+
x	1448766	1450109	+
x	1450113	1451438	+
x	1451435	1452517	+
x	1452735	1453685	+
x	1453942	1455750	+
x	1455901	1456143	+
x	1456233	1457306	+
x	1457303	1458280	+
x	1458296	1458949	+
x	1459033	1460247	+
x	1460504	1460989	+
x	1460982	1461734	+
x	1461741	1462028	+
x	1461783	1462028	+
x	1462059	1462574	+
x	1462581	1463921	+
x	1463966	1465615	+
x	1465622	1466539	+
x	1466579	1468039	+
x	1467987	1468418	+
x	1468053	1468418	+
x	1468426	1468869	+
x	1469223	1468909	-
x	1470243	1468909	-
x	1470990	1470409	-
x	1471059	1472315	+
x	1478369	1477872	-
x	1479856	1478366	-
x	1481562	1479937	-
x	1483239	1481632	-
x	1484955	1483252	-
x	1485017	1485697	+
x	1485720	1486016	+
x	1486506	1486051	-
x	1486509	1486051	-
x	1486688	1486506	-
x	1486600	1487769	+
x	1487899	1488813	+
x	1490703	1488892	-
x	1493050	1490855	-
x	1495163	1493058	-
x	1495302	1497893	+
x	1499927	1497933	-
x	1501297	1499951	-
x	1501399	1501704	+
x	1501664	1502320	+
x	1502337	1503371	+
x	1503379	1503819	+
x	1503841	1504122	+
x	1504132	1505103	+
x	1505094	1505816	+
x	1505813	1506628	+
x	1506655	1507476	+
x	1507493	1508272	+
x	1508311	1508925	+
x	1509284	1508922	-
x	1509661	1509281	-
x	1509706	1510026	+
x	1510019	1511584	+
x	1511584	1512744	+
x	1513343	1512711	-
x	1513785	1516364	+
x	1516361	1518100	+
x	1518229	1518972	+
x	1518969	1519298	+
x	1519501	1519872	+
x	1520723	1519938	-
x	1522614	1520743	-
x	1524770	1522623	-
x	1525558	1524767	-
x	1526954	1526031	-
x	1527350	1528249	+
x	1528167	1530830	+
x	1528218	1530830	+
x	1530912	1531664	+
x	1531936	1531712	-
x	1531948	1531712	-
x	1532087	1533109	+
x	1534372	1533182	-
x	1534369	1533182	-
x	1535349	1534687	-
x	1536131	1535346	-
x	1538383	1536422	-
x	1538908	1538522	-
x	1539129	1539950	+
x	1539919	1540179	+
x	1541456	1540251	-
x	1541384	1540251	-
x	1541759	1542544	+
x	1542740	1544209	+
x	1544206	1545387	+
x	1545393	1546373	+
x	1546911	1546453	-
x	1547213	1548532	+
x	1548529	1550022	+
x	1550598	1549960	-
x	1552036	1550609	-
x	1552035	1552616	+
x	1552613	1553572	+
x	1553569	1554861	+
x	1554858	1555355	+
x	1555352	1556482	+
x	1556482	1559829	+
x	1559826	1560650	+
x	1560845	1561153	+
x	1561150	1562769	+
x	1563075	1563647	+
x	1563755	1564408	+
x	1563782	1564408	+
x	1564474	1564806	+
x	1564822	1566078	+
x	1564825	1566078	+
x	1566197	1567417	+
x	1566206	1567417	+
x	1568968	1567490	-
x	1568965	1567490	-
x	1570350	1568965	-
x	1570428	1571462	+
x	1571831	1571508	-
x	1573237	1571993	-
x	1573893	1573492	-
x	1574147	1573890	-
x	1575189	1574230	-
x	1576176	1575214	-
x	1576127	1576912	+
x	1576199	1576912	+
x	1576310	1576912	+
x	1576993	1578960	+
x	1579802	1578978	-
x	1579926	1580453	+
x	1579971	1580453	+
x	1581349	1580525	-
x	1581546	1582484	+
x	1582481	1583854	+
x	1583879	1584577	+
x	1584574	1585593	+
x	1587146	1585590	-
x	1587862	1587152	-
x	1587871	1587152	-
x	1587947	1588552	+
x	1588766	1589281	+
x	1589271	1589672	+
x	1589777	1591054	+
x	1591051	1591533	+
x	1591069	1591533	+
x	1591530	1591994	+
x	1592019	1592705	+
x	1592885	1593358	+
x	1593422	1595362	+
x	1595359	1596264	+
x	1596261	1597289	+
x	1597280	1598263	+
x	1597286	1598263	+
x	1599034	1598273	-
x	1599038	1600417	+
x	1601701	1600439	-
x	1603308	1601701	-
x	1604139	1603312	-
x	1604258	1605526	+
x	1605766	1607352	+
x	1607463	1609232	+
x	1609229	1610650	+
x	1610814	1611629	+
x	1611636	1611773	+
x	1612384	1611722	-
x	1612351	1611722	-
x	1612342	1611722	-
x	1612708	1613727	+
x	1613730	1614968	+
x	1614965	1615750	+
x	1616002	1615766	-
x	1616787	1616362	-
x	1617058	1617471	+
x	1617238	1617471	+
x	1619073	1617610	-
x	1619085	1617610	-
x	1619192	1621492	+
x	1622093	1621608	-
x	1622169	1622408	+
x	1623098	1622688	-
x	1623858	1623115	-
x	1624766	1623855	-
x	1626363	1624819	-
x	1627481	1626360	-
x	1629600	1627498	-
x	1634265	1630039	-
x	1634262	1630039	-
x	1634664	1635590	+
x	1637852	1635639	-
x	1637855	1635639	-
x	1637971	1639269	+
x	1638004	1639269	+
x	1640304	1639297	-
x	1640283	1639297	-
x	1640303	1641166	+
x	1642048	1641116	-
x	1642945	1642160	-
x	1643883	1642942	-
x	1645814	1644039	-
x	1645862	1646668	+
x	1646665	1649205	+
x	1649202	1650395	+
x	1650392	1651192	+
x	1651194	1652447	+
x	1652444	1652932	+
x	1652907	1653254	+
x	1655178	1653349	-
x	1656412	1655285	-
x	1656397	1655285	-
x	1656639	1658612	+
x	1658656	1659030	+
x	1659046	1659417	+
x	1659439	1660296	+
x	1660332	1661960	+
x	1662057	1662248	+
x	1662880	1662317	-
x	1665722	1662891	-
x	1665880	1666440	+
x	1666666	1668084	+
x	1668059	1668820	+
x	1668095	1668820	+
x	1668959	1670092	+
x	1670089	1671042	+
x	1671053	1672060	+
x	1672975	1672133	-
x	1673116	1673859	+
x	1674693	1675727	+
x	1676601	1675693	-
x	1676559	1675693	-
x	1676617	1677051	+
x	1677073	1678218	+
x	1678228	1678584	+
x	1678618	1678848	+
x	1678998	1680305	+
x	1680403	1680666	+
x	1681642	1680884	-
x	1681809	1683680	+
x	1681833	1683680	+
x	1683681	1685933	+
x	1685947	1686249	+
x	1686246	1686563	+
x	1686560	1687564	+
x	1686563	1687564	+
x	1687617	1688906	+
x	1687620	1688906	+
x	1689596	1688979	-
x	1690022	1689810	-
x	1690083	1690481	+
x	1690526	1691554	+
x	1691566	1692387	+
x	1692600	1693499	+
x	1694112	1693672	-
x	1694820	1694221	-
x	1695622	1694957	-
x	1696119	1695619	-
x	1697098	1696403	-
x	1697032	1697535	+
x	1699570	1697771	-
x	1699542	1699904	+
x	1699888	1700769	+
x	1700971	1702269	+
x	1702273	1702692	+
x	1702726	1703772	+
x	1702750	1703772	+
x	1703769	1704737	+
x	1704734	1705465	+
x	1706271	1705483	-
x	1707202	1706306	-
x	1708215	1707205	-
x	1708547	1709311	+
x	1709320	1710279	+
x	1710409	1710678	+
x	1710671	1711744	+
x	1710704	1711744	+
x	1711978	1713729	+
x	1717288	1713848	-
x	1717384	1713848	-
x	1717329	1718372	+
x	1718402	1719646	+
x	1719693	1720478	+
x	1721736	1720456	-
x	1728085	1721759	-
x	1729126	1728629	-
x	1729178	1730932	+
x	1731049	1732152	+
x	1732149	1732715	+
x	1733226	1732792	-
x	1733286	1734413	+
x	1734410	1735087	+
x	1735652	1735888	+
x	1736195	1739320	+
x	1739517	1740923	+
x	1739532	1740923	+
x	1741868	1740888	-
x	1741854	1742528	+
x	1741920	1742528	+
x	1742521	1743447	+
x	1744047	1743454	-
x	1744512	1744102	-
x	1744740	1745765	+
x	1745770	1746573	+
x	1746595	1746822	+
x	1746871	1747302	+
x	1747370	1750924	+
x	1753255	1750973	-
x	1753009	1750973	-
x	1753393	1755108	+
x	1755122	1756987	+
x	1757358	1759109	+
x	1759112	1759855	+
x	1759115	1759855	+
x	1759852	1760232	+
x	1760229	1760606	+
x	1760674	1761282	+
x	1761421	1762614	+
x	1762624	1763070	+
x	1763105	1764394	+
x	1764432	1764650	+
x	1764656	1765060	+
x	1766819	1765077	-
x	1769109	1766812	-
x	1771278	1769113	-
x	1773506	1771317	-
x	1774354	1773605	-
x	1774297	1773605	-
x	1774821	1774537	-
x	1775109	1774537	-
x	1775069	1776382	+
x	1776379	1777539	+
x	1777536	1778216	+
x	1778216	1778725	+
x	1779833	1778871	-
x	1779737	1778871	-
x	1779827	1778871	-
x	1779593	1778871	-
x	1780266	1779598	-
x	1780714	1781763	+
x	1781764	1782003	+
x	1782000	1782665	+
x	1784170	1782830	-
x	1785137	1784427	-
x	1785186	1786235	+
x	1786235	1787818	+
x	1787818	1788675	+
x	1788724	1789482	+
x	1789913	1789503	-
x	1789986	1791329	+
x	1789995	1791329	+
x	1790013	1791329	+
x	1791326	1792468	+
x	1792465	1793097	+
x	1793094	1793714	+
x	1793724	1794461	+
x	1793727	1794461	+
x	1794469	1795281	+
x	1795283	1796086	+
x	1796083	1796430	+
x	1796611	1797693	+
x	1798192	1797728	-
x	1798333	1799883	+
x	1799873	1800580	+
x	1800640	1801488	+
x	1800670	1801488	+
x	1801521	1802789	+
x	1801557	1802789	+
x	1802789	1803601	+
x	1803598	1805007	+
x	1803601	1805007	+
x	1805683	1806123	+
x	1806113	1806511	+
x	1806619	1808037	+
x	1808045	1808947	+
x	1809005	1810459	+
x	1812123	1810393	-
x	1813703	1812120	-
x	1814830	1813790	-
x	1816317	1814860	-
x	1817015	1816428	-
x	1818375	1817044	-
x	1818601	1819227	+
x	1818610	1819227	+
x	1820503	1819295	-
x	1820991	1820500	-
x	1821095	1823809	+
x	1823972	1825417	+
x	1825443	1826666	+
x	1827260	1826817	-
x	1827382	1829601	+
x	1827505	1829601	+
x	1829598	1831013	+
x	1832672	1831002	-
x	1832699	1831002	-
x	1832881	1833321	+
x	1834122	1833328	-
x	1834171	1837089	+
x	1837403	1837146	-
x	1838600	1837419	-
x	1838888	1838613	-
x	1842465	1838947	-
x	1842471	1838947	-
x	1842754	1843308	+
x	1843358	1843552	+
x	1843614	1844003	+
x	1844036	1844818	+
x	1845884	1844829	-
x	1846194	1847126	+
x	1847204	1848154	+
x	1848161	1848967	+
x	1849130	1850188	+
x	1849163	1850188	+
x	1850188	1852683	+
x	1855812	1852777	-
x	1853937	1852777	-
x	1856006	1857064	+
x	1857061	1858275	+
x	1858272	1859156	+
x	1859153	1860355	+
x	1860352	1861275	+
x	1861254	1861784	+
x	1861272	1861784	+
x	1861793	1862989	+
x	1863069	1864481	+
x	1864590	1865651	+
x	1865734	1872114	+
x	1872134	1876942	+
x	1876918	1878450	+
x	1876942	1878450	+
x	1878456	1881509	+
x	1881656	1882717	+
x	1883992	1882700	-
x	1885782	1884007	-
x	1884660	1884007	-
x	1885994	1886356	+
x	1886389	1886736	+
x	1886741	1887136	+
x	1886744	1887136	+
x	1888476	1887145	-
x	1889501	1888569	-
x	1890185	1889529	-
x	1890241	1890516	+
x	1891244	1890510	-
x	1891316	1892020	+
x	1892017	1892565	+
x	1892660	1893568	+
x	1892666	1893568	+
x	1893568	1894689	+
x	1894698	1895522	+
x	1895516	1896511	+
x	1895519	1896511	+
x	1896672	1897589	+
x	1897863	1900862	+
x	1900855	1901079	+
x	1901668	1901045	-
x	1902350	1901670	-
x	1903189	1902422	-
x	1903248	1903859	+
x	1903871	1905145	+
x	1905796	1906179	+
x	1906218	1906970	+
x	1906967	1908028	+
x	1908025	1908201	+
x	1908209	1909015	+
x	1909015	1909938	+
x	1909952	1911715	+
x	1911811	1912992	+
x	1913014	1913958	+
x	1914098	1915858	+
x	1915851	1916474	+
x	1916471	1917406	+
x	1918844	1917480	-
x	1919990	1919400	-
x	1920101	1919400	-
x	1921725	1920055	-
x	1922923	1921766	-
x	1924147	1922963	-
x	1924918	1924751	-
x	1925151	1926611	+
x	1926629	1927585	+
x	1927582	1928418	+
x	1928415	1929110	+
x	1929107	1929871	+
x	1929110	1929871	+
x	1929868	1930560	+
x	1930557	1931948	+
x	1932122	1932934	+
x	1932928	1933842	+
x	1933845	1934675	+
x	1934675	1934992	+
x	1935077	1935895	+
x	1935909	1936688	+
x	1936685	1936792	+
x	1937687	1937298	-
x	1937911	1937684	-
x	1938129	1939613	+
x	1939610	1940857	+
x	1941316	1940900	-
x	1941319	1940900	-
x	1942019	1941309	-
x	1942120	1943505	+
x	1943538	1944107	+
x	1944902	1944132	-
x	1945837	1944899	-
x	1946052	1945804	-
x	1945995	1945804	-
x	1947627	1946074	-
x	1947693	1946074	-
x	1948059	1949615	+
x	1950173	1949625	-
x	1950869	1950237	-
x	1951398	1951156	-
x	1952266	1951673	-
x	1952170	1951673	-
x	1952511	1952269	-
x	1954568	1952610	-
x	1955752	1954565	-
x	1955862	1956323	+
x	1955991	1956323	+
x	1956039	1956323	+
x	1958019	1956337	-
x	1958087	1958299	+
x	1958299	1958547	+
x	1958555	1959292	+
x	1959386	1961086	+
x	1961542	1961357	-
x	1961772	1961371	-
x	1962373	1961762	-
x	1962520	1963950	+
x	1964012	1966609	+
x	1964018	1966609	+
x	1966982	1967713	+
x	1968267	1967710	-
x	1969949	1968351	-
x	1970003	1971385	+
x	1971512	1971961	+
x	1974923	1971996	-
x	1976638	1975127	-
x	1977700	1976816	-
x	1977652	1976816	-
x	1978077	1977751	-
x	1978076	1978615	+
x	1981725	1978882	-
x	1981617	1978882	-
x	1981779	1982012	+
x	1982193	1983701	+
x	1984094	1983711	-
x	1984882	1984094	-
x	1985489	1985022	-
x	1987156	1985900	-
x	1987998	1987783	-
x	1988372	1988647	+
x	1988378	1988647	+
x	1988715	1989074	+
x	1989255	1991111	+
x	1991267	1992511	+
x	1991276	1992511	+
x	1992519	1993805	+
x	1993802	1995088	+
x	1995277	1995588	+
x	1996407	1995661	-
x	1996473	1997813	+
x	1997813	1998631	+
x	1999196	1998636	-
x	1999297	2000601	+
x	2001228	2000722	-
x	2001171	2000722	-
x	2003120	2001327	-
x	2003340	2003903	+
x	2006117	2003943	-
x	2006381	2007901	+
x	2007898	2012073	+
x	2009275	2012073	+
x	2013269	2012088	-
x	2013469	2013672	+
x	2013822	2015039	+
x	2013942	2015039	+
x	2015118	2015417	+
x	2015431	2016612	+
x	2016652	2016954	+
x	2017027	2018118	+
x	2017066	2018118	+
x	2018527	2018844	+
x	2018545	2018844	+
x	2019003	2019164	+
x	2019165	2019284	+
x	2019335	2019619	+
x	2019707	2020609	+
x	2020881	2022392	+
x	2022370	2024127	+
x	2024124	2025344	+
x	2025341	2027173	+
x	2027800	2027991	+
x	2028094	2030061	+
x	2030642	2031913	+
x	2032025	2033416	+
x	2035483	2033564	-
x	2035516	2033564	-
x	2035990	2035664	-
x	2036938	2036054	-
x	2036890	2036054	-
x	2037315	2036989	-
x	2038033	2037686	-
x	2038071	2038370	+
x	2038385	2039596	+
x	2039917	2041149	+
x	2039920	2041149	+
x	2041275	2042687	+
x	2041281	2042687	+
x	2042932	2043288	+
x	2043442	2044146	+
x	2045358	2044156	-
x	2045349	2044156	-
x	2046111	2045680	-
x	2046478	2047422	+
x	2046520	2047422	+
x	2047527	2048192	+
x	2048255	2048959	+
x	2049594	2051057	+
x	2052733	2051177	-
x	2052673	2051177	-
x	2054727	2052808	-
x	2054798	2056441	+
x	2056456	2058882	+
x	2059079	2059708	+
x	2059695	2060624	+
x	2059701	2060624	+
x	2060653	2061018	+
x	2061035	2061913	+
x	2061951	2062355	+
x	2062595	2063083	+
x	2063080	2063823	+
x	2063942	2064436	+
x	2064728	2065405	+
x	2065458	2065715	+
x	2065764	2068589	+
x	2069676	2068816	-
x	2069717	2070583	+
x	2072474	2070588	-
x	2074523	2072490	-
x	2074446	2074646	+
x	2076850	2074643	-
x	2076868	2074643	-
x	2077539	2077144	-
x	2077799	2077536	-
x	2079405	2077858	-
x	2080605	2079568	-
x	2081972	2080605	-
x	2083585	2082146	-
x	2083582	2082146	-
x	2085069	2083618	-
x	2086049	2085099	-
x	2086480	2086064	-
x	2086758	2087180	+
x	2087211	2087531	+
x	2087229	2087531	+
x	2087528	2087842	+
x	2087842	2089575	+
x	2089575	2090210	+
x	2090221	2090895	+
x	2090885	2091529	+
x	2090903	2091529	+
x	2092923	2091532	-
x	2093988	2093065	-
x	2094704	2094027	-
x	2094866	2095651	+
x	2095654	2096448	+
x	2096455	2097564	+
x	2097617	2098594	+
x	2099046	2099351	+
x	2099426	2100466	+
x	2101243	2100473	-
x	2101991	2101236	-
x	2102848	2101988	-
x	2102944	2105358	+
x	2102950	2105358	+
x	2103022	2105358	+
x	2105646	2107130	+
x	2107229	2109328	+
x	2110577	2109342	-
x	2111312	2110677	-
x	2111766	2111377	-
x	2111754	2111377	-
x	2113033	2111789	-
x	2113056	2113493	+
x	2113548	2114252	+
x	2113566	2114252	+
x	2114263	2114706	+
x	2114930	2114712	-
x	2115222	2115701	+
x	2115786	2117849	+
x	2117904	2119256	+
x	2119259	2120395	+
x	2121739	2120423	-
x	2122211	2121789	-
x	2123085	2122252	-
x	2123589	2123113	-
x	2124158	2123628	-
x	2124769	2124170	-
x	2125764	2124787	-
x	2126155	2127297	+
x	2128025	2127267	-
x	2127986	2127267	-
x	2128524	2128351	-
x	2128924	2128568	-
x	2129594	2128983	-
x	2129648	2130055	+
x	2130072	2130383	+
x	2130393	2130611	+
x	2131776	2130646	-
x	2131849	2132280	+
x	2132428	2133582	+
x	2134353	2133442	-
x	2134789	2134358	-
x	2134847	2135155	+
x	2136197	2135121	-
x	2136245	2135121	-
x	2137585	2136197	-
x	2137614	2138906	+
x	2140226	2138958	-
x	2140316	2140720	+
x	2140906	2141337	+
x	2142347	2141385	-
x	2142847	2142377	-
x	2143135	2142905	-
x	2143834	2143187	-
x	2146063	2143841	-
x	2146553	2146101	-
x	2147272	2146658	-
x	2147251	2146658	-
x	2147951	2147334	-
x	2147939	2147334	-
x	2149043	2148039	-
x	2149143	2149895	+
x	2150280	2149873	-
x	2150415	2151518	+
x	2151518	2152714	+
x	2157050	2152884	-
x	2157083	2152884	-
x	2160429	2157388	-
x	2160351	2157388	-
x	2161264	2160800	-
x	2161362	2162225	+
x	2163534	2162263	-
x	2163806	2164921	+
x	2164912	2166252	+
x	2166669	2166289	-
x	2166826	2168688	+
x	2169175	2168696	-
x	2169412	2170185	+
x	2170956	2170189	-
x	2171645	2171001	-
x	2172181	2171657	-
x	2172978	2172199	-
x	2172990	2172199	-
x	2173111	2173608	+
x	2174696	2173605	-
x	2175927	2174698	-
x	2176898	2175942	-
x	2177123	2178232	+
x	2178235	2180754	+
x	2180766	2181836	+
x	2181833	2182348	+
x	2182345	2183406	+
x	2183403	2184173	+
x	2184712	2184383	-
x	2185086	2184709	-
x	2185673	2185083	-
x	2185644	2187092	+
x	2185728	2187092	+
x	2187699	2187247	-
x	2187763	2188164	+
x	2188803	2188453	-
x	2189716	2188814	-
x	2189928	2189737	-
x	2190225	2189929	-
x	2190465	2190680	+
x	2190677	2190988	+
x	2191483	2190962	-
x	2191323	2191835	+
x	2191482	2191835	+
x	2191877	2192326	+
x	2192323	2192868	+
x	2193371	2192757	-
x	2193716	2193420	-
x	2193964	2193713	-
x	2193951	2194445	+
x	2195012	2194605	-
x	2195288	2195016	-
x	2196541	2195321	-
x	2196689	2196946	+
x	2197212	2196760	-
x	2197428	2198237	+
x	2197440	2198237	+
x	2198247	2199062	+
x	2199067	2200344	+
x	2200341	2201369	+
x	2201354	2202598	+
x	2201366	2202598	+
x	2202595	2203866	+
x	2202625	2203866	+
x	2203863	2204996	+
x	2204997	2206310	+
x	2206332	2206907	+
x	2206904	2207386	+
x	2207399	2207776	+
x	2207792	2208457	+
x	2207849	2208457	+
x	2208991	2208584	-
x	2209494	2210540	+
x	2210648	2211496	+
x	2212904	2211459	-
x	2213769	2213083	-
x	2214928	2213960	-
x	2215572	2215153	-
x	2215841	2215581	-
x	2215984	2217660	+
x	2218301	2217648	-
x	2218416	2218646	+
x	2219642	2218731	-
x	2219751	2220350	+
x	2220766	2221194	+
x	2221420	2221959	+
x	2222139	2222411	+
x	2223039	2222479	-
x	2223377	2223036	-
x	2223956	2223621	-
x	2224389	2224045	-
x	2224631	2224383	-
x	2227046	2224731	-
x	2227315	2227043	-
x	2227724	2227368	-
x	2227881	2228648	+
x	2228744	2229697	+
x	2229899	2232616	+
x	2233461	2232685	-
x	2234878	2233556	-
x	2234949	2236562	+
x	2236572	2237324	+
x	2237400	2238182	+
x	2239160	2238303	-
x	2240714	2239218	-
x	2241623	2240736	-
x	2241742	2245725	+
x	2246168	2245824	-
x	2247682	2246357	-
x	2247770	2248012	+
x	2248013	2248411	+
x	2249025	2248594	-
x	2249066	2249560	+
x	2249557	2249805	+
x	2250264	2250884	+
x	2250405	2250884	+
x	2250838	2251428	+
x	2252812	2251556	-
x	2253130	2253741	+
x	2253166	2253741	+
x	2253738	2254778	+
x	2255011	2255739	+
x	2255020	2255739	+
x	2255729	2256145	+
x	2255795	2256145	+
x	2255843	2256145	+
x	2256460	2256161	-
x	2256850	2256545	-
x	2257464	2256859	-
x	2257848	2257489	-
x	2258685	2258008	-
x	2259976	2259080	-
x	2264980	2260160	-
x	2266488	2265490	-
x	2267487	2266603	-
x	2269248	2267527	-
x	2270148	2269309	-
x	2271164	2270145	-
x	2273226	2271181	-
x	2273723	2273238	-
x	2273672	2273238	-
x	2273869	2274864	+
x	2275822	2274980	-
x	2275887	2276357	+
x	2275950	2276357	+
x	2276034	2276357	+
x	2276354	2276842	+
x	2276839	2277480	+
x	2278461	2277487	-
x	2279536	2278463	-
x	2280381	2279539	-
x	2281270	2280368	-
x	2282586	2281267	-
x	2283421	2282624	-
x	2284339	2284022	-
x	2284372	2284022	-
x	2285960	2284425	-
x	2286009	2286665	+
x	2289266	2286702	-
x	2297463	2289271	-
x	2301729	2289271	-
x	2302260	2302036	-
x	2302398	2302036	-
x	2302564	2302899	+
x	2305663	2302874	-
x	2305498	2302874	-
x	2307260	2305656	-
x	2307792	2307265	-
x	2307868	2308581	+
x	2309096	2308830	-
x	2309402	2309097	-
x	2309568	2309404	-
x	2309804	2309568	-
x	2309917	2311452	+
x	2311022	2311423	+
x	2311837	2311424	-
x	2311828	2311424	-
x	2315496	2311912	-
x	2315574	2315807	+
x	2315800	2316210	+
x	2315884	2316210	+
x	2316194	2317285	+
x	2317295	2317921	+
x	2317918	2319444	+
x	2320613	2319390	-
x	2321552	2320629	-
x	2321309	2322244	+
x	2321687	2322244	+
x	2322968	2322234	-
x	2323720	2322965	-
x	2323738	2322965	-
x	2324889	2323717	-
x	2325706	2324957	-
x	2325736	2326149	+
x	2327622	2326159	-
x	2328031	2327780	-
x	2329037	2328066	-
x	2329337	2329038	-
x	2329765	2329595	-
x	2330038	2329595	-
x	2329802	2330116	+
x	2330098	2332068	+
x	2332049	2332612	+
x	2332533	2332931	+
x	2333249	2332920	-
x	2333453	2335618	+
x	2335615	2336559	+
x	2336552	2337688	+
x	2337771	2338076	+
x	2338055	2338660	+
x	2338738	2338968	+
x	2339155	2340924	+
x	2342068	2340941	-
x	2342117	2343298	+
x	2344036	2343302	-
x	2346798	2344078	-
x	2347841	2346915	-
x	2348109	2347858	-
x	2348205	2347858	-
x	2349127	2348177	-
x	2350122	2349124	-
x	2351489	2350131	-
x	2352710	2351541	-
x	2353015	2352716	-
x	2353198	2354850	+
x	2355461	2358010	+
x	2358003	2358836	+
x	2358120	2358836	+
x	2359249	2358815	-
x	2359510	2359256	-
x	2359783	2359526	-
x	2359822	2359526	-
x	2361194	2360310	-
x	2361146	2360310	-
x	2361571	2361245	-
x	2361775	2362071	+
x	2362127	2362858	+
x	2364144	2363398	-
x	2365016	2364141	-
x	2365207	2365013	-
x	2365228	2365013	-
x	2367155	2365320	-
x	2366957	2365320	-
x	2367071	2365320	-
x	2367216	2368409	+
x	2368402	2369043	+
x	2368420	2369043	+
x	2370876	2369047	-
x	2371157	2371726	+
x	2371734	2372027	+
x	2372898	2372056	-
x	2372972	2373808	+
x	2374346	2373831	-
x	2374313	2373831	-
x	2375246	2374392	-
x	2375530	2375249	-
x	2375657	2377147	+
x	2380651	2377073	-
x	2380877	2381755	+
x	2382556	2381786	-
x	2382853	2381786	-
x	2382819	2382553	-
x	2383200	2384669	+
x	2384669	2384872	+
x	2385773	2384892	-
x	2387043	2385799	-
x	2387904	2387101	-
x	2387995	2388225	+
x	2389223	2388435	-
x	2389821	2389234	-
x	2390595	2389885	-
x	2391422	2390592	-
x	2391899	2391486	-
x	2391914	2392990	+
x	2392987	2393268	+
x	2393304	2394377	+
x	2394912	2394382	-
x	2396306	2394960	-
x	2396312	2394960	-
x	2397036	2396719	-
x	2397248	2397033	-
x	2397503	2398561	+
x	2399047	2398691	-
x	2399924	2399142	-
x	2400482	2400192	-
x	2401369	2400644	-
x	2402151	2401366	-
x	2402142	2401366	-
x	2402900	2402148	-
x	2404050	2402911	-
x	2405167	2404223	-
x	2406648	2405164	-
x	2407877	2406645	-
x	2409448	2407874	-
x	2410929	2409460	-
x	2410920	2409460	-
x	2412001	2410922	-
x	2413530	2411998	-
x	2415134	2413527	-
x	2416191	2415157	-
x	2416804	2416169	-
x	2416529	2416188	-
x	2417663	2416797	-
x	2419364	2417766	-
x	2421613	2419574	-
x	2422764	2421610	-
x	2423795	2422761	-
x	2423951	2422761	-
x	2424384	2423953	-
x	2425137	2424733	-
x	2425403	2426023	+
x	2426119	2426802	+
x	2427722	2426799	-
x	2427704	2426799	-
x	2428015	2429073	+
x	2429077	2430627	+
x	2431054	2430614	-
x	2431109	2432308	+
x	2433115	2432450	-
x	2433231	2433049	-
x	2434887	2433499	-
x	2435484	2434978	-
x	2436381	2435494	-
x	2436432	2435494	-
x	2436469	2437752	+
x	2438496	2437753	-
x	2438977	2438582	-
x	2440116	2438974	-
x	2440113	2438974	-
x	2440667	2440233	-
x	2441161	2440772	-
x	2441318	2443129	+
x	2441327	2443129	+
x	2444317	2443160	-
x	2445187	2444414	-
x	2446439	2445282	-
x	2446463	2445282	-
x	2446903	2446625	-
x	2446876	2446625	-
x	2446986	2448923	+
x	2449910	2448798	-
x	2450068	2450679	+
x	2450720	2451562	+
x	2450804	2451562	+
x	2451559	2452848	+
x	2452845	2454494	+
x	2455258	2454614	-
x	2456157	2455258	-
x	2456762	2456343	-
x	2457861	2456770	-
x	2458107	2460065	+
x	2461137	2460163	-
x	2461341	2462033	+
x	2462397	2462041	-
x	2463642	2462497	-
x	2463573	2462497	-
x	2463783	2462497	-
x	2463732	2464442	+
x	2464521	2465606	+
x	2465603	2466352	+
x	2465606	2466352	+
x	2466510	2468048	+
x	2469080	2467974	-
x	2470291	2469152	-
x	2470300	2471436	+
x	2471448	2472995	+
x	2474811	2473033	-
x	2475075	2476736	+
x	2476736	2477641	+
x	2477694	2478386	+
x	2478383	2479318	+
x	2479345	2480097	+
x	2480526	2480104	-
x	2480725	2482161	+
x	2485463	2482479	-
x	2486852	2485512	-
x	2488509	2486947	-
x	2490133	2488571	-
x	2490852	2491697	+
x	2491942	2493483	+
x	2494041	2494742	+
x	2494748	2494446	-
x	2495848	2494754	-
x	2496582	2495845	-
x	2497718	2496579	-
x	2498809	2497715	-
x	2499195	2498824	-
x	2499265	2498846	-
x	2499493	2499317	-
x	2499388	2500263	+
x	2499505	2500263	+
x	2500256	2500747	+
x	2500747	2501562	+
x	2502503	2501544	-
x	2502485	2501544	-
x	2502551	2503366	+
x	2502599	2503366	+
x	2503697	2503461	-
x	2504286	2503825	-
x	2504762	2504286	-
x	2505597	2504800	-
x	2505562	2508354	+
x	2505649	2508354	+
x	2508414	2509658	+
x	2509897	2510805	+
x	2510881	2511228	+
x	2511225	2512475	+
x	2512506	2513822	+
x	2513853	2515274	+
x	2515398	2516285	+
x	2515470	2516285	+
x	2517904	2516354	-
x	2518467	2517898	-
x	2518515	2520104	+
x	2520101	2521030	+
x	2521096	2521599	+
x	2522087	2521632	-
x	2522286	2522092	-
x	2522206	2522424	+
x	2522986	2522453	-
x	2523934	2523116	-
x	2525009	2523948	-
x	2525357	2526442	+
x	2526439	2527077	+
x	2526442	2527077	+
x	2528674	2527154	-
x	2527576	2527154	-
x	2528752	2527154	-
x	2528751	2529704	+
x	2531460	2529682	-
x	2531810	2533039	+
x	2533214	2534500	+
x	2535920	2534754	-
x	2537386	2535917	-
x	2537731	2537399	-
x	2537808	2538335	+
x	2538442	2538741	+
x	2538847	2539215	+
x	2539212	2539541	+
x	2539915	2539598	-
x	2540197	2539949	-
x	2539993	2540862	+
x	2540329	2540862	+
x	2540859	2542049	+
x	2543133	2542234	-
x	2543148	2542234	-
x	2543312	2544691	+
x	2544925	2546583	+
x	2547628	2546690	-
x	2548610	2547726	-
x	2548562	2547726	-
x	2548987	2548661	-
x	2549051	2549245	+
x	2549255	2550550	+
x	2550583	2551920	+
x	2552679	2551987	-
x	2552813	2554441	+
x	2554438	2554815	+
x	2554785	2555567	+
x	2555652	2556224	+
x	2555709	2556224	+
x	2556284	2557138	+
x	2557363	2557139	-
x	2558142	2557402	-
x	2558437	2559660	+
x	2559882	2560520	+
x	2560614	2561516	+
x	2561548	2562000	+
x	2562096	2563163	+
x	2562192	2563163	+
x	2565112	2563169	-
x	2566118	2565186	-
x	2566125	2566817	+
x	2566158	2566817	+
x	2566923	2567165	+
x	2568129	2567206	-
x	2568335	2568126	-
x	2568919	2570208	+
x	2570218	2570811	+
x	2570930	2570304	-
x	2570598	2571032	+
x	2571806	2570961	-
x	2572529	2572338	-
x	2573045	2572614	-
x	2573320	2573138	-
x	2573529	2574245	+
x	2574255	2574587	+
x	2574318	2574587	+
x	2574857	2574534	-
x	2574860	2574534	-
x	2575408	2574953	-
x	2576155	2576442	+
x	2576387	2576539	+
x	2576545	2576889	+
x	2576548	2576889	+
x	2576922	2577518	+
x	2576994	2577518	+
x	2577596	2577865	+
x	2579016	2578162	-
x	2580400	2579027	-
x	2581914	2580397	-
x	2581948	2582820	+
x	2582807	2583631	+
x	2583628	2584950	+
x	2585836	2584958	-
x	2587248	2585833	-
x	2587263	2585833	-
x	2587815	2587264	-
x	2587809	2587264	-
x	2588498	2587809	-
x	2588474	2587809	-
x	2589379	2588471	-
x	2589444	2589890	+
x	2590967	2590119	-
x	2593057	2590964	-
x	2593098	2593589	+
x	2593841	2594989	+
x	2596571	2595024	-
x	2597341	2596805	-
x	2597416	2597802	+
x	2597859	2598197	+
x	2598227	2599873	+
x	2601440	2599827	-
x	2601915	2602136	+
x	2602060	2602848	+
x	2602093	2602848	+
x	2602852	2603541	+
x	2603957	2604925	+
x	2606107	2604989	-
x	2607183	2606227	-
x	2607813	2610701	+
x	2612124	2610787	-
x	2612028	2610787	-
x	2612702	2613136	+
x	2612717	2613136	+
x	2613356	2613649	+
x	2613392	2613649	+
x	2615572	2613653	-
x	2616872	2615577	-
x	2616941	2618923	+
x	2619292	2619008	-
x	2619462	2619343	-
x	2619639	2619343	-
x	2620100	2619774	-
x	2620076	2619774	-
x	2621842	2620292	-
x	2621818	2620292	-
x	2623466	2621901	-
x	2623439	2621901	-
x	2625195	2623657	-
x	2625219	2623657	-
x	2625685	2625912	+
x	2627218	2626043	-
x	2628166	2627282	-
x	2628118	2627282	-
x	2628543	2628217	-
x	2629082	2628798	-
x	2629396	2629097	-
x	2629216	2629097	-
x	2630660	2629485	-
x	2632958	2631090	-
x	2635543	2633696	-
x	2637072	2635681	-
x	2637254	2637661	+
x	2637658	2638050	+
x	2638586	2638158	-
x	2639476	2638586	-
x	2640266	2639469	-
x	2640328	2641782	+
x	2642681	2641779	-
x	2643093	2642755	-
x	2643096	2642755	-
x	2644375	2643068	-
x	2644920	2644372	-
x	2645982	2644924	-
x	2646256	2645954	-
x	2647566	2646253	-
x	2647659	2647946	+
x	2647761	2647946	+
x	2648833	2648045	-
x	2649995	2648847	-
x	2651101	2650070	-
x	2651273	2651590	+
x	2652123	2651617	-
x	2652438	2652223	-
x	2653711	2652416	-
x	2658093	2653708	-
x	2663123	2658075	-
x	2663270	2658075	-
x	2666277	2663263	-
x	2667611	2666277	-
x	2671845	2667601	-
x	2671842	2667601	-
x	2671944	2673641	+
x	2673674	2674657	+
x	2673737	2674657	+
x	2676013	2674661	-
x	2676466	2676675	+
x	2676773	2678026	+
x	2679150	2678023	-
x	2679195	2678023	-
x	2679720	2679256	-
x	2680274	2679717	-
x	2680687	2682378	+
x	2682375	2683139	+
x	2683136	2683981	+
x	2684018	2685949	+
x	2686080	2688083	+
x	2688744	2689892	+
x	2688807	2689892	+
x	2690972	2689917	-
x	2691807	2690989	-
x	2692655	2691804	-
x	2693722	2692652	-
x	2693736	2694065	+
x	2694253	2694050	-
x	2694537	2696465	+
x	2697298	2696543	-
x	2699256	2697295	-
x	2699244	2699846	+
x	2699277	2699846	+
x	2700388	2699960	-
x	2700648	2701490	+
x	2701730	2701458	-
x	2701704	2702708	+
x	2701734	2702708	+
x	2701989	2702708	+
x	2703305	2702466	-
x	2704282	2703305	-
x	2705937	2704282	-
x	2706047	2706307	+
x	2707291	2706323	-
x	2707273	2706323	-
x	2708848	2707304	-
x	2708857	2707304	-
x	2709759	2708863	-
x	2711325	2710099	-
x	2711307	2710099	-
x	2712280	2711447	-
x	2712289	2711447	-
x	2713113	2712370	-
x	2713774	2713103	-
x	2714151	2713771	-
x	2714783	2714148	-
x	2715058	2715330	+
x	2715572	2716618	+
x	2717752	2716751	-
x	2717416	2716751	-
x	2719283	2717841	-
x	2720158	2719283	-
x	2721452	2720205	-
x	2721553	2721822	+
x	2721836	2721570	-
x	2721803	2721570	-
x	2722035	2721841	-
x	2722168	2722755	+
x	2722781	2723314	+
x	2723895	2723311	-
x	2724241	2723942	-
x	2724822	2724412	-
x	2725109	2724819	-
x	2726535	2725090	-
x	2728724	2726532	-
x	2729205	2730119	+
x	2730351	2730770	+
x	2732806	2730767	-
x	2732983	2730767	-
x	2732684	2732962	+
x	2734222	2733092	-
x	2735661	2734222	-
x	2736007	2735747	-
x	2736336	2736022	-
x	2736684	2738159	+
x	2740959	2738098	-
x	2741699	2741289	-
x	2742113	2741742	-
x	2743573	2742110	-
x	2746230	2743570	-
x	2746200	2743570	-
x	2747547	2746288	-
x	2748203	2747637	-
x	2748155	2747637	-
x	2748237	2748635	+
x	2748969	2748823	-
x	2749598	2748993	-
x	2750721	2749600	-
x	2752679	2750718	-
x	2752694	2750718	-
x	2754167	2752911	-
x	2755463	2754183	-
x	2755754	2756662	+
x	2756739	2758355	+
x	2756784	2758355	+
x	2756829	2758355	+
x	2759150	2758506	-
x	2759749	2759147	-
x	2761266	2759866	-
x	2761630	2762814	+
x	2763640	2762834	-
x	2764134	2763646	-
x	2764206	2765012	+
x	2764859	2764236	-
x	2764961	2767546	+
x	2768122	2767619	-
x	2769010	2768342	-
x	2769135	2769539	+
x	2769153	2769539	+
x	2769539	2771179	+
x	2771247	2771540	+
x	2771543	2772259	+
x	2772941	2772291	-
x	2773363	2772947	-
x	2778234	2773360	-
x	2780014	2778338	-
x	2780580	2780095	-
x	2780601	2780095	-
x	2780876	2781133	+
x	2781512	2781189	-
x	2783897	2781528	-
x	2785636	2783894	-
x	2787108	2785633	-
x	2787114	2785633	-
x	2788614	2787337	-
x	2788602	2787337	-
x	2788964	2789734	+
x	2790676	2789915	-
x	2791999	2789915	-
x	2795494	2792081	-
x	2795759	2795460	-
x	2800718	2795868	-
x	2801011	2800805	-
x	2801147	2801770	+
x	2801760	2802632	+
x	2802407	2802733	+
x	2802784	2803668	+
x	2802832	2803668	+
x	2803923	2804144	+
x	2804150	2804575	+
x	2805779	2804598	-
x	2806822	2805776	-
x	2807936	2806833	-
x	2809016	2808195	-
x	2809570	2809013	-
x	2810751	2809567	-
x	2812720	2810756	-
x	2814314	2812725	-
x	2814967	2814311	-
x	2815710	2814964	-
x	2817436	2815793	-
x	2817552	2818199	+
x	2818278	2819099	+
x	2820433	2819096	-
x	2820442	2819096	-
x	2820518	2821324	+
x	2822929	2821328	-
x	2822997	2823644	+
x	2825706	2824396	-
x	2825643	2824396	-
x	2825691	2824396	-
x	2825794	2825979	+
x	2826001	2826423	+
x	2827178	2826717	-
x	2828431	2827184	-
x	2829353	2828550	-
x	2829601	2829350	-
x	2831175	2829949	-
x	2831625	2833103	+
x	2833455	2833228	-
x	2833524	2833997	+
x	2835381	2833969	-
x	2835770	2835378	-
x	2845172	2835963	-
x	2846414	2845692	-
x	2846931	2847158	+
x	2847155	2847556	+
x	2848511	2847591	-
x	2848715	2850106	+
x	2849096	2850106	+
x	2850526	2850107	-
x	2850747	2850523	-
x	2853621	2850778	-
x	2854094	2853693	-
x	2854097	2853693	-
x	2854564	2854094	-
x	2855130	2854567	-
x	2856258	2855140	-
x	2856286	2856984	+
x	2856292	2856984	+
x	2857431	2856988	-
x	2858516	2857428	-
x	2859043	2858513	-
x	2860249	2859047	-
x	2860252	2859047	-
x	2860267	2860674	+
x	2860970	2862181	+
x	2862308	2862967	+
x	2862964	2863626	+
x	2863623	2863901	+
x	2863994	2864407	+
x	2864446	2864703	+
x	2864700	2865077	+
x	2865467	2865093	-
x	2865962	2865567	-
x	2866204	2865959	-
x	2867034	2866615	-
x	2867855	2867046	-
x	2869105	2867852	-
x	2869610	2869098	-
x	2872325	2869611	-
x	2872805	2872416	-
x	2872817	2872416	-
x	2872912	2873586	+
x	2873671	2874381	+
x	2875769	2874411	-
x	2875915	2876892	+
x	2877128	2876805	-
x	2877249	2877986	+
x	2877597	2877986	+
x	2878129	2879178	+
x	2879181	2880173	+
x	2880450	2882201	+
x	2882212	2885634	+
x	2885634	2888288	+
x	2889310	2888285	-
x	2890247	2889303	-
x	2890351	2890740	+
x	2891799	2890732	-
x	2893642	2891852	-
x	2893795	2894622	+
x	2893882	2894622	+
x	2894645	2895148	+
x	2895178	2896059	+
x	2896529	2896065	-
x	2896757	2898346	+
x	2899370	2898348	-
x	2899478	2900380	+
x	2901931	2900660	-
x	2902668	2901928	-
x	2902602	2901928	-
x	2902653	2903579	+
x	2906046	2903665	-
x	2906037	2903665	-
x	2906739	2906068	-
x	2908516	2906843	-
x	2909850	2908522	-
x	2911575	2909854	-
x	2912032	2911685	-
x	2912270	2912061	-
x	2912199	2913548	+
x	2913710	2917216	+
x	2917360	2919021	+
x	2917390	2919021	+
x	2920072	2919038	-
x	2920659	2920069	-
x	2921222	2920656	-
x	2921331	2921576	+
x	2921573	2921977	+
x	2922194	2922814	+
x	2922825	2923319	+
x	2923316	2923747	+
x	2923772	2924230	+
x	2923829	2924230	+
x	2924227	2925798	+
x	2925909	2926196	+
x	2926183	2926623	+
x	2927399	2926644	-
x	2928128	2927532	-
x	2928981	2928136	-
x	2929909	2929010	-
x	2930037	2930711	+
x	2930885	2932627	+
x	2933704	2932649	-
x	2934840	2933704	-
x	2935801	2934851	-
x	2936451	2935798	-
x	2937035	2936448	-
x	2939106	2937028	-
x	2939215	2939442	+
x	2940869	2939439	-
x	2940824	2939439	-
x	2941169	2941669	+
x	2942126	2941686	-
x	2942222	2942950	+
x	2942273	2942950	+
x	2943288	2942935	-
x	2943726	2943301	-
x	2944397	2943723	-
x	2944475	2945296	+
x	2945432	2946325	+
x	2947146	2946328	-
x	2948342	2947161	-
x	2948832	2948401	-
x	2950587	2949346	-
x	2950897	2951259	+
x	2951606	2952730	+
x	2952732	2953271	+
x	2953411	2954709	+
x	2955029	2954748	-
x	2955659	2955174	-
x	2955940	2955686	-
x	2958280	2955944	-
x	2958244	2955944	-
x	2958310	2955944	-
x	2958309	2958551	+
x	2958552	2959229	+
x	2959425	2960081	+
x	2960244	2960690	+
x	2961197	2960865	-
x	2961676	2961317	-
x	2961778	2962236	+
x	2962372	2962752	+
x	2962749	2964245	+
x	2964249	2964671	+
x	2964689	2964372	-
x	2965962	2966393	+
x	2966390	2967388	+
x	2967402	2967866	+
x	2967498	2967866	+
x	2969715	2968276	-
x	2970256	2969723	-
x	2970900	2970409	-
x	2971035	2970409	-
x	2971390	2971067	-
x	2971483	2971067	-
x	2971715	2971470	-
x	2973139	2971712	-
x	2973533	2973141	-
x	2973790	2973530	-
x	2974172	2973807	-
x	2974169	2973807	-
x	2975299	2974172	-
x	2975671	2975444	-
x	2975911	2975444	-
x	2976057	2975668	-
x	2975963	2976235	+
x	2976334	2976567	+
x	2976578	2976832	+
x	2977180	2977461	+
x	2977489	2978355	+
x	2977552	2978355	+
x	2978377	2979135	+
x	2979169	2979735	+
x	2979214	2979735	+
x	2979764	2980234	+
x	2981321	2980212	-
x	2981320	2982096	+
x	2982163	2983749	+
x	2982172	2983749	+
x	2983772	2985073	+
x	2985132	2985542	+
x	2986362	2985610	-
x	2987054	2986359	-
x	2988418	2987060	-
x	2989488	2988415	-
x	2989541	2990371	+
x	2990429	2991214	+
x	2990582	2991214	+
x	2991216	2992532	+
x	2994445	2992529	-
x	2994589	2995086	+
x	2995091	2996380	+
x	2996460	2997746	+
x	2998515	2997757	-
x	2999225	2998512	-
x	3000127	2999222	-
x	3001539	3000322	-
x	3003686	3001713	-
x	3003821	3004504	+
x	3004501	3005163	+
x	3005845	3005174	-
x	3006244	3005876	-
x	3006349	3005876	-
x	3006393	3007100	+
x	3008085	3007306	-
x	3008624	3008160	-
x	3008650	3009135	+
x	3009442	3009140	-
x	3009680	3010330	+
x	3011212	3010340	-
x	3011335	3012132	+
x	3012312	3013898	+
x	3013935	3014363	+
x	3014680	3014291	-
x	3014934	3014677	-
x	3014800	3014988	+
x	3015050	3016024	+
x	3016312	3016025	-
x	3016273	3016025	-
x	3016342	3016025	-
x	3016316	3016762	+
x	3016872	3017909	+
x	3016908	3017909	+
x	3016938	3017909	+
x	3018042	3018734	+
x	3019814	3018747	-
x	3019805	3018747	-
x	3019909	3021324	+
x	3019918	3021324	+
x	3021542	3022516	+
x	3022575	3023600	+
x	3023649	3024335	+
x	3024838	3024344	-
x	3025354	3024890	-
x	3026014	3025517	-
x	3026265	3026975	+
x	3026322	3026975	+
x	3029096	3026997	-
x	3029112	3029360	+
x	3029386	3030579	+
x	3031768	3030608	-
x	3033391	3031904	-
x	3034277	3033408	-
x	3035246	3034302	-
x	3035935	3035243	-
x	3035938	3035243	-
x	3036952	3036047	-
x	3037019	3037495	+
x	3037503	3038855	+
x	3039466	3038852	-
x	3039472	3038852	-
x	3041001	3039463	-
x	3041100	3039463	-
x	3041298	3042152	+
x	3043029	3042037	-
x	3043563	3043039	-
x	3045901	3043529	-
x	3046096	3046269	+
x	3046489	3046283	-
x	3047666	3046500	-
x	3047710	3048159	+
x	3048066	3048332	+
x	3048271	3049968	+
x	3048289	3049968	+
x	3048391	3049968	+
x	3050825	3049992	-
x	3051709	3050897	-
x	3052540	3051728	-
x	3053008	3052670	-
x	3053708	3053079	-
x	3053739	3054263	+
x	3056983	3054332	-
x	3056982	3057296	+
x	3057293	3058111	+
x	3058115	3059005	+
x	3060668	3058992	-
x	3061610	3060699	-
x	3061601	3060699	-
x	3062422	3061670	-
x	3062941	3062666	-
x	3064560	3062938	-
x	3065063	3064647	-
x	3065326	3065060	-
x	3065747	3065352	-
x	3066013	3065744	-
x	3067117	3066023	-
x	3067533	3067114	-
x	3068092	3067607	-
x	3068086	3067607	-
x	3068948	3068157	-
x	3068957	3068157	-
x	3069113	3069850	+
x	3070847	3070065	-
x	3071197	3070844	-
x	3071370	3071080	-
x	3072555	3071371	-
x	3073462	3072635	-
x	3074994	3073786	-
x	3074934	3073786	-
x	3075510	3075058	-
x	3076069	3075596	-
x	3076818	3076081	-
x	3077233	3076829	-
x	3077290	3077961	+
x	3077386	3077961	+
x	3077736	3078062	+
x	3078113	3078997	+
x	3078161	3078997	+
x	3080301	3079210	-
x	3080139	3079210	-
x	3081391	3080321	-
x	3082019	3081549	-
x	3082590	3082051	-
x	3082656	3083771	+
x	3084820	3083786	-
x	3086197	3084881	-
x	3088433	3086175	-
x	3089302	3088787	-
x	3089584	3089315	-
x	3090736	3089741	-
x	3090947	3092710	+
x	3092795	3093481	+
x	3094774	3093542	-
x	3096005	3094800	-
x	3097417	3096038	-
x	3098028	3097417	-
x	3098022	3097417	-
x	3097998	3097417	-
x	3099096	3098200	-
x	3099776	3099093	-
x	3100747	3099773	-
x	3101455	3100892	-
x	3103143	3101455	-
x	3103494	3103147	-
x	3103473	3103147	-
x	3103604	3104233	+
x	3104252	3105901	+
x	3106359	3106003	-
x	3106567	3106343	-
x	3106573	3106343	-
x	3107659	3106616	-
x	3107658	3108125	+
x	3108265	3108630	+
x	3108930	3108301	-
x	3108676	3109107	+
x	3108703	3109107	+
x	3109104	3109295	+
x	3109494	3110648	+
x	3109497	3110648	+
x	3110870	3111139	+
x	3110882	3111139	+
x	3111244	3111555	+
x	3111975	3112583	+
x	3112654	3114063	+
x	3114060	3114872	+
x	3117212	3116328	-
x	3117164	3116328	-
x	3117589	3117263	-
x	3119623	3119282	-
x	3120649	3119624	-
x	3120640	3119624	-
x	3121801	3120653	-
x	3121900	3120653	-
x	3123024	3121897	-
x	3123929	3123021	-
x	3124620	3123910	-
x	3125004	3124630	-
x	3127439	3125001	-
x	3128380	3127436	-
x	3129298	3128558	-
x	3129280	3128558	-
x	3129103	3128558	-
x	3130265	3129375	-
x	3130259	3129375	-
x	3131149	3130262	-
x	3131164	3130262	-
x	3131999	3131454	-
x	3132721	3131996	-
x	3132265	3131996	-
x	3132678	3132286	-
x	3132690	3132286	-
x	3132890	3132675	-
x	3132937	3133686	+
x	3134847	3133765	-
x	3136150	3134840	-
x	3136980	3136153	-
x	3137888	3136977	-
x	3139294	3137975	-
x	3139285	3137975	-
x	3140311	3139301	-
x	3140837	3140286	-
x	3143539	3140837	-
x	3143924	3143625	-
x	3145094	3144051	-
x	3145642	3145091	-
x	3145837	3146382	+
x	3146379	3146867	+
x	3148616	3146868	-
x	3150297	3148705	-
x	3151537	3150320	-
x	3153187	3151814	-
x	3153810	3153187	-
x	3155720	3153831	-
x	3156187	3155717	-
x	3157727	3156246	-
x	3157790	3159781	+
x	3157934	3159781	+
x	3157937	3159781	+
x	3159818	3160858	+
x	3160871	3162250	+
x	3162350	3163468	+
x	3163534	3163866	+
x	3163878	3164093	+
x	3165022	3164249	-
x	3165025	3164249	-
x	3166389	3165022	-
x	3167204	3166386	-
x	3168558	3167185	-
x	3169575	3168718	-
x	3170201	3169617	-
x	3170359	3170553	+
x	3170550	3170930	+
x	3172823	3171012	-
x	3172868	3171012	-
x	3173095	3173376	+
x	3173380	3173643	+
x	3174870	3174016	-
x	3176089	3174926	-
x	3177320	3176106	-
x	3178569	3177328	-
x	3178617	3177328	-
x	3178696	3178953	+
x	3178940	3179383	+
x	3179406	3180125	+
x	3179463	3180125	+
x	3180221	3180412	+
x	3180405	3182492	+
x	3182579	3183169	+
x	3182588	3183169	+
x	3183221	3183535	+
x	3184429	3183566	-
x	3184955	3184434	-
x	3186235	3185141	-
x	3187178	3186258	-
x	3187758	3187201	-
x	3188715	3187930	-
x	3188950	3189708	+
x	3191102	3189723	-
x	3191105	3189723	-
x	3191719	3191102	-
x	3191773	3191102	-
x	3191989	3191102	-
x	3191689	3191102	-
x	3191713	3191102	-
x	3191988	3192407	+
x	3193842	3192421	-
x	3194664	3193849	-
x	3195539	3194676	-
x	3195823	3196572	+
x	3197565	3196351	-
x	3197577	3196351	-
x	3197977	3198954	+
x	3199847	3198951	-
x	3200789	3199938	-
x	3201991	3200822	-
x	3203499	3201988	-
x	3203885	3203499	-
x	3203924	3203499	-
x	3204963	3204133	-
x	3207302	3204963	-
x	3207665	3207360	-
x	3208513	3207719	-
x	3209411	3208527	-
x	3209810	3209469	-
x	3210185	3211129	+
x	3211914	3211222	-
x	3212448	3211918	-
x	3212704	3212462	-
x	3213200	3212712	-
x	3213827	3213384	-
x	3213896	3214771	+
x	3215418	3214831	-
x	3217255	3215420	-
x	3219081	3217324	-
x	3220237	3219125	-
x	3221842	3220265	-
x	3221920	3223800	+
x	3226236	3224800	-
x	3226632	3226294	-
x	3228062	3226629	-
x	3229639	3228371	-
x	3233306	3229689	-
x	3233599	3233318	-
x	3233999	3233586	-
x	3234970	3234101	-
x	3235015	3234101	-
x	3235206	3235015	-
x	3235285	3235070	-
x	3236051	3235329	-
x	3236671	3236048	-
x	3237459	3236722	-
x	3237698	3238483	+
x	3238470	3238781	+
x	3239068	3240948	+
x	3239197	3240948	+
x	3240945	3246575	+
x	3246572	3251188	+
x	3246575	3251188	+
x	3251185	3257751	+
x	3257748	3263231	+
x	3263237	3267703	+
x	3267693	3268709	+
x	3267714	3268709	+
x	3268706	3269575	+
x	3269572	3270402	+
x	3270449	3271717	+
x	3278215	3271880	-
x	3278835	3280577	+
x	3280570	3283332	+
x	3283964	3285205	+
x	3285205	3285735	+
x	3285290	3286006	+
x	3285467	3286006	+
x	3286825	3286124	-
x	3291865	3287003	-
x	3291853	3287003	-
x	3292140	3291850	-
x	3293339	3292137	-
x	3295453	3293336	-
x	3296069	3295470	-
x	3297954	3296095	-
x	3297843	3296095	-
x	3299747	3298602	-
x	3299940	3300752	+
x	3300778	3302034	+
x	3302890	3302165	-
x	3304053	3303079	-
x	3304044	3303079	-
x	3304167	3304898	+
x	3304969	3305796	+
x	3307499	3306213	-
x	3308337	3307600	-
x	3308700	3308452	-
x	3308782	3309171	+
x	3309228	3308815	-
x	3310090	3309272	-
x	3310621	3310127	-
x	3310735	3311955	+
x	3312028	3312960	+
x	3312966	3313484	+
x	3313600	3313785	+
x	3314314	3313829	-
x	3314966	3314400	-
x	3318545	3315162	-
x	3319202	3318570	-
x	3319975	3319208	-
x	3319993	3319208	-
x	3321202	3320072	-
x	3321433	3321603	+
x	3321600	3322448	+
x	3323235	3322522	-
x	3325445	3323232	-
x	3326860	3325448	-
x	3327111	3326857	-
x	3327353	3327547	+
x	3328253	3327570	-
x	3329287	3328286	-
x	3330663	3329284	-
x	3331247	3330663	-
x	3331277	3330663	-
x	3331429	3332004	+
x	3331459	3332004	+
x	3333180	3332059	-
x	3333135	3332059	-
x	3334262	3333258	-
x	3334354	3335025	+
x	3334381	3335025	+
x	3335117	3337345	+
x	3335120	3337345	+
x	3337428	3338381	+
x	3339083	3338439	-
x	3339892	3339296	-
x	3341338	3339917	-
x	3341410	3342111	+
x	3342982	3342122	-
x	3343245	3343736	+
x	3345540	3344068	-
x	3346334	3345537	-
x	3346382	3345537	-
x	3346256	3345537	-
x	3346532	3347869	+
x	3348731	3347721	-
x	3350332	3348746	-
x	3350362	3351804	+
x	3352196	3351996	-
x	3352078	3352539	+
x	3352691	3352488	-
x	3352850	3353830	+
x	3352865	3353830	+
x	3353875	3354534	+
x	3354801	3354583	-
x	3355849	3354848	-
x	3355861	3354848	-
x	3356393	3355887	-
x	3358249	3356393	-
x	3358572	3358949	+
x	3358602	3358949	+
x	3358611	3358949	+
x	3359795	3358956	-
x	3359909	3361093	+
x	3359972	3361093	+
x	3361713	3361099	-
x	3361907	3362530	+
x	3364056	3362527	-
x	3365117	3364086	-
x	3366697	3365213	-
x	3366993	3366694	-
x	3367012	3367734	+
x	3367078	3367734	+
x	3369883	3367808	-
x	3370927	3369914	-
x	3371021	3371650	+
x	3372115	3371753	-
x	3372118	3371753	-
x	3373506	3372202	-
x	3373795	3373592	-
x	3373876	3373592	-
x	3373934	3373758	-
x	3374264	3373974	-
x	3374592	3374299	-
x	3374607	3374299	-
x	3375946	3374639	-
x	3376356	3375943	-
x	3376257	3375943	-
x	3377949	3376639	-
x	3377934	3376639	-
x	3377886	3376639	-
x	3379152	3378049	-
x	3380330	3379149	-
x	3381341	3380427	-
x	3382183	3381338	-
x	3382078	3381338	-
x	3383295	3382339	-
x	3384134	3383334	-
x	3384365	3385189	+
x	3385186	3386766	+
x	3386798	3388042	+
x	3386810	3388042	+
x	3388076	3388465	+
x	3388644	3389192	+
x	3390185	3389283	-
x	3390137	3389283	-
x	3390643	3391725	+
x	3392405	3391722	-
x	3393554	3392478	-
x	3394672	3393689	-
x	3395468	3394683	-
x	3395447	3394683	-
x	3396322	3395456	-
x	3397182	3396319	-
x	3398426	3397197	-
x	3400185	3398464	-
x	3400231	3400482	+
x	3400400	3401479	+
x	3401549	3402589	+
x	3402952	3402578	-
x	3403570	3403286	-
x	3404642	3403668	-
x	3406347	3404773	-
x	3407221	3406481	-
x	3409526	3407349	-
x	3409430	3407349	-
x	3409948	3409496	-
x	3410222	3409983	-
x	3410604	3410200	-
x	3411239	3410685	-
x	3411331	3411945	+
x	3411955	3412995	+
x	3413912	3413049	-
x	3414626	3413976	-
x	3414656	3413976	-
x	3414742	3416220	+
x	3418463	3416991	-
x	3420382	3418580	-
x	3420692	3420402	-
x	3420849	3422372	+
x	3422502	3424784	+
x	3422508	3424784	+
x	3424833	3425015	+
x	3425515	3425090	-
x	3425652	3425975	+
x	3425972	3426580	+
x	3426693	3427103	+
x	3428887	3427244	-
x	3428957	3429355	+
x	3429352	3429732	+
x	3429729	3430838	+
x	3431587	3431063	-
x	3431578	3431063	-
x	3431950	3431594	-
x	3432044	3433318	+
x	3434238	3433315	-
x	3434337	3434813	+
x	3434806	3436617	+
x	3436618	3437019	+
x	3437862	3437035	-
x	3441253	3437921	-
x	3441305	3442543	+
x	3443691	3442669	-
x	3443694	3442669	-
x	3443769	3445256	+
x	3445262	3446188	+
x	3446185	3447015	+
x	3447046	3448152	+
x	3448187	3449608	+
x	3448190	3449608	+
x	3449605	3451029	+
x	3451026	3452537	+
x	3453476	3454363	+
x	3454381	3456072	+
x	3456999	3456079	-
x	3458029	3457025	-
x	3459156	3458026	-
x	3459238	3459714	+
x	3459812	3460951	+
x	3462356	3461043	-
x	3462927	3462475	-
x	3462871	3463191	+
x	3464529	3463678	-
x	3465048	3464566	-
x	3465944	3465051	-
x	3466634	3465945	-
x	3467115	3466678	-
x	3467154	3466678	-
x	3468043	3467117	-
x	3469169	3468033	-
x	3469273	3470643	+
x	3472227	3470644	-
x	3472326	3472766	+
x	3472915	3473994	+
x	3474045	3474440	+
x	3474437	3474949	+
x	3474966	3475217	+
x	3475340	3475642	+
x	3475691	3476017	+
x	3476068	3476952	+
x	3476116	3476952	+
x	3477055	3477366	+
x	3477383	3477913	+
x	3478012	3479322	+
x	3478027	3479322	+
x	3478075	3479322	+
x	3479400	3480569	+
x	3480598	3481431	+
x	3481433	3481735	+
x	3481756	3482199	+
x	3482196	3482798	+
x	3483133	3484335	+
x	3484713	3485183	+
x	3485193	3485687	+
x	3485208	3485687	+
x	3486106	3486999	+
x	3486130	3486999	+
x	3488275	3487100	-
x	3488746	3488432	-
x	3488771	3489805	+
x	3490142	3489792	-
x	3490817	3490224	-
x	3490805	3490224	-
x	3491284	3491616	+
x	3492990	3491599	-
x	3493175	3494173	+
x	3495889	3494153	-
x	3496539	3495886	-
x	3497373	3496567	-
x	3497799	3498356	+
x	3497958	3498356	+
x	3498418	3499560	+
x	3499883	3499569	-
x	3499901	3499569	-
x	3500017	3500799	+
x	3500819	3501907	+
x	3501987	3503393	+
x	3503414	3504619	+
x	3504719	3505690	+
x	3506170	3505742	-
x	3506278	3506679	+
x	3507941	3506712	-
x	3507929	3506712	-
x	3508201	3508692	+
x	3508216	3508692	+
x	3508306	3508692	+
x	3508701	3509255	+
x	3509252	3509962	+
x	3509962	3511284	+
x	3511281	3512039	+
x	3512036	3513373	+
x	3513370	3515790	+
x	3515897	3517138	+
x	3515906	3517138	+
x	3517110	3517766	+
x	3517131	3517766	+
x	3517763	3518551	+
x	3518548	3518847	+
x	3518858	3520759	+
x	3520756	3522417	+
x	3522414	3524009	+
x	3525787	3524015	-
x	3525946	3524015	-
x	3526603	3525962	-
x	3527762	3526614	-
x	3527771	3526614	-
x	3528269	3527832	-
x	3529537	3528266	-
x	3530529	3529567	-
x	3531019	3530537	-
x	3531975	3531016	-
x	3532681	3532055	-
x	3532726	3533862	+
x	3533862	3534986	+
x	3535111	3536475	+
x	3535129	3536475	+
x	3537369	3536470	-
x	3537988	3537506	-
x	3538669	3538067	-
x	3538762	3539469	+
x	3539484	3540971	+
x	3541924	3540968	-
x	3542071	3542931	+
x	3543062	3543421	+
x	3543661	3543954	+
x	3544167	3545531	+
x	3544242	3545531	+
x	3546312	3545878	-
x	3546767	3546315	-
x	3546998	3547342	+
x	3547339	3547668	+
x	3548206	3548553	+
x	3548550	3549170	+
x	3550595	3549330	-
x	3550763	3550972	+
x	3552277	3551219	-
x	3552403	3551219	-
x	3552253	3551219	-
x	3552761	3552537	-
x	3552888	3552706	-
x	3553468	3553932	+
x	3553471	3553932	+
x	3557080	3554102	-
x	3558194	3557172	-
x	3558272	3559690	+
x	3559696	3560595	+
x	3560804	3560604	-
x	3560932	3562275	+
x	3562587	3562309	-
x	3565206	3563017	-
x	3565119	3563017	-
x	3565243	3565497	+
x	3566451	3565510	-
x	3567577	3566510	-
x	3570944	3567639	-
x	3574108	3570941	-
x	3574185	3574403	+
x	3574194	3574403	+
x	3574434	3575219	+
x	3574545	3575219	+
x	3575222	3575527	+
x	3576412	3575534	-
x	3577617	3576439	-
x	3578694	3577708	-
x	3578565	3577708	-
x	3578911	3579597	+
x	3579871	3579584	-
x	3579856	3579584	-
x	3580392	3580063	-
x	3580181	3580741	+
x	3581446	3580751	-
x	3581705	3583288	+
x	3583301	3584524	+
x	3585400	3584600	-
x	3585479	3586165	+
x	3585554	3586165	+
x	3586162	3587280	+
x	3587428	3587760	+
x	3588143	3587712	-
x	3588376	3589341	+
x	3589634	3589888	+
x	3591455	3589950	-
x	3591687	3591472	-
x	3591711	3591472	-
x	3592277	3591972	-
x	3592825	3592274	-
x	3593472	3592822	-
x	3593589	3592822	-
x	3593772	3594620	+
x	3594556	3594744	+
x	3594943	3594716	-
x	3594722	3594940	+
x	3596361	3594937	-
x	3597243	3596485	-
x	3597298	3598650	+
x	3598647	3599639	+
x	3600955	3599672	-
x	3602175	3601033	-
x	3602794	3602285	-
x	3603678	3602791	-
x	3604304	3603702	-
x	3604292	3603702	-
x	3605110	3604295	-
x	3605221	3605862	+
x	3607037	3605880	-
x	3607524	3607042	-
x	3608319	3607585	-
x	3611524	3608378	-
x	3614452	3611603	-
x	3615175	3614531	-
x	3616132	3615491	-
x	3617012	3616170	-
x	3618831	3617080	-
x	3618843	3617080	-
x	3620534	3618831	-
x	3621270	3620584	-
x	3621984	3621340	-
x	3623568	3622081	-
x	3624308	3623673	-
x	3624487	3624305	-
x	3624659	3624492	-
x	3625909	3624659	-
x	3627505	3626018	-
x	3627560	3628984	+
x	3627596	3628984	+
x	3630188	3628962	-
x	3631236	3630196	-
x	3632630	3631233	-
x	3633223	3632732	-
x	3633238	3633765	+
x	3633346	3633765	+
x	3634062	3633793	-
x	3634164	3633793	-
x	3634464	3635459	+
x	3635456	3636802	+
x	3636835	3636948	+
x	3637098	3638759	+
x	3639898	3638819	-
x	3640823	3639900	-
x	3640805	3639900	-
x	3641730	3640816	-
x	3641806	3643302	+
x	3641809	3643302	+
x	3643290	3644030	+
x	3643341	3644030	+
x	3644155	3644436	+
x	3644447	3646603	+
x	3647268	3646600	-
x	3647369	3648553	+
x	3648558	3650852	+
x	3652010	3650841	-
x	3652559	3652035	-
x	3653845	3652556	-
x	3653799	3654617	+
x	3655090	3654572	-
x	3655933	3655133	-
x	3655983	3657629	+
x	3657610	3658080	+
x	3657652	3658080	+
x	3658077	3658745	+
x	3658714	3659679	+
x	3658786	3659679	+
x	3659676	3660107	+
x	3660215	3662017	+
x	3662812	3662027	-
x	3663435	3662809	-
x	3663246	3662809	-
x	3663857	3663444	-
x	3664269	3663892	-
x	3665652	3664303	-
x	3666155	3665703	-
x	3666186	3667433	+
x	3667460	3668944	+
x	3669853	3669044	-
x	3669924	3670589	+
x	3670633	3675174	+
x	3675178	3675945	+
x	3676882	3675968	-
x	3679821	3676909	-
x	3680758	3679841	-
x	3681435	3680770	-
x	3683300	3681543	-
x	3684826	3683381	-
x	3684796	3683381	-
x	3684941	3685420	+
x	3686608	3685439	-
x	3687789	3686605	-
x	3687854	3688660	+
x	3688664	3690268	+
x	3690893	3690270	-
x	3690998	3691897	+
x	3691921	3693183	+
x	3694130	3693204	-
x	3694326	3694156	-
x	3694816	3694505	-
x	3695984	3694887	-
x	3697267	3695984	-
x	3697752	3697264	-
x	3697665	3697264	-
x	3697806	3698240	+
x	3697902	3698240	+
x	3698237	3698671	+
x	3698800	3700572	+
x	3700572	3701363	+
x	3701870	3701442	-
x	3702116	3701874	-
x	3702852	3702238	-
x	3702870	3702238	-
x	3703514	3702849	-
x	3704048	3703515	-
x	3704069	3703515	-
x	3704419	3704045	-
x	3705316	3704480	-
x	3705364	3704480	-
x	3705741	3705415	-
x	3705984	3705790	-
x	3705993	3705790	-
x	3706044	3707360	+
x	3707429	3708646	+
x	3708742	3710250	+
x	3710247	3711398	+
x	3712434	3711589	-
x	3712411	3712890	+
x	3712909	3713349	+
x	3714252	3713383	-
x	3715283	3714273	-
x	3715308	3715694	+
x	3715454	3716200	+
x	3715556	3716200	+
x	3717496	3716267	-
x	3717748	3717536	-
x	3717779	3719128	+
x	3719140	3720279	+
x	3720276	3721007	+
x	3728614	3721016	-
x	3728629	3721016	-
x	3729694	3728678	-
x	3734378	3729852	-
x	3735059	3734802	-
x	3742733	3735315	-
x	3744752	3735315	-
x	3744788	3735315	-
x	3745350	3744826	-
x	3745317	3744826	-
x	3745369	3745860	+
x	3746841	3745897	-
x	3746637	3745897	-
x	3747168	3746932	-
x	3758706	3747556	-
x	3758580	3747556	-
x	3758919	3747556	-
x	3759744	3758950	-
x	3760197	3759826	-
x	3760600	3760340	-
x	3760715	3761104	+
x	3761411	3761118	-
x	3762253	3761408	-
x	3762377	3762652	+
x	3762649	3762906	+
x	3762948	3764138	+
x	3764255	3764623	+
x	3765171	3764620	-
x	3765759	3765178	-
x	3766108	3765740	-
x	3766478	3766086	-
x	3769105	3766475	-
x	3769341	3769805	+
x	3770070	3771947	+
x	3770172	3771947	+
x	3772592	3771948	-
x	3772591	3773025	+
x	3776389	3773114	-
x	3776410	3773114	-
x	3776353	3773114	-
x	3776545	3777885	+
x	3777927	3779102	+
x	3779339	3779980	+
x	3779981	3780229	+
x	3780234	3781661	+
x	3781769	3782422	+
x	3783966	3782461	-
x	3784861	3783971	-
x	3786480	3784870	-
x	3786706	3786425	-
x	3787698	3786703	-
x	3787692	3786703	-
x	3788744	3787692	-
x	3789890	3789498	-
x	3790198	3789890	-
x	3790272	3791051	+
x	3790347	3791051	+
x	3790978	3791718	+
x	3791041	3791718	+
x	3791908	3794103	+
x	3795046	3794174	-
x	3795120	3795830	+
x	3795876	3797828	+
x	3798692	3797829	-
x	3798716	3799642	+
x	3801277	3799697	-
x	3801280	3799697	-
x	3801891	3801277	-
x	3801890	3802600	+
x	3801959	3802600	+
x	3801974	3802600	+
x	3804333	3802756	-
x	3805253	3804345	-
x	3806361	3805282	-
x	3806384	3807430	+
x	3807494	3808282	+
x	3808297	3810657	+
x	3812321	3811083	-
x	3814293	3812692	-
x	3815014	3814310	-
x	3815698	3815132	-
x	3815760	3816647	+
x	3816682	3816981	+
x	3816978	3817388	+
x	3819157	3817421	-
x	3820340	3819213	-
x	3821949	3820360	-
x	3822156	3822566	+
x	3823475	3822576	-
x	3824106	3823468	-
x	3824951	3824064	-
x	3824915	3824064	-
x	3825322	3825630	+
x	3827321	3825702	-
x	3827718	3827416	-
x	3829019	3827985	-
x	3829492	3829016	-
x	3829498	3829016	-
x	3830124	3829489	-
x	3830136	3829489	-
x	3830627	3830121	-
x	3831850	3830624	-
x	3832506	3832144	-
x	3832669	3833205	+
x	3832678	3833205	+
x	3834309	3833146	-
x	3834503	3834348	-
x	3834692	3834528	-
x	3834737	3834528	-
x	3835643	3834798	-
x	3837258	3835876	-
x	3838717	3837296	-
x	3839207	3838719	-
x	3839432	3838719	-
x	3840381	3839443	-
x	3840297	3839443	-
x	3842393	3840519	-
x	3842415	3842891	+
x	3842901	3843743	+
x	3845166	3843763	-
x	3845480	3845169	-
x	3846874	3845528	-
x	3847454	3846999	-
x	3847894	3847451	-
x	3848429	3848127	-
x	3848827	3848450	-
x	3850034	3848820	-
x	3853741	3850031	-
x	3853855	3855258	+
x	3855255	3856622	+
x	3858035	3856587	-
x	3857999	3856587	-
x	3858011	3856587	-
x	3858120	3858908	+
x	3858940	3859635	+
x	3858955	3859635	+
x	3859907	3860239	+
x	3860262	3861593	+
x	3860325	3861593	+
x	3862448	3861555	-
x	3862325	3861555	-
x	3862935	3862393	-
x	3864010	3862967	-
x	3864767	3864162	-
x	3865195	3864776	-
x	3865573	3865199	-
x	3865902	3865789	-
x	3866156	3865935	-
x	3866285	3865935	-
x	3866410	3867267	+
x	3867340	3868335	+
x	3868337	3868945	+
x	3869028	3869696	+
x	3869461	3870420	+
x	3869467	3870420	+
x	3869557	3870420	+
x	3869701	3870420	+
x	3871572	3870478	-
x	3872586	3871576	-
x	3874305	3872647	-
x	3874320	3872647	-
x	3874844	3874311	-
x	3874865	3875371	+
x	3876320	3875451	-
x	3876236	3875451	-
x	3877865	3876516	-
x	3878238	3878534	+
x	3878571	3879752	+
x	3878574	3879752	+
x	3879782	3883030	+
x	3879935	3883030	+
x	3879965	3883030	+
x	3884547	3883054	-
x	3885348	3884638	-
x	3885384	3884638	-
x	3885327	3884638	-
x	3886251	3885469	-
x	3886957	3886295	-
x	3887223	3888761	+
x	3889711	3888767	-
x	3889917	3890366	+
x	3891152	3890319	-
x	3891812	3892135	+
x	3892217	3892381	+
x	3892381	3893883	+
x	3894035	3894613	+
x	3895092	3894610	-
x	3895820	3895092	-
x	3897514	3895820	-
x	3898679	3897525	-
x	3900028	3898676	-
x	3900031	3898676	-
x	3901101	3900028	-
x	3902143	3901091	-
x	3903345	3902143	-
x	3904207	3903365	-
x	3905006	3904242	-
x	3906185	3905232	-
x	3906401	3906210	-
x	3906616	3907818	+
x	3907843	3908964	+
x	3909035	3910543	+
x	3910714	3914925	+
x	3915177	3922184	+
x	3915216	3922184	+
x	3923898	3922351	-
x	3924731	3923895	-
x	3925091	3930757	+
x	3931542	3930886	-
x	3931588	3934848	+
x	3937055	3935409	-
x	3937129	3937920	+
x	3938016	3938855	+
x	3940106	3938910	-
x	3940135	3940845	+
x	3941953	3940910	-
x	3942013	3943017	+
x	3942106	3943017	+
x	3943033	3944097	+
x	3944114	3945298	+
x	3945340	3946371	+
x	3946909	3946385	-
x	3947024	3948184	+
x	3948190	3948639	+
x	3949777	3949064	-
x	3951623	3950469	-
x	3952405	3951623	-
x	3953529	3952402	-
x	3953928	3955148	+
x	3957038	3955290	-
x	3958177	3957137	-
x	3959085	3958174	-
x	3959881	3959096	-
x	3959945	3961645	+
x	3959954	3961645	+
x	3961647	3962507	+
x	3962644	3964083	+
x	3965244	3964084	-
x	3965633	3965244	-
x	3966565	3965630	-
x	3967725	3966562	-
x	3968729	3967710	-
x	3968747	3967710	-
x	3970030	3968729	-
x	3970142	3971317	+
x	3971429	3971884	+
x	3972881	3971967	-
x	3973683	3972904	-
x	3973738	3974481	+
x	3974481	3975359	+
x	3975356	3976108	+
x	3976206	3977273	+
x	3977270	3979327	+
x	3980284	3979415	-
x	3981549	3980389	-
x	3982216	3981614	-
x	3982325	3984220	+
x	3982565	3984220	+
x	3985017	3984229	-
x	3986171	3985014	-
x	3986219	3987742	+
x	3987743	3988876	+
x	3988873	3989832	+
x	3989829	3990785	+
x	3990782	3991948	+
x	3993301	3991913	-
x	3992764	3991913	-
x	3993015	3992749	-
x	3993864	3993301	-
x	3994781	3993879	-
x	3995653	3994778	-
x	3996852	3995668	-
x	3996999	3998075	+
x	3998093	3998623	+
x	4000794	3998659	-
x	4000778	4001665	+
x	4000934	4001665	+
x	4001066	4001665	+
x	4002750	4001671	-
x	4002885	4001671	-
x	4002940	4003653	+
x	4003790	4004710	+
x	4003844	4004710	+
x	4004724	4005965	+
x	4006975	4006007	-
x	4008385	4006976	-
x	4008929	4008450	-
x	4009621	4008926	-
x	4010126	4009638	-
x	4010412	4010960	+
x	4011026	4012468	+
x	4012473	4013549	+
x	4014344	4013550	-
x	4014368	4013550	-
x	4015076	4014453	-
x	4015075	4015989	+
x	4017740	4015986	-
x	4018624	4017851	-
x	4018639	4018956	+
x	4018934	4020292	+
x	4020439	4021266	+
x	4021878	4021180	-
x	4022632	4021313	-
x	4025286	4022740	-
x	4025901	4025563	-
x	4027522	4026005	-
x	4027617	4027534	-
x	4028441	4027623	-
x	4028863	4028444	-
x	4029792	4028863	-
x	4030700	4029789	-
x	4030763	4029789	-
x	4032078	4030885	-
x	4032763	4032287	-
x	4033329	4032763	-
x	4033727	4033326	-
x	4034562	4033720	-
x	4035167	4034559	-
x	4037465	4035183	-
x	4037437	4038138	+
x	4037532	4038185	+
x	4038429	4038100	-
x	4038624	4038463	-
x	4039278	4038724	-
x	4039705	4039394	-
x	4040957	4039779	-
x	4042315	4043283	+
x	4043280	4044467	+
x	4044850	4044566	-
x	4045173	4044877	-
x	4044996	4044877	-
x	4046471	4045230	-
x	4046780	4046481	-
x	4047031	4047831	+
x	4047109	4047831	+
x	4048486	4047836	-
x	4049454	4048483	-
x	4050494	4049433	-
x	4050485	4049433	-
x	4051867	4050482	-
x	4052005	4052493	+
x	4053636	4052539	-
x	4053757	4055052	+
x	4055096	4055821	+
x	4055108	4055821	+
x	4055818	4056162	+
x	4056373	4057248	+
x	4058193	4057249	-
x	4058217	4057249	-
x	4058216	4059991	+
x	4060334	4060681	+
x	4061066	4061566	+
x	4061566	4062312	+
x	4063370	4062486	-
x	4063322	4062486	-
x	4063747	4063421	-
x	4064390	4063824	-
x	4065689	4064460	-
x	4066500	4065865	-
x	4066705	4066511	-
x	4067100	4067291	+
x	4068661	4067456	-
x	4068664	4067456	-
x	4068747	4070396	+
x	4073197	4070393	-
x	4074128	4073550	-
x	4074471	4074268	-
x	4074721	4077036	+
x	4077173	4077457	+
x	4077781	4078818	+
x	4079578	4079333	-
x	4079565	4079885	+
x	4079879	4080466	+
x	4079921	4080466	+
x	4080907	4080599	-
x	4080853	4080599	-
x	4080922	4080599	-
x	4081481	4080939	-
x	4081238	4080939	-
x	4081468	4081262	-
x	4082053	4081478	-
x	4082158	4081478	-
x	4082877	4082077	-
x	4083932	4082874	-
x	4084037	4082874	-
x	4085107	4084034	-
x	4085086	4084034	-
x	4085585	4086448	+
x	4087973	4087203	-
x	4089616	4087970	-
x	4090476	4089613	-
x	4090413	4089613	-
x	4091395	4090469	-
x	4093022	4091397	-
x	4093108	4093464	+
x	4093398	4093607	+
x	4093413	4093607	+
x	4093730	4095685	+
x	4096419	4095721	-
x	4096765	4097283	+
x	4097284	4098267	+
x	4099453	4098260	-
x	4100280	4099459	-
x	4101095	4100412	-
x	4101832	4101095	-
x	4101940	4102317	+
x	4102416	4103090	+
x	4103990	4103196	-
x	4104452	4103997	-
x	4104629	4104468	-
x	4104714	4105736	+
x	4105733	4106893	+
x	4107492	4107136	-
x	4107854	4110286	+
x	4110355	4111314	+
x	4111311	4112417	+
x	4111377	4112417	+
x	4114663	4113233	-
x	4115138	4114689	-
x	4115054	4114689	-
x	4115027	4114689	-
x	4115021	4114689	-
x	4115629	4115261	-
x	4116295	4115831	-
x	4116295	4117650	+
x	4117629	4118330	+
x	4117677	4118330	+
x	4118327	4119457	+
x	4118378	4119457	+
x	4118456	4119457	+
x	4119454	4120530	+
x	4120622	4121986	+
x	4120664	4121986	+
x	4123052	4122060	-
x	4123144	4124076	+
x	4125693	4124140	-
x	4126180	4125743	-
x	4126401	4126177	-
x	4126431	4127960	+
x	4127982	4128683	+
x	4129873	4128686	-
x	4129858	4128686	-
x	4130854	4129889	-
x	4131552	4130851	-
x	4132829	4131552	-
x	4134124	4132826	-
x	4134900	4134256	-
x	4135418	4135029	-
x	4135849	4135529	-
x	4137074	4135968	-
x	4136978	4135968	-
x	4138155	4137118	-
x	4139421	4138156	-
x	4139678	4141612	+
x	4139798	4141612	+
x	4142667	4141678	-
x	4142919	4144160	+
x	4144153	4144860	+
x	4144165	4144860	+
x	4145759	4144869	-
x	4146438	4145827	-
x	4146851	4146450	-
x	4146833	4146450	-
x	4146986	4147711	+
x	4148196	4147753	-
x	4148244	4149656	+
x	4148256	4149656	+
x	4149653	4150936	+
x	4149674	4150936	+
x	4152669	4150933	-
x	4154066	4152759	-
x	4154474	4155238	+
x	4155405	4155647	+
x	4155484	4156107	+
x	4155544	4156107	+
x	4156152	4157081	+
x	4157359	4158552	+
x	4158893	4160701	+
x	4160811	4164008	+
x	4164187	4166553	+
x	4164223	4166553	+
x	4167658	4166618	-
x	4167696	4168772	+
x	4168872	4169930	+
x	4170450	4169950	-
x	4171828	4170464	-
x	4172027	4172515	+
x	4172572	4173633	+
x	4173637	4175226	+
x	4176170	4175223	-
x	4176455	4176222	-
x	4178117	4176771	-
x	4178791	4178117	-
x	4179183	4178788	-
x	4181311	4179329	-
x	4181333	4181740	+
x	4181378	4181740	+
x	4182036	4181824	-
x	4182444	4182109	-
x	4182662	4183045	+
x	4183175	4183534	+
x	4184076	4183567	-
x	4184536	4184144	-
x	4184812	4185027	+
x	4185643	4185185	-
x	4186159	4185659	-
x	4186180	4185659	-
x	4186293	4187264	+
x	4186320	4187264	+
x	4186359	4187264	+
x	4187826	4187227	-
x	4188551	4187832	-
x	4189237	4188548	-
x	4190355	4189225	-
x	4191311	4190364	-
x	4191425	4191778	+
x	4191476	4191778	+
x	4192855	4191800	-
x	4194814	4192934	-
x	4194985	4195464	+
x	4196947	4195520	-
x	4197040	4195520	-
x	4197722	4197018	-
x	4197878	4197018	-
x	4198141	4198920	+
x	4198165	4198920	+
x	4198231	4198920	+
x	4199878	4198934	-
x	4200008	4200367	+
x	4200553	4200825	+
x	4201713	4201138	-
x	4202001	4201819	-
x	4202207	4202016	-
x	4202668	4202342	-
x	4203072	4204133	+
x	4204763	4204179	-
x	4204787	4205611	+
x	4205623	4206870	+
x	4206958	4208586	+
x	4207027	4208586	+
x	4208632	4209618	+
x	4210833	4209637	-
x	4210923	4212923	+
x	4212927	4213463	+
x	4213467	4214288	+
x	4214285	4215199	+
x	4215196	4216038	+
x	4216194	4217174	+
x	4217258	4218331	+
x	4219535	4218312	-
x	4220474	4219548	-
x	4220718	4221203	+
x	4221249	4221677	+
x	4221312	4221677	+
x	4221717	4223102	+
x	4223103	4223867	+
x	4223870	4225801	+
x	4225801	4229085	+
x	4229171	4232455	+
x	4232452	4235748	+
x	4232500	4235748	+
x	4235816	4236943	+
x	4237023	4238804	+
x	4237047	4238804	+
x	4238931	4240265	+
x	4239951	4240265	+
x	4241886	4240318	-
x	4247084	4241883	-
x	4249004	4247091	-
x	4250303	4249293	-
x	4251433	4250501	-
x	4251400	4250501	-
x	4252596	4251580	-
x	4254834	4252891	-
x	4254774	4252891	-
x	4255771	4254863	-
x	4256311	4255778	-
x	4256275	4255778	-
x	4256278	4255778	-
x	4258217	4256304	-
x	4259413	4258214	-
x	4259677	4260531	+
x	4260736	4262355	+
x	4262509	4264023	+
x	4265153	4264332	-
x	4265953	4265168	-
x	4266726	4265971	-
x	4267509	4266730	-
x	4267585	4268340	+
x	4268387	4269937	+
x	4269934	4270269	+
x	4269937	4270269	+
x	4271763	4270357	-
x	4271911	4272624	+
x	4272659	4273873	+
x	4277467	4274198	-
x	4279112	4277577	-
x	4285543	4279163	-
x	4285474	4279163	-
x	4285750	4287504	+
x	4288724	4287501	-
x	4288727	4287501	-
x	4289305	4288724	-
x	4289329	4288724	-
x	4289335	4288724	-
x	4290961	4289336	-
x	4290946	4289336	-
x	4291623	4290994	-
x	4291695	4292177	+
x	4292749	4292174	-
x	4292805	4293596	+
x	4294852	4293593	-
x	4294976	4296334	+
x	4294985	4296334	+
x	4296339	4296752	+
x	4296351	4296752	+
x	4297645	4296947	-
x	4298607	4297642	-
x	4298703	4299479	+
x	4299505	4299918	+
x	4300116	4300661	+
x	4301500	4300676	-
x	4302534	4301506	-
x	4303835	4303623	-
x	4304661	4304185	-
x	4304694	4304185	-
x	4304713	4305204	+
x	4305219	4305578	+
x	4305763	4305978	+
x	4306642	4307265	+
x	4307476	4308009	+
x	4308264	4309172	+
x	4309437	4309835	+
x	4309953	4310609	+
x	4310621	4310905	+
x	4310991	4311416	+
x	4311012	4311416	+
x	4311433	4311906	+
x	4313411	4311942	-
x	4313487	4314137	+
x	4315346	4314339	-
x	4315552	4315355	-
x	4317443	4315977	-
x	4322019	4317436	-
x	4322716	4323888	+
x	4323885	4324211	+
x	4324460	4324110	-
x	4324787	4325965	+
x	4326208	4327416	+
x	4327504	4327815	+
x	4327818	4328669	+
x	4328708	4329259	+
x	4329252	4330973	+
x	4330977	4332419	+
x	4332419	4334662	+
x	4334765	4336540	+
x	4336683	4336979	+
x	4337004	4338119	+
x	4337013	4338119	+
x	4338212	4338514	+
x	4338547	4338834	+
x	4338948	4340948	+
x	4340945	4342480	+
x	4341041	4342480	+
x	4342631	4343473	+
x	4345720	4343531	-
x	4346484	4346137	-
x	4347863	4346481	-
x	4349358	4347970	-
x	4350725	4349355	-
x	4350695	4349355	-
x	4352776	4350917	-
x	4354459	4352846	-
x	4356108	4354456	-
x	4356174	4354456	-
x	4357622	4356093	-
x	4358644	4357619	-
x	4359568	4358738	-
x	4359951	4359664	-
x	4360310	4359987	-
x	4361621	4360422	-
x	4361933	4361700	-
x	4366390	4362200	-
x	4367878	4366391	-
x	4368789	4367881	-
x	4369583	4368939	-
x	4369928	4369596	-
x	4369934	4369596	-
x	4371184	4370090	-
x	4371409	4370090	-
x	4371322	4370090	-
x	4372251	4371316	-
x	4372757	4372308	-
x	4373838	4373308	-
x	4376375	4373835	-
x	4376652	4376380	-
x	4376974	4376663	-
x	4377549	4377040	-
x	4379016	4377574	-
x	4379392	4380138	+
x	4380135	4382543	+
x	4382540	4386094	+
x	4386129	4386719	+
x	4386812	4387576	+
x	4387670	4388677	+
x	4388674	4389024	+
x	4389134	4390354	+
x	4391109	4390375	-
x	4392433	4391399	-
x	4393473	4392430	-
x	4393883	4393470	-
x	4394709	4394146	-
x	4395881	4394781	-
x	4396227	4395865	-
x	4396574	4396224	-
x	4396601	4396224	-
x	4396741	4396598	-
