x	18845	17568	-
x	23273	21738	-
x	26979	26014	-
x	27094	27402	+
x	32068	31925	-
x	33683	33895	+
x	34396	36642	+
x	34408	36642	+
x	41409	42014	+
x	52912	53346	+
x	53456	55801	+
x	53765	55801	+
x	57437	58075	+
x	65093	65518	+
x	68520	68681	+
x	68722	71661	+
x	71728	71967	+
x	86620	85766	-
x	88134	87928	-
x	95547	97022	+
x	104703	103840	-
x	104799	103840	-
x	104559	103840	-
x	105345	104935	-
x	105231	104935	-
x	110437	117669	+
x	131235	131026	-
x	131514	133004	+
x	133152	133901	+
x	140097	140276	+
x	141326	142276	+
x	144017	142260	-
x	144139	145758	+
x	144181	145758	+
x	149665	151308	+
x	150712	151308	+
x	151499	152527	+
x	154491	155858	+
x	171474	171731	+
x	171740	172105	+
x	172139	173080	+
x	180833	179256	-
x	183147	181924	-
x	183352	183498	+
x	186557	186432	-
x	186560	186432	-
x	200911	202416	+
x	204005	205174	+
x	207395	208357	+
x	218642	219304	+
x	223501	224601	+
x	230836	231471	+
x	232168	234414	+
x	238334	237831	-
x	243153	241915	-
x	248057	247323	-
x	255907	254576	-
x	258795	257722	-
x	274658	274245	-
x	274843	274649	-
x	277838	278419	+
x	278325	278528	+
x	309378	307816	-
x	316354	315722	-
x	330361	330942	+
x	339073	336374	-
x	336796	336374	-
x	341857	339323	-
x	352746	354239	+
x	363927	362521	-
x	364097	365872	+
x	366589	366810	+
x	376034	368913	-
x	375527	368913	-
x	386394	387248	+
x	402954	404465	+
x	412118	413563	+
x	417806	418222	+
x	427565	427008	-
x	438264	437620	-
x	447616	448044	+
x	449836	449321	-
x	455944	455084	-
x	457003	456452	-
x	457102	456452	-
x	462319	463491	+
x	467590	466856	-
x	473936	474292	+
x	475512	475928	+
x	476439	475969	-
x	503332	503484	+
x	508771	507944	-
x	510841	510563	-
x	516020	515559	-
x	516002	515559	-
x	518775	519227	+
x	521697	522353	+
x	530910	530482	-
x	532540	533097	+
x	537355	536690	-
x	542328	543038	+
x	543381	544916	+
x	545476	544922	-
x	545021	545371	+
x	546088	545561	-
x	549802	547772	-
x	551935	552174	+
x	552167	552736	+
x	560074	560934	+
x	563679	562909	-
x	563753	565120	+
x	565968	566582	+
x	570172	569150	-
x	577829	578455	+
x	578591	579361	+
x	580889	580683	-
x	586556	587542	+
x	591637	591738	+
x	594941	594033	-
x	602010	602948	+
x	602972	604678	+
x	606689	608224	+
x	606713	608224	+
x	614892	614488	-
x	627539	628534	+
x	631965	632621	+
x	641150	640884	-
x	643135	644739	+
x	656255	655170	-
x	658564	659586	+
x	661132	661515	+
x	661180	661515	+
x	661499	663619	+
x	665847	665680	-
x	670094	671398	+
x	676278	676556	+
x	677862	677371	-
x	677937	677371	-
x	678821	677973	-
x	698656	698150	-
x	699240	698770	-
x	700509	701435	+
x	701646	702260	+
x	703059	703445	+
x	704076	704303	+
x	704231	704458	+
x	704670	705005	+
x	709602	710594	+
x	709701	710594	+
x	710591	710833	+
x	711063	710830	-
x	711028	711255	+
x	714448	715512	+
x	715538	716563	+
x	730433	729573	-
x	732570	733067	+
x	737491	736544	-
x	737449	736544	-
x	738395	737514	-
x	739463	738543	-
x	739496	738543	-
x	739406	738543	-
x	740433	739573	-
x	743498	747145	+
x	750780	750013	-
x	760568	764104	+
x	768470	768096	-
x	768599	768096	-
x	768416	768096	-
x	770777	771328	+
x	779180	776364	-
x	781499	782089	+
x	800407	800628	+
x	801172	800882	-
x	806642	807052	+
x	806684	807052	+
x	813513	813695	+
x	818791	818417	-
x	829833	830045	+
x	831741	832547	+
x	832662	833189	+
x	832944	833189	+
x	836091	835945	-
x	841917	842090	+
x	842760	842623	-
x	842895	843164	+
x	847054	848799	+
x	850929	848989	-
x	855043	854711	-
x	860039	859749	-
x	860958	859999	-
x	864184	865029	+
x	865026	865460	+
x	874178	873558	-
x	875122	877278	+
x	877599	877207	-
x	877577	877717	+
x	879343	877706	-
x	879508	880212	+
x	882352	881963	-
x	882578	883306	+
x	905952	906821	+
x	919100	918441	-
x	932567	931731	-
x	933774	933121	-
x	938435	938677	+
x	938954	940246	+
x	945185	945577	+
x	953661	954071	+
x	953667	954071	+
x	955919	957130	+
x	968740	969147	+
x	976821	975142	-
x	978986	977709	-
x	986823	986365	-
x	988034	989557	+
x	988085	989557	+
x	995914	996192	+
x	1004657	1004809	+
x	1004806	1005336	+
x	1015250	1015408	+
x	1017065	1017538	+
x	1018068	1017673	-
x	1024718	1024975	+
x	1032717	1031431	-
x	1032219	1031431	-
x	1053213	1053491	+
x	1054612	1055094	+
x	1054618	1055094	+
x	1059152	1058499	-
x	1062071	1061661	-
x	1065812	1064964	-
x	1074177	1074398	+
x	1074930	1075271	+
x	1076947	1076147	-
x	1078742	1078083	-
x	1078685	1078083	-
x	1079593	1081905	+
x	1088201	1086606	-
x	1091193	1093994	+
x	1095660	1095466	-
x	1095682	1095855	+
x	1097292	1095874	-
x	1102599	1103345	+
x	1109321	1108968	-
x	1110045	1109374	-
x	1112408	1113019	+
x	1113180	1114256	+
x	1115178	1114969	-
x	1115502	1115182	-
x	1120735	1119224	-
x	1122944	1121685	-
x	1129930	1130901	+
x	1131924	1132217	+
x	1139096	1139704	+
x	1147357	1147824	+
x	1152716	1152808	+
x	1160208	1159714	-
x	1160103	1159714	-
x	1161229	1160891	-
x	1161770	1161651	-
x	1165232	1164960	-
x	1165268	1164960	-
x	1166231	1165368	-
x	1167609	1166578	-
x	1170026	1169433	-
x	1170158	1171468	+
x	1170173	1171468	+
x	1173676	1174584	+
x	1177364	1177702	+
x	1177726	1178040	+
x	1178037	1178171	+
x	1179548	1179402	-
x	1179614	1179402	-
x	1180194	1181375	+
x	1185681	1186538	+
x	1192964	1191555	-
x	1198020	1198526	+
x	1198029	1198526	+
x	1198589	1198879	+
x	1201173	1200223	-
x	1201390	1202457	+
x	1201564	1202457	+
x	1207242	1206781	-
x	1208096	1208446	+
x	1215289	1215741	+
x	1229376	1228390	-
x	1229477	1230178	+
x	1233210	1233620	+
x	1243858	1243658	-
x	1262140	1259861	-
x	1262170	1259861	-
x	1262716	1262952	+
x	1264922	1263066	-
x	1266249	1265881	-
x	1269754	1268939	-
x	1270798	1271880	+
x	1273159	1274070	+
x	1274004	1275503	+
x	1274091	1275503	+
x	1278400	1277036	-
x	1278484	1277036	-
x	1277596	1277036	-
x	1278630	1279037	+
x	1279120	1279557	+
x	1284836	1283793	-
x	1284866	1283793	-
x	1293475	1294140	+
x	1300861	1300559	-
x	1309742	1310068	+
x	1314463	1320720	+
x	1315972	1320720	+
x	1329800	1328427	-
x	1339705	1340040	+
x	1339741	1340040	+
x	1340090	1341262	+
x	1341574	1341693	+
x	1343391	1342096	-
x	1343406	1342096	-
x	1348426	1347674	-
x	1364888	1364241	-
x	1365887	1366546	+
x	1366082	1366546	+
x	1367112	1368200	+
x	1377574	1376969	-
x	1385005	1385277	+
x	1387488	1385728	-
x	1387416	1385728	-
x	1386281	1385736	-
x	1393740	1390096	-
x	1405330	1404125	-
x	1408970	1410097	+
x	1410696	1410223	-
x	1414065	1414679	+
x	1420526	1419753	-
x	1426653	1426177	-
x	1461784	1462029	+
x	1467988	1468419	+
x	1469224	1468910	-
x	1483240	1481633	-
x	1486510	1486052	-
x	1486689	1486507	-
x	1503380	1503820	+
x	1503842	1504123	+
x	1504133	1505104	+
x	1528219	1530831	+
x	1531949	1531713	-
x	1531937	1531713	-
x	1534370	1533183	-
x	1539920	1540180	+
x	1541385	1540252	-
x	1563783	1564409	+
x	1564823	1566079	+
x	1566198	1567418	+
x	1568969	1567491	-
x	1571832	1571509	-
x	1573238	1571994	-
x	1576200	1576913	+
x	1576311	1576913	+
x	1579972	1580454	+
x	1587872	1587153	-
x	1591070	1591534	+
x	1597281	1598264	+
x	1611637	1611774	+
x	1612343	1611723	-
x	1612352	1611723	-
x	1616003	1615767	-
x	1617059	1617472	+
x	1619074	1617611	-
x	1622170	1622409	+
x	1634266	1630040	-
x	1637856	1635640	-
x	1638005	1639270	+
x	1640305	1639298	-
x	1656398	1655286	-
x	1668096	1668821	+
x	1673879	1674688	+
x	1676560	1675694	-
x	1680404	1680667	+
x	1681834	1683681	+
x	1686564	1687565	+
x	1687618	1688907	+
x	1694113	1693673	-
x	1702727	1703773	+
x	1710410	1710679	+
x	1710705	1711745	+
x	1717385	1713849	-
x	1739518	1740924	+
x	1741921	1742529	+
x	1753010	1750974	-
x	1759113	1759856	+
x	1774298	1773606	-
x	1774822	1774538	-
x	1779834	1778872	-
x	1779828	1778872	-
x	1779738	1778872	-
x	1781765	1782004	+
x	1789987	1791330	+
x	1790014	1791330	+
x	1793725	1794462	+
x	1800671	1801489	+
x	1801522	1802790	+
x	1803599	1805008	+
x	1818602	1819228	+
x	1827383	1829602	+
x	1832673	1831003	-
x	1838601	1837420	-
x	1838889	1838614	-
x	1842472	1838948	-
x	1842755	1843309	+
x	1849131	1850189	+
x	1855813	1852778	-
x	1861273	1861785	+
x	1876919	1878451	+
x	1884661	1884008	-
x	1886742	1887137	+
x	1890242	1890517	+
x	1892661	1893569	+
x	1895517	1896512	+
x	1900856	1901080	+
x	1908026	1908202	+
x	1919991	1919401	-
x	1924919	1924752	-
x	1929111	1929872	+
x	1936686	1936793	+
x	1937912	1937685	-
x	1941317	1940901	-
x	1941320	1940901	-
x	1945996	1945805	-
x	1946053	1945805	-
x	1947628	1946075	-
x	1952171	1951674	-
x	1955992	1956324	+
x	1956040	1956324	+
x	1961543	1961358	-
x	1964013	1966610	+
x	1977653	1976817	-
x	1978077	1978616	+
x	1981726	1978883	-
x	1981780	1982013	+
x	1988373	1988648	+
x	1991268	1992512	+
x	1999298	2000602	+
x	2001172	2000723	-
x	2009276	2012074	+
x	2013823	2015040	+
x	2016653	2016955	+
x	2017028	2018119	+
x	2018546	2018845	+
x	2019004	2019165	+
x	2019166	2019285	+
x	2035484	2033565	-
x	2036891	2036055	-
x	2036939	2036055	-
x	2037316	2036990	-
x	2038034	2037687	-
x	2039918	2041150	+
x	2041282	2042688	+
x	2045359	2044157	-
x	2046521	2047423	+
x	2052674	2051178	-
x	2059696	2060625	+
x	2065459	2065716	+
x	2074447	2074647	+
x	2076869	2074644	-
x	2077800	2077537	-
x	2083586	2082147	-
x	2087212	2087532	+
x	2090904	2091530	+
x	2102945	2105359	+
x	2103023	2105359	+
x	2111755	2111378	-
x	2113567	2114253	+
x	2114931	2114713	-
x	2128026	2127268	-
x	2128525	2128352	-
x	2136246	2135122	-
x	2143136	2142906	-
x	2147252	2146659	-
x	2147952	2147335	-
x	2157084	2152885	-
x	2160352	2157389	-
x	2172979	2172200	-
x	2185645	2187093	+
x	2191484	2190963	-
x	2191483	2191836	+
x	2196690	2196947	+
x	2197429	2198238	+
x	2197441	2198238	+
x	2201355	2202599	+
x	2202626	2203867	+
x	2207850	2208458	+
x	2215842	2215582	-
x	2218417	2218647	+
x	2222140	2222412	+
x	2224632	2224384	-
x	2249558	2249806	+
x	2250406	2250885	+
x	2252813	2251557	-
x	2253167	2253742	+
x	2255012	2255740	+
x	2255730	2256146	+
x	2255844	2256146	+
x	2256461	2256162	-
x	2264981	2260161	-
x	2273724	2273239	-
x	2275951	2276358	+
x	2276035	2276358	+
x	2283982	2283422	-
x	2284340	2284023	-
x	2297464	2289272	-
x	2302261	2302037	-
x	2305664	2302875	-
x	2311023	2311424	+
x	2311838	2311425	-
x	2315801	2316211	+
x	2315885	2316211	+
x	2321688	2322245	+
x	2323739	2322966	-
x	2328032	2327781	-
x	2329338	2329039	-
x	2329766	2329596	-
x	2329803	2330117	+
x	2332534	2332932	+
x	2333250	2332921	-
x	2337772	2338077	+
x	2338739	2338969	+
x	2348110	2347859	-
x	2353016	2352717	-
x	2355462	2358011	+
x	2358121	2358837	+
x	2359823	2359527	-
x	2361147	2360311	-
x	2361195	2360311	-
x	2361572	2361246	-
x	2361776	2362072	+
x	2362128	2362859	+
x	2365229	2365014	-
x	2367072	2365321	-
x	2366958	2365321	-
x	2368403	2369044	+
x	2374347	2373832	-
x	2382557	2381787	-
x	2382854	2381787	-
x	2382820	2382554	-
x	2384670	2384873	+
x	2387996	2388226	+
x	2392988	2393269	+
x	2396307	2394961	-
x	2397249	2397034	-
x	2402152	2401367	-
x	2410930	2409461	-
x	2416530	2416189	-
x	2423796	2422762	-
x	2427723	2426800	-
x	2433232	2433050	-
x	2436382	2435495	-
x	2440114	2438975	-
x	2441319	2443130	+
x	2446440	2445283	-
x	2446877	2446626	-
x	2446904	2446626	-
x	2450805	2451563	+
x	2463784	2462498	-
x	2463574	2462498	-
x	2465607	2466353	+
x	2494749	2494447	-
x	2499196	2498825	-
x	2499494	2499318	-
x	2499506	2500264	+
x	2502504	2501545	-
x	2502600	2503367	+
x	2503698	2503462	-
x	2505563	2508355	+
x	2515471	2516286	+
x	2522287	2522093	-
x	2522207	2522425	+
x	2526440	2527078	+
x	2527577	2527155	-
x	2528675	2527155	-
x	2537732	2537400	-
x	2539916	2539599	-
x	2540198	2539950	-
x	2540330	2540863	+
x	2543149	2542235	-
x	2548563	2547727	-
x	2548611	2547727	-
x	2548988	2548662	-
x	2549052	2549246	+
x	2554786	2555568	+
x	2555710	2556225	+
x	2562097	2563164	+
x	2566159	2566818	+
x	2568336	2568127	-
x	2570219	2570812	+
x	2570599	2571033	+
x	2573321	2573139	-
x	2574256	2574588	+
x	2574319	2574588	+
x	2574858	2574535	-
x	2574861	2574535	-
x	2576156	2576443	+
x	2576388	2576540	+
x	2576549	2576890	+
x	2576923	2577519	+
x	2577597	2577866	+
x	2587264	2585834	-
x	2587810	2587265	-
x	2588475	2587810	-
x	2601916	2602137	+
x	2602061	2602849	+
x	2602094	2602849	+
x	2612125	2610788	-
x	2612718	2613137	+
x	2613393	2613650	+
x	2619463	2619344	-
x	2620101	2619775	-
x	2621819	2620293	-
x	2623440	2621902	-
x	2625196	2623658	-
x	2625686	2625913	+
x	2628167	2627283	-
x	2628119	2627283	-
x	2628544	2628218	-
x	2629083	2628799	-
x	2629217	2629098	-
x	2629397	2629098	-
x	2630661	2629486	-
x	2632959	2631091	-
x	2643097	2642756	-
x	2646257	2645955	-
x	2647762	2647947	+
x	2663124	2658076	-
x	2671843	2667602	-
x	2673675	2674658	+
x	2676467	2676676	+
x	2679151	2678024	-
x	2680275	2679718	-
x	2688808	2689893	+
x	2693737	2694066	+
x	2699278	2699847	+
x	2701731	2701459	-
x	2701735	2702709	+
x	2701990	2702709	+
x	2707274	2706324	-
x	2708858	2707305	-
x	2711326	2710100	-
x	2712281	2711448	-
x	2717417	2716752	-
x	2721554	2721823	+
x	2721837	2721571	-
x	2721804	2721571	-
x	2722036	2721842	-
x	2725110	2724820	-
x	2732807	2730768	-
x	2732685	2732963	+
x	2742114	2741743	-
x	2746231	2743571	-
x	2748156	2747638	-
x	2748970	2748824	-
x	2752695	2750719	-
x	2756740	2758356	+
x	2756830	2758356	+
x	2764207	2765013	+
x	2769136	2769540	+
x	2771248	2771541	+
x	2780581	2780096	-
x	2780877	2781134	+
x	2781513	2781190	-
x	2787109	2785634	-
x	2788615	2787338	-
x	2792000	2789916	-
x	2800719	2795869	-
x	2801012	2800806	-
x	2801761	2802633	+
x	2802408	2802734	+
x	2802785	2803669	+
x	2802833	2803669	+
x	2803924	2804145	+
x	2820443	2819097	-
x	2825692	2824397	-
x	2825707	2824397	-
x	2825795	2825980	+
x	2829602	2829351	-
x	2846932	2847159	+
x	2849097	2850107	+
x	2850748	2850524	-
x	2854098	2853694	-
x	2856287	2856985	+
x	2860250	2859048	-
x	2872818	2872417	-
x	2877129	2876806	-
x	2877598	2877987	+
x	2893883	2894623	+
x	2902603	2901929	-
x	2906047	2903666	-
x	2912271	2912062	-
x	2917361	2919022	+
x	2921332	2921577	+
x	2923773	2924231	+
x	2925910	2926197	+
x	2939216	2939443	+
x	2940870	2939440	-
x	2942274	2942951	+
x	2955941	2955687	-
x	2958245	2955945	-
x	2958281	2955945	-
x	2958310	2958552	+
x	2964690	2964373	-
x	2967499	2967867	+
x	2971036	2970410	-
x	2971484	2971068	-
x	2974173	2973808	-
x	2975912	2975445	-
x	2975964	2976236	+
x	2977490	2978356	+
x	2979170	2979736	+
x	2982164	2983750	+
x	2990583	2991215	+
x	3006350	3005877	-
x	3014935	3014678	-
x	3014801	3014989	+
x	3016313	3016026	-
x	3016274	3016026	-
x	3016909	3017910	+
x	3016939	3017910	+
x	3019815	3018748	-
x	3019910	3021325	+
x	3026266	3026976	+
x	3029113	3029361	+
x	3035936	3035244	-
x	3039473	3038853	-
x	3041101	3039464	-
x	3046490	3046284	-
x	3048067	3048333	+
x	3048290	3049969	+
x	3048392	3049969	+
x	3061611	3060700	-
x	3068093	3067608	-
x	3068958	3068158	-
x	3071198	3070845	-
x	3074995	3073787	-
x	3077291	3077962	+
x	3077387	3077962	+
x	3077737	3078063	+
x	3078114	3078998	+
x	3078162	3078998	+
x	3080140	3079211	-
x	3098029	3097418	-
x	3098023	3097418	-
x	3103495	3103148	-
x	3106568	3106344	-
x	3108931	3108302	-
x	3108704	3109108	+
x	3109498	3110649	+
x	3110871	3111140	+
x	3117165	3116329	-
x	3120650	3119625	-
x	3121802	3120654	-
x	3129104	3128559	-
x	3129281	3128559	-
x	3130260	3129376	-
x	3131165	3130263	-
x	3132722	3131997	-
x	3132679	3132287	-
x	3139295	3137976	-
x	3157935	3159782	+
x	3157938	3159782	+
x	3163879	3164094	+
x	3165023	3164250	-
x	3170360	3170554	+
x	3172869	3171013	-
x	3178618	3177329	-
x	3178697	3178954	+
x	3179407	3180126	+
x	3180222	3180413	+
x	3182580	3183170	+
x	3191103	3189724	-
x	3191690	3191103	-
x	3191774	3191103	-
x	3191714	3191103	-
x	3197566	3196352	-
x	3203886	3203500	-
x	3226237	3224801	-
x	3235016	3234102	-
x	3235207	3235016	-
x	3235286	3235071	-
x	3238471	3238782	+
x	3239198	3240949	+
x	3246573	3251189	+
x	3267694	3268710	+
x	3285206	3285736	+
x	3285468	3286007	+
x	3291866	3287004	-
x	3292141	3291851	-
x	3293340	3292138	-
x	3297844	3296096	-
x	3304054	3303080	-
x	3309229	3308816	-
x	3310091	3309273	-
x	3310622	3310128	-
x	3313601	3313786	+
x	3319994	3319209	-
x	3321434	3321604	+
x	3327112	3326858	-
x	3331430	3332005	+
x	3333136	3332060	-
x	3333181	3332060	-
x	3334355	3335026	+
x	3335118	3337346	+
x	3346383	3345538	-
x	3346335	3345538	-
x	3352197	3351997	-
x	3352692	3352489	-
x	3352866	3353831	+
x	3354802	3354584	-
x	3355862	3354849	-
x	3358603	3358950	+
x	3358612	3358950	+
x	3359973	3361094	+
x	3367079	3367735	+
x	3372119	3371754	-
x	3373877	3373593	-
x	3373935	3373759	-
x	3374608	3374300	-
x	3376258	3375944	-
x	3377935	3376640	-
x	3377950	3376640	-
x	3382184	3381339	-
x	3386811	3388043	+
x	3388077	3388466	+
x	3390186	3389284	-
x	3395469	3394684	-
x	3400232	3400483	+
x	3409431	3407350	-
x	3414627	3413977	-
x	3420383	3418581	-
x	3420693	3420403	-
x	3422503	3424785	+
x	3424834	3425016	+
x	3431588	3431064	-
x	3443695	3442670	-
x	3448191	3449609	+
x	3462872	3463192	+
x	3467155	3466679	-
x	3475341	3475643	+
x	3476117	3476953	+
x	3477056	3477367	+
x	3478028	3479323	+
x	3478076	3479323	+
x	3485194	3485688	+
x	3486131	3487000	+
x	3490806	3490225	-
x	3497959	3498357	+
x	3499884	3499570	-
x	3499902	3499570	-
x	3507930	3506713	-
x	3508217	3508693	+
x	3508307	3508693	+
x	3515907	3517139	+
x	3517132	3517767	+
x	3525947	3524016	-
x	3527772	3526615	-
x	3535130	3536476	+
x	3544243	3545532	+
x	3550764	3550973	+
x	3552278	3551220	-
x	3552254	3551220	-
x	3552762	3552538	-
x	3552889	3552707	-
x	3553469	3553933	+
x	3565207	3563018	-
x	3574195	3574404	+
x	3574546	3575220	+
x	3578566	3577709	-
x	3579872	3579585	-
x	3585555	3586166	+
x	3591688	3591473	-
x	3593473	3592823	-
x	3594944	3594717	-
x	3604293	3603703	-
x	3618844	3617081	-
x	3627561	3628985	+
x	3633347	3633766	+
x	3634063	3633794	-
x	3636836	3636949	+
x	3640824	3639901	-
x	3641807	3643303	+
x	3643291	3644031	+
x	3657653	3658081	+
x	3658715	3659680	+
x	3663247	3662810	-
x	3684827	3683382	-
x	3697753	3697265	-
x	3697903	3698241	+
x	3702871	3702239	-
x	3704070	3703516	-
x	3705317	3704481	-
x	3705994	3705791	-
x	3705985	3705791	-
x	3715309	3715695	+
x	3715557	3716201	+
x	3728630	3721017	-
x	3744753	3735316	-
x	3744789	3735316	-
x	3745351	3744827	-
x	3746638	3745898	-
x	3758581	3747557	-
x	3758707	3747557	-
x	3770071	3771948	+
x	3776411	3773115	-
x	3776390	3773115	-
x	3786707	3786426	-
x	3787693	3786704	-
x	3790273	3791052	+
x	3790979	3791719	+
x	3801278	3799698	-
x	3801960	3802601	+
x	3801975	3802601	+
x	3816683	3816982	+
x	3824952	3824065	-
x	3824916	3824065	-
x	3829499	3829017	-
x	3830125	3829490	-
x	3832507	3832145	-
x	3832679	3833206	+
x	3834504	3834349	-
x	3834738	3834529	-
x	3839433	3838720	-
x	3840298	3839444	-
x	3858000	3856588	-
x	3858012	3856588	-
x	3858956	3859636	+
x	3860326	3861594	+
x	3862326	3861556	-
x	3866157	3865936	-
x	3869462	3870421	+
x	3869468	3870421	+
x	3869558	3870421	+
x	3874321	3872648	-
x	3876237	3875452	-
x	3878572	3879753	+
x	3879783	3883031	+
x	3879966	3883031	+
x	3885328	3884639	-
x	3885385	3884639	-
x	3892218	3892382	+
x	3900029	3898677	-
x	3915217	3922185	+
x	3942107	3943018	+
x	3959946	3961646	+
x	3968730	3967711	-
x	3982326	3984221	+
x	3992765	3991914	-
x	3993016	3992750	-
x	4000935	4001666	+
x	4001067	4001666	+
x	4002751	4001672	-
x	4003845	4004711	+
x	4014345	4013551	-
x	4021879	4021181	-
x	4027618	4027535	-
x	4030701	4029790	-
x	4037533	4038186	+
x	4038625	4038464	-
x	4044997	4044878	-
x	4047032	4047832	+
x	4050486	4049434	-
x	4055097	4055822	+
x	4058218	4057250	-
x	4063371	4062487	-
x	4063323	4062487	-
x	4063748	4063422	-
x	4066706	4066512	-
x	4067101	4067292	+
x	4068665	4067457	-
x	4079922	4080467	+
x	4080854	4080600	-
x	4080923	4080600	-
x	4081482	4080940	-
x	4082159	4081479	-
x	4084038	4082875	-
x	4085108	4084035	-
x	4090477	4089614	-
x	4093109	4093465	+
x	4093414	4093608	+
x	4104630	4104469	-
x	4111378	4112418	+
x	4115022	4114690	-
x	4115139	4114690	-
x	4115055	4114690	-
x	4117630	4118331	+
x	4118328	4119458	+
x	4118457	4119458	+
x	4120665	4121987	+
x	4126402	4126178	-
x	4129874	4128687	-
x	4137075	4135969	-
x	4139799	4141613	+
x	4144154	4144861	+
x	4146852	4146451	-
x	4148245	4149657	+
x	4149654	4150937	+
x	4155406	4155648	+
x	4155545	4156108	+
x	4164188	4166554	+
x	4181379	4181741	+
x	4186160	4185660	-
x	4186321	4187265	+
x	4186360	4187265	+
x	4191477	4191779	+
x	4196948	4195521	-
x	4197723	4197019	-
x	4198142	4198921	+
x	4198232	4198921	+
x	4206959	4208587	+
x	4221250	4221678	+
x	4232453	4235749	+
x	4237024	4238805	+
x	4239952	4240266	+
x	4251401	4250502	-
x	4254835	4252892	-
x	4256276	4255779	-
x	4256312	4255779	-
x	4269935	4270270	+
x	4285475	4279164	-
x	4288728	4287502	-
x	4289330	4288725	-
x	4289306	4288725	-
x	4290962	4289337	-
x	4294977	4296335	+
x	4296340	4296753	+
x	4304662	4304186	-
x	4305764	4305979	+
x	4310992	4311417	+
x	4313412	4311943	-
x	4323886	4324212	+
x	4337005	4338120	+
x	4340946	4342481	+
x	4350696	4349356	-
x	4356109	4354457	-
x	4369935	4369597	-
x	4371410	4370091	-
x	4371323	4370091	-
x	4396705	4396355	-
