x	18845	17568	-
x	23273	21738	-
x	26979	26014	-
x	27094	27402	+
x	32068	31925	-
x	33683	33895	+
x	34396	36642	+
x	34408	36642	+
x	41409	42014	+
x	52912	53346	+
x	53456	55801	+
x	53765	55801	+
x	57437	58075	+
x	65093	65518	+
x	68520	68681	+
x	68722	71661	+
x	71728	71967	+
x	86620	85766	-
x	88134	87928	-
x	95547	97022	+
x	104703	103840	-
x	104799	103840	-
x	104559	103840	-
x	105345	104935	-
x	105231	104935	-
x	110437	117669	+
x	131235	131026	-
x	131514	133004	+
x	133152	133901	+
x	140097	140276	+
x	141326	142276	+
x	144017	142260	-
x	144139	145758	+
x	144181	145758	+
x	149665	151308	+
x	150712	151308	+
x	151499	152527	+
x	154491	155858	+
x	171474	171731	+
x	171740	172105	+
x	172139	173080	+
x	180833	179256	-
x	183147	181924	-
x	183352	183498	+
x	186560	186432	-
x	186557	186432	-
x	200911	202416	+
x	204005	205174	+
x	207395	208357	+
x	218642	219304	+
x	223501	224601	+
x	230836	231471	+
x	232168	234414	+
x	238334	237831	-
x	243153	241915	-
x	248057	247323	-
x	255907	254576	-
x	258795	257722	-
x	274658	274245	-
x	274843	274649	-
x	278324	278527	+
x	309377	307815	-
x	316353	315721	-
x	330360	330941	+
x	336795	336373	-
x	339072	336373	-
x	341856	339322	-
x	352745	354238	+
x	363926	362520	-
x	364096	365871	+
x	366588	366809	+
x	375526	368912	-
x	376033	368912	-
x	386393	387247	+
x	402953	404464	+
x	412117	413562	+
x	417805	418221	+
x	427564	427007	-
x	438263	437619	-
x	447615	448043	+
x	449835	449320	-
x	455943	455083	-
x	457101	456451	-
x	457002	456451	-
x	462318	463490	+
x	467589	466855	-
x	473935	474291	+
x	475511	475927	+
x	476438	475968	-
x	503331	503483	+
x	508770	507943	-
x	510840	510562	-
x	516001	515558	-
x	516019	515558	-
x	518774	519226	+
x	521696	522352	+
x	530909	530481	-
x	532539	533096	+
x	537354	536689	-
x	542327	543037	+
x	543380	544915	+
x	545475	544921	-
x	545020	545370	+
x	546087	545560	-
x	549801	547771	-
x	551934	552173	+
x	552166	552735	+
x	560073	560933	+
x	563678	562908	-
x	563752	565119	+
x	565967	566581	+
x	570171	569149	-
x	577828	578454	+
x	578590	579360	+
x	580888	580682	-
x	586555	587541	+
x	591636	591737	+
x	594940	594032	-
x	602009	602947	+
x	602971	604677	+
x	606688	608223	+
x	606712	608223	+
x	614891	614487	-
x	627538	628533	+
x	631964	632620	+
x	641149	640883	-
x	643134	644738	+
x	656254	655169	-
x	658563	659585	+
x	661131	661514	+
x	661179	661514	+
x	661498	663618	+
x	665846	665679	-
x	670093	671397	+
x	676277	676555	+
x	677936	677370	-
x	677861	677370	-
x	678820	677972	-
x	698655	698149	-
x	699239	698769	-
x	700508	701434	+
x	701645	702259	+
x	703058	703444	+
x	704075	704302	+
x	704230	704457	+
x	704669	705004	+
x	709601	710593	+
x	709700	710593	+
x	710590	710832	+
x	711062	710829	-
x	711027	711254	+
x	714447	715511	+
x	715537	716562	+
x	730432	729572	-
x	732569	733066	+
x	737490	736543	-
x	737448	736543	-
x	738394	737513	-
x	739405	738542	-
x	739495	738542	-
x	739462	738542	-
x	740432	739572	-
x	743497	747144	+
x	750779	750012	-
x	760567	764103	+
x	768469	768095	-
x	768598	768095	-
x	768415	768095	-
x	770776	771327	+
x	779179	776363	-
x	781498	782088	+
x	800406	800627	+
x	801171	800881	-
x	806641	807051	+
x	806683	807051	+
x	813512	813694	+
x	818790	818416	-
x	829832	830044	+
x	831740	832546	+
x	832661	833188	+
x	832943	833188	+
x	836090	835944	-
x	841916	842089	+
x	842759	842622	-
x	842894	843163	+
x	847053	848798	+
x	850928	848988	-
x	855042	854710	-
x	860038	859748	-
x	860957	859998	-
x	864183	865028	+
x	865025	865459	+
x	874177	873557	-
x	875121	877277	+
x	877598	877206	-
x	877576	877716	+
x	879342	877705	-
x	879507	880211	+
x	882351	881962	-
x	882577	883305	+
x	905951	906820	+
x	919099	918440	-
x	932566	931730	-
x	933773	933120	-
x	938434	938676	+
x	938953	940245	+
x	945184	945576	+
x	953660	954070	+
x	953666	954070	+
x	955918	957129	+
x	968739	969146	+
x	976820	975141	-
x	978985	977708	-
x	986822	986364	-
x	988033	989556	+
x	988084	989556	+
x	995913	996191	+
x	1004656	1004808	+
x	1004805	1005335	+
x	1015249	1015407	+
x	1017064	1017537	+
x	1018067	1017672	-
x	1024717	1024974	+
x	1032218	1031430	-
x	1032716	1031430	-
x	1053212	1053490	+
x	1054611	1055093	+
x	1054617	1055093	+
x	1059151	1058498	-
x	1062070	1061660	-
x	1065811	1064963	-
x	1074176	1074397	+
x	1074929	1075270	+
x	1076946	1076146	-
x	1078741	1078082	-
x	1078684	1078082	-
x	1079592	1081904	+
x	1088200	1086605	-
x	1091192	1093993	+
x	1095659	1095465	-
x	1095681	1095854	+
x	1097291	1095873	-
x	1102598	1103344	+
x	1109320	1108967	-
x	1110044	1109373	-
x	1112407	1113018	+
x	1113179	1114255	+
x	1115177	1114968	-
x	1115501	1115181	-
x	1120734	1119223	-
x	1122943	1121684	-
x	1129929	1130900	+
x	1131923	1132216	+
x	1139095	1139703	+
x	1147356	1147823	+
x	1152715	1152807	+
x	1160207	1159713	-
x	1160102	1159713	-
x	1161228	1160890	-
x	1161769	1161650	-
x	1165231	1164959	-
x	1165267	1164959	-
x	1166230	1165367	-
x	1167608	1166577	-
x	1170025	1169432	-
x	1170157	1171467	+
x	1170172	1171467	+
x	1173675	1174583	+
x	1177363	1177701	+
x	1177725	1178039	+
x	1178036	1178170	+
x	1179547	1179401	-
x	1179613	1179401	-
x	1180193	1181374	+
x	1185680	1186537	+
x	1192963	1191554	-
x	1198019	1198525	+
x	1198028	1198525	+
x	1198588	1198878	+
x	1201172	1200222	-
x	1201389	1202456	+
x	1201563	1202456	+
x	1207241	1206780	-
x	1208095	1208445	+
x	1215288	1215740	+
x	1229375	1228389	-
x	1229476	1230177	+
x	1233209	1233619	+
x	1243857	1243657	-
x	1262169	1259860	-
x	1262139	1259860	-
x	1262715	1262951	+
x	1264921	1263065	-
x	1266248	1265880	-
x	1269753	1268938	-
x	1270797	1271879	+
x	1273158	1274069	+
x	1274003	1275502	+
x	1274090	1275502	+
x	1277595	1277035	-
x	1278483	1277035	-
x	1278399	1277035	-
x	1278629	1279036	+
x	1279119	1279556	+
x	1284835	1283792	-
x	1284865	1283792	-
x	1293474	1294139	+
x	1300860	1300558	-
x	1309741	1310067	+
x	1314462	1320719	+
x	1315971	1320719	+
x	1329799	1328426	-
x	1339704	1340039	+
x	1339740	1340039	+
x	1340089	1341261	+
x	1341573	1341692	+
x	1343405	1342095	-
x	1343390	1342095	-
x	1348425	1347673	-
x	1364887	1364240	-
x	1365886	1366545	+
x	1366081	1366545	+
x	1367111	1368199	+
x	1377573	1376968	-
x	1385004	1385276	+
x	1387487	1385727	-
x	1387415	1385727	-
x	1386280	1385735	-
x	1393739	1390095	-
x	1405329	1404124	-
x	1408969	1410096	+
x	1410695	1410222	-
x	1414064	1414678	+
x	1420525	1419752	-
x	1426652	1426176	-
x	1461783	1462028	+
x	1467987	1468418	+
x	1469223	1468909	-
x	1483239	1481632	-
x	1486509	1486051	-
x	1486688	1486506	-
x	1503379	1503819	+
x	1503841	1504122	+
x	1504132	1505103	+
x	1528218	1530830	+
x	1531936	1531712	-
x	1531948	1531712	-
x	1534369	1533182	-
x	1539919	1540179	+
x	1541384	1540251	-
x	1563782	1564408	+
x	1564822	1566078	+
x	1566197	1567417	+
x	1568968	1567490	-
x	1571831	1571508	-
x	1573237	1571993	-
x	1576199	1576912	+
x	1576310	1576912	+
x	1579971	1580453	+
x	1587871	1587152	-
x	1591069	1591533	+
x	1597280	1598263	+
x	1611636	1611773	+
x	1612351	1611722	-
x	1612342	1611722	-
x	1616002	1615766	-
x	1617058	1617471	+
x	1619073	1617610	-
x	1622169	1622408	+
x	1634265	1630039	-
x	1637855	1635639	-
x	1638004	1639269	+
x	1640304	1639297	-
x	1656397	1655285	-
x	1668095	1668820	+
x	1676559	1675693	-
x	1680403	1680666	+
x	1681833	1683680	+
x	1686563	1687564	+
x	1687617	1688906	+
x	1694112	1693672	-
x	1702726	1703772	+
x	1710409	1710678	+
x	1710704	1711744	+
x	1717384	1713848	-
x	1739517	1740923	+
x	1741920	1742528	+
x	1753009	1750973	-
x	1759112	1759855	+
x	1774297	1773605	-
x	1774821	1774537	-
x	1779827	1778871	-
x	1779833	1778871	-
x	1779737	1778871	-
x	1781764	1782003	+
x	1789986	1791329	+
x	1790013	1791329	+
x	1793724	1794461	+
x	1800670	1801488	+
x	1801521	1802789	+
x	1803598	1805007	+
x	1818601	1819227	+
x	1827382	1829601	+
x	1832672	1831002	-
x	1838600	1837419	-
x	1838888	1838613	-
x	1842471	1838947	-
x	1842754	1843308	+
x	1849130	1850188	+
x	1855812	1852777	-
x	1861272	1861784	+
x	1876918	1878450	+
x	1884660	1884007	-
x	1886741	1887136	+
x	1890241	1890516	+
x	1892660	1893568	+
x	1895516	1896511	+
x	1900855	1901079	+
x	1908025	1908201	+
x	1919990	1919400	-
x	1924918	1924751	-
x	1929110	1929871	+
x	1936685	1936792	+
x	1937911	1937684	-
x	1941319	1940900	-
x	1941316	1940900	-
x	1945995	1945804	-
x	1946052	1945804	-
x	1947627	1946074	-
x	1952170	1951673	-
x	1955991	1956323	+
x	1956039	1956323	+
x	1961542	1961357	-
x	1964012	1966609	+
x	1977652	1976816	-
x	1978076	1978615	+
x	1981725	1978882	-
x	1981779	1982012	+
x	1988372	1988647	+
x	1991267	1992511	+
x	1999297	2000601	+
x	2001171	2000722	-
x	2009275	2012073	+
x	2013822	2015039	+
x	2016652	2016954	+
x	2017027	2018118	+
x	2018545	2018844	+
x	2019003	2019164	+
x	2019165	2019284	+
x	2035483	2033564	-
x	2036890	2036054	-
x	2036938	2036054	-
x	2037315	2036989	-
x	2038033	2037686	-
x	2039917	2041149	+
x	2041281	2042687	+
x	2045358	2044156	-
x	2046520	2047422	+
x	2052673	2051177	-
x	2059695	2060624	+
x	2065458	2065715	+
x	2074446	2074646	+
x	2076868	2074643	-
x	2077799	2077536	-
x	2083585	2082146	-
x	2087211	2087531	+
x	2090903	2091529	+
x	2102944	2105358	+
x	2103022	2105358	+
x	2111754	2111377	-
x	2113566	2114252	+
x	2114930	2114712	-
x	2128025	2127267	-
x	2128524	2128351	-
x	2136245	2135121	-
x	2143135	2142905	-
x	2147251	2146658	-
x	2147951	2147334	-
x	2157083	2152884	-
x	2160351	2157388	-
x	2172978	2172199	-
x	2185644	2187092	+
x	2191483	2190962	-
x	2191482	2191835	+
x	2196689	2196946	+
x	2197428	2198237	+
x	2197440	2198237	+
x	2201354	2202598	+
x	2202625	2203866	+
x	2207849	2208457	+
x	2215841	2215581	-
x	2218416	2218646	+
x	2222139	2222411	+
x	2224631	2224383	-
x	2249557	2249805	+
x	2250405	2250884	+
x	2252812	2251556	-
x	2253166	2253741	+
x	2255011	2255739	+
x	2255729	2256145	+
x	2255843	2256145	+
x	2256460	2256161	-
x	2264980	2260160	-
x	2273723	2273238	-
x	2275950	2276357	+
x	2276034	2276357	+
x	2283982	2282624	-
x	2284340	2284023	-
x	2297464	2289272	-
x	2302261	2302037	-
x	2305664	2302875	-
x	2311023	2311424	+
x	2311838	2311425	-
x	2315801	2316211	+
x	2315885	2316211	+
x	2321688	2322245	+
x	2323739	2322966	-
x	2328032	2327781	-
x	2329338	2329039	-
x	2329766	2329596	-
x	2329803	2330117	+
x	2332534	2332932	+
x	2333250	2332921	-
x	2337772	2338077	+
x	2338739	2338969	+
x	2348110	2347859	-
x	2353016	2352717	-
x	2355462	2358011	+
x	2358121	2358837	+
x	2359823	2359527	-
x	2361147	2360311	-
x	2361195	2360311	-
x	2361572	2361246	-
x	2361776	2362072	+
x	2362128	2362859	+
x	2365229	2365014	-
x	2367072	2365321	-
x	2366958	2365321	-
x	2368403	2369044	+
x	2374347	2373832	-
x	2382854	2381787	-
x	2382557	2381787	-
x	2382820	2382554	-
x	2384670	2384873	+
x	2387996	2388226	+
x	2392988	2393269	+
x	2396307	2394961	-
x	2397249	2397034	-
x	2402152	2401367	-
x	2410930	2409461	-
x	2416530	2416189	-
x	2423796	2422762	-
x	2427723	2426800	-
x	2433232	2433050	-
x	2436382	2435495	-
x	2440114	2438975	-
x	2441319	2443130	+
x	2446440	2445283	-
x	2446877	2446626	-
x	2446904	2446626	-
x	2450805	2451563	+
x	2463784	2462498	-
x	2463574	2462498	-
x	2465607	2466353	+
x	2494749	2494447	-
x	2499196	2498825	-
x	2499494	2499318	-
x	2499506	2500264	+
x	2502504	2501545	-
x	2502600	2503367	+
x	2503698	2503462	-
x	2505563	2508355	+
x	2515471	2516286	+
x	2522287	2522093	-
x	2522207	2522425	+
x	2526440	2527078	+
x	2527577	2527155	-
x	2528675	2527155	-
x	2537732	2537400	-
x	2539916	2539599	-
x	2540198	2539950	-
x	2540330	2540863	+
x	2543149	2542235	-
x	2548563	2547727	-
x	2548611	2547727	-
x	2548988	2548662	-
x	2549052	2549246	+
x	2554786	2555568	+
x	2555710	2556225	+
x	2562097	2563164	+
x	2566159	2566818	+
x	2568336	2568127	-
x	2570219	2570812	+
x	2570599	2571033	+
x	2573321	2573139	-
x	2574256	2574588	+
x	2574319	2574588	+
x	2574858	2574535	-
x	2574861	2574535	-
x	2576156	2576443	+
x	2576388	2576540	+
x	2576549	2576890	+
x	2576923	2577519	+
x	2577597	2577866	+
x	2587264	2585834	-
x	2587810	2587265	-
x	2588475	2587810	-
x	2601916	2602137	+
x	2602061	2602849	+
x	2602094	2602849	+
x	2612125	2610788	-
x	2612718	2613137	+
x	2613393	2613650	+
x	2619463	2619344	-
x	2620101	2619775	-
x	2621819	2620293	-
x	2623440	2621902	-
x	2625196	2623658	-
x	2625686	2625913	+
x	2628167	2627283	-
x	2628119	2627283	-
x	2628544	2628218	-
x	2629083	2628799	-
x	2629217	2629098	-
x	2629397	2629098	-
x	2630661	2629486	-
x	2632959	2631091	-
x	2643097	2642756	-
x	2646257	2645955	-
x	2647762	2647947	+
x	2663124	2658076	-
x	2671843	2667602	-
x	2673675	2674658	+
x	2676467	2676676	+
x	2679151	2678024	-
x	2680275	2679718	-
x	2688808	2689893	+
x	2693737	2694066	+
x	2699278	2699847	+
x	2701731	2701459	-
x	2701735	2702709	+
x	2701990	2702709	+
x	2707274	2706324	-
x	2708858	2707305	-
x	2711326	2710100	-
x	2712281	2711448	-
x	2717417	2716752	-
x	2721554	2721823	+
x	2721837	2721571	-
x	2721804	2721571	-
x	2722036	2721842	-
x	2725110	2724820	-
x	2732807	2730768	-
x	2732685	2732963	+
x	2742114	2741743	-
x	2746231	2743571	-
x	2748156	2747638	-
x	2748970	2748824	-
x	2752695	2750719	-
x	2756740	2758356	+
x	2756830	2758356	+
x	2764207	2765013	+
x	2769136	2769540	+
x	2771248	2771541	+
x	2780581	2780096	-
x	2780877	2781134	+
x	2781513	2781190	-
x	2787109	2785634	-
x	2788615	2787338	-
x	2792000	2789916	-
x	2800719	2795869	-
x	2801012	2800806	-
x	2801761	2802633	+
x	2802408	2802734	+
x	2802785	2803669	+
x	2802833	2803669	+
x	2803924	2804145	+
x	2820443	2819097	-
x	2825707	2824397	-
x	2825692	2824397	-
x	2825795	2825980	+
x	2829602	2829351	-
x	2846932	2847159	+
x	2849097	2850107	+
x	2850748	2850524	-
x	2854098	2853694	-
x	2856287	2856985	+
x	2860250	2859048	-
x	2872818	2872417	-
x	2877129	2876806	-
x	2877598	2877987	+
x	2893883	2894623	+
x	2902603	2901929	-
x	2906047	2903666	-
x	2912271	2912062	-
x	2917361	2919022	+
x	2921332	2921577	+
x	2923773	2924231	+
x	2925910	2926197	+
x	2939216	2939443	+
x	2940870	2939440	-
x	2942274	2942951	+
x	2955941	2955687	-
x	2958245	2955945	-
x	2958281	2955945	-
x	2958310	2958552	+
x	2964690	2964373	-
x	2967499	2967867	+
x	2971036	2970410	-
x	2971484	2971068	-
x	2974173	2973808	-
x	2975912	2975445	-
x	2975964	2976236	+
x	2977490	2978356	+
x	2979170	2979736	+
x	2982164	2983750	+
x	2990583	2991215	+
x	3006350	3005877	-
x	3014935	3014678	-
x	3014801	3014989	+
x	3016313	3016026	-
x	3016274	3016026	-
x	3016909	3017910	+
x	3016939	3017910	+
x	3019815	3018748	-
x	3019910	3021325	+
x	3026266	3026976	+
x	3029113	3029361	+
x	3035936	3035244	-
x	3039473	3038853	-
x	3041101	3039464	-
x	3046490	3046284	-
x	3048067	3048333	+
x	3048290	3049969	+
x	3048392	3049969	+
x	3061611	3060700	-
x	3068093	3067608	-
x	3068958	3068158	-
x	3071198	3070845	-
x	3074995	3073787	-
x	3077291	3077962	+
x	3077387	3077962	+
x	3077737	3078063	+
x	3078114	3078998	+
x	3078162	3078998	+
x	3080140	3079211	-
x	3098029	3097418	-
x	3098023	3097418	-
x	3103495	3103148	-
x	3106568	3106344	-
x	3108931	3108302	-
x	3108704	3109108	+
x	3109498	3110649	+
x	3110871	3111140	+
x	3117165	3116329	-
x	3120650	3119625	-
x	3121802	3120654	-
x	3129104	3128559	-
x	3129281	3128559	-
x	3130260	3129376	-
x	3131165	3130263	-
x	3132722	3131997	-
x	3132679	3132287	-
x	3139295	3137976	-
x	3157935	3159782	+
x	3157938	3159782	+
x	3163879	3164094	+
x	3165023	3164250	-
x	3170360	3170554	+
x	3172869	3171013	-
x	3178618	3177329	-
x	3178697	3178954	+
x	3179407	3180126	+
x	3180222	3180413	+
x	3182580	3183170	+
x	3191103	3189724	-
x	3191690	3191103	-
x	3191774	3191103	-
x	3191714	3191103	-
x	3197566	3196352	-
x	3203886	3203500	-
x	3226237	3224801	-
x	3235016	3234102	-
x	3235207	3235016	-
x	3235286	3235071	-
x	3238471	3238782	+
x	3239198	3240949	+
x	3246573	3251189	+
x	3267694	3268710	+
x	3285206	3285736	+
x	3285468	3286007	+
x	3291866	3287004	-
x	3292141	3291851	-
x	3293340	3292138	-
x	3297844	3296096	-
x	3304054	3303080	-
x	3309229	3308816	-
x	3310091	3309273	-
x	3310622	3310128	-
x	3313601	3313786	+
x	3319994	3319209	-
x	3321434	3321604	+
x	3327112	3326858	-
x	3331430	3332005	+
x	3333136	3332060	-
x	3333181	3332060	-
x	3334355	3335026	+
x	3335118	3337346	+
x	3346383	3345538	-
x	3346335	3345538	-
x	3352197	3351997	-
x	3352692	3352489	-
x	3352866	3353831	+
x	3354802	3354584	-
x	3355862	3354849	-
x	3358603	3358950	+
x	3358612	3358950	+
x	3359973	3361094	+
x	3367079	3367735	+
x	3372119	3371754	-
x	3373877	3373593	-
x	3373935	3373759	-
x	3374608	3374300	-
x	3376258	3375944	-
x	3377935	3376640	-
x	3377950	3376640	-
x	3382184	3381339	-
x	3386811	3388043	+
x	3388077	3388466	+
x	3390186	3389284	-
x	3395469	3394684	-
x	3400232	3400483	+
x	3409431	3407350	-
x	3414627	3413977	-
x	3420383	3418581	-
x	3420693	3420403	-
x	3422503	3424785	+
x	3424834	3425016	+
x	3431588	3431064	-
x	3443695	3442670	-
x	3448191	3449609	+
x	3462872	3463192	+
x	3467155	3466679	-
x	3475341	3475643	+
x	3476117	3476953	+
x	3477056	3477367	+
x	3478028	3479323	+
x	3478076	3479323	+
x	3485194	3485688	+
x	3486131	3487000	+
x	3490806	3490225	-
x	3497959	3498357	+
x	3499884	3499570	-
x	3499902	3499570	-
x	3507930	3506713	-
x	3508217	3508693	+
x	3508307	3508693	+
x	3515907	3517139	+
x	3517132	3517767	+
x	3525947	3524016	-
x	3527772	3526615	-
x	3535130	3536476	+
x	3544243	3545532	+
x	3550764	3550973	+
x	3552254	3551220	-
x	3552278	3551220	-
x	3552762	3552538	-
x	3552889	3552707	-
x	3553469	3553933	+
x	3565207	3563018	-
x	3574195	3574404	+
x	3574546	3575220	+
x	3578566	3577709	-
x	3579872	3579585	-
x	3585555	3586166	+
x	3591688	3591473	-
x	3593473	3592823	-
x	3594944	3594717	-
x	3604293	3603703	-
x	3618844	3617081	-
x	3627561	3628985	+
x	3633347	3633766	+
x	3634063	3633794	-
x	3636836	3636949	+
x	3640824	3639901	-
x	3641807	3643303	+
x	3643291	3644031	+
x	3657653	3658081	+
x	3658715	3659680	+
x	3663247	3662810	-
x	3684827	3683382	-
x	3697753	3697265	-
x	3697903	3698241	+
x	3702871	3702239	-
x	3704070	3703516	-
x	3705317	3704481	-
x	3705994	3705791	-
x	3705985	3705791	-
x	3715309	3715695	+
x	3715557	3716201	+
x	3728630	3721017	-
x	3744753	3735316	-
x	3744789	3735316	-
x	3745351	3744827	-
x	3746638	3745898	-
x	3758707	3747557	-
x	3758581	3747557	-
x	3770071	3771948	+
x	3776390	3773115	-
x	3776411	3773115	-
x	3786707	3786426	-
x	3787693	3786704	-
x	3790273	3791052	+
x	3790979	3791719	+
x	3801278	3799698	-
x	3801960	3802601	+
x	3801975	3802601	+
x	3816683	3816982	+
x	3824952	3824065	-
x	3824916	3824065	-
x	3829499	3829017	-
x	3830125	3829490	-
x	3832507	3832145	-
x	3832679	3833206	+
x	3834504	3834349	-
x	3834738	3834529	-
x	3839433	3838720	-
x	3840298	3839444	-
x	3858000	3856588	-
x	3858012	3856588	-
x	3858956	3859636	+
x	3860326	3861594	+
x	3862326	3861556	-
x	3866157	3865936	-
x	3869462	3870421	+
x	3869468	3870421	+
x	3869558	3870421	+
x	3874321	3872648	-
x	3876237	3875452	-
x	3878572	3879753	+
x	3879783	3883031	+
x	3879966	3883031	+
x	3885328	3884639	-
x	3885385	3884639	-
x	3892218	3892382	+
x	3900029	3898677	-
x	3915217	3922185	+
x	3942107	3943018	+
x	3959946	3961646	+
x	3968730	3967711	-
x	3982326	3984221	+
x	3992765	3991914	-
x	3993016	3992750	-
x	4000935	4001666	+
x	4001067	4001666	+
x	4002751	4001672	-
x	4003845	4004711	+
x	4014345	4013551	-
x	4021879	4021181	-
x	4027618	4027535	-
x	4030701	4029790	-
x	4037533	4038186	+
x	4038625	4038464	-
x	4044997	4044878	-
x	4047032	4047832	+
x	4050486	4049434	-
x	4055097	4055822	+
x	4058218	4057250	-
x	4063371	4062487	-
x	4063323	4062487	-
x	4063748	4063422	-
x	4066706	4066512	-
x	4067101	4067292	+
x	4068665	4067457	-
x	4079922	4080467	+
x	4080854	4080600	-
x	4080923	4080600	-
x	4081482	4080940	-
x	4082159	4081479	-
x	4084038	4082875	-
x	4085108	4084035	-
x	4090477	4089614	-
x	4093109	4093465	+
x	4093414	4093608	+
x	4104630	4104469	-
x	4111378	4112418	+
x	4115022	4114690	-
x	4115055	4114690	-
x	4115139	4114690	-
x	4117630	4118331	+
x	4118328	4119458	+
x	4118457	4119458	+
x	4120665	4121987	+
x	4126402	4126178	-
x	4129874	4128687	-
x	4137075	4135969	-
x	4139799	4141613	+
x	4144154	4144861	+
x	4146852	4146451	-
x	4148245	4149657	+
x	4149654	4150937	+
x	4155406	4155648	+
x	4155545	4156108	+
x	4164188	4166554	+
x	4181379	4181741	+
x	4186160	4185660	-
x	4186321	4187265	+
x	4186360	4187265	+
x	4191477	4191779	+
x	4196948	4195521	-
x	4197723	4197019	-
x	4198142	4198921	+
x	4198232	4198921	+
x	4206959	4208587	+
x	4221250	4221678	+
x	4232453	4235749	+
x	4237024	4238805	+
x	4239952	4240266	+
x	4251401	4250502	-
x	4254835	4252892	-
x	4256276	4255779	-
x	4256312	4255779	-
x	4269935	4270270	+
x	4285475	4279164	-
x	4288728	4287502	-
x	4289330	4288725	-
x	4289306	4288725	-
x	4290962	4289337	-
x	4294977	4296335	+
x	4296340	4296753	+
x	4304662	4304186	-
x	4305764	4305979	+
x	4310992	4311417	+
x	4313412	4311943	-
x	4323886	4324212	+
x	4337005	4338120	+
x	4340946	4342481	+
x	4350696	4349356	-
x	4356109	4354457	-
x	4369935	4369597	-
x	4371410	4370091	-
x	4371323	4370091	-
x	4393884	4393471	-
x	4396575	4396225	-
