x	18845	17568	-
x	23273	21738	-
x	26979	26014	-
x	27094	27402	+
x	32068	31925	-
x	33683	33895	+
x	34408	36711	+
x	41408	42013	+
x	52911	53345	+
x	53455	55803	+
x	53764	55803	+
x	57439	58077	+
x	65095	65520	+
x	68522	68683	+
x	71731	71970	+
x	86623	85769	-
x	88137	87931	-
x	95550	97025	+
x	104562	103843	-
x	104706	103843	-
x	104802	103843	-
x	105235	104567	-
x	110441	117673	+
x	131239	131030	-
x	131518	133008	+
x	133156	133905	+
x	140101	140280	+
x	141330	142280	+
x	144021	142264	-
x	144143	145762	+
x	144185	145762	+
x	149669	151312	+
x	150716	151312	+
x	151503	152531	+
x	172119	172484	+
x	172518	173459	+
x	181212	179635	-
x	183526	182303	-
x	183731	183877	+
x	186939	186811	-
x	186936	186811	-
x	201290	202795	+
x	204384	205553	+
x	207774	208736	+
x	219021	219683	+
x	223880	224980	+
x	231215	231850	+
x	232547	234793	+
x	238713	238210	-
x	243532	242294	-
x	248436	247702	-
x	256286	254955	-
x	259174	258101	-
x	275037	274624	-
x	275222	275028	-
x	278703	278906	+
x	309756	308194	-
x	316732	316100	-
x	330739	331320	+
x	337174	336752	-
x	339451	336752	-
x	342235	339701	-
x	353124	354617	+
x	364305	362899	-
x	364475	366250	+
x	366967	367188	+
x	386712	387566	+
x	403272	404783	+
x	412436	413881	+
x	418124	418540	+
x	427883	427326	-
x	438642	437998	-
x	447994	448422	+
x	450214	449699	-
x	456322	455462	-
x	459987	459436	-
x	460086	459436	-
x	465303	466475	+
x	470574	469840	-
x	476920	477276	+
x	478496	478912	+
x	479423	478953	-
x	506316	506468	+
x	511755	510928	-
x	513825	513547	-
x	519004	518543	-
x	518986	518543	-
x	521759	522211	+
x	524681	525337	+
x	535523	536080	+
x	540338	539673	-
x	545311	546021	+
x	546364	547899	+
x	548459	547905	-
x	548004	548354	+
x	549071	548544	-
x	552785	550755	-
x	554918	555157	+
x	555150	555719	+
x	563057	563917	+
x	566662	565892	-
x	566736	568103	+
x	568951	569565	+
x	573155	572133	-
x	580812	581438	+
x	581574	582344	+
x	583872	583666	-
x	589539	590525	+
x	594620	594721	+
x	597924	597016	-
x	604993	605931	+
x	605955	607661	+
x	617874	617470	-
x	630521	631516	+
x	634947	635603	+
x	644132	643866	-
x	646117	647721	+
x	659237	658152	-
x	661546	662568	+
x	664114	664497	+
x	664162	664497	+
x	664481	666601	+
x	668829	668662	-
x	673076	674380	+
x	679260	679538	+
x	680919	680353	-
x	680844	680353	-
x	681803	680955	-
x	701638	701132	-
x	702222	701752	-
x	703491	704417	+
x	704628	705242	+
x	706041	706427	+
x	707058	707285	+
x	707213	707440	+
x	707652	707987	+
x	712584	713576	+
x	712683	713576	+
x	713573	713815	+
x	714045	713812	-
x	714010	714237	+
x	717430	718494	+
x	718520	719545	+
x	733415	732555	-
x	735552	736049	+
x	740431	739526	-
x	740473	739526	-
x	741377	740496	-
x	742388	741525	-
x	742478	741525	-
x	742445	741525	-
x	743415	742555	-
x	746480	750127	+
x	753762	752995	-
x	763550	767086	+
x	771581	771078	-
x	771398	771078	-
x	771452	771078	-
x	773760	774311	+
x	782163	779347	-
x	784482	785072	+
x	803390	803611	+
x	804155	803865	-
x	809625	810035	+
x	809667	810035	+
x	821774	821400	-
x	832816	833028	+
x	834724	835530	+
x	835645	836172	+
x	835927	836172	+
x	839074	838928	-
x	844900	845073	+
x	845743	845606	-
x	845878	846147	+
x	850037	851782	+
x	853912	851972	-
x	858026	857694	-
x	867166	868011	+
x	868008	868442	+
x	877160	876540	-
x	878104	880260	+
x	880581	880189	-
x	880559	880699	+
x	882325	880688	-
x	882490	883194	+
x	885334	884945	-
x	885560	886288	+
x	908934	909803	+
x	922082	921423	-
x	936747	936094	-
x	941408	941650	+
x	941927	943219	+
x	948158	948550	+
x	956634	957044	+
x	956640	957044	+
x	958892	960103	+
x	971713	972120	+
x	979794	978115	-
x	981959	980682	-
x	989796	989338	-
x	991007	992530	+
x	991058	992530	+
x	998887	999165	+
x	1007630	1007782	+
x	1007779	1008309	+
x	1018223	1018381	+
x	1020038	1020511	+
x	1021041	1020646	-
x	1027691	1027948	+
x	1035192	1034404	-
x	1035690	1034404	-
x	1056186	1056464	+
x	1057585	1058067	+
x	1057591	1058067	+
x	1062125	1061472	-
x	1065044	1064634	-
x	1068785	1067937	-
x	1077150	1077371	+
x	1077903	1078244	+
x	1079920	1079120	-
x	1081715	1081056	-
x	1081658	1081056	-
x	1082566	1084878	+
x	1091174	1089579	-
x	1094166	1096967	+
x	1098304	1098828	+
x	1098633	1098439	-
x	1100265	1098847	-
x	1112293	1111940	-
x	1113017	1112346	-
x	1115380	1115991	+
x	1116152	1117228	+
x	1118150	1117941	-
x	1118474	1118154	-
x	1123707	1122196	-
x	1125916	1124657	-
x	1132902	1133873	+
x	1134896	1135189	+
x	1142068	1142676	+
x	1150329	1150796	+
x	1155688	1155780	+
x	1163180	1162686	-
x	1163075	1162686	-
x	1164201	1163863	-
x	1164742	1164623	-
x	1168240	1167932	-
x	1168204	1167932	-
x	1169203	1168340	-
x	1170581	1169550	-
x	1172998	1172405	-
x	1173130	1174440	+
x	1173145	1174440	+
x	1176648	1177556	+
x	1180336	1180674	+
x	1180698	1181012	+
x	1181009	1181143	+
x	1182586	1182374	-
x	1182520	1182374	-
x	1183166	1184347	+
x	1188653	1189510	+
x	1195936	1194527	-
x	1201562	1201852	+
x	1204146	1203196	-
x	1204363	1205430	+
x	1204537	1205430	+
x	1210215	1209754	-
x	1211069	1211419	+
x	1218262	1218714	+
x	1232349	1231363	-
x	1232450	1233151	+
x	1236183	1236593	+
x	1246831	1246631	-
x	1265113	1262834	-
x	1265143	1262834	-
x	1265689	1265925	+
x	1267895	1266039	-
x	1269219	1268851	-
x	1272782	1271967	-
x	1273826	1274908	+
x	1276187	1277098	+
x	1277032	1278531	+
x	1277119	1278531	+
x	1281428	1280064	-
x	1281512	1280064	-
x	1280624	1280064	-
x	1281657	1282064	+
x	1282147	1282584	+
x	1287893	1286820	-
x	1287863	1286820	-
x	1296502	1297167	+
x	1303888	1303586	-
x	1312769	1313095	+
x	1317490	1323747	+
x	1318999	1323747	+
x	1332827	1331454	-
x	1342732	1343067	+
x	1342768	1343067	+
x	1343117	1344289	+
x	1344600	1344719	+
x	1346417	1345122	-
x	1346432	1345122	-
x	1351452	1350700	-
x	1367915	1367268	-
x	1368914	1369573	+
x	1369109	1369573	+
x	1370139	1371227	+
x	1380601	1379996	-
x	1388032	1388304	+
x	1396768	1393124	-
x	1408358	1407153	-
x	1411998	1413125	+
x	1413724	1413251	-
x	1417093	1417707	+
x	1423554	1422781	-
x	1429681	1429205	-
x	1464812	1465057	+
x	1471016	1471447	+
x	1472252	1471938	-
x	1485727	1486611	+
x	1492570	1492112	-
x	1492749	1492567	-
x	1533178	1535790	+
x	1536896	1536672	-
x	1536908	1536672	-
x	1539329	1538142	-
x	1544879	1545139	+
x	1546344	1545211	-
x	1568742	1569368	+
x	1569782	1571038	+
x	1571157	1572377	+
x	1573928	1572450	-
x	1576791	1576468	-
x	1581160	1581873	+
x	1581271	1581873	+
x	1584932	1585414	+
x	1592832	1592113	-
x	1596030	1596494	+
x	1602241	1603224	+
x	1616597	1616734	+
x	1617303	1616683	-
x	1617312	1616683	-
x	1620963	1620727	-
x	1622019	1622432	+
x	1624034	1622571	-
x	1627130	1627369	+
x	1639226	1635000	-
x	1642816	1640600	-
x	1642965	1644230	+
x	1645265	1644258	-
x	1661358	1660246	-
x	1673056	1673781	+
x	1681520	1680654	-
x	1685364	1685627	+
x	1686794	1688641	+
x	1691524	1692525	+
x	1692578	1693867	+
x	1699073	1698633	-
x	1707687	1708733	+
x	1715370	1715639	+
x	1715665	1716705	+
x	1722345	1718809	-
x	1744478	1745884	+
x	1746881	1747489	+
x	1757970	1755934	-
x	1764073	1764816	+
x	1779258	1778566	-
x	1779782	1779498	-
x	1784698	1783832	-
x	1784788	1783832	-
x	1784794	1783832	-
x	1786725	1786964	+
x	1794947	1796290	+
x	1794974	1796290	+
x	1798685	1799422	+
x	1805631	1806449	+
x	1806482	1807750	+
x	1808559	1809968	+
x	1823562	1824188	+
x	1832343	1834562	+
x	1837633	1835963	-
x	1843561	1842380	-
x	1847432	1843908	-
x	1847715	1848269	+
x	1854091	1855149	+
x	1866232	1866744	+
x	1881878	1883410	+
x	1889620	1888967	-
x	1891701	1892096	+
x	1895201	1895476	+
x	1897620	1898528	+
x	1900476	1901471	+
x	1905815	1906039	+
x	1912985	1913161	+
x	1924950	1924360	-
x	1929878	1929711	-
x	1934070	1934831	+
x	1941645	1941752	+
x	1942871	1942644	-
x	1947637	1947344	-
x	1952370	1952122	-
x	1952313	1952122	-
x	1953945	1952392	-
x	1958488	1957991	-
x	1962309	1962641	+
x	1962357	1962641	+
x	1967860	1967675	-
x	1970330	1972927	+
x	1985709	1984678	-
x	1987686	1988825	+
x	1993659	1994198	+
x	1997308	1994465	-
x	1998720	1998953	+
x	2006671	2006946	+
x	2009566	2010810	+
x	2020828	2020379	-
x	2028932	2031730	+
x	2033479	2034651	+
x	2036264	2036566	+
x	2036639	2037730	+
x	2038157	2038456	+
x	2038614	2038775	+
x	2038776	2038895	+
x	2055094	2053175	-
x	2056286	2055939	-
x	2058170	2059402	+
x	2059534	2060940	+
x	2063611	2062409	-
x	2064773	2065675	+
x	2070926	2069430	-
x	2077948	2078877	+
x	2083767	2084024	+
x	2092755	2092955	+
x	2095177	2092952	-
x	2096108	2095845	-
x	2101894	2100455	-
x	2105520	2105840	+
x	2109212	2109838	+
x	2121253	2123667	+
x	2121331	2123667	+
x	2130063	2129686	-
x	2131875	2132561	+
x	2133239	2133021	-
x	2146334	2145576	-
x	2146833	2146660	-
x	2154554	2153430	-
x	2161444	2161214	-
x	2165560	2164967	-
x	2166260	2165643	-
x	2175599	2171193	-
x	2178867	2175904	-
x	2191494	2190715	-
x	2204160	2205608	+
x	2209999	2209478	-
x	2209998	2210351	+
x	2215205	2215462	+
x	2219868	2221112	+
x	2221139	2222380	+
x	2226363	2226971	+
x	2234355	2234095	-
x	2236930	2237160	+
x	2240653	2240925	+
x	2243145	2242897	-
x	2268071	2268319	+
x	2268919	2269398	+
x	2272684	2271794	-
x	2273038	2273613	+
x	2274883	2275611	+
x	2275601	2276017	+
x	2275715	2276017	+
x	2276332	2276033	-
x	2284852	2280032	-
x	2293595	2293110	-
x	2295822	2296229	+
x	2295906	2296229	+
x	2304211	2303894	-
x	2317335	2309143	-
x	2322129	2321905	-
x	2325532	2322743	-
x	2330891	2331292	+
x	2331706	2331293	-
x	2335669	2336079	+
x	2335753	2336079	+
x	2341556	2342113	+
x	2343607	2342834	-
x	2347900	2347649	-
x	2349206	2348907	-
x	2350992	2350822	-
x	2351029	2351343	+
x	2353760	2354158	+
x	2354476	2354147	-
x	2358998	2359303	+
x	2359965	2360195	+
x	2369336	2369085	-
x	2374242	2373943	-
x	2376768	2379317	+
x	2379427	2380143	+
x	2381129	2380833	-
x	2384205	2383990	-
x	2386048	2384297	-
x	2385934	2384297	-
x	2387379	2388020	+
x	2393323	2392808	-
x	2401533	2400763	-
x	2401830	2400763	-
x	2401796	2401530	-
x	2403646	2403849	+
x	2406972	2407202	+
x	2411964	2412245	+
x	2415283	2413937	-
x	2416283	2416068	-
x	2421186	2420401	-
x	2429964	2428495	-
x	2435564	2435223	-
x	2442830	2441796	-
x	2446757	2445834	-
x	2452266	2452084	-
x	2455417	2454530	-
x	2459149	2458010	-
x	2460354	2462165	+
x	2465475	2464318	-
x	2465912	2465661	-
x	2465939	2465661	-
x	2469840	2470598	+
x	2482609	2481533	-
x	2482819	2481533	-
x	2484642	2485388	+
x	2513784	2513482	-
x	2518231	2517860	-
x	2518529	2518353	-
x	2518541	2519299	+
x	2521539	2520580	-
x	2521635	2522402	+
x	2522733	2522497	-
x	2524598	2527390	+
x	2534506	2535321	+
x	2541322	2541128	-
x	2541242	2541460	+
x	2545475	2546113	+
x	2547710	2546190	-
x	2546612	2546190	-
x	2556767	2556435	-
x	2558951	2558634	-
x	2559233	2558985	-
x	2559365	2559898	+
x	2562184	2561270	-
x	2566729	2566923	+
x	2573387	2573902	+
x	2579774	2580841	+
x	2583836	2584495	+
x	2586013	2585804	-
x	2587896	2588489	+
x	2588276	2588710	+
x	2590998	2590816	-
x	2591933	2592265	+
x	2591996	2592265	+
x	2592538	2592212	-
x	2592535	2592212	-
x	2593833	2594120	+
x	2594065	2594217	+
x	2594226	2594567	+
x	2594600	2595196	+
x	2595274	2595543	+
x	2604941	2603511	-
x	2605487	2604942	-
x	2606152	2605487	-
x	2619770	2620525	+
x	2629801	2628464	-
x	2630394	2630813	+
x	2631069	2631326	+
x	2637139	2637020	-
x	2637777	2637451	-
x	2639495	2637969	-
x	2641116	2639578	-
x	2642872	2641334	-
x	2643362	2643589	+
x	2660383	2660042	-
x	2663543	2663241	-
x	2665048	2665233	+
x	2680410	2675362	-
x	2689129	2684888	-
x	2690961	2691944	+
x	2693753	2693962	+
x	2696437	2695310	-
x	2707452	2708537	+
x	2712381	2712710	+
x	2717922	2718491	+
x	2720432	2720160	-
x	2720436	2721410	+
x	2720691	2721410	+
x	2725975	2725025	-
x	2727559	2726006	-
x	2730024	2728798	-
x	2730979	2730146	-
x	2736115	2735450	-
x	2740252	2740521	+
x	2740502	2740269	-
x	2740535	2740269	-
x	2740734	2740540	-
x	2743808	2743518	-
x	2751505	2749466	-
x	2751383	2751661	+
x	2760812	2760441	-
x	2764929	2762269	-
x	2766854	2766336	-
x	2767668	2767522	-
x	2771393	2769417	-
x	2775438	2777054	+
x	2775528	2777054	+
x	2782905	2783711	+
x	2787834	2788238	+
x	2789946	2790239	+
x	2799282	2798797	-
x	2799578	2799835	+
x	2800214	2799891	-
x	2805810	2804335	-
x	2807316	2806039	-
x	2819847	2819641	-
x	2821401	2821622	+
x	2837920	2836574	-
x	2843184	2841874	-
x	2843169	2841874	-
x	2843272	2843457	+
x	2847079	2846828	-
x	2864409	2864636	+
x	2866574	2867584	+
x	2868225	2868001	-
x	2871575	2871171	-
x	2873764	2874462	+
x	2877727	2876525	-
x	2890295	2889894	-
x	2894606	2894283	-
x	2895075	2895464	+
x	2911360	2912100	+
x	2920080	2919406	-
x	2923524	2921143	-
x	2929748	2929539	-
x	2934838	2936499	+
x	2938809	2939054	+
x	2941250	2941708	+
x	2943387	2943674	+
x	2956693	2956920	+
x	2958347	2956917	-
x	2959751	2960428	+
x	2973418	2973164	-
x	2975722	2973422	-
x	2975758	2973422	-
x	2975787	2976029	+
x	2982167	2981850	-
x	2984976	2985344	+
x	2988513	2987887	-
x	2988961	2988545	-
x	2991650	2991285	-
x	2993389	2992922	-
x	2993441	2993713	+
x	2994967	2995833	+
x	2996647	2997213	+
x	2999641	3001227	+
x	3008060	3008692	+
x	3032412	3032155	-
x	3032278	3032466	+
x	3033790	3033503	-
x	3033751	3033503	-
x	3034386	3035387	+
x	3034416	3035387	+
x	3037292	3036225	-
x	3037387	3038802	+
x	3043743	3044453	+
x	3046590	3046838	+
x	3053413	3052721	-
x	3056950	3056330	-
x	3058578	3056941	-
x	3063967	3063761	-
x	3065544	3065810	+
x	3065767	3067446	+
x	3065869	3067446	+
x	3079088	3078177	-
x	3085570	3085085	-
x	3086435	3085635	-
x	3088675	3088322	-
x	3092472	3091264	-
x	3094864	3095325	+
x	3096258	3095329	-
x	3114141	3113536	-
x	3114147	3113536	-
x	3119613	3119266	-
x	3122686	3122462	-
x	3125049	3124420	-
x	3124822	3125226	+
x	3125616	3126767	+
x	3126989	3127258	+
x	3136621	3135596	-
x	3137773	3136625	-
x	3145252	3144530	-
x	3145075	3144530	-
x	3146231	3145347	-
x	3147136	3146234	-
x	3148693	3147968	-
x	3148650	3148258	-
x	3155266	3153947	-
x	3173906	3175753	+
x	3173909	3175753	+
x	3179850	3180065	+
x	3180994	3180221	-
x	3186331	3186525	+
x	3188840	3186984	-
x	3194589	3193300	-
x	3194668	3194925	+
x	3195378	3196097	+
x	3196193	3196384	+
x	3198551	3199141	+
x	3207074	3205695	-
x	3207685	3207074	-
x	3207661	3207074	-
x	3207745	3207074	-
x	3213537	3212323	-
x	3219857	3219471	-
x	3250988	3250074	-
x	3251179	3250988	-
x	3251258	3251043	-
x	3254443	3254754	+
x	3255170	3256921	+
x	3262545	3267161	+
x	3283666	3284682	+
x	3301178	3301708	+
x	3301440	3301979	+
x	3307838	3302976	-
x	3308113	3307823	-
x	3313817	3312069	-
x	3320027	3319053	-
x	3325202	3324789	-
x	3326064	3325246	-
x	3329574	3329759	+
x	3335967	3335182	-
x	3337407	3337577	+
x	3343085	3342831	-
x	3347403	3347978	+
x	3349581	3348505	-
x	3350800	3351471	+
x	3351563	3353791	+
x	3362780	3361983	-
x	3362828	3361983	-
x	3368642	3368442	-
x	3369137	3368934	-
x	3369311	3370276	+
x	3371247	3371029	-
x	3372307	3371294	-
x	3375048	3375395	+
x	3375057	3375395	+
x	3376418	3377539	+
x	3383524	3384180	+
x	3388564	3388199	-
x	3390322	3390038	-
x	3390380	3390204	-
x	3391053	3390745	-
x	3392703	3392389	-
x	3394380	3393085	-
x	3394395	3393085	-
x	3398629	3397784	-
x	3403256	3404488	+
x	3404522	3404911	+
x	3406631	3405729	-
x	3411914	3411129	-
x	3416677	3416928	+
x	3425876	3423795	-
x	3431072	3430422	-
x	3436828	3435026	-
x	3439001	3441283	+
x	3441332	3441514	+
x	3448086	3447562	-
x	3460193	3459168	-
x	3464689	3466107	+
x	3479370	3479690	+
x	3483653	3483177	-
x	3491839	3492141	+
x	3493554	3493865	+
x	3494526	3495821	+
x	3494574	3495821	+
x	3501692	3502186	+
x	3502629	3503498	+
x	3507304	3506723	-
x	3514457	3514855	+
x	3516400	3516068	-
x	3516382	3516068	-
x	3524428	3523211	-
x	3524715	3525191	+
x	3524805	3525191	+
x	3532405	3533637	+
x	3533630	3534265	+
x	3542445	3540514	-
x	3544270	3543113	-
x	3551628	3552974	+
x	3560741	3562030	+
x	3568620	3568829	+
x	3570110	3569076	-
x	3570134	3569076	-
x	3570618	3570394	-
x	3570745	3570563	-
x	3571325	3571789	+
x	3583063	3580874	-
x	3592051	3592260	+
x	3592402	3593076	+
x	3596422	3595565	-
x	3597728	3597441	-
x	3603411	3604022	+
x	3609544	3609329	-
x	3611329	3610679	-
x	3612800	3612573	-
x	3622149	3621559	-
x	3636700	3634937	-
x	3645417	3646841	+
x	3651203	3651622	+
x	3651919	3651650	-
x	3654692	3654805	+
x	3658680	3657757	-
x	3659663	3661159	+
x	3661147	3661887	+
x	3675509	3675937	+
x	3676571	3677536	+
x	3681103	3680666	-
x	3702683	3701238	-
x	3715609	3715121	-
x	3715759	3716097	+
x	3720727	3720095	-
x	3721926	3721372	-
x	3724019	3724237	+
x	3735983	3736369	+
x	3736231	3736875	+
x	3749304	3741691	-
x	3766212	3765688	-
x	3767499	3766759	-
x	3779568	3768418	-
x	3779442	3768418	-
x	3790932	3792809	+
x	3797272	3793976	-
x	3797251	3793976	-
x	3807568	3807287	-
x	3808554	3807565	-
x	3811134	3811913	+
x	3811840	3812580	+
x	3822139	3820559	-
x	3822821	3823462	+
x	3822836	3823462	+
x	3837544	3837843	+
x	3845777	3844986	-
x	3850360	3849878	-
x	3850986	3850351	-
x	3853367	3852990	-
x	3854327	3854857	+
x	3855930	3855175	-
x	3860713	3860351	-
x	3862710	3862555	-
x	3862944	3862735	-
x	3868505	3867651	-
x	3886207	3884795	-
x	3886219	3884795	-
x	3887163	3887843	+
x	3888533	3889801	+
x	3890533	3889763	-
x	3894364	3894143	-
x	3897669	3898628	+
x	3897675	3898628	+
x	3897765	3898628	+
x	3902528	3900855	-
x	3904444	3903659	-
x	3906779	3907960	+
x	3907990	3911238	+
x	3908173	3911238	+
x	3913592	3912846	-
x	3913535	3912846	-
x	3920425	3920589	+
x	3928236	3926884	-
x	3943424	3950383	+
x	3970305	3971216	+
x	3988144	3989844	+
x	3996928	3995909	-
x	4010524	4012419	+
x	4020963	4020112	-
x	4021214	4020948	-
x	4029133	4029864	+
x	4029265	4029864	+
x	4030949	4029870	-
x	4032043	4032909	+
x	4042543	4041749	-
x	4050077	4049379	-
x	4055816	4055733	-
x	4058899	4057988	-
x	4067045	4066884	-
x	4073417	4073298	-
x	4075452	4076252	+
x	4078906	4077854	-
x	4083517	4084242	+
x	4086638	4085670	-
x	4093768	4093574	-
x	4094163	4094354	+
x	4095727	4094519	-
x	4106984	4107529	+
x	4107916	4107662	-
x	4107985	4107662	-
x	4108544	4108002	-
x	4109221	4108541	-
x	4111100	4109937	-
x	4112170	4111097	-
x	4117539	4116676	-
x	4120171	4120527	+
x	4120476	4120670	+
x	4131692	4131531	-
x	4138440	4139480	+
x	4142117	4141752	-
x	4142084	4141752	-
x	4142201	4141752	-
x	4144692	4145393	+
x	4145390	4146520	+
x	4145519	4146520	+
x	4147727	4149049	+
x	4153464	4153240	-
x	4156936	4155749	-
x	4164137	4163031	-
x	4166861	4168675	+
x	4171216	4171923	+
x	4173914	4173513	-
x	4175307	4176719	+
x	4176716	4177999	+
x	4182468	4182710	+
x	4182607	4183170	+
x	4191250	4193616	+
x	4208441	4208803	+
x	4213222	4212722	-
x	4213383	4214327	+
x	4213422	4214327	+
x	4218539	4218841	+
x	4224010	4222583	-
x	4224785	4224081	-
x	4225204	4225983	+
x	4225294	4225983	+
x	4234021	4235649	+
x	4248312	4248740	+
x	4259515	4262811	+
x	4267014	4267328	+
x	4278463	4277564	-
x	4281897	4279954	-
x	4283338	4282841	-
x	4283374	4282841	-
x	4296997	4297332	+
x	4312537	4306226	-
x	4315790	4314564	-
x	4316368	4315787	-
x	4316392	4315787	-
x	4318024	4316399	-
x	4322039	4323397	+
x	4323402	4323815	+
x	4331724	4331248	-
x	4332826	4333041	+
x	4338054	4338479	+
x	4350947	4351273	+
x	4364066	4365181	+
x	4368007	4369542	+
x	4377757	4376417	-
x	4383170	4381518	-
x	4396996	4396658	-
x	4398384	4397152	-
x	4398471	4397152	-
x	4423766	4423416	-
