SACOL0001	544	1905	+	dnaA
SACOL0002	2183	3316	+	dnaN
SACOL0003	3697	3942	+	SACOL0003
SACOL0004	3939	5051	+	SACOL0004
SACOL0005	5061	6995	+	gyrB
SACOL0006	7032	9695	+	gyrA
SACOL0007	9782	10483	-	SACOL0007
SACOL0008	10920	12434	+	hutH
SACOL0009	12813	14099	+	serS
SACOL0010	14749	15444	+	SACOL0010
SACOL0011	15441	15770	+	SACOL0011
SACOL0012	16112	17101	+	SACOL0012
SACOL0013	17407	18330	+	SACOL0013
SACOL0014	18345	20312	+	SACOL0014
SACOL0015	20309	20755	+	rplI
SACOL0016	20787	22187	+	dnaB
SACOL0017	22263	22355	+	SACOL0017
SACOL0018	22465	23748	+	purA
SACOL0019	24952	25653	+	yycF
SACOL0020	25666	27492	+	yycG
SACOL0021	27485	28819	+	yycH
SACOL0022	28820	29608	+	yycI
SACOL0023	29998	30798	+	yycJ
SACOL0024	31026	33344	+	sasH
SACOL0025	33576	34055	-	SACOL0025
SACOL0026	34372	35667	+	SACOL0026
SACOL0027	36082	36321	+	SACOL0027
SACOL0028	36353	37027	-	SACOL0028
SACOL0029	37285	37452	+	SACOL0029
SACOL0030	37550	37780	+	SACOL0030
SACOL0031	38329	39072	+	SACOL0031
SACOL0032	39169	39597	+	maoC
SACOL0033	39643	41649	-	mecA
SACOL0034	41749	42735	+	mecR1
SACOL0035	42707	42967	+	SACOL0035
SACOL0036	42958	44481	-	SACOL0036
SACOL0037	44617	45123	-	SACOL0037
SACOL0038	45138	45449	-	SACOL0038
SACOL0039	45451	45543	-	SACOL0039
SACOL0040	45536	45886	-	SACOL0040
SACOL0042	47998	49347	-	ccrA1
SACOL0043	49535	51304	-	SACOL0043
SACOL0044	51304	51600	-	SACOL0044
SACOL0045	51771	53348	+	SACOL0045
SACOL0046	53428	54756	-	SACOL0046
SACOL0047	54775	55842	-	SACOL0047
SACOL0048	55981	56241	+	SACOL0048
SACOL0049	56265	56996	+	SACOL0049
SACOL0050	57212	61858	+	pls
SACOL0051	61982	63598	+	SACOL0051
SACOL0052	63758	65269	-	SACOL0052
SACOL0055	67632	67754	+	SACOL0055
SACOL0056	67820	67948	-	SACOL0056
SACOL0057	68407	68499	+	SACOL0057
SACOL0058	68646	70391	+	SACOL0058
SACOL0059	70485	70937	-	SACOL0059
SACOL0060	70953	71054	-	SACOL0060
SACOL0061	71152	71907	-	SACOL0061
SACOL0062	71907	72167	-	SACOL0062
SACOL0063	72304	73371	+	SACOL0063
SACOL0064	73402	74736	+	SACOL0064
SACOL0065	74755	75948	+	SACOL0065
SACOL0066	76215	76316	-	SACOL0066
SACOL0067	76615	77547	-	SACOL0067
SACOL0068	77910	78113	+	SACOL0068
SACOL0069	78162	78458	+	SACOL0069
SACOL0070	78530	79750	-	SACOL0070
SACOL0071	79743	80204	-	SACOL0071
SACOL0072	80406	81266	+	SACOL0072
SACOL0073	81621	82154	-	SACOL0073
SACOL0074	82254	82988	+	SACOL0074
SACOL0075	83422	84024	+	SACOL0075
SACOL0076	84291	87443	+	SACOL0076
SACOL0077	87500	87982	+	SACOL0077
SACOL0078	88187	89173	+	plc
SACOL0079	89394	90164	+	SACOL0079
SACOL0080	90216	90986	+	SACOL0080
SACOL0081	91050	91214	+	SACOL0081
SACOL0082	91227	91823	+	SACOL0082
SACOL0083	91890	92657	+	SACOL0083
SACOL0084	92790	94988	+	SACOL0084
SACOL0085	95139	96317	+	SACOL0085
SACOL0086	96319	97707	+	SACOL0086
SACOL0087	97875	97982	+	SACOL0087
SACOL0088	98200	99861	-	SACOL0088
SACOL0089	100187	101962	-	SACOL0089
SACOL0090	102136	103008	-	SACOL0090
SACOL0091	103121	104518	+	SACOL0091
SACOL0092	104708	105181	+	SACOL0092
SACOL0093	105443	107035	+	SACOL0093
SACOL0094	107143	107265	+	SACOL0094
SACOL0095	107364	108890	-	spa
SACOL0096	109311	110063	-	sarS
SACOL0097	110432	111430	-	sirC
SACOL0098	111427	112422	-	sirB
SACOL0099	112438	113430	-	sirA
SACOL0100	113694	114641	+	SACOL0100
SACOL0101	114650	115648	+	SACOL0101
SACOL0102	115669	117423	+	SACOL0102
SACOL0103	117416	118672	+	SACOL0103
SACOL0104	118662	120398	+	SACOL0104
SACOL0105	120379	122157	+	SACOL0105
SACOL0106	122132	122908	+	SACOL0106
SACOL0107	122908	124110	+	SACOL0107
SACOL0108	124114	124878	+	SACOL0108
SACOL0109	125074	125481	+	SACOL0109
SACOL0110	125531	126157	+	SACOL0110
SACOL0111	126369	127145	+	SACOL0111
SACOL0112	127289	127411	+	SACOL0112
SACOL0113	127490	128461	+	SACOL0113
SACOL0114	128424	129116	+	SACOL0114
SACOL0115	129326	130492	+	SACOL0115
SACOL0116	130473	131711	+	SACOL0116
SACOL0117	131701	133131	+	SACOL0117
SACOL0118	133399	133998	+	sodA1
SACOL0119	134366	135091	+	sasD
SACOL0120	135283	136038	-	SACOL0120
SACOL0121	136274	136981	+	deoD1
SACOL0122	136988	138340	+	SACOL0122
SACOL0123	138421	139083	+	deoC1
SACOL0124	139111	140289	+	deoB
SACOL0125	140420	141235	-	SACOL0125
SACOL0126	141232	142032	-	SACOL0126
SACOL0127	142034	142807	-	SACOL0127
SACOL0128	143021	143977	-	SACOL0128
SACOL0129	144206	145750	+	SACOL0129
SACOL0130	145801	147336	+	SACOL0130
SACOL0131	147420	147623	+	SACOL0131
SACOL0133	148970	149074	-	SACOL0133
SACOL0135	150451	153060	+	SACOL0135
SACOL0136	153405	154073	+	cap5A
SACOL0137	154089	154775	+	cap5B
SACOL0138	154778	155542	+	cap5C
SACOL0139	155562	157385	+	cap5D
SACOL0140	157375	158403	+	cap5E
SACOL0141	158416	159525	+	cap5F
SACOL0142	159529	160653	+	cap5G
SACOL0143	160656	161282	+	cap5H
SACOL0144	161287	162396	+	cap5I
SACOL0145	162410	163576	+	cap5J
SACOL0146	163569	164774	+	cap5K
SACOL0147	164775	165980	+	cap5L
SACOL0148	165991	166548	+	cap5M
SACOL0149	166548	167435	+	cap5N
SACOL0150	167489	168751	+	cap5O
SACOL0151	168798	169973	+	cap5P
SACOL0152	170038	170364	-	SACOL0152
SACOL0153	170371	170754	-	SACOL0153
SACOL0154	171181	172668	+	aldA1
SACOL0155	173314	174273	+	SACOL0155
SACOL0156	174335	174538	-	SACOL0156
SACOL0157	174717	175229	+	SACOL0157
SACOL0159	177296	178057	+	SACOL0159
SACOL0160	178070	179101	+	SACOL0160
SACOL0161	179318	179677	+	SACOL0161
SACOL0162	179850	180875	+	SACOL0162
SACOL0163	181261	182511	+	SACOL0163
SACOL0164	182958	190133	+	SACOL0164
SACOL0165	190146	190790	+	SACOL0165
SACOL0166	191118	191612	-	SACOL0166
SACOL0167	191867	192631	-	argB
SACOL0168	192647	193888	-	argJ
SACOL0169	193900	194931	-	argC1
SACOL0170	194970	196154	-	rocD1
SACOL0171	196407	197762	-	brnQ1
SACOL0172	198038	198535	-	entB
SACOL0173	198662	200302	-	ipdC
SACOL0174	200496	200597	+	SACOL0174
SACOL0175	200576	202621	-	SACOL0175
SACOL0176	203207	204262	+	SACOL0176
SACOL0177	204259	205158	+	SACOL0177
SACOL0178	205170	206624	+	SACOL0178
SACOL0179	206627	207502	+	SACOL0179
SACOL0180	208190	210979	+	SACOL0180
SACOL0181	211184	212026	+	SACOL0181
SACOL0182	212028	212951	+	SACOL0182
SACOL0183	212938	214050	+	SACOL0183
SACOL0184	214315	215907	-	SACOL0184
SACOL0185	216035	217342	+	SACOL0185
SACOL0186	217348	218511	+	SACOL0186
SACOL0187	218528	220303	+	SACOL0187
SACOL0188	220341	222347	+	ggt
SACOL0189	222645	223418	-	SACOL0189
SACOL0190	223608	224234	-	SACOL0190
SACOL0191	224443	225021	+	SACOL0191
SACOL0192	225404	226501	+	SACOL0192
SACOL0193	226514	227785	+	SACOL0193
SACOL0194	227788	229056	+	SACOL0194
SACOL0195	229058	229897	+	SACOL0195
SACOL0196	229971	231047	+	SACOL0196
SACOL0197	231072	232112	+	SACOL0197
SACOL0198	232167	233135	+	SACOL0198
SACOL0199	233496	234068	-	SACOL0199
SACOL0200	234223	235602	+	SACOL0200
SACOL0201	235961	236719	-	SACOL0201
SACOL0202	236712	238268	-	SACOL0202
SACOL0203	238265	239233	-	SACOL0203
SACOL0204	239821	242070	+	pflB
SACOL0205	242093	242848	+	pflA
SACOL0206	242952	243146	+	SACOL0206
SACOL0207	243184	244947	+	SACOL0207
SACOL0208	245111	245455	-	SACOL0208
SACOL0209	245645	247555	+	SACOL0209
SACOL0210	248021	248161	+	SACOL0210
SACOL0211	248158	249342	-	SACOL0211
SACOL0212	249372	251633	-	SACOL0212
SACOL0213	251819	253030	-	SACOL0213
SACOL0214	253142	254647	-	SACOL0214
SACOL0215	254673	256244	-	SACOL0215
SACOL0216	256691	257833	+	SACOL0216
SACOL0217	258147	259622	-	SACOL0217
SACOL0218	259820	260176	-	SACOL0218
SACOL0219	260333	260506	-	SACOL0219
SACOL0220	260532	261677	-	SACOL0220
SACOL0222	262250	263203	+	ldh1
SACOL0223	263371	263496	-	SACOL0223
SACOL0224	263523	265052	-	SACOL0224
SACOL0225	265414	266349	+	SACOL0225
SACOL0226	266459	266557	+	SACOL0226
SACOL0227	266588	266701	+	SACOL0227
SACOL0228	266688	268784	+	SACOL0228
SACOL0229	268769	269236	+	SACOL0229
SACOL0230	269259	269537	+	SACOL0230
SACOL0231	269602	269736	-	SACOL0231
SACOL0232	269764	271023	+	SACOL0232
SACOL0233	271041	272096	+	gutB
SACOL0234	272098	272244	+	SACOL0234
SACOL0235	272268	273311	+	SACOL0235
SACOL0236	273839	274555	+	SACOL0236
SACOL0237	274548	275573	+	SACOL0237
SACOL0238	275595	277289	+	SACOL0238
SACOL0239	277717	278886	+	SACOL0239
SACOL0240	279162	279878	+	SACOL0240
SACOL0241	279871	280896	+	SACOL0241
SACOL0242	280918	282606	+	SACOL0242
SACOL0243	282642	284363	+	SACOL0243
SACOL0244	284503	285177	+	scdA
SACOL0245	285424	287178	+	lytS
SACOL0246	287181	287921	+	lytR
SACOL0247	288034	288477	+	lrgA
SACOL0248	288470	289171	+	lrgB
SACOL0249	289279	289983	-	SACOL0249
SACOL0250	290132	290923	+	SACOL0250
SACOL0251	290939	292375	+	bglA
SACOL0252	292809	293570	-	SACOL0252
SACOL0253	293821	294735	-	rbsK
SACOL0254	294763	295167	-	SACOL0254
SACOL0255	295182	296063	-	SACOL0255
SACOL0257	296295	297293	-	SACOL0257
SACOL0258	297444	297623	+	SACOL0258
SACOL0259	297673	298065	+	SACOL0259
SACOL0261	298738	300114	-	SACOL0261
SACOL0262	300348	301340	+	SACOL0262
SACOL0263	301648	302616	+	lytM
SACOL0264	302668	303327	-	SACOL0264
SACOL0265	303341	304261	-	SACOL0265
SACOL0266	304258	305424	-	SACOL0266
SACOL0267	305492	307015	-	SACOL0267
SACOL0268	307286	307939	+	SACOL0268
SACOL0269	307973	308560	+	SACOL0269
SACOL0270	308703	309596	-	SACOL0270
SACOL0271	309844	310137	+	SACOL0271
SACOL0272	310221	313250	+	SACOL0272
SACOL0273	313250	313708	+	SACOL0273
SACOL0274	313680	313922	+	SACOL0274
SACOL0275	313935	315269	+	SACOL0275
SACOL0276	315291	319730	+	yukA
SACOL0277	319760	320152	+	SACOL0277
SACOL0278	320168	320482	+	SACOL0278
SACOL0279	320482	321156	+	SACOL0279
SACOL0280	321156	321473	+	SACOL0280
SACOL0281	321483	323327	+	SACOL0281
SACOL0282	323338	323829	+	SACOL0282
SACOL0283	324037	324720	+	SACOL0283
SACOL0284	324867	325478	+	SACOL0284
SACOL0285	325614	325832	+	SACOL0285
SACOL0286	325964	326464	+	SACOL0286
SACOL0287	326535	326975	+	SACOL0287
SACOL0289	327492	327983	+	SACOL0289
SACOL0290	328193	328876	+	SACOL0290
SACOL0291	329462	329962	+	SACOL0291
SACOL0292	329974	330474	+	SACOL0292
SACOL0293	330485	330985	+	SACOL0293
SACOL0294	331056	331496	+	SACOL0294
SACOL0295	331507	332007	+	SACOL0295
SACOL0296	332018	332518	+	SACOL0296
SACOL0297	332529	333017	+	SACOL0297
SACOL0298	333038	333151	+	SACOL0298
SACOL0299	333640	334014	+	SACOL0299
SACOL0300	334167	334565	+	SACOL0300
SACOL0301	334781	335626	-	SACOL0301
SACOL0302	335842	337149	-	brnQ2
SACOL0303	337733	338623	+	SACOL0303
SACOL0304	338650	338823	-	SACOL0304
SACOL0305	338872	339921	+	SACOL0305
SACOL0306	339934	340611	+	SACOL0306
SACOL0307	340819	341850	+	pfoR
SACOL0308	342193	343311	+	SACOL0308
SACOL0309	343286	344209	+	SACOL0309
SACOL0310	344220	345440	+	SACOL0310
SACOL0311	345545	347077	-	SACOL0311
SACOL0312	347117	347998	-	nanA
SACOL0313	348156	349016	+	SACOL0313
SACOL0314	349294	350094	-	SACOL0314
SACOL0315	350234	350902	+	SACOL0315
SACOL0316	351029	352342	-	SACOL0316
SACOL0317	352760	354694	+	SACOL0317
SACOL0318	354785	355990	-	int
SACOL0319	356184	356897	-	SACOL0319
SACOL0320	356975	357202	-	SACOL0320
SACOL0321	357357	358076	-	SACOL0321
SACOL0322	358218	358436	+	SACOL0322
SACOL0323	358451	358759	+	SACOL0323
SACOL0324	358763	358915	-	SACOL0324
SACOL0325	358916	359707	+	SACOL0325
SACOL0326	359708	359932	+	SACOL0326
SACOL0327	359972	360217	+	SACOL0327
SACOL0328	360186	360551	-	SACOL0328
SACOL0329	360605	360805	+	SACOL0329
SACOL0330	360792	361172	-	SACOL0330
SACOL0331	361220	361411	+	SACOL0331
SACOL0332	361389	361640	-	SACOL0332
SACOL0333	361695	361958	+	SACOL0333
SACOL0334	361971	362132	+	SACOL0334
SACOL0335	362222	362539	+	SACOL0335
SACOL0336	362544	362804	+	SACOL0336
SACOL0337	362814	363035	+	SACOL0337
SACOL0338	363028	363651	+	SACOL0338
SACOL0339	363651	364070	+	ssb1
SACOL0340	364084	364779	+	SACOL0340
SACOL0341	364751	365551	+	SACOL0341
SACOL0342	365551	365907	+	SACOL0342
SACOL0343	365904	367145	+	SACOL0343
SACOL0344	367142	367357	+	SACOL0344
SACOL0345	367360	367581	+	SACOL0345
SACOL0346	367591	368016	+	SACOL0346
SACOL0347	368013	368417	+	SACOL0347
SACOL0348	368422	368607	+	SACOL0348
SACOL0349	368608	368865	+	SACOL0349
SACOL0350	368877	369233	+	SACOL0350
SACOL0351	369237	369479	+	SACOL0351
SACOL0352	369493	369699	+	SACOL0352
SACOL0353	369702	370103	+	SACOL0353
SACOL0354	370100	370447	+	SACOL0354
SACOL0355	370444	370752	+	SACOL0355
SACOL0356	370745	370981	+	SACOL0356
SACOL0357	370986	371528	+	dut
SACOL0358	371565	371771	+	SACOL0358
SACOL0359	371768	371962	+	SACOL0359
SACOL0360	371959	372162	+	SACOL0360
SACOL0361	372155	372307	+	SACOL0361
SACOL0362	372375	372575	+	SACOL0362
SACOL0363	372532	372882	+	SACOL0363
SACOL0364	372895	373332	+	SACOL0364
SACOL0365	373489	373803	+	SACOL0365
SACOL0366	373932	374237	+	SACOL0366
SACOL0367	374227	375918	+	SACOL0367
SACOL0368	375923	377161	+	SACOL0368
SACOL0369	377145	377918	+	SACOL0369
SACOL0370	377930	379093	+	SACOL0370
SACOL0371	379162	379440	+	SACOL0371
SACOL0372	379452	379784	+	SACOL0372
SACOL0373	379781	380182	+	SACOL0373
SACOL0374	380183	380578	+	SACOL0374
SACOL0375	380613	381254	+	SACOL0375
SACOL0376	381346	381801	+	SACOL0376
SACOL0377	381859	382209	+	SACOL0377
SACOL0378	382251	382409	+	SACOL0378
SACOL0379	382423	388623	+	SACOL0379
SACOL0380	388623	389447	+	SACOL0380
SACOL0381	389456	391039	+	SACOL0381
SACOL0382	391039	391329	+	SACOL0382
SACOL0383	391345	393255	+	SACOL0383
SACOL0384	393255	394721	+	SACOL0384
SACOL0385	394721	395110	+	SACOL0385
SACOL0386	395103	395267	+	SACOL0386
SACOL0387	395313	395612	+	SACOL0387
SACOL0388	395748	396050	+	SACOL0388
SACOL0389	396062	397516	+	SACOL0389
SACOL0390	398286	398408	+	SACOL0390
SACOL0391	398650	399477	-	SACOL0391
SACOL0392	399550	400749	-	SACOL0392
SACOL0393	400845	400937	+	SACOL0393
SACOL0394	401051	402052	+	SACOL0394
SACOL0395	402086	402418	+	SACOL0395
SACOL0396	402419	403219	+	SACOL0396
SACOL0397	403209	404153	+	SACOL0397
SACOL0398	404131	405153	+	SACOL0398
SACOL0399	405468	406493	+	SACOL0399
SACOL0400	406586	407932	-	SACOL0400
SACOL0401	407947	408231	-	SACOL0401
SACOL0402	408233	408676	-	SACOL0402
SACOL0403	408681	410636	-	SACOL0403
SACOL0404	410848	411267	+	SACOL0404
SACOL0405	411374	412729	+	SACOL0405
SACOL0406	412833	413273	+	SACOL0406
SACOL0407	413356	414714	-	glpT
SACOL0408	415022	415882	+	SACOL0408
SACOL0409	415962	417023	+	SACOL0409
SACOL0410	417037	417603	+	SACOL0410
SACOL0411	417663	418658	-	SACOL0411
SACOL0412	418756	419052	+	SACOL0412
SACOL0413	419132	419677	+	SACOL0413
SACOL0414	419945	420799	+	SACOL0414
SACOL0415	420796	422025	+	SACOL0415
SACOL0416	422006	423718	+	SACOL0416
SACOL0417	423810	424466	-	SACOL0417
SACOL0418	424528	424743	-	SACOL0418
SACOL0419	424852	425241	-	SACOL0419
SACOL0420	425482	425685	+	SACOL0420
SACOL0421	425682	426395	+	SACOL0421
SACOL0422	426420	427262	+	SACOL0422
SACOL0424	427262	427891	+	SACOL0424
SACOL0425	428258	429391	-	SACOL0425
SACOL0426	429930	431111	+	SACOL0426
SACOL0427	431194	431946	-	SACOL0427
SACOL0428	431989	434217	-	metE
SACOL0429	434214	436055	-	SACOL0429
SACOL0430	436024	437184	-	SACOL0430
SACOL0431	437181	438284	-	SACOL0431
SACOL0432	438948	439793	+	SACOL0432
SACOL0433	439950	440831	+	SACOL0433
SACOL0434	440861	441064	+	SACOL0434
SACOL0435	441076	442173	+	SACOL0435
SACOL0436	442259	442450	-	SACOL0436
SACOL0437	442712	442990	+	rpsF
SACOL0438	443011	443514	+	ssb2
SACOL0439	443566	443808	+	rpsR
SACOL0440	444074	445012	-	SACOL0440
SACOL0442	445958	446569	+	SACOL0442
SACOL0443	446938	447306	+	SACOL0443
SACOL0444	447487	448059	+	SACOL0444
SACOL0445	448197	448460	-	SACOL0445
SACOL0446	448760	449011	+	SACOL0446
SACOL0447	449437	450018	+	SACOL0447
SACOL0448	450084	450467	-	SACOL0448
SACOL0449	450722	451348	-	SACOL0449
SACOL0450	451421	451714	-	SACOL0450
SACOL0451	451793	453316	-	ahpF
SACOL0452	453332	453901	-	ahpC
SACOL0453	454393	455148	+	SACOL0453
SACOL0454	455229	456617	-	SACOL0454
SACOL0455	457594	458550	-	SACOL0455
SACOL0456	458668	459330	-	SACOL0456
SACOL0457	459473	459880	-	SACOL0457
SACOL0458	460392	460970	+	xpt
SACOL0459	460970	462238	+	pbuX
SACOL0460	462276	463742	+	guaB
SACOL0461	463767	465308	+	guaA
SACOL0462	465421	465957	-	SACOL0462
SACOL0463	466350	467054	-	SACOL0463
SACOL0464	467453	467725	-	SACOL0464
SACOL0465	467986	468138	-	SACOL0465
SACOL0466	468662	469021	-	SACOL0466
SACOL0467	469040	469885	-	SACOL0467
SACOL0468	470357	471037	+	SACOL0468
SACOL0469	471323	472018	+	SACOL0469
SACOL0470	472309	473367	+	SACOL0470
SACOL0471	473486	473623	+	SACOL0471
SACOL0472	473732	474658	+	SACOL0472
SACOL0473	475038	475736	+	SACOL0473
SACOL0474	476102	476785	+	SACOL0474
SACOL0475	476870	476971	-	SACOL0475
SACOL0476	477049	478605	+	hsdM1
SACOL0477	478598	479809	+	SACOL0477
SACOL0478	480192	480869	+	SACOL0478
SACOL0479	480891	482399	+	SACOL0479
SACOL0480	482503	482811	-	SACOL0480
SACOL0481	483149	483949	+	SACOL0481
SACOL0482	483981	484772	+	SACOL0482
SACOL0483	484842	485618	+	SACOL0483
SACOL0484	485794	486609	+	SACOL0484
SACOL0485	486628	487413	+	SACOL0485
SACOL0486	487593	488408	+	SACOL0486
SACOL0487	488401	489726	+	SACOL0487
SACOL0488	489723	490046	+	SACOL0488
SACOL0489	490065	490379	+	SACOL0489
SACOL0490	490669	490929	-	SACOL0490
SACOL0491	491048	492250	+	SACOL0491
SACOL0492	492353	492496	-	SACOL0492
SACOL0493	492519	492647	+	SACOL0493
SACOL0494	493838	495322	+	nuoF
SACOL0495	495335	498040	+	SACOL0495
SACOL0496	498202	498564	+	SACOL0496
SACOL0497	498793	499140	-	SACOL0497
SACOL0498	499247	499921	+	SACOL0498
SACOL0499	499958	500692	+	SACOL0499
SACOL0500	500802	500918	+	SACOL0500
SACOL0501	501148	502485	+	SACOL0501
SACOL0502	502702	503616	+	SACOL0502
SACOL0503	503600	504742	+	SACOL0503
SACOL0504	505036	506061	+	SACOL0504
SACOL0505	506065	506724	+	SACOL0505
SACOL0506	506761	507603	+	SACOL0506
SACOL0507	507935	508939	+	SACOL0507
SACOL0508	509124	509393	-	SACOL0508
SACOL0509	509542	509937	+	SACOL0509
SACOL0510	509927	510412	+	SACOL0510
SACOL0511	510581	511363	-	SACOL0511
SACOL0512	511360	512472	-	SACOL0512
SACOL0513	512593	513477	-	gltC
SACOL0514	513658	518157	+	gltB
SACOL0515	518175	519638	+	gltD
SACOL0516	520470	521897	+	SACOL0516
SACOL0517	521961	523601	+	treC
SACOL0518	523626	524354	+	treR
SACOL0519	524993	525517	+	SACOL0519
SACOL0520	525586	527283	+	dnaX
SACOL0521	527373	527690	+	SACOL0521
SACOL0522	527697	528293	+	recR
SACOL0523	535057	536394	+	SACOL0523
SACOL0524	536396	537013	+	tmk
SACOL0525	537041	537370	+	SACOL0525
SACOL0526	537584	538510	+	SACOL0526
SACOL0527	538511	539314	+	SACOL0527
SACOL0528	539331	539678	+	SACOL0528
SACOL0529	539952	540677	+	SACOL0529
SACOL0530	540670	540918	+	SACOL0530
SACOL0531	540920	541759	+	SACOL0531
SACOL0532	541784	541939	-	SACOL0532
SACOL0533	542044	544017	+	metS
SACOL0534	544048	544821	+	SACOL0534
SACOL0535	544988	545524	+	SACOL0535
SACOL0536	545535	546428	+	ksgA
SACOL0537	546528	546791	+	SACOL0537
SACOL0538	547101	547949	+	ispE
SACOL0539	547963	548787	+	purR
SACOL0540	548804	549184	+	SACOL0540
SACOL0541	549256	549558	+	spoVG
SACOL0542	549748	549879	+	SACOL0542
SACOL0543	549902	551254	+	glmU
SACOL0544	551401	552366	+	prsA
SACOL0545	552516	553169	+	rplY
SACOL0546	553480	554052	+	pth
SACOL0547	554052	557558	+	mfd
SACOL0548	557548	559074	+	SACOL0548
SACOL0549	559074	560267	+	SACOL0549
SACOL0550	560264	560527	+	SACOL0550
SACOL0551	560545	560937	+	SACOL0551
SACOL0552	561042	561443	+	SACOL0552
SACOL0553	561623	562918	+	tilS
SACOL0554	562923	563462	+	hpt
SACOL0555	563719	565812	+	SACOL0555
SACOL0556	566041	566922	+	SACOL0556
SACOL0557	567101	568033	+	cysK
SACOL0558	568249	569052	+	folP
SACOL0559	569030	569395	+	folB
SACOL0560	569392	569868	+	folK
SACOL0561	570262	570354	+	SACOL0561
SACOL0562	570407	571894	+	lysS
SACOL0563	583479	584861	-	SACOL0563
SACOL0564	584965	585852	+	SACOL0564
SACOL0565	585856	586416	+	SACOL0565
SACOL0566	586624	587838	-	nupC
SACOL0567	587996	588457	+	ctsR
SACOL0568	588476	589042	+	SACOL0568
SACOL0569	589032	590039	+	SACOL0569
SACOL0572	592995	594359	+	radA
SACOL0573	594384	595457	+	SACOL0573
SACOL0574	596014	597468	+	gltX
SACOL0575	597897	598538	+	cysE
SACOL0576	598522	599922	+	cysS
SACOL0577	599915	600319	+	SACOL0577
SACOL0578	600327	601073	+	SACOL0578
SACOL0579	601073	601597	+	SACOL0579
SACOL0580	601678	602247	+	SACOL0580
SACOL0581	602561	602743	+	secE
SACOL0582	602756	603304	+	nusG
SACOL0583	603476	603907	+	rplK
SACOL0584	604115	604807	+	rplA
SACOL0585	605079	605579	+	rplJ
SACOL0586	605622	605990	+	rplL
SACOL0587	606165	606773	+	SACOL0587
SACOL0588	606988	610539	+	rpoB
SACOL0589	610676	614299	+	rpoC
SACOL0590	614436	614690	+	SACOL0590
SACOL0591	614788	615201	+	rpsL
SACOL0592	615267	615737	+	rpsG
SACOL0593	615860	617941	+	fusA
SACOL0594	618158	619342	+	tuf
SACOL0595	619624	620799	-	SACOL0595
SACOL0596	620970	622157	+	SACOL0596
SACOL0597	622423	623301	+	SACOL0597
SACOL0598	623461	625098	+	SACOL0598
SACOL0599	625312	626277	+	SACOL0599
SACOL0600	626612	627688	+	ilvE
SACOL0601	627661	627834	+	SACOL0601
SACOL0602	627938	628621	+	SACOL0602
SACOL0603	628737	629399	-	SACOL0603
SACOL0604	629392	630009	-	SACOL0604
SACOL0606	630693	631562	+	SACOL0606
SACOL0607	631583	632149	+	SACOL0607
SACOL0608	632579	635422	+	sdrC
SACOL0609	635789	639934	+	sdrD
SACOL0610	640328	643828	+	sdrE
SACOL0611	643947	645419	+	SACOL0611
SACOL0612	645543	647033	-	SACOL0612
SACOL0613	647315	648193	-	SACOL0613
SACOL0614	648206	648871	-	SACOL0614
SACOL0615	648885	649247	-	SACOL0615
SACOL0616	649523	650281	+	nagB
SACOL0617	650358	650990	+	SACOL0617
SACOL0618	650992	651540	+	SACOL0618
SACOL0619	651644	652300	+	SACOL0619
SACOL0620	652802	654202	+	proP
SACOL0621	654746	656122	+	SACOL0621
SACOL0622	656124	657263	+	atoB
SACOL0623	657238	657603	+	SACOL0623
SACOL0624	657606	657875	+	SACOL0624
SACOL0625	658076	658243	-	SACOL0625
SACOL0626	658750	659580	-	thiD1
SACOL0627	659764	660420	+	ung
SACOL0628	660421	660801	+	SACOL0628
SACOL0629	660934	661302	+	SACOL0629
SACOL0630	661423	662907	+	SACOL0630
SACOL0631	663049	663501	-	SACOL0631
SACOL0632	663514	664278	-	SACOL0632
SACOL0633	664827	665579	-	SACOL0633
SACOL0634	665747	666733	+	pta
SACOL0635	666736	667572	+	SACOL0635
SACOL0636	668159	669079	+	mvk
SACOL0637	669084	670067	+	mvaD
SACOL0638	670080	671156	+	SACOL0638
SACOL0639	671333	671674	+	SACOL0639
SACOL0640	671727	673049	-	SACOL0640
SACOL0641	673036	673476	-	SACOL0641
SACOL0642	673534	673635	+	SACOL0642
SACOL0643	674101	675510	+	SACOL0643
SACOL0644	675514	676140	+	SACOL0644
SACOL0645	676266	676907	+	SACOL0645
SACOL0646	676995	677612	+	SACOL0646
SACOL0647	677687	678316	+	SACOL0647
SACOL0648	678512	679132	+	SACOL0648
SACOL0649	679263	679904	+	SACOL0649
SACOL0650	679951	680580	+	SACOL0650
SACOL0651	681033	681662	+	SACOL0651
SACOL0652	681777	682427	+	SACOL0652
SACOL0653	682464	683099	+	SACOL0653
SACOL0654	683334	683960	+	SACOL0654
SACOL0655	684230	685168	+	SACOL0655
SACOL0656	685379	685915	+	SACOL0656
SACOL0658	686600	687895	+	SACOL0658
SACOL0659	687923	688444	+	SACOL0659
SACOL0660	688943	689953	+	SACOL0660
SACOL0661	690028	690135	+	SACOL0661
SACOL0662	690216	690644	+	SACOL0662
SACOL0663	690641	692302	+	argS
SACOL0664	692691	693326	+	SACOL0664
SACOL0665	693705	694592	+	SACOL0665
SACOL0666	694740	695690	+	SACOL0666
SACOL0667	695745	696464	+	SACOL0667
SACOL0668	696448	697248	+	SACOL0668
SACOL0669	697384	697890	+	SACOL0669
SACOL0670	698052	698768	+	SACOL0670
SACOL0671	698937	699725	+	SACOL0671
SACOL0672	699976	700350	-	sarA
SACOL0673	700498	700617	-	SACOL0673
SACOL0674	701060	701209	-	SACOL0674
SACOL0675	701298	702191	-	SACOL0675
SACOL0676	702422	702646	-	SACOL0676
SACOL0677	702663	702866	-	SACOL0677
SACOL0678	703025	703585	+	SACOL0678
SACOL0679	703604	706006	+	SACOL0679
SACOL0680	705993	706418	+	SACOL0680
SACOL0681	706415	706759	+	SACOL0681
SACOL0682	706749	708245	+	SACOL0682
SACOL0684	708246	708728	+	SACOL0684
SACOL0685	708725	709027	+	SACOL0685
SACOL0686	709002	709439	+	SACOL0686
SACOL0687	709779	711821	+	SACOL0687
SACOL0688	712981	713910	-	SACOL0688
SACOL0689	713907	714743	-	SACOL0689
SACOL0690	714737	715480	-	SACOL0690
SACOL0691	715602	716246	+	sirR
SACOL0692	716326	717078	-	SACOL0692
SACOL0693	717314	718078	+	tagA
SACOL0694	718139	718933	-	SACOL0694
SACOL0695	719280	720092	+	SACOL0695
SACOL0696	720191	721294	+	tagB
SACOL0697	721291	722352	+	tagX
SACOL0698	722415	722813	+	tagD
SACOL0699	722930	724225	-	pbp4
SACOL0700	724646	726373	+	abcA
SACOL0701	726732	727961	+	SACOL0701
SACOL0702	728216	728308	+	SACOL0702
SACOL0703	728486	729319	+	SACOL0703
SACOL0704	729601	730398	+	SACOL0704
SACOL0705	730434	731438	+	SACOL0705
SACOL0706	731435	732451	+	SACOL0706
SACOL0707	732688	733653	+	SACOL0707
SACOL0708	733695	734279	+	SACOL0708
SACOL0709	734272	734634	+	SACOL0709
SACOL0710	734750	735247	+	SACOL0710
SACOL0711	735703	736770	+	SACOL0711
SACOL0712	736921	737964	+	SACOL0712
SACOL0713	738293	738721	+	SACOL0713
SACOL0714	738930	739436	-	SACOL0714
SACOL0715	739549	740472	+	SACOL0715
SACOL0716	740479	741162	+	SACOL0716
SACOL0717	741155	742195	+	SACOL0717
SACOL0718	742339	743100	+	SACOL0718
SACOL0720	743090	744979	+	SACOL0720
SACOL0721	745704	746321	+	SACOL0721
SACOL0722	746337	747344	+	SACOL0722
SACOL0723	747932	748729	-	SACOL0723
SACOL0724	749090	749734	+	SACOL0724
SACOL0725	750431	752581	+	SACOL0725
SACOL0726	752661	753086	+	sarX
SACOL0727	753276	753992	+	SACOL0727
SACOL0728	753992	754465	+	SACOL0728
SACOL0729	754554	754673	+	SACOL0729
SACOL0730	754818	755462	+	SACOL0730
SACOL0731	755578	756444	+	SACOL0731
SACOL0732	756476	756700	-	SACOL0732
SACOL0733	756783	758003	+	SACOL0733
SACOL0734	758000	758488	+	SACOL0734
SACOL0735	758587	759276	-	SACOL0735
SACOL0736	759403	759846	+	SACOL0736
SACOL0737	759913	760308	+	SACOL0737
SACOL0738	760446	760745	+	SACOL0738
SACOL0739	760825	761367	+	SACOL0739
SACOL0740	761463	762029	-	SACOL0740
SACOL0741	762031	762489	-	SACOL0741
SACOL0742	762492	763175	-	SACOL0742
SACOL0743	763347	764222	-	bacA
SACOL0744	764441	766072	+	SACOL0744
SACOL0745	766069	767742	+	SACOL0745
SACOL0746	767869	768312	-	norR
SACOL0747	768539	769465	+	SACOL0747
SACOL0748	769568	770476	+	SACOL0748
SACOL0749	770511	770798	+	SACOL0749
SACOL0750	771081	772634	+	SACOL0750
SACOL0751	772720	774093	+	SACOL0751
SACOL0752	774529	775146	-	SACOL0752
SACOL0753	775332	775754	-	SACOL0753
SACOL0754	775963	777129	+	norA
SACOL0755	777422	777874	+	SACOL0755
SACOL0756	778048	778530	+	SACOL0756
SACOL0757	778780	779544	+	SACOL0757
SACOL0758	779541	780461	+	fruK
SACOL0761	782732	783913	+	nagA
SACOL0762	784134	785483	+	SACOL0762
SACOL0763	785705	786544	+	SACOL0763
SACOL0764	786676	787659	+	SACOL0764
SACOL0765	787731	788786	-	saeS
SACOL0766	788786	789472	-	saeR
SACOL0767	789447	789920	-	SACOL0767
SACOL0768	790262	790702	-	SACOL0768
SACOL0769	790982	791566	-	SACOL0769
SACOL0770	791665	792378	-	SACOL0770
SACOL0771	792382	792801	-	SACOL0771
SACOL0772	792803	793471	-	SACOL0772
SACOL0773	793822	794415	+	pabA
SACOL0776	796518	797228	+	SACOL0776
SACOL0777	797212	798216	+	SACOL0777
SACOL0778	798690	800630	+	SACOL0778
SACOL0779	800907	802784	+	SACOL0779
SACOL0780	802796	804577	+	recQ1
SACOL0781	804799	805776	+	SACOL0781
SACOL0783	805769	807283	+	opuBB
SACOL0784	807523	808581	+	hisC
SACOL0785	808932	809474	+	SACOL0785
SACOL0786	809587	809748	+	SACOL0786
SACOL0787	810154	811071	-	SACOL0787
SACOL0788	811341	812846	-	SACOL0788
SACOL0789	813187	813687	-	SACOL0789
SACOL0790	813707	814573	-	SACOL0790
SACOL0790.1	814958	815224	+	SACOL0790.1
SACOL0791	815374	815772	+	nrdI
SACOL0792	815735	817840	+	SACOL0792
SACOL0793	817958	818929	+	nrdF
SACOL0794	819062	819166	+	SACOL0794
SACOL0795	819443	819598	+	SACOL0795
SACOL0796	819637	820608	+	SACOL0796
SACOL0797	820595	821551	+	SACOL0797
SACOL0798	821548	822309	+	SACOL0798
SACOL0799	822428	823456	+	SACOL0799
SACOL0800	823773	824087	-	SACOL0800
SACOL0801	824105	825028	-	murB
SACOL0802	825155	825673	-	SACOL0802
SACOL0803	825793	826671	+	SACOL0803
SACOL0804	826825	827145	+	SACOL0804
SACOL0805	827570	828694	+	SACOL0805
SACOL0806	828883	830109	-	pepT
SACOL0807	830123	830617	-	SACOL0807
SACOL0808	830635	831396	-	SACOL0808
SACOL0809	831592	832662	-	SACOL0809
SACOL0810	832980	834035	+	SACOL0810
SACOL0811	834205	834846	-	SACOL0811
SACOL0812	834990	835856	+	SACOL0812
SACOL0813	836220	837302	+	SACOL0813
SACOL0814	837295	837969	+	SACOL0814
SACOL0815	838030	838602	+	SACOL0815
SACOL0816	839016	841547	+	secA
SACOL0817	841589	841693	+	SACOL0817
SACOL0819	843126	843233	+	SACOL0819
SACOL0820	843381	844220	+	SACOL0820
SACOL0821	844394	845044	+	SACOL0821
SACOL0822	845041	845277	+	SACOL0822
SACOL0823	845540	847531	+	uvrB
SACOL0824	847539	850385	+	uvrA
SACOL0825	850992	851924	+	hprK
SACOL0826	851930	852769	+	lgt
SACOL0827	852777	853262	+	SACOL0827
SACOL0828	853270	854709	+	SACOL0828
SACOL0829	854776	855711	+	trxB
SACOL0830	856421	857332	+	SACOL0830
SACOL0831	857329	858324	+	SACOL0831
SACOL0832	858434	859378	+	SACOL0832
SACOL0833	859951	860538	+	clpP
SACOL0834	860781	861683	-	SACOL0834
SACOL0835	862387	863016	+	SACOL0835
SACOL0836	863205	863351	-	SACOL0836
SACOL0837	863776	864789	+	gapR
SACOL0838	864842	865852	+	gapA1
SACOL0839	865991	867181	+	pgk
SACOL0840	867303	868064	+	tpiA
SACOL0841	868067	869584	+	pgm
SACOL0842	869714	871018	+	eno
SACOL0843	871358	871816	+	SACOL0843
SACOL0844	871883	872116	+	secG
SACOL0845	872232	872972	+	est
SACOL0846	873006	875378	+	SACOL0846
SACOL0847	875400	875864	+	smpB
SACOL0848	876638	876919	+	SACOL0848
SACOL0849	877186	877509	-	SACOL0849
SACOL0850	877525	877671	-	SACOL0850
SACOL0851	877863	878591	-	SACOL0851
SACOL0852	878647	878739	-	SACOL0852
SACOL0853	879027	879182	+	SACOL0853
SACOL0854	879190	879711	+	SACOL0854
SACOL0855	879850	880380	+	SACOL0855
SACOL0856	880643	883444	+	clfA
SACOL0857	883665	885191	+	SACOL0857
SACOL0858	885542	886564	+	empbp
SACOL0859	886899	887369	+	SACOL0859
SACOL0860	887710	888396	+	nuc
SACOL0861	888753	888953	+	SACOL0861
SACOL0862	889449	889667	-	SACOL0862
SACOL0863	889729	890013	-	SACOL0863
SACOL0864	890101	890670	-	SACOL0864
SACOL0865	891075	891335	-	SACOL0865
SACOL0866	891640	891744	-	SACOL0866
SACOL0867	891733	891879	+	SACOL0867
SACOL0868	891876	892112	-	SACOL0868
SACOL0869	892328	892918	+	SACOL0869
SACOL0870	892991	893608	-	SACOL0870
SACOL0871	893763	894257	-	SACOL0871
SACOL0872	894656	895078	-	SACOL0872
SACOL0873	895226	895942	+	aroD
SACOL0874	896025	896564	+	SACOL0874
SACOL0875	896714	897034	-	SACOL0875
SACOL0876	897178	897534	+	SACOL0876
SACOL0877	897692	898072	+	gcvH
SACOL0878	898136	898249	+	SACOL0878
SACOL0879	898251	899129	+	SACOL0879
SACOL0880	899871	900257	+	SACOL0880
SACOL0881	900250	900546	+	SACOL0881
SACOL0882	900796	901821	+	SACOL0882
SACOL0883	901814	902509	+	SACOL0883
SACOL0884	902527	903348	+	SACOL0884
SACOL0885	903491	904711	-	SACOL0885
SACOL0886	904800	905528	-	sek
SACOL0887	905552	906280	-	sei
SACOL0888	906350	906781	-	SACOL0888
SACOL0889	906798	907256	-	SACOL0889
SACOL0890	907268	907600	-	SACOL0890
SACOL0891	907793	908056	+	SACOL0891
SACOL0892	908049	908321	+	SACOL0892
SACOL0893	908333	908479	+	SACOL0893
SACOL0894	908472	908681	+	SACOL0894
SACOL0895	908684	909004	+	SACOL0895
SACOL0896	909068	909937	+	SACOL0896
SACOL0897	909954	911411	+	SACOL0897
SACOL0898	911712	912074	+	SACOL0898
SACOL0899	912076	912360	+	SACOL0899
SACOL0900	912357	912998	+	SACOL0900
SACOL0901	913515	913856	+	SACOL0901
SACOL0902	913868	914446	+	SACOL0902
SACOL0903	914464	914682	+	SACOL0903
SACOL0904	914733	915260	+	SACOL0904
SACOL0905	915263	915604	+	SACOL0905
SACOL0906	915601	916170	+	SACOL0906
SACOL0907	916478	917278	+	seb
SACOL0908	917356	917913	-	SACOL0908
SACOL0909	918286	918438	+	SACOL0909
SACOL0910	918509	918619	+	SACOL0910
SACOL0911	918606	918806	+	SACOL0911
SACOL0912	919637	919831	+	SACOL0912
SACOL0913	920064	920915	-	SACOL0913
SACOL0914	921243	922004	+	SACOL0914
SACOL0915	922102	923409	+	sufD
SACOL0916	923524	924765	+	SACOL0916
SACOL0917	924755	925219	+	SACOL0917
SACOL0918	925370	926767	+	sufB
SACOL0919	926954	927091	+	SACOL0919
SACOL0920	927097	927411	-	SACOL0920
SACOL0921	927776	928816	+	SACOL0921
SACOL0922	928830	929897	+	SACOL0922
SACOL0923	929964	930062	+	SACOL0923
SACOL0924	930110	930958	+	SACOL0924
SACOL0925	930971	931798	+	SACOL0925
SACOL0926	931825	933144	+	SACOL0926
SACOL0927	933228	934145	+	lipA
SACOL0928	934266	934658	+	SACOL0928
SACOL0929	934737	934994	-	SACOL0929
SACOL0930	935101	935535	+	SACOL0930
SACOL0931	935535	936314	+	SACOL0931
SACOL0932	936347	937306	+	SACOL0932
SACOL0933	937560	937670	+	SACOL0933
SACOL0934	937718	937870	+	SACOL0934
SACOL0935	937886	939343	+	dltA
SACOL0936	939340	940554	+	dltB
SACOL0937	940572	940808	+	dltC
SACOL0938	940805	941980	+	dltD
SACOL0939	942243	942464	-	SACOL0939
SACOL0940	942586	942909	+	SACOL0940
SACOL0942	944349	944585	+	SACOL0942
SACOL0943	944598	944957	+	SACOL0943
SACOL0944	945411	946619	+	SACOL0944
SACOL0945	946750	948225	+	SACOL0945
SACOL0946	948636	949952	+	SACOL0946
SACOL0947	949971	950345	+	SACOL0947
SACOL0948	950401	951555	-	SACOL0948
SACOL0949	951804	952160	-	mnhG
SACOL0950	952138	952431	-	mnhF
SACOL0951	952431	952910	-	mnhE
SACOL0952	952912	954408	-	mnhD
SACOL0953	954401	954742	-	mnhC
SACOL0954	954742	955170	-	mnhB
SACOL0955	955163	957568	-	mnhA
SACOL0956	957699	958082	-	kapB
SACOL0957	958146	958739	+	SACOL0957
SACOL0958	959155	959532	+	SACOL0958
SACOL0959	959894	961021	+	SACOL0959
SACOL0960	961329	962519	+	rocD2
SACOL0961	962628	963872	+	gluD
SACOL0962	964375	965304	-	SACOL0962
SACOL0963	965546	966925	-	argH
SACOL0964	966915	968120	-	argG
SACOL0965	968265	968399	-	SACOL0965
SACOL0966	968471	969802	+	pgi
SACOL0967	970127	970702	+	SACOL0967
SACOL0968	970707	971231	+	spsA
SACOL0969	971238	971822	+	spsB
SACOL0970	971982	975458	+	rexB
SACOL0971	975459	979112	+	rexA
SACOL0973	979278	980180	+	SACOL0973
SACOL0974	980509	980898	+	SACOL0974
SACOL0975	981069	982385	-	SACOL0975
SACOL0976	982437	983261	-	SACOL0976
SACOL0977	983375	983683	+	SACOL0977
SACOL0978	984230	986044	+	SACOL0978
SACOL0979	986247	988856	+	clpB
SACOL0980	988915	989784	-	SACOL0980
SACOL0981	989894	991039	+	SACOL0981
SACOL0982	991023	991664	+	SACOL0982
SACOL0983	991657	992775	+	SACOL0983
SACOL0984	992759	993274	+	SACOL0984
SACOL0985	993585	994019	+	SACOL0985
SACOL0986	994276	994461	-	SACOL0986
SACOL0987	994756	995697	+	fabH
SACOL0988	995709	996953	+	fabF
SACOL0989	997008	997379	-	SACOL0989
SACOL0990	997602	997700	+	SACOL0990
SACOL0991	997700	998548	+	oppB
SACOL0992	998548	999618	+	oppC
SACOL0993	999635	1000717	+	oppD
SACOL0994	1000707	1001648	+	oppF
SACOL0995	1001666	1003321	+	SACOL0995
SACOL0996	1003533	1005248	+	SACOL0996
SACOL0997	1005299	1006285	+	SACOL0997
SACOL0998	1006288	1007268	+	SACOL0998
SACOL0999	1007261	1008223	+	SACOL0999
SACOL1000	1008235	1009116	+	SACOL1000
SACOL1001	1009158	1010147	-	trpS
SACOL1002	1010442	1010837	+	SACOL1002
SACOL1003	1011208	1011927	+	SACOL1003
SACOL1004	1012048	1013034	+	SACOL1004
SACOL1005	1013082	1014890	+	pepF
SACOL1006	1015350	1016156	-	SACOL1006
SACOL1007	1016179	1016544	-	SACOL1007
SACOL1008	1016648	1017241	-	SACOL1008
SACOL1009	1017427	1017774	+	SACOL1009
SACOL1010	1017791	1018426	+	relA1
SACOL1011	1018443	1019252	+	SACOL1011
SACOL1012	1019249	1020103	+	SACOL1012
SACOL1013	1020124	1021509	+	mgtE
SACOL1016	1023641	1024411	+	fabI
SACOL1017	1024606	1025691	-	SACOL1017
SACOL1018	1026033	1027601	+	SACOL1018
SACOL1019	1027743	1028501	+	SACOL1019
SACOL1020	1028695	1029204	+	SACOL1020
SACOL1021	1029317	1030507	-	SACOL1021
SACOL1022	1030485	1031660	-	ypfP
SACOL1023	1032093	1033574	+	murE
SACOL1024	1033567	1033818	+	SACOL1024
SACOL1025	1033818	1035380	+	prfC
SACOL1026	1035682	1036485	+	SACOL1026
SACOL1027	1036544	1036639	+	SACOL1027
SACOL1028	1036719	1039028	+	htrA
SACOL1030	1039045	1040403	+	SACOL1030
SACOL1031	1040542	1042053	+	SACOL1031
SACOL1032	1042540	1043070	-	SACOL1032
SACOL1033	1043319	1043537	+	SACOL1033
SACOL1034	1043618	1044604	-	SACOL1034
SACOL1035	1044803	1044979	+	SACOL1035
SACOL1036	1044994	1045596	+	SACOL1036
SACOL1037	1045868	1045975	+	SACOL1037
SACOL1038	1046941	1048905	+	SACOL1038
SACOL1039	1048908	1049228	+	SACOL1039
SACOL1040	1049225	1049866	+	SACOL1040
SACOL1041	1049954	1050244	-	SACOL1041
SACOL1042	1050523	1050810	+	SACOL1042
SACOL1043	1050816	1052297	+	SACOL1043
SACOL1044	1052386	1052742	-	SACOL1044
SACOL1045	1053219	1054178	+	SACOL1045
SACOL1046	1054224	1054355	-	SACOL1046
SACOL1047	1054419	1054709	-	SACOL1047
SACOL1048	1054853	1055350	+	SACOL1048
SACOL1049	1055402	1056340	-	menA
SACOL1050	1056491	1056595	+	SACOL1050
SACOL1051	1056672	1057883	+	SACOL1051
SACOL1052	1057870	1059543	+	menD
SACOL1053	1059530	1060333	+	SACOL1053
SACOL1054	1060326	1061147	+	menB
SACOL1055	1061386	1061715	-	sspC
SACOL1056	1061753	1062934	-	sspB1
SACOL1057	1063016	1064026	-	sspA
SACOL1058	1064554	1065708	-	SACOL1058
SACOL1059	1065904	1066914	-	SACOL1059
SACOL1060	1067067	1067486	+	SACOL1060
SACOL1061	1067513	1067623	+	SACOL1061
SACOL1062	1067693	1071463	-	atl
SACOL1063	1071691	1072125	-	SACOL1063
SACOL1064	1072280	1072750	-	SACOL1064
SACOL1065	1072798	1074015	-	SACOL1065
SACOL1066	1074466	1075659	+	SACOL1066
SACOL1067	1076196	1076474	-	qoxD
SACOL1068	1076483	1077088	-	qoxC
SACOL1069	1077078	1079066	-	qoxA
SACOL1070	1079066	1080166	-	qoxB
SACOL1071	1080738	1081055	-	SACOL1071
SACOL1072	1081861	1082721	-	folD
SACOL1073	1082922	1083404	+	purE
SACOL1074	1083391	1084515	+	purK
SACOL1075	1084519	1085223	+	purC
SACOL1076	1085223	1085486	+	purS
SACOL1077	1085488	1086159	+	purQ
SACOL1078	1086152	1088341	+	purL
SACOL1079	1088320	1089804	+	purF
SACOL1080	1089797	1090825	+	purM
SACOL1081	1090828	1091394	+	purN
SACOL1082	1091409	1092887	+	purH
SACOL1083	1092909	1094156	+	purD
SACOL1084	1094421	1095227	-	SACOL1084
SACOL1085	1095220	1096620	-	SACOL1085
SACOL1086	1096635	1097210	-	SACOL1086
SACOL1087	1097857	1097991	-	SACOL1087
SACOL1088	1098143	1099438	+	SACOL1088
SACOL1089	1099863	1101035	+	SACOL1089
SACOL1090	1101089	1101631	+	SACOL1090
SACOL1091	1101785	1102051	+	ptsH
SACOL1092	1102054	1103772	+	ptsI
SACOL1093	1104009	1104242	-	SACOL1093
SACOL1094	1104440	1105801	+	cydA
SACOL1095	1105798	1106817	+	cydB
SACOL1096	1106950	1107612	+	SACOL1096
SACOL1097	1107648	1107827	-	SACOL1097
SACOL1098	1107961	1109658	-	SACOL1098
SACOL1099	1109658	1109876	-	SACOL1099
SACOL1100	1110357	1110908	-	def1
SACOL1101	1111273	1111899	+	SACOL1101
SACOL1102	1112070	1113182	+	pdhA
SACOL1103	1113186	1114163	+	pdhB
SACOL1104	1114254	1115546	+	pdhC
SACOL1105	1115550	1116956	+	pdhD
SACOL1106	1117124	1117399	+	SACOL1106
SACOL1107	1117543	1118082	+	SACOL1107
SACOL1108	1118095	1119189	+	SACOL1108
SACOL1109	1119182	1119979	+	SACOL1109
SACOL1110	1119985	1120794	+	SACOL1110
SACOL1111	1120794	1121867	+	SACOL1111
SACOL1112	1121941	1122960	+	SACOL1112
SACOL1113	1123243	1123662	+	SACOL1113
SACOL1114	1123744	1125096	-	SACOL1114
SACOL1115	1125280	1125894	-	SACOL1115
SACOL1116	1126051	1126878	+	SACOL1116
SACOL1117	1127032	1127223	-	SACOL1117
SACOL1118	1127325	1129172	+	typA
SACOL1119	1129312	1129479	-	SACOL1119
SACOL1120	1129481	1129963	-	SACOL1120
SACOL1121	1130104	1130379	+	SACOL1121
SACOL1122	1130693	1131919	+	SACOL1122
SACOL1123	1132473	1135925	+	pyc
SACOL1124	1136065	1137135	-	ctaA
SACOL1125	1137416	1138327	+	ctaB
SACOL1126	1138352	1138813	+	SACOL1126
SACOL1127	1139025	1139228	+	SACOL1127
SACOL1128	1139278	1140177	+	SACOL1128
SACOL1129	1140193	1140627	+	SACOL1129
SACOL1130	1140690	1141616	-	SACOL1130
SACOL1131	1141855	1142109	+	SACOL1131
SACOL1132	1142112	1142501	-	SACOL1132
SACOL1133	1142571	1143113	+	SACOL1133
SACOL1134	1143115	1143597	+	kdtB
SACOL1135	1143659	1144798	-	SACOL1135
SACOL1136	1144925	1145482	+	SACOL1136
SACOL1137	1145562	1145735	+	rpmF
SACOL1138	1145889	1147826	-	sasJ
SACOL1140	1148029	1149081	-	sasE
SACOL1141	1149290	1149973	+	isdC
SACOL1142	1149973	1151049	+	isdD
SACOL1143	1151046	1151924	+	SACOL1143
SACOL1144	1151937	1152902	+	SACOL1144
SACOL1145	1152964	1153698	+	srtB
SACOL1146	1153717	1154040	+	SACOL1146
SACOL1147	1154424	1155164	+	SACOL1147
SACOL1148	1155545	1156603	+	pheS
SACOL1149	1156603	1159005	+	pheT
SACOL1150	1159176	1160114	-	rnhC
SACOL1151	1160484	1160750	+	SACOL1151
SACOL1152	1160751	1161272	+	SACOL1152
SACOL1153	1161345	1163057	+	SACOL1153
SACOL1154	1163067	1165415	+	SACOL1154
SACOL1155	1165588	1165902	+	trxA
SACOL1156	1165965	1166060	-	SACOL1156
SACOL1157	1166226	1168007	+	uvrC
SACOL1158	1168331	1168945	+	sdhC
SACOL1159	1168997	1170763	+	sdhA
SACOL1160	1170763	1171578	+	sdhB
SACOL1161	1171814	1172614	+	murI
SACOL1162	1172626	1173213	+	SACOL1162
SACOL1163	1173206	1173709	+	SACOL1163
SACOL1164	1174198	1174527	+	SACOL1164
SACOL1165	1174698	1174805	+	SACOL1165
SACOL1166	1174896	1175297	-	SACOL1166
SACOL1167	1175969	1176475	+	SACOL1167
SACOL1168	1176734	1177231	+	efb
SACOL1169	1177385	1177735	+	SACOL1169
SACOL1170	1178161	1178406	+	SACOL1170
SACOL1171	1178557	1178742	-	SACOL1171
SACOL1172	1179364	1179597	-	SACOL1172
SACOL1173	1180074	1181033	-	hlY
SACOL1174	1181706	1181852	+	SACOL1174
SACOL1175	1181836	1182033	+	SACOL1175
SACOL1176	1182065	1182313	-	SACOL1176
SACOL1177	1182290	1182421	+	SACOL1177
SACOL1178	1182590	1183306	-	SACOL1178
SACOL1179	1183414	1184139	-	SACOL1179
SACOL1180	1184234	1184959	-	SACOL1180
SACOL1181	1185397	1186398	+	arcB1
SACOL1182	1186421	1187353	+	arcC1
SACOL1183	1187525	1189081	+	SACOL1183
SACOL1184	1189921	1190868	-	SACOL1184
SACOL1185	1191117	1191305	+	SACOL1185
SACOL1186	1192217	1192351	+	SACOL1186
SACOL1187	1192408	1192542	+	SACOL1187
SACOL1188	1192666	1193361	+	SACOL1188
SACOL1189	1193470	1193910	-	SACOL1189
SACOL1190	1194105	1195718	+	SACOL1190
SACOL1191	1195862	1196293	+	mraZ
SACOL1192	1196309	1197244	+	SACOL1192
SACOL1193	1197273	1197659	+	SACOL1193
SACOL1194	1197640	1199874	+	pbp1
SACOL1195	1200166	1201131	+	mraY
SACOL1196	1201133	1202482	+	murD
SACOL1197	1202498	1203817	+	divIB
SACOL1198	1203923	1205335	+	ftsA
SACOL1199	1205368	1206540	+	ftsZ
SACOL1200	1206800	1207591	+	SACOL1200
SACOL1201	1207609	1208283	+	SACOL1201
SACOL1202	1208280	1208843	+	ylmF
SACOL1203	1208855	1209145	+	ylmG
SACOL1204	1209255	1210034	+	ylmH
SACOL1205	1210058	1210675	+	SACOL1205
SACOL1206	1210896	1213649	+	ileS
SACOL1207	1213939	1214736	+	SACOL1207
SACOL1208	1215560	1216051	+	lspA
SACOL1209	1216051	1216968	+	SACOL1209
SACOL1210	1217368	1217895	+	pyrR
SACOL1211	1218113	1219420	+	uraA
SACOL1212	1219448	1220329	+	pyrB
SACOL1213	1220347	1221621	+	pyrC
SACOL1214	1221623	1222723	+	carA
SACOL1215	1222716	1225889	+	carB
SACOL1216	1225999	1226691	+	pyrF
SACOL1217	1226691	1227302	+	pyrE
SACOL1218	1227332	1227544	+	SACOL1218
SACOL1219	1227981	1228382	+	SACOL1219
SACOL1220	1228645	1230342	-	SACOL1220
SACOL1221	1230617	1231240	+	gmk
SACOL1222	1231240	1231458	+	rpoZ
SACOL1223	1231668	1232873	+	coaBC
SACOL1224	1232873	1235281	+	priA
SACOL1225	1235787	1236740	+	SACOL1225
SACOL1226	1236903	1237181	-	SACOL1226
SACOL1227	1237405	1237893	+	def2
SACOL1228	1237886	1238821	+	fmt
SACOL1229	1238818	1240125	+	sun
SACOL1230	1240128	1241222	+	SACOL1230
SACOL1231	1241229	1241972	+	SACOL1231
SACOL1234	1244191	1245066	+	SACOL1234
SACOL1235	1245067	1245711	+	rpe
SACOL1236	1245718	1246359	+	SACOL1236
SACOL1237	1246374	1246469	+	SACOL1237
SACOL1238	1246740	1246928	-	rpmB
SACOL1239	1247371	1247745	+	SACOL1239
SACOL1240	1247760	1249406	+	SACOL1240
SACOL1241	1249596	1251656	+	recG
SACOL1242	1251859	1252431	+	SACOL1242
SACOL1243	1252436	1253422	+	plsX
SACOL1244	1253415	1254341	+	fabD
SACOL1245	1254334	1255068	+	fabG1
SACOL1246	1255191	1255289	-	SACOL1246
SACOL1247	1255311	1255544	+	acpP
SACOL1248	1255660	1256391	+	rnc
SACOL1250	1256538	1260104	+	SACOL1250
SACOL1251	1260104	1261354	+	SACOL1251
SACOL1252	1261341	1261673	+	SACOL1252
SACOL1253	1261699	1263066	+	ffh
SACOL1254	1263501	1263776	+	rpsP
SACOL1255	1263964	1264467	+	rimM
SACOL1256	1264467	1265204	+	trmD
SACOL1257	1265307	1265657	+	rplS
SACOL1258	1265697	1265822	-	SACOL1258
SACOL1259	1265901	1268507	-	SACOL1259
SACOL1260	1268908	1269792	+	SACOL1260
SACOL1261	1269776	1270543	+	rnhB
SACOL1262	1270652	1271818	+	sucC
SACOL1263	1271840	1272748	+	sucD
SACOL1264	1272942	1274093	+	lytN
SACOL1265	1274121	1275365	+	eprH
SACOL1266	1275538	1276410	+	SACOL1266
SACOL1267	1276590	1278659	+	topA
SACOL1268	1278815	1280122	+	gid
SACOL1269	1280539	1281435	+	xerC
SACOL1270	1281432	1281977	+	hslV
SACOL1271	1282043	1283446	+	hslU
SACOL1272	1283471	1284244	+	codY
SACOL1273	1284295	1284387	+	SACOL1273
SACOL1274	1284586	1285362	+	rpsB
SACOL1275	1285396	1285509	+	SACOL1275
SACOL1276	1285544	1286425	+	tsf
SACOL1277	1286562	1287284	+	pyrH
SACOL1278	1287303	1287857	+	frr
SACOL1279	1288230	1289000	+	uppS
SACOL1280	1289007	1289789	+	cdsA
SACOL1281	1290026	1291312	+	SACOL1281
SACOL1282	1291332	1293035	+	proS
SACOL1283	1293299	1297609	+	SACOL1283
SACOL1284	1297899	1298366	+	SACOL1284
SACOL1285	1298387	1299562	+	SACOL1285
SACOL1286	1299583	1299867	+	SACOL1286
SACOL1287	1299864	1300181	+	SACOL1287
SACOL1288	1300186	1302303	+	infB
SACOL1289	1302689	1303039	+	rbfA
SACOL1290	1303208	1304125	+	truB
SACOL1291	1304140	1305111	+	ribF
SACOL1292	1305226	1305495	+	rpsO
SACOL1293	1305865	1307961	+	pnp
SACOL1294	1308299	1309870	+	SACOL1294
SACOL1295	1310117	1312495	+	SACOL1295
SACOL1296	1312500	1313213	+	SACOL1296
SACOL1297	1313244	1314509	+	SACOL1297
SACOL1298	1314509	1315795	+	SACOL1298
SACOL1299	1315795	1316499	+	SACOL1299
SACOL1300	1316604	1317431	+	SACOL1300
SACOL1301	1317450	1317842	+	SACOL1301
SACOL1302	1317876	1318454	+	pgsA
SACOL1303	1318681	1319832	+	SACOL1303
SACOL1304	1319997	1321040	+	SACOL1304
SACOL1305	1321394	1322953	+	SACOL1305
SACOL1306	1323250	1323465	-	SACOL1306
SACOL1307	1323639	1324436	+	SACOL1307
SACOL1308	1324576	1326336	+	SACOL1308
SACOL1309	1326337	1327203	+	SACOL1309
SACOL1310	1327297	1327590	+	SACOL1310
SACOL1312	1327724	1329268	+	miaB
SACOL1313	1329269	1329634	+	SACOL1313
SACOL1314	1329661	1330152	+	SACOL1314
SACOL1315	1330455	1333073	+	hexA
SACOL1316	1333086	1335095	+	hexB
SACOL1317	1335101	1335643	+	glpP
SACOL1318	1335664	1335825	-	SACOL1318
SACOL1319	1336108	1336926	+	glpF
SACOL1320	1337055	1338551	+	glpK
SACOL1321	1338709	1340382	+	glpD
SACOL1322	1340532	1341446	+	SACOL1322
SACOL1323	1341464	1342399	+	miaA
SACOL1324	1342414	1342647	+	hfq
SACOL1325	1342869	1343345	-	gpxA1
SACOL1326	1343457	1344695	+	SACOL1326
SACOL1327	1344714	1345952	+	SACOL1327
SACOL1328	1346195	1346563	+	glnR
SACOL1329	1346582	1347922	+	femC
SACOL1330	1348000	1348113	+	SACOL1330
SACOL1331	1348415	1348612	+	SACOL1331
SACOL1332	1349301	1349525	+	SACOL1332
SACOL1333	1349819	1350025	+	SACOL1333
SACOL1334	1350726	1350836	+	SACOL1334
SACOL1335	1351264	1351449	+	SACOL1335
SACOL1336	1351961	1352065	+	SACOL1336
SACOL1337	1352098	1352193	+	SACOL1337
SACOL1338	1352194	1352445	+	SACOL1338
SACOL1339	1352650	1353075	+	SACOL1339
SACOL1340	1353196	1353444	+	SACOL1340
SACOL1341	1353574	1353675	+	SACOL1341
SACOL1342	1353721	1353987	+	SACOL1342
SACOL1343	1353984	1354121	+	SACOL1343
SACOL1344	1354324	1354458	+	SACOL1344
SACOL1345	1354549	1354839	+	SACOL1345
SACOL1346	1354850	1355044	+	SACOL1346
SACOL1347	1355094	1355435	+	SACOL1347
SACOL1348	1355442	1355633	+	SACOL1348
SACOL1349	1356182	1357207	-	SACOL1349
SACOL1350	1357477	1357674	+	SACOL1350
SACOL1351	1357732	1359213	+	cls1
SACOL1352	1359388	1360296	+	SACOL1352
SACOL1353	1360265	1360996	+	SACOL1353
SACOL1354	1361000	1362091	+	SACOL1354
SACOL1355	1362088	1362690	+	SACOL1355
SACOL1356	1362963	1363070	+	SACOL1356
SACOL1357	1363130	1363663	+	SACOL1357
SACOL1358	1363806	1364660	-	SACOL1358
SACOL1359	1364976	1365566	+	SACOL1359
SACOL1360	1365620	1367002	-	SACOL1360
SACOL1361	1367008	1367115	+	SACOL1361
SACOL1362	1367193	1368473	+	hom
SACOL1363	1368479	1369540	+	thrC
SACOL1364	1369542	1370456	+	thrB
SACOL1365	1370514	1371317	+	SACOL1365
SACOL1366	1371610	1371924	-	SACOL1366
SACOL1367	1372142	1373596	-	SACOL1367
SACOL1368	1373896	1375317	+	kataA
SACOL1369	1375408	1375557	+	rpmG1
SACOL1370	1376011	1376280	+	rpsN1
SACOL1371	1376437	1377414	+	guaC
SACOL1372	1377411	1377515	-	SACOL1372
SACOL1373	1377589	1378452	+	SACOL1373
SACOL1374	1378832	1379455	-	lexA
SACOL1375	1379598	1379831	+	SACOL1375
SACOL1376	1379967	1380206	+	SACOL1376
SACOL1377	1380327	1382315	+	tkt
SACOL1378	1382593	1382835	+	SACOL1378
SACOL1379	1382822	1382920	+	SACOL1379
SACOL1380	1383014	1383481	+	SACOL1380
SACOL1381	1383605	1384726	+	sbcD
SACOL1382	1384730	1387759	+	sbcC
SACOL1383	1387830	1388192	-	mscL
SACOL1384	1388396	1390042	+	opuD1
SACOL1385	1390934	1393639	+	acnA
SACOL1386	1393819	1394286	+	SACOL1386
SACOL1387	1394493	1394789	-	SACOL1387
SACOL1388	1395165	1395773	-	SACOL1388
SACOL1389	1395973	1397970	+	parE
SACOL1390	1397970	1400372	+	parC
SACOL1391	1400500	1400598	-	SACOL1391
SACOL1392	1400622	1402097	+	SACOL1392
SACOL1393	1402582	1403433	+	SACOL1393
SACOL1394	1403408	1403575	+	SACOL1394
SACOL1395	1403568	1404776	+	SACOL1395
SACOL1396	1405257	1407779	+	fmtC
SACOL1397	1407982	1408491	-	msrA
SACOL1398	1408628	1409611	+	SACOL1398
SACOL1399	1409699	1409884	-	dmpI
SACOL1400	1410032	1411294	+	SACOL1400
SACOL1401	1411431	1412522	-	tyrA
SACOL1402	1412687	1413718	+	SACOL1402
SACOL1403	1414210	1415616	+	trpE
SACOL1404	1415613	1416179	+	trpG
SACOL1405	1416185	1417183	+	trpD
SACOL1406	1417185	1417967	+	trpC
SACOL1407	1417964	1418599	+	trpF
SACOL1408	1418592	1419806	+	trpB
SACOL1409	1419799	1420527	+	trpA
SACOL1410	1420810	1422111	+	femA
SACOL1411	1422130	1423389	+	SACOL1411
SACOL1412	1424072	1424839	+	SACOL1412
SACOL1413	1424887	1425360	-	SACOL1413
SACOL1414	1425484	1426185	-	SACOL1414
SACOL1415	1426178	1426951	-	SACOL1415
SACOL1416	1426938	1427768	-	SACOL1416
SACOL1417	1427761	1428747	-	SACOL1417
SACOL1418	1429051	1429395	-	SACOL1418
SACOL1419	1429600	1431414	+	SACOL1419
SACOL1420	1431554	1432195	-	SACOL1420
SACOL1421	1432202	1433053	-	SACOL1421
SACOL1422	1433100	1434017	-	SACOL1422
SACOL1423	1434019	1434945	-	SACOL1423
SACOL1424	1435136	1436119	-	SACOL1424
SACOL1425	1436659	1436955	+	SACOL1425
SACOL1426	1437091	1437993	-	SACOL1426
SACOL1427	1438140	1439741	+	SACOL1427
SACOL1428	1440601	1441806	+	lysC
SACOL1429	1441870	1442859	+	asd
SACOL1430	1442861	1443748	+	dapA
SACOL1431	1443745	1444467	+	dapB
SACOL1432	1444494	1445213	+	dapD
SACOL1433	1445356	1446507	+	SACOL1433
SACOL1434	1446512	1447597	+	SACOL1434
SACOL1435	1447587	1448852	+	lysA
SACOL1436	1449092	1449493	-	SACOL1436
SACOL1437	1449690	1449890	-	SACOL1437
SACOL1438	1450061	1450369	-	SACOL1438
SACOL1439	1450532	1450801	+	SACOL1439
SACOL1440	1450820	1451449	+	SACOL1440
SACOL1441	1451481	1452617	+	SACOL1441
SACOL1443	1453630	1454973	-	brnQ3
SACOL1444	1455198	1457084	-	SACOL1444
SACOL1445	1457098	1457889	-	SACOL1445
SACOL1446	1458070	1458273	-	SACOL1446
SACOL1447	1458302	1459111	-	SACOL1447
SACOL1448	1459691	1460959	-	sucB
SACOL1449	1460973	1463771	-	sucA
SACOL1450	1464055	1465410	-	arlS
SACOL1451	1465407	1466066	-	arlR
SACOL1452	1466854	1467468	-	SACOL1452
SACOL1453	1467485	1468555	-	murG
SACOL1455	1469477	1470967	-	SACOL1455
SACOL1456	1471159	1471380	-	SACOL1456
SACOL1457	1471380	1471880	-	SACOL1457
SACOL1460	1472932	1473771	-	SACOL1460
SACOL1461	1473786	1474265	-	folA
SACOL1462	1474465	1475421	-	thyA
SACOL1463	1475574	1475669	-	SACOL1463
SACOL1464	1475845	1476282	-	SACOL1464
SACOL1465	1476298	1477422	-	SACOL1465
SACOL1466	1477460	1477711	-	SACOL1466
SACOL1467	1477723	1477917	-	SACOL1467
SACOL1468	1478162	1478866	+	SACOL1468
SACOL1469	1478931	1479062	-	SACOL1469
SACOL1471	1479407	1479808	+	SACOL1471
SACOL1472	1479867	1511363	-	ebh
SACOL1475	1511761	1513152	-	SACOL1475
SACOL1476	1513309	1514631	-	SACOL1476
SACOL1477	1514662	1515702	-	ilvA1
SACOL1478	1515797	1516915	-	ald1
SACOL1479	1517390	1518268	-	SACOL1479
SACOL1480	1518288	1521728	-	SACOL1480
SACOL1481	1522032	1523372	+	SACOL1481
SACOL1482	1523578	1523910	-	SACOL1482
SACOL1483	1523994	1525139	-	SACOL1483
SACOL1484	1525790	1526134	-	SACOL1484
SACOL1485	1526148	1526711	-	SACOL1485
SACOL1486	1526704	1527054	-	SACOL1486
SACOL1487	1527149	1527313	+	SACOL1487
SACOL1488	1527488	1527613	+	SACOL1488
SACOL1489	1527594	1528220	+	recU
SACOL1490	1528217	1530400	+	pbp2
SACOL1491	1530966	1531307	-	SACOL1491
SACOL1492	1531312	1531971	-	nth
SACOL1493	1531961	1532647	-	SACOL1493
SACOL1494	1532975	1534267	-	asnS
SACOL1495	1534589	1537282	-	SACOL1495
SACOL1496	1537306	1538277	-	birA
SACOL1497	1538264	1539466	-	papS
SACOL1498	1539471	1540625	-	SACOL1498
SACOL1499	1540854	1541171	-	SACOL1499
SACOL1500	1541508	1542215	-	SACOL1500
SACOL1501	1542260	1542847	-	SACOL1501
SACOL1502	1542837	1543412	-	SACOL1502
SACOL1503	1543426	1544670	-	SACOL1503
SACOL1504	1544677	1545975	-	aroA
SACOL1505	1545985	1547049	-	aroB
SACOL1506	1547075	1548241	-	aroC
SACOL1507	1548627	1548827	-	SACOL1507
SACOL1508	1548856	1548981	-	SACOL1508
SACOL1509	1549036	1549485	-	SACOL1509
SACOL1510	1549577	1550536	-	SACOL1510
SACOL1511	1550538	1551263	-	SACOL1511
SACOL1512	1551266	1551838	-	SACOL1512
SACOL1513	1552269	1552541	-	hup
SACOL1514	1552712	1553710	-	gpsA
SACOL1515	1553727	1555037	-	SACOL1515
SACOL1516	1555259	1556434	-	rpsA
SACOL1517	1556999	1557115	-	SACOL1517
SACOL1518	1557146	1557805	-	cmk
SACOL1519	1557882	1558850	+	ansA
SACOL1520	1558965	1559951	-	SACOL1520
SACOL1521	1560112	1560228	-	SACOL1521
SACOL1522	1560353	1561813	-	SACOL1522
SACOL1523	1561966	1563345	-	recQ2
SACOL1524	1563335	1564288	-	SACOL1524
SACOL1525	1564396	1564644	+	fer
SACOL1526	1564750	1565295	-	SACOL1526
SACOL1527	1565574	1565693	-	SACOL1527
SACOL1528	1565892	1566806	-	SACOL1528
SACOL1529	1566821	1567027	-	SACOL1529
SACOL1530	1567020	1567958	-	SACOL1530
SACOL1531	1568016	1568933	-	SACOL1531
SACOL1532	1569024	1571186	-	SACOL1532
SACOL1533	1571179	1572108	-	SACOL1533
SACOL1534	1572353	1574104	-	srrB
SACOL1535	1574085	1574810	-	srrA
SACOL1536	1574943	1575680	-	rluB
SACOL1537	1575673	1576215	-	scpB
SACOL1538	1576208	1576939	-	scpA
SACOL1539	1577031	1577537	+	SACOL1539
SACOL1540	1577615	1578502	-	xerD
SACOL1541	1578551	1579000	-	SACOL1541
SACOL1542	1579105	1579647	-	SACOL1542
SACOL1543	1579729	1580637	+	SACOL1543
SACOL1544	1580853	1581101	-	SACOL1544
SACOL1545	1581117	1581872	-	SACOL1545
SACOL1546	1582014	1582829	+	proC
SACOL1548	1582934	1583854	-	SACOL1548
SACOL1549	1584167	1585651	+	zwf
SACOL1550	1585854	1586747	+	SACOL1550
SACOL1551	1586830	1588479	-	malA
SACOL1552	1588495	1589514	-	malR
SACOL1553	1589708	1590079	-	SACOL1553
SACOL1554	1590298	1591704	-	gnd
SACOL1555	1591772	1592905	-	SACOL1555
SACOL1556	1593168	1593347	+	SACOL1556
SACOL1557	1593474	1594454	-	SACOL1557
SACOL1558	1594468	1594905	-	SACOL1558
SACOL1559	1594978	1595076	-	SACOL1559
SACOL1560	1595256	1596530	-	SACOL1560
SACOL1561	1596543	1597526	-	SACOL1561
SACOL1562	1597526	1598518	-	SACOL1562
SACOL1563	1598534	1599955	-	lpdA
SACOL1564	1600106	1601785	-	recN
SACOL1565	1601801	1602253	-	argR
SACOL1566	1602685	1603566	-	ispA
SACOL1567	1603544	1603774	-	xseB
SACOL1568	1603767	1605104	-	xseA
SACOL1569	1605121	1605510	-	nusB
SACOL1570	1605570	1605932	-	SACOL1570
SACOL1571	1605947	1607302	-	accC
SACOL1572	1607302	1607766	-	accB
SACOL1574	1609250	1609591	-	SACOL1574
SACOL1575	1609647	1610237	-	SACOL1575
SACOL1576	1610244	1611290	-	SACOL1576
SACOL1577	1611280	1613127	-	SACOL1577
SACOL1578	1613132	1614490	-	SACOL1578
SACOL1579	1614544	1617039	-	SACOL1579
SACOL1580	1617074	1617457	-	SACOL1580
SACOL1581	1617469	1617729	-	SACOL1581
SACOL1582	1617734	1618789	-	SACOL1582
SACOL1583	1618850	1619941	-	SACOL1583
SACOL1584	1620116	1620418	-	SACOL1584
SACOL1585	1620432	1620752	-	SACOL1585
SACOL1586	1620903	1621187	-	SACOL1586
SACOL1587	1621582	1622139	-	efp
SACOL1588	1622165	1623226	-	SACOL1588
SACOL1589	1623331	1623912	+	SACOL1589
SACOL1590	1623926	1624144	+	SACOL1590
SACOL1591	1624208	1625038	-	SACOL1591
SACOL1592	1625196	1625582	+	SACOL1592
SACOL1593	1625947	1627419	-	SACOL1593
SACOL1594	1627412	1628758	-	SACOL1594
SACOL1595	1628778	1629869	-	gcvT
SACOL1596	1630028	1630552	-	aroK
SACOL1597	1630785	1631282	-	SACOL1597
SACOL1598	1631486	1631932	-	SACOL1598
SACOL1599	1631910	1632221	-	comGC
SACOL1600	1632235	1633305	-	SACOL1600
SACOL1601	1633277	1634251	-	SACOL1601
SACOL1602	1634303	1634926	-	SACOL1602
SACOL1603	1634923	1635252	-	SACOL1603
SACOL1604	1635252	1636238	-	glk
SACOL1605	1636235	1636438	-	SACOL1605
SACOL1606	1636419	1637882	-	SACOL1606
SACOL1607	1637894	1638433	-	SACOL1607
SACOL1608	1638642	1638791	-	rpmG2
SACOL1609	1638904	1640979	-	pbp3
SACOL1610	1641100	1641699	-	sodA2
SACOL1611	1641975	1642385	-	SACOL1611
SACOL1612	1642372	1643235	-	SACOL1612
SACOL1613	1643277	1644062	-	SACOL1613
SACOL1614	1644188	1645078	-	nfo
SACOL1615	1645088	1646434	-	SACOL1615
SACOL1616	1646548	1647648	-	SACOL1616
SACOL1617	1647651	1648328	-	SACOL1617
SACOL1618	1648459	1649565	-	rpoD
SACOL1619	1649789	1651588	-	dnaG
SACOL1620	1651649	1652467	-	SACOL1620
SACOL1621	1652478	1653017	-	SACOL1621
SACOL1622	1653436	1654827	+	glyS
SACOL1623	1654977	1655729	-	SACOL1623
SACOL1624	1655751	1656650	-	era
SACOL1625	1656651	1657055	-	cdd
SACOL1626	1657066	1657410	-	dgkA
SACOL1627	1657413	1657880	-	SACOL1627
SACOL1628	1657881	1658801	-	SACOL1628
SACOL1629	1659132	1659830	-	SACOL1629
SACOL1630	1659847	1660836	-	SACOL1630
SACOL1631	1660854	1661561	-	SACOL1631
SACOL1632	1661781	1661957	-	rpsU
SACOL1633	1662250	1663596	-	SACOL1633
SACOL1634	1663603	1664355	-	SACOL1634
SACOL1635	1664357	1665295	-	prmA
SACOL1636	1665299	1666438	-	dnaJ
SACOL1637	1666574	1668406	-	dnaK
SACOL1638	1668475	1669101	-	grpE
SACOL1639	1669133	1670110	-	hrcA
SACOL1640	1670210	1671367	-	SACOL1640
SACOL1641	1671897	1673720	-	lepA
SACOL1642	1674066	1674317	+	rpsT
SACOL1643	1674362	1675336	-	holA
SACOL1644	1675393	1677540	-	SACOL1644
SACOL1645	1677599	1678030	-	SACOL1645
SACOL1646	1678152	1678838	-	comEA
SACOL1647	1678878	1679594	-	SACOL1647
SACOL1648	1679597	1679950	-	SACOL1648
SACOL1649	1679951	1680535	-	SACOL1649
SACOL1650	1680525	1681094	-	nadD
SACOL1651	1681097	1681387	-	SACOL1651
SACOL1652	1681391	1682197	-	aroE
SACOL1653	1682211	1683311	-	SACOL1653
SACOL1654	1683312	1683839	-	SACOL1654
SACOL1655	1683859	1684545	-	mtn
SACOL1656	1684859	1685128	+	SACOL1656
SACOL1657	1685330	1686034	-	SACOL1657
SACOL1658	1686496	1687716	-	SACOL1658
SACOL1659	1688005	1689234	-	SACOL1659
SACOL1660	1689247	1689999	-	SACOL1660
SACOL1661	1689999	1691360	-	SACOL1661
SACOL1662	1691374	1691823	-	SACOL1662
SACOL1663	1691825	1692835	-	SACOL1663
SACOL1664	1692825	1693559	-	SACOL1664
SACOL1665	1693885	1694361	-	greA
SACOL1666	1694389	1695012	-	udk
SACOL1667	1695012	1696280	-	SACOL1667
SACOL1668	1696292	1697215	-	SACOL1668
SACOL1669	1697218	1697856	-	SACOL1669
SACOL1670	1698141	1698449	-	SACOL1670
SACOL1671	1698464	1698892	-	SACOL1671
SACOL1672	1698896	1699156	-	SACOL1672
SACOL1673	1699219	1701849	-	alaS
SACOL1674	1702192	1704669	-	SACOL1674
SACOL1675	1704671	1705339	-	SACOL1675
SACOL1676	1705801	1706919	-	trmU
SACOL1677	1706920	1708062	-	SACOL1677
SACOL1678	1708374	1709387	+	SACOL1678
SACOL1679	1709624	1709770	-	SACOL1679
SACOL1680	1709810	1709992	-	SACOL1680
SACOL1681	1710092	1710514	-	SACOL1681
SACOL1682	1710599	1711873	+	SACOL1682
SACOL1683	1712034	1712807	-	SACOL1683
SACOL1684	1712807	1712935	-	SACOL1684
SACOL1685	1713268	1715034	-	aspS
SACOL1686	1715050	1716312	-	hisS
SACOL1687	1716773	1717648	-	SACOL1687
SACOL1688	1717645	1718097	-	SACOL1688
SACOL1689	1718109	1720298	-	relA2
SACOL1690	1720726	1721244	-	apt
SACOL1691	1721266	1723539	-	recJ
SACOL1692	1723742	1726021	-	SACOL1692
SACOL1693	1726296	1726556	-	yajC
SACOL1694	1726575	1727714	-	tgt
SACOL1695	1727737	1728762	-	queA
SACOL1696	1728764	1729768	-	ruvB
SACOL1697	1729800	1730402	-	ruvA
SACOL1698	1730416	1730874	-	SACOL1698
SACOL1699	1730884	1732176	-	SACOL1699
SACOL1700	1732531	1732815	-	rpmA
SACOL1701	1732827	1733147	-	SACOL1701
SACOL1702	1733153	1733461	-	rplU
SACOL1703	1733628	1734158	-	SACOL1703
SACOL1704	1734158	1735000	-	mreC
SACOL1705	1735393	1735866	-	SACOL1705
SACOL1706	1736340	1736624	-	SACOL1706
SACOL1707	1736692	1737378	-	radC
SACOL1708	1737375	1738082	-	SACOL1708
SACOL1709	1738352	1739623	-	folC
SACOL1710	1739636	1742266	-	valS
SACOL1711	1742669	1743229	+	SACOL1711
SACOL1712	1743452	1744525	-	SACOL1712
SACOL1713	1744559	1744660	-	SACOL1713
SACOL1714	1744721	1746007	-	hemL1
SACOL1715	1746055	1747029	-	hemB
SACOL1716	1747032	1747700	-	hemD
SACOL1717	1747722	1748648	-	hemC
SACOL1718	1748690	1749505	-	SACOL1718
SACOL1719	1749527	1750873	-	hemA
SACOL1720	1751090	1751680	-	SACOL1720
SACOL1721	1751834	1753096	-	clpX
SACOL1722	1753247	1754548	-	tig
SACOL1723	1754711	1755640	-	SACOL1723
SACOL1724	1755659	1756267	-	SACOL1724
SACOL1725	1756409	1756765	-	rplT
SACOL1726	1756812	1757012	-	rpmI
SACOL1727	1757041	1757568	-	infC
SACOL1728	1757797	1759290	-	SACOL1728
SACOL1729	1759716	1761653	-	thrS
SACOL1730	1761851	1761973	-	SACOL1730
SACOL1731	1762066	1762986	-	dnaI
SACOL1732	1762986	1764386	-	SACOL1732
SACOL1733	1764387	1764857	-	SACOL1733
SACOL1734	1765067	1766092	-	gapA2
SACOL1735	1766262	1766885	-	coaE
SACOL1736	1766901	1767773	-	fpg
SACOL1737	1767789	1770419	-	polA
SACOL1738	1770713	1772200	-	SACOL1738
SACOL1739	1772699	1774363	-	SACOL1739
SACOL1740	1774360	1775064	-	phoP
SACOL1741	1775454	1776722	-	icd
SACOL1742	1776771	1777892	-	gltA
SACOL1743	1778240	1779601	+	SACOL1743
SACOL1745	1781926	1783683	-	pyk
SACOL1746	1783705	1784673	-	pfkA
SACOL1747	1784942	1785886	-	accA
SACOL1748	1785886	1786743	-	accD
SACOL1749	1786938	1788167	-	SACOL1749
SACOL1750	1788617	1791814	-	dnaE
SACOL1751	1791835	1792776	-	SACOL1751
SACOL1752	1793037	1794335	-	SACOL1752
SACOL1753	1794540	1794953	+	SACOL1753
SACOL1755	1795919	1796062	+	SACOL1755
SACOL1756	1796121	1797176	+	pepQ
SACOL1757	1797270	1797368	-	SACOL1757
SACOL1758	1797492	1798610	-	ald2
SACOL1759	1798751	1799251	+	SACOL1759
SACOL1760	1799497	1800699	-	ackA
SACOL1761	1800787	1801734	-	SACOL1761
SACOL1762	1801857	1802351	-	SACOL1762
SACOL1763	1802449	1803219	-	SACOL1763
SACOL1764	1803263	1804486	-	thiI
SACOL1765	1804486	1805625	-	SACOL1765
SACOL1766	1805783	1805923	+	SACOL1766
SACOL1767	1805997	1807691	-	SACOL1767
SACOL1768	1807828	1808292	+	SACOL1768
SACOL1769	1808536	1809138	+	rpsD
SACOL1770	1809354	1810097	-	SACOL1770
SACOL1771	1810177	1810623	+	SACOL1771
SACOL1772	1810737	1811897	+	SACOL1772
SACOL1773	1811884	1813488	+	serA
SACOL1774	1813638	1814768	-	SACOL1774
SACOL1775	1814875	1816341	-	SACOL1775
SACOL1776	1816469	1817086	-	SACOL1776
SACOL1777	1817258	1818532	+	SACOL1777
SACOL1778	1818626	1819888	-	tyrS
SACOL1779	1820270	1821175	+	SACOL1779
SACOL1781	1821378	1824065	-	sasI
SACOL1782	1824399	1826099	-	fhs
SACOL1783	1826506	1828212	-	acs
SACOL1784	1828381	1829013	+	acuA
SACOL1785	1829038	1830207	+	acuC
SACOL1786	1830305	1831294	-	ccpA
SACOL1787	1831834	1832925	-	SACOL1787
SACOL1788	1833625	1835142	-	SACOL1788
SACOL1789	1835216	1835707	-	SACOL1789
SACOL1790	1835781	1837094	-	murC
SACOL1791	1837118	1840942	-	SACOL1791
SACOL1792	1840963	1841559	-	SACOL1792
SACOL1793	1841588	1842445	-	SACOL1793
SACOL1794	1842545	1842856	-	SACOL1794
SACOL1795	1842921	1843997	-	pepA1
SACOL1796	1844084	1844395	+	SACOL1796
SACOL1797	1844520	1845296	-	SACOL1797
SACOL1798	1845832	1846476	-	trmB
SACOL1799	1846491	1847282	-	SACOL1799
SACOL1800	1847832	1848680	-	dat
SACOL1801	1848684	1850093	-	SACOL1801
SACOL1802	1851013	1851435	-	SACOL1802
SACOL1803	1851452	1852147	-	SACOL1803
SACOL1804	1852144	1853805	-	SACOL1804
SACOL1805	1854212	1855480	+	SACOL1805
SACOL1806	1855597	1862157	-	sasC
SACOL1807	1862483	1862794	-	SACOL1807
SACOL1808	1862816	1865233	-	leuS
SACOL1809	1865521	1866702	-	SACOL1809
SACOL1810	1866812	1867765	+	SACOL1810
SACOL1811	1867762	1868325	+	SACOL1811
SACOL1812	1868445	1868945	-	rot
SACOL1814	1870425	1871252	-	SACOL1814
SACOL1815	1871255	1871374	-	SACOL1815
SACOL1816	1871486	1872487	+	putA
SACOL1817	1872609	1873073	-	ribH
SACOL1818	1873086	1874267	-	ribBA
SACOL1819	1874278	1874910	-	ribE
SACOL1820	1874917	1875960	-	ribD
SACOL1821	1876441	1877943	-	SACOL1821
SACOL1822	1878466	1878780	+	arsR
SACOL1823	1878780	1880072	+	arsB
SACOL1824	1880090	1880485	+	arsC
SACOL1825	1880780	1881634	-	SACOL1825
SACOL1826	1881910	1882134	-	SACOL1826
SACOL1827	1882333	1882803	+	SACOL1827
SACOL1828	1882916	1883359	+	SACOL1828
SACOL1829	1883346	1883789	-	SACOL1829
SACOL1830	1884085	1884720	+	SACOL1830
SACOL1831	1885160	1885873	-	tal
SACOL1832	1886613	1887056	+	crcB
SACOL1833	1887053	1887406	+	SACOL1833
SACOL1835	1889489	1890322	-	SACOL1835
SACOL1836	1890534	1891442	-	SACOL1836
SACOL1837	1891567	1892760	-	metK
SACOL1838	1893131	1894723	+	pckA
SACOL1839	1894859	1895344	-	SACOL1839
SACOL1840	1895719	1896489	-	SACOL1840
SACOL1841	1896470	1896949	-	SACOL1841
SACOL1842	1897009	1897266	+	SACOL1842
SACOL1843	1897263	1898264	-	SACOL1843
SACOL1844	1898269	1899747	-	SACOL1844
SACOL1845	1899906	1900388	-	SACOL1845
SACOL1846	1900664	1901314	+	SACOL1846
SACOL1847	1901395	1902390	+	SACOL1847
SACOL1848	1902466	1903092	+	SACOL1848
SACOL1849	1903133	1903477	+	SACOL1849
SACOL1850	1903575	1904126	+	SACOL1850
SACOL1851	1904344	1904985	-	SACOL1851
SACOL1852	1905099	1905284	-	SACOL1852
SACOL1853	1905286	1905462	-	SACOL1853
SACOL1854	1905473	1905856	-	SACOL1854
SACOL1856	1907157	1907258	+	SACOL1856
SACOL1857	1907606	1907983	-	SACOL1857
SACOL1858	1908504	1909064	-	SACOL1858
SACOL1859	1909269	1912319	-	SACOL1859
SACOL1860	1912386	1912616	-	SACOL1860
SACOL1861	1913466	1914665	-	hsdS
SACOL1862	1914658	1916214	-	hsdM2
SACOL1863	1916378	1916512	-	SACOL1863
SACOL1864	1916577	1917296	-	SACOL1864
SACOL1865	1917447	1918163	-	SACOL1865
SACOL1866	1918321	1919040	-	SACOL1866
SACOL1867	1919161	1919880	-	splC
SACOL1868	1919938	1920660	-	splB
SACOL1869	1920785	1921501	-	splA
SACOL1870	1922465	1923031	+	SACOL1870
SACOL1871	1923505	1924203	-	epiG
SACOL1872	1924200	1924961	-	epiE
SACOL1873	1924958	1925650	-	epiF
SACOL1874	1925673	1927046	-	epiP
SACOL1875	1927056	1927574	-	epiD
SACOL1877	1928827	1931820	-	epiB
SACOL1878	1931885	1932028	-	epiA
SACOL1879	1932920	1934239	+	SACOL1879
SACOL1880	1934671	1935654	-	lukD
SACOL1881	1935656	1936591	-	lukE
SACOL1882	1937391	1937930	+	SACOL1882
SACOL1883	1937943	1938731	+	SACOL1883
SACOL1884	1939280	1939396	-	SACOL1884
SACOL1885	1941188	1941742	-	SACOL1885
SACOL1886	1941836	1942063	+	SACOL1886
SACOL1887	1942065	1943465	-	hemG
SACOL1888	1943489	1944412	-	hemH
SACOL1889	1944470	1945507	-	hemE
SACOL1890	1945497	1945607	-	SACOL1890
SACOL1891	1945770	1946273	+	SACOL1891
SACOL1892	1946397	1947620	-	SACOL1892
SACOL1893	1947613	1948353	-	SACOL1893
SACOL1894	1948487	1948909	+	SACOL1894
SACOL1895	1949051	1949416	+	SACOL1895
SACOL1896	1950149	1950706	+	SACOL1896
SACOL1897	1950911	1951873	+	SACOL1897
SACOL1898	1951994	1952935	-	cbf1
SACOL1899	1952932	1955868	-	SACOL1899
SACOL1900	1955858	1957054	-	SACOL1900
SACOL1901	1957345	1957443	-	SACOL1901
SACOL1902	1957826	1958170	-	SACOL1902
SACOL1903	1958239	1959363	-	SACOL1903
SACOL1904	1959542	1960006	-	SACOL1904
SACOL1905	1960362	1960985	-	SACOL1905
SACOL1906	1961007	1962119	-	SACOL1906
SACOL1907	1962282	1963103	+	SACOL1907
SACOL1908	1963566	1964951	-	fumC
SACOL1909	1965147	1965542	-	SACOL1909
SACOL1910	1965661	1966023	+	SACOL1910
SACOL1911	1966319	1966471	-	SACOL1911
SACOL1912	1966496	1967095	-	SACOL1912
SACOL1913	1967254	1967724	-	SACOL1913
SACOL1914	1967729	1968856	-	SACOL1914
SACOL1915	1969007	1969735	-	SACOL1915
SACOL1916	1969722	1971179	-	SACOL1916
SACOL1917	1971437	1972498	-	SACOL1917
SACOL1918	1972991	1974310	+	SACOL1918
SACOL1919	1982818	1983264	-	SACOL1919
SACOL1920	1983361	1984311	-	SACOL1920
SACOL1921	1984317	1984772	-	bcp
SACOL1922	1984853	1986142	+	hemL2
SACOL1923	1986435	1987529	+	SACOL1923
SACOL1924	1987720	1989456	-	SACOL1924
SACOL1925	1989747	1990289	-	SACOL1925
SACOL1926	1990591	1991628	-	mutY
SACOL1927	1991780	1992757	+	SACOL1927
SACOL1928	1993018	1993854	-	SACOL1928
SACOL1929	1993863	1995380	-	SACOL1929
SACOL1930	1995395	1995709	-	SACOL1930
SACOL1931	1995687	1996505	-	SACOL1931
SACOL1932	1996766	1997575	-	SACOL1932
SACOL1933	1997916	1998431	-	SACOL1933
SACOL1934	1998562	1998723	-	SACOL1934
SACOL1935	1998947	2000098	+	SACOL1935
SACOL1936	2000358	2000888	-	SACOL1936
SACOL1937	2000978	2002234	-	pepS
SACOL1938	2002237	2002443	-	SACOL1938
SACOL1939	2002584	2003048	+	SACOL1939
SACOL1940	2003055	2003330	+	SACOL1940
SACOL1941	2003608	2004825	+	SACOL1941
SACOL1942	2004941	2005570	-	vraR
SACOL1943	2005560	2006603	-	vraS
SACOL1944	2006600	2007301	-	SACOL1944
SACOL1945	2007316	2007702	-	SACOL1945
SACOL1946	2007919	2008677	-	SACOL1946
SACOL1947	2009205	2010191	+	SACOL1947
SACOL1948	2010622	2011035	-	SACOL1948
SACOL1949	2011064	2011174	-	SACOL1949
SACOL1950	2011260	2011991	-	SACOL1950
SACOL1951	2011993	2013306	-	SACOL1951
SACOL1952	2013598	2014098	+	SACOL1952
SACOL1953	2014180	2014272	-	SACOL1953
SACOL1954	2014487	2015041	+	SACOL1954
SACOL1955	2015109	2016179	-	dinP
SACOL1956	2016426	2016956	-	SACOL1956
SACOL1957	2017126	2018487	-	SACOL1957
SACOL1958	2018568	2019515	-	SACOL1958
SACOL1959	2020098	2020244	-	SACOL1959
SACOL1960	2020284	2021711	-	gatB
SACOL1961	2021724	2023181	-	gatA
SACOL1962	2023183	2023485	-	gatC
SACOL1963	2023853	2025391	+	SACOL1963
SACOL1964	2025480	2026679	-	camS
SACOL1965	2026692	2028695	-	ligA
SACOL1966	2028699	2030891	-	pcrA
SACOL1967	2030888	2031580	-	SACOL1967
SACOL1968	2031752	2032054	-	SACOL1968
SACOL1969	2032163	2033458	-	purB
SACOL1970	2034319	2035485	+	sspB2
SACOL1971	2035516	2035842	+	SACOL1971
SACOL1972	2036134	2036307	-	SACOL1972
SACOL1973	2036288	2036890	-	SACOL1973
SACOL1974	2037161	2037982	-	nadE
SACOL1975	2037975	2039444	-	SACOL1975
SACOL1976	2039628	2040704	+	SACOL1976
SACOL1977	2040724	2041518	+	pheA
SACOL1978	2041543	2041665	-	SACOL1978
SACOL1979	2041708	2043270	-	SACOL1979
SACOL1980	2043475	2044572	-	SACOL1980
SACOL1981	2044944	2045504	+	SACOL1981
SACOL1982	2045557	2046486	+	ppaC
SACOL1983	2046681	2046854	-	SACOL1983
SACOL1984	2046906	2048285	+	aldA2
SACOL1985	2048405	2049433	-	SACOL1985
SACOL1986	2049703	2050104	+	SACOL1986
SACOL1987	2050677	2050850	-	SACOL1987
SACOL1988	2051301	2052341	+	SACOL1988
SACOL1989	2052398	2053240	-	SACOL1989
SACOL1990	2053237	2053794	-	SACOL1990
SACOL1991	2053854	2054378	-	SACOL1991
SACOL1992	2054499	2055062	+	SACOL1992
SACOL1993	2055128	2055868	-	SACOL1993
SACOL1994	2055868	2056740	-	SACOL1994
SACOL1995	2056737	2057417	-	SACOL1995
SACOL1996	2057418	2058314	-	SACOL1996
SACOL1997	2058311	2058691	-	SACOL1997
SACOL1998	2058955	2059131	-	SACOL1998
SACOL1999	2059374	2059472	-	SACOL1999
SACOL2000	2059672	2060958	+	SACOL2000
SACOL2003	2063726	2064718	+	hlb
SACOL2004	2064956	2065828	-	SACOL2004
SACOL2005	2065866	2066009	+	SACOL2005
SACOL2006	2065994	2067049	-	SACOL2006
SACOL2009	2069080	2069925	-	SACOL2009
SACOL2010	2069987	2070898	-	SACOL2010
SACOL2011	2071059	2072366	+	SACOL2011
SACOL2012	2073219	2073662	-	SACOL2012
SACOL2013	2073768	2074205	-	SACOL2013
SACOL2014	2074523	2075113	-	SACOL2014
SACOL2016	2076024	2077640	-	groEL
SACOL2017	2077716	2078000	-	groES
SACOL2018	2078175	2078918	+	SACOL2018
SACOL2019	2078943	2080202	-	SACOL2019
SACOL2020	2080399	2081025	+	SACOL2020
SACOL2021	2081386	2082171	+	SACOL2021
SACOL2022	2082768	2082902	-	hld
SACOL2023	2083138	2083707	+	agrB
SACOL2024	2083704	2083844	+	agrD
SACOL2025	2083869	2085161	+	argC2
SACOL2026	2085180	2085896	+	agrA
SACOL2027	2085968	2086075	+	SACOL2027
SACOL2028	2086263	2087222	-	SACOL2028
SACOL2029	2087219	2088703	-	cscA
SACOL2030	2088852	2089802	-	scrR
SACOL2031	2089985	2091235	-	SACOL2031
SACOL2032	2091225	2091350	-	SACOL2032
SACOL2033	2091442	2091666	-	SACOL2033
SACOL2034	2091726	2092805	-	SACOL2034
SACOL2035	2093109	2093744	-	SACOL2035
SACOL2036	2093997	2095925	+	SACOL2036
SACOL2037	2096287	2097897	+	SACOL2037
SACOL2038	2097999	2099024	-	SACOL2038
SACOL2039	2099017	2099481	-	SACOL2039
SACOL2040	2099454	2100116	-	SACOL2040
SACOL2041	2100097	2100531	-	SACOL2041
SACOL2042	2101069	2102757	+	ilvD
SACOL2043	2102785	2104554	+	ilvB
SACOL2044	2104554	2104808	+	SACOL2044
SACOL2045	2104945	2105949	+	ilvC
SACOL2046	2105979	2107508	+	leuA
SACOL2047	2107511	2108557	+	leuB
SACOL2048	2108571	2109941	+	leuC
SACOL2049	2109942	2110514	+	leuD
SACOL2050	2110529	2111797	+	ilvA2
SACOL2051	2111846	2112001	-	SACOL2051
SACOL2052	2118160	2118615	-	SACOL2052
SACOL2053	2118608	2120758	-	SACOL2053
SACOL2054	2121192	2121962	-	rpoF
SACOL2055	2121937	2122416	-	rsbW
SACOL2056	2122418	2122744	-	rsbV
SACOL2057	2122864	2123865	-	rsbU
SACOL2058	2124215	2124577	-	SACOL2058
SACOL2059	2124574	2124744	-	SACOL2059
SACOL2060	2124829	2125977	-	alr
SACOL2061	2126043	2126402	-	acpS
SACOL2062	2126406	2126900	-	SACOL2062
SACOL2063	2126884	2128467	-	SACOL2063
SACOL2064	2128460	2128939	-	SACOL2064
SACOL2065	2129035	2129151	-	SACOL2065
SACOL2066	2129148	2129708	-	kdpC
SACOL2067	2129728	2131755	-	kdpB
SACOL2068	2131774	2133450	-	kdpA
SACOL2069	2133474	2133584	-	kdpF
SACOL2070	2133722	2136379	+	kdpD
SACOL2071	2136379	2137074	+	kdpE
SACOL2072	2137443	2138963	-	SACOL2072
SACOL2073	2139480	2140838	-	murF
SACOL2074	2140853	2141923	-	SACOL2074
SACOL2075	2142241	2143443	+	ftsW
SACOL2076	2143707	2143844	-	SACOL2076
SACOL2077	2143972	2144181	-	SACOL2077
SACOL2078	2144193	2144486	-	SACOL2078
SACOL2079	2144652	2146136	+	cls2
SACOL2080	2146164	2146811	+	SACOL2080
SACOL2081	2146986	2147078	-	SACOL2081
SACOL2082	2147624	2148496	-	SACOL2082
SACOL2083	2148582	2149223	-	thiE
SACOL2084	2149225	2150016	-	thiM
SACOL2085	2150000	2150830	-	thiD2
SACOL2086	2150823	2151512	-	SACOL2086
SACOL2087	2151612	2151743	-	SACOL2087
SACOL2088	2151898	2152593	-	SACOL2088
SACOL2089	2152982	2153377	-	SACOL2089
SACOL2090	2153571	2154011	+	ywpF
SACOL2091	2154070	2154510	-	fabZ
SACOL2092	2154544	2155809	-	murAA
SACOL2093	2155920	2156153	-	SACOL2093
SACOL2094	2156715	2157119	-	atpC
SACOL2095	2157139	2158551	-	atpD
SACOL2096	2158573	2159439	-	atpG
SACOL2097	2159470	2160978	-	atpA
SACOL2098	2161000	2161539	-	atpH
SACOL2099	2161539	2162060	-	atpF
SACOL2100	2162258	2162470	-	atpE
SACOL2101	2162513	2163241	-	atpB
SACOL2102	2163262	2163615	-	SACOL2102
SACOL2103	2163782	2164909	-	SACOL2103
SACOL2104	2164933	2165562	-	upp
SACOL2105	2165590	2166828	-	glyA
SACOL2106	2166855	2167379	-	SACOL2106
SACOL2107	2167486	2167905	-	SACOL2107
SACOL2108	2167902	2168957	-	SACOL2108
SACOL2109	2169032	2169868	-	SACOL2109
SACOL2110	2169855	2170931	-	prfA
SACOL2111	2170932	2171531	-	tdk
SACOL2112	2171878	2172132	-	rpmE
SACOL2113	2172250	2173566	-	rho
SACOL2114	2173813	2175240	-	SACOL2114
SACOL2115	2175478	2175813	-	SACOL2115
SACOL2116	2175902	2177161	-	murAB
SACOL2117	2177627	2178487	-	fbaA
SACOL2118	2178705	2179226	+	SACOL2118
SACOL2119	2179335	2180945	-	pyrG
SACOL2120	2181281	2181811	-	rpoE
SACOL2121	2181923	2182783	-	SACOL2121
SACOL2122	2183207	2184010	+	SACOL2122
SACOL2123	2184140	2184811	-	SACOL2123
SACOL2124	2185210	2186403	-	SACOL2124
SACOL2125	2186403	2187587	-	SACOL2125
SACOL2126	2187898	2188368	+	luxS
SACOL2127	2188520	2188870	-	SACOL2127
SACOL2128	2188884	2190185	-	pdp
SACOL2129	2190464	2191126	-	deoC2
SACOL2130	2191441	2192151	+	deoD2
SACOL2131	2192272	2192715	-	SACOL2131
SACOL2132	2192915	2193328	-	SACOL2132
SACOL2133	2193786	2195159	-	SACOL2133
SACOL2134	2195831	2196061	-	SACOL2134
SACOL2135	2196092	2197030	-	manA1
SACOL2136	2197465	2198130	-	SACOL2136
SACOL2137	2198282	2198602	+	czrA
SACOL2138	2198604	2199584	+	SACOL2138
SACOL2139	2199794	2199901	+	SACOL2139
SACOL2142	2202166	2203302	-	SACOL2142
SACOL2143	2204388	2205257	-	SACOL2143
SACOL2144	2205313	2206095	-	SACOL2144
SACOL2145	2206327	2208132	-	glmS
SACOL2146	2208813	2210351	+	SACOL2146
SACOL2147	2210386	2212518	+	SACOL2147
SACOL2148	2212530	2212964	+	SACOL2148
SACOL2149	2212964	2214070	+	mtlD
SACOL2150	2214389	2221825	-	sasB
SACOL2151	2222102	2223457	-	glmM
SACOL2152	2223484	2224416	-	SACOL2152
SACOL2153	2224418	2225227	-	SACOL2153
SACOL2154	2225416	2226324	-	rocF
SACOL2156	2234163	2235227	-	SACOL2156
SACOL2157	2235375	2236817	-	SACOL2157
SACOL2158	2237139	2237612	-	SACOL2158
SACOL2159	2237711	2239054	-	SACOL2159
SACOL2160	2239231	2239914	-	SACOL2160
SACOL2161	2239933	2241120	-	SACOL2161
SACOL2162	2241164	2241679	-	SACOL2162
SACOL2163	2241857	2242117	+	SACOL2163
SACOL2164	2242249	2243619	-	SACOL2164
SACOL2165	2243855	2244823	-	SACOL2165
SACOL2166	2244820	2245851	-	SACOL2166
SACOL2167	2245863	2246846	-	SACOL2167
SACOL2168	2247238	2248308	-	SACOL2168
SACOL2169	2248315	2250072	-	SACOL2169
SACOL2170	2250059	2251252	-	SACOL2170
SACOL2171	2251354	2253330	+	SACOL2171
SACOL2173	2255446	2255955	-	SACOL2173
SACOL2174	2256018	2256257	-	SACOL2174
SACOL2175	2256270	2256818	-	SACOL2175
SACOL2176	2256981	2258543	-	opuD2
SACOL2177	2258850	2259851	-	SACOL2177
SACOL2178	2260085	2261086	-	SACOL2178
SACOL2179	2261369	2262238	-	SACOL2179
SACOL2180	2262504	2263916	-	lacG
SACOL2181	2263934	2265652	-	lacE
SACOL2182	2265652	2265963	-	lacF
SACOL2183	2265985	2266965	-	lacD
SACOL2184	2266969	2267901	-	lacC
SACOL2185	2267914	2268429	-	lacB
SACOL2186	2268445	2268873	-	SACOL2186
SACOL2187	2268888	2269004	-	SACOL2187
SACOL2188	2269241	2269996	-	lacR
SACOL2189	2270247	2270978	+	SACOL2189
SACOL2190	2271269	2271877	-	SACOL2190
SACOL2191	2272139	2272264	-	SACOL2191
SACOL2192	2272484	2273332	-	SACOL2192
SACOL2193	2273402	2273818	-	SACOL2193
SACOL2194	2274226	2276649	+	hysA
SACOL2195	2276709	2277563	-	SACOL2195
SACOL2196	2277774	2278589	-	SACOL2196
SACOL2197	2278883	2279308	+	SACOL2197
SACOL2198	2279672	2280376	-	budA1
SACOL2199	2280413	2282077	-	budB
SACOL2200	2282357	2282452	+	SACOL2200
SACOL2201	2283267	2283866	-	SACOL2201
SACOL2202	2283899	2284672	-	SACOL2202
SACOL2203	2284801	2285937	-	SACOL2203
SACOL2204	2285938	2286729	-	SACOL2204
SACOL2206	2288674	2289072	-	rpsI
SACOL2207	2289086	2289523	-	rplM
SACOL2208	2289763	2290566	-	truA
SACOL2209	2290571	2291377	-	SACOL2209
SACOL2210	2291367	2292227	-	SACOL2210
SACOL2211	2292224	2293033	-	SACOL2211
SACOL2212	2293571	2293939	-	rplQ
SACOL2213	2293956	2294900	-	rpoA
SACOL2214	2294975	2295364	-	rpsK
SACOL2215	2295388	2295753	-	rpsM
SACOL2216	2295776	2295889	-	rpmJ
SACOL2217	2295921	2296139	-	infA
SACOL2218	2296332	2296979	-	adk
SACOL2219	2296996	2298288	-	secY
SACOL2220	2298288	2298728	-	rplO
SACOL2221	2298745	2298924	-	rpmD
SACOL2222	2298941	2299441	-	rpsE
SACOL2223	2299462	2299821	-	rplR
SACOL2224	2299852	2300388	-	rplF
SACOL2225	2300413	2300811	-	rpsH
SACOL2226	2300843	2301028	-	rpsN2
SACOL2227	2301051	2301590	-	rplE
SACOL2228	2301617	2301934	-	rplX
SACOL2229	2301970	2302338	-	rplN
SACOL2230	2302370	2302633	-	rpsQ
SACOL2231	2302657	2302866	-	rpmC
SACOL2232	2302856	2303290	-	rplP
SACOL2233	2303293	2303946	-	rpsC
SACOL2234	2303970	2304323	-	rplV
SACOL2235	2304352	2304630	-	rpsS
SACOL2236	2304697	2305530	-	rplB
SACOL2237	2305563	2305838	-	rplW
SACOL2238	2305838	2306461	-	rplD
SACOL2239	2306488	2307117	-	rplC
SACOL2240	2307178	2307486	-	rpsJ
SACOL2241	2307843	2308232	+	SACOL2241
SACOL2242	2308424	2309758	-	SACOL2242
SACOL2243	2309871	2312006	-	topB
SACOL2244	2312032	2312127	-	SACOL2244
SACOL2245	2312193	2313080	+	SACOL2245
SACOL2246	2313261	2314124	+	SACOL2246
SACOL2247	2314241	2314372	-	SACOL2247
SACOL2248	2314543	2315451	-	SACOL2248
SACOL2250	2315584	2315748	+	SACOL2250
SACOL2251	2315993	2316310	+	SACOL2251
SACOL2252	2316497	2319664	-	SACOL2252
SACOL2253	2319781	2321046	-	femX
SACOL2254	2321518	2321637	-	SACOL2254
SACOL2255	2321678	2322442	-	SACOL2255
SACOL2256	2322604	2323044	+	SACOL2256
SACOL2257	2323037	2324248	+	SACOL2257
SACOL2258	2324350	2324700	-	sarV
SACOL2259	2324826	2324996	+	SACOL2259
SACOL2260	2325053	2325196	-	SACOL2260
SACOL2261	2325391	2326413	-	moaA
SACOL2262	2326433	2327032	-	mobA
SACOL2263	2327039	2327272	-	moaD
SACOL2264	2327278	2327724	-	moaE
SACOL2265	2327738	2328223	-	mobB
SACOL2266	2328220	2329479	-	SACOL2266
SACOL2267	2329542	2330036	+	moaC
SACOL2268	2330038	2330544	-	moaB
SACOL2269	2330575	2331579	-	SACOL2269
SACOL2270	2331749	2332354	-	modC
SACOL2271	2332355	2333026	-	modB
SACOL2272	2333040	2333822	-	modA
SACOL2273	2334112	2334909	+	fdhD
SACOL2274	2335081	2335851	-	SACOL2274
SACOL2275	2335923	2336477	-	SACOL2275
SACOL2276	2336598	2337539	-	SACOL2276
SACOL2277	2337938	2338846	-	SACOL2277
SACOL2278	2339060	2340214	-	SACOL2278
SACOL2279	2340431	2341336	-	SACOL2279
SACOL2280	2341596	2341898	+	ureA
SACOL2281	2341912	2342322	+	ureB
SACOL2282	2342319	2344034	+	ureC
SACOL2283	2344047	2344499	+	ureE
SACOL2284	2344492	2345181	+	ureF
SACOL2285	2345194	2345808	+	ureG
SACOL2286	2345808	2346644	+	ureD
SACOL2287	2346833	2347180	-	sarR
SACOL2288	2347608	2347934	-	SACOL2288
SACOL2289	2347998	2348741	-	sarY
SACOL2290	2348767	2350722	-	SACOL2290
SACOL2291	2351332	2352135	+	SACOL2291
SACOL2292	2352568	2353968	-	nhaC
SACOL2293	2354063	2355145	-	SACOL2293
SACOL2294	2355393	2355815	+	SACOL2294
SACOL2295	2356052	2356552	+	SACOL2295
SACOL2296	2356914	2357867	+	SACOL2296
SACOL2297	2357959	2359083	-	SACOL2297
SACOL2298	2359394	2360170	-	SACOL2298
SACOL2299	2360192	2360443	-	SACOL2299
SACOL2300	2360653	2361126	-	SACOL2300
SACOL2301	2361126	2364080	-	SACOL2301
SACOL2302	2364682	2365635	-	SACOL2302
SACOL2303	2365762	2366559	-	SACOL2303
SACOL2304	2366944	2367636	+	SACOL2304
SACOL2306	2368283	2369020	-	SACOL2306
SACOL2307	2369069	2369398	+	SACOL2307
SACOL2308	2369843	2370715	+	SACOL2308
SACOL2309	2371102	2372481	-	SACOL2309
SACOL2310	2372761	2373117	+	SACOL2310
SACOL2311	2373114	2373299	+	SACOL2311
SACOL2312	2373395	2373586	-	SACOL2312
SACOL2313	2373597	2374232	-	SACOL2313
SACOL2314	2374307	2375224	-	SACOL2314
SACOL2315	2375492	2376022	+	SACOL2315
SACOL2316	2376088	2377692	-	SACOL2316
SACOL2317	2378022	2378786	+	SACOL2317
SACOL2318	2378844	2379350	-	SACOL2318
SACOL2319	2379517	2380830	-	SACOL2319
SACOL2320	2381055	2381624	-	SACOL2320
SACOL2321	2382111	2382992	-	SACOL2321
SACOL2322	2383103	2384224	-	SACOL2322
SACOL2323	2384501	2385739	-	hutI
SACOL2324	2385739	2387400	-	hutU
SACOL2325	2387560	2388444	+	SACOL2325
SACOL2326	2388866	2389285	+	fosB
SACOL2327	2389541	2390476	-	hutG
SACOL2328	2390766	2392025	+	SACOL2328
SACOL2329	2392091	2392777	-	rpiA
SACOL2330	2392951	2393604	+	SACOL2330
SACOL2331	2393734	2393847	-	SACOL2331
SACOL2332	2393840	2394859	-	galM
SACOL2333	2394889	2395215	-	SACOL2333
SACOL2334	2395433	2396665	-	SACOL2334
SACOL2335	2396658	2397557	-	SACOL2335
SACOL2336	2397627	2397725	-	SACOL2336
SACOL2338	2397788	2398435	-	SACOL2338
SACOL2339	2398834	2399442	+	SACOL2339
SACOL2340	2399779	2400987	+	gltS
SACOL2341	2401035	2402084	-	fni
SACOL2342	2402115	2403062	-	SACOL2342
SACOL2343	2403159	2403650	+	SACOL2343
SACOL2344	2403647	2404066	+	SACOL2344
SACOL2345	2404174	2405076	-	SACOL2345
SACOL2346	2405302	2405940	+	SACOL2346
SACOL2347	2406186	2408117	-	SACOL2347
SACOL2348	2408130	2408777	-	SACOL2348
SACOL2349	2408898	2409449	+	SACOL2349
SACOL2350	2409679	2410887	-	tcaB
SACOL2351	2410997	2411125	-	SACOL2351
SACOL2352	2411156	2412538	-	tcaA
SACOL2353	2412778	2413233	-	tcaR
SACOL2354	2413428	2414396	+	SACOL2354
SACOL2356	2415467	2416132	-	SACOL2356
SACOL2357	2416132	2417187	-	SACOL2357
SACOL2358	2417323	2417997	+	SACOL2358
SACOL2359	2417990	2419363	+	SACOL2359
SACOL2360	2419526	2419969	+	SACOL2360
SACOL2361	2419966	2420421	+	SACOL2361
SACOL2362	2420487	2421965	-	mqo1
SACOL2363	2422346	2423944	-	SACOL2363
SACOL2364	2424261	2425934	+	SACOL2364
SACOL2365	2426087	2426716	-	SACOL2365
SACOL2366	2427030	2427545	-	SACOL2366
SACOL2367	2427736	2428740	+	SACOL2367
SACOL2368	2428786	2429187	-	SACOL2368
SACOL2369	2429223	2430257	-	SACOL2369
SACOL2370	2430268	2430384	-	SACOL2370
SACOL2371	2430489	2430920	-	SACOL2371
SACOL2372	2430972	2431064	+	SACOL2372
SACOL2373	2431127	2432404	-	SACOL2373
SACOL2374	2432565	2433188	+	SACOL2374
SACOL2375	2433234	2434178	+	SACOL2375
SACOL2376	2434264	2435706	-	SACOL2376
SACOL2377	2435889	2436272	+	SACOL2377
SACOL2378	2437760	2439865	+	SACOL2378
SACOL2379	2439936	2440358	+	SACOL2379
SACOL2380	2440454	2440576	-	SACOL2380
SACOL2381	2440623	2440979	+	SACOL2381
SACOL2382	2441383	2442660	-	SACOL2382
SACOL2383	2442842	2443207	-	SACOL2383
SACOL2384	2443605	2444051	+	sarZ
SACOL2385	2444267	2444695	+	SACOL2385
SACOL2386	2444802	2445971	-	SACOL2386
SACOL2388	2447234	2447974	+	SACOL2388
SACOL2389	2448232	2448885	-	SACOL2389
SACOL2390	2448908	2449942	-	SACOL2390
SACOL2391	2449966	2450418	-	SACOL2391
SACOL2392	2450438	2451115	-	narI
SACOL2393	2451108	2451698	-	narJ
SACOL2394	2451676	2453235	-	narH
SACOL2395	2453225	2456914	-	narG
SACOL2396	2457224	2458201	-	SACOL2396
SACOL2397	2458192	2458506	-	nirD
SACOL2398	2458510	2460915	-	nirB
SACOL2399	2460981	2461712	-	nirR
SACOL2400	2461942	2462478	-	SACOL2400
SACOL2401	2462711	2463535	-	SACOL2401
SACOL2402	2464018	2464485	-	SACOL2402
SACOL2403	2464671	2466221	-	SACOL2403
SACOL2404	2466516	2466782	-	SACOL2404
SACOL2405	2466782	2467033	-	SACOL2405
SACOL2406	2467198	2467296	-	SACOL2406
SACOL2407	2467306	2467905	-	SACOL2407
SACOL2408	2467924	2468295	-	SACOL2408
SACOL2409	2468541	2469791	+	fmhA
SACOL2410	2469888	2470619	-	SACOL2410
SACOL2411	2470616	2471344	-	SACOL2411
SACOL2412	2471316	2472095	-	SACOL2412
SACOL2413	2472216	2473613	-	SACOL2413
SACOL2414	2473830	2473934	+	SACOL2414
SACOL2415	2474088	2474774	-	gpm
SACOL2416	2475100	2475966	-	SACOL2416
SACOL2417	2476519	2476623	-	SACOL2417
SACOL2418	2476718	2478028	+	SACOL2418
SACOL2419	2478564	2479493	+	hlgA
SACOL2420	2479557	2479682	+	SACOL2420
SACOL2421	2480061	2481008	+	hlgC
SACOL2422	2481010	2481987	+	hlgB
SACOL2423	2482039	2482506	-	SACOL2423
SACOL2424	2482517	2483209	-	bioW
SACOL2425	2483220	2484335	-	SACOL2425
SACOL2426	2484313	2485320	-	bioB
SACOL2427	2485322	2486680	-	bioA
SACOL2428	2486658	2487344	-	bioD
SACOL2429	2487565	2487708	-	SACOL2429
SACOL2430	2487796	2489529	-	SACOL2430
SACOL2431	2489554	2491317	-	SACOL2431
SACOL2432	2491811	2491918	-	SACOL2432
SACOL2433	2491945	2492052	-	SACOL2433
SACOL2434	2492187	2492573	-	SACOL2434
SACOL2435	2492841	2493983	+	SACOL2435
SACOL2436	2494043	2494702	+	SACOL2436
SACOL2437	2494884	2496095	+	bcr
SACOL2438	2496218	2496691	-	SACOL2438
SACOL2439	2496804	2497460	+	SACOL2439
SACOL2440	2497523	2498329	-	SACOL2440
SACOL2441	2498615	2500024	+	SACOL2441
SACOL2442	2500162	2502240	+	SACOL2442
SACOL2443	2502380	2504209	-	SACOL2443
SACOL2444	2504303	2504407	-	SACOL2444
SACOL2445	2504441	2505937	+	SACOL2445
SACOL2446	2506029	2506880	-	SACOL2446
SACOL2447	2507036	2507233	+	SACOL2447
SACOL2448	2507202	2508137	-	SACOL2448
SACOL2449	2508363	2509763	-	SACOL2449
SACOL2450	2510057	2510752	-	SACOL2450
SACOL2451	2510752	2511693	-	SACOL2451
SACOL2452	2511710	2512345	-	SACOL2452
SACOL2453	2512342	2513568	-	SACOL2453
SACOL2454	2513895	2514014	-	SACOL2454
SACOL2455	2514094	2514234	-	SACOL2455
SACOL2456	2514238	2514837	-	SACOL2456
SACOL2457	2514830	2515000	-	SACOL2457
SACOL2458	2515017	2516654	+	SACOL2458
SACOL2459	2517262	2518614	+	pnbA
SACOL2460	2518676	2519863	-	SACOL2460
SACOL2461	2520259	2521035	-	SACOL2461
SACOL2462	2521028	2521690	-	SACOL2462
SACOL2463	2521938	2523014	-	pepA2
SACOL2464	2523369	2523635	-	SACOL2464
SACOL2465	2523635	2523892	-	SACOL2465
SACOL2466	2523998	2524192	-	SACOL2466
SACOL2467	2524251	2524706	+	SACOL2467
SACOL2468	2524757	2524855	-	SACOL2468
SACOL2469	2524874	2526451	-	SACOL2469
SACOL2470	2526646	2527395	+	SACOL2470
SACOL2471	2527619	2528812	-	SACOL2471
SACOL2472	2528824	2529573	-	SACOL2472
SACOL2473	2529566	2530381	-	SACOL2473
SACOL2474	2530378	2531247	-	SACOL2474
SACOL2475	2531244	2532179	-	SACOL2475
SACOL2476	2532192	2533790	-	SACOL2476
SACOL2477	2533933	2535147	-	SACOL2477
SACOL2478	2535227	2536045	-	SACOL2478
SACOL2479	2536056	2536877	-	SACOL2479
SACOL2480	2537025	2537156	-	SACOL2480
SACOL2481	2537620	2537985	-	SACOL2481
SACOL2483	2539299	2540837	+	SACOL2483
SACOL2484	2540949	2541371	-	SACOL2484
SACOL2485	2541823	2542242	-	SACOL2485
SACOL2486	2542260	2542679	-	SACOL2486
SACOL2487	2542946	2543368	-	SACOL2487
SACOL2488	2543619	2544314	-	SACOL2488
SACOL2489	2544762	2544884	+	SACOL2489
SACOL2490	2544865	2545005	+	SACOL2490
SACOL2491	2545144	2545335	-	SACOL2491
SACOL2492	2545770	2545892	+	SACOL2492
SACOL2493	2545896	2546690	-	SACOL2493
SACOL2494	2547226	2547513	-	SACOL2494
SACOL2495	2547516	2547842	-	SACOL2495
SACOL2496	2548054	2549166	-	SACOL2496
SACOL2497	2549163	2549948	-	SACOL2497
SACOL2498	2550060	2550836	-	SACOL2498
SACOL2499	2551139	2554000	-	SACOL2499
SACOL2500	2554002	2554394	-	SACOL2500
SACOL2501	2554511	2556319	+	SACOL2501
SACOL2502	2556603	2556869	+	SACOL2502
SACOL2503	2557013	2557321	+	SACOL2503
SACOL2504	2557643	2558836	-	SACOL2504
SACOL2505	2559220	2562951	-	sasG
SACOL2506	2563256	2563612	-	sarT
SACOL2507	2563936	2564679	+	sarU
SACOL2508	2564890	2565756	-	galU
SACOL2509	2565936	2568758	-	fnbB
SACOL2510	2568919	2569041	-	SACOL2510
SACOL2511	2569440	2572496	-	fnbA
SACOL2513	2572738	2572932	-	SACOL2513
SACOL2514	2572964	2574322	-	gntP
SACOL2515	2574439	2575992	-	gntK
SACOL2516	2576016	2576696	-	gntR
SACOL2517	2576850	2577614	-	SACOL2517
SACOL2518	2577779	2578471	-	SACOL2518
SACOL2519	2578702	2579190	-	SACOL2519
SACOL2520	2579257	2581149	-	SACOL2520
SACOL2521	2581558	2582835	-	SACOL2521
SACOL2522	2583382	2583993	+	SACOL2522
SACOL2523	2584090	2585253	-	SACOL2523
SACOL2524	2585246	2585710	-	SACOL2524
SACOL2525	2586138	2586833	+	SACOL2525
SACOL2527	2587978	2589942	+	SACOL2527
SACOL2528	2590286	2591365	+	SACOL2528
SACOL2529	2591470	2592063	-	SACOL2529
SACOL2530	2592085	2593053	-	SACOL2530
SACOL2531	2593131	2593565	-	SACOL2531
SACOL2532	2593792	2594076	+	SACOL2532
SACOL2533	2594247	2595053	+	SACOL2533
SACOL2534	2595173	2595844	-	frp
SACOL2535	2596114	2597106	+	SACOL2535
SACOL2536	2597355	2598155	-	SACOL2536
SACOL2537	2598476	2599111	+	SACOL2537
SACOL2538	2599117	2599848	+	SACOL2538
SACOL2539	2600008	2600628	-	srtA
SACOL2541	2600822	2601313	+	SACOL2541
SACOL2542	2601751	2601921	-	SACOL2542
SACOL2543	2601983	2602081	-	SACOL2543
SACOL2544	2602100	2602999	-	sdaAA
SACOL2545	2603013	2603693	-	sdaAB
SACOL2546	2603696	2604739	-	SACOL2546
SACOL2547	2605291	2605494	+	SACOL2547
SACOL2548	2605650	2606612	+	SACOL2548
SACOL2549	2606694	2607662	-	SACOL2549
SACOL2550	2607795	2608139	-	SACOL2550
SACOL2551	2608181	2608591	-	SACOL2551
SACOL2552	2608971	2611037	-	SACOL2552
SACOL2553	2611338	2613077	-	SACOL2553
SACOL2554	2613124	2613813	-	SACOL2554
SACOL2554_1	2613806	2614201	-	SACOL2554_1
SACOL2555	2614414	2615298	-	SACOL2555
SACOL2556	2615459	2615677	+	SACOL2556
SACOL2557	2616066	2616497	+	SACOL2557
SACOL2558	2617029	2617163	-	SACOL2558
SACOL2559	2617257	2617514	-	SACOL2559
SACOL2560	2618093	2619370	-	SACOL2560
SACOL2561	2619624	2620790	+	SACOL2561
SACOL2562	2620960	2621481	-	ogt
SACOL2563	2621890	2623995	+	SACOL2563
SACOL2564	2624247	2626241	-	feoB
SACOL2565	2626253	2626480	-	SACOL2565
SACOL2566	2626696	2629185	-	SACOL2566
SACOL2567	2629393	2629878	+	SACOL2567
SACOL2568	2629955	2630122	-	SACOL2568
SACOL2569	2630234	2631778	-	SACOL2569
SACOL2570	2631968	2632567	-	SACOL2570
SACOL2571	2632806	2632997	+	SACOL2571
SACOL2572	2633237	2635645	+	SACOL2572
SACOL2573	2635936	2636142	+	SACOL2573
SACOL2574	2636232	2637230	-	SACOL2574
SACOL2575	2637253	2638407	-	SACOL2575
SACOL2576	2638834	2640342	-	crtN
SACOL2577	2640354	2641217	-	crtM
SACOL2578	2641254	2642390	-	SACOL2578
SACOL2579	2642387	2643880	-	SACOL2579
SACOL2580	2643873	2644361	-	SACOL2580
SACOL2581	2644536	2645303	-	SACOL2581
SACOL2582	2645664	2647475	-	SACOL2582
SACOL2583	2647987	2648475	-	SACOL2583
SACOL2584	2648751	2649452	-	isaA
SACOL2585	2650060	2651115	-	SACOL2585
SACOL2586	2651261	2651464	+	SACOL2586
SACOL2587	2651492	2652094	+	SACOL2587
SACOL2588	2652292	2652792	+	SACOL2588
SACOL2589	2653012	2653242	+	SACOL2589
SACOL2590	2653392	2653769	-	SACOL2590
SACOL2591	2653786	2654607	-	SACOL2591
SACOL2592	2654627	2654926	-	SACOL2592
SACOL2593	2655057	2655614	+	SACOL2593
SACOL2594	2655607	2656311	+	SACOL2594
SACOL2595	2656321	2656428	+	SACOL2595
SACOL2596	2656409	2657419	+	SACOL2596
SACOL2597	2657439	2658269	+	SACOL2597
SACOL2598	2658416	2659306	-	SACOL2598
SACOL2599	2659404	2660723	-	SACOL2599
SACOL2600	2660738	2661844	-	SACOL2600
SACOL2601	2662178	2662474	-	SACOL2601
SACOL2602	2662462	2662830	-	SACOL2602
SACOL2603	2662845	2663123	-	SACOL2603
SACOL2604	2663308	2663433	-	SACOL2604
SACOL2605	2663465	2664274	-	SACOL2605
SACOL2606	2664549	2665613	+	pyrD
SACOL2607	2665768	2666043	+	SACOL2607
SACOL2608	2666229	2666951	-	SACOL2608
SACOL2609	2667305	2667754	+	SACOL2609
SACOL2610	2667835	2668422	-	SACOL2610
SACOL2612	2668555	2670237	+	SACOL2612
SACOL2613	2670366	2670749	-	panD
SACOL2614	2670751	2671602	-	panC
SACOL2615	2671595	2672413	-	panB
SACOL2616	2672486	2673346	+	SACOL2616
SACOL2617	2673432	2674136	-	budA2
SACOL2618	2674414	2675373	-	ldh2
SACOL2619	2676060	2677508	+	SACOL2619
SACOL2620	2677589	2678926	-	SACOL2620
SACOL2621	2679184	2679600	+	SACOL2621
SACOL2622	2679723	2680613	+	fdaB
SACOL2623	2680806	2682302	-	mqo2
SACOL2624	2682987	2684585	-	SACOL2624
SACOL2625	2684779	2685222	-	SACOL2625
SACOL2626	2685503	2685715	-	SACOL2626
SACOL2627	2685993	2687702	-	betA
SACOL2628	2687963	2689453	-	betB
SACOL2629	2689522	2689617	+	SACOL2629
SACOL2630	2689706	2690269	+	SACOL2630
SACOL2631	2690457	2691143	-	SACOL2631
SACOL2632	2691407	2693029	-	cudT
SACOL2633	2693338	2693448	-	SACOL2633
SACOL2634	2693548	2694084	-	nrdG
SACOL2635	2694081	2695931	-	nrdD
SACOL2636	2696178	2697548	-	SACOL2636
SACOL2637	2697870	2697965	-	SACOL2637
SACOL2638	2698041	2698646	-	SACOL2638
SACOL2639	2698709	2700589	-	cysJ
SACOL2640	2700784	2700876	+	SACOL2640
SACOL2641	2700984	2701481	-	gpxA2
SACOL2642	2702176	2702289	-	SACOL2642
SACOL2643	2702905	2704905	-	SACOL2643
SACOL2644	2704902	2705666	-	SACOL2644
SACOL2645	2705765	2706652	-	SACOL2645
SACOL2646	2706663	2707328	-	SACOL2646
SACOL2647	2707354	2707554	-	SACOL2647
SACOL2648	2707752	2709176	+	SACOL2648
SACOL2649	2709236	2709337	-	SACOL2649
SACOL2650	2709459	2709914	-	SACOL2650
SACOL2651	2710159	2710920	-	SACOL2651
SACOL2652	2711036	2713777	-	clfB
SACOL2653	2714127	2714813	-	SACOL2653
SACOL2654	2714930	2715871	-	arcC2
SACOL2655	2715888	2717318	-	arcD
SACOL2656	2717409	2718419	-	arcB2
SACOL2657	2718452	2719687	-	arcA
SACOL2658	2720034	2720483	-	SACOL2658
SACOL2659	2720850	2722379	-	aur
SACOL2660	2722803	2723330	-	isaB
SACOL2661	2723588	2724046	+	SACOL2661
SACOL2662	2724286	2726160	+	SACOL2662
SACOL2663	2726237	2728189	+	SACOL2663
SACOL2664	2728203	2729141	+	manA2
SACOL2665	2729253	2732234	-	SACOL2665
SACOL2666	2732445	2734304	+	SACOL2666
SACOL2667	2734571	2735131	-	SACOL2667
SACOL2668	2735299	2737206	-	sasF
SACOL2669	2737448	2738806	-	SACOL2669
SACOL2670	2738799	2740307	-	SACOL2670
SACOL2671	2740325	2742715	-	SACOL2671
SACOL2672	2742705	2743664	-	SACOL2672
SACOL2673	2743642	2745210	-	SACOL2673
SACOL2674	2745200	2746753	-	SACOL2674
SACOL2675	2746764	2747975	-	SACOL2675
SACOL2676	2748105	2754890	-	sasA
SACOL2677	2755244	2755354	-	SACOL2677
SACOL2678	2755435	2756127	-	SACOL2678
SACOL2679	2756393	2756821	+	SACOL2679
SACOL2680	2756808	2757110	+	SACOL2680
SACOL2681	2757264	2757623	+	SACOL2681
SACOL2682	2757708	2758319	-	SACOL2682
SACOL2683	2758398	2758874	-	SACOL2683
SACOL2684	2758877	2759377	-	SACOL2684
SACOL2685	2759612	2760379	-	cap1C
SACOL2686	2760376	2761068	-	cap1B
SACOL2687	2761085	2761747	-	cap1A
SACOL2688	2762596	2763156	-	icaR
SACOL2689	2763320	2764558	+	icaA
SACOL2690	2764522	2764827	+	icaD
SACOL2691	2764824	2765702	+	icaB
SACOL2693	2767032	2767097	-	SACOL2693
SACOL2694	2767125	2769167	-	geh
SACOL2695	2769888	2770100	-	SACOL2695
SACOL2696	2770260	2770892	-	hisI
SACOL2697	2770889	2771647	-	hisF
SACOL2698	2771644	2772348	-	hisA
SACOL2699	2772341	2772919	-	hisH
SACOL2700	2772916	2773494	-	hisB
SACOL2701	2773463	2774476	-	SACOL2701
SACOL2702	2774492	2775748	-	hisD
SACOL2703	2775735	2776349	-	hisG
SACOL2704	2776367	2777185	-	SACOL2704
SACOL2705	2777490	2778614	-	SACOL2705
SACOL2706	2778732	2779229	-	SACOL2706
SACOL2707	2779276	2780109	-	SACOL2707
SACOL2708	2780106	2781818	-	SACOL2708
SACOL2709	2781871	2782425	-	SACOL2709
SACOL2710	2782454	2783302	-	SACOL2710
SACOL2711	2783682	2784197	+	SACOL2711
SACOL2712	2784346	2785317	-	drp35
SACOL2713	2785561	2786517	+	SACOL2713
SACOL2714	2786669	2787307	+	pcp
SACOL2715	2787426	2788193	-	SACOL2715
SACOL2716	2788183	2788521	-	SACOL2716
SACOL2717	2788688	2789152	+	SACOL2717
SACOL2718	2789390	2790808	+	SACOL2718
SACOL2719	2791221	2792129	-	rarD
SACOL2720	2792354	2792929	+	SACOL2720
SACOL2721	2793058	2794110	+	nixA
SACOL2722	2794353	2795147	+	SACOL2722
SACOL2723	2795281	2795793	-	SACOL2723
SACOL2724	2796076	2796834	+	SACOL2724
SACOL2725	2796824	2798704	+	SACOL2725
SACOL2726	2798797	2798988	+	SACOL2726
SACOL2727	2799000	2799536	+	SACOL2727
SACOL2728	2799596	2800093	-	SACOL2728
SACOL2729	2800172	2800522	+	SACOL2729
SACOL2730	2800551	2800742	+	SACOL2730
SACOL2731	2801135	2801335	+	SACOL2731
SACOL2732	2801462	2802031	-	SACOL2732
SACOL2733	2802291	2802671	-	SACOL2733
SACOL2734	2802754	2803107	-	SACOL2734
SACOL2735	2803561	2804400	-	SACOL2735
SACOL2736	2804443	2805162	-	gidB
SACOL2737	2805162	2807039	-	gidA
SACOL2738	2807106	2808485	-	trmE
SACOL2739	2808624	2808971	-	rnpA
SACOL2740	2809098	2809235	-	rpmH
