SaurJH1_2794	52	144	-	SaurJH1_2794
SaurJH1_2795	301	648	-	SaurJH1_2795
SaurJH1_2796	667	1284	-	SaurJH1_2796
SaurJH1_2797	2400	2594	-	SaurJH1_2797
SaurJH1_2798	2704	3396	+	SaurJH1_2798
SaurJH1_2800	4569	5552	-	SaurJH1_2800
SaurJH1_2801	5605	5721	-	SaurJH1_2801
SaurJH1_2802	5978	6721	+	SaurJH1_2802
SaurJH1_2803	7086	7760	+	SaurJH1_2803
SaurJH1_2805	8058	8462	+	SaurJH1_2805
SaurJH1_2806	8463	9902	+	SaurJH1_2806
SaurJH1_2808	10444	11118	+	SaurJH1_2808
SaurJH1_2809	11228	12688	-	SaurJH1_2809
SaurJH1_2810	12752	14158	-	SaurJH1_2810
SaurJH1_2811	14190	15521	-	SaurJH1_2811
SaurJH1_2812	15722	16354	+	SaurJH1_2812
SaurJH1_2813	16354	16905	+	SaurJH1_2813
SaurJH1_2814	16994	17326	+	SaurJH1_2814
SaurJH1_2815	17499	18164	-	SaurJH1_2815
SaurJH1_2816	18329	18424	+	SaurJH1_2816
SaurJH1_2817	18695	19369	+	SaurJH1_2817
SaurJH1_2818	19499	20113	+	SaurJH1_2818
SaurJH1_2819	20182	21453	+	SaurJH1_2819
SaurJH1_2820	21495	21911	-	SaurJH1_2820
SaurJH1_2821	22112	22927	-	SaurJH1_2821
SaurJH1_2822	22920	24362	-	SaurJH1_2822
SaurJH1_2823	24334	24927	-	SaurJH1_2823
SaurJH1_2824	25191	25571	-	SaurJH1_2824
SaurJH1_2825	25561	26778	-	SaurJH1_2825
SaurJH1_2826	26838	27359	-	SaurJH1_2826
SaurJH1_2827	27424	28269	+	SaurJH1_2827
SaurJH1_2828	28795	29214	-	SaurJH1_2828
SaurJH1_2829	29338	30309	+	SaurJH1_2829
