MW0001	517	1878	+	dnaA
MW0002	2156	3289	+	dnaN
MW0003	3670	3915	+	MW0003
MW0004	3912	5024	+	recF
MW0005	5034	6968	+	gyrB
MW0006	7005	9668	+	gyrA
MW0007	9755	10567	-	MW0007
MW0008	10893	12407	+	hutH
MW0009	12786	14072	+	serS
MW0010	14724	15419	+	MW0010
MW0011	15416	15745	+	MW0011
MW0012	16108	17076	+	MW0012
MW0013	17384	18307	+	MW0013
MW0014	18322	20289	+	MW0014
MW0015	20286	20732	+	rplI
MW0016	20764	22164	+	dnaC
MW0017	22443	23726	+	purA
MW0018	24930	25631	+	vicR
MW0019	25644	27470	+	vicK
MW0020	27463	28797	+	MW0020
MW0021	28798	29586	+	MW0021
MW0022	29975	30775	+	MW0022
MW0023	31003	33321	+	MW0023
MW0024	33689	34168	+	orfX
MW0025	34490	35746	+	MW0025
MW0026	36161	36400	+	MW0026
MW0027	36432	37106	-	MW0027
MW0028	37364	37531	+	MW0028
MW0029	38288	39031	+	MW0029
MW0030	39128	39556	+	MW0030
MW0031	39602	41608	-	mecA
MW0032	41708	42694	+	MW0032
MW0033	42597	42926	+	truncated
MW0034	42917	44440	-	MW0034
MW0035	44576	45082	-	MW0035
MW0036	45097	45408	-	MW0036
MW0037	45495	45845	-	MW0037
MW0038	46367	47995	-	ccrB
MW0039	48017	49366	-	ccrA
MW0040	49600	51387	-	MW0040
MW0041	51387	51677	-	MW0041
MW0042	51816	52865	+	MW0042
MW0043	53483	54973	+	MW0043
MW0044	55346	55660	-	MW0044
MW0045	55597	56601	-	MW0045
MW0046	56854	57225	+	MW0046
MW0047	57354	57974	+	MW0047
MW0048	58513	59769	+	MW0048
MW0049	60241	60870	-	MW0049
MW0050	61038	61148	-	MW0050
MW0051	61524	62249	+	MW0051
MW0052	62816	63004	+	MW0052
MW0053	63145	63618	+	MW0053
MW0054	64169	64924	-	MW0054
MW0055	64924	65184	-	MW0055
MW0056	65321	66388	+	MW0056
MW0057	66419	67753	+	MW0057
MW0058	67772	68965	+	MW0058
MW0059	69632	70618	-	MW0059
MW0060	70927	71130	+	MW0060
MW0061	71179	71475	+	MW0061
MW0062	71547	72767	-	MW0062
MW0063	72760	73311	-	MW0063
MW0064	73424	74284	+	MW0064
MW0065	74639	75172	-	MW0065
MW0066	75272	76006	+	MW0066
MW0067	76431	77042	+	MW0067
MW0068	77309	80461	+	MW0068
MW0069	80518	81000	+	MW0069
MW0070	81205	82191	+	plc
MW0071	82412	83182	+	MW0071
MW0072	83234	84004	+	MW0072
MW0073	84355	85047	+	MW0073
MW0074	85050	86426	+	MW0074
MW0075	86423	86752	+	MW0075
MW0076	86816	87067	+	MW0076
MW0077	87319	89556	+	MW0077
MW0078	89707	90885	+	MW0078
MW0079	90887	92275	+	MW0079
MW0080	92762	94429	-	MW0080
MW0081	94747	96522	-	MW0081
MW0082	96873	97346	+	MW0082
MW0083	97608	99200	+	lctP
MW0084	99529	101007	-	spa
MW0085	101428	102180	-	sarH1
MW0086	102549	103466	-	sirC
MW0087	103544	104539	-	sirB
MW0088	104555	105547	-	sirA
MW0089	105778	106758	+	sbnA
MW0090	106755	107765	+	sbnB
MW0091	107786	109540	+	sbnC
MW0092	109533	110789	+	sbnD
MW0093	110779	112515	+	sbnE
MW0094	112496	114274	+	sbnF
MW0095	114246	115025	+	sbnG
MW0096	115025	116227	+	sbnH
MW0097	116231	116995	+	sbnI
MW0098	117191	117598	+	MW0098
MW0099	117648	118274	+	MW0099
MW0100	118486	119262	+	butA
MW0101	119311	119463	-	MW0101
MW0102	119607	120578	+	MW0102
MW0103	120541	121233	+	MW0103
MW0104	121443	122609	+	MW0104
MW0105	122590	123828	+	MW0105
MW0106	123818	125248	+	MW0106
MW0107	125516	126115	+	sodM
MW0108	126483	127208	+	MW0108
MW0109	127399	128139	-	MW0109
MW0110	128390	129097	+	pnp
MW0111	129104	130456	+	MW0111
MW0112	130537	131199	+	dra
MW0113	131227	132405	+	drm
MW0114	132536	133351	-	MW0114
MW0115	133348	134148	-	MW0115
MW0116	134150	134923	-	MW0116
MW0117	135137	136093	-	MW0117
MW0118	136322	137866	+	MW0118
MW0119	137917	139452	+	MW0119
MW0120	140106	140591	+	MW0120
MW0121	140576	140866	+	MW0121
MW0122	141994	142215	+	MW0122
MW0123	142665	145274	+	adhE
MW0124	145619	146134	+	cap8A
MW0125	146302	146988	+	cap8B
MW0126	146991	147755	+	cap8C
MW0127	147775	149598	+	cap8D
MW0128	149588	150616	+	cap8E
MW0129	150629	151738	+	cap8F
MW0130	151742	152866	+	cap8G
MW0131	152869	153948	+	cap8H
MW0132	153941	155335	+	cap8I
MW0133	155332	155889	+	cap8J
MW0134	155898	157136	+	cap8K
MW0135	157170	158375	+	cap8L
MW0136	158386	158943	+	cap8M
MW0137	158943	159830	+	cap8N
MW0138	159884	161146	+	cap8O
MW0139	161223	162368	+	cap8P
MW0140	162433	162759	-	MW0140
MW0141	162766	163149	-	MW0141
MW0142	163576	165063	+	aldA
MW0143	165709	166668	+	MW0143
MW0144	166963	167166	-	MW0144
MW0145	167344	167856	+	MW0145
MW0146	168198	168938	+	MW0146
MW0147	168952	169926	+	MW0147
MW0148	169923	170684	+	MW0148
MW0149	170697	171728	+	MW0149
MW0150	171945	172304	+	MW0150
MW0151	172379	173503	+	fdh
MW0152	173889	175139	+	MW0152
MW0153	175586	182761	+	MW0153
MW0154	182774	183418	+	MW0154
MW0155	183746	184240	-	MW0155
MW0156	184495	185259	-	MW0156
MW0157	185275	186516	-	argJ
MW0158	186528	187559	-	argC
MW0159	187598	188782	-	MW0159
MW0160	189035	190390	-	MW0160
MW0161	190666	191163	-	MW0161
MW0162	191290	192930	-	MW0162
MW0163	193203	195248	-	glcA
MW0164	195833	196888	+	MW0164
MW0165	196885	197784	+	MW0165
MW0166	197796	199250	+	MW0166
MW0167	199253	200128	+	MW0167
MW0168	200322	200603	-	MW0168
MW0169	200816	203605	+	hsdR
MW0170	203752	204351	-	MW0170
MW0171	204477	205232	+	MW0171
MW0172	205229	205909	+	MW0172
MW0173	205906	206100	+	MW0173
MW0174	206097	207083	+	MW0174
MW0175	207290	207511	+	MW0175
MW0176	207582	209267	+	MW0176
MW0177	209326	209769	+	MW0177
MW0178	209781	210503	+	MW0178
MW0179	210490	210666	+	MW0179
MW0180	210713	210901	-	MW0180
MW0181	211376	212968	-	oppF
MW0182	213066	214403	+	oppB
MW0183	214409	215572	+	MW0183
MW0184	215589	217364	+	rlp
MW0185	217402	219408	+	MW0185
MW0186	219721	220494	-	MW0186
MW0187	220684	221310	-	MW0187
MW0188	221519	222097	+	MW0188
MW0189	222480	223577	+	msmX
MW0190	223590	224861	+	MW0190
MW0191	224864	226132	+	MW0191
MW0192	226134	226973	+	MW0192
MW0193	227044	228123	+	MW0193
MW0194	228148	229188	+	MW0194
MW0195	229243	230211	+	MW0195
MW0196	230572	231066	-	MW0196
MW0197	231299	232678	+	uhpT
MW0198	233037	233795	-	MW0198
MW0199	233788	235344	-	MW0199
MW0200	235341	236309	-	MW0200
MW0201	236897	239146	+	pflB
MW0202	239169	239924	+	pflA
MW0203	239914	240222	+	MW0203
MW0204	240260	242023	+	MW0204
MW0205	242187	242531	-	MW0205
MW0206	242721	244622	+	coa
MW0207	245225	246409	-	MW0207
MW0208	246439	248700	-	MW0208
MW0209	248887	250098	-	MW0209
MW0210	250210	251715	-	MW0210
MW0211	251741	253303	-	MW0211
MW0212	253759	254901	+	MW0212
MW0213	255215	256690	-	MW0213
MW0214	256888	257244	-	MW0214
MW0215	257401	257574	-	MW0215
MW0216	257600	258745	-	MW0216
MW0217	259318	260271	+	lctE
MW0218	260591	262120	-	MW0218
MW0219	262482	263417	+	MW0219
MW0220	263754	265850	+	MW0220
MW0221	265835	266302	+	MW0221
MW0222	266325	266603	+	MW0222
MW0223	266830	268089	+	gatC
MW0224	268107	269162	+	MW0224
MW0225	269164	269310	+	MW0225
MW0226	269334	270377	+	MW0226
MW0227	270905	271621	+	MW0227
MW0228	271614	272639	+	MW0228
MW0229	272661	274355	+	MW0229
MW0230	275381	276550	+	MW0230
MW0231	276826	277542	+	MW0231
MW0232	277535	278560	+	MW0232
MW0233	278582	280270	+	MW0233
MW0234	280303	282024	+	MW0234
MW0235	282168	282842	+	scdA
MW0236	283086	284840	+	lytS
MW0237	284843	285583	+	lytR
MW0238	285702	286139	+	lrgA
MW0239	286132	286833	+	lrgB
MW0240	286941	287645	-	MW0240
MW0241	287794	288585	+	MW0241
MW0242	288601	290037	+	bglA
MW0243	290585	291346	-	MW0243
MW0244	291597	292511	-	rbsK
MW0245	292539	292943	-	rbsD
MW0246	292958	293839	-	MW0246
MW0247	294071	295069	-	MW0247
MW0248	295287	295400	+	MW0248
MW0249	295450	295842	+	MW0249
MW0250	295970	297346	-	MW0250
MW0251	297580	298572	+	MW0251
MW0252	298898	299848	+	lytM
MW0253	299900	300559	-	MW0253
MW0254	300573	301493	-	MW0254
MW0255	301490	302656	-	MW0255
MW0256	302724	304247	-	MW0256
MW0257	304578	305471	-	MW0257
MW0258	305719	306012	+	MW0258
MW0259	306095	309124	+	MW0259
MW0260	309124	309582	+	MW0260
MW0261	309554	309796	+	MW0261
MW0262	309809	311143	+	MW0262
MW0263	311165	315604	+	MW0263
MW0264	315634	316026	+	MW0264
MW0265	316042	316356	+	MW0265
MW0266	316353	317030	+	MW0266
MW0267	317030	317347	+	MW0267
MW0268	317348	319201	+	MW0268
MW0269	319212	319706	+	MW0269
MW0270	319917	320600	+	MW0270
MW0271	320747	321358	+	MW0271
MW0272	321557	322057	+	MW0272
MW0273	322068	322568	+	MW0273
MW0274	322579	323079	+	MW0274
MW0275	323090	323590	+	MW0275
MW0276	323601	324101	+	MW0276
MW0277	324112	324612	+	MW0277
MW0278	324623	325123	+	MW0278
MW0279	325134	325622	+	MW0279
MW0280	326247	326621	+	MW0280
MW0281	326771	327169	+	MW0281
MW0282	327419	328243	-	MW0282
MW0283	328482	329789	-	MW0283
MW0284	330373	331263	+	MW0284
MW0285	331513	332562	+	MW0285
MW0286	332575	333252	+	MW0286
MW0287	333460	334491	+	MW0287
MW0288	334834	335952	+	MW0288
MW0289	335927	336850	+	MW0289
MW0290	336861	338081	+	MW0290
MW0291	338187	339719	-	MW0291
MW0292	339759	340640	-	nanA
MW0293	340798	341658	+	MW0293
MW0294	341935	342735	-	MW0294
MW0295	342876	343544	+	MW0295
MW0296	343675	344988	-	MW0296
MW0297	345406	347478	+	geh
MW0298	347720	348547	-	MW0298
MW0299	348620	349819	-	MW0299
MW0300	350121	351122	+	MW0300
MW0301	351207	351488	+	MW0301
MW0302	351489	352289	+	MW0302
MW0303	352276	353223	+	MW0303
MW0304	353201	354223	+	MW0304
MW0305	354539	355564	+	MW0305
MW0306	355657	357003	-	MW0306
MW0307	357018	357302	-	MW0307
MW0308	357304	357747	-	MW0308
MW0309	357752	359707	-	MW0309
MW0310	359919	360338	+	MW0310
MW0311	360445	361800	+	MW0311
MW0312	361907	362347	+	MW0312
MW0313	362430	363788	-	glpT
MW0314	364100	365026	+	MW0314
MW0315	365040	366101	+	MW0315
MW0316	366115	366681	+	MW0316
MW0317	366741	367736	-	MW0317
MW0318	368041	368586	+	MW0318
MW0319	368853	369707	+	MW0319
MW0320	369818	370933	+	MW0320
MW0321	370911	372626	+	MW0321
MW0322	372718	373419	-	MW0322
MW0323	373436	373651	-	MW0323
MW0324	373759	374148	-	MW0324
MW0325	374388	374591	+	MW0325
MW0326	374588	375301	+	MW0326
MW0327	375326	376168	+	MW0327
MW0328	376168	376797	+	MW0328
MW0329	377187	378320	-	MW0329
MW0330	378859	380040	+	MW0330
MW0331	380123	380875	-	MW0331
MW0332	380918	383146	-	metE
MW0333	383143	384984	-	MW0333
MW0334	384953	386113	-	MW0334
MW0335	386110	387213	-	MW0335
MW0336	387886	388722	+	MW0336
MW0337	388879	389760	+	MW0337
MW0338	389790	389993	+	MW0338
MW0339	390005	391102	+	MW0339
MW0340	391188	391379	-	MW0340
MW0341	391623	391919	+	rpsF
MW0342	391940	392443	+	ssb
MW0343	392495	392737	+	rpsR
MW0344	393003	393977	-	MW0344
MW0345	394900	395511	+	MW0345
MW0346	395880	396281	+	MW0346
MW0347	396429	397001	+	MW0347
MW0348	397139	397402	-	MW0348
MW0349	397696	397947	+	MW0349
MW0350	397986	398195	-	MW0350
MW0351	398373	398954	+	MW0351
MW0352	399020	399403	-	MW0352
MW0353	399491	399589	+	MW0353
MW0354	399658	400284	-	MW0354
MW0355	400357	401967	-	MW0355
MW0356	402082	403605	-	ahpF
MW0357	403621	404190	-	ahpC
MW0358	404682	405437	+	MW0358
MW0359	405518	406906	-	MW0359
MW0360	406991	407089	+	MW0360
MW0361	408080	409036	-	MW0361
MW0362	409154	409816	-	MW0362
MW0363	409959	410366	-	MW0363
MW0364	410879	411457	+	xprT
MW0365	411457	412725	+	pbuX
MW0366	412763	414229	+	guaB
MW0367	414254	415795	+	guaA
MW0368	416307	417413	+	MW0368
MW0369	417866	418042	+	MW0369
MW0370	418039	418431	-	MW0370
MW0372	418453	418932	-	MW0372
MW0371	418835	418987	+	MW0371
MW0373	419858	420190	+	MW0373
MW0374	421295	423121	+	MW0374
MW0375	423659	424081	-	MW0375
MW0376	424935	425087	-	MW0376
MW0377	425450	425857	+	MW0377
MW0378	425904	426386	+	MW0378
MW0379	426586	427275	+	MW0379
MW0380	427534	427893	-	MW0380
MW0381	427912	428757	-	MW0381
MW0382	429229	429909	+	set16
MW0383	430195	430890	+	set17
MW0384	431181	432251	+	set18
MW0385	432616	433563	+	set19
MW0386	433927	434631	+	set20
MW0387	435077	435775	+	set21
MW0388	436197	436892	+	set22
MW0389	437231	437929	+	set23
MW0390	438308	439006	+	set24
MW0391	439365	440048	+	set25
MW0392	440310	441866	+	hsdM
MW0393	441859	443118	+	hsdS
MW0394	443524	444216	+	set26
MW0395	444238	445740	+	MW0395
MW0396	445847	446155	-	MW0396
MW0397	446491	447303	+	lpl10
MW0398	447351	448121	+	lpl11
MW0399	448153	448944	+	lpl12
MW0400	448996	449793	+	lpl13
MW0401	450050	450787	+	lpl14
MW0402	450777	452102	+	MW0402
MW0403	452099	452422	+	MW0403
MW0404	452441	452755	+	MW0404
MW0405	453039	453233	-	MW0405
MW0406	453431	454633	+	MW0406
MW0407	456218	457702	+	ndhF
MW0408	457715	460420	+	MW0408
MW0409	460582	460944	+	MW0409
MW0410	461627	462301	+	MW0410
MW0411	462338	463072	+	MW0411
MW0412	463250	463363	+	MW0412
MW0413	463525	464865	+	MW0413
MW0414	465082	465987	+	cysM
MW0415	465980	467122	+	metB
MW0416	467419	468444	+	MW0416
MW0417	468448	469107	+	MW0417
MW0418	469144	469986	+	MW0418
MW0419	470318	471322	+	MW0419
MW0420	471507	471776	-	MW0420
MW0421	471925	472320	+	MW0421
MW0422	472310	472795	+	MW0422
MW0423	472964	473746	-	MW0423
MW0424	473743	474855	-	MW0424
MW0425	474976	475860	-	gltC
MW0426	476042	480541	+	gltB
MW0427	480559	482022	+	gltD
MW0428	482853	484280	+	treP
MW0429	484344	485984	+	MW0429
MW0430	486009	486737	+	MW0430
MW0431	487177	487242	+	MW0431
MW0432	487380	487904	+	MW0432
MW0433	487973	489670	+	dnaX
MW0434	489760	490077	+	MW0434
MW0435	490084	490680	+	recR
MW0436	497404	498741	+	MW0436
MW0437	498743	499360	+	tmk
MW0438	499388	499717	+	MW0438
MW0439	499931	500857	+	holB
MW0440	500858	501661	+	MW0440
MW0441	501678	502025	+	MW0441
MW0442	502299	503024	+	MW0442
MW0443	503017	503265	+	MW0443
MW0444	503267	504106	+	MW0444
MW0445	504391	506364	+	metS
MW0446	506395	507168	+	MW0446
MW0447	507335	507871	+	MW0447
MW0448	507882	508775	+	ksgA
MW0449	508875	509138	+	veg
MW0450	509448	510296	+	MW0450
MW0451	510310	511134	+	purR
MW0452	511151	511531	+	MW0452
MW0453	511603	511905	+	spoVG
MW0454	512249	513601	+	gcaD
MW0455	513748	514713	+	prs
MW0456	514863	515516	+	rplY
MW0457	515827	516399	+	pth
MW0458	516399	519905	+	mfd
MW0459	519895	521421	+	MW0459
MW0460	521421	522614	+	MW0460
MW0461	522611	522874	+	MW0461
MW0462	522892	523284	+	MW0462
MW0463	523389	523790	+	MW0463
MW0464	523970	525265	+	MW0464
MW0465	525270	525809	+	MW0465
MW0466	526066	528159	+	ftsH
MW0467	528388	529269	+	MW0467
MW0468	529448	530380	+	cysK
MW0469	530596	531399	+	folP
MW0470	531377	531742	+	folB
MW0471	531739	532215	+	folK
MW0472	532754	534241	+	lysS
MW0473	546677	548059	-	MW0473
MW0474	548163	549050	+	MW0474
MW0475	549054	549614	+	MW0475
MW0476	549820	551034	-	nupC
MW0477	551192	551653	+	ctsR
MW0478	551672	552238	+	MW0478
MW0479	552228	553235	+	MW0479
MW0480	553249	555705	+	clpC
MW0481	556189	557553	+	radA
MW0482	557578	558651	+	MW0482
MW0483	559208	560662	+	gltX
MW0484	561091	561732	+	cysE
MW0485	561716	563116	+	cysS
MW0486	563109	563513	+	MW0486
MW0487	563521	564267	+	MW0487
MW0488	564267	564791	+	MW0488
MW0489	564872	565441	+	MW0489
MW0490	565755	565937	+	secE
MW0491	565950	566498	+	nusG
MW0492	566679	567101	+	rplK
MW0493	567309	568001	+	rplA
MW0494	568273	568773	+	rplJ
MW0495	568816	569184	+	rplL
MW0496	569359	569967	+	MW0496
MW0497	570182	573733	+	rpoB
MW0498	573870	577493	+	rpoC
MW0499	577630	577884	+	MW0499
MW0500	577982	578395	+	rpsL
MW0501	578461	578931	+	rpsG
MW0502	579054	581135	+	fus
MW0503	581352	582536	+	tufA
MW0504	582818	583993	-	MW0504
MW0505	584164	585351	+	MW0505
MW0506	585618	586496	+	MW0506
MW0507	586655	588292	+	araB
MW0508	588506	589471	+	MW0508
MW0509	589806	590882	+	ilvE
MW0510	591133	591816	+	MW0510
MW0511	591932	592594	-	MW0511
MW0512	592587	593204	-	MW0512
MW0513	593271	593741	+	MW0513
MW0514	593888	594757	+	MW0514
MW0515	594778	595344	+	MW0515
MW0516	595775	598642	+	sdrC
MW0517	599009	603052	+	sdrD
MW0518	603446	606871	+	sdrE
MW0519	606990	608462	+	MW0519
MW0520	608586	610076	-	MW0520
MW0521	610358	611236	-	MW0521
MW0522	611249	611914	-	MW0522
MW0523	611928	612287	-	MW0523
MW0524	612566	613324	+	nagB
MW0525	613401	614033	+	MW0525
MW0526	614035	614583	+	MW0526
MW0527	614696	615343	+	MW0527
MW0528	615845	617245	+	proP
MW0529	617580	617789	+	MW0529
MW0530	617789	619165	+	vraA
MW0531	619167	620306	+	vraB
MW0532	620281	620646	+	vraC
MW0533	620649	620918	+	MW0533
MW0534	621119	621286	-	MW0534
MW0535	621793	622623	-	MW0535
MW0536	622807	623463	+	ung
MW0537	623464	623844	+	MW0537
MW0538	623977	624345	+	MW0538
MW0539	624466	625950	+	MW0539
MW0540	626091	626543	-	MW0540
MW0541	626556	627206	-	MW0541
MW0542	627869	628621	-	MW0542
MW0543	628789	629775	+	pta
MW0544	629850	630614	+	MW0544
MW0545	631201	632121	+	mvaK1
MW0546	632126	633109	+	mvaD
MW0547	633122	634198	+	mvaK2
MW0548	634375	634716	+	MW0548
MW0549	634768	636090	-	MW0549
MW0550	636077	636517	-	MW0550
MW0551	637142	638551	+	MW0551
MW0552	638555	639181	+	MW0552
MW0553	639317	639949	+	MW0553
MW0554	640037	640654	+	MW0554
MW0555	640729	641358	+	MW0555
MW0556	641554	642174	+	MW0556
MW0557	642305	642946	+	MW0557
MW0558	642993	643622	+	MW0558
MW0559	644075	644704	+	MW0559
MW0560	644828	645469	+	MW0560
MW0561	645578	646141	+	MW0561
MW0562	646376	647002	+	MW0562
MW0563	647272	648210	+	MW0563
MW0564	648421	648957	+	MW0564
MW0565	649126	649602	+	MW0565
MW0566	649642	650937	+	MW0566
MW0567	650980	651486	+	MW0567
MW0568	651985	652995	+	adh1
MW0569	653072	653179	+	MW0569
MW0570	653272	653688	+	MW0570
MW0571	653685	655346	+	argS
MW0572	655737	656372	+	MW0572
MW0573	656683	657570	+	MW0573
MW0574	657719	658669	+	MW0574
MW0575	658724	659443	+	MW0575
MW0576	659427	660227	+	MW0576
MW0577	660363	660869	+	MW0577
MW0578	661031	661747	+	MW0578
MW0579	661916	662704	+	MW0579
MW0580	662954	663328	-	sarA
MW0581	664276	665169	-	MW0581
MW0582	665400	665624	-	MW0582
MW0583	665641	665844	-	MW0583
MW0584	666003	666563	+	MW0584
MW0585	666582	668984	+	MW0585
MW0586	668971	669396	+	MW0586
MW0587	669393	669737	+	MW0587
MW0588	669727	671223	+	MW0588
MW0589	671224	671706	+	MW0589
MW0590	671703	672005	+	MW0590
MW0591	671980	672417	+	MW0591
MW0592	672757	674799	+	MW0592
MW0593	676093	677022	-	MW0593
MW0594	677019	677855	-	MW0594
MW0595	677849	678592	-	MW0595
MW0596	678714	679358	+	MW0596
MW0597	679438	680190	-	MW0597
MW0598	680426	681190	+	tagA
MW0599	681251	682045	-	tagH
MW0600	682371	683204	+	tagG
MW0601	683303	684406	+	tagB
MW0602	684403	685464	+	tagX
MW0603	685527	685925	+	tagD
MW0604	686042	687337	-	pbp4
MW0605	687758	689485	+	MW0605
MW0606	689554	689634	+	MW0606
MW0607	689842	691071	+	MW0607
MW0608	691596	692429	+	MW0608
MW0609	692712	693509	+	fhuC
MW0610	693545	694549	+	fhuB
MW0611	694546	695562	+	fhuG
MW0612	695799	696764	+	MW0612
MW0613	696806	697390	+	MW0613
MW0614	697383	697745	+	MW0614
MW0615	697861	698358	+	MW0615
MW0616	698815	699882	+	MW0616
MW0617	700033	701076	+	MW0617
MW0618	701405	701833	+	MW0618
MW0619	702042	702548	-	MW0619
MW0620	702661	703584	+	MW0620
MW0621	703600	704274	+	MW0621
MW0622	704267	705307	+	MW0622
MW0623	705451	706212	+	vraF
MW0624	706202	708091	+	vraG
MW0625	708816	709433	+	MW0625
MW0626	709449	710456	+	MW0626
MW0627	711044	711841	-	MW0627
MW0628	712202	712846	+	MW0628
MW0629	713543	715693	+	MW0629
MW0630	715773	716198	+	MW0630
MW0631	716388	717104	+	MW0631
MW0632	717104	717577	+	MW0632
MW0633	717930	718574	+	MW0633
MW0634	718690	719556	+	MW0634
MW0635	719971	721185	+	MW0635
MW0636	721182	721670	+	MW0636
MW0637	721769	722458	-	MW0637
MW0638	722585	723028	+	MW0638
MW0639	723095	723490	+	MW0639
MW0640	723628	723927	+	MW0640
MW0641	724007	724549	+	MW0641
MW0642	724645	725211	-	MW0642
MW0643	725213	725671	-	MW0643
MW0644	725674	726357	-	MW0644
MW0645	726529	727404	-	bacA
MW0646	727623	729254	+	MW0646
MW0647	729251	730924	+	MW0647
MW0648	731051	731494	-	MW0648
MW0649	731721	732647	+	MW0649
MW0650	732750	733658	+	MW0650
MW0651	733693	733980	+	MW0651
MW0652	734263	735816	+	MW0652
MW0653	735902	737275	+	MW0653
MW0654	737430	737714	-	MW0654
MW0655	737711	738331	-	MW0655
MW0656	738514	738936	-	MW0656
MW0657	739145	740311	+	norA
MW0658	740604	741056	+	MW0658
MW0659	741229	741711	+	MW0659
MW0660	741964	742725	+	MW0660
MW0661	742722	743642	+	fruB
MW0662	743648	745606	+	fruA
MW0663	745914	747095	+	nagA
MW0664	747316	748665	+	MW0664
MW0665	748887	749726	+	MW0665
MW0666	749858	750841	+	MW0666
MW0667	750913	751968	-	saeS
MW0668	751968	752654	-	saeR
MW0669	752629	752811	-	MW0669
MW0670	753445	753885	-	MW0670
MW0671	754165	754749	-	MW0671
MW0672	754848	755561	-	MW0672
MW0673	755565	755984	-	MW0673
MW0674	755986	756654	-	MW0674
MW0675	757005	757598	+	MW0675
MW0676	757582	758733	+	MW0676
MW0677	758733	759341	+	MW0677
MW0678	759407	759613	+	MW0678
MW0679	759701	760411	+	MW0679
MW0680	760395	761399	+	MW0680
MW0681	761873	763813	+	MW0681
MW0682	764090	765967	+	MW0682
MW0683	765979	767760	+	recQ
MW0684	767982	768959	+	MW0684
MW0685	768952	770466	+	MW0685
MW0686	770706	771764	+	MW0686
MW0687	772059	772601	+	MW0687
MW0688	773282	774199	-	MW0688
MW0689	774468	775973	-	MW0689
MW0690	776314	776814	-	MW0690
MW0691	776834	777700	-	MW0691
MW0692	778501	778899	+	nrdI
MW0693	778862	780967	+	nrdE
MW0694	781085	782056	+	nrdF
MW0695	782764	783735	+	MW0695
MW0696	783722	784678	+	MW0696
MW0697	784675	785436	+	MW0697
MW0698	785555	786583	+	MW0698
MW0699	786900	787214	-	MW0699
MW0700	787232	788155	-	MW0700
MW0701	788282	788800	-	MW0701
MW0702	788920	789798	+	MW0702
MW0703	789952	790272	+	MW0703
MW0704	790697	791821	+	MW0704
MW0705	792003	793229	-	pepT
MW0706	793243	793737	-	MW0706
MW0707	793755	794516	-	MW0707
MW0708	794712	795782	-	MW0708
MW0709	796100	797155	+	llm
MW0710	797327	797968	-	MW0710
MW0711	798112	798978	+	MW0711
MW0712	799486	800424	+	MW0712
MW0713	800417	801091	+	MW0713
MW0714	801152	801724	+	MW0714
MW0715	802138	804669	+	secA
MW0716	805219	806094	+	prfB
MW0717	806503	807342	+	MW0717
MW0718	807516	808166	+	MW0718
MW0719	808163	808399	+	MW0719
MW0720	808662	810653	+	uvrB
MW0721	810661	813507	+	uvrA
MW0722	814114	815046	+	hprK
MW0723	815052	815891	+	lgt
MW0724	815899	816384	+	MW0724
MW0725	816392	817831	+	MW0725
MW0726	817898	818833	+	trxB
MW0727	819598	820509	+	MW0727
MW0728	820506	821501	+	MW0728
MW0729	821612	822556	+	MW0729
MW0730	823129	823716	+	clpP
MW0731	823959	824861	-	MW0731
MW0732	825564	826193	+	MW0732
MW0733	826835	827848	+	gapR
MW0734	827901	828911	+	gap
MW0735	829050	830240	+	pgk
MW0736	830362	831123	+	tpi
MW0737	831126	832643	+	pgm
MW0738	832773	834077	+	eno
MW0739	834416	834874	+	MW0739
MW0740	834941	835174	+	secG
MW0741	835290	836030	+	MW0741
MW0742	836064	838436	+	rnr
MW0743	838458	838922	+	ssrP
MW0744	839478	839693	-	MW0744
MW0745	839705	840820	-	int
MW0746	840826	841563	-	MW0746
MW0747	841715	841933	+	MW0747
MW0748	841945	842091	+	MW0748
MW0749	842084	842308	+	MW0749
MW0750	842309	842608	+	MW0750
MW0751	842700	845072	+	MW0751
MW0752	845745	846089	+	MW0752
MW0753	846314	846520	+	MW0753
MW0754	846507	847565	+	MW0754
MW0755	847747	848238	+	MW0755
MW0756	848599	849576	+	MW0756
MW0757	849592	850152	+	MW0757
MW0758	850452	851006	-	ear
MW0759	851795	852595	+	sec4
MW0760	852762	853484	-	sel2
MW0761	854223	854951	-	MW0761
MW0762	855549	856070	+	MW0762
MW0763	856209	856739	+	MW0763
MW0764	857002	859842	+	clfA
MW0765	860063	860539	+	MW0765
MW0766	860591	861589	+	MW0766
MW0767	861940	862962	+	ssp
MW0768	863297	863818	+	MW0768
MW0769	864159	864845	+	MW0769
MW0770	865202	865402	+	cspC
MW0771	865898	866116	-	MW0771
MW0772	866178	866462	-	MW0772
MW0773	866550	867119	-	MW0773
MW0774	867307	867495	-	MW0774
MW0775	867524	867784	-	MW0775
MW0776	868124	868327	+	MW0776
MW0777	868324	868560	-	MW0777
MW0778	868784	869365	+	MW0778
MW0779	869438	870055	-	MW0779
MW0780	870210	870704	-	MW0780
MW0781	871103	871525	-	MW0781
MW0782	871673	872389	+	MW0782
MW0783	872472	873011	+	MW0783
MW0784	873161	873481	-	MW0784
MW0785	873625	873981	+	MW0785
MW0786	874139	874519	+	MW0786
MW0787	874698	875576	+	truncated-SA
MW0788	876317	876703	+	MW0788
MW0789	876696	876992	+	MW0789
MW0790	877242	878267	+	MW0790
MW0791	878260	878955	+	MW0791
MW0792	878973	879794	+	MW0792
MW0793	880148	880342	+	MW0793
MW0794	880575	881426	-	MW0794
MW0795	881754	882515	+	MW0795
MW0796	882613	883920	+	MW0796
MW0797	884035	885276	+	MW0797
MW0798	885266	885730	+	MW0798
MW0799	885881	887278	+	MW0799
MW0800	887465	887602	+	MW0800
MW0801	887608	887922	-	MW0801
MW0802	888287	889327	+	MW0802
MW0803	889341	890408	+	MW0803
MW0804	890584	891432	+	MW0804
MW0805	891445	892272	+	MW0805
MW0806	892299	893618	+	MW0806
MW0807	893702	894619	+	lipA
MW0808	894749	895132	+	MW0808
MW0809	895211	895477	-	MW0809
MW0810	895575	896009	+	MW0810
MW0811	896009	896788	+	MW0811
MW0812	896821	897780	+	MW0812
MW0813	898192	898344	+	MW0813
MW0814	898360	899817	+	dltA
MW0815	899814	901028	+	dltB
MW0816	901046	901282	+	dltC
MW0817	901279	902454	+	dltD
MW0818	902717	902959	-	MW0818
MW0819	903060	903383	+	MW0819
MW0820	903442	904506	-	MW0820
MW0821	904823	905059	+	MW0821
MW0822	905072	905431	+	MW0822
MW0823	905885	907093	+	MW0823
MW0824	907224	908699	+	ampA
MW0825	909110	910426	+	MW0825
MW0826	910445	910819	+	MW0826
MW0827	910875	912029	-	MW0827
MW0828	912278	912634	-	mnhG
MW0829	912612	912905	-	mnhF
MW0830	912905	913384	-	mnhE
MW0831	913386	914882	-	mnhD
MW0832	914875	915216	-	mnhC
MW0833	915216	915644	-	mnhB
MW0834	915637	918042	-	mnhA
MW0835	918173	918556	-	MW0835
MW0836	918620	919213	+	MW0836
MW0837	919628	920005	+	MW0837
MW0838	920367	921494	+	MW0838
MW0839	921802	922992	+	rocD
MW0840	923101	924345	+	gudB
MW0841	924735	925664	-	glpQ
MW0842	925906	927285	-	argH
MW0843	927275	928480	-	argG
MW0844	928831	930162	+	pgi
MW0845	930487	931062	+	MW0845
MW0846	931067	931591	+	spsA
MW0847	931607	932182	+	spsB
MW0848	932342	935818	+	MW0848
MW0849	935819	939472	+	MW0849
MW0850	939638	940540	+	MW0850
MW0851	940869	941258	+	MW0851
MW0852	941430	942746	-	cdr
MW0853	942798	943622	-	MW0853
MW0854	943736	944044	+	MW0854
MW0855	944041	944133	-	MW0855
MW0856	944592	946406	+	MW0856
MW0857	946609	949218	+	clpB
MW0858	949277	950146	-	MW0858
MW0859	950256	951401	+	MW0859
MW0860	951385	952026	+	MW0860
MW0861	952019	953137	+	MW0861
MW0862	953121	953636	+	MW0862
MW0863	953947	954381	+	MW0863
MW0864	954638	954823	-	MW0864
MW0865	955118	956059	+	FabH
MW0866	956071	957315	+	fab
MW0867	957370	957741	-	MW0867
MW0868	957984	958910	+	oppB
MW0869	958910	959980	+	MW0869
MW0870	959996	961078	+	oppD
MW0871	961068	962009	+	oppF
MW0872	962028	963683	+	MW0872
MW0873	963895	965610	+	MW0873
MW0874	965661	966647	+	MW0874
MW0875	966650	967630	+	appF
MW0876	967623	968585	+	oppB
MW0877	968597	969478	+	MW0877
MW0878	969520	970509	-	trpS
MW0879	970804	971199	+	MW0879
MW0880	971570	972289	+	MW0880
MW0881	972410	973396	+	MW0881
MW0882	973444	975252	+	MW0882
MW0883	975712	976518	-	MW0883
MW0884	976541	976906	-	MW0884
MW0885	977010	977603	-	MW0885
MW0886	977789	978136	+	MW0886
MW0887	978153	978788	+	MW0887
MW0888	978805	979614	+	MW0888
MW0889	979611	980465	+	MW0889
MW0890	980486	981871	+	MW0890
MW0891	981881	983725	+	MW0891
MW0892	984003	984773	+	fabI
MW0893	984968	986053	-	MW0893
MW0894	986395	987963	+	MW0894
MW0895	988108	988866	+	MW0895
MW0896	989060	989569	+	MW0896
MW0897	989682	990872	-	MW0897
MW0898	990850	992025	-	MW0898
MW0899	992458	993942	+	murE
MW0900	993932	994183	+	MW0900
MW0901	994183	995745	+	prfC
MW0902	996047	996850	+	MW0902
MW0903	997084	999393	+	htrA
MW0904	999410	1000768	+	MW0904
MW0905	1000904	1002418	+	MW0905
MW0906	1002905	1003474	-	MW0906
MW0907	1003684	1003902	+	MW0907
MW0908	1003983	1004969	-	MW0908
MW0909	1005168	1005344	+	MW0909
MW0910	1005359	1005961	+	MW0910
MW0911	1006172	1006279	+	MW0911
MW0912	1006929	1007201	+	MW0912
MW0913	1007245	1007613	+	MW0913
MW0914	1007727	1009208	+	MW0914
MW0915	1009211	1009531	+	MW0915
MW0916	1009528	1010169	+	MW0916
MW0917	1010257	1010502	-	MW0917
MW0918	1010888	1011175	+	MW0918
MW0919	1011181	1012662	+	MW0919
MW0920	1012751	1013107	-	MW0920
MW0921	1013595	1014554	+	MW0921
MW0922	1014600	1014716	-	MW0922
MW0923	1014795	1015010	-	MW0923
MW0924	1015244	1015726	+	MW0924
MW0925	1015777	1016715	-	MW0925
MW0926	1016897	1018258	+	MW0926
MW0927	1018245	1019918	+	menD
MW0928	1019905	1020708	+	MW0928
MW0929	1020701	1021522	+	menB
MW0930	1021760	1022089	-	sspC
MW0931	1022127	1023308	-	sspB
MW0932	1023390	1024373	-	sspA
MW0933	1024901	1026055	-	MW0933
MW0934	1026251	1027261	-	MW0934
MW0935	1027414	1027833	+	MW0935
MW0936	1028040	1031810	-	atl
MW0937	1032038	1032472	-	MW0937
MW0938	1032627	1033097	-	MW0938
MW0939	1033145	1034362	-	MW0939
MW0940	1034813	1036006	+	fmt
MW0941	1036543	1036833	-	MW0941
MW0942	1036830	1037435	-	qoxC
MW0943	1037425	1039413	-	qoxB
MW0944	1039413	1040513	-	MW0944
MW0945	1041085	1041402	-	MW0945
MW0946	1042185	1043045	-	folD
MW0947	1043246	1043728	+	MW0947
MW0948	1043715	1044839	+	purK
MW0949	1044843	1045547	+	purC
MW0950	1045547	1045810	+	MW0950
MW0951	1045812	1046483	+	purQ
MW0952	1046476	1048665	+	purL
MW0953	1048644	1050128	+	purF
MW0954	1050121	1051149	+	purM
MW0955	1051152	1051718	+	purN
MW0956	1051730	1053211	+	purH
MW0957	1053233	1054480	+	purD
MW0958	1054745	1055551	-	MW0958
MW0959	1055544	1056944	-	MW0959
MW0960	1056959	1057534	-	MW0960
MW0961	1058055	1058189	-	MW0961
MW0962	1058341	1059636	+	MW0962
MW0963	1060061	1061233	+	MW0963
MW0964	1061287	1061829	+	MW0964
MW0965	1061983	1062249	+	ptsH
MW0966	1062252	1063970	+	ptsI
MW0967	1064207	1064440	-	MW0967
MW0968	1064638	1065999	+	MW0968
MW0969	1065996	1067015	+	MW0969
MW0970	1067148	1067810	+	MW0970
MW0971	1067828	1067983	+	MW0971
MW0972	1068159	1069856	-	MW0972
MW0973	1069856	1070074	-	MW0973
MW0974	1070556	1071107	-	pdf1
MW0975	1071472	1072098	+	MW0975
MW0976	1072269	1073381	+	MW0976
MW0977	1073385	1074362	+	phdB
MW0978	1074453	1075745	+	pdhC
MW0979	1075749	1077155	+	pdhD
MW0980	1077323	1077598	+	MW0980
MW0981	1077742	1078281	+	MW0981
MW0982	1078294	1079388	+	potA
MW0983	1079381	1080178	+	potB
MW0984	1080184	1080993	+	potC
MW0985	1080993	1082066	+	potD
MW0986	1082140	1083159	+	MW0986
MW0987	1083442	1083861	+	MW0987
MW0988	1083943	1085295	-	MW0988
MW0989	1085479	1086093	-	MW0989
MW0990	1086250	1087077	+	MW0990
MW0991	1087231	1087422	-	MW0991
MW0992	1087524	1089371	+	MW0992
MW0993	1089511	1089678	-	MW0993
MW0994	1089680	1090162	-	MW0994
MW0995	1090303	1090578	+	MW0995
MW0996	1090892	1092118	+	MW0996
MW0997	1092672	1096124	+	pycA
MW0998	1096264	1097175	-	MW0998
MW0999	1097615	1098526	+	ctaB
MW1000	1098551	1099012	+	MW1000
MW1001	1099339	1100376	+	MW1001
MW1002	1100392	1100826	+	MW1002
MW1003	1100889	1101815	-	MW1003
MW1004	1102054	1102308	+	MW1004
MW1005	1102311	1102700	-	MW1005
MW1006	1102770	1103312	+	MW1006
MW1007	1103314	1103796	+	MW1007
MW1008	1103858	1104997	-	MW1008
MW1009	1105124	1105681	+	MW1009
MW1010	1105761	1105934	+	rpmF
MW1011	1106088	1108025	-	isdB
MW1012	1108228	1109280	-	isdA
MW1013	1109489	1110172	+	isdC
MW1014	1110172	1111248	+	isdD
MW1015	1111245	1112123	+	isdE
MW1016	1112136	1113101	+	isdF
MW1017	1113163	1113897	+	srtB
MW1018	1113916	1114239	+	isdG
MW1019	1114276	1114383	+	MW1019
MW1020	1114623	1115363	+	MW1020
MW1021	1115744	1116802	+	pheS
MW1022	1116802	1119204	+	pheT
MW1023	1119439	1120377	-	MW1023
MW1024	1120747	1121013	+	MW1024
MW1025	1121014	1121535	+	MW1025
MW1026	1121608	1123320	+	MW1026
MW1027	1123330	1125678	+	mutS2
MW1028	1125851	1126165	+	trxA
MW1029	1126489	1128270	+	uvrC
MW1030	1128594	1129208	+	sdhC
MW1031	1129260	1131026	+	sdhA
MW1032	1131026	1131841	+	sdhB
MW1033	1132077	1132877	+	murI
MW1034	1132889	1133476	+	MW1034
MW1035	1133469	1133972	+	MW1035
MW1036	1134130	1134267	+	MW1036
MW1037	1134461	1134778	+	MW1037
MW1038	1135148	1135546	-	MW1038
MW1039	1136217	1136723	+	MW1039
MW1040	1136982	1137479	+	MW1040
MW1041	1137633	1137983	+	MW1041
MW1042	1138748	1138933	-	MW1042
MW1043	1139552	1139785	-	MW1043
MW1044	1140262	1141221	-	MW1044
MW1045	1141894	1142040	+	MW1045
MW1046	1142024	1142221	+	MW1046
MW1047	1142778	1143494	-	MW1047
MW1048	1143602	1144327	-	MW1048
MW1049	1144422	1145147	-	MW1049
MW1050	1145585	1146586	+	argF
MW1051	1146609	1147541	+	MW1051
MW1052	1147713	1149269	+	MW1052
MW1053	1149576	1149803	+	MW1053
MW1054	1150109	1151056	-	MW1054
MW1055	1151305	1151493	+	MW1055
MW1056	1152405	1152539	+	MW1056
MW1057	1152596	1152730	+	MW1057
MW1058	1152863	1153549	+	MW1058
MW1059	1153658	1154098	-	MW1059
MW1060	1154293	1155906	+	MW1060
MW1061	1156050	1156481	+	MW1061
MW1062	1156497	1157432	+	MW1062
MW1063	1157446	1157847	+	ftsL
MW1064	1157828	1160062	+	pbpA
MW1065	1160354	1161319	+	mraY
MW1066	1161321	1162670	+	murD
MW1067	1162686	1164005	+	div1b
MW1068	1164111	1165523	+	ftsA
MW1069	1165556	1166728	+	ftsZ
MW1070	1166988	1167779	+	MW1070
MW1071	1167797	1168471	+	MW1071
MW1072	1168468	1169031	+	MW1072
MW1073	1169043	1169333	+	MW1073
MW1074	1169416	1170222	+	MW1074
MW1075	1170246	1170863	+	MW1075
MW1076	1171084	1173837	+	ileS
MW1077	1174127	1174924	+	MW1077
MW1078	1175411	1175596	+	truncated
MW1079	1175777	1176268	+	lsp
MW1080	1176268	1177185	+	MW1080
MW1081	1177585	1178112	+	pyrR
MW1082	1178330	1179637	+	pyrP
MW1083	1179665	1180546	+	pyrB
MW1084	1180564	1181838	+	pyrC
MW1085	1181840	1182940	+	pyrAA
MW1086	1182933	1186106	+	pyrAB
MW1087	1186216	1186908	+	pyrF
MW1088	1186908	1187519	+	pyrE
MW1089	1187549	1187761	+	MW1089
MW1090	1188198	1188599	+	MW1090
MW1091	1188862	1190559	-	MW1091
MW1092	1190834	1191457	+	gmk
MW1093	1191457	1191675	+	MW1093
MW1094	1191891	1193090	+	MW1094
MW1095	1193090	1195498	+	priA
MW1096	1196001	1196954	+	MW1096
MW1097	1197117	1197395	-	MW1097
MW1098	1197619	1198107	+	MW1098
MW1099	1198100	1199035	+	MW1099
MW1100	1199032	1200339	+	MW1100
MW1101	1200342	1201436	+	MW1101
MW1102	1201443	1202186	+	MW1102
MW1103	1202183	1204177	+	MW1103
MW1104	1204405	1205280	+	MW1104
MW1105	1205281	1205925	+	cfxE
MW1106	1205932	1206573	+	MW1106
MW1107	1206954	1207142	-	rpmB
MW1108	1207585	1207959	+	MW1108
MW1109	1207974	1209620	+	MW1109
MW1110	1209810	1211870	+	recG
MW1111	1212088	1212645	+	MW1111
MW1112	1212650	1213636	+	plsX
MW1113	1213629	1214555	+	fabD
MW1114	1214542	1215282	+	fabG
MW1115	1215716	1215949	+	hmrB
MW1116	1216065	1216796	+	rnc
MW1117	1216943	1220509	+	smc
MW1118	1220509	1221759	+	MW1118
MW1119	1221746	1222078	+	MW1119
MW1120	1222104	1223471	+	ffh
MW1121	1223906	1224181	+	rpsP
MW1122	1224369	1224872	+	rimM
MW1123	1224872	1225609	+	trmD
MW1124	1225712	1226062	+	rplS
MW1125	1226645	1229251	-	MW1125
MW1126	1229652	1230536	+	MW1126
MW1127	1230520	1231287	+	rnhB
MW1128	1231396	1232562	+	sucC
MW1129	1232584	1233492	+	sucD
MW1130	1233719	1234837	+	lytN
MW1131	1234865	1236109	+	fmhC
MW1132	1236282	1237154	+	MW1132
MW1133	1237328	1239403	+	MW1133
MW1134	1239559	1240866	+	gid
MW1135	1241283	1242179	+	xerC
MW1136	1242176	1242721	+	clpQ
MW1137	1242787	1244190	+	clpY
MW1138	1244215	1244988	+	codY
MW1139	1245330	1246097	+	rpsB
MW1140	1246279	1247160	+	MW1140
MW1141	1247297	1248019	+	smbA
MW1142	1248038	1248592	+	frr
MW1143	1248965	1249735	+	uppS
MW1144	1249742	1250524	+	cdsA
MW1145	1250736	1252022	+	MW1145
MW1146	1252042	1253745	+	proS
MW1147	1254003	1258319	+	polC
MW1148	1258609	1259076	+	MW1148
MW1149	1259097	1260272	+	nusA
MW1150	1260293	1260577	+	MW1150
MW1151	1260574	1260891	+	MW1151
MW1152	1260896	1263013	+	infB
MW1153	1263399	1263749	+	rbfA
MW1154	1263919	1264836	+	truB
MW1155	1264851	1265822	+	ribC
MW1156	1265937	1266206	+	rpsO
MW1157	1266574	1268670	+	pnpA
MW1158	1268906	1270579	+	MW1158
MW1159	1270836	1273205	+	spoIIIE
MW1160	1273210	1273923	+	MW1160
MW1161	1273954	1275219	+	MW1161
MW1162	1275219	1276505	+	MW1162
MW1163	1276505	1277209	+	MW1163
MW1164	1277314	1278141	+	MW1164
MW1165	1278160	1278552	+	MW1165
MW1166	1278586	1279164	+	pgsA
MW1167	1279391	1280542	+	cinA
MW1168	1280707	1281750	+	recA
MW1169	1282104	1283663	+	MW1169
MW1170	1283960	1284175	-	MW1170
MW1171	1284349	1285146	+	MW1171
MW1172	1285286	1287046	+	MW1172
MW1173	1287047	1287913	+	MW1173
MW1174	1288007	1288300	+	MW1174
MW1175	1288434	1289978	+	MW1175
MW1176	1289979	1290344	+	MW1176
MW1177	1290371	1290862	+	MW1177
MW1178	1291165	1293783	+	mutS
MW1179	1293796	1295805	+	mutL
MW1180	1295820	1296353	+	glpP
MW1181	1296390	1296479	-	MW1181
MW1182	1296828	1297646	+	glpF
MW1183	1297775	1299271	+	glpK
MW1184	1299381	1301102	+	glpD
MW1185	1301252	1302166	+	MW1185
MW1186	1302184	1303119	+	miaA
MW1187	1303134	1303367	+	MW1187
MW1188	1303589	1304065	-	bsaA
MW1189	1304177	1305415	+	MW1189
MW1190	1305434	1306672	+	MW1190
MW1191	1306916	1307284	+	glnR
MW1192	1307303	1308643	+	glnA
MW1193	1310546	1310752	+	MW1193
MW1194	1311991	1312095	+	MW1194
MW1195	1312686	1312790	+	MW1195
MW1196	1312919	1313170	+	MW1196
MW1197	1313774	1314079	+	MW1197
MW1198	1314085	1314207	+	MW1198
MW1199	1314367	1314579	+	MW1199
MW1200	1314981	1315103	+	MW1200
MW1201	1315360	1315821	+	MW1201
MW1202	1315832	1316026	+	MW1202
MW1203	1316587	1317612	-	MW1203
MW1204	1317882	1318079	+	MW1204
MW1205	1318100	1319617	+	MW1205
MW1206	1319801	1320700	+	MW1206
MW1207	1320669	1321400	+	MW1207
MW1208	1321404	1322495	+	MW1208
MW1209	1322492	1323094	+	MW1209
MW1210	1323207	1323395	-	MW1210
MW1211	1323534	1324067	+	nuc
MW1212	1324210	1325064	-	MW1212
MW1213	1325380	1325970	+	MW1213
MW1214	1326024	1327406	-	MW1214
MW1215	1327597	1328877	+	dhoM
MW1216	1328883	1329944	+	thrC
MW1217	1329946	1330860	+	thrB
MW1218	1330918	1331721	+	MW1218
MW1219	1332014	1332328	-	MW1219
MW1220	1332546	1334000	-	MW1220
MW1221	1334204	1335721	+	katA
MW1222	1335812	1335961	+	rpmG
MW1223	1336415	1336684	+	rpsN
MW1224	1336841	1337818	+	MW1224
MW1225	1337993	1338856	+	MW1225
MW1226	1339236	1339859	-	lexA
MW1227	1340002	1340235	+	MW1227
MW1228	1340371	1340610	+	MW1228
MW1229	1340731	1342719	+	tkt
MW1230	1342997	1343239	+	MW1230
MW1231	1343418	1343885	+	MW1231
MW1232	1344009	1345130	+	MW1232
MW1233	1345134	1348163	+	MW1233
MW1234	1348193	1348681	+	MW1234
MW1235	1348234	1348596	-	mscL
MW1236	1348800	1350446	+	opuD
MW1237	1351280	1353985	+	citB
MW1238	1354165	1354632	+	MW1238
MW1239	1354839	1355135	-	MW1239
MW1240	1355510	1356118	-	MW1240
MW1241	1356318	1358315	+	parE
MW1242	1358315	1360717	+	parC
MW1243	1360967	1362427	+	alsT
MW1244	1362927	1363778	+	glcT
MW1245	1363825	1363920	+	MW1245
MW1246	1363913	1365121	+	MW1246
MW1247	1365602	1368124	+	fmtC
MW1248	1368327	1368836	-	msrA
MW1249	1368973	1369956	+	msrR
MW1250	1370044	1370232	-	MW1250
MW1251	1370377	1371639	+	MW1251
MW1252	1371775	1372866	-	tyrA
MW1253	1373031	1374062	+	MW1253
MW1254	1374554	1375960	+	MW1254
MW1255	1375957	1376523	+	trpG
MW1256	1376529	1377527	+	trpD
MW1257	1377529	1378311	+	trpC
MW1258	1378311	1378943	+	trpF
MW1259	1378936	1380150	+	trpB
MW1260	1380143	1380871	+	trpA
MW1261	1381193	1382455	+	femA
MW1262	1382474	1383733	+	femB
MW1263	1384022	1384678	+	MW1263
MW1264	1384999	1385235	+	MW1264
MW1265	1385051	1385716	+	MW1265
MW1266	1385765	1386238	-	MW1266
MW1267	1386362	1387063	-	opp-2F
MW1268	1387056	1387829	-	opp-2D
MW1269	1387816	1388646	-	opp-2C
MW1270	1388639	1389625	-	opp-2B
MW1271	1389929	1390273	-	MW1271
MW1272	1390478	1392292	+	MW1272
MW1273	1392431	1393072	-	MW1273
MW1274	1393079	1393930	-	pstB
MW1275	1393977	1394894	-	MW1275
MW1276	1394896	1395822	-	MW1276
MW1277	1396013	1396996	-	MW1277
MW1278	1397643	1397837	+	truncated
MW1279	1397972	1398874	-	MW1279
MW1280	1399021	1400622	+	MW1280
MW1281	1401489	1402694	+	lysC
MW1282	1402758	1403747	+	asd
MW1283	1403749	1404636	+	dapA
MW1284	1404633	1405355	+	dapB
MW1285	1405382	1406101	+	dapD
MW1286	1406244	1407395	+	MW1286
MW1287	1407400	1408485	+	MW1287
MW1288	1408475	1409740	+	lysA
MW1289	1409980	1410381	-	MW1289
MW1290	1410578	1410778	-	cspA
MW1291	1410949	1411257	-	MW1291
MW1292	1411420	1411689	+	MW1292
MW1293	1411714	1412337	+	MW1293
MW1294	1412369	1413505	+	MW1294
MW1295	1413561	1413755	-	truncated
MW1296	1413773	1414165	-	MW1296
MW1297	1414518	1415861	-	braB
MW1298	1416086	1417972	-	MW1298
MW1299	1417986	1418777	-	MW1299
MW1300	1418958	1419161	-	MW1300
MW1301	1419190	1419999	-	MW1301
MW1302	1420579	1421847	-	odhB
MW1303	1421861	1424659	-	odhA
MW1304	1424943	1426298	-	arlS
MW1305	1426295	1426954	-	truncated-arlR
MW1306	1427741	1428355	-	MW1306
MW1307	1428372	1429442	-	murG
MW1308	1429454	1429963	-	MW1308
MW1309	1430664	1431050	+	truncated
MW1310	1431151	1432641	-	ctpA
MW1311	1432833	1433054	-	MW1311
MW1312	1433054	1433554	-	MW1312
MW1313	1433566	1433994	-	MW1313
MW1314	1433987	1434520	-	MW1314
MW1315	1434606	1435445	-	MW1315
MW1316	1435460	1435939	-	dfrA
MW1317	1436139	1437095	-	thyA
MW1318	1437519	1437956	-	MW1318
MW1319	1437972	1439096	-	MW1319
MW1320	1439134	1439385	-	MW1320
MW1321	1439836	1440540	+	MW1321
MW1322	1440587	1440706	+	MW1322
MW1323	1441080	1441481	+	MW1323
MW1324	1441540	1471254	-	ebh
MW1325	1471652	1473043	-	MW1325
MW1326	1473200	1474522	-	MW1326
MW1327	1474553	1475593	-	MW1327
MW1328	1475688	1476806	-	MW1328
MW1329	1477282	1478160	-	MW1329
MW1330	1478180	1481620	-	MW1330
MW1331	1481924	1483264	+	MW1331
MW1332	1483893	1484225	-	MW1332
MW1333	1484309	1485454	-	MW1333
MW1334	1485888	1486004	-	MW1334
MW1335	1486105	1486449	-	MW1335
MW1336	1486463	1487026	-	MW1336
MW1337	1487019	1487369	-	MW1337
MW1338	1487423	1487602	-	MW1338
MW1339	1487908	1488534	+	recU
MW1340	1488531	1490714	+	pbp2
MW1341	1491278	1491619	-	MW1341
MW1342	1491624	1492283	-	nth
MW1343	1492273	1492959	-	MW1343
MW1344	1493287	1494579	-	asnS
MW1345	1494901	1497594	-	dinG
MW1346	1497618	1498589	-	MW1346
MW1347	1498576	1499778	-	MW1347
MW1348	1499783	1500925	-	MW1348
MW1349	1501167	1501484	-	MW1349
MW1350	1501820	1502518	-	MW1350
MW1351	1502572	1503159	-	MW1351
MW1352	1503149	1503724	-	MW1352
MW1353	1503738	1504982	-	MW1353
MW1354	1504989	1506287	-	aroA
MW1355	1506297	1507361	-	aroB
MW1356	1507387	1508553	-	aroC
MW1357	1508940	1509140	-	MW1357
MW1358	1509350	1509799	-	ndk
MW1359	1509891	1510850	-	gerCC
MW1360	1510852	1511577	-	gerCB
MW1361	1511580	1512152	-	MW1361
MW1362	1512583	1512855	-	hu
MW1363	1513026	1514024	-	gpsA
MW1364	1514041	1515351	-	MW1364
MW1365	1515573	1516748	-	MW1365
MW1366	1517446	1518105	-	cmk
MW1367	1518182	1519150	+	ansA
MW1368	1519265	1520251	-	MW1368
MW1369	1520653	1522113	-	ebpS
MW1370	1522266	1523645	-	MW1370
MW1371	1523635	1524588	-	MW1371
MW1372	1524696	1524944	+	fer
MW1373	1525050	1525595	-	MW1373
MW1374	1526005	1526919	-	MW1374
MW1375	1526976	1527893	-	MW1375
MW1376	1527951	1528856	-	MW1376
MW1377	1528947	1529132	-	MW1377
MW1378	1529381	1530358	-	lukF
MW1379	1530360	1531298	-	lukS
MW1380	1531688	1533142	-	truncated
MW1381	1533153	1533455	-	MW1381
MW1382	1533591	1533890	-	MW1382
MW1383	1533936	1534100	-	MW1383
MW1384	1534093	1534482	-	MW1384
MW1385	1534482	1535948	-	MW1385
MW1386	1535948	1537858	-	MW1386
MW1387	1537874	1538164	-	MW1387
MW1388	1538164	1539747	-	MW1388
MW1389	1539756	1540580	-	MW1389
MW1390	1540580	1546780	-	MW1390
MW1391	1547003	1547344	-	MW1391
MW1392	1547402	1547857	-	MW1392
MW1393	1547949	1548590	-	MW1393
MW1394	1548625	1549020	-	MW1394
MW1395	1549021	1549422	-	MW1395
MW1396	1549419	1549751	-	MW1396
MW1397	1549763	1550041	-	MW1397
MW1398	1550110	1551273	-	MW1398
MW1399	1551285	1552058	-	MW1399
MW1400	1552042	1553280	-	MW1400
MW1401	1553285	1554976	-	MW1401
MW1402	1554966	1555271	-	MW1402
MW1403	1555399	1555713	-	MW1403
MW1404	1555870	1556307	-	MW1404
MW1405	1556320	1557678	-	MW1405
MW1406	1557668	1557865	-	MW1406
MW1407	1558153	1558275	+	MW1407
MW1408	1558299	1560746	-	MW1408
MW1409	1560801	1561007	+	MW1409
MW1410	1561034	1561234	-	MW1410
MW1411	1561302	1561457	-	MW1411
MW1412	1561457	1561657	-	MW1412
MW1413	1561632	1561820	-	MW1413
MW1414	1561817	1562053	-	MW1414
MW1415	1562099	1562632	-	MW1415
MW1416	1562647	1562808	-	MW1416
MW1417	1562809	1563090	-	MW1417
MW1418	1563091	1563264	-	MW1418
MW1419	1563254	1563508	-	MW1419
MW1420	1563520	1563762	-	MW1420
MW1421	1563777	1563977	-	MW1421
MW1422	1563980	1564237	-	MW1422
MW1423	1564237	1564638	-	MW1423
MW1424	1564638	1564823	-	MW1424
MW1425	1564836	1566797	-	MW1425
MW1426	1566856	1567413	-	MW1426
MW1427	1567439	1568605	-	MW1427
MW1428	1568602	1568964	-	MW1428
MW1429	1568979	1569302	-	MW1429
MW1430	1569381	1569542	-	MW1430
MW1431	1569555	1569818	-	MW1431
MW1432	1569843	1570058	-	MW1432
MW1433	1570113	1570478	+	MW1433
MW1434	1570447	1570692	-	MW1434
MW1435	1570708	1570956	-	MW1435
MW1436	1571120	1571443	+	MW1436
MW1437	1571516	1571917	+	MW1437
MW1438	1571935	1572369	+	MW1438
MW1439	1572398	1572793	+	MW1439
MW1440	1572901	1573005	+	MW1440
MW1441	1572992	1573615	-	MW1441
MW1442	1573725	1574930	+	int
MW1443	1574973	1576859	-	MW1443
MW1444	1577011	1577919	-	MW1444
MW1445	1578164	1579930	-	srrB
MW1446	1579896	1580621	-	srrA
MW1447	1580754	1581491	-	rluB
MW1448	1581484	1582026	-	MW1448
MW1449	1582019	1582774	-	MW1449
MW1450	1582842	1583348	+	MW1450
MW1451	1583426	1584313	-	xerD
MW1452	1584362	1584811	-	MW1452
MW1453	1584916	1585458	-	MW1453
MW1454	1585540	1586448	+	MW1454
MW1455	1586664	1586912	-	MW1455
MW1456	1586928	1587683	-	MW1456
MW1457	1587825	1588640	+	MW1457
MW1458	1588743	1589663	-	MW1458
MW1459	1589976	1591460	+	MW1459
MW1460	1591690	1592556	+	MW1460
MW1461	1592638	1594287	-	malA
MW1462	1594303	1595322	-	malR
MW1463	1595516	1595887	-	MW1463
MW1464	1596106	1597512	-	gnd
MW1465	1597580	1598713	-	MW1465
MW1466	1599282	1600262	-	MW1466
MW1467	1600276	1600713	-	MW1467
MW1468	1601064	1602338	-	bmfBB
MW1469	1602351	1603334	-	bfmBAB
MW1470	1603334	1604326	-	bfmBAA
MW1471	1604342	1605763	-	MW1471
MW1472	1605914	1607593	-	recN
MW1473	1607609	1608061	-	ahrC
MW1474	1608493	1609374	-	ispA
MW1475	1609352	1609582	-	MW1475
MW1476	1609575	1610912	-	MW1476
MW1477	1610929	1611318	-	MW1477
MW1478	1611378	1611740	-	MW1478
MW1479	1611755	1613110	-	accC
MW1480	1613110	1613574	-	accB
MW1481	1614048	1614605	-	MW1481
MW1482	1614631	1615692	-	MW1482
MW1483	1615797	1616381	+	MW1483
MW1484	1616395	1616613	+	MW1484
MW1485	1616677	1617507	-	MW1485
MW1486	1617665	1618051	+	MW1486
MW1487	1618416	1619888	-	MW1487
MW1488	1619881	1621227	-	MW1488
MW1489	1621247	1622338	-	MW1489
MW1490	1622497	1623021	-	MW1490
MW1491	1623254	1623751	-	MW1491
MW1492	1623669	1624013	-	MW1492
MW1493	1624000	1624434	-	MW1493
MW1494	1624424	1624735	-	MW1494
MW1495	1624749	1625819	-	MW1495
MW1496	1625791	1626765	-	MW1496
MW1497	1626817	1627440	-	MW1497
MW1498	1627437	1627766	-	MW1498
MW1499	1627766	1628752	-	glcK
MW1500	1628749	1628952	-	MW1500
MW1501	1628933	1630396	-	MW1501
MW1502	1630408	1630947	-	MW1502
MW1503	1631156	1631305	-	rpmG
MW1504	1631418	1633493	-	pbp3
MW1505	1633614	1634213	-	sodA
MW1506	1634489	1634899	-	MW1506
MW1507	1634886	1635749	-	MW1507
MW1508	1635791	1636558	-	MW1508
MW1509	1636702	1637592	-	MW1509
MW1510	1637602	1638948	-	MW1510
MW1511	1639062	1640162	-	MW1511
MW1512	1640165	1640842	-	MW1512
MW1513	1640973	1642079	-	sigA
MW1514	1642303	1644120	-	dnaG
MW1515	1644181	1644999	-	MW1515
MW1516	1645010	1645549	-	MW1516
MW1517	1645968	1647359	+	glyS
MW1518	1647510	1648262	-	MW1518
MW1519	1648284	1649183	-	bex
MW1520	1649184	1649588	-	cdd
MW1521	1649599	1649943	-	MW1521
MW1522	1649946	1650413	-	MW1522
MW1523	1650414	1651361	-	phoH
MW1524	1651665	1652363	-	MW1524
MW1525	1652380	1653369	-	MW1525
MW1526	1653387	1654094	-	MW1526
MW1527	1654314	1654490	-	rpsU
MW1528	1654783	1656129	-	MW1528
MW1529	1656136	1656888	-	MW1529
MW1530	1656890	1657828	-	MW1530
MW1531	1657832	1658971	-	dnaJ
MW1532	1659107	1660939	-	dnaK
MW1533	1661008	1661634	-	grpE
MW1534	1661666	1662643	-	hrcA
MW1535	1662744	1663868	-	hemN
MW1536	1664492	1666315	-	lepA
MW1537	1666661	1666912	+	rpsT
MW1538	1666957	1667931	-	MW1538
MW1539	1667988	1670189	-	MW1539
MW1540	1670194	1670655	-	comEB
MW1541	1670747	1671424	-	MW1541
MW1542	1671473	1672189	-	MW1542
MW1543	1672192	1672545	-	MW1543
MW1544	1672546	1673130	-	MW1544
MW1545	1673120	1673689	-	MW1545
MW1546	1673692	1673982	-	MW1546
MW1547	1673986	1674792	-	aroE
MW1548	1674806	1675906	-	MW1548
MW1549	1675907	1676434	-	MW1549
MW1550	1676454	1677140	-	pfS
MW1551	1677454	1677723	+	MW1551
MW1552	1677925	1678614	-	MW1552
MW1553	1679384	1680604	-	MW1553
MW1554	1680891	1682120	-	MW1554
MW1555	1682132	1682884	-	MW1555
MW1556	1682884	1684245	-	MW1556
MW1557	1684259	1684708	-	MW1557
MW1558	1684710	1685720	-	MW1558
MW1559	1685710	1686444	-	MW1559
MW1560	1686770	1687246	-	greA
MW1561	1687274	1687897	-	udk
MW1562	1687897	1689165	-	MW1562
MW1563	1689177	1690100	-	MW1563
MW1564	1690103	1690741	-	MW1564
MW1565	1691026	1691334	-	MW1565
MW1566	1691349	1691777	-	MW1566
MW1567	1691781	1692041	-	MW1567
MW1568	1692104	1694734	-	alaS
MW1569	1695077	1697554	-	MW1569
MW1570	1697556	1698224	-	MW1570
MW1571	1698805	1699923	-	MW1571
MW1572	1699924	1701066	-	MW1572
MW1573	1701378	1702391	+	MW1573
MW1574	1702628	1702774	-	MW1574
MW1575	1702814	1702996	-	csbD
MW1576	1703096	1703518	-	MW1576
MW1577	1703603	1704877	+	MW1577
MW1578	1705038	1705811	-	MW1578
MW1579	1706025	1706126	-	MW1579
MW1580	1706272	1708038	-	aspS
MW1581	1708054	1709316	-	hisS
MW1582	1709777	1710652	-	MW1582
MW1583	1710649	1711101	-	MW1583
MW1584	1711113	1713302	-	relA
MW1585	1713730	1714248	-	apt
MW1586	1714270	1716543	-	MW1586
MW1587	1716746	1719025	-	secF
MW1588	1719300	1719560	-	MW1588
MW1589	1719579	1720718	-	tgt
MW1590	1720741	1721766	-	queA
MW1591	1721768	1722772	-	ruvB
MW1592	1722804	1723406	-	ruvA
MW1593	1723420	1723878	-	MW1593
MW1594	1723888	1725180	-	obg
MW1595	1725665	1725949	-	rpmA
MW1596	1725961	1726161	-	MW1596
MW1597	1726287	1726595	-	rplU
MW1598	1726957	1727487	-	MW1598
MW1599	1727487	1728329	-	MW1599
MW1600	1728528	1728647	-	MW1600
MW1601	1728721	1729194	-	MW1601
MW1602	1729354	1729551	+	MW1602
MW1603	1729668	1729952	-	MW1603
MW1604	1730020	1730706	-	MW1604
MW1605	1730703	1731410	-	MW1605
MW1606	1731680	1732951	-	folC
MW1607	1732964	1735594	-	valS
MW1608	1735997	1736557	+	tag
MW1609	1736780	1737853	-	MW1609
MW1610	1737887	1737976	-	MW1610
MW1611	1738049	1739335	-	hemL
MW1612	1739383	1740357	-	hemB
MW1613	1740360	1741028	-	hemD
MW1614	1741050	1741976	-	hemC
MW1615	1742018	1742833	-	hemX
MW1616	1742855	1744201	-	hemA
MW1617	1744418	1745008	-	MW1617
MW1618	1745162	1746424	-	clpX
MW1619	1746575	1747876	-	tig
MW1620	1748039	1748968	-	MW1620
MW1621	1748987	1749595	-	MW1621
MW1622	1749737	1750093	-	rplT
MW1623	1750140	1750340	-	rpmI
MW1624	1750369	1750896	-	infC
MW1625	1751125	1752618	-	lysP
MW1626	1753044	1754981	-	thrS
MW1627	1755393	1756313	-	dnaI
MW1628	1756313	1757713	-	dnaB
MW1629	1757714	1758184	-	MW1629
MW1630	1758395	1759420	-	gapB
MW1631	1759590	1760213	-	MW1631
MW1632	1760229	1761101	-	MW1632
MW1633	1761117	1763747	-	polA
MW1634	1764041	1765039	-	MW1634
MW1635	1765006	1765527	-	MW1635
MW1636	1766026	1767690	-	phoR
MW1637	1767687	1768391	-	phoP
MW1638	1768781	1770049	-	citC
MW1639	1770098	1771219	-	citZ
MW1640	1771567	1772928	+	aapA
MW1641	1773276	1775033	-	pykA
MW1642	1775055	1775978	-	pfk
MW1643	1776292	1777236	-	accA
MW1644	1777236	1778093	-	MW1644
MW1645	1778288	1779517	-	MW1645
MW1646	1779967	1783164	-	dnaE
MW1647	1783185	1784126	-	MW1647
MW1648	1784580	1785878	-	MW1648
MW1649	1786083	1786496	+	MW1649
MW1650	1786801	1787319	-	MW1650
MW1651	1787665	1788720	+	MW1651
MW1652	1789036	1790154	-	ald
MW1653	1790295	1790795	+	MW1653
MW1654	1791041	1792243	-	ackA
MW1655	1792331	1793278	-	MW1655
MW1656	1793401	1793895	-	MW1656
MW1657	1793993	1794763	-	MW1657
MW1658	1794807	1796030	-	MW1658
MW1659	1796030	1797169	-	MW1659
MW1660	1797541	1799235	-	MW1660
MW1661	1799372	1799836	+	MW1661
MW1662	1800080	1800682	+	rpsD
MW1663	1800898	1801641	-	MW1663
MW1664	1801721	1802167	+	MW1664
MW1665	1802281	1803441	+	MW1665
MW1666	1803428	1805032	+	serA
MW1667	1805182	1806312	-	MW1667
MW1668	1806419	1807885	-	ptaA
MW1669	1808013	1808630	-	MW1669
MW1670	1808802	1810076	+	MW1670
MW1671	1810170	1811432	-	tyrS
MW1672	1811814	1812719	+	sgtA
MW1674	1812922	1815609	-	MW1674
MW1673	1815602	1815697	+	MW1673
MW1675	1815943	1817610	-	fhs
MW1676	1818050	1819756	-	acsA
MW1677	1819925	1820557	+	acuA
MW1678	1820582	1821751	+	acuC
MW1679	1821849	1822838	-	ccpA
MW1680	1823378	1824469	-	MW1680
MW1681	1825169	1826533	-	MW1681
MW1682	1826607	1827098	-	MW1682
MW1683	1827172	1828485	-	murC
MW1684	1828509	1832333	-	MW1684
MW1685	1832354	1832950	-	MW1685
MW1686	1832979	1833836	-	MW1686
MW1687	1833936	1834247	-	MW1687
MW1688	1834312	1835388	-	MW1688
MW1689	1835475	1835786	+	MW1689
MW1690	1835911	1836753	-	MW1690
MW1691	1837223	1837867	-	MW1691
MW1692	1837882	1838673	-	MW1692
MW1693	1839224	1840072	-	MW1693
MW1694	1840076	1841485	-	MW1694
MW1695	1842177	1842599	-	MW1695
MW1696	1842616	1843311	-	MW1696
MW1697	1843308	1844969	-	MW1697
MW1698	1845376	1846644	+	MW1698
MW1699	1846761	1853321	-	MW1699
MW1700	1853647	1853958	-	MW1700
MW1701	1853980	1856403	-	leuS
MW1702	1856691	1857872	-	MW1702
MW1703	1857982	1858935	+	MW1703
MW1704	1858932	1859495	+	MW1704
MW1705	1859615	1860076	-	rot
MW1706	1860590	1861417	-	MW1706
MW1707	1861651	1862652	+	MW1707
MW1708	1862774	1863238	-	ribH
MW1709	1863251	1864432	-	ribA
MW1710	1864443	1865075	-	ribB
MW1711	1865082	1866125	-	ribD
MW1712	1866606	1868108	-	MW1712
MW1713	1868631	1868945	+	MW1713
MW1714	1868945	1870237	+	MW1714
MW1715	1870324	1871178	-	MW1715
MW1716	1871454	1871678	-	MW1716
MW1717	1871877	1872347	+	MW1717
MW1718	1872460	1872903	+	MW1718
MW1719	1872890	1873333	-	MW1719
MW1720	1873629	1874264	+	MW1720
MW1721	1874704	1875417	-	MW1721
MW1722	1875677	1875979	+	MW1722
MW1723	1876157	1876600	+	MW1723
MW1724	1876597	1876950	+	MW1724
MW1725	1877142	1877321	+	MW1725
MW1726	1877333	1878166	-	MW1726
MW1727	1878378	1879289	-	MW1727
MW1728	1879411	1880604	-	metK
MW1729	1880976	1882568	+	pckA
MW1730	1882692	1882868	+	MW1730
MW1731	1882946	1883716	-	MW1731
MW1732	1883697	1884176	-	MW1732
MW1733	1884236	1884493	+	MW1733
MW1734	1884490	1885491	-	menC
MW1735	1885496	1886974	-	menE
MW1736	1887133	1887615	-	MW1736
MW1737	1887927	1888541	+	MW1737
MW1738	1888622	1889617	+	MW1738
MW1739	1889691	1890317	+	MW1739
MW1740	1890358	1890699	+	MW1740
MW1741	1890800	1891372	+	MW1741
MW1742	1891660	1892127	-	MW1742
MW1743	1892501	1892677	-	MW1743
MW1744	1892688	1893071	-	MW1744
MW1745	1893263	1893472	-	truncated
MW1746	1893639	1893764	+	MW1746
MW1747	1893675	1893818	-	MW1747
MW1748	1894688	1895065	-	MW1748
MW1749	1895586	1899698	-	MW1749
MW1750	1900548	1901747	-	hsdS
MW1751	1901740	1903296	-	hsdM
MW1752	1903659	1904378	-	splF
MW1753	1904499	1905218	-	splC
MW1754	1905276	1905998	-	splB
MW1755	1906123	1906830	-	splA
MW1756	1907266	1907484	-	MW1756
MW1757	1907794	1908360	+	MW1757
MW1758	1908834	1909532	-	bsaG
MW1759	1909529	1910290	-	bsaE
MW1760	1910287	1910979	-	bsaF
MW1761	1911002	1912375	-	bsaP
MW1762	1912385	1912903	-	bsaD
MW1763	1912919	1914163	-	bsaC
MW1764	1914156	1917149	-	bsaB
MW1765	1917214	1917357	-	bsaA2
MW1766	1918094	1918237	-	bsaA1
MW1767	1918479	1919462	-	lukD
MW1768	1919464	1920399	-	lukE
MW1769	1921296	1921751	+	MW1769
MW1770	1921764	1922552	+	MW1770
MW1771	1925009	1925563	-	MW1771
MW1772	1925885	1927285	-	hemY
MW1773	1927309	1928232	-	hemH
MW1774	1928290	1929327	-	hemE
MW1775	1929590	1930093	+	TRAP
MW1776	1930217	1931440	-	MW1776
MW1777	1931433	1932173	-	MW1777
MW1778	1932307	1932729	+	hit
MW1779	1932871	1933236	+	MW1779
MW1780	1933214	1933420	+	MW1780
MW1781	1933969	1934526	+	MW1781
MW1782	1934731	1935693	+	prsA
MW1783	1935814	1936755	-	cbf1
MW1784	1936752	1939688	-	MW1784
MW1785	1939678	1940874	-	MW1785
MW1786	1941756	1942100	-	MW1786
MW1787	1942169	1943293	-	MW1787
MW1788	1943472	1943936	-	MW1788
MW1789	1944292	1944915	-	MW1789
MW1790	1944937	1946049	-	MW1790
MW1791	1946212	1947033	+	MW1791
MW1792	1947494	1948879	-	citG
MW1793	1949075	1949470	-	MW1793
MW1794	1950076	1950228	-	MW1794
MW1795	1950253	1950852	-	MW1795
MW1796	1951011	1951481	-	MW1796
MW1797	1951486	1952613	-	MW1797
MW1798	1952764	1953492	-	MW1798
MW1799	1953479	1954936	-	MW1799
MW1800	1955194	1956255	-	MW1800
MW1801	1965203	1965649	-	MW1801
MW1802	1965746	1966696	-	MW1802
MW1803	1966702	1967157	-	MW1803
MW1804	1967238	1968527	+	gsaB
MW1805	1968820	1969914	+	MW1805
MW1806	1970106	1971842	-	MW1806
MW1807	1972133	1972675	-	MW1807
MW1808	1972977	1974014	-	MW1808
MW1809	1974166	1975143	+	MW1809
MW1810	1975404	1976240	-	MW1810
MW1811	1976249	1977766	-	MW1811
MW1812	1977781	1978095	-	MW1812
MW1813	1978073	1978891	-	MW1813
MW1814	1979152	1979961	-	sgtB
MW1815	1980300	1980815	-	MW1815
MW1816	1980946	1981107	-	MW1816
MW1817	1981331	1982482	+	MW1817
MW1818	1982742	1983272	-	MW1818
MW1819	1983361	1984608	-	ampS
MW1820	1984620	1984826	-	MW1820
MW1821	1984967	1985431	+	MW1821
MW1822	1985438	1985713	+	MW1822
MW1823	1985991	1987202	+	MW1823
MW1824	1987314	1987943	-	vraR
MW1825	1987933	1988976	-	vraS
MW1826	1988973	1989674	-	MW1826
MW1827	1989689	1990075	-	MW1827
MW1828	1990292	1991050	-	map
MW1829	1991581	1992567	+	MW1829
MW1830	1992865	1992981	-	MW1830
MW1831	1993057	1993509	-	MW1831
MW1832	1993696	1994427	-	MW1832
MW1833	1994429	1995742	-	MW1833
MW1834	1996034	1996534	+	MW1834
MW1835	1996924	1997478	+	MW1835
MW1836	1997545	1998615	-	MW1836
MW1837	1998862	1999392	-	MW1837
MW1838	1999562	2000923	-	MW1838
MW1839	2001004	2001951	-	MW1839
MW1840	2002605	2004032	-	MW1840
MW1841	2004045	2005502	-	MW1841
MW1842	2005504	2005806	-	MW1842
MW1843	2006173	2007711	+	putP
MW1844	2007800	2008999	-	MW1844
MW1845	2009012	2011015	-	lig
MW1846	2011019	2013211	-	pcrA
MW1847	2013208	2013900	-	pcrB
MW1848	2014072	2014374	-	MW1848
MW1849	2014483	2015778	-	purB
MW1850	2016639	2017805	+	MW1850
MW1851	2017836	2018162	+	MW1851
MW1852	2018608	2019210	-	MW1852
MW1853	2019481	2020302	-	nadE
MW1854	2020295	2021764	-	MW1854
MW1855	2021948	2023024	+	MW1855
MW1856	2023044	2023838	+	MW1856
MW1857	2024028	2025590	-	MW1857
MW1858	2025795	2026892	-	MW1858
MW1859	2027264	2027824	+	MW1859
MW1860	2027877	2028806	+	MW1860
MW1861	2029226	2030605	+	aldH
MW1862	2030725	2031753	-	MW1862
MW1863	2032023	2032424	+	MW1863
MW1864	2032439	2032612	-	truncated-tnp
MW1865	2032997	2033170	-	MW1865
MW1866	2033621	2034661	+	MW1866
MW1867	2034718	2035560	-	MW1867
MW1868	2035557	2036114	-	MW1868
MW1869	2036174	2036698	-	MW1869
MW1870	2036819	2037382	+	MW1870
MW1871	2037448	2038188	-	MW1871
MW1872	2038188	2039060	-	MW1872
MW1873	2039057	2039737	-	MW1873
MW1874	2039738	2040634	-	MW1874
MW1875	2040631	2041011	-	MW1875
MW1876	2041270	2041446	-	MW1876
MW1877	2041689	2041787	-	MW1877
MW1878	2041987	2043273	+	MW1878
MW1879	2043597	2043887	-	truncated
MW1880	2043902	2045647	-	truncated
MW1881	2046033	2046233	+	truncated
MW1882	2046605	2046784	+	MW1882
MW1883	2046808	2047116	+	MW1883
MW1884	2047408	2047758	-	MW1884
MW1885	2049256	2049747	-	sak
MW1886	2049938	2050693	-	MW1886
MW1887	2050705	2050959	-	MW1887
MW1888	2051171	2051305	-	MW1888
MW1889	2051456	2052229	-	sea
MW1890	2052602	2052976	-	MW1890
MW1891	2053032	2053361	-	MW1891
MW1892	2053365	2053517	-	MW1892
MW1893	2053510	2057292	-	MW1893
MW1894	2057308	2058798	-	MW1894
MW1895	2058798	2063447	-	MW1895
MW1896	2063503	2063586	-	MW1896
MW1897	2063685	2064131	-	MW1897
MW1898	2064196	2065149	-	MW1898
MW1899	2065150	2065530	-	MW1899
MW1900	2065527	2065904	-	MW1900
MW1901	2065904	2066239	-	MW1901
MW1902	2066226	2066558	-	MW1902
MW1903	2066567	2066725	-	MW1903
MW1904	2066761	2068008	-	MW1904
MW1905	2068096	2068680	-	MW1905
MW1906	2068673	2069923	-	MW1906
MW1907	2069929	2070129	-	MW1907
MW1908	2070143	2071837	-	MW1908
MW1909	2071840	2072307	-	MW1909
MW1910	2072436	2072789	-	MW1910
MW1911	2072796	2073248	-	MW1911
MW1912	2073363	2073833	-	MW1912
MW1913	2073856	2074059	-	MW1913
MW1914	2074056	2074706	-	MW1914
MW1915	2074713	2074865	-	MW1915
MW1916	2074865	2075014	-	MW1916
MW1917	2075028	2075342	-	MW1917
MW1918	2075355	2075759	-	MW1918
MW1919	2075768	2075986	-	MW1919
MW1920	2075993	2076886	-	MW1920
MW1921	2076916	2077386	-	MW1921
MW1922	2077387	2077872	-	MW1922
MW1923	2078085	2079005	-	MW1923
MW1924	2079007	2080956	-	MW1924
MW1925	2080959	2081222	-	MW1925
MW1926	2081231	2081491	-	MW1926
MW1927	2081584	2081745	-	MW1927
MW1928	2081742	2082062	-	MW1928
MW1929	2082118	2082753	+	MW1929
MW1930	2082768	2082908	-	MW1930
MW1931	2082939	2083136	-	MW1931
MW1932	2083152	2083901	-	MW1932
MW1933	2083958	2084497	+	MW1933
MW1934	2084521	2084781	-	MW1934
MW1935	2084799	2085023	-	MW1935
MW1936	2085182	2085952	+	MW1936
MW1937	2086148	2086876	+	seq
MW1938	2086900	2087628	+	sek2
MW1939	2087712	2088749	+	int
MW1940	2088806	2089630	+	truncated
MW1941	2089868	2090884	-	MW1941
MW1942	2090906	2091958	-	MW1942
MW1943	2092394	2093617	+	MW1943
MW1944	2093989	2094834	-	MW1944
MW1945	2094896	2095807	-	fhuD1
MW1946	2095968	2097275	+	MW1946
MW1947	2098129	2098572	-	MW1947
MW1948	2098678	2099196	-	MW1948
MW1949	2099432	2100022	-	MW1949
MW1950	2100019	2100234	-	MW1950
MW1951	2100364	2100711	+	truncated
MW1952	2100572	2100838	+	truncated
MW1953	2100933	2102549	-	groEL
MW1954	2102625	2102909	-	groES
MW1955	2103084	2103827	+	MW1955
MW1956	2103852	2105111	-	MW1956
MW1957	2105308	2105934	+	MW1957
MW1958	2106295	2107080	+	MW1958
MW1959	2107679	2107813	-	hld
MW1960	2108049	2108612	+	agrB
MW1961	2108616	2108756	+	agrD
MW1962	2108781	2110073	+	agrC
MW1963	2110092	2110808	+	agrA
MW1964	2111177	2112136	-	MW1964
MW1965	2112133	2113617	-	scrB
MW1966	2113766	2114716	-	scrR
MW1967	2114899	2116149	-	nrgA
MW1968	2116357	2116581	-	MW1968
MW1969	2116641	2117720	-	MW1969
MW1970	2118024	2118659	-	MW1970
MW1971	2118912	2120840	+	vga
MW1972	2121202	2122812	+	MW1972
MW1973	2122914	2123939	-	MW1973
MW1974	2123932	2124396	-	MW1974
MW1975	2124369	2125058	-	MW1975
MW1976	2125012	2125473	-	MW1976
MW1977	2125984	2127672	+	ilvD
MW1978	2127700	2129469	+	ilvB
MW1979	2129469	2129723	+	MW1979
MW1980	2129860	2130864	+	ilvC
MW1981	2130894	2132423	+	leuA
MW1982	2132426	2133472	+	leuB
MW1983	2133486	2134856	+	leuC
MW1984	2134857	2135429	+	leuD
MW1985	2135444	2136712	+	ilvA
MW1986	2143331	2143786	-	MW1986
MW1987	2143779	2145929	-	MW1987
MW1988	2146362	2147132	-	sigB
MW1989	2147107	2147586	-	rsbW
MW1990	2147588	2147914	-	rsbV
MW1991	2148033	2149034	-	rsbU
MW1992	2149382	2149744	-	MW1992
MW1993	2149741	2149911	-	MW1993
MW1994	2149996	2151144	-	alr
MW1995	2151210	2151569	-	dpj
MW1996	2151573	2152064	-	MW1996
MW1997	2152051	2153634	-	MW1997
MW1998	2153627	2154106	-	MW1998
MW1999	2154315	2154875	-	kdpC
MW2000	2154895	2156922	-	kdpB
MW2001	2156941	2158617	-	kdpA
MW2002	2158889	2161546	+	kdpD
MW2003	2161546	2162241	+	kdpE
MW2004	2162610	2164130	-	MW2004
MW2005	2164647	2166005	-	murF
MW2006	2166020	2167090	-	ddlA
MW2007	2167408	2168610	+	MW2007
MW2008	2168873	2169010	-	MW2008
MW2009	2169138	2169347	-	MW2009
MW2010	2169359	2169652	-	MW2010
MW2011	2169818	2171302	+	MW2011
MW2012	2171330	2171977	+	MW2012
MW2013	2172591	2173463	-	MW2013
MW2014	2173549	2174190	-	thiE
MW2015	2174183	2174983	-	thiM
MW2016	2174967	2175797	-	thiD
MW2017	2175790	2176479	-	MW2017
MW2018	2176579	2176635	-	MW2018
MW2019	2176742	2176987	+	MW2019
MW2020	2177003	2177698	-	MW2020
MW2021	2178087	2178482	-	MW2021
MW2022	2178676	2179116	+	MW2022
MW2023	2179174	2179614	-	MW2023
MW2024	2179648	2180913	-	murA
MW2025	2181024	2181257	-	MW2025
MW2026	2181819	2182223	-	atpC
MW2027	2182243	2183655	-	atpD
MW2028	2183677	2184543	-	atpG
MW2029	2184574	2186082	-	atpA
MW2030	2186104	2186643	-	atpH
MW2031	2186643	2187164	-	atpF
MW2032	2187361	2187573	-	atpE
MW2033	2187616	2188344	-	atpB
MW2034	2188365	2188718	-	MW2034
MW2035	2188885	2190015	-	mnaA
MW2036	2190036	2190665	-	upp
MW2037	2190693	2191931	-	glyA
MW2038	2191958	2192482	-	MW2038
MW2039	2192589	2193008	-	MW2039
MW2040	2193005	2194051	-	MW2040
MW2041	2194135	2194971	-	MW2041
MW2042	2194958	2196034	-	prfA
MW2043	2196035	2196634	-	tdk
MW2044	2196981	2197235	-	rpmE
MW2045	2197353	2198669	-	rho
MW2046	2198916	2200343	-	MW2046
MW2047	2200581	2200919	-	MW2047
MW2048	2201005	2202264	-	murZ
MW2049	2202730	2203590	-	fbaA
MW2050	2203808	2204329	+	MW2050
MW2051	2204438	2206048	-	ctrA
MW2052	2206384	2206914	-	rpoE
MW2053	2207026	2207886	-	MW2053
MW2054	2208310	2209113	+	MW2054
MW2055	2209243	2209914	-	MW2055
MW2056	2210313	2211506	-	MW2056
MW2057	2211506	2212690	-	hmrA
MW2058	2213001	2213471	+	luxS
MW2059	2213623	2213973	-	MW2059
MW2060	2213987	2215327	-	pdp
MW2061	2215569	2216231	-	MW2061
MW2062	2216546	2217256	+	deoD
MW2063	2217377	2217820	-	dps
MW2064	2218020	2218433	-	MW2064
MW2065	2218891	2220264	-	MW2065
MW2066	2220936	2221166	-	MW2066
MW2067	2221197	2222135	-	MW2067
MW2068	2222571	2223236	-	MW2068
MW2069	2223388	2223708	+	czrA
MW2070	2223710	2224690	+	czrB
MW2071	2224956	2226047	+	MW2071
MW2072	2226480	2226560	-	MW2072
MW2073	2226909	2227100	+	MW2073
MW2075	2227017	2227199	-	MW2075
MW2074	2227101	2227271	+	MW2074
MW2076	2227258	2227422	+	MW2076
MW2077	2227859	2227951	+	MW2077
MW2078	2228081	2228938	-	MW2078
MW2079	2229006	2229788	-	MW2079
MW2080	2230020	2231825	-	glmS
MW2081	2232293	2232448	+	MW2081
MW2082	2232506	2234044	+	mtlF
MW2083	2234079	2236211	+	MW2083
MW2084	2236223	2236657	+	mtlA
MW2085	2236657	2237763	+	mtlD
MW2086	2238083	2240143	-	truncated
MW2087	2240201	2245588	-	truncated
MW2088	2245874	2247229	-	glmM
MW2089	2247256	2248188	-	MW2089
MW2090	2248190	2248999	-	MW2090
MW2091	2249188	2250096	-	arg
MW2092	2256291	2257355	-	MW2092
MW2093	2257503	2258945	-	MW2093
MW2094	2259268	2259741	-	MW2094
MW2095	2259840	2261183	-	MW2095
MW2096	2261360	2262043	-	MW2096
MW2097	2262062	2263249	-	MW2097
MW2098	2263293	2263808	-	MW2098
MW2099	2263985	2264245	+	MW2099
MW2100	2264377	2265747	-	MW2100
MW2101	2265983	2266951	-	MW2101
MW2102	2266948	2267979	-	MW2102
MW2103	2267991	2268974	-	MW2103
MW2104	2269366	2270436	-	MW2104
MW2105	2270443	2272200	-	MW2105
MW2106	2272187	2273380	-	MW2106
MW2107	2273482	2275458	+	MW2107
MW2108	2275618	2276127	-	asp23
MW2109	2276190	2276429	-	MW2109
MW2110	2276442	2276978	-	MW2110
MW2111	2277153	2278715	-	MW2111
MW2112	2279023	2280030	-	MW2112
MW2113	2280264	2281265	-	MW2113
MW2114	2281548	2282417	-	MW2114
MW2115	2282683	2284095	-	lacG
MW2116	2284113	2285825	-	lacE
MW2117	2285831	2286142	-	lacF
MW2118	2286164	2287144	-	lacD
MW2119	2287148	2288080	-	lacC
MW2120	2288093	2288608	-	lacB
MW2121	2288624	2289052	-	lacA
MW2122	2289420	2290175	-	lacR
MW2123	2290426	2291157	+	MW2123
MW2124	2291206	2291355	+	MW2124
MW2125	2291448	2292056	-	MW2125
MW2126	2292318	2292443	-	MW2126
MW2127	2292662	2293510	-	MW2127
MW2128	2293580	2293996	-	MW2128
MW2129	2294405	2296852	+	hysA
MW2130	2297041	2297466	+	MW2130
MW2131	2297853	2298557	-	MW2131
MW2132	2298594	2300258	-	alsS
MW2133	2300506	2300631	+	MW2133
MW2134	2300705	2300887	-	MW2134
MW2135	2300922	2301008	-	MW2135
MW2136	2301234	2301632	-	rpsI
MW2137	2301646	2302083	-	rplM
MW2138	2302323	2303126	-	truA
MW2139	2303131	2303937	-	MW2139
MW2140	2303927	2304787	-	MW2140
MW2141	2304784	2305593	-	MW2141
MW2142	2306131	2306499	-	rplQ
MW2143	2306516	2307460	-	rpoA
MW2144	2307535	2307924	-	rpsK
MW2145	2307948	2308313	-	rpsM
MW2146	2308336	2308449	-	rpmJ
MW2147	2308481	2308699	-	infA
MW2148	2308892	2309539	-	adk
MW2149	2309556	2310848	-	secY
MW2150	2310848	2311288	-	rplO
MW2151	2311305	2311484	-	rpmD
MW2152	2311501	2312001	-	rpsE
MW2153	2312022	2312381	-	rplR
MW2154	2312412	2312948	-	rplF
MW2155	2312973	2313371	-	rpsH
MW2156	2313403	2313588	-	rpsN
MW2157	2313611	2314150	-	rplE
MW2158	2314177	2314494	-	rplX
MW2159	2314530	2314898	-	rplN
MW2160	2314930	2315193	-	rpsQ
MW2161	2315217	2315438	-	rpmC
MW2162	2315416	2315850	-	rplP
MW2163	2315853	2316506	-	rpsC
MW2164	2316530	2316883	-	rplV
MW2165	2316912	2317190	-	rpsS
MW2166	2317257	2318090	-	rplB
MW2167	2318123	2318398	-	rplW
MW2168	2318398	2319021	-	rplD
MW2169	2319048	2319710	-	rplC
MW2170	2319738	2320046	-	rpsJ
MW2171	2320403	2320792	+	MW2171
MW2172	2320983	2322317	-	MW2172
MW2173	2322430	2324565	-	topB
MW2174	2324752	2325639	+	MW2174
MW2175	2325820	2326683	+	MW2175
MW2176	2327102	2328010	-	MW2176
MW2177	2328143	2328307	+	MW2177
MW2178	2328552	2328869	+	MW2178
MW2179	2329053	2332220	-	MW2179
MW2180	2332337	2333602	-	fmhB
MW2181	2333991	2334242	+	MW2181
MW2182	2334234	2334998	-	MW2182
MW2183	2335160	2335600	+	MW2183
MW2184	2335593	2336804	+	MW2184
MW2185	2336906	2337256	-	MW2185
MW2186	2337834	2338856	-	moaA
MW2187	2338876	2339475	-	mobA
MW2188	2339482	2339715	-	moaD
MW2189	2339721	2340167	-	moaE
MW2190	2340181	2340666	-	mobB
MW2191	2340663	2341922	-	moeA
MW2192	2341985	2342479	+	moaC
MW2193	2342481	2342987	-	moaB
MW2194	2343018	2344022	-	moeB
MW2195	2344192	2344797	-	modC
MW2196	2344798	2345469	-	modB
MW2197	2345483	2346265	-	modA
MW2198	2346555	2347352	+	narQ
MW2199	2347524	2348294	-	MW2199
MW2200	2348371	2348925	-	MW2200
MW2201	2349046	2349987	-	MW2201
MW2202	2350385	2351293	-	fhuD2
MW2203	2351507	2352661	-	MW2203
MW2204	2352708	2352800	-	MW2204
MW2205	2352878	2353783	-	MW2205
MW2206	2354043	2354345	+	ureA
MW2207	2354359	2354769	+	ureB
MW2208	2354766	2356481	+	ureC
MW2209	2356494	2356946	+	ureE
MW2210	2356939	2357628	+	ureF
MW2211	2357641	2358255	+	ureG
MW2212	2358447	2359091	+	ureD
MW2213	2359280	2359627	-	sarR
MW2214	2360055	2360381	-	MW2214
MW2215	2360445	2361188	-	MW2215
MW2216	2361215	2363170	-	MW2216
MW2217	2363780	2364589	+	MW2217
MW2218	2364606	2364734	-	MW2218
MW2219	2365022	2366422	-	MW2219
MW2220	2366517	2367599	-	MW2220
MW2221	2367847	2368269	+	MW2221
MW2222	2368506	2369006	+	ssaA
MW2223	2369102	2369311	+	MW2223
MW2224	2369368	2370321	+	MW2224
MW2225	2370402	2371526	-	MW2225
MW2226	2372251	2373027	-	MW2226
MW2227	2373049	2373300	-	MW2227
MW2228	2373510	2373983	-	MW2228
MW2229	2373983	2376937	-	MW2229
MW2230	2377539	2378486	-	MW2230
MW2231	2378619	2379416	-	MW2231
MW2232	2379801	2380493	+	MW2232
MW2233	2380849	2381163	+	MW2233
MW2234	2381140	2381877	-	MW2234
MW2235	2381926	2382255	+	MW2235
MW2236	2382700	2383572	+	MW2236
MW2237	2383959	2385338	-	MW2237
MW2238	2385618	2385974	+	MW2238
MW2239	2385971	2386156	+	MW2239
MW2240	2386252	2386443	-	MW2240
MW2241	2386454	2387089	-	MW2241
MW2242	2387164	2388081	-	MW2242
MW2243	2388349	2388879	+	MW2243
MW2244	2388945	2390549	-	glvC
MW2245	2390879	2391643	+	MW2245
MW2246	2391701	2392207	-	MW2246
MW2247	2392374	2393753	-	MW2247
MW2248	2393912	2394481	-	MW2248
MW2249	2394968	2395849	-	MW2249
MW2250	2395960	2397081	-	MW2250
MW2251	2397357	2398595	-	hutI
MW2252	2398595	2400256	-	hutU
MW2253	2400416	2401300	+	MW2253
MW2254	2401793	2402728	-	MW2254
MW2255	2403018	2404277	+	MW2255
MW2256	2404343	2405029	-	MW2256
MW2257	2405203	2405856	+	MW2257
MW2258	2406092	2407111	-	MW2258
MW2259	2407141	2407467	-	MW2259
MW2260	2407685	2408917	-	MW2260
MW2261	2408910	2409809	-	MW2261
MW2263	2410040	2410660	-	MW2263
MW2262	2410652	2410774	+	MW2262
MW2264	2410840	2410971	+	MW2264
MW2265	2411059	2411667	+	MW2265
MW2266	2412004	2413212	+	MW2266
MW2267	2413260	2414309	-	fni
MW2268	2414340	2415287	-	MW2268
MW2269	2415384	2415875	+	MW2269
MW2270	2415872	2416291	+	MW2270
MW2271	2416399	2417319	-	MW2271
MW2272	2417527	2418165	+	MW2272
MW2273	2418411	2420342	-	MW2273
MW2274	2420355	2421002	-	MW2274
MW2275	2421123	2421674	+	MW2275
MW2276	2421904	2423112	-	tcaB
MW2277	2423381	2424763	-	tcaA
MW2278	2425003	2425458	-	tcaR
MW2279	2425653	2426621	+	MW2279
MW2280	2426852	2427517	-	MW2280
MW2281	2427517	2428572	-	MW2281
MW2282	2428708	2429382	+	MW2282
MW2283	2429375	2430748	+	MW2283
MW2284	2430911	2431354	+	MW2284
MW2285	2431351	2431806	+	MW2285
MW2286	2431872	2433407	-	MW2286
MW2287	2433731	2435329	-	MW2287
MW2288	2435646	2437319	+	MW2288
MW2289	2437473	2438087	-	MW2289
MW2290	2438401	2438916	-	MW2290
MW2291	2439107	2440111	+	MW2291
MW2292	2440354	2441601	+	MW2292
MW2293	2441877	2442278	-	MW2293
MW2294	2442314	2443348	-	MW2294
MW2295	2443580	2444011	-	MW2295
MW2296	2444218	2445495	-	MW2296
MW2297	2445656	2446279	+	MW2297
MW2298	2446325	2447269	+	MW2298
MW2299	2447354	2448796	-	scrA
MW2300	2448979	2449362	+	MW2300
MW2301	2450850	2452955	+	MW2301
MW2302	2453026	2453448	+	MW2302
MW2303	2453713	2454069	+	MW2303
MW2304	2454279	2455556	-	gltT
MW2305	2455738	2456103	-	MW2305
MW2306	2456501	2456947	+	MW2306
MW2307	2457169	2457591	+	MW2307
MW2308	2457698	2458867	-	narK
MW2309	2458938	2459057	+	MW2309
MW2310	2459236	2459760	+	MW2310
MW2311	2459786	2460151	+	MW2311
MW2312	2460130	2460870	+	MW2312
MW2313	2461128	2461781	-	MW2313
MW2314	2461804	2462838	-	MW2314
MW2315	2462862	2463314	-	MW2315
MW2316	2463334	2464011	-	narI
MW2317	2464004	2464594	-	MW2317
MW2318	2464572	2466131	-	narH
MW2319	2466121	2469810	-	narG
MW2320	2470118	2471095	-	nasF
MW2321	2471086	2471400	-	nasE
MW2322	2471404	2473809	-	nasD
MW2323	2473875	2474606	-	MW2323
MW2324	2474835	2475362	-	MW2324
MW2325	2475606	2476430	-	MW2325
MW2326	2476647	2476829	-	MW2326
MW2327	2476913	2477380	-	MW2327
MW2328	2477566	2479113	-	MW2328
MW2329	2479407	2479673	-	MW2329
MW2330	2479673	2479924	-	MW2330
MW2331	2480197	2480796	-	MW2331
MW2332	2480815	2481177	-	MW2332
MW2333	2481433	2482683	+	fmhA
MW2334	2482780	2483511	-	MW2334
MW2335	2483508	2484002	-	MW2335
MW2336	2484208	2484987	-	MW2336
MW2337	2485108	2486547	-	MW2337
MW2338	2486721	2486825	+	MW2338
MW2339	2486979	2487665	-	MW2339
MW2340	2487992	2488858	-	MW2340
MW2341	2489556	2490869	+	sbi
MW2342	2491405	2492334	+	hlgA
MW2343	2492902	2493849	+	hlgC
MW2344	2493851	2494828	+	hlgB
MW2345	2494880	2495347	-	MW2345
MW2346	2495358	2496050	-	MW2346
MW2347	2496061	2497176	-	MW2347
MW2348	2497154	2498161	-	bioB
MW2349	2498163	2499521	-	bioA
MW2350	2499499	2500185	-	bioD
MW2351	2500638	2502371	-	MW2351
MW2352	2502396	2504159	-	MW2352
MW2353	2504709	2504816	-	MW2353
MW2354	2504847	2505101	+	MW2354
MW2355	2505084	2505470	-	MW2355
MW2356	2505728	2506870	+	MW2356
MW2357	2506930	2507589	+	MW2357
MW2358	2507771	2508982	+	MW2358
MW2359	2509105	2509578	-	MW2359
MW2360	2509691	2510347	+	MW2360
MW2361	2510410	2511216	-	MW2361
MW2362	2511502	2512911	+	MW2362
MW2363	2513049	2515127	+	MW2363
MW2364	2515267	2517096	-	MW2364
MW2365	2517328	2518824	+	MW2365
MW2366	2518916	2519767	-	MW2366
MW2367	2520089	2521024	-	MW2367
MW2368	2521250	2522650	-	MW2368
MW2369	2522944	2523639	-	opuCD
MW2370	2523639	2524580	-	opuCC
MW2371	2524597	2525232	-	opuCB
MW2372	2525229	2526461	-	opuCA
MW2373	2527125	2527724	-	MW2373
MW2374	2527904	2529541	+	MW2374
MW2375	2529848	2531200	+	MW2375
MW2376	2531262	2532449	-	MW2376
MW2377	2532845	2533621	-	MW2377
MW2378	2533614	2534276	-	MW2378
MW2379	2534524	2535600	-	MW2379
MW2380	2535956	2536222	-	MW2380
MW2381	2536222	2536479	-	MW2381
MW2382	2536838	2537293	+	MW2382
MW2383	2537461	2539038	-	MW2383
MW2384	2539234	2539983	+	MW2384
MW2385	2540132	2540257	-	MW2385
MW2386	2540345	2541538	-	MW2386
MW2387	2541550	2542299	-	opp-1F
MW2388	2542292	2543107	-	opp-1D
MW2389	2543104	2543973	-	opp-1C
MW2390	2543970	2544905	-	opp-1B
MW2391	2544918	2546516	-	opp-1A
MW2392	2546656	2547960	-	MW2392
MW2393	2547953	2548771	-	MW2393
MW2394	2548782	2549603	-	MW2394
MW2395	2550354	2550716	-	MW2395
MW2396	2550979	2551797	-	MW2396
MW2397	2552032	2553570	+	MW2397
MW2398	2553682	2554104	-	MW2398
MW2399	2554556	2554975	-	MW2399
MW2400	2554993	2555412	-	MW2400
MW2401	2555439	2555849	-	MW2401
MW2402	2556117	2556539	-	MW2402
MW2403	2556790	2557485	-	MW2403
MW2404	2557774	2558055	+	MW2404
MW2405	2558315	2558506	-	MW2405
MW2406	2559046	2559861	-	MW2406
MW2407	2559975	2560766	-	MW2407
MW2408	2560881	2561642	-	MW2408
MW2409	2561953	2564808	-	MW2409
MW2410	2564810	2565202	-	MW2410
MW2411	2565391	2567142	+	MW2411
MW2412	2567426	2567692	+	MW2412
MW2413	2567836	2568144	+	MW2413
MW2414	2568252	2568485	-	MW2414
MW2415	2568466	2569659	-	MW2415
MW2416	2570042	2574157	-	MW2416
MW2417	2574462	2574821	-	sarT
MW2418	2575142	2575885	+	sarH2
MW2419	2576097	2576963	-	gtaB
MW2420	2577143	2579974	-	fnbB
MW2421	2580655	2583702	-	fnb
MW2422	2583837	2584037	-	MW2422
MW2423	2584171	2585529	-	gntP
MW2424	2585646	2587199	-	gntK
MW2425	2587223	2587903	-	gntR
MW2426	2588057	2588821	-	MW2426
MW2427	2588986	2589678	-	MW2427
MW2428	2589909	2590397	-	MW2428
MW2429	2590464	2592287	-	MW2429
MW2430	2592799	2593002	-	MW2430
MW2431	2593196	2594473	-	MW2431
MW2432	2595020	2595631	+	MW2432
MW2433	2596149	2596844	+	MW2433
MW2434	2596846	2597616	+	MW2434
MW2435	2597990	2599954	+	fbp
MW2436	2600100	2600177	+	MW2436
MW2437	2600296	2601375	+	MW2437
MW2438	2601480	2602073	-	MW2438
MW2439	2602104	2603063	-	MW2439
MW2440	2603140	2603574	-	MW2440
MW2441	2603800	2604084	+	MW2441
MW2442	2604258	2605064	+	MW2442
MW2443	2605185	2605856	-	MW2443
MW2444	2606063	2607118	+	ddh
MW2445	2607365	2608165	-	MW2445
MW2446	2608486	2609121	+	MW2446
MW2447	2609136	2609858	+	MW2447
MW2448	2610020	2610640	-	srtA
MW2449	2610834	2611325	+	MW2449
MW2450	2611891	2612061	-	MW2450
MW2451	2612240	2613139	-	MW2451
MW2452	2613153	2613833	-	MW2452
MW2453	2613836	2614879	-	MW2453
MW2454	2615429	2615632	+	MW2454
MW2455	2615824	2616750	+	MW2455
MW2456	2616831	2617799	-	MW2456
MW2457	2617932	2618276	-	MW2457
MW2458	2618318	2618728	-	MW2458
MW2459	2619093	2621159	-	ptsG
MW2460	2621460	2623199	-	MW2460
MW2461	2623246	2623935	-	MW2461
MW2462	2623928	2624323	-	MW2462
MW2463	2624536	2625363	-	MW2463
MW2464	2625581	2625799	+	MW2464
MW2465	2626189	2626620	+	MW2465
MW2466	2626758	2628038	-	mvaA
MW2467	2628292	2629458	+	mvaS
MW2468	2629628	2630149	-	adaB
MW2469	2630558	2632663	+	clpL
MW2470	2632732	2632902	-	MW2470
MW2471	2632915	2634909	-	feoB
MW2472	2634921	2635148	-	MW2472
MW2473	2635364	2637853	-	MW2473
MW2474	2637998	2638546	+	MW2474
MW2475	2638901	2640445	-	rocA
MW2476	2640635	2641234	-	MW2476
MW2477	2641473	2641664	+	MW2477
MW2478	2641904	2644312	+	copA
MW2479	2644661	2644867	+	MW2479
MW2480	2644957	2645955	-	MW2480
MW2481	2645978	2647132	-	MW2481
MW2482	2647559	2649067	-	crtN
MW2483	2649079	2649942	-	crtM
MW2484	2649979	2651106	-	MW2484
MW2485	2651112	2652605	-	MW2485
MW2486	2652598	2653095	-	MW2486
MW2487	2653261	2654028	-	MW2487
MW2488	2654389	2656200	-	MW2488
MW2489	2656712	2657200	-	MW2489
MW2490	2657476	2658177	-	isaA
MW2491	2658785	2659840	-	MW2491
MW2492	2660250	2660819	+	MW2492
MW2493	2661197	2661517	+	MW2493
MW2494	2661737	2661967	+	MW2494
MW2495	2662130	2662507	-	MW2495
MW2496	2662524	2663345	-	MW2496
MW2497	2663365	2663664	-	MW2497
MW2498	2663796	2664353	+	MW2498
MW2499	2664346	2665050	+	MW2499
MW2500	2665148	2666158	+	MW2500
MW2501	2666178	2667008	+	MW2501
MW2502	2667155	2668045	-	MW2502
MW2503	2668142	2669482	-	MW2503
MW2504	2669476	2670582	-	MW2504
MW2505	2670877	2671173	-	MW2505
MW2506	2671161	2671529	-	MW2506
MW2507	2671544	2671819	-	MW2507
MW2508	2672161	2673027	-	MW2508
MW2509	2673245	2674309	+	MW2509
MW2510	2674464	2674739	+	MW2510
MW2511	2674925	2675647	-	MW2511
MW2512	2676001	2676450	+	MW2512
MW2513	2676531	2677118	-	MW2513
MW2514	2677261	2678943	+	MW2514
MW2515	2679041	2679637	-	MW2515
MW2516	2679758	2680141	-	panD
MW2517	2680143	2680994	-	panC
MW2518	2680987	2681805	-	panB
MW2519	2681878	2682738	+	MW2519
MW2520	2682824	2683528	-	MW2520
MW2521	2683806	2684765	-	MW2521
MW2522	2685452	2686900	+	MW2522
MW2523	2686980	2688353	-	MW2523
MW2524	2688575	2688991	+	MW2524
MW2525	2689114	2690004	+	MW2525
MW2526	2690198	2691694	-	mqo2
MW2527	2692197	2692319	+	MW2527
MW2528	2692379	2693977	-	MW2528
MW2529	2694171	2694614	-	MW2529
MW2530	2694894	2695106	-	MW2530
MW2531	2695384	2697093	-	betA
MW2532	2697354	2698844	-	gbsA
MW2533	2699094	2699660	+	MW2533
MW2534	2699848	2700534	-	MW2534
MW2535	2700793	2702415	-	cudT
MW2536	2702934	2703470	-	MW2536
MW2537	2703467	2705317	-	nrdD
MW2538	2705563	2706933	-	MW2538
MW2539	2707409	2708014	-	MW2539
MW2540	2708077	2709957	-	MW2540
MW2541	2710352	2710849	-	MW2541
MW2542	2712273	2714273	-	MW2542
MW2543	2714270	2715025	-	MW2543
MW2544	2715133	2716020	-	MW2544
MW2545	2716031	2716696	-	MW2545
MW2546	2716722	2716922	-	MW2546
MW2547	2717120	2718544	+	phoB
MW2548	2718604	2718705	-	MW2548
MW2549	2718827	2719300	-	MW2549
MW2550	2719527	2720288	-	MW2550
MW2551	2720404	2723127	-	clfB
MW2552	2723477	2724181	-	MW2552
MW2553	2724280	2725248	-	arcC
MW2554	2725238	2726668	-	arcD
MW2555	2726759	2727769	-	arcB
MW2556	2727802	2729037	-	arcA
MW2557	2729384	2729833	-	MW2557
MW2558	2730200	2731729	-	aur
MW2559	2732153	2732680	-	isaB
MW2560	2732938	2733396	+	MW2560
MW2561	2733636	2735510	+	MW2561
MW2562	2735587	2737539	+	MW2562
MW2563	2737553	2738491	+	pmi
MW2564	2738603	2741584	-	MW2564
MW2565	2741795	2743654	+	MW2565
MW2566	2743919	2744479	-	MW2566
MW2567	2744648	2746555	-	MW2567
MW2568	2746797	2748155	-	MW2568
MW2569	2748148	2749656	-	MW2569
MW2570	2749674	2752064	-	MW2570
MW2571	2752054	2753094	-	MW2571
MW2572	2752991	2754559	-	MW2572
MW2573	2754549	2756102	-	MW2573
MW2574	2756113	2757324	-	MW2574
MW2575	2757454	2764281	-	MW2575
MW2576	2764826	2765518	-	MW2576
MW2577	2765831	2766775	+	MW2577
MW2578	2767218	2767577	+	MW2578
MW2579	2767662	2768273	-	MW2579
MW2580	2768352	2768828	-	MW2580
MW2581	2768831	2769331	-	MW2581
MW2582	2769566	2770333	-	MW2582
MW2583	2770330	2771022	-	MW2583
MW2584	2771039	2771701	-	MW2584
MW2585	2772550	2773110	-	icaR
MW2586	2773274	2774512	+	icaA
MW2587	2774476	2774781	+	icaD
MW2588	2774778	2775650	+	icaB
MW2589	2775637	2776689	+	icaC
MW2590	2777135	2779180	-	lip
MW2591	2780270	2780902	-	hisI
MW2592	2780899	2781657	-	hisF
MW2593	2781654	2782358	-	MW2593
MW2594	2782351	2782929	-	hisH
MW2595	2782926	2783504	-	hisB
MW2596	2783473	2784486	-	MW2596
MW2597	2784502	2785752	-	MW2597
MW2598	2785745	2786359	-	hisG
MW2599	2786377	2787195	-	MW2599
MW2600	2787499	2788623	-	MW2600
MW2601	2788741	2789238	-	MW2601
MW2602	2789285	2790118	-	MW2602
MW2603	2790115	2791827	-	MW2603
MW2604	2791880	2792434	-	MW2604
MW2605	2792463	2793311	-	MW2605
MW2606	2793691	2794206	+	MW2606
MW2607	2794317	2794481	-	MW2607
MW2608	2794686	2795660	-	drp35
MW2609	2795901	2796857	+	MW2609
MW2610	2797009	2797647	+	pcp
MW2611	2797751	2798215	+	MW2611
MW2612	2798376	2801927	-	MW2612
MW2613	2802305	2803723	+	MW2613
MW2614	2803851	2803934	-	MW2614
MW2615	2804136	2805044	-	MW2615
MW2616	2805266	2805841	+	MW2616
MW2617	2806007	2807023	+	MW2617
MW2618	2807260	2808060	+	MW2618
MW2619	2808194	2808706	-	MW2619
MW2620	2808989	2809747	+	vraD
MW2621	2809737	2811617	+	vraE
MW2622	2811710	2811901	+	MW2622
MW2623	2812294	2812494	+	cspB
MW2624	2812612	2813181	-	MW2624
MW2625	2813441	2813836	-	MW2625
MW2626	2813904	2814257	-	MW2626
MW2627	2814574	2815413	-	MW2627
MW2628	2815456	2816175	-	gidB
MW2629	2816175	2818052	-	gidA
MW2630	2818119	2819498	-	thdF
MW2631	2819637	2819984	-	rnpA
MW2632	2820111	2820248	-	rpmH
