SAHV_0001	517	1878	+	dnaA
SAHV_0002	2156	3289	+	dnaN
SAHV_0003	3670	3915	+	SAHV_0003
SAHV_0004	3912	5024	+	recF
SAHV_0005	5034	6968	+	gyrB
SAHV_0006	7005	9674	+	gyrA
SAHV_0007	9762	10592	-	SAHV_0007
SAHV_0008	10879	12414	+	hutH
SAHV_0009	12793	14079	+	serS
SAHV_0010	14730	15425	+	SAHV_0010
SAHV_0011	15422	15751	+	SAHV_0011
SAHV_0012	16094	17083	+	SAHV_0012
SAHV_0013	17319	18314	+	SAHV_0013
SAHV_0014	18329	20296	+	SAHV_0014
SAHV_0015	20293	20739	+	rplI
SAHV_0016	20771	22171	+	dnaC
SAHV_0017	22449	23732	+	purA
SAHV_0018	24929	25636	+	vicR
SAHV_0019	25649	27475	+	vicK
SAHV_0020	27441	28802	+	SAHV_0020
SAHV_0021	28803	29591	+	SAHV_0021
SAHV_0022	29980	30780	+	SAHV_0022
SAHV_0023	31007	33325	+	SAHV_0023
SAHV_0024	33693	34172	+	SAHV_0024
SAHV_0025	34455	35750	+	SAHV_0025
SAHV_0026	36165	36404	+	SAHV_0026
SAHV_0027	36436	37110	-	tnp
SAHV_0028	37201	37407	-	SAHV_0028
SAHV_0029	37411	38205	-	SAHV_0029
SAHV_0030	38230	38310	-	SAHV_0030
SAHV_0031	38429	39691	-	pre
SAHV_0032	39800	39940	+	SAHV_0032
SAHV_0033	39988	40179	+	SAHV_0033
SAHV_0034	40198	40602	-	bleO
SAHV_0035	40819	41589	-	aadD
SAHV_0036	42007	42456	-	tnp
SAHV_0037	42540	42881	+	SAHV_0037
SAHV_0038	43678	44421	+	SAHV_0038
SAHV_0039	44518	44946	+	SAHV_0039
SAHV_0040	44992	46998	-	mecA
SAHV_0041	47098	48855	+	mecR1
SAHV_0042	48855	49226	+	mecI
SAHV_0043	49713	50843	+	xylR
SAHV_0044	50957	51349	-	SAHV_0044
SAHV_0045	51353	52291	-	SAHV_0045
SAHV_0046	52324	53388	-	SAHV_0046
SAHV_0047	53524	53784	+	SAHV_0047
SAHV_0048	53784	54428	+	SAHV_0048
SAHV_0049	54767	55435	-	SAHV_0049
SAHV_0050	55788	55961	-	SAHV_0050
SAHV_0051	55963	56694	+	ermA
SAHV_0052	56820	57602	-	ant(9)
SAHV_0053	57753	58130	-	tnpC
SAHV_0054	58137	60029	-	tnpB
SAHV_0055	60026	61111	-	tnpA
SAHV_0056	61230	61547	-	SAHV_0056
SAHV_0057	61568	62086	-	SAHV_0057
SAHV_0058	62092	62403	-	SAHV_0058
SAHV_0059	62490	62840	-	SAHV_0059
SAHV_0060	63358	64986	-	ccrB
SAHV_0061	65008	66357	-	ccrA
SAHV_0062	66591	68384	-	SAHV_0062
SAHV_0063	68384	68680	-	SAHV_0063
SAHV_0064	68873	69919	-	SAHV_0064
SAHV_0065	70170	70547	-	tnp
SAHV_0066	70659	71012	-	tnp
SAHV_0067	70997	71311	-	SAHV_0067
SAHV_0068	71822	72406	-	SAHV_0068
SAHV_0069	73470	74165	-	kdpE
SAHV_0070	74140	76773	-	kdpD
SAHV_0071	77077	78753	+	SAHV_0071
SAHV_0072	78772	80793	+	kdpB
SAHV_0073	80842	81366	+	kdpC
SAHV_0074	81911	82780	-	SAHV_0074
SAHV_0075	82790	83692	-	SAHV_0075
SAHV_0076	83728	83853	+	SAHV_0076
SAHV_0077	83886	84365	-	SAHV_0077
SAHV_0078	84428	84760	-	SAHV_0078
SAHV_0079	84805	85431	-	SAHV_0079
SAHV_0080	85546	87054	+	SAHV_0080
SAHV_0081	87653	89386	+	SAHV_0081
SAHV_0082	89570	89908	-	SAHV_0082
SAHV_0083	90330	91085	-	SAHV_0083
SAHV_0084	91085	91345	-	SAHV_0084
SAHV_0085	91482	92546	+	SAHV_0085
SAHV_0086	92577	93911	+	SAHV_0086
SAHV_0087	93930	95123	+	SAHV_0087
SAHV_0088	95790	96776	-	SAHV_0088
SAHV_0089	97085	97288	+	SAHV_0089
SAHV_0090	97337	97633	+	SAHV_0090
SAHV_0091	97832	98443	+	SAHV_0091
SAHV_0092	98710	101862	+	SAHV_0092
SAHV_0093	101919	102401	+	SAHV_0093
SAHV_0094	102607	103593	+	plc
SAHV_0095	103814	104584	+	SAHV_0095
SAHV_0096	104636	105406	+	SAHV_0096
SAHV_0097	105474	106241	+	SAHV_0097
SAHV_0098	106306	107076	+	SAHV_0098
SAHV_0099	107143	107910	+	SAHV_0099
SAHV_0100	108007	110244	+	SAHV_0100
SAHV_0101	110395	111573	+	SAHV_0101
SAHV_0102	111575	112963	+	SAHV_0102
SAHV_0103	113447	115114	-	SAHV_0103
SAHV_0104	115206	115376	-	SAHV_0104
SAHV_0105	115433	117208	-	SAHV_0105
SAHV_0106	117382	118254	-	SAHV_0106
SAHV_0107	118436	119764	+	SAHV_0107
SAHV_0108	119954	120427	+	SAHV_0108
SAHV_0109	120689	122281	+	lctP
SAHV_0110	122610	123962	-	spa
SAHV_0111	124383	125135	-	sarH1
SAHV_0112	125504	126421	-	sirC
SAHV_0113	126499	127494	-	sirB
SAHV_0114	127510	128502	-	sirA
SAHV_0115	128733	129713	+	SAHV_0115
SAHV_0116	129710	130720	+	SAHV_0116
SAHV_0117	130741	132495	+	SAHV_0117
SAHV_0118	132488	133744	+	SAHV_0118
SAHV_0119	133734	135470	+	SAHV_0119
SAHV_0120	135451	137229	+	SAHV_0120
SAHV_0121	137201	137980	+	SAHV_0121
SAHV_0122	137980	139182	+	SAHV_0122
SAHV_0123	139186	139950	+	SAHV_0123
SAHV_0124	140146	140772	+	SAHV_0124
SAHV_0125	140984	141760	+	butA
SAHV_0126	141809	141961	-	SAHV_0126
SAHV_0127	142104	143075	+	SAHV_0127
SAHV_0128	143038	143730	+	SAHV_0128
SAHV_0129	143940	145106	+	SAHV_0129
SAHV_0130	145087	146325	+	SAHV_0130
SAHV_0131	146315	147745	+	SAHV_0131
SAHV_0132	148013	148612	+	sodM
SAHV_0133	148979	149704	+	SAHV_0133
SAHV_0134	149895	150635	-	SAHV_0134
SAHV_0135	150886	151593	+	pnp
SAHV_0136	151600	152952	+	SAHV_0136
SAHV_0137	153033	153695	+	dra
SAHV_0138	153723	154901	+	drm
SAHV_0139	155030	155845	-	SAHV_0139
SAHV_0140	155842	156642	-	SAHV_0140
SAHV_0141	156644	157417	-	SAHV_0141
SAHV_0142	157612	158568	-	SAHV_0142
SAHV_0143	158797	160341	+	SAHV_0143
SAHV_0144	160392	161927	+	SAHV_0144
SAHV_0145	162084	162851	+	SAHV_0145
SAHV_0146	162857	164032	+	SAHV_0146
SAHV_0147	164417	167026	+	adhE
SAHV_0148	167369	168037	+	capA
SAHV_0149	168053	168739	+	capB
SAHV_0150	168742	169506	+	capC
SAHV_0151	169526	171349	+	capD
SAHV_0152	171339	172367	+	capE
SAHV_0153	172380	173489	+	capF
SAHV_0154	173493	174617	+	capG
SAHV_0155	174620	175246	+	capH
SAHV_0156	175251	176360	+	capI
SAHV_0157	176374	177540	+	capJ
SAHV_0158	177533	178738	+	capK
SAHV_0159	178739	179944	+	capL
SAHV_0160	179955	180512	+	capM
SAHV_0161	180512	181399	+	capN
SAHV_0162	181453	182715	+	capO
SAHV_0163	182762	183937	+	capP
SAHV_0164	184002	184328	-	SAHV_0164
SAHV_0165	184335	184718	-	SAHV_0165
SAHV_0166	185145	186632	+	aldA
SAHV_0167	187279	188238	+	SAHV_0167
SAHV_0168	188348	188503	-	SAHV_0168
SAHV_0169	188533	188736	-	SAHV_0169
SAHV_0170	188915	189427	+	SAHV_0170
SAHV_0171	189769	190509	+	SAHV_0171
SAHV_0172	190523	191494	+	SAHV_0172
SAHV_0173	191491	192252	+	SAHV_0173
SAHV_0174	192265	193296	+	SAHV_0174
SAHV_0175	193522	193872	+	SAHV_0175
SAHV_0176	193947	195071	+	fdh
SAHV_0177	195457	196707	+	SAHV_0177
SAHV_0178	197154	204329	+	SAHV_0178
SAHV_0179	204342	204986	+	SAHV_0179
SAHV_0180	205314	205808	-	SAHV_0180
SAHV_0181	206063	206827	-	SAHV_0181
SAHV_0182	206843	208084	-	argJ
SAHV_0183	208096	209127	-	argC
SAHV_0184	209166	210350	-	SAHV_0184
SAHV_0185	210609	211958	-	SAHV_0185
SAHV_0186	212237	212734	-	SAHV_0186
SAHV_0187	212861	214501	-	SAHV_0187
SAHV_0188	214773	216818	-	glcA
SAHV_0189	217403	218458	+	SAHV_0189
SAHV_0190	218455	219354	+	SAHV_0190
SAHV_0191	219366	220820	+	SAHV_0191
SAHV_0192	220823	221698	+	SAHV_0192
SAHV_0193	221892	222173	-	SAHV_0193
SAHV_0194	222386	225175	+	hsdR
SAHV_0195	225322	225921	-	SAHV_0195
SAHV_0196	226047	227159	+	SAHV_0196
SAHV_0197	227156	227836	+	SAHV_0197
SAHV_0198	227833	229011	+	SAHV_0198
SAHV_0199	229218	229439	+	SAHV_0199
SAHV_0200	229477	231195	+	SAHV_0200
SAHV_0201	231254	231697	+	SAHV_0201
SAHV_0202	231709	232431	+	SAHV_0202
SAHV_0203	232418	232594	+	SAHV_0203
SAHV_0204	233304	234896	-	oppF
SAHV_0205	234994	236331	+	SAHV_0205
SAHV_0206	236337	237500	+	SAHV_0206
SAHV_0207	237517	239292	+	rlp
SAHV_0208	239330	241336	+	SAHV_0208
SAHV_0209	241649	242422	-	SAHV_0209
SAHV_0210	242611	243237	-	SAHV_0210
SAHV_0211	243446	244024	+	SAHV_0211
SAHV_0212	244408	245505	+	msmX
SAHV_0213	245518	246789	+	SAHV_0213
SAHV_0214	246792	248060	+	SAHV_0214
SAHV_0215	248062	248901	+	SAHV_0215
SAHV_0216	248972	250051	+	SAHV_0216
SAHV_0217	250076	251116	+	SAHV_0217
SAHV_0218	251171	252139	+	SAHV_0218
SAHV_0219	252500	252994	-	SAHV_0219
SAHV_0220	253227	253946	+	uhpT
SAHV_0221	253950	254606	+	uhpT
SAHV_0222	254965	255723	-	SAHV_0222
SAHV_0223	255716	257272	-	SAHV_0223
SAHV_0224	257269	258237	-	SAHV_0224
SAHV_0225	258825	261074	+	pflB
SAHV_0226	261097	261852	+	pflA
SAHV_0227	262174	263937	+	SAHV_0227
SAHV_0228	264101	264445	-	SAHV_0228
SAHV_0229	264635	266611	+	coa
SAHV_0230	267198	268382	-	SAHV_0230
SAHV_0231	268412	270673	-	SAHV_0231
SAHV_0232	270859	272070	-	SAHV_0232
SAHV_0233	272182	273687	-	SAHV_0233
SAHV_0234	273713	275275	-	SAHV_0234
SAHV_0235	275731	276873	+	SAHV_0235
SAHV_0236	277187	278662	-	SAHV_0236
SAHV_0237	278860	279216	-	SAHV_0237
SAHV_0238	279373	279546	-	SAHV_0238
SAHV_0239	279572	280717	-	SAHV_0239
SAHV_0240	281290	282243	+	lctE
SAHV_0241	282563	284092	-	SAHV_0241
SAHV_0242	284454	285389	+	SAHV_0242
SAHV_0243	285726	287822	+	SAHV_0243
SAHV_0244	287807	288274	+	SAHV_0244
SAHV_0245	288297	288575	+	SAHV_0245
SAHV_0246	288802	290061	+	gatC
SAHV_0247	290079	291134	+	SAHV_0247
SAHV_0248	291136	291282	+	SAHV_0248
SAHV_0249	291306	292349	+	SAHV_0249
SAHV_0250	292877	293593	+	SAHV_0250
SAHV_0251	293586	294611	+	SAHV_0251
SAHV_0252	294633	296327	+	SAHV_0252
SAHV_0253	296755	297924	+	SAHV_0253
SAHV_0254	298200	298916	+	SAHV_0254
SAHV_0255	298909	299934	+	SAHV_0255
SAHV_0256	299956	301644	+	SAHV_0256
SAHV_0257	301677	303398	+	SAHV_0257
SAHV_0258	303542	304216	+	scdA
SAHV_0259	304461	306215	+	lytS
SAHV_0260	306218	306958	+	lytR
SAHV_0261	307077	307514	+	lrgA
SAHV_0262	307507	308208	+	lrgB
SAHV_0263	308316	309020	-	SAHV_0263
SAHV_0264	309169	309960	+	SAHV_0264
SAHV_0265	309976	311412	+	bglA
SAHV_0266	311899	312660	-	SAHV_0266
SAHV_0267	312911	313825	-	rbsK
SAHV_0268	313853	314257	-	rbsD
SAHV_0269	314272	315153	-	SAHV_0269
SAHV_0270	315385	316383	-	SAHV_0270
SAHV_0271	316764	317156	+	SAHV_0271
SAHV_0272	317284	318660	-	SAHV_0272
SAHV_0273	318894	319886	+	SAHV_0273
SAHV_0274	320212	321162	+	lytM
SAHV_0275	321214	321873	-	SAHV_0275
SAHV_0276	321887	322807	-	SAHV_0276
SAHV_0277	322804	323970	-	SAHV_0277
SAHV_0278	324038	325561	-	SAHV_0278
SAHV_0279	325892	326785	-	SAHV_0279
SAHV_0280	327033	327326	+	SAHV_0280
SAHV_0281	327409	330438	+	SAHV_0281
SAHV_0282	330438	330896	+	SAHV_0282
SAHV_0283	330868	331110	+	SAHV_0283
SAHV_0284	331123	332457	+	SAHV_0284
SAHV_0285	332479	336918	+	SAHV_0285
SAHV_0286	336948	337340	+	SAHV_0286
SAHV_0287	337356	337670	+	SAHV_0287
SAHV_0288	337667	338344	+	SAHV_0288
SAHV_0289	338344	338661	+	SAHV_0289
SAHV_0290	338671	340515	+	SAHV_0290
SAHV_0291	340526	341017	+	SAHV_0291
SAHV_0292	341220	341903	+	SAHV_0292
SAHV_0293	342049	342660	+	SAHV_0293
SAHV_0294	342795	343013	+	SAHV_0294
SAHV_0295	343145	343645	+	SAHV_0295
SAHV_0296	343656	344156	+	SAHV_0296
SAHV_0297	344167	344628	+	SAHV_0297
SAHV_0298	344677	345177	+	SAHV_0298
SAHV_0299	345188	345673	+	SAHV_0299
SAHV_0300	346298	346672	+	SAHV_0300
SAHV_0301	346822	347220	+	SAHV_0301
SAHV_0302	347436	348260	-	SAHV_0302
SAHV_0303	348497	349804	-	SAHV_0303
SAHV_0304	350388	351278	+	SAHV_0304
SAHV_0305	351527	352576	+	SAHV_0305
SAHV_0306	352589	353266	+	SAHV_0306
SAHV_0307	353474	354505	+	SAHV_0307
SAHV_0308	354848	355966	+	SAHV_0308
SAHV_0309	355941	356864	+	SAHV_0309
SAHV_0310	356875	358095	+	SAHV_0310
SAHV_0311	358200	359732	-	SAHV_0311
SAHV_0312	359772	360653	-	nanA
SAHV_0313	360811	361671	+	SAHV_0313
SAHV_0314	361948	362748	-	SAHV_0314
SAHV_0315	362888	363556	+	SAHV_0315
SAHV_0316	363687	365000	-	SAHV_0316
SAHV_0317	365418	367493	+	geh
SAHV_0318	367735	368562	-	SAHV_0318
SAHV_0319	368635	369834	-	SAHV_0319
SAHV_0320	370136	371137	+	SAHV_0320
SAHV_0321	371171	371503	+	SAHV_0321
SAHV_0322	371504	372304	+	SAHV_0322
SAHV_0323	372291	373238	+	SAHV_0323
SAHV_0324	373216	374238	+	SAHV_0324
SAHV_0325	374554	375579	+	SAHV_0325
SAHV_0326	375673	377019	-	SAHV_0326
SAHV_0327	377034	377318	-	SAHV_0327
SAHV_0328	377320	377763	-	SAHV_0328
SAHV_0329	377768	379723	-	SAHV_0329
SAHV_0330	379935	380354	+	SAHV_0330
SAHV_0331	380461	381816	+	SAHV_0331
SAHV_0332	381920	382378	+	SAHV_0332
SAHV_0333	382442	382684	-	glpT
SAHV_0334	382736	383800	-	glpT
SAHV_0335	384112	385038	+	SAHV_0335
SAHV_0336	385052	386113	+	SAHV_0336
SAHV_0337	386127	386693	+	SAHV_0337
SAHV_0338	386752	387747	-	SAHV_0338
SAHV_0339	388112	388657	+	SAHV_0339
SAHV_0340	388924	389778	+	SAHV_0340
SAHV_0341	389889	391004	+	SAHV_0341
SAHV_0342	390982	392697	+	SAHV_0342
SAHV_0343	392938	393600	-	SAHV_0343
SAHV_0344	393656	393871	-	SAHV_0344
SAHV_0345	393979	394368	-	SAHV_0345
SAHV_0346	394608	394811	+	SAHV_0346
SAHV_0347	394808	395521	+	SAHV_0347
SAHV_0348	395546	396388	+	SAHV_0348
SAHV_0349	396388	397017	+	SAHV_0349
SAHV_0350	397404	398537	-	SAHV_0350
SAHV_0351	399076	400257	+	SAHV_0351
SAHV_0352	400340	401092	-	SAHV_0352
SAHV_0353	401135	403363	-	metE
SAHV_0354	403360	405201	-	SAHV_0354
SAHV_0355	405170	406330	-	SAHV_0355
SAHV_0356	406327	407430	-	SAHV_0356
SAHV_0357	408101	408937	+	SAHV_0357
SAHV_0358	409091	409972	+	SAHV_0358
SAHV_0359	410002	410205	+	SAHV_0359
SAHV_0360	410217	411314	+	SAHV_0360
SAHV_0361	411400	411591	-	SAHV_0361
SAHV_0362	411835	412131	+	rpsF
SAHV_0363	412152	412655	+	ssb
SAHV_0364	412707	412949	+	rpsR
SAHV_0365	413226	414200	-	SAHV_0365
SAHV_0366	414252	414506	-	SAHV_0366
SAHV_0367	415122	415733	+	SAHV_0367
SAHV_0368	416102	416470	+	SAHV_0368
SAHV_0369	416651	417223	+	SAHV_0369
SAHV_0370	417360	417623	-	SAHV_0370
SAHV_0371	417923	418174	+	SAHV_0371
SAHV_0372	418213	418422	-	SAHV_0372
SAHV_0373	418576	419181	+	SAHV_0373
SAHV_0374	419247	419630	-	SAHV_0374
SAHV_0375	419900	420526	-	SAHV_0375
SAHV_0376	420599	420790	-	SAHV_0376
SAHV_0377	420970	422493	-	ahpF
SAHV_0378	422509	423078	-	ahpC
SAHV_0379	423570	424325	+	SAHV_0379
SAHV_0380	424405	425793	-	SAHV_0380
SAHV_0381	426640	427959	+	tnp
SAHV_0382	428291	429247	-	SAHV_0382
SAHV_0383	429365	430027	-	SAHV_0383
SAHV_0384	430170	430577	-	SAHV_0384
SAHV_0385	431090	431668	+	xprT
SAHV_0386	431668	432936	+	pbuX
SAHV_0387	432974	434440	+	guaB
SAHV_0388	434465	436006	+	guaA
SAHV_0389	436074	437267	-	int
SAHV_0390	437294	437494	-	SAHV_0390
SAHV_0391	437992	438222	-	SAHV_0391
SAHV_0392	438219	438701	-	SAHV_0392
SAHV_0393	438830	438940	-	SAHV_0393
SAHV_0394	439172	439525	+	SAHV_0394
SAHV_0395	439868	441787	-	tetM
SAHV_0396	442164	443126	-	SAHV_0396
SAHV_0397	443110	444132	-	SAHV_0397
SAHV_0398	444129	446156	-	SAHV_0398
SAHV_0399	446153	448606	-	SAHV_0399
SAHV_0400	448590	449027	-	SAHV_0400
SAHV_0401	449057	449695	-	SAHV_0401
SAHV_0402	449751	450251	-	SAHV_0402
SAHV_0403	450312	451091	-	SAHV_0403
SAHV_0404	451133	451354	-	SAHV_0404
SAHV_0405	451638	452822	-	SAHV_0405
SAHV_0406	453004	454407	-	SAHV_0406
SAHV_0407	454429	455202	-	SAHV_0407
SAHV_0408	455212	455589	-	SAHV_0408
SAHV_0409	455610	455924	-	SAHV_0409
SAHV_0410	456124	457917	-	SAHV_0410
SAHV_0411	457914	460103	-	SAHV_0411
SAHV_0412	460237	461427	-	tnp
SAHV_0413	461921	462457	-	SAHV_0413
SAHV_0414	462849	463553	-	SAHV_0414
SAHV_0415	463952	464248	-	SAHV_0415
SAHV_0416	464485	464637	-	SAHV_0416
SAHV_0417	465169	465528	-	SAHV_0417
SAHV_0418	465547	466392	-	SAHV_0418
SAHV_0419	466864	467544	+	set6
SAHV_0420	467830	468525	+	set7
SAHV_0421	468816	469886	+	set8
SAHV_0422	470250	471128	+	set9
SAHV_0423	471492	472196	+	set10
SAHV_0424	472642	473337	+	set11
SAHV_0425	473676	474374	+	set12
SAHV_0426	474751	475449	+	set13
SAHV_0427	475815	476498	+	set14
SAHV_0428	476551	476709	+	SAHV_0428
SAHV_0429	476762	478318	+	hsdM
SAHV_0430	478311	479522	+	hsdS
SAHV_0431	479905	480588	+	set15
SAHV_0432	480610	482097	+	SAHV_0432
SAHV_0433	482307	482513	-	SAHV_0433
SAHV_0434	482850	483653	+	lpl1
SAHV_0435	483684	484478	+	lpl2
SAHV_0436	484523	485311	+	lpl3
SAHV_0437	485635	486117	+	SAHV_0437
SAHV_0438	486178	486963	+	SAHV_0438
SAHV_0439	486982	487764	+	lpl5
SAHV_0440	487821	488615	+	lpl6
SAHV_0441	488667	489467	+	lpl7
SAHV_0442	489486	490268	+	lpl8
SAHV_0443	490447	491262	+	lpl9
SAHV_0444	491252	492577	+	SAHV_0444
SAHV_0445	492574	492897	+	SAHV_0445
SAHV_0446	492916	493230	+	SAHV_0446
SAHV_0447	493519	493719	-	SAHV_0447
SAHV_0448	493898	495100	+	SAHV_0448
SAHV_0449	495514	495657	-	SAHV_0449
SAHV_0450	496688	498172	+	ndhF
SAHV_0451	498185	500890	+	SAHV_0451
SAHV_0452	501052	501414	+	SAHV_0452
SAHV_0453	501643	501885	-	SAHV_0453
SAHV_0454	502097	502771	+	SAHV_0454
SAHV_0455	502808	503542	+	SAHV_0455
SAHV_0456	503911	505251	+	SAHV_0456
SAHV_0457	505468	506373	+	cysM
SAHV_0458	506366	507508	+	yrhB
SAHV_0459	507803	508828	+	SAHV_0459
SAHV_0460	508832	509491	+	SAHV_0460
SAHV_0461	509528	510370	+	SAHV_0461
SAHV_0462	510702	511706	+	sle1
SAHV_0463	511891	512169	-	SAHV_0463
SAHV_0464	512309	512704	+	SAHV_0464
SAHV_0465	512694	513179	+	SAHV_0465
SAHV_0466	513348	514130	-	SAHV_0466
SAHV_0467	514127	515239	-	SAHV_0467
SAHV_0468	515360	516244	-	gltC
SAHV_0469	516425	520924	+	gltB
SAHV_0470	520942	522405	+	gltD
SAHV_0471	523235	524662	+	treP
SAHV_0472	524726	526366	+	SAHV_0472
SAHV_0473	526391	527119	+	SAHV_0473
SAHV_0474	527762	528286	+	SAHV_0474
SAHV_0475	528355	530052	+	dnaX
SAHV_0476	530142	530459	+	SAHV_0476
SAHV_0477	530466	531062	+	recR
SAHV_0478	537853	539190	+	SAHV_0478
SAHV_0479	539192	539809	+	tmk
SAHV_0480	539837	540166	+	SAHV_0480
SAHV_0481	540380	541306	+	holB
SAHV_0482	541475	542110	+	SAHV_0482
SAHV_0483	542106	542474	+	SAHV_0483
SAHV_0484	542748	543473	+	SAHV_0484
SAHV_0485	543466	543714	+	SAHV_0485
SAHV_0486	543716	544555	+	SAHV_0486
SAHV_0487	544840	546813	+	metS
SAHV_0488	546844	547617	+	SAHV_0488
SAHV_0489	547784	548320	+	SAHV_0489
SAHV_0490	548331	549224	+	ksgA
SAHV_0491	549324	549587	+	veg
SAHV_0492	549897	550745	+	SAHV_0492
SAHV_0493	550759	551583	+	purR
SAHV_0494	551600	551980	+	SAHV_0494
SAHV_0495	552028	552354	+	spoVG
SAHV_0496	552761	554113	+	gcaD
SAHV_0497	554260	555225	+	prs
SAHV_0498	555375	556028	+	rplY
SAHV_0499	556339	556911	+	pth
SAHV_0500	556911	560417	+	mfd
SAHV_0501	560407	561933	+	SAHV_0501
SAHV_0502	561933	563126	+	SAHV_0502
SAHV_0503	563123	563386	+	SAHV_0503
SAHV_0504	563404	563796	+	SAHV_0504
SAHV_0505	563901	564302	+	SAHV_0505
SAHV_0506	564482	565777	+	SAHV_0506
SAHV_0507	565782	566321	+	SAHV_0507
SAHV_0508	566578	568671	+	ftsH
SAHV_0509	568899	569780	+	SAHV_0509
SAHV_0510	569959	570891	+	cysK
SAHV_0511	571107	571910	+	folP
SAHV_0512	571888	572253	+	folB
SAHV_0513	572250	572726	+	folK
SAHV_0514	573265	574752	+	lysS
SAHV_0515	581805	583187	-	SAHV_0515
SAHV_0516	583291	584178	+	SAHV_0516
SAHV_0517	584182	584742	+	SAHV_0517
SAHV_0518	584950	586164	-	nupC
SAHV_0519	586322	586783	+	ctsR
SAHV_0520	586802	587368	+	SAHV_0520
SAHV_0521	587358	588365	+	SAHV_0521
SAHV_0522	588379	590835	+	clpC
SAHV_0523	591320	592684	+	radA
SAHV_0524	592709	593782	+	SAHV_0524
SAHV_0525	594339	595793	+	gltX
SAHV_0526	596222	596863	+	cysE
SAHV_0527	596847	598247	+	cysS
SAHV_0528	598240	598644	+	cysS
SAHV_0529	598652	599398	+	SAHV_0529
SAHV_0530	599398	599922	+	SAHV_0530
SAHV_0531	600003	600572	+	SAHV_0531
SAHV_0532	600886	601068	+	secE
SAHV_0533	601081	601629	+	nusG
SAHV_0534	601767	601817	+	SAHV_0534
SAHV_0535	601810	602232	+	rplK
SAHV_0536	602440	603132	+	rplA
SAHV_0537	603404	603904	+	rplJ
SAHV_0538	603947	604315	+	rplL
SAHV_0539	604490	605098	+	SAHV_0539
SAHV_0540	605313	608864	+	rpoB
SAHV_0541	609001	612624	+	rpoC
SAHV_0542	612761	613015	+	SAHV_0542
SAHV_0543	613113	613526	+	rpsL
SAHV_0544	613592	614062	+	rpsG
SAHV_0545	614185	616266	+	fus
SAHV_0546	616483	617667	+	tufA
SAHV_0547	617949	619124	-	SAHV_0547
SAHV_0548	619331	620482	+	SAHV_0548
SAHV_0549	620752	621630	+	SAHV_0549
SAHV_0550	621789	623426	+	araB
SAHV_0551	623640	624605	+	SAHV_0551
SAHV_0552	624941	626017	+	ilvE
SAHV_0553	626267	626950	+	SAHV_0553
SAHV_0554	627066	627728	-	SAHV_0554
SAHV_0555	627721	628338	-	SAHV_0555
SAHV_0556	628405	628875	+	SAHV_0556
SAHV_0557	629022	629891	+	SAHV_0557
SAHV_0558	629913	630479	+	SAHV_0558
SAHV_0559	630909	633770	+	sdrC
SAHV_0560	634137	638294	+	sdrD
SAHV_0561	638688	642113	+	sdrE
SAHV_0562	642234	643706	+	SAHV_0562
SAHV_0563	643831	645321	-	SAHV_0563
SAHV_0564	645603	646481	-	SAHV_0564
SAHV_0565	646494	647159	-	SAHV_0565
SAHV_0566	647173	647532	-	SAHV_0566
SAHV_0567	647811	648569	+	nagB
SAHV_0568	648646	649278	+	SAHV_0568
SAHV_0569	649280	649828	+	SAHV_0569
SAHV_0570	649941	650588	+	SAHV_0570
SAHV_0571	651090	652490	+	proP
SAHV_0572	652825	653034	+	SAHV_0572
SAHV_0573	653034	654410	+	vraA
SAHV_0574	654412	655551	+	vraB
SAHV_0575	655526	655891	+	vraC
SAHV_0576	655894	656163	+	SAHV_0576
SAHV_0577	656364	656531	-	SAHV_0577
SAHV_0578	657038	657868	-	SAHV_0578
SAHV_0579	658052	658708	+	ung
SAHV_0580	658709	659089	+	SAHV_0580
SAHV_0581	659222	659590	+	SAHV_0581
SAHV_0582	659711	661195	+	SAHV_0582
SAHV_0583	661336	661788	-	SAHV_0583
SAHV_0584	661801	662451	-	SAHV_0584
SAHV_0585	663114	663866	-	SAHV_0585
SAHV_0586	664034	665020	+	pta
SAHV_0587	665023	665859	+	SAHV_0587
SAHV_0588	666527	667366	+	mvaK1
SAHV_0589	667371	668354	+	mvaD
SAHV_0590	668367	669443	+	mvaK2
SAHV_0591	669620	669961	+	SAHV_0591
SAHV_0592	670013	671461	-	SAHV_0592
SAHV_0593	671322	671762	-	SAHV_0593
SAHV_0594	672387	673781	+	SAHV_0594
SAHV_0595	673785	674417	+	SAHV_0595
SAHV_0596	674464	675084	+	SAHV_0596
SAHV_0597	675224	675856	+	SAHV_0597
SAHV_0598	676304	677242	+	SAHV_0598
SAHV_0599	677688	678224	+	SAHV_0599
SAHV_0600	678392	678868	+	SAHV_0600
SAHV_0601	678908	680203	+	SAHV_0601
SAHV_0602	680246	680752	+	SAHV_0602
SAHV_0603	681251	682261	+	adh1
SAHV_0604	682525	682953	+	SAHV_0604
SAHV_0605	682950	684611	+	argS
SAHV_0606	684881	685516	+	SAHV_0606
SAHV_0607	685768	686655	+	SAHV_0607
SAHV_0608	686804	687754	+	SAHV_0608
SAHV_0609	687809	688528	+	SAHV_0609
SAHV_0610	688512	689312	+	SAHV_0610
SAHV_0611	689448	689954	+	SAHV_0611
SAHV_0612	690116	690832	+	SAHV_0612
SAHV_0613	691001	691789	+	SAHV_0613
SAHV_0614	692041	692415	-	sarA
SAHV_0615	693363	694292	-	SAHV_0615
SAHV_0616	694487	694711	-	SAHV_0616
SAHV_0617	694728	694931	-	SAHV_0617
SAHV_0618	695090	695650	+	SAHV_0618
SAHV_0619	695669	698071	+	SAHV_0619
SAHV_0620	698058	698483	+	SAHV_0620
SAHV_0621	698480	698824	+	SAHV_0621
SAHV_0622	698814	700310	+	SAHV_0622
SAHV_0623	700311	700793	+	SAHV_0623
SAHV_0624	700790	701092	+	SAHV_0624
SAHV_0625	701067	701504	+	SAHV_0625
SAHV_0626	701844	703886	+	SAHV_0626
SAHV_0627	703994	705313	-	tnp
SAHV_0628	706433	707362	-	SAHV_0628
SAHV_0629	707359	708195	-	SAHV_0629
SAHV_0630	708189	708932	-	SAHV_0630
SAHV_0631	709054	709698	+	SAHV_0631
SAHV_0632	709778	710530	-	SAHV_0632
SAHV_0633	710766	711530	+	tagA
SAHV_0634	711591	712385	-	tagH
SAHV_0635	712711	713544	+	tagG
SAHV_0636	714276	714746	+	tagB
SAHV_0637	714797	715804	+	tagX
SAHV_0638	715867	716265	+	tagD
SAHV_0639	716382	717677	-	pbp4
SAHV_0640	718098	719825	+	SAHV_0640
SAHV_0641	719894	719974	+	SAHV_0641
SAHV_0642	720182	721411	+	SAHV_0642
SAHV_0643	722158	722769	+	SAHV_0643
SAHV_0644	723051	723848	+	fhuA
SAHV_0645	723884	724888	+	fhuB
SAHV_0646	724885	725901	+	fhuG
SAHV_0647	726138	727103	+	SAHV_0647
SAHV_0648	727145	727729	+	SAHV_0648
SAHV_0649	727722	728084	+	SAHV_0649
SAHV_0650	728200	728697	+	SAHV_0650
SAHV_0651	729241	730221	+	SAHV_0651
SAHV_0652	730372	731415	+	SAHV_0652
SAHV_0653	731744	732172	+	SAHV_0653
SAHV_0654	732381	732887	-	SAHV_0654
SAHV_0655	733000	733923	+	SAHV_0655
SAHV_0656	733939	734613	+	graR
SAHV_0657	734606	735646	+	graS
SAHV_0658	735790	736551	+	vraF
SAHV_0659	736529	738430	+	vraG
SAHV_0660	739153	739770	+	SAHV_0660
SAHV_0661	739786	740793	+	SAHV_0661
SAHV_0662	741381	742178	-	SAHV_0662
SAHV_0663	742539	743183	+	SAHV_0663
SAHV_0664	743880	746030	+	SAHV_0664
SAHV_0665	746110	746535	+	SAHV_0665
SAHV_0666	747001	747441	+	SAHV_0666
SAHV_0667	747726	747914	+	SAHV_0667
SAHV_0668	748267	748911	+	SAHV_0668
SAHV_0669	749213	749893	+	SAHV_0669
SAHV_0670	750031	751245	+	SAHV_0670
SAHV_0671	751242	751730	+	SAHV_0671
SAHV_0672	751829	752518	-	SAHV_0672
SAHV_0673	752645	753088	+	SAHV_0673
SAHV_0674	753155	753550	+	SAHV_0674
SAHV_0675	753688	753987	+	SAHV_0675
SAHV_0676	754067	754609	+	SAHV_0676
SAHV_0677	754705	755271	-	SAHV_0677
SAHV_0678	755273	755731	-	SAHV_0678
SAHV_0679	755734	756417	-	SAHV_0679
SAHV_0680	756589	757464	-	bacA
SAHV_0681	757683	759314	+	graA
SAHV_0682	759311	760984	+	SAHV_0682
SAHV_0683	761111	761554	-	mgrA
SAHV_0684	761781	762707	+	SAHV_0684
SAHV_0685	762810	763718	+	SAHV_0685
SAHV_0686	763753	764040	+	SAHV_0686
SAHV_0687	764323	765876	+	SAHV_0687
SAHV_0688	765962	767335	+	SAHV_0688
SAHV_0689	767490	767774	-	SAHV_0689
SAHV_0690	767771	768391	-	SAHV_0690
SAHV_0691	768574	768996	-	SAHV_0691
SAHV_0692	769205	770371	+	norA
SAHV_0693	770664	771116	+	SAHV_0693
SAHV_0694	771290	771772	+	SAHV_0694
SAHV_0695	772025	772786	+	SAHV_0695
SAHV_0696	772783	773703	+	fruB
SAHV_0697	773709	775667	+	fruA
SAHV_0698	775975	777156	+	nagA
SAHV_0699	777377	778726	+	SAHV_0699
SAHV_0700	778948	779787	+	SAHV_0700
SAHV_0701	779919	780902	+	SAHV_0701
SAHV_0702	780974	782029	-	saeS
SAHV_0703	782029	782715	-	saeR
SAHV_0704	782690	782872	-	SAHV_0704
SAHV_0705	783506	783946	-	SAHV_0705
SAHV_0706	784226	784810	-	SAHV_0706
SAHV_0707	784909	785622	-	SAHV_0707
SAHV_0708	785626	786045	-	SAHV_0708
SAHV_0709	786047	786715	-	SAHV_0709
SAHV_0710	787066	787659	+	SAHV_0710
SAHV_0711	787643	788794	+	SAHV_0711
SAHV_0712	788794	789402	+	SAHV_0712
SAHV_0713	789468	789674	+	SAHV_0713
SAHV_0714	789762	790472	+	SAHV_0714
SAHV_0715	790456	791460	+	SAHV_0715
SAHV_0716	791934	793874	+	SAHV_0716
SAHV_0717	794150	796027	+	SAHV_0717
SAHV_0718	796039	797820	+	recQ
SAHV_0719	798042	799019	+	SAHV_0719
SAHV_0720	799012	800526	+	SAHV_0720
SAHV_0721	800766	801824	+	SAHV_0721
SAHV_0722	802163	802705	+	SAHV_0722
SAHV_0723	803528	804445	-	SAHV_0723
SAHV_0724	804715	806220	-	SAHV_0724
SAHV_0725	806561	807061	-	SAHV_0725
SAHV_0726	807081	807947	-	SAHV_0726
SAHV_0727	808748	809146	+	nrdI
SAHV_0728	809058	811214	+	nrdE
SAHV_0729	811332	812303	+	nrdF
SAHV_0730	812678	813649	+	SAHV_0730
SAHV_0731	813636	814592	+	SAHV_0731
SAHV_0732	814589	815350	+	SAHV_0732
SAHV_0733	815469	816497	+	SAHV_0733
SAHV_0734	816814	817128	-	SAHV_0734
SAHV_0735	817146	818069	-	SAHV_0735
SAHV_0736	818196	818714	-	SAHV_0736
SAHV_0737	818834	819712	+	SAHV_0737
SAHV_0738	819866	820186	+	SAHV_0738
SAHV_0739	820610	821734	+	SAHV_0739
SAHV_0740	821921	823147	-	pepT
SAHV_0741	823161	823655	-	SAHV_0741
SAHV_0742	823673	824434	-	SAHV_0742
SAHV_0743	824630	825700	-	SAHV_0743
SAHV_0744	826018	827073	+	llm
SAHV_0745	827238	827879	-	SAHV_0745
SAHV_0746	828023	828889	+	SAHV_0746
SAHV_0747	829433	830335	+	SAHV_0747
SAHV_0748	830328	831002	+	SAHV_0748
SAHV_0749	831063	831635	+	SAHV_0749
SAHV_0750	832049	834580	+	secA
SAHV_0751	835013	836005	+	prfB
SAHV_0752	836414	837253	+	SAHV_0752
SAHV_0753	837427	838077	+	SAHV_0753
SAHV_0754	838074	838310	+	SAHV_0754
SAHV_0755	838573	840564	+	uvrB
SAHV_0756	840572	843418	+	uvrA
SAHV_0757	844082	845014	+	hprK
SAHV_0758	845020	845859	+	lgt
SAHV_0759	845867	846352	+	SAHV_0759
SAHV_0760	846360	847799	+	SAHV_0760
SAHV_0761	847866	848801	+	trxB
SAHV_0762	849746	850657	+	SAHV_0762
SAHV_0763	850654	851649	+	SAHV_0763
SAHV_0764	851760	852704	+	SAHV_0764
SAHV_0765	853268	853855	+	clpP
SAHV_0766	854098	855000	-	SAHV_0766
SAHV_0767	855703	856332	+	SAHV_0767
SAHV_0768	857257	858270	+	gapR
SAHV_0769	858323	859333	+	gap
SAHV_0770	859472	860662	+	pgk
SAHV_0771	860784	861545	+	tpi
SAHV_0772	861548	863065	+	pgm
SAHV_0773	863195	864499	+	eno
SAHV_0774	864838	865296	+	SAHV_0774
SAHV_0775	865363	865596	+	secG
SAHV_0776	865712	866452	+	SAHV_0776
SAHV_0777	866486	868858	+	SAHV_0777
SAHV_0778	868880	869344	+	ssrP
SAHV_tm0001	869528	869563	+	SAHV_tm0001
SAHV_0779	869907	871013	-	SAHV_0779
SAHV_0780	871019	871603	-	SAHV_0780
SAHV_0781	871821	872030	+	SAHV_0781
SAHV_0782	872066	872293	+	SAHV_0782
SAHV_0783	872290	872436	+	SAHV_0783
SAHV_0784	872429	872638	+	SAHV_0784
SAHV_0785	872641	872958	+	SAHV_0785
SAHV_0786	873025	873894	+	SAHV_0786
SAHV_0787	873911	875380	+	SAHV_0787
SAHV_0788	875582	876028	+	SAHV_0788
SAHV_0789	876030	876314	+	SAHV_0789
SAHV_0790	876311	876952	+	SAHV_0790
SAHV_0791	877402	877743	+	SAHV_0791
SAHV_0792	877755	878333	+	SAHV_0792
SAHV_0793	878351	878569	+	SAHV_0793
SAHV_0794	878620	879147	+	SAHV_0794
SAHV_0795	879114	879491	+	SAHV_0795
SAHV_0796	879488	880057	+	SAHV_0796
SAHV_0797	880334	881302	+	SAHV_0797
SAHV_0798	881527	881721	+	SAHV_0798
SAHV_0799	882266	883180	+	SAHV_0799
SAHV_0800	883238	884086	+	SAHV_0800
SAHV_0801	884462	884602	+	SAHV_0801
SAHV_0802	884666	884884	+	SAHV_0802
SAHV_0803	885151	885453	-	SAHV_0803
SAHV_0804	885828	886556	-	SAHV_0804
SAHV_0805	887154	887675	+	SAHV_0805
SAHV_0806	887814	888344	+	SAHV_0806
SAHV_0807	888607	891414	+	fnb
SAHV_0808	891635	893137	+	graB
SAHV_0809	893490	894512	+	ssp
SAHV_0810	894847	895368	+	SAHV_0810
SAHV_0811	895709	896395	+	nuc
SAHV_0812	896752	896952	+	cspC
SAHV_0813	897444	897662	-	SAHV_0813
SAHV_0814	897724	898008	-	SAHV_0814
SAHV_0815	898096	898665	-	SAHV_0815
SAHV_0816	898853	899041	-	SAHV_0816
SAHV_0817	899070	899330	-	SAHV_0817
SAHV_0818	899671	899874	+	SAHV_0818
SAHV_0819	899871	900107	-	SAHV_0819
SAHV_0820	900332	900913	+	SAHV_0820
SAHV_0821	900986	901603	-	SAHV_0821
SAHV_0822	901758	902252	-	SAHV_0822
SAHV_0823	902460	902510	+	SAHV_0823
SAHV_0824	902651	903073	-	SAHV_0824
SAHV_0825	903221	903937	+	SAHV_0825
SAHV_0826	904020	904559	+	SAHV_0826
SAHV_0827	904710	905030	-	SAHV_0827
SAHV_0828	905174	905530	+	SAHV_0828
SAHV_0829	905688	906068	+	SAHV_0829
SAHV_0830	906247	907125	+	SAHV_0830
SAHV_0831	907922	908308	+	SAHV_0831
SAHV_0832	908301	908597	+	SAHV_0832
SAHV_0833	908847	909872	+	SAHV_0833
SAHV_0834	909865	910560	+	SAHV_0834
SAHV_0835	910578	911399	+	SAHV_0835
SAHV_0836	911753	911947	+	SAHV_0836
SAHV_0837	912181	913032	-	SAHV_0837
SAHV_0838	913360	914121	+	SAHV_0838
SAHV_0839	914219	915526	+	SAHV_0839
SAHV_0840	915641	916882	+	SAHV_0840
SAHV_0841	916872	917336	+	SAHV_0841
SAHV_0842	917487	918884	+	SAHV_0842
SAHV_0843	918952	920001	-	int
SAHV_0844	920113	920292	+	int
SAHV_0845	920272	921204	-	SAHV_0845
SAHV_0846	921236	921700	-	SAHV_0846
SAHV_0847	921713	922042	-	SAHV_0847
SAHV_0848	922203	922394	+	SAHV_0848
SAHV_0849	922616	922825	-	SAHV_0849
SAHV_0850	922882	923661	+	SAHV_0850
SAHV_0851	923662	923886	+	SAHV_0851
SAHV_0852	923926	924069	+	SAHV_0852
SAHV_0853	924091	924738	-	SAHV_0853
SAHV_0854	924809	925030	+	SAHV_0854
SAHV_0855	925277	925579	+	SAHV_0855
SAHV_0856	925721	925855	-	SAHV_0856
SAHV_0857	925854	926075	+	SAHV_0857
SAHV_0858	926068	926190	+	SAHV_0858
SAHV_0859	926692	927117	+	SAHV_0859
SAHV_0860	927128	927679	+	SAHV_0860
SAHV_0861	927680	928354	+	SAHV_0861
SAHV_0862	928494	928775	-	SAHV_0862
SAHV_0863	928840	929571	+	SAHV_0863
SAHV_0864	929584	930369	+	SAHV_0864
SAHV_0865	930366	930524	+	SAHV_0865
SAHV_0866	930537	930758	+	SAHV_0866
SAHV_0867	930768	931172	+	SAHV_0867
SAHV_0868	931363	931734	+	SAHV_0868
SAHV_0869	931735	931983	+	SAHV_0869
SAHV_0870	931995	932246	+	SAHV_0870
SAHV_0871	932239	932775	+	SAHV_0871
SAHV_0872	932812	933018	+	SAHV_0872
SAHV_0873	933015	933209	+	SAHV_0873
SAHV_0874	933206	933409	+	SAHV_0874
SAHV_0875	933402	933638	+	SAHV_0875
SAHV_0876	933628	934014	+	SAHV_0876
SAHV_0877	934014	934187	+	SAHV_0877
SAHV_0878	934245	934334	+	SAHV_0878
SAHV_0879	934349	934768	+	SAHV_0879
SAHV_0880	934955	935395	+	SAHV_0880
SAHV_0881	935382	936659	+	SAHV_0881
SAHV_0882	936670	938205	+	SAHV_0882
SAHV_0883	938212	939207	+	SAHV_0883
SAHV_0884	939280	939450	+	SAHV_0884
SAHV_0885	939585	940199	+	SAHV_0885
SAHV_0886	940213	940521	+	SAHV_0886
SAHV_0887	940653	941186	+	SAHV_0887
SAHV_0888	941208	941495	+	SAHV_0888
SAHV_0889	941504	941836	+	SAHV_0889
SAHV_0890	941833	942135	+	SAHV_0890
SAHV_0891	942135	942482	+	SAHV_0891
SAHV_0892	942494	942877	+	SAHV_0892
SAHV_0893	942896	943477	+	SAHV_0893
SAHV_0894	943539	943904	+	SAHV_0894
SAHV_0895	944024	944278	+	SAHV_0895
SAHV_0896	944295	947759	+	SAHV_0896
SAHV_0897	947772	948719	+	SAHV_0897
SAHV_0898	948728	950629	+	SAHV_0898
SAHV_0899	950644	952554	+	SAHV_0899
SAHV_0900	952554	954377	+	SAHV_0900
SAHV_0901	954377	954754	+	SAHV_0901
SAHV_0902	954758	954931	+	SAHV_0902
SAHV_0903	954972	955271	+	SAHV_0903
SAHV_0904	955408	957306	+	SAHV_0904
SAHV_0905	957319	958557	+	SAHV_0905
SAHV_0906	958563	958958	+	SAHV_0906
SAHV_0907	959014	959451	+	SAHV_0907
SAHV_0908	959432	960877	+	SAHV_0908
SAHV_0909	961144	961272	+	SAHV_0909
SAHV_0910	961343	961453	+	SAHV_0910
SAHV_0911	961973	962605	+	SAHV_0911
SAHV_0912	962598	963029	+	SAHV_0912
SAHV_0913	963695	964009	-	SAHV_0913
SAHV_0914	964374	965414	+	SAHV_0914
SAHV_0915	965428	966495	+	SAHV_0915
SAHV_0916	966880	967728	+	SAHV_0916
SAHV_0917	967741	968568	+	SAHV_0917
SAHV_0918	968595	969914	+	SAHV_0918
SAHV_0919	969998	970915	+	lipA
SAHV_0920	971045	971428	+	SAHV_0920
SAHV_0921	971634	972953	+	tnp
SAHV_0922	973027	973293	-	SAHV_0922
SAHV_0923	973391	973825	+	SAHV_0923
SAHV_0924	973825	974604	+	SAHV_0924
SAHV_0925	974637	975596	+	SAHV_0925
SAHV_0926	976008	976160	+	dltX
SAHV_0927	976176	977633	+	dltA
SAHV_0928	977630	978844	+	dltB
SAHV_0929	978862	979098	+	dltC
SAHV_0930	979095	980270	+	dltD
SAHV_0931	980533	980775	-	SAHV_0931
SAHV_0932	980891	981199	+	SAHV_0932
SAHV_0933	981258	982322	-	SAHV_0933
SAHV_0934	982639	982875	+	SAHV_0934
SAHV_0935	982888	983247	+	SAHV_0935
SAHV_0936	983701	984909	+	SAHV_0936
SAHV_0937	985040	986515	+	ampA
SAHV_0938	986926	988242	+	SAHV_0938
SAHV_0939	988261	988635	+	SAHV_0939
SAHV_0940	988691	989845	-	SAHV_0940
SAHV_0941	990094	990450	-	mnhG
SAHV_0942	990428	990721	-	mnhF
SAHV_0943	990721	991200	-	mnhE
SAHV_0944	991202	992698	-	mnhD
SAHV_0945	992691	993032	-	mnhC
SAHV_0946	993032	993460	-	mnhB
SAHV_0947	993453	995858	-	mnhA
SAHV_0948	995989	996372	-	SAHV_0948
SAHV_0949	996436	997029	+	SAHV_0949
SAHV_0950	997561	997821	+	SAHV_0950
SAHV_0951	998183	999310	+	SAHV_0951
SAHV_0952	999618	1000808	+	rocD
SAHV_0953	1000917	1002161	+	gudB
SAHV_0954	1002498	1003427	-	glpQ
SAHV_0955	1003669	1005048	-	argH
SAHV_0956	1005038	1006243	-	argG
SAHV_0957	1006594	1007925	+	pgi
SAHV_0958	1008250	1008825	+	SAHV_0958
SAHV_0959	1008830	1009354	+	spsA
SAHV_0960	1009370	1009945	+	spsB
SAHV_0961	1010105	1013578	+	SAHV_0961
SAHV_0962	1013582	1017235	+	SAHV_0962
SAHV_0963	1017401	1018303	+	SAHV_0963
SAHV_0964	1018632	1019021	+	SAHV_0964
SAHV_0965	1019193	1020509	-	cdr
SAHV_0966	1020561	1021385	-	SAHV_0966
SAHV_0967	1021499	1021807	+	SAHV_0967
SAHV_0968	1021804	1021896	-	SAHV_0968
SAHV_0969	1022355	1024169	+	SAHV_0969
SAHV_0970	1024372	1026981	+	clpB
SAHV_0971	1027040	1027909	-	SAHV_0971
SAHV_0972	1028019	1029164	+	SAHV_0972
SAHV_0973	1029148	1029789	+	SAHV_0973
SAHV_0974	1029782	1030903	+	SAHV_0974
SAHV_0975	1030881	1031396	+	SAHV_0975
SAHV_0976	1031707	1032141	+	SAHV_0976
SAHV_0977	1032398	1032583	-	SAHV_0977
SAHV_0978	1032878	1033819	+	fabH
SAHV_0979	1033831	1035075	+	SAHV_0979
SAHV_0980	1035130	1035501	-	SAHV_0980
SAHV_0981	1035744	1036670	+	oppB
SAHV_0982	1036670	1037740	+	SAHV_0982
SAHV_0983	1037756	1038838	+	oppD
SAHV_0984	1038828	1039769	+	oppF
SAHV_0985	1039788	1041443	+	SAHV_0985
SAHV_0986	1041655	1043370	+	SAHV_0986
SAHV_0987	1043421	1044407	+	SAHV_0987
SAHV_0988	1044410	1045390	+	appF
SAHV_0989	1045383	1046345	+	oppB
SAHV_0990	1046357	1047238	+	SAHV_0990
SAHV_0991	1047280	1048269	-	trpS
SAHV_0992	1048563	1048958	+	SAHV_0992
SAHV_0993	1049329	1050048	+	SAHV_0993
SAHV_0994	1050169	1051155	+	SAHV_0994
SAHV_0995	1051203	1053011	+	SAHV_0995
SAHV_0996	1053471	1054256	-	yjbM
SAHV_0997	1054300	1054665	-	SAHV_0997
SAHV_0998	1054769	1055362	-	SAHV_0998
SAHV_0999	1055548	1055895	+	SAHV_0999
SAHV_1000	1055912	1056547	+	SAHV_1000
SAHV_1001	1056564	1057373	+	SAHV_1001
SAHV_1002	1057370	1058224	+	SAHV_1002
SAHV_1003	1058245	1059630	+	SAHV_1003
SAHV_1004	1059640	1061484	+	SAHV_1004
SAHV_1005	1061762	1062532	+	fabI
SAHV_1006	1062729	1063814	-	SAHV_1006
SAHV_1007	1064219	1065724	+	SAHV_1007
SAHV_1008	1065869	1066627	+	SAHV_1008
SAHV_1009	1066821	1067330	+	SAHV_1009
SAHV_1010	1067443	1068633	-	SAHV_1010
SAHV_1011	1068611	1069786	-	SAHV_1011
SAHV_1012	1070219	1071703	+	murE
SAHV_1013	1071693	1071944	+	SAHV_1013
SAHV_1014	1072305	1073507	+	SAHV_1014
SAHV_1015	1073809	1074612	+	SAHV_1015
SAHV_1016	1074846	1077155	+	htrA
SAHV_1017	1077172	1078530	+	SAHV_1017
SAHV_1018	1078666	1080180	+	SAHV_1018
SAHV_1019	1080667	1081236	-	SAHV_1019
SAHV_1020	1081446	1081664	+	SAHV_1020
SAHV_1021	1081745	1082731	-	SAHV_1021
SAHV_1022	1082930	1083106	+	SAHV_1022
SAHV_1023	1083121	1083723	+	SAHV_1023
SAHV_1024	1083932	1084093	+	SAHV_1024
SAHV_1025	1084750	1085022	+	SAHV_1025
SAHV_1026	1085066	1087030	+	SAHV_1026
SAHV_1027	1087033	1087353	+	SAHV_1027
SAHV_1028	1087350	1087991	+	SAHV_1028
SAHV_1029	1088079	1088324	-	SAHV_1029
SAHV_1030	1088736	1089092	-	SAHV_1030
SAHV_1031	1089580	1090539	+	SAHV_1031
SAHV_1032	1090780	1090995	-	SAHV_1032
SAHV_1033	1091160	1091711	+	SAHV_1033
SAHV_1034	1091763	1092701	-	SAHV_1034
SAHV_1035	1092883	1094244	+	SAHV_1035
SAHV_1036	1094231	1095904	+	menD
SAHV_1037	1095891	1096694	+	SAHV_1037
SAHV_1038	1096687	1097508	+	menB
SAHV_1039	1097746	1098075	-	sspC
SAHV_1040	1098113	1099294	-	sspB
SAHV_1041	1099376	1100404	-	sspA
SAHV_1042	1100932	1102086	-	SAHV_1042
SAHV_1043	1102282	1103292	-	SAHV_1043
SAHV_1044	1103445	1103864	+	SAHV_1044
SAHV_1045	1104071	1107817	-	SAHV_1045
SAHV_1046	1108045	1108479	-	SAHV_1046
SAHV_1047	1108634	1109104	-	SAHV_1047
SAHV_1048	1109152	1110369	-	SAHV_1048
SAHV_1049	1110820	1112013	+	fmt
SAHV_1050	1112550	1112840	-	SAHV_1050
SAHV_1051	1112837	1113442	-	qoxC
SAHV_1052	1113432	1115420	-	qoxB
SAHV_1053	1115420	1116520	-	SAHV_1053
SAHV_1054	1117091	1117408	-	SAHV_1054
SAHV_1055	1118272	1119132	-	folD
SAHV_1056	1119333	1119815	+	SAHV_1056
SAHV_1057	1119802	1120926	+	purK
SAHV_1058	1120930	1121634	+	purC
SAHV_1059	1121634	1121897	+	SAHV_1059
SAHV_1060	1121899	1122570	+	purQ
SAHV_1061	1122563	1124752	+	purL
SAHV_1062	1124731	1126215	+	purF
SAHV_1063	1126208	1127236	+	purM
SAHV_1064	1127239	1127805	+	purN
SAHV_1065	1127817	1129298	+	purH
SAHV_1066	1129428	1130567	+	purD
SAHV_1067	1130835	1131641	-	SAHV_1067
SAHV_1068	1131634	1133034	-	SAHV_1068
SAHV_1069	1133049	1133624	-	SAHV_1069
SAHV_1070	1134005	1134454	-	SAHV_1070
SAHV_1071	1134460	1134594	-	graF
SAHV_1072	1134746	1136041	+	SAHV_1072
SAHV_1073	1136466	1137638	+	SAHV_1073
SAHV_1074	1137692	1138234	+	SAHV_1074
SAHV_1075	1138388	1138654	+	ptsH
SAHV_1076	1138657	1140375	+	ptsI
SAHV_1077	1140612	1140845	-	SAHV_1077
SAHV_1078	1141043	1142404	+	SAHV_1078
SAHV_1079	1142401	1143420	+	SAHV_1079
SAHV_1080	1143553	1144215	+	SAHV_1080
SAHV_1081	1144461	1146158	-	SAHV_1081
SAHV_1082	1146158	1146328	-	SAHV_1082
SAHV_1083	1146858	1147409	-	pdf1
SAHV_1084	1147774	1148400	+	SAHV_1084
SAHV_1085	1148571	1149683	+	pdhA
SAHV_1086	1149687	1150664	+	phdB
SAHV_1087	1150755	1152047	+	pdhC
SAHV_1088	1152051	1153457	+	pdhD
SAHV_1089	1153625	1153900	+	SAHV_1089
SAHV_1090	1154044	1154583	+	SAHV_1090
SAHV_1091	1154596	1155690	+	potA
SAHV_1092	1155683	1156480	+	potB
SAHV_1093	1156486	1157295	+	potC
SAHV_1094	1157295	1158368	+	potD
SAHV_1095	1158442	1159461	+	SAHV_1095
SAHV_1096	1159744	1160163	+	SAHV_1096
SAHV_1097	1160242	1161594	-	SAHV_1097
SAHV_1098	1161778	1162392	-	SAHV_1098
SAHV_1099	1162549	1163376	+	SAHV_1099
SAHV_1100	1163530	1163721	-	SAHV_1100
SAHV_1101	1163823	1165670	+	SAHV_1101
SAHV_1102	1165810	1165977	-	SAHV_1102
SAHV_1103	1165979	1166461	-	SAHV_1103
SAHV_1104	1166602	1166877	+	SAHV_1104
SAHV_1105	1167296	1168417	+	SAHV_1105
SAHV_1106	1168971	1172423	+	pycA
SAHV_1107	1172563	1173474	-	SAHV_1107
SAHV_1108	1173911	1174825	+	ctaB
SAHV_1109	1174850	1175311	+	SAHV_1109
SAHV_1110	1175638	1176675	+	SAHV_1110
SAHV_1111	1176691	1177125	+	SAHV_1111
SAHV_1112	1177188	1178114	-	SAHV_1112
SAHV_1113	1178353	1178607	+	SAHV_1113
SAHV_1114	1178610	1178999	-	SAHV_1114
SAHV_1115	1179069	1179611	+	SAHV_1115
SAHV_1116	1179613	1180095	+	SAHV_1116
SAHV_1117	1180157	1181296	-	SAHV_1117
SAHV_1118	1181423	1181980	+	SAHV_1118
SAHV_1119	1182060	1182233	+	rpmF
SAHV_1120	1182387	1184324	-	SAHV_1120
SAHV_1121	1184527	1185579	-	SAHV_1121
SAHV_1122	1185788	1186471	+	SAHV_1122
SAHV_1123	1186471	1187547	+	SAHV_1123
SAHV_1124	1187544	1188422	+	SAHV_1124
SAHV_1125	1188579	1189400	+	SAHV_1125
SAHV_1126	1189462	1190196	+	SAHV_1126
SAHV_1127	1190224	1190538	+	SAHV_1127
SAHV_1128	1190922	1191662	+	SAHV_1128
SAHV_1129	1192042	1193100	+	pheS
SAHV_1130	1193100	1195502	+	pheT
SAHV_1131	1195934	1196872	-	SAHV_1131
SAHV_1132	1197242	1197508	+	SAHV_1132
SAHV_1133	1197509	1198030	+	SAHV_1133
SAHV_1134	1198103	1199815	+	SAHV_1134
SAHV_1135	1199825	1202173	+	mutS2
SAHV_1136	1202346	1202660	+	trxA
SAHV_1137	1202984	1204765	+	uvrC
SAHV_1138	1205089	1205703	+	sdhC
SAHV_1139	1205755	1207521	+	sdhA
SAHV_1140	1207521	1208336	+	sdhB
SAHV_1141	1208572	1209372	+	murI
SAHV_1142	1209384	1209971	+	SAHV_1142
SAHV_1143	1209964	1210467	+	SAHV_1143
SAHV_1144	1210625	1210762	+	SAHV_1144
SAHV_1145	1210956	1211285	+	SAHV_1145
SAHV_1146	1211654	1212055	-	SAHV_1146
SAHV_1147	1212725	1213231	+	SAHV_1147
SAHV_1148	1213491	1213988	+	SAHV_1148
SAHV_1149	1214138	1214488	+	SAHV_1149
SAHV_1150	1215254	1215439	-	SAHV_1150
SAHV_1151	1216061	1216294	-	SAHV_1151
SAHV_1152	1216813	1218132	+	tnp
SAHV_1153	1218291	1219250	-	SAHV_1153
SAHV_1154	1220053	1220250	+	SAHV_1154
SAHV_1155	1220477	1220608	-	SAHV_1155
SAHV_1156	1220740	1221456	-	SAHV_1156
SAHV_1157	1221564	1222289	-	SAHV_1157
SAHV_1158	1222384	1223109	-	SAHV_1158
SAHV_1159	1223547	1224548	+	argF
SAHV_1160	1224571	1225503	+	SAHV_1160
SAHV_1161	1225675	1227231	+	SAHV_1161
SAHV_1162	1227538	1227765	+	SAHV_1162
SAHV_1163	1228071	1229018	-	SAHV_1163
SAHV_1164	1229267	1229455	+	SAHV_1164
SAHV_1165	1230818	1231504	+	SAHV_1165
SAHV_1166	1231613	1232059	-	SAHV_1166
SAHV_1167	1232248	1233861	+	SAHV_1167
SAHV_1168	1234005	1234436	+	SAHV_1168
SAHV_1169	1234452	1235387	+	SAHV_1169
SAHV_1170	1235401	1235802	+	ftsL
SAHV_1171	1235783	1238017	+	pbpA
SAHV_1172	1238309	1239274	+	mraY
SAHV_1173	1239276	1240625	+	murD
SAHV_1174	1240641	1241960	+	div1b
SAHV_1175	1242066	1243478	+	ftsA
SAHV_1176	1243511	1244683	+	ftsZ
SAHV_1177	1244943	1245734	+	SAHV_1177
SAHV_1178	1245752	1246426	+	SAHV_1178
SAHV_1179	1246423	1246986	+	SAHV_1179
SAHV_1180	1246998	1247288	+	SAHV_1180
SAHV_1181	1247539	1248177	+	SAHV_1181
SAHV_1182	1248201	1248818	+	SAHV_1182
SAHV_1183	1249039	1251792	+	ileS
SAHV_1184	1252083	1252880	+	SAHV_1184
SAHV_1185	1252941	1253153	-	SAHV_1185
SAHV_1186	1253704	1254195	+	lsp
SAHV_1187	1254195	1255112	+	SAHV_1187
SAHV_1188	1255512	1256039	+	pyrR
SAHV_1189	1256257	1257564	+	pyrP
SAHV_1190	1257592	1258473	+	pyrB
SAHV_1191	1258491	1259765	+	pyrC
SAHV_1192	1259767	1260867	+	pyrAA
SAHV_1193	1260860	1264033	+	pyrAB
SAHV_1194	1264143	1264835	+	pyrF
SAHV_1195	1264835	1265446	+	pyrE
SAHV_1196	1265476	1265688	+	SAHV_1196
SAHV_1197	1266125	1266526	+	SAHV_1197
SAHV_1198	1266789	1268486	-	SAHV_1198
SAHV_1199	1268761	1269384	+	gmk
SAHV_1200	1269384	1269602	+	SAHV_1200
SAHV_1201	1269818	1271017	+	SAHV_1201
SAHV_1202	1271017	1273425	+	priA
SAHV_1203	1273931	1274884	+	SAHV_1203
SAHV_1204	1275047	1275250	-	SAHV_1204
SAHV_1205	1275549	1276037	+	SAHV_1205
SAHV_1206	1276030	1276965	+	SAHV_1206
SAHV_1207	1276884	1278269	+	SAHV_1207
SAHV_1208	1278272	1279366	+	SAHV_1208
SAHV_1209	1279373	1280116	+	SAHV_1209
SAHV_1210	1280113	1282107	+	SAHV_1210
SAHV_1211	1282335	1283210	+	SAHV_1211
SAHV_1212	1283211	1283855	+	cfxE
SAHV_1213	1283862	1284503	+	SAHV_1213
SAHV_1214	1284884	1285072	-	rpmB
SAHV_1215	1285515	1285889	+	SAHV_1215
SAHV_1216	1285904	1287550	+	SAHV_1216
SAHV_1217	1287740	1289800	+	recG
SAHV_1218	1290018	1290575	+	SAHV_1218
SAHV_1219	1290580	1291566	+	plsX
SAHV_1220	1291559	1292485	+	fabD
SAHV_1221	1292472	1293212	+	fabG
SAHV_1222	1293647	1293880	+	hmrB
SAHV_1223	1293996	1294727	+	rnc
SAHV_1224	1294874	1298440	+	smc
SAHV_1225	1298440	1299690	+	SAHV_1225
SAHV_1226	1299677	1300009	+	SAHV_1226
SAHV_1227	1300035	1301402	+	ffh
SAHV_1228	1301837	1302112	+	rpsP
SAHV_1229	1302300	1302803	+	rimM
SAHV_1230	1302803	1303540	+	trmD
SAHV_1231	1303643	1303993	+	rplS
SAHV_1232	1304237	1306843	-	SAHV_1232
SAHV_1233	1307244	1308128	+	SAHV_1233
SAHV_1234	1308112	1308879	+	rnhB
SAHV_1235	1308988	1310154	+	sucC
SAHV_1236	1310176	1311084	+	sucD
SAHV_1237	1311311	1312429	+	lytN
SAHV_1238	1312457	1313701	+	fmhC
SAHV_1239	1313874	1314746	+	SAHV_1239
SAHV_1240	1314926	1316995	+	SAHV_1240
SAHV_1241	1317151	1318458	+	gid
SAHV_1242	1318876	1319772	+	xerC
SAHV_1243	1319769	1320314	+	clpQ
SAHV_1244	1320380	1321783	+	clpY
SAHV_1245	1321808	1322581	+	codY
SAHV_1246	1322928	1323695	+	rpsB
SAHV_1247	1323877	1324758	+	SAHV_1247
SAHV_1248	1324895	1325617	+	smbA
SAHV_1249	1325636	1326190	+	frr
SAHV_1250	1326563	1327333	+	uppS
SAHV_1251	1327340	1328122	+	cdsA
SAHV_1252	1328334	1329620	+	SAHV_1252
SAHV_1253	1329640	1331343	+	proS
SAHV_1254	1331601	1335917	+	polC
SAHV_1255	1336207	1336674	+	SAHV_1255
SAHV_1256	1336695	1337870	+	nusA
SAHV_1257	1337891	1338175	+	SAHV_1257
SAHV_1258	1338172	1338489	+	SAHV_1258
SAHV_1259	1338494	1340611	+	infB
SAHV_1260	1340997	1341347	+	rbfA
SAHV_1261	1341516	1342433	+	truB
SAHV_1262	1342448	1343419	+	ribC
SAHV_1263	1343534	1343803	+	rpsO
SAHV_1264	1344172	1346268	+	pnpA
SAHV_1265	1346504	1348177	+	SAHV_1265
SAHV_1266	1348434	1350800	+	spoIIIE
SAHV_1267	1350805	1351518	+	SAHV_1267
SAHV_1268	1351549	1352814	+	SAHV_1268
SAHV_1269	1352814	1354100	+	SAHV_1269
SAHV_1270	1354100	1354804	+	SAHV_1270
SAHV_1271	1354909	1355736	+	SAHV_1271
SAHV_1272	1355755	1356147	+	SAHV_1272
SAHV_1273	1356181	1356759	+	pgsA
SAHV_1274	1356983	1358134	+	cinA
SAHV_1275	1358299	1359342	+	recA
SAHV_1276	1359696	1361255	+	SAHV_1276
SAHV_1277	1361552	1361722	-	SAHV_1277
SAHV_1278	1361941	1362738	+	SAHV_1278
SAHV_1279	1362878	1364638	+	SAHV_1279
SAHV_1280	1364639	1365505	+	SAHV_1280
SAHV_1281	1365599	1365892	+	SAHV_1281
SAHV_1282	1366026	1367570	+	SAHV_1282
SAHV_1283	1367571	1367936	+	SAHV_1283
SAHV_1284	1367963	1368454	+	SAHV_1284
SAHV_1285	1368757	1371375	+	mutS
SAHV_1286	1371388	1373397	+	mutL
SAHV_1287	1373412	1373945	+	glpP
SAHV_1288	1373982	1374071	-	SAHV_1288
SAHV_1289	1374420	1375238	+	glpF
SAHV_1290	1375367	1376863	+	glpK
SAHV_1291	1376973	1378694	+	glpD
SAHV_1292	1378844	1379758	+	SAHV_1292
SAHV_1293	1379776	1380711	+	miaA
SAHV_1294	1380726	1380959	+	SAHV_1294
SAHV_1295	1381181	1381657	-	bsaA
SAHV_1296	1381769	1383007	+	SAHV_1296
SAHV_1297	1383026	1384264	+	SAHV_1297
SAHV_1298	1384507	1384875	+	glnR
SAHV_1299	1384894	1386234	+	glnA
SAHV_1300	1388129	1388335	+	SAHV_1300
SAHV_1301	1389569	1389754	+	SAHV_1301
SAHV_1302	1390497	1390748	+	SAHV_1302
SAHV_1303	1391471	1391665	+	SAHV_1303
SAHV_1304	1392209	1393234	-	SAHV_1304
SAHV_1305	1393504	1393701	+	SAHV_1305
SAHV_1306	1393722	1395239	+	SAHV_1306
SAHV_1307	1395423	1395920	+	SAHV_1307
SAHV_1308	1395984	1396322	+	SAHV_1308
SAHV_1309	1396291	1397022	+	SAHV_1309
SAHV_1310	1397026	1398117	+	SAHV_1310
SAHV_1311	1398114	1398716	+	SAHV_1311
SAHV_1312	1398829	1399017	-	SAHV_1312
SAHV_1313	1399156	1399689	+	nuc
SAHV_1314	1399834	1400688	-	SAHV_1314
SAHV_1315	1401004	1401594	+	SAHV_1315
SAHV_1316	1401648	1403030	-	SAHV_1316
SAHV_1317	1403221	1404501	+	dhoM
SAHV_1318	1404507	1405568	+	thrC
SAHV_1319	1405570	1406484	+	thrB
SAHV_1320	1406542	1407345	+	SAHV_1320
SAHV_1321	1407638	1407952	-	SAHV_1321
SAHV_1322	1408170	1409624	-	SAHV_1322
SAHV_1323	1409822	1411345	+	katA
SAHV_1324	1411436	1411585	+	rpmG
SAHV_1325	1412039	1412308	+	rpsN
SAHV_1326	1412465	1413442	+	SAHV_1326
SAHV_1327	1413464	1414480	+	SAHV_1327
SAHV_1328	1414860	1415483	-	lexA
SAHV_1329	1415626	1415859	+	SAHV_1329
SAHV_1330	1415996	1416235	+	SAHV_1330
SAHV_1331	1416356	1418344	+	tkt
SAHV_1332	1418622	1418864	+	SAHV_1332
SAHV_1333	1419043	1419510	+	SAHV_1333
SAHV_1334	1419634	1420755	+	SAHV_1334
SAHV_1335	1420759	1423788	+	SAHV_1335
SAHV_1336	1423859	1424221	-	mscL
SAHV_1337	1424425	1426071	+	opuD
SAHV_1338	1427018	1429723	+	citB
SAHV_1339	1429903	1430370	+	SAHV_1339
SAHV_1340	1430577	1430873	-	SAHV_1340
SAHV_1341	1431249	1431857	-	SAHV_1341
SAHV_1342	1432057	1434054	+	parE
SAHV_1343	1434054	1436456	+	parC
SAHV_1344	1436706	1438166	+	alsT
SAHV_1345	1438666	1439517	+	glcT
SAHV_1346	1439564	1439659	+	SAHV_1346
SAHV_1347	1439652	1440860	+	SAHV_1347
SAHV_1348	1441341	1443863	+	fmtC
SAHV_1349	1444066	1444575	-	msrA2
SAHV_1350	1444712	1445695	+	msrR
SAHV_1351	1445783	1445971	-	graC
SAHV_1352	1446116	1447378	+	SAHV_1352
SAHV_1353	1447515	1448606	-	tyrA
SAHV_1354	1448771	1449802	+	SAHV_1354
SAHV_1355	1450294	1451700	+	SAHV_1355
SAHV_1356	1451697	1452263	+	trpG
SAHV_1357	1452269	1453267	+	trpD
SAHV_1358	1453269	1454051	+	trpC
SAHV_1359	1454051	1454683	+	trpF
SAHV_1360	1454676	1455890	+	trpB
SAHV_1361	1455883	1456611	+	trpA
SAHV_1362	1456933	1458195	+	femA
SAHV_1363	1458214	1459473	+	femB
SAHV_1364	1459762	1460508	+	SAHV_1364
SAHV_1365	1460738	1461505	+	SAHV_1365
SAHV_1366	1461553	1462026	-	SAHV_1366
SAHV_1367	1462150	1462851	-	SAHV_1367
SAHV_1368	1462844	1463617	-	SAHV_1368
SAHV_1369	1463604	1464434	-	SAHV_1369
SAHV_1370	1464427	1465413	-	SAHV_1370
SAHV_1371	1465717	1466061	-	SAHV_1371
SAHV_1372	1466266	1468080	+	SAHV_1372
SAHV_1373	1468220	1468861	-	SAHV_1373
SAHV_1374	1468868	1469719	-	pstB
SAHV_1375	1469766	1470683	-	SAHV_1375
SAHV_1376	1470685	1471611	-	SAHV_1376
SAHV_1377	1471802	1472785	-	SAHV_1377
SAHV_1378	1473328	1473624	+	SAHV_1378
SAHV_1379	1473760	1474662	-	SAHV_1379
SAHV_1380	1474809	1476410	+	SAHV_1380
SAHV_1381	1477472	1478677	+	lysC
SAHV_1382	1478741	1479730	+	asd
SAHV_1383	1479732	1480619	+	dapA
SAHV_1384	1480616	1481338	+	dapB
SAHV_1385	1481365	1482084	+	dapD
SAHV_1386	1482227	1483378	+	SAHV_1386
SAHV_1387	1483383	1484468	+	SAHV_1387
SAHV_1388	1484458	1485723	+	lysA
SAHV_1389	1485963	1486364	-	SAHV_1389
SAHV_1390	1486561	1486761	-	cspA
SAHV_1391	1486932	1487240	-	SAHV_1391
SAHV_1392	1487403	1487672	+	SAHV_1392
SAHV_1393	1487697	1488320	+	SAHV_1393
SAHV_1394	1488352	1489488	+	SAHV_1394
SAHV_1395	1489561	1490904	-	braB
SAHV_1396	1491130	1493016	-	SAHV_1396
SAHV_1397	1493030	1493821	-	SAHV_1397
SAHV_1398	1494002	1494205	-	SAHV_1398
SAHV_1399	1494234	1495043	-	SAHV_1399
SAHV_1400	1495623	1496891	-	odhB
SAHV_1401	1496905	1499703	-	odhA
SAHV_1402	1499987	1501342	-	arlS
SAHV_1403	1501339	1501998	-	SAHV_1403
SAHV_1404	1502469	1502669	-	SAHV_1404
SAHV_1405	1502786	1503400	-	SAHV_1405
SAHV_1406	1503417	1504487	-	murG
SAHV_1407	1504499	1505008	-	SAHV_1407
SAHV_1408	1505408	1506898	-	ctpA
SAHV_1409	1507090	1507311	-	SAHV_1409
SAHV_1410	1507311	1507811	-	SAHV_1410
SAHV_1411	1507823	1508251	-	SAHV_1411
SAHV_1412	1508244	1508777	-	SAHV_1412
SAHV_1413	1508863	1509702	-	SAHV_1413
SAHV_1414	1509717	1510196	-	dfrA
SAHV_1415	1510396	1511352	-	thyA
SAHV_1416	1511776	1512213	-	SAHV_1416
SAHV_1417	1512229	1513353	-	SAHV_1417
SAHV_1418	1513391	1513642	-	SAHV_1418
SAHV_1419	1513654	1513839	-	SAHV_1419
SAHV_1420	1514093	1514797	+	SAHV_1420
SAHV_1421	1515280	1515681	+	SAHV_1421
SAHV_1422	1515740	1535881	-	ebhA
SAHV_1423	1535942	1547614	-	ebhB
SAHV_1424	1548012	1549403	-	SAHV_1424
SAHV_1425	1549559	1550881	-	SAHV_1425
SAHV_1426	1550912	1551952	-	SAHV_1426
SAHV_1427	1552047	1553165	-	SAHV_1427
SAHV_1428	1553641	1554519	-	SAHV_1428
SAHV_1429	1554539	1557979	-	SAHV_1429
SAHV_1430	1558283	1559623	+	SAHV_1430
SAHV_1431	1559829	1560161	-	SAHV_1431
SAHV_1432	1560245	1561390	-	SAHV_1432
SAHV_1433	1561824	1561940	-	SAHV_1433
SAHV_1434	1562041	1562385	-	SAHV_1434
SAHV_1435	1562399	1562962	-	SAHV_1435
SAHV_1436	1562955	1563305	-	SAHV_1436
SAHV_1437	1563845	1564471	+	recU
SAHV_1438	1564468	1566651	+	pbp2
SAHV_1439	1567217	1567558	-	SAHV_1439
SAHV_1440	1567563	1568222	-	nth
SAHV_1441	1568212	1568898	-	SAHV_1441
SAHV_1442	1569226	1570518	-	asnS
SAHV_1443	1570840	1573533	-	dinG
SAHV_1444	1573557	1574528	-	SAHV_1444
SAHV_1445	1574515	1575717	-	SAHV_1445
SAHV_1446	1575722	1576864	-	SAHV_1446
SAHV_1447	1577108	1577425	-	SAHV_1447
SAHV_1448	1577761	1578459	-	SAHV_1448
SAHV_1449	1578513	1579100	-	SAHV_1449
SAHV_1450	1579090	1579665	-	SAHV_1450
SAHV_1451	1579679	1580923	-	SAHV_1451
SAHV_1452	1580930	1582228	-	aroA
SAHV_1453	1582238	1583302	-	aroB
SAHV_1454	1583328	1584494	-	aroC
SAHV_1455	1584880	1585080	-	SAHV_1455
SAHV_1456	1585109	1585234	-	SAHV_1456
SAHV_1457	1585289	1585738	-	ndk
SAHV_1458	1585830	1586789	-	gerCC
SAHV_1459	1586791	1587516	-	gerCB
SAHV_1460	1587519	1588091	-	SAHV_1460
SAHV_1461	1588522	1588794	-	hu
SAHV_1462	1588965	1589963	-	gpsA
SAHV_1463	1589980	1591290	-	SAHV_1463
SAHV_1464	1591512	1592687	-	SAHV_1464
SAHV_1465	1593216	1593293	-	SAHV_1465
SAHV_1466	1593399	1594058	-	cmk
SAHV_1467	1594135	1595103	+	ansA
SAHV_1468	1595218	1596204	-	SAHV_1468
SAHV_1469	1596606	1598066	-	ebpS
SAHV_1470	1598219	1599598	-	SAHV_1470
SAHV_1471	1599588	1600541	-	SAHV_1471
SAHV_1472	1600649	1600897	+	fer
SAHV_1473	1601003	1601548	-	SAHV_1473
SAHV_1474	1601950	1602906	-	SAHV_1474
SAHV_1475	1603377	1604273	-	graD
SAHV_1476	1604331	1605236	-	SAHV_1476
SAHV_1477	1605326	1607488	-	SAHV_1477
SAHV_1478	1607481	1608347	-	SAHV_1478
SAHV_1479	1608651	1610417	-	srrB
SAHV_1480	1610383	1611108	-	srrA
SAHV_1481	1611241	1611978	-	rluB
SAHV_1482	1611971	1612513	-	SAHV_1482
SAHV_1483	1612506	1613261	-	SAHV_1483
SAHV_1484	1613329	1613835	+	SAHV_1484
SAHV_1485	1613913	1614800	-	xerD
SAHV_1486	1614849	1615298	-	SAHV_1486
SAHV_1487	1615403	1615945	-	SAHV_1487
SAHV_1488	1616027	1616935	+	SAHV_1488
SAHV_1489	1617151	1617399	-	SAHV_1489
SAHV_1490	1617415	1618170	-	SAHV_1490
SAHV_1491	1618312	1619127	+	SAHV_1491
SAHV_1492	1619230	1620150	-	SAHV_1492
SAHV_1493	1620463	1621947	+	SAHV_1493
SAHV_1494	1622177	1623043	+	graE
SAHV_1495	1623125	1624774	-	malA
SAHV_1496	1624790	1625809	-	malR
SAHV_1497	1626003	1626374	-	SAHV_1497
SAHV_1498	1626841	1628058	-	SAHV_1498
SAHV_1499	1628374	1629780	-	gnd
SAHV_1500	1629848	1630981	-	SAHV_1500
SAHV_1501	1631550	1632530	-	SAHV_1501
SAHV_1502	1632544	1632981	-	SAHV_1502
SAHV_1503	1633332	1634606	-	bmfBB
SAHV_1504	1634619	1635602	-	bfmBAB
SAHV_1505	1635602	1636594	-	bfmBAA
SAHV_1506	1636610	1638031	-	SAHV_1506
SAHV_1507	1638182	1639861	-	recN
SAHV_1508	1639877	1640329	-	ahrC
SAHV_1509	1640761	1641642	-	ispA
SAHV_1510	1641620	1641850	-	SAHV_1510
SAHV_1511	1641843	1643180	-	SAHV_1511
SAHV_1512	1643197	1643586	-	SAHV_1512
SAHV_1513	1643646	1644008	-	SAHV_1513
SAHV_1514	1644023	1645378	-	accC
SAHV_1515	1645378	1645842	-	accB
SAHV_1516	1646316	1646873	-	SAHV_1516
SAHV_1517	1646899	1647960	-	SAHV_1517
SAHV_1518	1648065	1648646	+	SAHV_1518
SAHV_1519	1648660	1648878	+	SAHV_1519
SAHV_1520	1648942	1649772	-	SAHV_1520
SAHV_1521	1649930	1650316	+	SAHV_1521
SAHV_1522	1650681	1652153	-	SAHV_1522
SAHV_1523	1652146	1653492	-	SAHV_1523
SAHV_1524	1653512	1654603	-	SAHV_1524
SAHV_1525	1654762	1655286	-	SAHV_1525
SAHV_1526	1655519	1656016	-	SAHV_1526
SAHV_1527	1655934	1656233	-	SAHV_1527
SAHV_1528	1656220	1656654	-	SAHV_1528
SAHV_1529	1656644	1656955	-	SAHV_1529
SAHV_1530	1656969	1658039	-	SAHV_1530
SAHV_1531	1658011	1658985	-	SAHV_1531
SAHV_1532	1659037	1659660	-	SAHV_1532
SAHV_1533	1659657	1659986	-	SAHV_1533
SAHV_1534	1659986	1660972	-	glcK
SAHV_1535	1660969	1661172	-	SAHV_1535
SAHV_1536	1661153	1662616	-	SAHV_1536
SAHV_1537	1662628	1663167	-	SAHV_1537
SAHV_1538	1663376	1663525	-	rpmG
SAHV_1539	1663638	1665713	-	pbp3
SAHV_1540	1665834	1666433	-	sodA
SAHV_1541	1666709	1667119	-	SAHV_1541
SAHV_1542	1667106	1667969	-	SAHV_1542
SAHV_1543	1668011	1668778	-	SAHV_1543
SAHV_1544	1668922	1669812	-	SAHV_1544
SAHV_1545	1669822	1671168	-	SAHV_1545
SAHV_1546	1671282	1672382	-	SAHV_1546
SAHV_1547	1672385	1673062	-	SAHV_1547
SAHV_1548	1673193	1674299	-	sigA
SAHV_1549	1674523	1676340	-	dnaG
SAHV_1550	1676401	1677219	-	SAHV_1550
SAHV_1551	1677230	1677853	-	SAHV_1551
SAHV_1552	1678188	1679579	+	glyS
SAHV_1553	1679729	1680481	-	SAHV_1553
SAHV_1554	1680503	1681402	-	bex
SAHV_1555	1681403	1681807	-	cdd
SAHV_1556	1681818	1682162	-	SAHV_1556
SAHV_1557	1682165	1682632	-	SAHV_1557
SAHV_1558	1682633	1683580	-	phoH
SAHV_1559	1683884	1684582	-	SAHV_1559
SAHV_1560	1684599	1685588	-	SAHV_1560
SAHV_1561	1685606	1686313	-	SAHV_1561
SAHV_1562	1686533	1686709	-	rpsU
SAHV_1563	1687002	1688348	-	SAHV_1563
SAHV_1564	1688355	1689107	-	SAHV_1564
SAHV_1565	1689109	1690047	-	SAHV_1565
SAHV_1566	1690051	1691190	-	dnaJ
SAHV_1567	1691326	1693158	-	dnaK
SAHV_1568	1693227	1693853	-	grpE
SAHV_1569	1693885	1694862	-	hrcA
SAHV_1570	1694963	1696087	-	hemN
SAHV_1571	1696364	1696522	+	SAHV_1571
SAHV_1572	1696653	1698476	-	lepA
SAHV_1573	1698822	1699073	+	rpsT
SAHV_1574	1699118	1700092	-	SAHV_1574
SAHV_1575	1700149	1702350	-	SAHV_1575
SAHV_1576	1702355	1702816	-	comEB
SAHV_1577	1702908	1703585	-	SAHV_1577
SAHV_1578	1703634	1704350	-	SAHV_1578
SAHV_1579	1704353	1704706	-	SAHV_1579
SAHV_1580	1704707	1705291	-	SAHV_1580
SAHV_1581	1705281	1705850	-	SAHV_1581
SAHV_1582	1705853	1706143	-	SAHV_1582
SAHV_1583	1706147	1706953	-	aroE
SAHV_1584	1706967	1708067	-	SAHV_1584
SAHV_1585	1708068	1708595	-	SAHV_1585
SAHV_1586	1708615	1709301	-	pfs
SAHV_1587	1709615	1709884	+	SAHV_1587
SAHV_1588	1710086	1710274	-	SAHV_1588
SAHV_1589	1710423	1710896	-	SAHV_1589
SAHV_1590	1711603	1712823	-	SAHV_1590
SAHV_1591	1713112	1714341	-	SAHV_1591
SAHV_1592	1714354	1715106	-	SAHV_1592
SAHV_1593	1715106	1716467	-	SAHV_1593
SAHV_1594	1716481	1716930	-	SAHV_1594
SAHV_1595	1716932	1717942	-	SAHV_1595
SAHV_1596	1717932	1718666	-	SAHV_1596
SAHV_1597	1718992	1719468	-	greA
SAHV_1598	1719496	1720119	-	udk
SAHV_1599	1720119	1721387	-	SAHV_1599
SAHV_1600	1721399	1722322	-	SAHV_1600
SAHV_1601	1722325	1722963	-	SAHV_1601
SAHV_1602	1723248	1723556	-	SAHV_1602
SAHV_1603	1723571	1723942	-	SAHV_1603
SAHV_1604	1724003	1724263	-	SAHV_1604
SAHV_1605	1724326	1726956	-	alaS
SAHV_1606	1727299	1729776	-	SAHV_1606
SAHV_1607	1729778	1730446	-	SAHV_1607
SAHV_1608	1731141	1732259	-	SAHV_1608
SAHV_1609	1732260	1733402	-	SAHV_1609
SAHV_1610	1733714	1734733	+	SAHV_1610
SAHV_1611	1734965	1735111	-	SAHV_1611
SAHV_1612	1735151	1735333	-	csbD
SAHV_1613	1735433	1735855	-	SAHV_1613
SAHV_1614	1735940	1737214	+	SAHV_1614
SAHV_1615	1737375	1738148	-	SAHV_1615
SAHV_1616	1738362	1738463	-	SAHV_1616
SAHV_1617	1738609	1740375	-	aspS
SAHV_1618	1740391	1741653	-	hisS
SAHV_1619	1742114	1742989	-	lytH
SAHV_1620	1742986	1743438	-	SAHV_1620
SAHV_1621	1743450	1745639	-	relA
SAHV_1622	1746067	1746585	-	apt
SAHV_1623	1746607	1748880	-	SAHV_1623
SAHV_1624	1749083	1751362	-	secF
SAHV_1625	1751637	1751897	-	SAHV_1625
SAHV_1626	1751916	1753055	-	tgt
SAHV_1627	1753078	1754103	-	queA
SAHV_1628	1754105	1755109	-	ruvB
SAHV_1629	1755141	1755743	-	ruvA
SAHV_1630	1755757	1756215	-	SAHV_1630
SAHV_1631	1756225	1757517	-	obg
SAHV_1632	1757871	1758155	-	rpmA
SAHV_1633	1758167	1758487	-	SAHV_1633
SAHV_1634	1758493	1758801	-	rplU
SAHV_1635	1759037	1759567	-	SAHV_1635
SAHV_1636	1759567	1760409	-	SAHV_1636
SAHV_1637	1760801	1761274	-	SAHV_1637
SAHV_1638	1761434	1761631	+	SAHV_1638
SAHV_1639	1761748	1762032	-	SAHV_1639
SAHV_1640	1762461	1763123	-	SAHV_1640
SAHV_1641	1763482	1763655	-	SAHV_1641
SAHV_1642	1763657	1764388	+	ermA
SAHV_1643	1764514	1765296	-	ant(9)
SAHV_1644	1765447	1765824	-	tnpC
SAHV_1645	1765831	1767723	-	tnpB
SAHV_1646	1767720	1768805	-	tnpA
SAHV_1647	1768924	1769478	-	SAHV_1647
SAHV_1648	1769475	1770182	-	SAHV_1648
SAHV_1649	1770452	1771723	-	folC
SAHV_1650	1771736	1774366	-	valS
SAHV_1651	1774769	1775329	+	tag
SAHV_1652	1775552	1776625	-	SAHV_1652
SAHV_1653	1776659	1776748	-	SAHV_1653
SAHV_1654	1776821	1778107	-	hemL
SAHV_1655	1778155	1779129	-	hemB
SAHV_1656	1779132	1779800	-	hemD
SAHV_1657	1779822	1780748	-	hemC
SAHV_1658	1780790	1781605	-	hemX
SAHV_1659	1781627	1782973	-	hemA
SAHV_1660	1783190	1783780	-	SAHV_1660
SAHV_1661	1783934	1785196	-	clpX
SAHV_1662	1785347	1786648	-	tig
SAHV_1663	1786811	1787740	-	SAHV_1663
SAHV_1664	1787759	1788367	-	SAHV_1664
SAHV_1665	1788509	1788865	-	rplT
SAHV_1666	1788912	1789112	-	rpmI
SAHV_1667	1789141	1789659	-	infC
SAHV_1668	1789897	1791390	-	SAHV_1668
SAHV_1669	1791816	1793753	-	thrS
SAHV_1670	1794166	1795086	-	dnaI
SAHV_1671	1795086	1796486	-	dnaB
SAHV_1672	1796487	1796957	-	SAHV_1672
SAHV_1673	1797168	1798193	-	gapB
SAHV_1674	1798363	1798986	-	SAHV_1674
SAHV_1675	1799002	1799874	-	SAHV_1675
SAHV_1676	1799890	1802520	-	polA
SAHV_1677	1802814	1804301	-	SAHV_1677
SAHV_1678	1804800	1806464	-	phoR
SAHV_1679	1806461	1807165	-	phoP
SAHV_1680	1807555	1808823	-	citC
SAHV_1681	1808872	1809993	-	citZ
SAHV_1682	1810341	1811702	+	aapA
SAHV_1683	1812050	1813807	-	pykA
SAHV_1684	1813829	1814752	-	pfk
SAHV_1685	1815037	1816356	+	tnp
SAHV_1686	1816586	1817530	-	accA
SAHV_1687	1817530	1818387	-	SAHV_1687
SAHV_1688	1818582	1819811	-	SAHV_1688
SAHV_1689	1820261	1823458	-	dnaE
SAHV_1690	1823479	1824420	-	SAHV_1690
SAHV_1691	1824732	1826030	-	SAHV_1691
SAHV_1692	1826235	1826648	+	SAHV_1692
SAHV_1693	1826953	1827642	-	SAHV_1693
SAHV_1694	1827796	1828872	+	SAHV_1694
SAHV_1695	1829188	1830306	-	ald
SAHV_1696	1830447	1830947	+	SAHV_1696
SAHV_1697	1831193	1832395	-	ackA
SAHV_1698	1832483	1833430	-	SAHV_1698
SAHV_1699	1833553	1834047	-	SAHV_1699
SAHV_1700	1834145	1834915	-	SAHV_1700
SAHV_1701	1834959	1836182	-	SAHV_1701
SAHV_1702	1836182	1837321	-	SAHV_1702
SAHV_1703	1837694	1839388	-	SAHV_1703
SAHV_1704	1839525	1839989	+	SAHV_1704
SAHV_1705	1840233	1840835	+	rpsD
SAHV_1706	1841027	1842346	+	tnp
SAHV_1707	1842571	1843314	-	SAHV_1707
SAHV_1708	1843394	1843840	+	SAHV_1708
SAHV_1709	1843955	1845112	+	SAHV_1709
SAHV_1710	1845099	1846703	+	serA
SAHV_1711	1846853	1847983	-	SAHV_1711
SAHV_1712	1848090	1849556	-	ptaA
SAHV_1713	1849684	1850301	-	SAHV_1713
SAHV_1714	1850473	1851747	+	SAHV_1714
SAHV_1715	1851841	1853103	-	tyrS
SAHV_1716	1853485	1854390	+	sgtA
SAHV_1717	1854593	1857268	-	SAHV_1717
SAHV_1718	1857601	1859268	-	fhs
SAHV_1719	1859708	1861414	-	acsA
SAHV_1720	1861583	1862215	+	acuA
SAHV_1721	1862240	1863409	+	acuC
SAHV_1722	1863507	1864451	-	ccpA
SAHV_1723	1865036	1866127	-	SAHV_1723
SAHV_1724	1866821	1868179	-	SAHV_1724
SAHV_1725	1868253	1868744	-	SAHV_1725
SAHV_1726	1868818	1870131	-	murC
SAHV_1727	1870155	1873979	-	SAHV_1727
SAHV_1728	1874000	1874596	-	SAHV_1728
SAHV_1729	1874625	1875482	-	SAHV_1729
SAHV_1730	1875582	1875893	-	SAHV_1730
SAHV_1731	1875958	1877034	-	SAHV_1731
SAHV_1732	1877121	1877432	+	SAHV_1732
SAHV_1733	1877557	1878399	-	SAHV_1733
SAHV_1734	1878870	1879514	-	SAHV_1734
SAHV_1735	1879529	1880320	-	SAHV_1735
SAHV_1736	1880870	1881718	-	SAHV_1736
SAHV_1737	1881722	1883131	-	SAHV_1737
SAHV_1738	1883689	1884111	-	SAHV_1738
SAHV_1739	1884128	1884823	-	SAHV_1739
SAHV_1740	1884820	1886481	-	SAHV_1740
SAHV_1741	1886888	1887790	+	SAHV_1741
SAHV_1742	1887765	1888037	+	SAHV_1742
SAHV_1743	1888154	1888762	-	mrp
SAHV_1744	1888762	1894713	-	mrp
SAHV_1745	1895039	1895350	-	SAHV_1745
SAHV_1746	1895372	1897786	-	leuS
SAHV_1747	1898077	1899258	-	SAHV_1747
SAHV_1748	1899368	1900321	+	SAHV_1748
SAHV_1749	1900318	1900881	+	SAHV_1749
SAHV_1750	1901004	1901465	-	rot
SAHV_1751	1901975	1902802	-	SAHV_1751
SAHV_1752	1903036	1904037	+	SAHV_1752
SAHV_1753	1904159	1904623	-	SAHV_1753
SAHV_1754	1904636	1905817	-	ribA
SAHV_1755	1905828	1906460	-	ribB
SAHV_1756	1906467	1907510	-	ribD
SAHV_1757	1907991	1909493	-	SAHV_1757
SAHV_1758	1910016	1910330	+	SAHV_1758
SAHV_1759	1910330	1911622	+	SAHV_1759
SAHV_1760	1911709	1912563	-	SAHV_1760
SAHV_1761	1912839	1913063	-	SAHV_1761
SAHV_1762	1913262	1913732	+	SAHV_1762
SAHV_1763	1913845	1914288	+	SAHV_1763
SAHV_1764	1914275	1914718	-	SAHV_1764
SAHV_1765	1915014	1915649	+	SAHV_1765
SAHV_1766	1916089	1916802	-	SAHV_1766
SAHV_1767	1917062	1917364	+	SAHV_1767
SAHV_1768	1917542	1917985	+	SAHV_1768
SAHV_1769	1917982	1918335	+	SAHV_1769
SAHV_1770	1918797	1919147	+	SAHV_1770
SAHV_1771	1919323	1919571	+	SAHV_1771
SAHV_1772	1919490	1920269	+	SAHV_1772
SAHV_1773	1920332	1921165	-	SAHV_1773
SAHV_1774	1921377	1922288	-	SAHV_1774
SAHV_1775	1922407	1923603	-	metK
SAHV_1776	1923975	1925567	+	pckA
SAHV_1777	1925691	1925867	+	SAHV_1777
SAHV_1778	1925945	1926715	-	SAHV_1778
SAHV_1779	1926696	1927175	-	SAHV_1779
SAHV_1780	1927235	1927492	+	SAHV_1780
SAHV_1781	1927489	1928490	-	menC
SAHV_1782	1928495	1929973	-	menE
SAHV_1783	1930132	1930614	-	SAHV_1783
SAHV_1784	1930926	1931540	+	SAHV_1784
SAHV_1785	1931621	1932616	+	SAHV_1785
SAHV_1786	1932691	1933317	+	SAHV_1786
SAHV_1787	1933358	1933699	+	SAHV_1787
SAHV_1788	1933800	1934372	+	SAHV_1788
SAHV_1789	1934570	1935139	-	SAHV_1789
SAHV_1790	1935161	1935415	-	SAHV_1790
SAHV_1791	1936170	1936670	-	tnp
SAHV_1792	1937122	1938351	-	SAHV_1792
SAHV_1793	1938344	1939900	-	SAHV_1793
SAHV_1794	1940261	1940980	-	splF
SAHV_1795	1941138	1941857	-	splD
SAHV_1796	1941978	1942697	-	splC
SAHV_1797	1942755	1943477	-	splB
SAHV_1798	1943602	1944309	-	splA
SAHV_1799	1944745	1944963	-	SAHV_1799
SAHV_1800	1945272	1945853	+	SAHV_1800
SAHV_1801	1946326	1946604	-	SAHV_1801
SAHV_1802	1946800	1947273	+	SAHV_1802
SAHV_1803	1947278	1948069	+	SAHV_1803
SAHV_1804	1948439	1949422	-	lukD
SAHV_1805	1949424	1950359	-	lukE
SAHV_1806	1951723	1952511	+	SAHV_1806
SAHV_1807	1953345	1953839	+	SAHV_1807
SAHV_1808	1954174	1954950	+	SAHV_1808
SAHV_1809	1955502	1956278	-	seg
SAHV_1810	1956561	1957337	-	sen
SAHV_1811	1957355	1957765	-	yent2
SAHV_1812	1957725	1958126	-	yent1
SAHV_1813	1958280	1959008	-	sei
SAHV_1814	1959043	1959762	-	sem
SAHV_1815	1960043	1960825	-	seo
SAHV_1816	1962185	1962739	-	SAHV_1816
SAHV_1817	1963062	1964462	-	hemY
SAHV_1818	1964486	1965409	-	hemH
SAHV_1819	1965467	1966504	-	hemE
SAHV_1820	1966767	1967270	+	traP
SAHV_1821	1967394	1968617	-	SAHV_1821
SAHV_1822	1968610	1969350	-	SAHV_1822
SAHV_1823	1969484	1969906	+	hit
SAHV_1824	1970048	1970413	+	SAHV_1824
SAHV_1825	1971148	1971705	+	SAHV_1825
SAHV_1826	1971910	1972872	+	prsA
SAHV_1827	1972993	1973934	-	cbf1
SAHV_1828	1973931	1976867	-	SAHV_1828
SAHV_1829	1976857	1978053	-	SAHV_1829
SAHV_1830	1978981	1979325	-	SAHV_1830
SAHV_1831	1979394	1980518	-	SAHV_1831
SAHV_1832	1980697	1981161	-	SAHV_1832
SAHV_1833	1981517	1982140	-	yhcR
SAHV_1834	1982162	1983274	-	yhcS
SAHV_1835	1983437	1984258	+	SAHV_1835
SAHV_1836	1984711	1986096	-	citG
SAHV_1837	1986292	1986687	-	SAHV_1837
SAHV_1838	1987235	1987387	-	SAHV_1838
SAHV_1839	1987412	1988011	-	SAHV_1839
SAHV_1840	1988170	1988640	-	SAHV_1840
SAHV_1841	1988645	1989772	-	SAHV_1841
SAHV_1842	1989923	1990651	-	SAHV_1842
SAHV_1843	1990638	1991963	-	SAHV_1843
SAHV_1844	1992353	1993414	-	SAHV_1844
SAHV_1845	1993998	1995317	+	tnp
SAHV_1846	2003816	2004262	-	SAHV_1846
SAHV_1847	2004359	2005309	-	SAHV_1847
SAHV_1848	2005315	2005770	-	SAHV_1848
SAHV_1849	2005851	2007140	+	gsaB
SAHV_1850	2007433	2008527	+	SAHV_1850
SAHV_1851	2008717	2010453	-	SAHV_1851
SAHV_1852	2010744	2011286	-	SAHV_1852
SAHV_1853	2011589	2012626	-	SAHV_1853
SAHV_1854	2012778	2013755	+	SAHV_1854
SAHV_1855	2014016	2014852	-	SAHV_1855
SAHV_1856	2014861	2016378	-	SAHV_1856
SAHV_1857	2016393	2016707	-	SAHV_1857
SAHV_1858	2016685	2017503	-	SAHV_1858
SAHV_1859	2017763	2018572	-	sgtB
SAHV_1860	2018912	2019427	-	SAHV_1860
SAHV_1861	2019558	2019719	-	SAHV_1861
SAHV_1862	2019943	2021094	+	SAHV_1862
SAHV_1863	2021354	2021884	-	SAHV_1863
SAHV_1864	2021974	2023221	-	ampS
SAHV_1865	2023233	2023439	-	SAHV_1865
SAHV_1866	2023580	2024044	+	SAHV_1866
SAHV_1867	2024051	2024326	+	SAHV_1867
SAHV_1868	2024604	2025821	+	SAHV_1868
SAHV_1869	2025934	2026563	-	vraR
SAHV_1870	2026553	2027596	-	vraS
SAHV_1871	2027593	2028294	-	SAHV_1871
SAHV_1872	2028309	2028695	-	SAHV_1872
SAHV_1873	2028912	2029670	-	map
SAHV_1874	2030201	2031187	+	SAHV_1874
SAHV_1875	2031618	2032070	-	SAHV_1875
SAHV_1876	2032256	2032987	-	SAHV_1876
SAHV_1877	2032989	2034302	-	SAHV_1877
SAHV_1878	2034594	2035094	+	SAHV_1878
SAHV_1879	2035484	2036038	+	SAHV_1879
SAHV_1880	2036106	2037176	-	SAHV_1880
SAHV_1881	2037423	2037953	-	SAHV_1881
SAHV_1882	2038123	2039484	-	SAHV_1882
SAHV_1883	2039565	2040512	-	SAHV_1883
SAHV_1884	2041280	2042707	-	SAHV_1884
SAHV_1885	2042720	2044177	-	SAHV_1885
SAHV_1886	2044179	2044481	-	SAHV_1886
SAHV_1887	2044848	2046386	+	putP
SAHV_1888	2046475	2047674	-	SAHV_1888
SAHV_1889	2047687	2049690	-	dnlJ
SAHV_1890	2049694	2051886	-	pcrA
SAHV_1891	2051883	2052575	-	pcrB
SAHV_1892	2052747	2053049	-	SAHV_1892
SAHV_1893	2053158	2054453	-	purB
SAHV_1894	2055313	2056479	+	SAHV_1894
SAHV_1895	2056510	2056836	+	SAHV_1895
SAHV_1896	2057282	2057884	-	SAHV_1896
SAHV_1897	2058155	2058976	-	nadE
SAHV_1898	2058969	2060438	-	SAHV_1898
SAHV_1899	2060622	2061698	+	SAHV_1899
SAHV_1900	2061718	2062512	+	SAHV_1900
SAHV_1901	2062702	2064264	-	SAHV_1901
SAHV_1902	2064469	2065566	-	SAHV_1902
SAHV_1903	2065935	2066495	+	SAHV_1903
SAHV_1904	2066548	2067477	+	SAHV_1904
SAHV_1905	2067895	2069274	+	aldH
SAHV_1906	2069394	2070422	-	SAHV_1906
SAHV_1907	2070692	2071093	+	SAHV_1907
SAHV_1908	2071108	2071281	-	SAHV_1908
SAHV_1909	2071666	2071839	-	SAHV_1909
SAHV_1910	2072290	2073330	+	SAHV_1910
SAHV_1911	2073387	2074229	-	SAHV_1911
SAHV_1912	2074226	2074783	-	SAHV_1912
SAHV_1913	2074843	2075367	-	SAHV_1913
SAHV_1914	2075488	2076051	+	SAHV_1914
SAHV_1915	2076117	2076857	-	SAHV_1915
SAHV_1916	2076857	2077729	-	SAHV_1916
SAHV_1917	2077726	2078406	-	SAHV_1917
SAHV_1918	2078407	2079303	-	SAHV_1918
SAHV_1919	2079300	2079680	-	SAHV_1919
SAHV_1920	2079938	2080114	-	SAHV_1920
SAHV_1921	2080655	2081941	+	SAHV_1921
SAHV_1922	2082220	2082540	-	SAHV_1922
SAHV_1923	2082525	2083955	-	SAHV_1923
SAHV_1924	2084301	2084540	+	SAHV_1924
SAHV_1925	2084912	2085091	+	SAHV_1925
SAHV_1926	2085115	2085423	+	SAHV_1926
SAHV_1927	2085714	2086064	-	SAHV_1927
SAHV_1928	2086575	2086871	-	SAHV_1928
SAHV_1929	2086959	2087114	+	SAHV_1929
SAHV_1930	2087561	2088052	-	sak
SAHV_1931	2088267	2088998	-	SAHV_1931
SAHV_1932	2089010	2089264	-	SAHV_1932
SAHV_1933	2089476	2089610	-	SAHV_1933
SAHV_1934	2089761	2090543	-	sep
SAHV_1935	2090627	2090866	+	SAHV_1935
SAHV_1936	2090907	2091281	-	SAHV_1936
SAHV_1937	2091337	2091666	-	SAHV_1937
SAHV_1938	2091670	2091822	-	SAHV_1938
SAHV_1939	2091815	2095597	-	SAHV_1939
SAHV_1940	2095613	2097097	-	SAHV_1940
SAHV_1941	2097094	2101623	-	SAHV_1941
SAHV_1942	2101868	2102218	-	SAHV_1942
SAHV_1943	2102534	2103178	-	SAHV_1943
SAHV_1944	2103179	2103586	-	SAHV_1944
SAHV_1945	2103583	2103987	-	SAHV_1945
SAHV_1946	2103984	2104346	-	SAHV_1946
SAHV_1947	2104330	2104614	-	SAHV_1947
SAHV_1948	2104604	2104888	-	SAHV_1948
SAHV_1949	2104908	2106053	-	SAHV_1949
SAHV_1950	2106077	2106814	-	SAHV_1950
SAHV_1951	2106798	2107985	-	SAHV_1951
SAHV_1952	2108001	2109662	-	SAHV_1952
SAHV_1953	2109659	2110003	-	SAHV_1953
SAHV_1954	2110133	2110432	-	SAHV_1954
SAHV_1955	2110664	2111080	-	SAHV_1955
SAHV_1956	2111108	2111311	-	SAHV_1956
SAHV_1957	2111316	2111468	-	SAHV_1957
SAHV_1958	2111456	2111662	-	SAHV_1958
SAHV_1959	2111679	2111852	-	SAHV_1959
SAHV_1960	2111889	2112458	-	SAHV_1960
SAHV_1961	2112415	2112657	-	SAHV_1961
SAHV_1962	2112647	2112883	-	SAHV_1962
SAHV_1963	2112876	2113241	-	SAHV_1963
SAHV_1964	2113256	2113498	-	SAHV_1964
SAHV_1965	2113502	2113870	-	SAHV_1965
SAHV_1966	2113883	2114299	-	SAHV_1966
SAHV_1967	2114296	2114514	-	SAHV_1967
SAHV_1968	2114521	2115414	-	SAHV_1968
SAHV_1969	2115444	2115914	-	SAHV_1969
SAHV_1970	2115915	2116400	-	SAHV_1970
SAHV_1971	2116613	2117533	-	SAHV_1971
SAHV_1972	2117535	2119478	-	SAHV_1972
SAHV_1973	2119487	2119750	-	SAHV_1973
SAHV_1974	2119759	2120019	-	SAHV_1974
SAHV_1975	2120024	2120326	-	SAHV_1975
SAHV_1976	2120416	2120577	-	SAHV_1976
SAHV_1977	2120574	2120894	-	SAHV_1977
SAHV_1978	2120946	2121581	+	SAHV_1978
SAHV_1979	2121767	2121964	-	SAHV_1979
SAHV_1980	2121980	2122735	-	SAHV_1980
SAHV_1981	2122792	2123331	+	SAHV_1981
SAHV_1982	2123355	2123615	-	SAHV_1982
SAHV_1983	2123629	2123871	-	SAHV_1983
SAHV_1984	2124023	2124751	+	SAHV_1984
SAHV_1985	2124763	2125620	+	SAHV_1985
SAHV_1986	2125665	2125847	+	SAHV_1986
SAHV_1987	2126017	2126481	+	SAHV_1987
SAHV_1988	2126540	2127577	+	int
SAHV_1989	2127589	2128458	+	SAHV_1989
SAHV_1990	2128696	2129712	-	SAHV_1990
SAHV_1991	2129734	2130789	-	SAHV_1991
SAHV_1992	2131225	2132379	+	SAHV_1992
SAHV_1993	2132892	2134199	+	SAHV_1993
SAHV_1994	2135216	2135938	+	sel
SAHV_1995	2136107	2136907	-	sec3
SAHV_1996	2137694	2138254	+	SAHV_1996
SAHV_1997	2139133	2139837	+	tst
SAHV_1998	2139992	2140561	-	SAHV_1998
SAHV_1999	2140558	2140770	-	SAHV_1999
SAHV_2000	2140902	2141429	-	SAHV_2000
SAHV_2001	2141480	2141698	-	SAHV_2001
SAHV_2002	2141716	2142294	-	SAHV_2002
SAHV_2003	2142306	2142647	-	SAHV_2003
SAHV_2004	2143108	2143749	-	SAHV_2004
SAHV_2005	2143746	2144126	-	SAHV_2005
SAHV_2006	2144436	2146145	-	SAHV_2006
SAHV_2007	2146159	2147028	-	SAHV_2007
SAHV_2008	2147093	2147419	-	SAHV_2008
SAHV_2009	2147422	2147631	-	SAHV_2009
SAHV_2010	2147767	2148084	-	SAHV_2010
SAHV_2011	2148089	2148307	-	SAHV_2011
SAHV_2012	2148480	2149154	+	SAHV_2012
SAHV_2013	2149168	2150340	+	int
SAHV_2014	2150409	2152025	-	groEL
SAHV_2015	2152101	2152385	-	groES
SAHV_2016	2152560	2153303	+	SAHV_2016
SAHV_2017	2153328	2154575	-	SAHV_2017
SAHV_2018	2154772	2155398	+	SAHV_2018
SAHV_2019	2155759	2156544	+	SAHV_2019
SAHV_2020	2157144	2157278	-	hld
SAHV_2021	2157514	2158077	+	agrB
SAHV_2022	2158080	2158223	+	agrD
SAHV_2023	2158421	2159536	+	agrC
SAHV_2024	2159555	2160271	+	agrA
SAHV_2025	2160643	2161602	-	SAHV_2025
SAHV_2026	2161599	2163083	-	scrB
SAHV_2027	2163232	2164182	-	scrR
SAHV_2028	2164365	2165615	-	nrgA
SAHV_2029	2165823	2166047	-	SAHV_2029
SAHV_2030	2166107	2167186	-	SAHV_2030
SAHV_2031	2167490	2168125	-	SAHV_2031
SAHV_2032	2168378	2170306	+	vga
SAHV_2033	2170668	2172278	+	SAHV_2033
SAHV_2034	2172593	2173618	-	SAHV_2034
SAHV_2035	2173611	2174075	-	SAHV_2035
SAHV_2036	2174048	2174737	-	SAHV_2036
SAHV_2037	2174691	2175152	-	SAHV_2037
SAHV_2038	2175663	2177351	+	ilvD
SAHV_2039	2177379	2179148	+	ilvB
SAHV_2040	2179148	2179402	+	SAHV_2040
SAHV_2041	2179539	2180543	+	ilvC
SAHV_2042	2180573	2182102	+	leuA
SAHV_2043	2182105	2183151	+	leuB
SAHV_2044	2183165	2184535	+	leuC
SAHV_2045	2184536	2185108	+	leuD
SAHV_2046	2185123	2186391	+	ilvA
SAHV_2047	2193189	2193644	-	SAHV_2047
SAHV_2048	2193637	2195787	-	SAHV_2048
SAHV_2049	2196221	2196991	-	sigB
SAHV_2050	2196966	2197445	-	rsbW
SAHV_2051	2197447	2197773	-	rsbV
SAHV_2052	2197892	2198893	-	rsbU
SAHV_2053	2199242	2199604	-	SAHV_2053
SAHV_2054	2199601	2199771	-	SAHV_2054
SAHV_2055	2199856	2201004	-	alr
SAHV_2056	2201070	2201429	-	dpj
SAHV_2057	2201433	2201924	-	SAHV_2057
SAHV_2058	2201911	2203494	-	SAHV_2058
SAHV_2059	2203487	2203966	-	SAHV_2059
SAHV_2060	2204174	2204734	-	kdpC
SAHV_2061	2204754	2206781	-	kdpB
SAHV_2062	2206800	2208476	-	kdpA
SAHV_2063	2208748	2211405	+	kdpD
SAHV_2064	2211405	2212100	+	kdpE
SAHV_2065	2212484	2213803	-	tnp
SAHV_2066	2213972	2215492	-	SAHV_2066
SAHV_2067	2216009	2217367	-	murF
SAHV_2068	2217382	2218452	-	ddlA
SAHV_2069	2218770	2219972	+	SAHV_2069
SAHV_2070	2220236	2220373	-	SAHV_2070
SAHV_2071	2220501	2220710	-	SAHV_2071
SAHV_2072	2220722	2221015	-	SAHV_2072
SAHV_2073	2221181	2222665	+	SAHV_2073
SAHV_2074	2222693	2223340	+	SAHV_2074
SAHV_2075	2224153	2225025	-	SAHV_2075
SAHV_2076	2225111	2225752	-	thiE
SAHV_2077	2225754	2226545	-	thiM
SAHV_2078	2226529	2227359	-	thiD
SAHV_2079	2227352	2228041	-	SAHV_2079
SAHV_2080	2228428	2229123	-	SAHV_2080
SAHV_2081	2229512	2229907	-	SAHV_2081
SAHV_2082	2230101	2230541	+	SAHV_2082
SAHV_2083	2230600	2231040	-	SAHV_2083
SAHV_2084	2231074	2232339	-	murA
SAHV_2085	2232450	2232683	-	SAHV_2085
SAHV_2086	2233245	2233649	-	atpC
SAHV_2087	2233669	2235081	-	atpD
SAHV_2088	2235103	2235969	-	atpG
SAHV_2089	2236000	2237508	-	atpA
SAHV_2090	2237530	2238069	-	atpH
SAHV_2091	2238069	2238590	-	atpF
SAHV_2092	2238788	2239000	-	atpE
SAHV_2093	2239043	2239771	-	atpB
SAHV_2094	2239792	2240145	-	SAHV_2094
SAHV_2095	2240312	2241442	-	mnaA
SAHV_2096	2241463	2242092	-	upp
SAHV_2097	2242120	2243358	-	glyA
SAHV_2098	2243385	2243909	-	SAHV_2098
SAHV_2099	2244016	2244435	-	SAHV_2099
SAHV_2100	2244432	2245478	-	SAHV_2100
SAHV_2101	2245562	2246398	-	SAHV_2101
SAHV_2102	2246385	2247461	-	prfA
SAHV_2103	2247462	2248061	-	tdk
SAHV_2104	2248408	2248662	-	rpmE
SAHV_2105	2248780	2250096	-	rho
SAHV_2106	2250343	2251770	-	SAHV_2106
SAHV_2107	2252008	2252346	-	SAHV_2107
SAHV_2108	2252432	2253691	-	murZ
SAHV_2109	2254157	2255017	-	fbaA
SAHV_2110	2255235	2255756	+	SAHV_2110
SAHV_2111	2255865	2257475	-	pyrG
SAHV_2112	2257811	2258341	-	rpoE
SAHV_2113	2258453	2259313	-	SAHV_2113
SAHV_2114	2259738	2260541	+	SAHV_2114
SAHV_2115	2260672	2261343	-	SAHV_2115
SAHV_2116	2261742	2262935	-	SAHV_2116
SAHV_2117	2262935	2264119	-	hmrA
SAHV_2118	2264430	2264900	+	luxS
SAHV_2119	2265052	2265402	-	SAHV_2119
SAHV_2120	2265416	2266756	-	pdp
SAHV_2121	2266996	2267658	-	SAHV_2121
SAHV_2122	2267972	2268682	+	deoD
SAHV_2123	2268803	2269246	-	dps
SAHV_2124	2269446	2269859	-	SAHV_2124
SAHV_2125	2270316	2271689	-	SAHV_2125
SAHV_2126	2272361	2272591	-	SAHV_2126
SAHV_2127	2272622	2273560	-	SAHV_2127
SAHV_2128	2273996	2274661	-	SAHV_2128
SAHV_2129	2274813	2275133	+	czrA
SAHV_2130	2275135	2276112	+	czrB
SAHV_2131	2276378	2277469	+	SAHV_2131
SAHV_2132	2278331	2278522	+	SAHV_2132
SAHV_2133	2278439	2278621	-	SAHV_2133
SAHV_2134	2278523	2278693	+	SAHV_2134
SAHV_2135	2278680	2278844	+	SAHV_2135
SAHV_2136	2279502	2280359	-	SAHV_2136
SAHV_2137	2280427	2281209	-	SAHV_2137
SAHV_2138	2281441	2283246	-	glmS
SAHV_2139	2283714	2283869	+	SAHV_2139
SAHV_2140	2283927	2285465	+	mtlF
SAHV_2141	2285500	2287632	+	SAHV_2141
SAHV_2142	2287644	2288078	+	mtlA
SAHV_2143	2288078	2289184	+	mtlD
SAHV_2144	2289503	2296948	-	fmtB
SAHV_2145	2297226	2298581	-	glmM
SAHV_2146	2298608	2299540	-	SAHV_2146
SAHV_2147	2299542	2300351	-	SAHV_2147
SAHV_2148	2300540	2301448	-	arg
SAHV_2149	2307689	2308753	-	SAHV_2149
SAHV_2150	2308901	2310343	-	SAHV_2150
SAHV_2151	2310666	2311139	-	sepA
SAHV_2152	2311238	2311711	-	SAHV_2152
SAHV_2153	2311723	2312361	-	SAHV_2153
SAHV_2154	2312538	2313224	-	SAHV_2154
SAHV_2155	2313240	2314427	-	SAHV_2155
SAHV_2156	2314471	2314986	-	SAHV_2156
SAHV_2157	2315163	2315423	+	SAHV_2157
SAHV_2158	2315492	2316862	-	SAHV_2158
SAHV_2159	2317098	2318066	-	SAHV_2159
SAHV_2160	2318063	2319094	-	SAHV_2160
SAHV_2161	2319106	2320089	-	SAHV_2161
SAHV_2162	2320481	2321551	-	SAHV_2162
SAHV_2163	2321558	2323315	-	SAHV_2163
SAHV_2164	2323302	2324495	-	SAHV_2164
SAHV_2165	2324597	2326573	+	SAHV_2165
SAHV_2166	2326734	2327243	-	asp23
SAHV_2167	2327306	2327545	-	SAHV_2167
SAHV_2168	2327558	2328094	-	SAHV_2168
SAHV_2169	2328269	2329831	-	SAHV_2169
SAHV_2170	2330139	2331146	-	SAHV_2170
SAHV_2171	2331381	2332382	-	SAHV_2171
SAHV_2172	2332660	2333529	-	SAHV_2172
SAHV_2173	2333795	2335207	-	lacG
SAHV_2174	2335225	2336937	-	lacE
SAHV_2175	2336943	2337254	-	lacF
SAHV_2176	2337276	2338256	-	lacD
SAHV_2177	2338260	2339192	-	lacC
SAHV_2178	2339205	2339720	-	lacB
SAHV_2179	2339736	2340164	-	lacA
SAHV_2180	2340531	2341286	-	lacR
SAHV_2181	2341537	2342268	+	SAHV_2181
SAHV_2182	2342317	2342466	+	SAHV_2182
SAHV_2183	2342553	2342756	-	SAHV_2183
SAHV_2184	2342989	2343837	-	SAHV_2184
SAHV_2185	2343907	2344323	-	SAHV_2185
SAHV_2186	2344731	2347160	+	hysA
SAHV_2187	2347220	2348074	-	SAHV_2187
SAHV_2188	2348285	2349100	-	SAHV_2188
SAHV_2189	2349395	2349820	+	SAHV_2189
SAHV_2190	2350204	2350908	-	SAHV_2190
SAHV_2191	2350945	2352609	-	alsS
SAHV_2192	2352961	2353131	+	SAHV_2192
SAHV_2193	2353859	2354875	-	SAHV_2193
SAHV_2194	2355120	2355785	-	SAHV_2194
SAHV_2195	2355749	2356396	-	SAHV_2195
SAHV_2196	2357647	2357970	-	SAHV_2196
SAHV_2197	2358351	2358506	-	SAHV_2197
SAHV_2198	2358484	2358648	-	SAHV_2198
SAHV_2199	2358671	2358997	-	SAHV_2199
SAHV_2200	2359842	2360789	+	SAHV_2200
SAHV_2201	2360967	2361359	-	rpsI
SAHV_2202	2361379	2361816	-	rplM
SAHV_2203	2362056	2362859	-	truA
SAHV_2204	2362864	2363670	-	SAHV_2204
SAHV_2205	2363660	2364520	-	SAHV_2205
SAHV_2206	2364517	2365326	-	SAHV_2206
SAHV_2207	2365864	2366232	-	rplQ
SAHV_2208	2366249	2367193	-	rpoA
SAHV_2209	2367268	2367657	-	rpsK
SAHV_2210	2367681	2368046	-	rpsM
SAHV_2211	2368069	2368182	-	rpmJ
SAHV_2212	2368214	2368432	-	infA
SAHV_2213	2368625	2369272	-	adk
SAHV_2214	2369289	2370581	-	secY
SAHV_2215	2370581	2371021	-	rplO
SAHV_2216	2371038	2371217	-	rpmD
SAHV_2217	2371234	2371734	-	rpsE
SAHV_2218	2371755	2372114	-	rplR
SAHV_2219	2372145	2372681	-	rplF
SAHV_2220	2372706	2373104	-	rpsH
SAHV_2221	2373136	2373321	-	rpsN
SAHV_2222	2373344	2373883	-	rplE
SAHV_2223	2373910	2374227	-	rplX
SAHV_2224	2374263	2374631	-	rplN
SAHV_2225	2374663	2374926	-	rpsQ
SAHV_2226	2374950	2375159	-	rpmC
SAHV_2227	2375149	2375583	-	rplP
SAHV_2228	2375586	2376239	-	rpsC
SAHV_2229	2376263	2376616	-	rplV
SAHV_2230	2376645	2376923	-	rpsS
SAHV_2231	2376990	2377823	-	rplB
SAHV_2232	2377856	2378131	-	rplW
SAHV_2233	2378131	2378754	-	rplD
SAHV_2234	2378781	2379443	-	rplC
SAHV_2235	2379471	2379779	-	rpsJ
SAHV_2236	2380136	2380525	+	SAHV_2236
SAHV_2237	2380716	2382050	-	SAHV_2237
SAHV_2238	2382163	2384298	-	topB
SAHV_2239	2384383	2385360	+	SAHV_2239
SAHV_2240	2385541	2386404	+	SAHV_2240
SAHV_2241	2386688	2386807	+	SAHV_2241
SAHV_2242	2387059	2387967	-	SAHV_2242
SAHV_2243	2388100	2388264	+	SAHV_2243
SAHV_2244	2388509	2388826	+	SAHV_2244
SAHV_2245	2389010	2392177	-	SAHV_2245
SAHV_2246	2392294	2393559	-	fmhB
SAHV_2247	2393948	2394199	+	SAHV_2247
SAHV_2248	2394191	2394955	-	SAHV_2248
SAHV_2249	2395117	2395557	+	SAHV_2249
SAHV_2250	2395550	2396761	+	SAHV_2250
SAHV_2251	2396863	2397213	-	SAHV_2251
SAHV_2252	2397790	2398812	-	moaA
SAHV_2253	2398832	2399431	-	mobA
SAHV_2254	2399438	2399671	-	moaD
SAHV_2255	2399677	2400123	-	moaE
SAHV_2256	2400137	2400622	-	mobB
SAHV_2257	2400619	2401878	-	moeA
SAHV_2258	2401941	2402435	+	moaC
SAHV_2259	2402437	2402943	-	moaB
SAHV_2260	2402974	2403978	-	moeB
SAHV_2261	2404148	2404753	-	modC
SAHV_2262	2404754	2405425	-	modB
SAHV_2263	2405439	2406221	-	modA
SAHV_2264	2406510	2407307	+	narQ
SAHV_2265	2407479	2408249	-	SAHV_2265
SAHV_2266	2408326	2408880	-	SAHV_2266
SAHV_2267	2409001	2409942	-	SAHV_2267
SAHV_2268	2410340	2411248	-	SAHV_2268
SAHV_2269	2411462	2412616	-	SAHV_2269
SAHV_2270	2412663	2412755	-	SAHV_2270
SAHV_2271	2412833	2413738	-	SAHV_2271
SAHV_2272	2413998	2414300	+	ureA
SAHV_2273	2414314	2414724	+	ureB
SAHV_2274	2414721	2416436	+	ureC
SAHV_2275	2416449	2416901	+	ureE
SAHV_2276	2416894	2417583	+	ureF
SAHV_2277	2417596	2418210	+	ureG
SAHV_2278	2418402	2419046	+	ureD
SAHV_2279	2419235	2419582	-	sarR
SAHV_2280	2420010	2420336	-	SAHV_2280
SAHV_2281	2420400	2421143	-	SAHV_2281
SAHV_2282	2421169	2423124	-	SAHV_2282
SAHV_2283	2423734	2424537	+	ssaA
SAHV_2284	2424555	2424683	-	SAHV_2284
SAHV_2285	2424971	2426371	-	SAHV_2285
SAHV_2286	2426466	2427548	-	SAHV_2286
SAHV_2287	2427796	2428218	+	SAHV_2287
SAHV_2288	2428455	2428955	+	SAHV_2288
SAHV_2289	2429316	2430269	+	SAHV_2289
SAHV_2290	2430361	2431485	-	SAHV_2290
SAHV_2291	2431796	2432572	-	SAHV_2291
SAHV_2292	2433055	2433528	-	SAHV_2292
SAHV_2293	2433528	2436482	-	SAHV_2293
SAHV_2294	2437085	2438032	-	SAHV_2294
SAHV_2295	2438165	2438962	-	SAHV_2295
SAHV_2296	2439347	2440039	+	SAHV_2296
SAHV_2297	2440064	2440801	-	SAHV_2297
SAHV_2298	2440850	2441179	+	SAHV_2298
SAHV_2299	2441624	2442496	+	SAHV_2299
SAHV_2300	2442883	2444262	-	SAHV_2300
SAHV_2301	2444542	2444898	+	SAHV_2301
SAHV_2302	2444895	2445080	+	SAHV_2302
SAHV_2303	2445176	2445367	-	SAHV_2303
SAHV_2304	2445378	2446013	-	SAHV_2304
SAHV_2305	2446088	2447005	-	SAHV_2305
SAHV_2306	2447273	2447803	+	SAHV_2306
SAHV_2307	2447869	2449473	-	glvC
SAHV_2308	2449803	2450567	+	SAHV_2308
SAHV_2309	2450625	2451131	-	SAHV_2309
SAHV_2310	2451298	2452677	-	SAHV_2310
SAHV_2311	2452836	2453405	-	SAHV_2311
SAHV_2312	2453892	2454773	-	SAHV_2312
SAHV_2313	2454884	2456005	-	SAHV_2313
SAHV_2314	2456281	2457519	-	hutI
SAHV_2315	2457519	2459180	-	hutU
SAHV_2316	2459340	2460224	+	SAHV_2316
SAHV_2317	2460466	2460885	+	fosB
SAHV_2318	2461141	2462076	-	SAHV_2318
SAHV_2319	2462366	2463625	+	SAHV_2319
SAHV_2320	2463691	2464377	-	SAHV_2320
SAHV_2321	2464551	2465204	+	SAHV_2321
SAHV_2322	2465440	2466459	-	SAHV_2322
SAHV_2323	2466489	2466815	-	SAHV_2323
SAHV_2324	2467033	2468265	-	SAHV_2324
SAHV_2325	2468258	2469157	-	SAHV_2325
SAHV_2326	2469388	2470008	-	SAHV_2326
SAHV_2327	2470000	2470191	+	SAHV_2327
SAHV_2328	2470407	2471015	+	SAHV_2328
SAHV_2329	2471348	2472556	+	SAHV_2329
SAHV_2330	2472604	2473653	-	fni
SAHV_2331	2473684	2474631	-	SAHV_2331
SAHV_2332	2474734	2475219	+	SAHV_2332
SAHV_2333	2475216	2475635	+	SAHV_2333
SAHV_2334	2475743	2476663	-	SAHV_2334
SAHV_2335	2476871	2477509	+	SAHV_2335
SAHV_2336	2477755	2479686	-	SAHV_2336
SAHV_2337	2479699	2480346	-	SAHV_2337
SAHV_2338	2480467	2481021	+	SAHV_2338
SAHV_2339	2481248	2482456	-	tcaB
SAHV_2340	2482725	2484107	-	tcaA
SAHV_2341	2484347	2484802	-	tcaR
SAHV_2342	2484997	2485965	+	SAHV_2342
SAHV_2343	2486196	2486861	-	SAHV_2343
SAHV_2344	2486861	2487916	-	SAHV_2344
SAHV_2345	2488052	2488726	+	SAHV_2345
SAHV_2346	2488719	2490092	+	SAHV_2346
SAHV_2347	2490255	2490698	+	SAHV_2347
SAHV_2348	2490695	2491150	+	SAHV_2348
SAHV_2349	2491216	2492751	-	SAHV_2349
SAHV_2350	2493075	2494673	-	SAHV_2350
SAHV_2351	2494990	2496663	+	SAHV_2351
SAHV_2352	2496817	2497431	-	SAHV_2352
SAHV_2353	2497745	2498260	-	SAHV_2353
SAHV_2354	2498451	2499455	+	SAHV_2354
SAHV_2355	2499501	2499902	-	SAHV_2355
SAHV_2356	2499938	2500933	-	SAHV_2356
SAHV_2357	2501204	2501635	-	SAHV_2357
SAHV_2358	2501842	2503119	-	SAHV_2358
SAHV_2359	2503280	2503903	+	SAHV_2359
SAHV_2360	2503949	2504893	+	SAHV_2360
SAHV_2361	2504978	2506420	-	scrA
SAHV_2362	2506603	2506941	+	SAHV_2362
SAHV_2363	2506985	2508304	-	tnp
SAHV_2364	2508414	2508506	+	SAHV_2364
SAHV_2365	2509994	2512099	+	SAHV_2365
SAHV_2366	2512170	2512592	+	SAHV_2366
SAHV_2367	2512856	2513212	+	SAHV_2367
SAHV_2368	2513530	2514807	-	gltT
SAHV_2369	2514989	2515354	-	SAHV_2369
SAHV_2370	2515751	2516197	+	SAHV_2370
SAHV_2371	2516419	2516841	+	SAHV_2371
SAHV_2372	2516948	2518117	-	narK
SAHV_2373	2518486	2519400	+	SAHV_2373
SAHV_2374	2519379	2520119	+	SAHV_2374
SAHV_2375	2520377	2521030	-	SAHV_2375
SAHV_2376	2521053	2522087	-	SAHV_2376
SAHV_2377	2522111	2522563	-	SAHV_2377
SAHV_2378	2522583	2523260	-	narI
SAHV_2379	2523253	2523828	-	SAHV_2379
SAHV_2380	2523821	2525380	-	narH
SAHV_2381	2525370	2529059	-	narG
SAHV_2382	2529368	2530345	-	nasF
SAHV_2383	2530336	2530650	-	nasE
SAHV_2384	2530654	2533059	-	nasD
SAHV_2385	2533125	2533856	-	SAHV_2385
SAHV_2386	2534086	2534622	-	SAHV_2386
SAHV_2387	2534856	2535680	-	SAHV_2387
SAHV_2388	2535897	2536079	-	SAHV_2388
SAHV_2389	2536163	2536630	-	SAHV_2389
SAHV_2390	2536816	2538363	-	SAHV_2390
SAHV_2391	2538658	2538924	-	SAHV_2391
SAHV_2392	2538924	2539175	-	SAHV_2392
SAHV_2393	2539448	2540047	-	SAHV_2393
SAHV_2394	2540066	2540428	-	SAHV_2394
SAHV_2395	2540683	2541933	+	fmhA
SAHV_2396	2542030	2542761	-	SAHV_2396
SAHV_2397	2542758	2543252	-	SAHV_2397
SAHV_2398	2543458	2544237	-	SAHV_2398
SAHV_2399	2544358	2545797	-	SAHV_2399
SAHV_2400	2546229	2546915	-	SAHV_2400
SAHV_2401	2547242	2548108	-	SAHV_2401
SAHV_2402	2548928	2550208	+	sbi
SAHV_2403	2550744	2551673	+	hlgA
SAHV_2404	2552240	2553187	+	hlgC
SAHV_2405	2553189	2554166	+	hlgB
SAHV_2406	2554218	2554685	-	SAHV_2406
SAHV_2407	2554696	2555388	-	SAHV_2407
SAHV_2408	2555399	2556514	-	SAHV_2408
SAHV_2409	2556492	2557499	-	bioB
SAHV_2410	2557501	2558859	-	bioA
SAHV_2411	2558837	2559523	-	bioD
SAHV_2412	2559976	2561709	-	SAHV_2412
SAHV_2413	2561734	2563497	-	SAHV_2413
SAHV_2414	2564204	2564458	+	SAHV_2414
SAHV_2415	2564441	2564827	-	SAHV_2415
SAHV_2416	2565095	2566237	+	SAHV_2416
SAHV_2417	2566297	2566956	+	SAHV_2417
SAHV_2418	2567138	2568349	+	SAHV_2418
SAHV_2419	2568472	2568945	-	SAHV_2419
SAHV_2420	2569058	2569714	+	SAHV_2420
SAHV_2421	2569777	2570583	-	SAHV_2421
SAHV_2422	2570869	2572278	+	SAHV_2422
SAHV_2423	2572417	2574495	+	SAHV_2423
SAHV_2424	2574636	2576465	-	SAHV_2424
SAHV_2425	2576697	2578193	+	SAHV_2425
SAHV_2426	2578285	2579136	-	SAHV_2426
SAHV_2427	2579458	2580393	-	SAHV_2427
SAHV_2428	2580619	2582019	-	SAHV_2428
SAHV_2429	2582313	2583008	-	opuCD
SAHV_2430	2583008	2583949	-	opuCC
SAHV_2431	2583966	2584601	-	opuCB
SAHV_2432	2584598	2585830	-	opuCA
SAHV_2433	2586494	2587093	-	SAHV_2433
SAHV_2434	2587273	2588910	+	SAHV_2434
SAHV_2435	2589219	2590571	+	SAHV_2435
SAHV_2436	2590633	2591820	-	SAHV_2436
SAHV_2437	2592216	2592992	-	SAHV_2437
SAHV_2438	2592985	2593647	-	SAHV_2438
SAHV_2439	2593895	2594971	-	SAHV_2439
SAHV_2440	2595326	2595592	-	SAHV_2440
SAHV_2441	2595592	2595849	-	SAHV_2441
SAHV_2442	2596208	2596663	+	SAHV_2442
SAHV_2443	2596831	2598408	-	SAHV_2443
SAHV_2444	2598603	2599352	+	SAHV_2444
SAHV_2445	2599501	2599626	-	SAHV_2445
SAHV_2446	2599714	2600907	-	SAHV_2446
SAHV_2447	2600919	2601668	-	SAHV_2447
SAHV_2448	2601661	2602476	-	SAHV_2448
SAHV_2449	2602473	2603342	-	SAHV_2449
SAHV_2450	2603339	2604274	-	SAHV_2450
SAHV_2451	2604287	2605885	-	SAHV_2451
SAHV_2452	2606028	2607329	-	SAHV_2452
SAHV_2453	2607322	2608140	-	SAHV_2453
SAHV_2454	2608151	2608972	-	SAHV_2454
SAHV_2455	2609662	2610429	-	SAHV_2455
SAHV_2456	2610529	2611347	-	SAHV_2456
SAHV_2457	2611582	2613120	+	SAHV_2457
SAHV_2458	2613233	2613655	-	SAHV_2458
SAHV_2459	2614107	2614526	-	SAHV_2459
SAHV_2460	2614553	2614963	-	SAHV_2460
SAHV_2461	2615230	2615742	-	SAHV_2461
SAHV_2462	2615902	2616597	-	SAHV_2462
SAHV_2463	2616886	2617167	+	SAHV_2463
SAHV_2464	2617427	2617618	-	SAHV_2464
SAHV_2465	2618179	2618973	-	SAHV_2465
SAHV_2466	2619509	2619796	-	SAHV_2466
SAHV_2467	2619799	2620125	-	SAHV_2467
SAHV_2468	2620125	2621450	-	SAHV_2468
SAHV_2469	2621437	2622231	-	SAHV_2469
SAHV_2470	2622475	2623248	-	SAHV_2470
SAHV_2471	2623360	2624136	-	SAHV_2471
SAHV_2472	2624440	2625930	-	SAHV_2472
SAHV_2473	2625970	2627301	-	SAHV_2473
SAHV_2474	2627303	2627695	-	SAHV_2474
SAHV_2475	2627884	2629635	+	SAHV_2475
SAHV_2476	2629919	2630185	+	SAHV_2476
SAHV_2477	2630329	2630637	+	SAHV_2477
SAHV_2478	2630745	2630978	-	SAHV_2478
SAHV_2479	2631075	2632151	-	SAHV_2479
SAHV_2481	2632535	2635882	-	SAHV_2481
SAHV_2480	2632535	2633125	-	SAHV_2480
SAHV_2482	2636187	2636546	-	sarH3
SAHV_2483	2636867	2637610	+	sarH2
SAHV_2484	2637821	2638687	-	gtaB
SAHV_2485	2638860	2640179	-	tnp
SAHV_2486	2640388	2643273	-	fnbB
SAHV_2487	2643954	2647070	-	fnb
SAHV_2488	2647205	2647405	-	SAHV_2488
SAHV_2489	2647539	2648897	-	gntP
SAHV_2490	2649014	2650567	-	gntK
SAHV_2491	2650591	2651271	-	gntR
SAHV_2492	2651424	2652188	-	SAHV_2492
SAHV_2493	2652353	2653045	-	SAHV_2493
SAHV_2494	2653276	2653764	-	SAHV_2494
SAHV_2495	2653831	2655654	-	SAHV_2495
SAHV_2496	2656131	2657408	-	SAHV_2496
SAHV_2497	2657955	2658566	+	SAHV_2497
SAHV_2498	2659084	2659779	+	SAHV_2498
SAHV_2499	2659781	2660551	+	SAHV_2499
SAHV_2500	2660924	2662888	+	fbp
SAHV_2501	2663230	2664309	+	SAHV_2501
SAHV_2502	2664414	2665007	-	SAHV_2502
SAHV_2503	2665038	2665997	-	SAHV_2503
SAHV_2504	2666075	2666509	-	SAHV_2504
SAHV_2505	2666735	2667019	+	SAHV_2505
SAHV_2506	2667190	2667996	+	SAHV_2506
SAHV_2507	2668117	2668788	-	SAHV_2507
SAHV_2508	2668995	2670050	+	ddh
SAHV_2509	2670297	2671097	-	SAHV_2509
SAHV_2510	2671417	2672052	+	SAHV_2510
SAHV_2511	2672067	2672789	+	SAHV_2511
SAHV_2512	2672951	2673571	-	srtA
SAHV_2513	2673765	2674256	+	SAHV_2513
SAHV_2514	2674749	2675648	-	SAHV_2514
SAHV_2515	2675662	2676342	-	SAHV_2515
SAHV_2516	2676345	2677388	-	SAHV_2516
SAHV_2517	2677938	2678141	+	SAHV_2517
SAHV_2518	2678333	2679259	+	SAHV_2518
SAHV_2519	2679340	2680308	-	SAHV_2519
SAHV_2520	2680429	2680785	-	SAHV_2520
SAHV_2521	2680827	2681237	-	SAHV_2521
SAHV_2522	2681617	2683683	-	ptsG
SAHV_2523	2683984	2685723	-	SAHV_2523
SAHV_2524	2685774	2686463	-	SAHV_2524
SAHV_2525	2686456	2686851	-	SAHV_2525
SAHV_2526	2687064	2687951	-	SAHV_2526
SAHV_2527	2688109	2688327	+	SAHV_2527
SAHV_2528	2688717	2689148	+	SAHV_2528
SAHV_2529	2689287	2690564	-	mvaA
SAHV_2530	2690819	2691985	+	mvaS
SAHV_2531	2692150	2692671	-	adaB
SAHV_2532	2693080	2695185	+	clpL
SAHV_2533	2695254	2695424	-	SAHV_2533
SAHV_2534	2695437	2697431	-	feoB
SAHV_2535	2697443	2697670	-	SAHV_2535
SAHV_2536	2697886	2700375	-	SAHV_2536
SAHV_2537	2700520	2701068	+	SAHV_2537
SAHV_2538	2701424	2702968	-	rocA
SAHV_2539	2703158	2703757	-	SAHV_2539
SAHV_2540	2703996	2704187	+	SAHV_2540
SAHV_2541	2704427	2706835	+	copA
SAHV_2542	2707373	2707579	+	SAHV_2542
SAHV_2543	2707670	2708668	-	SAHV_2543
SAHV_2544	2708691	2709845	-	SAHV_2544
SAHV_2545	2710273	2711781	-	crtN
SAHV_2546	2711793	2712656	-	crtM
SAHV_2547	2712693	2713820	-	SAHV_2547
SAHV_2548	2713826	2715319	-	SAHV_2548
SAHV_2549	2715312	2715809	-	SAHV_2549
SAHV_2550	2715975	2716742	-	SAHV_2550
SAHV_2551	2717103	2718914	-	SAHV_2551
SAHV_2552	2719427	2719915	-	SAHV_2552
SAHV_2553	2720191	2720892	-	isaA
SAHV_2554	2721500	2722555	-	SAHV_2554
SAHV_2555	2722965	2723534	+	SAHV_2555
SAHV_2556	2723912	2724232	+	SAHV_2556
SAHV_2557	2724452	2724682	+	SAHV_2557
SAHV_2558	2724755	2724913	-	SAHV_2558
SAHV_2559	2724984	2725361	-	SAHV_2559
SAHV_2560	2725378	2726199	-	SAHV_2560
SAHV_2561	2726219	2726518	-	SAHV_2561
SAHV_2562	2726649	2727206	+	SAHV_2562
SAHV_2563	2727199	2727903	+	SAHV_2563
SAHV_2564	2728001	2729011	+	SAHV_2564
SAHV_2565	2729031	2729861	+	SAHV_2565
SAHV_2566	2730008	2730898	-	SAHV_2566
SAHV_2567	2730995	2732335	-	SAHV_2567
SAHV_2568	2732329	2733435	-	SAHV_2568
SAHV_2569	2733768	2734064	-	SAHV_2569
SAHV_2570	2734052	2734420	-	SAHV_2570
SAHV_2571	2734435	2734710	-	SAHV_2571
SAHV_2572	2735054	2735920	-	SAHV_2572
SAHV_2573	2736138	2737202	+	SAHV_2573
SAHV_2574	2737357	2737632	+	SAHV_2574
SAHV_2575	2737818	2738540	-	SAHV_2575
SAHV_2576	2738894	2739343	+	SAHV_2576
SAHV_2577	2739424	2740011	-	SAHV_2577
SAHV_2578	2740154	2741836	+	SAHV_2578
SAHV_2579	2741934	2742569	-	SAHV_2579
SAHV_2580	2742585	2743661	-	SAHV_2580
SAHV_2581	2744004	2744375	-	panD
SAHV_2582	2744389	2745240	-	panC
SAHV_2583	2745233	2746051	-	panB
SAHV_2584	2746124	2746984	+	SAHV_2584
SAHV_2585	2747070	2747774	-	SAHV_2585
SAHV_2586	2748052	2749011	-	SAHV_2586
SAHV_2587	2749697	2751145	+	SAHV_2587
SAHV_2588	2751226	2752599	-	SAHV_2588
SAHV_2589	2752821	2753237	+	SAHV_2589
SAHV_2590	2753360	2754250	+	SAHV_2590
SAHV_2591	2754444	2755940	-	mqo2
SAHV_2592	2756317	2756565	+	SAHV_2592
SAHV_2593	2756625	2758244	-	SAHV_2593
SAHV_2594	2758417	2758860	-	SAHV_2594
SAHV_2595	2759140	2759352	-	SAHV_2595
SAHV_2596	2759630	2761339	-	betA
SAHV_2597	2761600	2763090	-	gbsA
SAHV_2598	2763340	2763906	+	SAHV_2598
SAHV_2599	2764077	2765699	-	cudT
SAHV_2600	2766218	2766754	-	SAHV_2600
SAHV_2601	2766751	2768601	-	nrdD
SAHV_2602	2768791	2770161	-	SAHV_2602
SAHV_2603	2770654	2771259	-	SAHV_2603
SAHV_2604	2771322	2773202	-	SAHV_2604
SAHV_2605	2773596	2774093	-	SAHV_2605
SAHV_2606	2775517	2777517	-	SAHV_2606
SAHV_2607	2777514	2778269	-	SAHV_2607
SAHV_2608	2778377	2779264	-	SAHV_2608
SAHV_2609	2779275	2779940	-	SAHV_2609
SAHV_2610	2779966	2780166	-	SAHV_2610
SAHV_2611	2780364	2781788	+	phoB
SAHV_2612	2782071	2782544	-	SAHV_2612
SAHV_2613	2782771	2783532	-	SAHV_2613
SAHV_2614	2783648	2786281	-	clfB
SAHV_2615	2786631	2787335	-	SAHV_2615
SAHV_2616	2787434	2788402	-	arcC
SAHV_2617	2788392	2789822	-	arcD
SAHV_2618	2789913	2790923	-	arcB
SAHV_2619	2790956	2792191	-	arcA
SAHV_2620	2792538	2792987	-	SAHV_2620
SAHV_2621	2793354	2794883	-	aur
SAHV_2622	2795307	2795834	-	isaB
SAHV_2623	2796092	2796550	+	SAHV_2623
SAHV_2624	2796790	2798664	+	SAHV_2624
SAHV_2625	2798740	2800692	+	SAHV_2625
SAHV_2626	2800706	2801644	+	pmi
SAHV_2627	2801756	2804737	-	SAHV_2627
SAHV_2628	2804948	2806807	+	SAHV_2628
SAHV_2629	2807072	2807632	-	SAHV_2629
SAHV_2630	2807801	2809708	-	SAHV_2630
SAHV_2631	2809949	2811307	-	SAHV_2631
SAHV_2632	2811300	2812808	-	SAHV_2632
SAHV_2633	2812826	2815216	-	SAHV_2633
SAHV_2634	2815206	2816246	-	SAHV_2634
SAHV_2635	2816143	2817711	-	SAHV_2635
SAHV_2636	2817701	2819254	-	SAHV_2636
SAHV_2637	2819265	2820476	-	SAHV_2637
SAHV_2638	2820606	2827421	-	SAHV_2638
SAHV_2639	2827965	2828657	-	SAHV_2639
SAHV_2640	2828977	2829351	+	SAHV_2640
SAHV_2641	2829335	2829640	+	SAHV_2641
SAHV_2642	2829794	2830153	+	SAHV_2642
SAHV_2643	2830238	2830849	-	SAHV_2643
SAHV_2644	2830928	2831404	-	SAHV_2644
SAHV_2645	2831407	2831907	-	SAHV_2645
SAHV_2646	2832142	2832909	-	SAHV_2646
SAHV_2647	2832906	2833598	-	SAHV_2647
SAHV_2648	2833615	2834277	-	SAHV_2648
SAHV_2649	2835126	2835686	-	icaR
SAHV_2650	2835850	2837088	+	icaA
SAHV_2651	2837052	2837357	+	icaD
SAHV_2652	2837354	2838226	+	icaB
SAHV_2653	2838213	2839265	+	icaC
SAHV_2654	2839408	2839518	+	SAHV_2654
SAHV_2655	2839600	2841645	-	lip
SAHV_2656	2842735	2843367	-	hisI
SAHV_2657	2843364	2844122	-	hisF
SAHV_2658	2844119	2844823	-	SAHV_2658
SAHV_2659	2844816	2845394	-	hisH
SAHV_2660	2845391	2845969	-	hisB
SAHV_2661	2845938	2846951	-	SAHV_2661
SAHV_2662	2846967	2848217	-	SAHV_2662
SAHV_2663	2848210	2848824	-	hisG
SAHV_2664	2848842	2849660	-	SAHV_2664
SAHV_2665	2849964	2851088	-	SAHV_2665
SAHV_2666	2851206	2851703	-	SAHV_2666
SAHV_2667	2851750	2852583	-	SAHV_2667
SAHV_2668	2852580	2854187	-	SAHV_2668
SAHV_2669	2854345	2854899	-	SAHV_2669
SAHV_2670	2854928	2855776	-	SAHV_2670
SAHV_2671	2856155	2856670	+	SAHV_2671
SAHV_2672	2856821	2857795	-	drp35
SAHV_2673	2858036	2858992	+	SAHV_2673
SAHV_2674	2859144	2859782	+	pcp
SAHV_2675	2859901	2860668	-	SAHV_2675
SAHV_2676	2860658	2860996	-	SAHV_2676
SAHV_2677	2861163	2861627	+	SAHV_2677
SAHV_2678	2861865	2862683	+	SAHV_2678
SAHV_2679	2862680	2863282	+	SAHV_2679
SAHV_2680	2863696	2864604	-	SAHV_2680
SAHV_2681	2864826	2865401	+	SAHV_2681
SAHV_2682	2865563	2866579	+	SAHV_2682
SAHV_2683	2866816	2867616	+	SAHV_2683
SAHV_2684	2867750	2868262	-	SAHV_2684
SAHV_2685	2868545	2869303	+	vraD
SAHV_2686	2869293	2871173	+	vraE
SAHV_2687	2871265	2871456	+	SAHV_2687
SAHV_2688	2871848	2872048	+	cspB
SAHV_2689	2872166	2872735	-	SAHV_2689
SAHV_2690	2872995	2873390	-	SAHV_2690
SAHV_2691	2873458	2873811	-	SAHV_2691
SAHV_2692	2873999	2874148	+	SAHV_2692
SAHV_2693	2874262	2875101	-	SAHV_2693
SAHV_2694	2875144	2875863	-	gidB
SAHV_2695	2875863	2877740	-	gidA
SAHV_2696	2877807	2879186	-	thdF
SAHV_2697	2879343	2879690	-	rnpA
SAHV_2698	2879817	2879954	-	rpmH
